Short,Long,Shortish
Berm,Bermudagrass,1
Blue,Kentucky Bluegrass,2
Syn,Synthetic Turf,3
Conc,Concrete,4
Grav,Gravel,5
Trak,Track,6
Bea,Sand,7
Bro,Brock shockpad,8
C,Clay,1
S,Sand,2
Sh,Viconic Shockpad,3
N,No Shockpad,4
Br,Brock shockpad,5
1,Replication 1,1
2,Replication 2,2
3,Replication 3,3
