X,Y,Z,Magnitude,Seconds,
-0.0497036264648437,-0.0133117612304688,0.00162805712890446,0.0514811037258206,0.0,
-0.0113963999023437,-0.00134075292968756,-0.0845632026367209,0.0853382141208247,0.00390500000003158,
-0.00421379492187496,-0.0564073911132813,-0.00794874951172098,0.057120333145478,0.00778500000001259,
-0.0377326181640625,-0.0204943662109376,-0.0893516059570327,0.0991336421554449,0.0114859999999908,
-0.0712514414062499,0.00823605371093744,-0.0701979926757836,0.100361141179777,0.0152249999999867,
-0.0257616098632812,-0.0396479794921876,-0.0414675727539091,0.0628902409811059,0.0189329999999472,
-0.0353384165039062,-0.0252827695312501,-0.0486501777343769,0.0652293025392754,0.0226770000000442,
0.00536301171875003,-0.0252827695312501,-0.0725921943359396,0.0770558693959946,0.0265249999999924,
0.0269108266601563,-0.0516189877929688,-0.0366791694335955,0.0688046071323865,0.0302729999999656,
-0.0497036264648437,-0.0276769711914063,0.0231758720703095,0.0614295227419683,0.033994000000007,
-0.0161848032226562,0.0273896669921875,-0.0773805976562532,0.0836653967117706,0.0377419999999802,
-0.0185790048828124,-0.0157059628906251,-0.0151313544921905,0.0286498618063961,0.0414220000000114,
-0.0664630380859375,-0.0133117612304688,-0.0366791694335955,0.0770707460000757,0.045097999999939,
-0.0401268198242187,0.00344765039062495,-0.108505219238284,0.115738630389206,0.0488520000000108,
-0.0137906015624999,-0.0276769711914063,-0.0342849677734396,0.0461698434154953,0.0525629999999637,
-0.00421379492187496,-0.0492247861328126,-0.0342849677734396,0.0601356354642615,0.0562240000000429,
-0.0473094248046875,-0.00852335791015631,-0.0606211860351582,0.0773676773706195,0.0598870000000034,
-0.0257616098632812,-0.0204943662109376,-0.0534385810546905,0.06276433329746,0.0635630000000447,
-0.0497036264648437,-0.0181001645507813,0.0159932670898417,0.055261659699371,0.0672459999999546,
-0.0401268198242187,0.0202070620117187,-0.118082025878909,0.126340222653034,0.0709970000000339,
0.0197282216796875,-0.0372537778320313,-0.0318907661132837,0.0528589411234599,0.0749550000000454,
-0.00421379492187496,-0.00612915625000006,-0.0773805976562532,0.0777372466557664,0.0787410000000364,
-0.0185790048828124,-0.0324653745117188,-0.118082025878909,0.123865026542156,0.0824499999999944,
-0.00181959326171871,-0.0444363828125001,-0.0917458076171904,0.10195683524133,0.0862059999999474,
-0.0736456430664062,0.00584185205078119,-0.0749863959960955,0.105265224849097,0.0899309999999787,
-0.0473094248046875,-0.0492247861328126,-0.000766144531251456,0.0682777285988212,0.0937880000000177,
-0.042521021484375,-0.0588015927734376,-0.13005303417969,0.148927688090938,0.0975399999999809,
-0.00660799658203121,0.00344765039062495,-0.0917458076171904,0.0920480587919953,0.101275999999984,
-0.0281558115234375,-0.0348595761718751,-0.0749863959960955,0.0873550190768071,0.104992000000038,
-0.0377326181640625,-0.0133117612304688,-0.043861774414065,0.0593700995057468,0.108734000000027,
0.000574608398437537,-0.0396479794921876,-0.0103429511718769,0.0409788859239525,0.112475000000018,
-0.0640688364257812,-0.0372537778320313,-0.0103429511718769,0.0748307183090987,0.116159000000039,
-0.0568862314453125,0.0130244570312499,0.0112048637695281,0.0594241430826076,0.120019999999954,
-0.0592804331054687,0.0010534487304687,0.0207816704101536,0.0628264062989117,0.123729000000026,
-0.0161848032226562,-0.0324653745117188,-0.0678037910156277,0.0768980004527633,0.127425000000017,
-0.0185790048828124,-0.0204943662109376,-0.0175255561523464,0.0327466576504021,0.13108299999999,
-0.0497036264648437,-0.00612915625000006,-0.0797747993164091,0.0941914839360065,0.13474599999995,
-0.0856166513671875,-0.0372537778320313,-0.0917458076171904,0.130902055634812,0.138400000000047,
-0.0281558115234375,-0.0204943662109376,-0.0678037910156277,0.0762241618190864,0.142201999999997,
-0.0401268198242187,0.0249954653320312,-0.0103429511718769,0.0483933011409009,0.146169999999984,
-0.0137906015624999,-0.0468305844726563,-0.0271023627929718,0.0558374641479006,0.14991299999997,
-0.03294421484375,-0.00852335791015631,-0.082169000976565,0.088936570898717,0.153660999999943,
-0.0281558115234375,0.0106302553710937,-0.0247081611328142,0.0389389943162777,0.157404000000042,
-0.0664630380859375,-0.00134075292968756,-0.0725921943359396,0.0984314976444941,0.161175999999955,
-0.0305500131835937,-0.0540131894531251,-0.125264630859377,0.139792545168735,0.165018000000032,
-0.0688572397460937,-0.0348595761718751,-0.0486501777343769,0.0912323917801142,0.168773999999985,
-0.0185790048828124,-0.0372537778320313,-0.0893516059570327,0.0985734897033415,0.172498000000019,
-0.00181959326171871,-0.0324653745117188,-0.00555454785156506,0.0329873379292658,0.176250999999979,
-0.0784340463867187,-0.0396479794921876,-0.0654095893554718,0.109554900803471,0.179967000000033,
-0.0449152231445312,-0.0133117612304688,-0.0223139594726582,0.0518892382342185,0.183672000000001,
-0.0233674082031249,-0.0181001645507813,-0.0749863959960955,0.0806015589637079,0.187351000000035,
-0.0113963999023437,0.0130244570312499,-0.0606211860351582,0.0630431805035428,0.191190000000006,
-0.0592804331054687,0.0178128603515624,-0.0223139594726582,0.0657980283171438,0.194902999999954,
-0.0449152231445312,-0.0564073911132813,-0.0486501777343769,0.0869828191996338,0.19858899999997,
-0.0209732065429687,-0.0348595761718751,-0.0606211860351582,0.0730068054354253,0.202271999999994,
-0.0497036264648437,-0.00134075292968756,-0.0510443793945328,0.0712585206831308,0.205922999999984,
-0.0209732065429687,-0.0133117612304688,-0.00555454785156506,0.0254544962941003,0.209597000000031,
-0.00660799658203121,0.022601263671875,-0.0630153876953141,0.0672712555612313,0.213525000000004,
-0.0113963999023437,-0.0276769711914063,-0.0654095893554718,0.0719326563162763,0.217392000000018,
-0.00181959326171871,-0.0204943662109376,-0.108505219238284,0.110438727663687,0.221094999999991,
-0.0257616098632812,0.0106302553710937,-0.11089942089844,0.114347472327165,0.22483299999999,
-0.042521021484375,-0.00373495458984381,-0.0199197578125023,0.0471039691021003,0.228541999999948,
-0.0473094248046875,0.0297838686523437,-0.0390733710937532,0.0682054897781739,0.232325999999944,
-0.03294421484375,-0.0228885678710938,-0.0342849677734396,0.0527699426386519,0.236067000000048,
-0.0353384165039062,-0.0276769711914063,-0.0534385810546905,0.0697889701920885,0.239887999999951,
-0.03294421484375,0.022601263671875,-0.0414675727539091,0.0575820979240729,0.24360999999999,
-0.0401268198242187,-0.0348595761718751,-0.000766144531251456,0.053159558853802,0.247341000000006,
-0.0401268198242187,-0.0181001645507813,-0.0366791694335955,0.0572986831987357,0.251067000000035,
-0.0209732065429687,-0.00134075292968756,-0.0342849677734396,0.0402135801233648,0.254763000000025,
-0.0161848032226562,-0.0300711728515626,-0.0223139594726582,0.0407938240346758,0.258462000000009,
-0.0473094248046875,0.0106302553710937,-0.0294965644531278,0.0567558923737665,0.262305999999967,
-0.0305500131835937,-0.0109175595703126,-0.000766144531251456,0.0324512463540592,0.266018000000031,
-0.0305500131835937,-0.0588015927734376,-0.0797747993164091,0.103706071298571,0.269718000000012,
-0.00900219824218745,0.0106302553710937,-0.134841437500002,0.135559046800696,0.273424999999975,
-0.0233674082031249,0.0297838686523437,-0.0390733710937532,0.0544044384831025,0.277120999999966,
-0.0305500131835937,-0.0181001645507813,-0.0606211860351582,0.0702555866717542,0.280821999999944,
-0.0137906015624999,-0.00134075292968756,-0.0725921943359396,0.0739026724035126,0.284821999999963,
-0.0592804331054687,-0.0133117612304688,-0.0199197578125023,0.0639387948552185,0.288628000000017,
-0.0760398447265624,0.0154186586914062,0.11894393847656,0.142012159768794,0.292400000000043,
-0.0927992563476562,-0.14020444921875,-0.709449835937502,0.729100856720906,0.296165999999971,
0.0795832631835938,0.745650165039062,0.437372759277341,0.868114390480659,0.300031999999987,
-0.169413709472656,-1.1936531796875,-0.527490509765627,1.31596168493926,0.303033000000028,
-0.0185790048828124,0.39609672265625,0.626514690429685,0.741456978148876,0.305974999999989,
-0.449535303710937,-0.0851378110351563,-2.26568091503906,2.31141524718571,0.309000999999967,
0.840939391113281,0.77916898828125,1.95050820849609,2.26246892646857,0.311974999999961,
-0.480659925292969,0.144705548339844,-0.122870429199221,0.5167889335837,0.315007000000037,
-0.080828248046875,-1.58390805029297,-0.721420844238283,1.74233921839769,0.317931000000044,
-0.157442701171875,-0.149781255859375,-0.553826728027346,0.594934175717435,0.320841999999971,
0.400406285644531,2.00978864160156,0.961702922851559,2.26372438457413,0.32390799999996,
-0.53093816015625,0.12794613671875,-0.525096308105471,0.757622383907282,0.326853000000028,
0.239994774414063,-2.66608720068359,-0.197090680664065,2.68411311047049,0.329902999999945,
0.493780150390625,0.381731512695312,0.0399352836914044,0.625405957429215,0.33286899999996,
-0.624312024902344,2.65143468652344,0.0854251152343721,2.7252832608098,0.335790999999972,
-0.341796229003906,-0.743543267578125,-0.0941400092773463,0.823737576093737,0.338806999999974,
0.606307628417969,-2.73073064550781,-0.192302277343753,2.80383290594588,0.34174900000005,
0.129861498046875,1.05929058251953,-0.235397907226565,1.0928736073381,0.344796999999971,
-0.466294715332031,2.40962031884766,0.264990239746091,2.46858677581137,0.347780999999941,
-0.164625306152344,-1.36842990087891,0.030358477050779,1.37863103192045,0.350690999999983,
0.170562926269531,-1.7299543515625,-0.333560175292972,1.77005541180188,0.353716999999961,
0.15859191796875,1.07604999414063,-0.132447235839846,1.09570856372334,0.356687999999963,
-0.246028162597656,1.27716293359375,0.188375786621091,1.31421476658957,0.359752999999955,
-0.236451355957031,-1.03324166845703,0.102184526855467,1.06486584446045,0.362680999999952,
0.04367023828125,-0.824946124023438,-0.393415216796877,0.914996573796956,0.365713000000028,
0.206475951171875,0.685795123535156,0.0471178886718722,0.71775160418478,0.36869200000001,
-0.080828248046875,0.501441595703125,0.24104822314453,0.562210926134274,0.371626999999989,
-0.267575977539062,-0.425114446777344,-0.142024042480472,0.522005771287336,0.374642999999992,
-0.0880108530273437,-0.528065118164063,-0.209061688964846,0.574722079848217,0.377557000000024,
0.23520637109375,0.314693866210938,0.106972930175779,0.407182359912939,0.380607999999938,
0.0101514150390625,0.51101840234375,0.0973961235351535,0.520316118951671,0.383600000000001,
-0.241239759277344,-0.0324653745117188,-0.211455890625002,0.322434823923207,0.386503999999945,
-0.0544920297851562,-0.67650562109375,-0.0725921943359396,0.68256784524328,0.389527000000044,
0.0197282216796875,0.120763531738281,0.0375410820312485,0.127993617687065,0.39249099999995,
-0.0784340463867187,0.575661847167969,0.0159932670898417,0.581200693831002,0.395523000000026,
-0.131106482910156,-0.314981170410156,-0.0414675727539091,0.343688241236333,0.398504000000003,
0.132255699707031,-0.616650579589844,-0.127658832519533,0.643464284116638,0.401539999999954,
-0.00660799658203121,0.669035711914063,0.0375410820312485,0.670120722165239,0.404705000000035,
-0.432775892089844,0.194983783203125,0.0566946953124976,0.478045956957007,0.407742999999982,
-0.0473094248046875,-0.6573520078125,-0.197090680664065,0.687891401498158,0.410742000000027,
0.500962755371094,-0.152175457519531,-0.0630153876953141,0.527344281496128,0.413697999999954,
-0.0880108530273437,0.566085040527344,0.068665703613279,0.576986275583875,0.41668100000004,
-0.617129419921875,0.180618573242187,-0.0462559760742209,0.644679304193746,0.419728999999961,
0.0221224233398438,-0.513699908203125,-0.158783454101565,0.538134911150308,0.422679000000016,
0.433925108886719,-0.209636297363281,-0.0127371528320328,0.482079466848365,0.425709999999981,
-0.176596314453125,0.283569244628906,-0.0223139594726582,0.334806940736274,0.428680999999983,
-0.408833875488281,0.192589581542969,-0.182725470703128,0.487467416664276,0.431654999999978,
0.0460644399414063,-0.137810247558594,-0.13005303417969,0.195006124669509,0.434714999999983,
0.208870152832031,-0.238366717285156,-0.0175255561523464,0.317415465552369,0.437669000000028,
-0.150260096191406,-0.123445037597656,-0.108505219238284,0.22268847392015,0.440740000000005,
-0.0951934580078125,0.142311346679687,-0.0366791694335955,0.175099044290966,0.443707000000018,
-0.0664630380859375,0.266809833007812,0.0375410820312485,0.277514243348601,0.446687999999995,
0.000574608398437537,-0.137810247558594,-0.0893516059570327,0.164242820220773,0.449748,
0.0915542714843751,-0.429902850097656,-0.122870429199221,0.456394333357376,0.452709000000027,
-0.0137906015624999,0.0465432802734375,-0.0606211860351582,0.077661997311276,0.455730000000017,
-0.231662952636719,0.455951764160156,0.00162805712890446,0.511431701632912,0.458700000000022,
-0.0544920297851562,-0.0707726010742188,-0.13005303417969,0.157771778440444,0.461697999999956,
0.208870152832031,-0.422720245117188,-0.0869574042968768,0.479458795453855,0.464657999999986,
0.103525279785156,-0.195271087402344,-0.0678037910156277,0.231183120504027,0.467571000000021,
-0.159836902832031,0.353001092773437,-0.0414675727539091,0.389714211437404,0.470641999999998,
-0.226874549316406,0.132734540039062,-0.0725921943359396,0.2726905680903,0.473596000000043,
0.0580354482421875,-0.298221758789063,-0.125264630859377,0.328626776773058,0.476598999999965,
0.180139732910156,-0.128233440917969,-0.0630153876953141,0.229924069703447,0.479589000000033,
-0.138289087890625,0.216531598144531,0.0112048637695281,0.257167948618679,0.482550999999944,
-0.250816565917969,0.0537258852539062,-0.00316034619140915,0.256525648373117,0.485589000000004,
0.053247044921875,-0.17851167578125,-0.0893516059570327,0.206604394121333,0.48854700000004,
0.17774553125,-0.137810247558594,-0.0199197578125023,0.22579179560563,0.491591999999969,
-0.111952869628906,0.113580926757812,-0.0247081611328142,0.161383286519626,0.494573999999943,
-0.176596314453125,0.221320001464844,-0.0294965644531278,0.284673231339659,0.497518000000014,
0.0460644399414063,-0.164146465820313,-0.0749863959960955,0.186249709940439,0.500557999999955,
0.110707884765625,-0.326952178710938,0.0159932670898417,0.345557155193341,0.503515999999991,
-0.0927992563476562,0.178224371582031,-0.0749863959960955,0.214472814568586,0.506535999999983,
-0.22448034765625,0.288357647949219,-0.0271023627929718,0.366437030993919,0.509494000000018,
-0.0568862314453125,-0.118656634277344,-0.0606211860351582,0.144880531412562,0.512410000000045,
0.251965782714844,-0.403566631835938,-0.0462559760742209,0.478008783719594,0.515447999999992,
-0.0233674082031249,0.118369330078125,-0.0654095893554718,0.137243391275963,0.518381999999974,
-0.351373035644531,0.400885125976562,-0.0630153876953141,0.536789375354699,0.521416000000045,
-0.0353384165039062,-0.116262432617188,-0.0869574042968768,0.149423381975915,0.524344000000042,
0.290273009277344,-0.453844866699219,-0.043861774414065,0.540515900042642,0.527294999999981,
-0.0233674082031249,0.0944273134765624,-0.0606211860351582,0.114618853130023,0.530312999999978,
-0.341796229003906,0.417644537597656,0.0375410820312485,0.540981473607487,0.533278999999993,
-0.0449152231445312,-0.144992852539063,-0.0318907661132837,0.155104240821551,0.53631699999994,
0.263936791015625,-0.386807220214844,-0.120476227539065,0.483525569814053,0.539382000000046,
-0.0137906015624999,0.0776679018554687,-0.0797747993164091,0.112189581851702,0.542407000000026,
-0.2436339609375,0.233291009765625,-0.0486501777343769,0.340806458203401,0.54553199999998,
-0.042521021484375,-0.0995030209960938,-0.0318907661132837,0.112809172582357,0.548495000000003,
0.141832506347656,-0.214424700683594,-0.0773805976562532,0.268481226557362,0.55151699999999,
0.0173340200195313,0.0010534487304687,-0.0271023627929718,0.0321887569382091,0.554496999999969,
-0.171807911132812,0.159070758300781,-0.0678037910156277,0.243759755805377,0.557506999999987,
-0.0688572397460937,-0.0899262143554688,-0.0773805976562532,0.13717069799121,0.560477999999989,
0.00775721337890628,-0.185694280761719,-0.0893516059570327,0.206218936458607,0.563413999999966,
-0.0233674082031249,0.0393606752929687,-0.0318907661132837,0.055788166208813,0.566455000000019,
-0.0113963999023437,0.101609918457031,0.0279642753906231,0.106002142231661,0.569438999999988,
-0.0233674082031249,-0.0803494077148438,-0.043861774414065,0.0944770783894591,0.572413999999981,
-0.0880108530273437,-0.0947146176757813,-0.0773805976562532,0.15068021086297,0.575379999999996,
-0.0137906015624999,0.0537258852539062,-0.0271023627929718,0.061734832199767,0.578326999999945,
-0.0161848032226562,0.0441490786132812,-0.0725921943359396,0.086491130621958,0.581389999999942,
-0.0736456430664062,-0.142598650878906,-0.0941400092773463,0.186065572640098,0.58432700000003,
-0.104770264648437,-0.0875320126953126,-0.0606211860351582,0.149377340307375,0.587347000000022,
-0.0209732065429687,0.0561200869140625,-0.0462559760742209,0.0756898597601743,0.590310000000045,
-0.00421379492187496,0.0273896669921875,-0.0318907661132837,0.0422489158308081,0.593250000000012,
-0.0353384165039062,-0.0923204160156251,-0.0797747993164091,0.127027089631602,0.59625200000005,
-0.0497036264648437,-0.0899262143554688,-0.0678037910156277,0.123103731008257,0.599184000000037,
-0.0497036264648437,0.118369330078125,-0.0294965644531278,0.131726216454578,0.602209000000016,
-0.0233674082031249,-0.00852335791015631,0.0255700737304672,0.0356722870976564,0.60516199999995,
0.00775721337890628,-0.0995030209960938,-0.0654095893554718,0.119329124384646,0.608098000000041,
-0.0353384165039062,-0.0731668027343751,-0.0199197578125023,0.0836599154594556,0.611113000000046,
-0.0544920297851562,0.118369330078125,-0.0366791694335955,0.135373708982169,0.614052000000015,
-0.00660799658203121,0.0273896669921875,0.0207816704101536,0.035010531298558,0.617106000000035,
-0.0832224497070312,-0.156963860839844,-0.043861774414065,0.18299586060821,0.620034000000032,
-0.00181959326171871,-0.0420421811523438,-0.0199197578125023,0.0465580569503639,0.622960000000035,
-0.0544920297851562,0.0609084902343749,-0.0175255561523464,0.083584511790082,0.625983000000019,
-0.0473094248046875,0.0106302553710937,-0.043861774414065,0.065383784376215,0.628928999999971,
-0.0353384165039062,-0.0803494077148438,-0.0725921943359396,0.113905476951886,0.631923000000029,
-0.0401268198242187,-0.0683783994140626,-0.0845632026367209,0.115916790914058,0.634864999999991,
-0.0497036264648437,0.0680910952148437,0.00162805712890446,0.0843178409432345,0.637796999999978,
-0.0544920297851562,0.0273896669921875,-0.0151313544921905,0.0628373539928092,0.64082099999996,
-0.0473094248046875,-0.0827436093750001,-0.0558327827148464,0.110462600881186,0.64374799999996,
-0.00421379492187496,-0.0540131894531251,-0.0701979926757836,0.0886732139839996,0.646753999999987,
-0.0377326181640625,0.0561200869140625,-0.0989284125976582,0.119833407061008,0.64970500000004,
-0.0904050546875,-0.00134075292968756,-0.0845632026367209,0.123797442508508,0.652692999999999,
-0.061674634765625,-0.0396479794921876,-0.0486501777343769,0.0879918328305111,0.655629999999974,
-0.0113963999023437,-0.0300711728515626,-0.0390733710937532,0.0506051548365662,0.658551999999986,
-0.0473094248046875,-0.00134075292968756,-0.113293622558595,0.1227820190672,0.661565999999993,
-0.0473094248046875,-0.0252827695312501,0.00641646044921629,0.0540238010067511,0.66450199999997,
-0.061674634765625,-0.0300711728515626,-0.144418244140628,0.159889540779889,0.667483999999945,
0.0293050283203126,-0.0348595761718751,-0.043861774414065,0.0632283954445106,0.670443999999975,
-0.0664630380859375,0.0154186586914062,0.0112048637695281,0.0691420236871075,0.673396000000025,
-0.102376062988281,-0.00612915625000006,-0.0630153876953141,0.120371773749946,0.676478999999972,
-0.0401268198242187,-0.0588015927734376,-0.082169000976565,0.108717678890718,0.679503999999952,
-0.0401268198242187,-0.0228885678710938,-0.0917458076171904,0.102719722661841,0.682613999999944,
-0.0544920297851562,0.0010534487304687,0.0159932670898417,0.0568003138771353,0.685654,
-0.0736456430664062,-0.0109175595703126,-0.0462559760742209,0.0876498098812241,0.688577000000009,
-0.0185790048828124,-0.0396479794921876,-0.0630153876953141,0.0767338307830336,0.691587000000027,
-0.0473094248046875,-0.0157059628906251,-0.103716815917972,0.115074049419643,0.694520000000011,
-0.0712514414062499,0.00344765039062495,-0.0701979926757836,0.100082028213829,0.69756499999994,
-0.0377326181640625,-0.0181001645507813,-0.0630153876953141,0.0756459220095244,0.700500000000034,
-0.0473094248046875,-0.0181001645507813,-0.0678037910156277,0.084635404578738,0.703420000000051,
-0.0401268198242187,-0.00612915625000006,-0.0223139594726582,0.0463210644619666,0.70642799999996,
-0.0281558115234375,0.0489374819335937,-0.043861774414065,0.0714946299752259,0.709374000000025,
-0.0449152231445312,-0.0324653745117188,-0.0989284125976582,0.113394041428118,0.712377999999944,
0.014939818359375,-0.0444363828125001,-0.0701979926757836,0.0844129638490412,0.715322000000015,
-0.0568862314453125,-0.0276769711914063,-0.0845632026367209,0.105607733156993,0.718273999999951,
-0.0449152231445312,-0.0157059628906251,-0.115687824218753,0.125090875817998,0.72129700000005,
-0.0568862314453125,-0.00852335791015631,-0.0582269843750023,0.0818478629380208,0.724232000000029,
-0.0281558115234375,-0.0492247861328126,-0.122870429199221,0.13532542874111,0.727234999999951,
-0.0497036264648437,-0.0348595761718751,-0.0127371528320328,0.0620312469397967,0.730167000000051,
-0.0185790048828124,0.00823605371093744,-0.0773805976562532,0.0800048054606968,0.733095000000048,
-0.0113963999023437,0.00584185205078119,-0.0199197578125023,0.0236812566690643,0.736119000000031,
-0.00660799658203121,-0.0300711728515626,-0.0414675727539091,0.0516478522844603,0.739035999999942,
-0.0233674082031249,-0.0109175595703126,-0.0630153876953141,0.0680894115079102,0.742046999999957,
-0.0401268198242187,0.0130244570312499,-0.0510443793945328,0.0662218001713725,0.744979999999941,
-0.0353384165039062,-0.00373495458984381,-0.0414675727539091,0.054610559023805,0.747991999999954,
-0.0137906015624999,0.0202070620117187,-0.0701979926757836,0.0743388473297134,0.750932000000034,
-0.0592804331054687,-0.00373495458984381,-0.0797747993164091,0.0994592290385035,0.753847999999948,
-0.0640688364257812,-0.0276769711914063,-0.0749863959960955,0.102439202065258,0.756850999999983,
-0.0137906015624999,0.0130244570312499,-0.0294965644531278,0.0350694238183638,0.759804000000031,
-0.0233674082031249,-0.0300711728515626,-0.113293622558595,0.119523035918812,0.762785000000008,
-0.061674634765625,-0.0228885678710938,-0.0223139594726582,0.0694662500787997,0.765725999999972,
-0.0257616098632812,-0.0444363828125001,-0.0606211860351582,0.0794555275390971,0.768628000000035,
-0.0449152231445312,-0.0348595761718751,-0.0701979926757836,0.0903345199617243,0.77165500000001,
-0.00900219824218745,-0.0109175595703126,-0.142024042480472,0.142727226984405,0.774595999999974,
-0.0113963999023437,0.0202070620117187,-0.0223139594726582,0.0321887569382078,0.777634000000035,
-0.0497036264648437,-0.00852335791015631,-0.0414675727539091,0.0652890320338882,0.780562000000032,
0.00296881005859378,-0.0300711728515626,-0.113293622558595,0.117254143561249,0.783499000000006,
-0.0497036264648437,-0.0348595761718751,-0.0630153876953141,0.0875018835284717,0.786500000000046,
-0.00900219824218745,-0.0300711728515626,-0.0749863959960955,0.0812912947020986,0.789427000000046,
-0.00421379492187496,-0.0228885678710938,-0.0366791694335955,0.0434396601871112,0.792434999999955,
0.0101514150390625,-0.0420421811523438,-0.0893516059570327,0.0992688556922192,0.795382000000018,
-0.0113963999023437,-0.0372537778320313,-0.0630153876953141,0.0740854977703682,0.798292999999944,
-0.042521021484375,-0.0157059628906251,-0.0366791694335955,0.058310170714334,0.801292999999987,
-0.0257616098632812,-0.0300711728515626,-0.115687824218753,0.122276770696178,0.804215999999997,
-0.042521021484375,-0.0109175595703126,-0.0773805976562532,0.0889662141977781,0.807223000000022,
-0.042521021484375,-0.00134075292968756,-0.120476227539065,0.127766804329363,0.810143000000039,
-0.0760398447265624,0.0130244570312499,-0.0318907661132837,0.0834788322288397,0.813090999999986,
-0.0377326181640625,-0.0252827695312501,-0.0582269843750023,0.0738468050635368,0.816197999999986,
0.0101514150390625,-0.00612915625000006,-0.0582269843750023,0.0594222138012291,0.819250000000011,
-0.0233674082031249,-0.0300711728515626,-0.0414675727539091,0.0563016055978936,0.822359000000006,
-0.00900219824218745,-0.0396479794921876,0.0231758720703095,0.0467987488852418,0.82533699999999,
-0.042521021484375,-0.00612915625000006,-0.0797747993164091,0.0906069667872451,0.82823899999994,
-0.0592804331054687,-0.00612915625000006,-0.0247081611328142,0.0645153433849187,0.831242999999972,
-0.0497036264648437,-0.0468305844726563,-0.00794874951172098,0.0687512672218294,0.834159,
-0.0113963999023437,-0.0540131894531251,-0.103716815917972,0.117492469842947,0.837196999999946,
-0.052097828125,0.00823605371093744,-0.0127371528320328,0.0542609559290845,0.840134000000035,
-0.0401268198242187,0.0273896669921875,-0.0199197578125023,0.0525085924250211,0.843156000000022,
-0.03294421484375,-0.0276769711914063,-0.0510443793945328,0.0667597535478831,0.846100999999976,
-0.0592804331054687,-0.0204943662109376,-0.0797747993164091,0.101480083767867,0.849014000000011,
-0.0185790048828124,-0.0276769711914063,0.00402225878906037,0.0335763714914473,0.852044999999976,
-0.0281558115234375,-0.0109175595703126,-0.043861774414065,0.0532522120128825,0.85498599999994,
0.00296881005859378,-0.0683783994140626,-0.0199197578125023,0.0712826492977206,0.858022000000005,
-0.0401268198242187,-0.0133117612304688,0.0279642753906231,0.0506889076069403,0.860981000000038,
-0.0305500131835937,-0.0468305844726563,-0.000766144531251456,0.0559195308010637,0.86387400000001,
-0.0568862314453125,0.00584185205078119,0.0135990654296858,0.058780142429172,0.866950999999972,
-0.0832224497070312,-0.0540131894531251,-0.0223139594726582,0.101692249249812,0.869862000000012,
-0.0473094248046875,0.0297838686523437,-0.043861774414065,0.0710571302685436,0.872893999999974,
-0.00181959326171871,-0.0109175595703126,-0.0199197578125023,0.0227881718862695,0.875810000000001,
-0.0568862314453125,-0.0276769711914063,-0.000766144531251456,0.0632664606234801,0.878732000000014,
-0.00900219824218745,-0.0348595761718751,-0.00555454785156506,0.0364291452810758,0.881730999999945,
-0.0233674082031249,-0.0204943662109376,-0.0271023627929718,0.0412382453734559,0.884671000000026,
0.000574608398437537,-0.0444363828125001,-0.0773805976562532,0.0892338455178837,0.887700999999993,
-0.00660799658203121,-0.00852335791015631,-0.0893516059570327,0.090000126310987,0.89063299999998,
0.00296881005859378,-0.00612915625000006,-0.0342849677734396,0.0349548194778161,0.893575999999939,
-0.00900219824218745,-0.0516189877929688,-0.108505219238284,0.120494572806871,0.896588999999949,
-0.0113963999023437,-0.0109175595703126,-0.0725921943359396,0.0742879378917754,0.899508999999966,
-0.0209732065429687,-0.0181001645507813,-0.0654095893554718,0.0710345389871071,0.902521999999976,
-0.0832224497070312,-0.0516189877929688,-0.0486501777343769,0.10934960370114,0.905439999999999,
-0.0353384165039062,-0.0204943662109376,-0.0366791694335955,0.0549015864773503,0.908354000000031,
-0.0305500131835937,-0.0635899960937501,-0.0486501777343769,0.0856961533693745,0.911364000000049,
-0.0233674082031249,-0.0228885678710938,-0.108505219238284,0.113328305851932,0.914301000000023,
-0.0209732065429687,-0.00852335791015631,-0.0654095893554718,0.0692165977378988,0.917296999999962,
-0.0640688364257812,-0.0157059628906251,-0.0366791694335955,0.0754775101710013,0.920230999999944,
-0.0113963999023437,-0.0133117612304688,-0.0534385810546905,0.0562384464839657,0.923134000000005,
-0.0377326181640625,-0.0588015927734376,0.0088106621093722,0.0704202069935445,0.926155999999992,
-0.0233674082031249,-0.00852335791015631,-0.0725921943359396,0.0767353248165596,0.929075000000012,
-0.0664630380859375,-0.0276769711914063,-0.0199197578125023,0.0747003809712605,0.932083000000034,
-0.0161848032226562,-0.0659841977539063,-0.0199197578125023,0.070800133897412,0.935005000000046,
-0.0257616098632812,-0.00373495458984381,-0.0486501777343769,0.0551765368804763,0.938004999999976,
-0.0161848032226562,-0.0109175595703126,-0.0582269843750023,0.0614127240214452,0.940924999999993,
-0.0568862314453125,-0.0109175595703126,-0.0510443793945328,0.0772059913659166,0.943843000000015,
-0.0401268198242187,0.00823605371093744,-0.0845632026367209,0.0939623833782109,0.94686200000001,
-0.00660799658203121,-0.0588015927734376,-0.0725921943359396,0.0936531879330764,0.949790000000007,
-0.042521021484375,-0.00852335791015631,-0.0965342109375023,0.105827873357946,0.952820999999972,
-0.0449152231445312,-0.0468305844726563,-0.0534385810546905,0.0840604714316566,0.955866000000015,
-0.0233674082031249,0.00584185205078119,-0.0941400092773463,0.0971725493555332,0.958889999999997,
-0.0305500131835937,0.00344765039062495,-0.0893516059570327,0.0944928520356676,0.96202500000004,
-0.0161848032226562,-0.0468305844726563,-0.0462559760742209,0.0677839717041249,0.964948000000049,
-0.0544920297851562,-0.0420421811523438,-0.0247081611328142,0.0731260523528924,0.967954999999961,
-0.0281558115234375,-0.00373495458984381,-0.0558327827148464,0.0626418329394565,0.970867999999996,
-0.0401268198242187,-0.0324653745117188,-0.0606211860351582,0.0796184049557684,0.973802999999975,
-0.042521021484375,-0.0181001645507813,-0.0654095893554718,0.0800878742662801,0.976827999999955,
-0.0544920297851562,0.0154186586914062,-0.0318907661132837,0.06499336357845,0.97978599999999,
-0.03294421484375,-0.0276769711914063,-0.0654095893554718,0.0782927225586934,0.98277900000005,
-0.0497036264648437,-0.0348595761718751,-0.082169000976565,0.102163522140372,0.98571400000003,
-0.0233674082031249,-0.00373495458984381,-0.000766144531251456,0.0236764150445635,0.98864500000002,
-0.0473094248046875,-0.0468305844726563,-0.0558327827148464,0.0868825928657992,0.991663000000017,
-0.0640688364257812,-0.0133117612304688,-0.0127371528320328,0.066665237195086,0.994616999999948,
-0.0257616098632812,-0.0468305844726563,-0.0414675727539091,0.0676485312102136,0.997664999999984,
-0.0377326181640625,-0.0348595761718751,-0.0318907661132837,0.0604645473619861,1.00059199999998,
-0.03294421484375,-0.0300711728515626,-0.0271023627929718,0.0521932447477791,1.003513,
-0.0233674082031249,-0.0444363828125001,-0.0678037910156277,0.0843681335557534,1.00651700000003,
-0.0233674082031249,0.0010534487304687,-0.0127371528320328,0.0266341994928655,1.00947599999995,
