X,Y,Z,Magnitude,Seconds,
-0.0568862314453125,0.673824115234375,-0.0486501777343769,0.677968894119062,0.0,
-0.0664630380859375,0.652276300292969,-0.0678037910156277,0.659150257097414,0.0039520000000266,
-0.0209732065429687,0.66424730859375,-0.120476227539065,0.675410159657655,0.00774499999999989,
-0.0281558115234375,0.688189325195312,-0.0630153876953141,0.691641696344078,0.0115240000000085,
-0.0592804331054687,0.671429913574219,-0.0366791694335955,0.675039006326148,0.0153170000000955,
-0.0544920297851562,0.659458905273438,-0.0678037910156277,0.665171243463394,0.0190989999999829,
-0.0688572397460937,0.659458905273438,-0.0390733710937532,0.664194320615979,0.0228540000000521,
-0.0401268198242187,0.669035711914063,-0.0462559760742209,0.671832241566405,0.0266530000000103,
-0.0257616098632812,0.678612518554687,0.00402225878906037,0.679113237573566,0.0304350000000113,
-0.0473094248046875,0.695371930175781,-0.115687824218753,0.706515375362922,0.0341730000000098,
-0.03294421484375,0.66424730859375,-0.0725921943359396,0.66901377784334,0.0379110000000082,
-0.0449152231445312,0.669035711914063,-0.0749863959960955,0.674721513419398,0.0416510000000017,
-0.0568862314453125,0.671429913574219,-0.00555454785156506,0.673858312386341,0.0453870000000052,
-0.0233674082031249,0.676218316894531,-0.0151313544921905,0.676791109396816,0.0491950000000543,
-0.0353384165039062,0.649882098632813,-0.043861774414065,0.652318481310427,0.0531170000000429,
-0.0664630380859375,0.707342938476562,-0.0414675727539091,0.711667708719717,0.0570490000000063,
-0.0257616098632812,0.66424730859375,-0.0654095893554718,0.667957006023921,0.0608010000000831,
-0.0760398447265624,0.654670501953125,-0.0247081611328142,0.659534697601393,0.0645800000000918,
-0.0497036264648437,0.719313946777344,-0.122870429199221,0.731423370479613,0.0683730000000651,
-0.0305500131835937,0.640305291992187,-0.113293622558595,0.650968213641164,0.0721480000000838,
-0.0377326181640625,0.642699493652344,-0.134841437500002,0.657775495805036,0.0760579999999891,
-0.0497036264648437,0.666641510253906,-0.0725921943359396,0.67242172805158,0.0798220000000356,
-0.0497036264648437,0.613969073730469,-0.101322614257814,0.624255353314046,0.083562000000029,
-0.0449152231445312,0.700160333496094,-0.0342849677734396,0.702436708100246,0.0873450000000275,
-0.0209732065429687,0.633122687011719,-0.0989284125976582,0.641148222348565,0.0910949999999957,
-0.0185790048828124,0.66424730859375,-0.0510443793945328,0.666464699038328,0.0948380000000952,
-0.0377326181640625,0.688189325195312,-0.0773805976562532,0.693553209696223,0.0986690000000863,
0.000574608398437537,0.652276300292969,-0.0654095893554718,0.655547951318854,0.102456000000075,
-0.0137906015624999,0.621151678710937,-0.0510443793945328,0.623398040841198,0.106199000000061,
-0.0688572397460937,0.683400921875,-0.0366791694335955,0.687839734934955,0.109943000000044,
-0.0880108530273437,0.771986383300781,-0.0989284125976582,0.783259674100176,0.11367800000005,
-0.0209732065429687,0.633122687011719,-0.0558327827148464,0.635925712506827,0.117400000000089,
-0.0257616098632812,0.621151678710937,-0.0103429511718769,0.621771698573606,0.121135000000095,
-0.0712514414062499,0.7217081484375,-0.0630153876953141,0.727949420296454,0.125217000000021,
-0.0449152231445312,0.659458905273438,-0.11089942089844,0.670225414745049,0.129068000000075,
-0.0209732065429687,0.594815460449219,-0.0965342109375023,0.602962819138491,0.132845000000088,
-0.0497036264648437,0.685795123535156,-0.0294965644531278,0.688226306721048,0.136647000000039,
-0.061674634765625,0.724102350097656,-0.0701979926757836,0.73010665807547,0.140447999999992,
-0.0209732065429687,0.716919745117187,-0.0869574042968768,0.722478640856349,0.144259000000034,
-0.0185790048828124,0.685795123535156,-0.0797747993164091,0.690669348887736,0.148107000000095,
-0.0233674082031249,0.640305291992187,-0.0701979926757836,0.644565482239812,0.151888999999983,
-0.0712514414062499,0.630728485351562,-0.0630153876953141,0.637860587607304,0.155653000000029,
-0.0712514414062499,0.752832770019531,-0.0797747993164091,0.760393297000784,0.159456000000091,
0.0221224233398438,0.690583526855469,-0.0989284125976582,0.697984125892314,0.163232999999991,
-0.00900219824218745,0.62594008203125,-0.0486501777343769,0.627892399747016,0.16700800000001,
-0.0377326181640625,0.695371930175781,-0.0725921943359396,0.700168192956816,0.170860000000062,
-0.0592804331054687,0.669035711914063,-0.0318907661132837,0.672413544278237,0.17464300000006,
-0.0568862314453125,0.649882098632813,-0.113293622558595,0.662131580853751,0.178387000000043,
-0.0281558115234375,0.678612518554687,-0.0989284125976582,0.686363264518704,0.182125000000042,
-0.00181959326171871,0.726496551757812,-0.0701979926757836,0.729882393822004,0.18585900000005,
-0.0281558115234375,0.592421258789062,-0.0318907661132837,0.593946730398487,0.189591000000064,
-0.0592804331054687,0.709737140136719,-0.0773805976562532,0.716399842777941,0.19342000000006,
0.000574608398437537,0.6450936953125,-0.000766144531251456,0.645094406179585,0.197536000000014,
-0.0161848032226562,0.637911090332031,-0.0462559760742209,0.639790686354948,0.201363000000015,
-0.0640688364257812,0.750438568359375,-0.118082025878909,0.762368825121994,0.205171000000064,
-0.0544920297851562,0.597209662109375,-0.0223139594726582,0.600105552894029,0.20899200000008,
-0.0305500131835937,0.613969073730469,-0.0414675727539091,0.616125706648463,0.212817000000086,
-0.0568862314453125,0.81747621484375,-0.0318907661132837,0.820073427277464,0.21665500000006,
0.0125456166992188,0.592421258789062,-0.0103429511718769,0.592644342757547,0.220548000000008,
-0.099981861328125,0.630728485351562,-0.0247081611328142,0.639081597337208,0.224356000000057,
0.0843716665039063,0.659458905273438,-0.043861774414065,0.666279581788184,0.228181000000063,
-0.0951934580078125,0.707342938476562,-0.0678037910156277,0.71693317759484,0.231961000000069,
-0.0880108530273437,0.681006720214844,-0.0271023627929718,0.68720491943622,0.23570600000005,
-0.0832224497070312,0.692977728515625,-0.108505219238284,0.706340916948652,0.239426000000094,
0.0101514150390625,0.585238653808594,-0.106111017578128,0.59486711221117,0.243182000000047,
-0.00181959326171871,0.676218316894531,0.0327526787109349,0.677013486561422,0.247026000000005,
-0.121529676269531,0.74086176171875,-0.101322614257814,0.757569722435648,0.250768999999991,
-0.0185790048828124,0.669035711914063,-0.0965342109375023,0.676219503652563,0.25450699999999,
-0.00900219824218745,0.688189325195312,-0.0199197578125023,0.688536406907638,0.258258000000069,
-0.0927992563476562,0.697766131835937,-0.0414675727539091,0.705130368305086,0.262010000000032,
-0.00421379492187496,0.594815460449219,-0.00316034619140915,0.594838781389638,0.265966000000049,
-0.0353384165039062,0.671429913574219,-0.0271023627929718,0.672905246369984,0.269958000000088,
-0.14786589453125,0.709737140136719,-0.0558327827148464,0.727123394260327,0.273755000000051,
0.014939818359375,0.669035711914063,-0.0558327827148464,0.671527573234823,0.277606999999989,
-0.0257616098632812,0.681006720214844,-0.0103429511718769,0.681572292687628,0.281403000000068,
-0.0784340463867187,0.707342938476562,-0.0678037910156277,0.714900892656698,0.285249000000022,
-0.00181959326171871,0.647487896972656,-0.0845632026367209,0.652989144539088,0.289075000000025,
-0.121529676269531,0.819870416503906,-0.177937067382814,0.847713726455613,0.292939000000047,
-0.360949842285156,0.652276300292969,0.274567046386716,0.794440824436337,0.29676900000004,
0.5991250234375,0.479893780761719,-0.35989639355469,0.847805548823805,0.300572999999986,
-0.305883204101562,0.767197979980469,0.185981584960935,0.846608779178512,0.304025000000024,
0.014939818359375,0.341030084472656,-0.201879083984377,0.396585276124075,0.306990000000042,
-0.155048499511719,0.839024029785156,-0.0893516059570327,0.857895721661356,0.309937999999988,
0.0819774648437501,0.973099322753906,-0.0869574042968768,0.980410213557759,0.312989000000016,
-0.0497036264648437,0.695371930175781,-0.101322614257814,0.704470612531272,0.315949000000046,
0.17774553125,0.554114032226563,-0.0175255561523464,0.582188096501615,0.319000000000074,
-0.30109480078125,0.427221344238281,-0.0773805976562532,0.52835964354207,0.321977000000061,
-0.368132447265625,0.850995038085938,-0.173148664062502,0.943236191758615,0.324930999999992,
0.127467296386719,0.839024029785156,-0.0414675727539091,0.849663929912976,0.32798200000002,
0.101131078125,0.62594008203125,-0.000766144531251456,0.634057622171247,0.330970000000093,
0.04367023828125,0.611574872070312,-0.142024042480472,0.62936614343469,0.334019000000012,
0.2160527578125,1.14548184228516,0.0854251152343721,1.16880490051855,0.337006000000088,
-0.755993116210938,0.101609918457031,0.00162805712890446,0.762792775173693,0.339931000000092,
-0.0760398447265624,0.0824563051757812,-0.0941400092773463,0.146435793425037,0.342950000000087,
-0.0257616098632812,1.11435722070313,-0.0462559760742209,1.1156143111302,0.345921000000089,
0.474626537109375,1.35856579003906,-0.134841437500002,1.44539045550328,0.348966000000019,
0.134649901367188,0.477499579101563,-0.000766144531251456,0.496121992011849,0.351954000000092,
-0.418410682128906,0.111186725097656,-0.142024042480472,0.455632324797104,0.354904000000033,
-0.193355726074219,0.781563189941406,-0.108505219238284,0.812404357003963,0.35793000000001,
0.213658556152344,1.19815427880859,-0.0630153876953141,1.21868560077275,0.360897000000023,
0.199293346191406,0.51101840234375,-0.0414675727539091,0.550070181849759,0.364031000000068,
-0.427987488769531,0.326664874511719,-0.115687824218753,0.550696743639796,0.367099000000053,
-0.246028162597656,0.733679156738281,-0.0654095893554718,0.776590867962678,0.370205000000055,
0.103525279785156,1.01619495263672,0.0231758720703095,1.02171756682811,0.373227000000043,
0.352522252441406,0.537354620605469,-0.0342849677734396,0.643581685388604,0.376172999999994,
-0.10955866796875,0.47271117578125,-0.0271023627929718,0.48599742335175,0.379202000000078,
-0.310671607421875,0.762409576660156,-0.103716815917972,0.829784543207074,0.38217700000007,
-0.0664630380859375,0.958734112792969,0.0327526787109349,0.961593038882497,0.385245000000054,
0.0484586416015626,0.290751849609375,-0.0342849677734396,0.296749620071142,0.388215000000059,
0.053247044921875,0.47271117578125,-0.101322614257814,0.486371643562247,0.391180000000077,
-0.104770264648437,1.0664731875,-0.0654095893554718,1.07360154731193,0.394210000000044,
-0.205326734375,1.36095999169922,-0.118082025878909,1.3814175804914,0.397159999999985,
0.204081749511719,-0.377230413574219,0.0830309135742162,0.436859563267315,0.400215000000003,
0.342945445800781,0.235685211425781,-0.189908075683595,0.45741029163122,0.403182000000015,
-0.564456983398438,1.74403225732422,0.0375410820312485,1.83348562403275,0.406180000000063,
-0.411228077148438,1.14548184228516,-0.132447235839846,1.22424648364691,0.409216000000015,
-0.0904050546875,0.144705548339844,-0.00555454785156506,0.170715033418911,0.41217000000006,
0.65658586328125,-0.238366717285156,-0.0199197578125023,0.698799316342965,0.415181000000075,
0.165774522949219,1.07126159082031,-0.120476227539065,1.09068653142319,0.418182000000002,
-0.698532276367188,1.69375402246094,-0.0917458076171904,1.83443923937117,0.421109999999999,
-0.382497657226562,0.408067730957031,0.00402225878906037,0.559320935955374,0.424163000000021,
0.383646874023438,-0.224001507324219,-0.0510443793945328,0.447176841863765,0.427089000000024,
0.407588890625,0.800716803222656,-0.0534385810546905,0.90007321072742,0.430142000000046,
-0.303489002441406,1.43757444482422,-0.0941400092773463,1.47227314054196,0.433101000000079,
-0.447141102050781,0.654670501953125,-0.0845632026367209,0.797295156457709,0.436058000000003,
0.122678893066406,-0.0300711728515626,0.0447236870117163,0.133994755198065,0.43907999999999,
0.266330992675781,0.683400921875,-0.00555454785156506,0.733484744681921,0.442062000000078,
-0.188567322753906,1.48067007470703,-0.0845632026367209,1.49502255520901,0.445074000000091,
0.0269108266601563,0.379337311035156,0.0471178886718722,0.383198491082377,0.448067000000037,
3.79777844140625,-18.1469951352539,9.26658993151855,20.7269448421098,0.451007000000004,
-4.26110434667969,0.0106302553710937,-22.7648355292969,23.1601999113039,0.453993000000082,
3.78341323144531,10.9449492373047,9.26658993151855,14.8315817917703,0.456975000000057,
1.18091602685547,18.2328990908203,-14.5910310615234,23.3822872995108,0.460015999999996,
-0.823030762695313,6.52046456933594,-21.2373348701172,22.2310195497598,0.462914000000069,
-1.07681613867188,2.01218284326172,8.64469605029297,8.94087146721011,0.465934000000061,
0.776295946289063,-7.72742951025391,9.26658993151855,12.0907192172794,0.468889999999988,
0.623067040039063,-15.5612573422852,-13.7865793037109,20.7992959377648,0.471817999999985,
-1.35214932958984,-1.23435460791016,-6.12273978955078,6.39060886286492,0.474782000000005,
-1.48622462255859,13.2745074526367,9.26658993151855,16.2570323459643,0.477749000000017,
0.534481578613281,5.63939835839844,-3.81472938916016,6.82939563322452,0.480751000000055,
1.173733421875,-3.65249828466797,-0.762122272460941,3.91142227627111,0.483714000000077,
0.527298973632813,-5.31168003515625,0.00641646044921629,5.33779263126964,0.486654000000044,
-0.873308997558594,1.04013696923828,0.743830571777341,1.54849521778519,0.489675000000034,
-0.858943787597656,4.85649441552734,-0.213850092285158,4.93650223339069,0.492608000000018,
-0.234057154296875,2.16541174951172,-0.632835382812502,2.26809863501136,0.495638999999983,
0.800237962890625,-1.81135720800781,0.370335112792967,2.01458279254554,0.498593000000028,
0.661374266601563,-1.3851893125,0.0590888969726535,1.53611745961447,0.501561000000038,
-0.523755555175781,1.89486696191406,-0.0654095893554718,1.96700765105542,0.504670000000033,
-0.9331640390625,2.75199115625,-0.134841437500002,2.90902606745707,0.507722000000058,
0.165774522949219,0.0800621035156249,0.0279642753906231,0.186207232879151,0.510845000000018,
0.735594518066406,-0.968598223632813,0.0135990654296858,1.21633332126295,0.513803000000053,
0.1394383046875,0.690583526855469,-0.0606211860351582,0.707123452145784,0.516737000000035,
-0.674590259765625,1.98345242333984,-0.118082025878909,2.09835623740561,0.519759000000022,
-0.427987488769531,0.853389239746094,-0.137235639160158,0.964510293212759,0.522735000000011,
0.23520637109375,-0.209636297363281,0.142885955078123,0.34595637056407,0.525787000000037,
0.400406285644531,0.388914117675781,-0.134841437500002,0.574248724664016,0.528757000000041,
-0.0233674082031249,1.33701797509766,-0.0941400092773463,1.34053177614225,0.531688000000031,
-0.404045472167969,1.07604999414063,-0.156389252441409,1.15999738437147,0.534733000000074,
-0.171807911132812,0.28117504296875,0.0902135185546857,0.341637003332946,0.537709000000063,
0.0700064565429688,0.238079413085937,-0.0366791694335955,0.250854683758118,0.540774000000056,
0.254359984375,0.85578344140625,-0.199484882324221,0.914799714971689,0.543778000000088,
0.225629564453125,1.13829923730469,-0.0630153876953141,1.16215523622713,0.546754000000078,
-0.45432370703125,0.654670501953125,-0.0534385810546905,0.798660865977113,0.549788000000035,
-0.665013453125,0.448769159179688,-0.0701979926757836,0.805334967106104,0.552731999999992,
0.323791832519531,0.506229999023437,-0.173148664062502,0.625372227224918,0.555788000000007,
0.96304367578125,0.570873443847656,0.147674358398435,1.12922864225149,0.55877600000008,
-0.317854212402344,1.00661814599609,-0.173148664062502,1.06971578097042,0.561776000000009,
-1.13667118017578,1.17660646386719,-0.278493537109377,1.65951281792818,0.564716000000089,
-0.0951934580078125,0.295540252929687,-0.0965342109375023,0.325153332184302,0.567661000000044,
1.04923493554688,-0.168934869140625,0.066271501953123,1.06481212049579,0.570690000000013,
0.182533934570313,1.00182974267578,-0.0486501777343769,1.01948433552121,0.573672999999985,
-0.858943787597656,1.56207293115234,-0.137235639160158,1.78792893962461,0.576702000000068,
-0.763175721191406,0.827053021484375,-0.0845632026367209,1.1285410125479,0.579642000000035,
0.678133678222656,-0.144992852539063,0.0423294853515603,0.694751752899791,0.582602000000065,
0.730806114746094,0.297934454589844,0.0183874687499976,0.78941789667391,0.585664000000065,
-0.399257068847656,1.26519192529297,0.0375410820312485,1.32722498005855,0.58863400000007,
-0.775146729492188,1.11914562402344,-0.156389252441409,1.37032732523745,0.59164300000009,
0.0676122548828125,0.326664874511719,-0.0558327827148464,0.338228704984924,0.594633000000044,
0.488991747070313,0.228502606445312,0.0495120903320281,0.542012746108636,0.597607000000039,
0.0771890615234376,0.841418231445313,0.0519062919921858,0.846544183475266,0.600667000000044,
-0.427987488769531,0.884513861328125,-0.153995050781253,0.994611751936382,0.603628000000072,
-0.303489002441406,0.683400921875,-0.0390733710937532,0.74877842046303,0.606638000000089,
0.0412760366210938,0.599603863769531,0.00162805712890446,0.601025087010943,0.609635000000026,
0.316609227539063,0.649882098632813,0.0351468803710908,0.723756484106423,0.612577999999985,
-0.0161848032226562,0.594815460449219,-0.0151313544921905,0.595227971229125,0.61559299999999,
-0.380103455566406,0.781563189941406,-0.120476227539065,0.877401947916093,0.618563999999992,
-0.133500684570312,0.788745794921875,-0.0271023627929718,0.800422950605893,0.621581999999989,
0.184928136230469,0.563690838867188,-0.0941400092773463,0.600673054780391,0.624549000000002,
0.0795832631835938,0.671429913574219,-0.0271023627929718,0.676672862386393,0.627519000000007,
-0.205326734375,0.781563189941406,0.0279642753906231,0.808567924430973,0.630551000000082,
-0.296306397460937,0.733679156738281,-0.146812445800784,0.804758647328802,0.633508000000006,
0.0747948598632813,0.683400921875,-0.142024042480472,0.701998518320418,0.636541000000079,
0.19689914453125,0.752832770019531,-0.0893516059570327,0.78326889522023,0.639524000000051,
-0.0927992563476562,0.12794613671875,-0.161177655761721,0.225743554939615,0.642541000000051,
-0.586004798339844,0.853389239746094,-0.54424992138672,1.16956521627534,0.645669999999996,
-0.119135474609375,0.12794613671875,0.274567046386716,0.325500442662033,0.648726000000011,
0.721229308105469,1.6793888125,1.01198115771484,2.08916834218555,0.651821000000041,
0.692498888183594,1.69135982080078,-0.369473200195316,1.86460805511972,0.654781000000071,
-0.698532276367188,0.764803778320313,-1.46841176220703,1.79697113606416,0.65778499999999,
-0.902039417480469,-0.183300079101563,0.853963848144529,1.25559877493766,0.66073700000004,
0.1394383046875,-0.434691253417969,-0.0127371528320328,0.456685626743907,0.663725999999997,
0.565606200195313,0.764803778320313,-0.254551520507816,0.984698771008295,0.666749000000095,
0.146620909667969,1.46151646142578,-0.13005303417969,1.47459887761715,0.669741000000045,
-0.322642615722656,0.882119659667969,0.0638773002929671,0.941442330122142,0.672762000000034,
-0.210115137695312,0.0896389101562499,-0.103716815917972,0.250879818253447,0.675710000000095,
-0.0473094248046875,0.221320001464844,-0.156389252441409,0.27509693383048,0.678674000000001,
0.146620909667969,0.870148651367188,-0.0606211860351582,0.884494937704172,0.681722000000036,
0.0197282216796875,0.886908062988281,-0.0678037910156277,0.889714824536693,0.684729000000061,
-0.308277405761719,0.896484869628906,-0.120476227539065,0.955633089516461,0.687756000000036,
-0.260393372558594,0.546931427246094,-0.0294965644531278,0.60647237521294,0.690706000000091,
0.0412760366210938,0.362577899414062,-0.082169000976565,0.37405639823982,0.693682000000081,
0.146620909667969,0.731284955078125,-0.0127371528320328,0.745947459099999,0.696730000000002,
0.127467296386719,0.841418231445313,-0.0390733710937532,0.851915066297883,0.699730000000045,
-0.30109480078125,0.597209662109375,-0.0797747993164091,0.673558815680018,0.70275300000003,
-0.188567322753906,0.582844452148437,-0.0606211860351582,0.615581204072296,0.705712000000062,
0.0556412465820313,0.771986383300781,-0.043861774414065,0.775230791169813,0.708675000000085,
0.12028469140625,0.774380584960937,-0.082169000976565,0.787962843078674,0.711731999999984,
-0.0257616098632812,0.580450250488281,-0.0247081611328142,0.581546771172553,0.714694000000009,
-0.193355726074219,0.580450250488281,-0.0654095893554718,0.615294518484643,0.717722000000094,
-0.164625306152344,0.841418231445313,-0.043861774414065,0.85849285779735,0.720678000000021,
0.00296881005859378,0.7983226015625,-0.0678037910156277,0.801202311576029,0.72365400000001,
0.110707884765625,0.580450250488281,-0.0678037910156277,0.594790789368227,0.726685000000089,
-0.0664630380859375,0.561296637207031,-0.0678037910156277,0.569270238505075,0.729649999999992,
-0.169413709472656,0.738467560058594,-0.0678037910156277,0.760679102047814,0.732664,
-0.0640688364257812,0.805505206542969,-0.0414675727539091,0.809112484861583,0.73563200000001,
0.0604296499023438,0.7217081484375,-0.0965342109375023,0.73063893134005,0.738586000000055,
0.0364876333007813,0.582844452148437,-0.0199197578125023,0.584325080358026,0.741626999999994,
-0.0257616098632812,0.649882098632813,-0.0390733710937532,0.651565139487041,0.744578000000047,
-0.0975876596679687,0.681006720214844,0.00641646044921629,0.687993223267458,0.747622000000092,
-0.0664630380859375,0.697766131835937,-0.0534385810546905,0.702958456890618,0.750570000000039,
0.0221224233398438,0.611574872070312,-0.0773805976562532,0.616847617046451,0.753602000000001,
-0.00900219824218745,0.58763285546875,-0.108505219238284,0.597634332181056,0.756554000000051,
-0.0688572397460937,0.719313946777344,-0.0725921943359396,0.726239285753915,0.759491000000025,
-0.0951934580078125,0.704948736816406,-0.0366791694335955,0.712291988904038,0.76250600000003,
-0.0664630380859375,0.762409576660156,-0.0749863959960955,0.76896596647655,0.76546600000006,
0.0173340200195313,0.661853106933594,-0.122870429199221,0.67338484225537,0.768498000000022,
0.000574608398437537,0.640305291992187,-0.0390733710937532,0.641496629341606,0.771475000000009,
-0.0568862314453125,0.628334283691406,-0.0797747993164091,0.635927695572394,0.774401000000012,
-0.0377326181640625,0.633122687011719,-0.0318907661132837,0.635047327563659,0.777420000000006,
-0.0281558115234375,0.767197979980469,-0.0558327827148464,0.769742028107039,0.780400999999983,
-0.0736456430664062,0.767197979980469,-0.0701979926757836,0.773914839891629,0.783520000000067,
-0.0736456430664062,0.659458905273438,-0.00794874951172098,0.663605990860469,0.786565999999993,
-0.0975876596679687,0.585238653808594,-0.0749863959960955,0.598038955934853,0.789578000000006,
-0.0305500131835937,0.659458905273438,-0.108505219238284,0.669023716808236,0.792610000000082,
0.000574608398437537,0.752832770019531,-0.0462559760742209,0.754252693142471,0.795598000000041,
-0.0736456430664062,0.714525543457031,-0.043861774414065,0.719648725594634,0.798621000000026,
-0.0712514414062499,0.652276300292969,-0.0917458076171904,0.662539382257147,0.801592000000028,
-0.00181959326171871,0.60678646875,-0.0582269843750023,0.609576501587077,0.804535999999985,
0.0293050283203126,0.688189325195312,-0.0462559760742209,0.690364358379119,0.807578000000035,
-0.0712514414062499,0.688189325195312,-0.043861774414065,0.693256929622776,0.810512000000017,
-0.111952869628906,0.635516888671875,-0.0534385810546905,0.647511268435126,0.813556000000062,
-0.0281558115234375,0.678612518554687,-0.113293622558595,0.688580529040815,0.816491000000042,
-0.00181959326171871,0.769592181640625,-0.103716815917972,0.776551746418857,0.819439999999986,
-0.0544920297851562,0.673824115234375,-0.0582269843750023,0.678526861141769,0.822478000000046,
-0.080828248046875,0.62594008203125,-0.0486501777343769,0.633009503695799,0.825463000000013,
-0.0401268198242187,0.683400921875,-0.0678037910156277,0.687927565783561,0.82848899999999,
-0.03294421484375,0.724102350097656,-0.0175255561523464,0.725063224710141,0.831448000000023,
-0.0497036264648437,0.690583526855469,0.00641646044921629,0.692399616560113,0.834405000000061,
-0.042521021484375,0.616363275390625,-0.0534385810546905,0.620134990516962,0.837424000000055,
-0.0353384165039062,0.604392267089844,-0.0678037910156277,0.609209463382748,0.840371000000005,
-0.03294421484375,0.707342938476562,-0.0893516059570327,0.71372478126476,0.843390999999997,
-0.0473094248046875,0.728890753417969,-0.0845632026367209,0.73530323495395,0.846344000000045,
-0.0473094248046875,0.642699493652344,-0.0462559760742209,0.646096305622396,0.84935500000006,
-0.0592804331054687,0.635516888671875,0.0088106621093722,0.638336520420975,0.852311999999984,
-0.0640688364257812,0.685795123535156,-0.082169000976565,0.693665273735856,0.855268000000024,
-0.0401268198242187,0.690583526855469,-0.0510443793945328,0.693629078038916,0.858279000000039,
-0.0568862314453125,0.657064703613281,-0.0845632026367209,0.664921802396822,0.861237000000074,
-0.0209732065429687,0.66424730859375,-0.0701979926757836,0.66827548252382,0.864238,
-0.00421379492187496,0.628334283691406,-0.0701979926757836,0.632257452550261,0.867200000000025,
-0.042521021484375,0.709737140136719,-0.00555454785156506,0.711031432750591,0.870136000000002,
-0.042521021484375,0.695371930175781,-0.0678037910156277,0.699962508010648,0.873164000000088,
-0.0185790048828124,0.671429913574219,-0.0965342109375023,0.678588359866307,0.876116000000025,
-0.0401268198242187,0.640305291992187,-0.108505219238284,0.650672276360653,0.879154000000085,
-0.0497036264648437,0.657064703613281,-0.0390733710937532,0.660099389142874,0.882103000000029,
-0.0353384165039062,0.697766131835937,0.0183874687499976,0.698902337544612,0.885050000000092,
-0.052097828125,0.673824115234375,-0.0390733710937532,0.676963699392634,0.888070000000084,
0.00296881005859378,0.695371930175781,-0.0582269843750023,0.697811806161921,0.891043000000082,
-0.0305500131835937,0.692977728515625,-0.0678037910156277,0.696956806122362,0.894042000000013,
-0.0113963999023437,0.704948736816406,-0.0654095893554718,0.708068509290896,0.896998000000053,
-0.042521021484375,0.688189325195312,-0.0630153876953141,0.692375276614673,0.899923000000058,
-0.0497036264648437,0.654670501953125,-0.0606211860351582,0.659347286949467,0.902942000000053,
-0.00660799658203121,0.666641510253906,-0.0749863959960955,0.670878177016454,0.905877000000032,
-0.0377326181640625,0.714525543457031,-0.0725921943359396,0.719194083265837,0.908886000000052,
-0.052097828125,0.66424730859375,-0.108505219238284,0.675064480824855,0.911824000000024,
-0.0568862314453125,0.659458905273438,-0.0749863959960955,0.666141914802675,0.914749000000029,
-0.0640688364257812,0.709737140136719,-0.0342849677734396,0.713447323147005,0.917753000000062,
-0.0760398447265624,0.683400921875,-0.108505219238284,0.696126612483381,0.920777000000044,
-0.0353384165039062,0.66424730859375,-0.0606211860351582,0.667943275174886,0.923869000000082,
-0.0951934580078125,0.647487896972656,-0.0749863959960955,0.658730089458529,0.926915000000008,
-0.0377326181640625,0.657064703613281,-0.103716815917972,0.666269429819564,0.929892999999993,
-0.052097828125,0.666641510253906,-0.113293622558595,0.678203901346343,0.932893000000035,
-0.0712514414062499,0.640305291992187,-0.0917458076171904,0.650757195942541,0.935831000000007,
-0.052097828125,0.683400921875,-0.0582269843750023,0.687852735274309,0.938842000000022,
-0.0497036264648437,0.676218316894531,-0.0773805976562532,0.682443711584383,0.94181900000001,
-0.0185790048828124,0.688189325195312,-0.0941400092773463,0.694846794683514,0.944826000000035,
-0.0568862314453125,0.654670501953125,-0.0630153876953141,0.660151837490435,0.947779000000082,
-0.0664630380859375,0.633122687011719,-0.0247081611328142,0.637080972457282,0.950699999999983,
-0.0353384165039062,0.695371930175781,-0.0199197578125023,0.696554177152577,0.953696000000036,
-0.0592804331054687,0.704948736816406,-0.0534385810546905,0.709452305115261,0.956666000000041,
-0.0161848032226562,0.685795123535156,-0.0199197578125023,0.686275233467787,0.95965799999999,
-0.0233674082031249,0.661853106933594,-0.0318907661132837,0.663032873911298,0.962634000000094,
-0.03294421484375,0.666641510253906,-0.0175255561523464,0.667685082657782,0.965566000000081,
-0.0209732065429687,0.659458905273438,-0.106111017578128,0.66827050749573,0.968578000000093,
-0.0113963999023437,0.666641510253906,-0.0462559760742209,0.668341526801172,0.971524000000045,
-0.0473094248046875,0.688189325195312,-0.0199197578125023,0.690101098201878,0.974540000000047,
-0.0449152231445312,0.678612518554687,-0.0678037910156277,0.683468859338412,0.977474000000029,
-0.0233674082031249,0.678612518554687,-0.0965342109375023,0.685842430873589,0.980397000000039,
-0.0353384165039062,0.673824115234375,-0.0630153876953141,0.677686270363199,0.983397000000082,
-0.0209732065429687,0.692977728515625,-0.00794874951172098,0.693340601890708,0.986344000000031,
-0.0688572397460937,0.661853106933594,-0.0606211860351582,0.668180950655892,0.989345000000071,
-0.052097828125,0.661853106933594,-0.043861774414065,0.665347709177497,0.992308000000094,
-0.042521021484375,0.685795123535156,-0.0917458076171904,0.69321012827858,0.995220000000018,
-0.0377326181640625,0.683400921875,-0.0414675727539091,0.685696820820409,0.998233000000027,
-0.0377326181640625,0.637911090332031,-0.0654095893554718,0.642364946134024,1.00117,
-0.0832224497070312,0.661853106933594,-0.0965342109375023,0.674013623878788,1.00418200000001,
-0.00660799658203121,0.683400921875,-0.11089942089844,0.692372130572886,1.00712200000009,
-0.0640688364257812,0.676218316894531,-0.0678037910156277,0.68262243003048,1.01004,
-0.0377326181640625,0.654670501953125,-0.0390733710937532,0.656920044548575,1.01304700000003,
-0.0377326181640625,0.657064703613281,-0.120476227539065,0.669083176152239,1.01600300000007,
