X,Y,Z,Magnitude,Seconds,
-0.0353384165039062,0.678612518554687,-0.0654095893554718,0.682672812114113,0.0,
-0.0760398447265624,0.692977728515625,-0.082169000976565,0.701962915634581,0.00376500000015767,
-0.0233674082031249,0.726496551757812,-0.0318907661132837,0.727571506070308,0.0075050000000374,
-0.0784340463867187,0.70255453515625,-0.0773805976562532,0.711141709784236,0.011218000000099,
-0.0664630380859375,0.647487896972656,-0.0606211860351582,0.653706998856518,0.0150260000000344,
-0.0353384165039062,0.654670501953125,-0.0558327827148464,0.657996633300083,0.0187740000001213,
-0.0353384165039062,0.697766131835937,-0.043861774414065,0.700035880275462,0.0224990000001526,
-0.0401268198242187,0.676218316894531,-0.0534385810546905,0.679512366125898,0.026211000000103,
-0.0544920297851562,0.685795123535156,-0.0845632026367209,0.693134379478385,0.0299320000001444,
-0.0233674082031249,0.683400921875,-0.0773805976562532,0.688164669740732,0.0336520000000746,
-0.0712514414062499,0.666641510253906,-0.106111017578128,0.6787836320563,0.0375750000000608,
-0.0377326181640625,0.714525543457031,-0.0965342109375023,0.722003709552387,0.0415590000000066,
-0.0473094248046875,0.673824115234375,-0.0917458076171904,0.68168498088345,0.0453140000001895,
-0.0449152231445312,0.671429913574219,-0.132447235839846,0.685840926450166,0.04911600000014,
-0.00421379492187496,0.657064703613281,-0.0654095893554718,0.660325825014973,0.0528730000000905,
-0.00660799658203121,0.700160333496094,-0.0654095893554718,0.703240053324497,0.056679000000031,
-0.0449152231445312,0.695371930175781,0.0159932670898417,0.697004507258541,0.0605050000001484,
-0.042521021484375,0.683400921875,-0.0390733710937532,0.685836413160095,0.0643440000001192,
-0.0497036264648437,0.678612518554687,-0.00555454785156506,0.680452976938692,0.0681400000000849,
-0.061674634765625,0.683400921875,-0.0989284125976582,0.693272970345856,0.0719320000000607,
-0.0281558115234375,0.666641510253906,-0.0797747993164091,0.67198785072509,0.075698999999986,
-0.080828248046875,0.669035711914063,-0.0223139594726582,0.674269903144157,0.0794440000001941,
-0.0377326181640625,0.657064703613281,-0.0606211860351582,0.66093320646207,0.0831960000000436,
-0.0712514414062499,0.683400921875,-0.0654095893554718,0.69021156343669,0.0869400000001406,
-0.0401268198242187,0.661853106933594,-0.082169000976565,0.668140285829513,0.0907790000001114,
-0.0401268198242187,0.692977728515625,-0.0271023627929718,0.694667425432374,0.0945150000000012,
-0.0305500131835937,0.666641510253906,-0.0462559760742209,0.668942315765497,0.0982650000000831,
-0.03294421484375,0.700160333496094,-0.0941400092773463,0.707228502847397,0.101973000000044,
-0.0353384165039062,0.683400921875,-0.0510443793945328,0.686215091912424,0.105737999999974,
-0.0544920297851562,0.726496551757812,-0.0366791694335955,0.729460062303918,0.109731000000011,
-0.0473094248046875,0.688189325195312,-0.0797747993164091,0.694411079688468,0.113621000000194,
-0.0664630380859375,0.700160333496094,-0.0486501777343769,0.704988416803114,0.117445999999973,
0.000574608398437537,0.671429913574219,-0.0294965644531278,0.672077753189043,0.121255000000019,
-0.0712514414062499,0.676218316894531,-0.0175255561523464,0.680187566134952,0.125120000000152,
-0.0161848032226562,0.690583526855469,-0.0534385810546905,0.692837092947998,0.128983000000062,
-0.0568862314453125,0.697766131835937,-0.0845632026367209,0.705169875494916,0.132809000000179,
-0.0113963999023437,0.683400921875,-0.103716815917972,0.691320385823025,0.13669300000015,
0.0197282216796875,0.7217081484375,-0.0510443793945328,0.723779927132205,0.140565000000151,
-0.00181959326171871,0.716919745117187,0.0135990654296858,0.717051020806115,0.144404000000122,
-0.0281558115234375,0.671429913574219,-0.0869574042968768,0.677622659543552,0.148182000000133,
-0.0185790048828124,0.685795123535156,-0.0390733710937532,0.68715854008785,0.151944000000185,
-0.042521021484375,0.661853106933594,-0.0366791694335955,0.664231084710784,0.155692000000045,
-0.0640688364257812,0.719313946777344,-0.0654095893554718,0.725117772647316,0.15945499999998,
-0.0209732065429687,0.724102350097656,-0.0654095893554718,0.727353080140102,0.163289000000077,
-0.0568862314453125,0.688189325195312,-0.0678037910156277,0.693857294201711,0.167024000000083,
-0.0760398447265624,0.712131341796875,-0.115687824218753,0.725463147670456,0.170747000000119,
-0.00660799658203121,0.673824115234375,-0.103716815917972,0.681791597040018,0.174488999999994,
-0.052097828125,0.719313946777344,-0.0701979926757836,0.724606442076974,0.178387000000157,
-0.0568862314453125,0.666641510253906,-0.0582269843750023,0.671593126998085,0.182346000000052,
-0.0544920297851562,0.681006720214844,-0.0749863959960955,0.687286325975112,0.186149000000114,
-0.0377326181640625,0.697766131835937,-0.0845632026367209,0.703883698100035,0.18992900000012,
-0.042521021484375,0.697766131835937,-0.0271023627929718,0.699585698877788,0.193688000000066,
-0.03294421484375,0.709737140136719,-0.0199197578125023,0.710780504890524,0.197475000000168,
-0.0449152231445312,0.688189325195312,-0.11089942089844,0.698513139560389,0.201260000000048,
-0.0281558115234375,0.716919745117187,-0.0247081611328142,0.717897739157884,0.204995000000054,
-0.0377326181640625,0.728890753417969,-0.115687824218753,0.738978452706301,0.208714999999984,
-0.0137906015624999,0.736073358398437,0.00162805712890446,0.736204333188433,0.212594000000081,
-0.061674634765625,0.697766131835937,-0.0630153876953141,0.703315202734273,0.216352000000143,
-0.0688572397460937,0.724102350097656,-0.101322614257814,0.734392133020526,0.220087000000149,
-0.0449152231445312,0.671429913574219,-0.0749863959960955,0.677095610454601,0.223830000000135,
-0.052097828125,0.685795123535156,-0.0701979926757836,0.691344265424724,0.227579000000105,
-0.0281558115234375,0.709737140136719,-0.0845632026367209,0.715311465763111,0.231313,
-0.0185790048828124,0.688189325195312,-0.043861774414065,0.689835909466857,0.235124000000042,
-0.03294421484375,0.700160333496094,-0.0582269843750023,0.703349269994957,0.238882999999987,
-0.0592804331054687,0.681006720214844,-0.0366791694335955,0.684565325003603,0.242615999999998,
-0.0880108530273437,0.719313946777344,-0.0175255561523464,0.724890067111868,0.246358999999984,
-0.0712514414062499,0.716919745117187,-0.0773805976562532,0.724595366901418,0.250333000000182,
-0.0137906015624999,0.669035711914063,-0.0534385810546905,0.671308160573779,0.254161000000067,
-0.0473094248046875,0.719313946777344,-0.0917458076171904,0.726682894334991,0.257995000000165,
-0.0353384165039062,0.681006720214844,-0.101322614257814,0.689409333283804,0.26179100000013,
-0.0975876596679687,0.748044366699219,-0.0414675727539091,0.755521862992731,0.265555000000177,
-0.0592804331054687,0.690583526855469,-0.0199197578125023,0.693409384176922,0.269378000000188,
-0.00181959326171871,0.704948736816406,-0.0582269843750023,0.707351690581207,0.273161000000073,
-0.0784340463867187,0.726496551757812,-0.0390733710937532,0.731762166060269,0.27691700000014,
-0.0736456430664062,0.685795123535156,-0.0223139594726582,0.690098938554909,0.280672000000095,
0.00296881005859378,0.678612518554687,-0.043861774414065,0.680035013383172,0.284587000000101,
-0.042521021484375,0.633122687011719,-0.204273285644534,0.666618293557135,0.288375000000087,
-0.03294421484375,0.937186297851562,-0.0989284125976582,0.942968880181887,0.292124000000058,
-0.0927992563476562,0.582844452148437,-0.0462559760742209,0.591995753955608,0.295883000000003,
0.0101514150390625,0.410461932617187,-0.113293622558595,0.42593132576459,0.299649000000045,
-0.0592804331054687,0.649882098632813,-0.946475800292971,1.149642271497,0.303233999999975,
-0.131106482910156,1.31547016015625,0.571448052246092,1.44020954327432,0.306186000000025,
0.254359984375,1.52855410791016,0.602572673828123,1.66260954216696,0.309139000000187,
-0.176596314453125,-0.980569231933594,-0.651988996093753,1.19071068187054,0.312139000000116,
-0.672196058105469,-0.44666226171875,-0.259339923828128,0.847709804512971,0.315058000000136,
0.194504942871094,3.19252426171875,0.442161162597653,3.2288620020332,0.318093999999974,
0.915159642578125,1.46869906640625,-0.158783454101565,1.73775898914744,0.321046000000024,
-0.595581604980469,-1.99331653417969,-0.209061688964846,2.09086944676564,0.32395600000018,
-1.06963353369141,0.111186725097656,0.207529399902342,1.09523825538507,0.32696900000019,
0.462655528808594,3.29547493310547,-0.496365888183597,3.36460759495308,0.330006000000139,
0.929524852539063,1.21970209375,0.176404778320311,1.54363476729443,0.333137000000079,
-0.423199085449219,-1.921490484375,0.0854251152343721,1.96939599821405,0.336148000000094,
-0.844578577636719,0.175830169921875,-0.182725470703128,0.881826411546682,0.339098000000149,
-0.104770264648437,3.36490678125,-0.211455890625002,3.37317180833363,0.342116000000033,
0.860093004394531,0.944368902832031,0.0255700737304672,1.2775940002658,0.345083000000159,
0.151409312988281,-1.88557745947266,0.174010576660153,1.89963333738923,0.348079999999982,
-0.928375635742188,0.630728485351562,-0.20666748730469,1.14123231359019,0.351032000000032,
-0.308277405761719,3.19970686669922,-0.221032697265628,3.22211335073207,0.353947000000062,
0.670951073242188,0.458345965820313,0.23386561816406,0.845546861166108,0.356986000000006,
0.335762840820313,-1.67488771337891,-0.0510443793945328,1.70897368802774,0.359922000000097,
-0.629100428222656,1.28673974023438,-0.194696479003909,1.44546643919009,0.362925000000132,
-0.394468665527344,2.70410712304688,-0.0582269843750023,2.73334799151246,0.365903000000117,
0.268725194335938,-0.149781255859375,0.0926077202148416,0.321284678316737,0.368911000000026,
0.378858470703125,-0.903954778808594,-0.149206647460939,0.991428568582194,0.371888000000126,
-0.0544920297851562,1.5644671328125,-0.0414675727539091,1.56596499020597,0.374811000000136,
-0.471083118652344,1.83980032373047,-0.182725470703128,1.90792377560573,0.377837,
-0.250816565917969,-0.113868230957031,-0.115687824218753,0.298761772040259,0.380751000000146,
0.38843527734375,-0.173723272460938,-0.00794874951172098,0.425587737955939,0.383758000000171,
0.319003429199219,1.38729620996094,0.0351468803710908,1.4239344315005,0.386741000000029,
-0.459112110351563,1.38011360498047,-0.153995050781253,1.46260451530438,0.389660000000049,
-0.420804883789063,0.0800621035156249,-0.132447235839846,0.448362532914704,0.392696999999998,
0.239994774414063,0.0465432802734375,-0.0271023627929718,0.245964035488179,0.395633999999973,
0.326186034179688,1.1813948671875,-0.043861774414065,1.22638289957321,0.398668000000043,
-0.133500684570312,1.26998032861328,-0.082169000976565,1.27961877626382,0.401607000000013,
-0.33940202734375,0.592421258789062,-0.0725921943359396,0.686604916024326,0.404538000000002,
-0.253210767578125,0.1087925234375,-0.0701979926757836,0.284392799045812,0.407550000000128,
0.12028469140625,0.752832770019531,-0.101322614257814,0.769085079014029,0.410526000000118,
0.206475951171875,1.11435722070313,0.0327526787109349,1.13379763260834,0.413566000000174,
-0.111952869628906,0.652276300292969,-0.0462559760742209,0.663428543450317,0.416507000000138,
-0.325036817382812,0.4152503359375,-0.0558327827148464,0.530282070012024,0.419438000000127,
-0.135894886230469,0.676218316894531,-0.0558327827148464,0.691994170374974,0.422454000000016,
0.189716539550781,0.839024029785156,-0.0366791694335955,0.860987252754873,0.425428000000011,
0.122678893066406,0.716919745117187,-0.113293622558595,0.736111049132766,0.428470000000061,
-0.222086145996094,0.681006720214844,-0.0797747993164091,0.720733257056416,0.431405000000041,
-0.274758582519531,0.671429913574219,-0.101322614257814,0.732513945034811,0.43433600000003,
0.0604296499023438,0.659458905273438,-0.043861774414065,0.663672845298428,0.437368000000106,
0.151409312988281,0.712131341796875,-0.0725921943359396,0.731659384350059,0.44032900000002,
-0.193355726074219,0.858177643066406,-0.0534385810546905,0.881312081960664,0.443351000000121,
-0.219691944335937,0.695371930175781,-0.0845632026367209,0.734137321570478,0.446288999999979,
0.0580354482421875,0.525383612304687,-0.103716815917972,0.538658733555074,0.449226000000181,
0.117890489746094,0.750438568359375,-0.0366791694335955,0.760527168432648,0.452258000000029,
-0.195749927734375,0.846206634765625,-0.043861774414065,0.869659449545698,0.45519000000013,
-0.210115137695312,0.563690838867188,-0.106111017578128,0.610864371986924,0.458198000000039,
0.103525279785156,0.616363275390625,-0.0701979926757836,0.628926807331794,0.461161000000175,
0.113102086425781,0.819870416503906,-0.0342849677734396,0.828344759642614,0.464174000000185,
-0.198144129394531,0.750438568359375,-0.0965342109375023,0.782136813336459,0.467150000000174,
-0.152654297851562,0.594815460449219,-0.0510443793945328,0.616209619617986,0.470164000000068,
0.0939484731445313,0.6450936953125,-0.00794874951172098,0.651947370542228,0.473281000000043,
0.0963426748046876,0.788745794921875,-0.0630153876953141,0.797102740606161,0.476325000000088,
-0.181384717773437,0.745650165039062,-0.0390733710937532,0.768388777112967,0.479330000000118,
-0.111952869628906,0.604392267089844,-0.108505219238284,0.624176930155301,0.482283000000052,
0.0891600698242188,0.673824115234375,-0.0917458076171904,0.685861319464641,0.485224000000017,
0.00536301171875003,0.760015375,0.0231758720703095,0.760387567742467,0.488269000000173,
-0.214903541015625,0.70255453515625,-0.0893516059570327,0.74010142297983,0.491233000000193,
-0.0951934580078125,0.6450936953125,-0.0773805976562532,0.656654724397122,0.494243999999981,
0.103525279785156,0.757621173339844,-0.0223139594726582,0.764987083965987,0.497191000000157,
-0.0592804331054687,0.724102350097656,-0.000766144531251456,0.726525271510608,0.500124000000142,
-0.222086145996094,0.6450936953125,-0.0486501777343769,0.683984628313328,0.50314000000003,
-0.0233674082031249,0.673824115234375,-0.11089942089844,0.683288852238297,0.50611200000003,
0.0963426748046876,0.760015375,-0.0558327827148464,0.768129273527963,0.509165000000166,
-0.0975876596679687,0.688189325195312,-0.0678037910156277,0.698373290374383,0.51214600000003,
-0.183778919433594,0.654670501953125,-0.0414675727539091,0.681239838049594,0.515070000000151,
0.00536301171875003,0.681006720214844,-0.0342849677734396,0.681890294613217,0.518101999999999,
0.0747948598632813,0.647487896972656,-0.0965342109375023,0.658903408451775,0.521064000000024,
-0.0497036264648437,0.74086176171875,-0.0510443793945328,0.74427960413311,0.524081000000024,
-0.133500684570312,0.769592181640625,-0.0510443793945328,0.782751612895746,0.52701100000013,
-0.099981861328125,0.673824115234375,-0.082169000976565,0.686139239212794,0.529940000000124,
0.0628238515625,0.604392267089844,-0.0366791694335955,0.608754638843505,0.532963999999993,
0.0245166250000001,0.716919745117187,-0.0773805976562532,0.721500341464869,0.535927000000129,
-0.0951934580078125,0.750438568359375,-0.0247081611328142,0.756855555938726,0.538932000000159,
-0.145471692871094,0.669035711914063,-0.0989284125976582,0.691778597574564,0.541879999999992,
0.0293050283203126,0.657064703613281,-0.0917458076171904,0.664085915100293,0.544817000000194,
0.0580354482421875,0.685795123535156,-0.0558327827148464,0.690507323887991,0.547850000000153,
-0.107164466308594,0.657064703613281,-0.0773805976562532,0.670228322638826,0.550775000000158,
-0.111952869628906,0.714525543457031,-0.13005303417969,0.734842832835741,0.553792000000158,
-0.0281558115234375,0.783957391601563,-0.0175255561523464,0.784658579694199,0.556731000000127,
0.0556412465820313,0.695371930175781,-0.00555454785156506,0.697616601436225,0.559750000000122,
-0.0544920297851562,0.623545880371094,-0.0989284125976582,0.633692099569626,0.562691000000086,
-0.0688572397460937,0.669035711914063,-0.043861774414065,0.673998485559543,0.565631000000167,
-0.0401268198242187,0.724102350097656,-0.0414675727539091,0.72639791758805,0.568635999999969,
-0.0401268198242187,0.700160333496094,-0.0582269843750023,0.703722271908438,0.57157600000005,
-0.0473094248046875,0.611574872070312,-0.0941400092773463,0.620583876015087,0.574563000000126,
-0.052097828125,0.70255453515625,-0.0606211860351582,0.707086972557313,0.577519000000166,
-0.00421379492187496,0.755226971679688,0.0231758720703095,0.755594240228401,0.580462000000125,
-0.0377326181640625,0.700160333496094,-0.0678037910156277,0.704447015148029,0.583489999999983,
-0.0880108530273437,0.623545880371094,-0.00794874951172098,0.629776593560894,0.586428000000069,
-0.0760398447265624,0.688189325195312,-0.043861774414065,0.693765421849179,0.58945000000017,
-0.00660799658203121,0.736073358398437,-0.0701979926757836,0.73944263654356,0.592389000000139,
-0.0473094248046875,0.666641510253906,-0.0486501777343769,0.670086505357738,0.595328000000109,
-0.102376062988281,0.695371930175781,-0.101322614257814,0.710133263345275,0.598351000000093,
-0.061674634765625,0.731284955078125,-0.0366791694335955,0.734797120004853,0.601301000000149,
0.0269108266601563,0.728890753417969,-0.082169000976565,0.73400113605582,0.604332999999997,
-0.0209732065429687,0.654670501953125,-0.0558327827148464,0.657381655620184,0.607367000000067,
-0.0640688364257812,0.669035711914063,0.0135990654296858,0.672233987684252,0.610394000000042,
-0.0975876596679687,0.70255453515625,-0.0247081611328142,0.709730032769257,0.613506000000143,
-0.00421379492187496,0.714525543457031,-0.13005303417969,0.726277013280438,0.616502000000082,
0.00775721337890628,0.712131341796875,-0.0462559760742209,0.713674181718382,0.619540000000143,
-0.0856166513671875,0.635516888671875,-0.0558327827148464,0.643684104514158,0.622479000000112,
-0.0927992563476562,0.649882098632813,-0.0941400092773463,0.663189856261995,0.625425000000178,
-0.0305500131835937,0.757621173339844,-0.0725921943359396,0.761703861272126,0.628455000000031,
-0.0137906015624999,0.707342938476562,-0.0582269843750023,0.709869421100473,0.631395999999995,
-0.0544920297851562,0.647487896972656,-0.0534385810546905,0.651970582144101,0.634420000000091,
-0.0760398447265624,0.704948736816406,-0.0941400092773463,0.715260177048761,0.637370000000146,
-0.00660799658203121,0.728890753417969,-0.043861774414065,0.730239174032585,0.640288000000055,
-0.0233674082031249,0.676218316894531,-0.0342849677734396,0.677490005007476,0.643317000000025,
-0.0688572397460937,0.66424730859375,-0.0893516059570327,0.673757757600306,0.646265000000085,
-0.0640688364257812,0.70255453515625,-0.0271023627929718,0.705990246914594,0.649319999999989,
-0.0544920297851562,0.719313946777344,-0.0701979926757836,0.724782514630572,0.652268000000049,
-0.0185790048828124,0.669035711914063,-0.0294965644531278,0.669943289057611,0.655261999999993,
-0.061674634765625,0.635516888671875,-0.0103429511718769,0.638586292524039,0.658211000000165,
-0.0856166513671875,0.640305291992187,-0.0941400092773463,0.652827250726614,0.661153000000013,
-0.052097828125,0.707342938476562,-0.0199197578125023,0.709538591663138,0.664163000000144,
-0.0161848032226562,0.692977728515625,-0.0366791694335955,0.69413647184424,0.667106000000103,
-0.0209732065429687,0.671429913574219,-0.0606211860351582,0.674487162540019,0.670093000000179,
-0.0497036264648437,0.669035711914063,-0.082169000976565,0.675892727451332,0.673056000000088,
-0.080828248046875,0.733679156738281,-0.0678037910156277,0.741225785297984,0.675987000000077,
-0.042521021484375,0.704948736816406,-0.0606211860351582,0.708826979596171,0.679032000000007,
-0.0233674082031249,0.669035711914063,-0.0630153876953141,0.672402973423585,0.681975000000193,
-0.0736456430664062,0.6450936953125,-0.0989284125976582,0.656777273734174,0.685000000000173,
-0.0497036264648437,0.724102350097656,-0.082169000976565,0.730442611450203,0.687948000000006,
-0.0281558115234375,0.673824115234375,-0.0318907661132837,0.675165690002998,0.690882999999985,
-0.0257616098632812,0.681006720214844,-0.0390733710937532,0.682613024963014,0.693903000000091,
-0.042521021484375,0.666641510253906,-0.103716815917972,0.676000087548697,0.696848000000045,
-0.0736456430664062,0.690583526855469,-0.156389252441409,0.711889658996382,0.69984599999998,
0.00775721337890628,0.647487896972656,-0.00316034619140915,0.647542074983185,0.702819999999974,
-0.042521021484375,0.66424730859375,-0.0510443793945328,0.667561272775682,0.7057420000001,
-0.0113963999023437,0.704948736816406,-0.0318907661132837,0.705761730637949,0.708753000000115,
-0.0544920297851562,0.695371930175781,-0.0151313544921905,0.697667872612224,0.711690999999973,
-0.0401268198242187,0.712131341796875,-0.0797747993164091,0.717708316967691,0.714709000000084,
-0.0568862314453125,0.659458905273438,-0.106111017578128,0.670359335822181,0.717636000000084,
-0.0688572397460937,0.666641510253906,-0.0582269843750023,0.672712869186005,0.720563000000084,
-0.080828248046875,0.7217081484375,-0.0247081611328142,0.72664045471607,0.723567000000003,
-0.0568862314453125,0.659458905273438,-0.0797747993164091,0.666697914859844,0.726512000000184,
-0.0353384165039062,0.657064703613281,-0.0845632026367209,0.663425778558229,0.729530000000068,
-0.0185790048828124,0.659458905273438,-0.101322614257814,0.667455990554369,0.732472000000143,
-0.0736456430664062,0.700160333496094,-0.0917458076171904,0.709975680259089,0.735390000000052,
-0.0592804331054687,0.695371930175781,-0.0606211860351582,0.700522104734656,0.738399000000072,
-0.0113963999023437,0.647487896972656,-0.043861774414065,0.649071883470204,0.741342000000031,
-0.0449152231445312,0.661853106933594,0.00162805712890446,0.663377391081268,0.744400000000041,
-0.052097828125,0.688189325195312,-0.0869574042968768,0.695615066807909,0.747431000000006,
-0.0473094248046875,0.70255453515625,-0.0749863959960955,0.70812711862239,0.750526000000036,
-0.0137906015624999,0.697766131835937,-0.0294965644531278,0.698525448887354,0.753554000000122,
-0.0353384165039062,0.685795123535156,-0.082169000976565,0.691603571323262,0.756515000000036,
-0.0401268198242187,0.719313946777344,-0.043861774414065,0.721766285547029,0.759522000000061,
-0.0760398447265624,0.661853106933594,-0.0462559760742209,0.667810757974345,0.762474999999995,
-0.0497036264648437,0.683400921875,-0.0917458076171904,0.69132088332314,0.765483000000131,
-0.042521021484375,0.700160333496094,-0.0582269843750023,0.70386284997778,0.768460000000005,
-0.0640688364257812,0.748044366699219,-0.0965342109375023,0.756963700736511,0.771379000000024,
-0.0736456430664062,0.642699493652344,-0.118082025878909,0.657593860007308,0.774393000000146,
-0.03294421484375,0.657064703613281,-0.0917458076171904,0.664256455927536,0.777336999999989,
-0.0113963999023437,0.748044366699219,0.00402225878906037,0.748141985886994,0.78037200000017,
-0.0880108530273437,0.714525543457031,-0.0773805976562532,0.724072109252114,0.78333600000019,
-0.0712514414062499,0.66424730859375,-0.0941400092773463,0.674658132851927,0.786295000000109,
-0.0760398447265624,0.697766131835937,-0.0845632026367209,0.706972819819479,0.789322000000084,
-0.0640688364257812,0.714525543457031,-0.00316034619140915,0.717399160747745,0.792268000000149,
-0.0449152231445312,0.676218316894531,-0.0271023627929718,0.678250047875234,0.795269000000189,
-0.107164466308594,0.692977728515625,-0.115687824218753,0.710694046499863,0.798219000000017,
-0.03294421484375,0.690583526855469,-0.082169000976565,0.696234639742448,0.801139000000148,
-0.0401268198242187,0.7217081484375,-0.0414675727539091,0.724011307080484,0.804156000000148,
-0.0377326181640625,0.676218316894531,-0.0701979926757836,0.6808984658177,0.807082000000037,
-0.0281558115234375,0.697766131835937,-0.0989284125976582,0.705306426511855,0.810102000000143,
-0.042521021484375,0.688189325195312,-0.0462559760742209,0.691051517546581,0.813025000000152,
-0.0497036264648437,0.669035711914063,-0.0606211860351582,0.673612768952922,0.815964000000122,
-0.0305500131835937,0.707342938476562,-0.0678037910156277,0.711241653725558,0.818968000000041,
-0.042521021484375,0.688189325195312,-0.0869574042968768,0.694963434104921,0.821911,
-0.0497036264648437,0.671429913574219,-0.0773805976562532,0.67769929631045,0.824913000000151,
-0.0544920297851562,0.652276300292969,-0.0390733710937532,0.655713719211837,0.827858000000106,
-0.0640688364257812,0.707342938476562,-0.0462559760742209,0.711743256895484,0.830775000000131,
-0.0544920297851562,0.695371930175781,-0.00316034619140915,0.697510924914117,0.833789000000024,
-0.0449152231445312,0.695371930175781,-0.0654095893554718,0.699884213942682,0.836718000000019,
-0.042521021484375,0.678612518554687,-0.0773805976562532,0.684332334835093,0.83973600000013,
-0.0664630380859375,0.700160333496094,-0.0725921943359396,0.707044167440395,0.842683000000079,
-0.0473094248046875,0.707342938476562,-0.0366791694335955,0.709871520599571,0.845686999999998,
-0.0209732065429687,0.712131341796875,-0.082169000976565,0.717162929942421,0.848623999999973,
-0.0209732065429687,0.683400921875,-0.0797747993164091,0.688360889372913,0.851555000000189,
-0.0544920297851562,0.659458905273438,-0.0869574042968768,0.667395699129533,0.854557000000113,
-0.0209732065429687,0.683400921875,-0.0486501777343769,0.685451336861984,0.857511000000159,
-0.0544920297851562,0.640305291992187,-0.0534385810546905,0.644837910027354,0.860503000000108,
-0.0161848032226562,0.685795123535156,-0.0294965644531278,0.686619943370781,0.863458000000037,
-0.042521021484375,0.654670501953125,-0.0534385810546905,0.658222747510879,0.866378000000168,
-0.052097828125,0.666641510253906,-0.0917458076171904,0.674938797302601,0.869398000000047,
-0.061674634765625,0.688189325195312,-0.0965342109375023,0.69765834171719,0.872328000000152,
-0.0449152231445312,0.661853106933594,-0.0151313544921905,0.663547941234499,0.875354000000016,
-0.0544920297851562,0.659458905273438,0.0135990654296858,0.661846178228074,0.878288999999995,
-0.0856166513671875,0.678612518554687,-0.101322614257814,0.691456024263658,0.881211000000121,
-0.0377326181640625,0.657064703613281,-0.0414675727539091,0.659452299107392,0.884311000000025,
-0.0497036264648437,0.690583526855469,-0.0462559760742209,0.693913303929586,0.887349999999969,
-0.0688572397460937,0.688189325195312,-0.00794874951172098,0.691671200352473,0.89046200000007,
-0.0137906015624999,0.692977728515625,-0.118082025878909,0.703101470447757,0.89345800000001,
-0.0640688364257812,0.704948736816406,-0.0414675727539091,0.709067766105681,0.896385000000009,
-0.03294421484375,0.709737140136719,-0.101322614257814,0.717689627583649,0.899409999999989,
-0.0449152231445312,0.669035711914063,-0.0558327827148464,0.672862140941339,0.902350000000069,
-0.0544920297851562,0.714525543457031,-0.0510443793945328,0.718416078766647,0.90542100000016,
-0.0544920297851562,0.685795123535156,-0.0199197578125023,0.68824496331322,0.908362000000125,
-0.061674634765625,0.695371930175781,-0.0797747993164091,0.702644931993278,0.911307000000079,
-0.042521021484375,0.726496551757812,-0.106111017578128,0.735435126326947,0.914344000000028,
-0.0592804331054687,0.661853106933594,-0.0366791694335955,0.66551413687251,0.917286999999988,
-0.0497036264648437,0.709737140136719,-0.000766144531251456,0.71147582218277,0.920346999999992,
-0.0592804331054687,0.659458905273438,-0.0414675727539091,0.663415237301431,0.923312000000124,
-0.0449152231445312,0.642699493652344,-0.0797747993164091,0.649187211070178,0.926273000000037,
-0.0473094248046875,0.709737140136719,-0.0749863959960955,0.715253765700875,0.929299000000128,
-0.0760398447265624,0.666641510253906,-0.125264630859377,0.682557095724588,0.932245000000194,
-0.0257616098632812,0.678612518554687,-0.0749863959960955,0.68322878340009,0.935273000000052,
-0.0568862314453125,0.704948736816406,-0.142024042480472,0.721359545240507,0.938219000000117,
-0.0473094248046875,0.661853106933594,-0.101322614257814,0.671233185259072,0.941218000000163,
-0.0377326181640625,0.7217081484375,-0.0701979926757836,0.726095145397839,0.944167000000107,
-0.0353384165039062,0.666641510253906,-0.000766144531251456,0.66757793092047,0.947102000000086,
-0.061674634765625,0.673824115234375,-0.0510443793945328,0.678563355562791,0.950129000000061,
-0.061674634765625,0.695371930175781,-0.0175255561523464,0.698321578478221,0.953089000000091,
-0.0544920297851562,0.688189325195312,-0.0247081611328142,0.690785365978066,0.956091000000015,
-0.0281558115234375,0.681006720214844,0.00162805712890446,0.681590458611575,0.959048000000166,
-0.061674634765625,0.707342938476562,-0.0486501777343769,0.711691388861575,0.96196000000009,
-0.03294421484375,0.70255453515625,-0.0510443793945328,0.705176378523883,0.964975999999979,
-0.0401268198242187,0.726496551757812,-0.0127371528320328,0.727715354000081,0.967902999999978,
-0.0640688364257812,0.716919745117187,-0.0151313544921905,0.71993589619397,0.970921000000089,
-0.052097828125,0.681006720214844,-0.0725921943359396,0.686843478058595,0.973854000000074,
0.0101514150390625,0.695371930175781,-0.0558327827148464,0.697683647600666,0.976810999999998,
-0.0281558115234375,0.704948736816406,-0.0462559760742209,0.707025520461722,0.979840000000195,
-0.0760398447265624,0.666641510253906,-0.0845632026367209,0.676272057991329,0.982790000000023,
-0.0377326181640625,0.659458905273438,-0.0271023627929718,0.661093288641563,0.985809000000017,
-0.0497036264648437,0.681006720214844,-0.043861774414065,0.684225444364857,0.988758000000189,
-0.0377326181640625,0.714525543457031,-0.043861774414065,0.716864253524216,0.991690000000062,
-0.0832224497070312,0.673824115234375,0.0183874687499976,0.679192913253414,0.994734000000108,
-0.0209732065429687,0.692977728515625,-0.0294965644531278,0.693922225415721,0.997679000000062,
-0.061674634765625,0.681006720214844,-0.0294965644531278,0.684429661006731,1.00070800000003,
-0.0664630380859375,0.704948736816406,-0.122870429199221,0.718656523898768,1.00364400000012,
-0.0473094248046875,0.714525543457031,-0.106111017578128,0.723909166939736,1.00658900000008,
-0.061674634765625,0.714525543457031,-0.0654095893554718,0.720158959678827,1.00960299999997,
-0.0497036264648437,0.70255453515625,-0.0127371528320328,0.704425695453138,1.012563,
