X,Y,Z,Magnitude,Seconds,
0.0182438166503908,-0.0231758720703126,-0.0290656081542959,0.041409750899657,0.0,
-0.0200634099121092,-0.0159932670898438,0.064308256591799,0.0692378283554955,0.00371599999994032,
0.00387860668945328,-0.0375410820312502,-0.00272938989257732,0.0378394767288639,0.00749900000005255,
0.00866701000976578,-0.0375410820312502,0.00924161840820403,0.039621426190753,0.0112610000001041,
0.0302148249511721,-0.0327526787109377,0.0379720383300786,0.0585452756805605,0.0149939999998878,
0.0134554133300783,-0.0183874687500001,0.0116358200683599,0.0255839688785522,0.0187100000000555,
0.0134554133300783,0.00794874951171864,0.0403662399902363,0.0432858417687891,0.022562999999991,
-0.000909796630859216,0.000766144531249902,-0.0721612380371077,0.0721710397763563,0.0265369999999621,
-0.0104866032714842,-0.00402225878906259,-0.0218830031738264,0.0245970169298106,0.0303899999998976,
0.0182438166503908,0.0271023627929686,-0.0194888015136705,0.0380419281763426,0.0341900000000805,
-0.00330399829101546,0.000766144531249902,0.0044532150878922,0.00559772335586781,0.0380139999999756,
-0.00330399829101546,-0.0183874687500001,0.0451546433105481,0.0488667292157157,0.0418230000000221,
0.0134554133300783,-0.00641646044921884,0.0044532150878922,0.0155579637870342,0.0456679999999778,
-0.0344286198730467,-0.0231758720703126,-0.00272938989257732,0.0415920723427908,0.0494269999999233,
0.0254264216308596,-0.0255700737304688,0.00924161840820403,0.037225516763837,0.0532089999999243,
0.00866701000976578,-0.0303584770507814,0.0212126267089854,0.0380359004526903,0.0571210000000519,
0.00387860668945328,0.000766144531249902,-0.00512359155273323,0.00647161167665947,0.0609150000000227,
0.00866701000976578,-0.0303584770507814,0.0044532150878922,0.0318839350766375,0.0646520000000237,
0.00387860668945328,-0.0590888969726564,-0.0290656081542959,0.065964770238937,0.0683690000000752,
-0.0272460148925779,-0.00881066210937509,-0.00272938989257732,0.0287649554756801,0.0720739999999296,
0.011061211669922,-0.0351468803710939,-0.00751779321288915,0.0376054626114155,0.0757889999999861,
0.0158496149902345,-0.0135990654296876,-0.00272938989257732,0.0210616819149206,0.0795639999998912,
-0.00330399829101546,0.0390733710937499,0.0427604416503922,0.0580181015155918,0.0833270000000539,
-0.00569819995117171,-0.0399352836914064,-0.0362482131347637,0.0542331017152799,0.0869990000001053,
0.00866701000976578,-0.0279642753906251,-0.0194888015136705,0.0351700319174058,0.0906959999999799,
0.00387860668945328,-0.0255700737304688,-0.0147003981933587,0.0297485120212152,0.0945850000000519,
0.00627280834960953,-0.00881066210937509,0.0331836350097667,0.034901712334181,0.0984750000000076,
-0.0104866032714842,-0.0351468803710939,0.0212126267089854,0.0423703620457538,0.10217200000011,
-0.00569819995117171,0.00794874951171864,0.0283952316894549,0.0300323373079986,0.106044000000111,
-0.00809240161132796,-0.0495120903320314,0.064308256591799,0.0815627728731859,0.109740000000102,
0.020638018310547,-0.0159932670898438,-0.0506134230957009,0.0569511280788887,0.113524999999981,
0.0757046564941408,-0.0183874687500001,-0.00751779321288915,0.0782675618421824,0.117308000000094,
-0.0344286198730467,0.0055545478515624,0.026001030029299,0.0434998440317038,0.1210880000001,
0.0182438166503908,-0.0423294853515627,-0.0386424147949214,0.0601486358721791,0.12481600000001,
0.011061211669922,-0.0590888969726564,0.0283952316894549,0.066484113378685,0.128678000000036,
0.00627280834960953,0.0223139594726561,-0.06497863305664,0.0689890111963328,0.132462000000032,
0.020638018310547,0.0366791694335936,0.0188184250488295,0.0461023035372763,0.136238000000048,
0.058945244873047,-0.0854251152343751,0.0355778366699226,0.109716793008461,0.139991999999893,
-0.0152750065917967,0.0247081611328124,-0.0290656081542959,0.0410929267675536,0.143743000000086,
0.0350032282714846,-0.0231758720703126,-0.0410366164550773,0.0587056294210893,0.147480999999971,
-0.0583706364746092,0.0438617744140624,-0.0218830031738264,0.076222387033645,0.151274999999941,
0.145136504638672,-0.0495120903320314,-0.012306196533201,0.153842434136009,0.155021000000033,
-0.137379291259766,-0.0112048637695313,-0.0218830031738264,0.139561758612576,0.158725999999888,
-0.0727358464355467,0.0318907661132811,-0.00512359155273323,0.0795850206407379,0.16250500000001,
0.161895916259766,-0.0375410820312502,-0.0290656081542959,0.168714048374891,0.166488999999956,
-0.146956097900391,0.0055545478515624,0.0403662399902363,0.152500429648227,0.170356999999967,
0.231327764404297,-0.0423294853515627,-0.000335188232421402,0.235168944092474,0.174152000000049,
-0.158927106201172,0.000766144531249902,0.064308256591799,0.171446679550226,0.17810499999996,
-0.0344286198730467,-0.0231758720703126,-0.0434308181152332,0.0600723470054293,0.181923000000097,
0.00387860668945328,-0.00162805712890635,0.0188184250488295,0.0192828234754371,0.185780000000022,
0.020638018310547,0.0606211860351561,0.0044532150878922,0.0641925783927901,0.189587999999958,
0.0302148249511721,-0.0686657036132814,0.0116358200683599,0.075916446230051,0.19337900000005,
-0.101466266357422,-0.0351468803710939,-0.0530076247558586,0.119751888046048,0.197139000000107,
0.0828872614746095,-0.0159932670898438,-0.00272938989257732,0.0844602408009418,0.20100699999989,
0.00148440502929703,0.0486501777343749,0.0499430466308599,0.0697377312410542,0.204829999999902,
-0.017669208251953,-0.0375410820312502,0.0547314499511735,0.0686808952626984,0.208554000000049,
-0.055976434814453,-0.0902135185546876,0.047548844970704,0.116330274832486,0.212301999999909,
0.00627280834960953,0.0127371528320311,-0.0242772048339823,0.0281241153000158,0.21605999999997,
-0.00330399829101546,0.00316034619140615,0.0427604416503922,0.0430041807606326,0.219796000000088,
-0.0392170231933592,-0.0399352836914064,0.0547314499511735,0.0782836726617971,0.223502999999937,
-0.017669208251953,-0.0447236870117189,-0.0362482131347637,0.0602191170280363,0.22731900000008,
-0.00330399829101546,0.0366791694335936,0.0595198532714853,0.0699920767551903,0.23106400000006,
0.0445800349121095,0.0223139594726561,0.0427604416503922,0.0656791265947473,0.234944000000041,
-0.0104866032714842,-0.0135990654296876,0.0331836350097667,0.0373638469806823,0.238859000000048,
-0.0152750065917967,0.0103429511718749,-0.0170945998535146,0.0251501055559415,0.242627000000084,
-0.0200634099121092,-0.00881066210937509,0.026001030029299,0.0340032608243887,0.246401000000105,
0.0254264216308596,0.0175255561523436,-0.000335188232421402,0.0308830112934336,0.250250999999935,
0.011061211669922,-0.00402225878906259,-0.13441048120117,0.134924817680452,0.2540469999999,
0.137953899658203,-0.176404778320313,0.248661784423829,0.334638024256042,0.257879000000003,
-0.233147357666016,0.182725470703125,-0.122439472900389,0.320527241516924,0.261625999999978,
0.231327764404297,-0.104578728515625,-0.0362482131347637,0.256443323168489,0.265360000000101,
-0.118225677978515,0.0151313544921874,0.0236068283691413,0.121505354482418,0.269142999999985,
-0.0272460148925779,0.0414675727539061,0.0547314499511735,0.0738744646774844,0.272956000000022,
0.0373974299316408,-0.0255700737304688,-0.132016279541014,0.139573258541616,0.276677000000063,
-0.0344286198730467,-0.0782425102539064,0.0451546433105481,0.0966755506304372,0.280406000000085,
0.0230322199707033,0.0127371528320311,0.0164242233886736,0.0310237543338397,0.284147000000075,
0.0373974299316408,0.0414675727539061,-0.0434308181152332,0.0707415247061508,0.287870999999996,
0.020638018310547,-0.0495120903320314,0.0188184250488295,0.0568463544139123,0.291588000000047,
-0.055976434814453,0.0486501777343749,-0.086526447998045,0.113960639043844,0.295296999999891,
0.444411712158203,-3.56659432910156,4.5678015793457,5.81230661154037,0.299134999999978,
0.176261126220703,-7.84742689746094,-9.2611072097168,12.1400693426965,0.30252500000006,
2.28794699047852,5.96711668164063,9.34363534094239,11.3201017799338,0.305638999999928,
-3.58263548022461,16.6021604560547,-3.51981162866211,17.3452034491964,0.308682999999974,
-1.20040482836914,3.45799334179688,-16.5466628615723,16.9467029701479,0.311813000000029,
2.22090934399414,-10.4211936821289,9.34363534094239,14.1717055240077,0.314791000000014,
2.87692059887695,-13.3995805473633,4.06741343237305,14.2957785030186,0.317810000000009,
-2.03837540942383,2.05259696728516,-6.03851177514648,6.69565180385261,0.320740999999998,
-0.834091974365234,11.2774559638672,0.286969010986329,11.3118996482435,0.323693999999932,
-0.0751300480957029,3.30476443554688,2.37471285864258,4.07018103523476,0.326761000000033,
0.702985491455078,-7.68222698291016,0.89988463598633,7.76663327164567,0.329713000000083,
0.403710283935547,-5.22338187792969,-3.20617121118164,6.14216851539011,0.332742999999937,
-0.690439874755859,3.76684535595703,0.79693396459961,3.91164094725991,0.335718000000043,
0.21696255444336,5.06210845410156,1.3667539597168,5.24785967204904,0.338702999999896,
0.097252471435547,-0.894665276367188,-0.117651069580077,0.907593396907908,0.341752999999926,
-0.151744501220703,-4.27527802050781,-1.02026509545898,4.39795059218494,0.344698000000108,
-0.0511880314941405,-0.691158135253906,0.188806742919922,0.718308964630076,0.347760000000108,
-0.0511880314941405,2.97436460644531,0.356400859130861,2.99607853685981,0.350717000000031,
0.176261126220703,1.54502621533203,0.356400859130861,1.59536690547003,0.353685999999925,
-0.106254669677734,-1.82840392382813,-0.21102493432617,1.84360583813509,0.356686000000082,
0.0709162531738283,-2.03191106494141,-0.313975605712889,2.05724873843158,0.35961599999996,
-0.130196686279297,1.130829328125,0.121769096435548,1.14479424322123,0.36267799999996,
-0.0583706364746092,1.79641738964844,0.234296574462892,1.81257205479915,0.365628999999899,
0.176261126220703,-0.578630657226563,0.0116358200683599,0.604993235009862,0.368649999999889,
0.0421858332519533,-1.54588812792969,-0.258908967529296,1.56798711795353,0.371579999999994,
-0.199628534423828,0.168360260742187,0.212748759521485,0.336836405145456,0.374551999999994,
0.00387860668945328,1.15955974804688,-0.00751779321288915,1.15959060452177,0.377606000000014,
0.269634990966797,0.0797747993164062,-0.0194888015136705,0.281863194376415,0.380572000000029,
0.0134554133300783,-0.870723259765625,0.0738850632324226,0.873955974757092,0.3836060000001,
-0.0224576115722654,-0.30569166796875,-0.153564094482421,0.342831841136808,0.386520999999902,
0.104435076416016,0.661565802734375,0.0116358200683599,0.669859230616598,0.389486999999917,
-0.142167694580078,0.297647150390625,0.164864726318362,0.368762603177033,0.392520999999988,
-0.259483575927734,-0.506804607421875,-0.0984974562988263,0.577827297016699,0.395442000000003,
0.35103784741211,-0.346393096191406,-0.155958296142577,0.51724146927764,0.398466999999982,
0.432440703857422,0.386232611816406,0.200777751220704,0.613589682253921,0.401458999999932,
-0.474961725341797,0.316800763671875,0.0906444748535176,0.578072474023984,0.404406000000108,
-0.585095001708984,-0.389488726074219,-0.206236531005858,0.732510160670202,0.407416000000012,
0.432440703857422,-0.38230612109375,0.047548844970704,0.579157858650385,0.410393000000113,
0.674255071533203,0.300041352050781,0.215142961181641,0.768720500685855,0.413452000000007,
-0.398347272216797,0.34553118359375,-0.14159308618164,0.546004533106367,0.416402999999946,
-0.673680463134765,-0.334422087890625,-0.127227876220703,0.762804320757445,0.41934399999991,
0.461171123779297,-0.353575701171875,0.0810676682128921,0.586742318821916,0.422401000000036,
0.549756585205078,0.185119672363281,-0.0984974562988263,0.588390469815391,0.425379000000021,
-0.374405255615234,0.254551520507812,0.0595198532714853,0.456638133491507,0.428445000000011,
-0.364828448974609,-0.142885955078125,-0.0673728347167959,0.397561683512865,0.431366000000025,
0.25526978100586,-0.329633684570313,0.0307894333496108,0.418053843785905,0.434318000000076,
0.109223479736328,0.0462559760742186,0.0355778366699226,0.123835238564806,0.437380000000076,
0.0804930598144533,0.165966059082031,0.0762792648925803,0.19960559034773,0.440344000000096,
-0.218782147705078,-0.0183874687500001,-0.086526447998045,0.235988460236167,0.443422999999939,
0.10204087475586,-0.219500408203125,-0.0218830031738264,0.243046569920633,0.446468000000095,
0.214568352783203,-0.0543004936523439,0.064308256591799,0.230485733816352,0.449522999999999,
-0.288213995849609,0.110899420898437,-0.06497863305664,0.315575999900368,0.45261400000004,
-0.0416112248535155,-0.00641646044921884,-0.0147003981933587,0.0445955906514256,0.455539999999928,
0.195414739501953,-0.0135990654296876,0.00205901342773629,0.195898173884987,0.458585000000085,
0.188232134521485,-0.0159932670898438,-0.00272938989257732,0.188930068088452,0.461540999999897,
-0.194840131103516,0.0366791694335936,-0.0673728347167959,0.209397079770827,0.464582000000064,
-0.103860468017578,0.0151313544921874,0.0307894333496108,0.109379814918424,0.467552000000069,
0.173866924560547,-0.0566946953125002,0.0116358200683599,0.183246795992136,0.470506999999998,
0.137953899658203,-0.0183874687500001,-0.0410366164550773,0.145097833643439,0.473541000000068,
-0.139773492919922,0.0294965644531249,0.0906444748535176,0.169183620540059,0.476521999999932,
-0.111043072998047,-0.0590888969726564,0.0116358200683599,0.126322817079726,0.479532999999947,
0.173866924560547,-0.00641646044921884,-0.0793438430175772,0.191223230402682,0.482498000000078,
0.0613394465332033,0.113293622558594,0.112192289794923,0.170836420305732,0.485498999999891,
-0.094283661376953,0.0438617744140624,-0.120045271240233,0.158821066626991,0.488538000000062,
-0.0799184514160154,-0.130914946777344,-0.177506111083984,0.234593481662659,0.491469999999936,
-0.0990720646972655,0.218638495605469,0.100221281494141,0.260119916631406,0.494517999999971,
0.348643645751953,-0.315268474609375,0.320487834228517,0.568910410077212,0.497483000000102,
-0.0104866032714842,0.137235639160156,0.248661784423829,0.284211668544261,0.500432000000046,
-0.324127020751953,-0.418219145996094,0.286969010986329,0.601927564517286,0.503459000000021,
0.576092803466797,0.108505219238281,-1.08251433862305,1.23105385509029,0.506446000000096,
-0.0823126530761717,0.908168573730469,0.634128251708987,1.1107043579565,0.50950899999998,
-0.324127020751953,-0.245836626464844,0.0547314499511735,0.410474730168509,0.512451000000056,
-0.0727358464355467,-0.779743596679688,-0.175111909423826,0.802467918824005,0.515394000000015,
0.386950872314453,-0.0854251152343751,-0.0841322463378891,0.405100805691104,0.518426999999974,
0.0565510432128908,0.572980341308594,0.239084977783204,0.623430925296599,0.52140600000007,
-0.343280634033203,0.204273285644531,0.085856071533204,0.408583447963038,0.524445000000014,
-0.017669208251953,-0.463708977539063,-0.155958296142577,0.489552047188314,0.527370999999903,
0.221750957763672,-0.430190154296875,-0.0984974562988263,0.493901614717359,0.530308000000105,
0.0134554133300783,0.362290595214844,0.107403886474611,0.378115218364535,0.533365999999887,
-0.221176349365234,0.484394879882812,0.0786734665527362,0.538281424084689,0.536315999999943,
0.0326090266113283,-0.312874272949219,-0.0194888015136705,0.315172131817646,0.539352000000008,
0.0469742365722658,-0.4780741875,0.0810676682128921,0.487168835707712,0.542322999999897,
0.137953899658203,-0.0471178886718752,0.0212126267089854,0.147313778702793,0.545270999999957,
-0.0703416447753905,0.381444208496094,0.0667024582519549,0.393569370151912,0.548301000000038,
0.0158496149902345,0.0414675727539061,0.0140300217285176,0.0465576137182936,0.551281000000017,
-0.00330399829101546,-0.272172844726563,-0.0817380446777332,0.284200777196326,0.554282000000057,
0.0134554133300783,-0.145280156738281,-0.0338540114746078,0.149778056412499,0.557225000000017,
0.161895916259766,0.216244293945312,0.0379720383300786,0.272788852522307,0.560263999999961,
-0.101466266357422,0.137235639160156,0.0690966599121108,0.184128684009911,0.563218000000006,
-0.0823126530761717,-0.171616375,-0.0410366164550773,0.19470890301848,0.566129000000046,
0.0469742365722658,-0.174010576660156,0.0595198532714853,0.189812730407121,0.56917199999998,
0.137953899658203,0.0845632026367187,-0.0554018264160145,0.171030921301718,0.572134000000005,
-0.084706854736328,0.180331269042969,-0.000335188232421402,0.199235363791472,0.575143999999909,
-0.0990720646972655,-0.106972930175781,-0.000335188232421402,0.145803272065214,0.57807600000001,
0.049368438232422,-0.217106206542969,0.0307894333496108,0.224767294816165,0.581069999999954,
0.087675664794922,-0.0112048637695313,-0.0434308181152332,0.0984825219594002,0.584186000000045,
-0.0487938298339842,0.161177655761719,0.0403662399902363,0.173171902679564,0.587271000000101,
-0.0224576115722654,-0.0638773002929689,0.0595198532714853,0.0901513546415583,0.590394999999944,
0.0469742365722658,-0.231471416503906,-0.0194888015136705,0.236992423812052,0.593366999999944,
0.078098858154297,-0.166827971679688,-0.02667140649414,0.186124602629903,0.596303000000034,
-0.000909796630859216,0.144418244140625,0.0451546433105481,0.151315560280737,0.599359000000049,
0.0230322199707033,0.175542865722656,0.0044532150878922,0.177103393495213,0.602350999999999,
0.011061211669922,0.0247081611328124,0.00684741674804812,0.0279236592568612,0.605420999999978,
-0.00330399829101546,-0.188375786621094,0.0116358200683599,0.188763729827756,0.608347999999978,
0.049368438232422,-0.111761333496094,-0.0458250197753891,0.130490500787407,0.611284000000069,
0.039791631591797,0.189908075683594,0.102615483154299,0.219495759725725,0.614366999999902,
-0.0296402165527342,0.0869574042968749,0.116980693115236,0.148743454178879,0.617310000000089,
-0.017669208251953,-0.150068560058594,-0.0554018264160145,0.160941405513127,0.620335000000068,
-0.0296402165527342,-0.159645366699219,0.0403662399902363,0.167315925353119,0.623299999999972,
0.0350032282714846,0.0965342109374999,0.0116358200683599,0.103341531725704,0.626291000000037,
0.0613394465332033,0.0749863959960937,-0.0290656081542959,0.101144929990889,0.629339999999956,
-0.055976434814453,-0.0447236870117189,-0.0434308181152332,0.0837842789347582,0.632270000000062,
0.00387860668945328,-0.185981584960938,0.0164242233886736,0.186745679062074,0.635322999999971,
-0.00330399829101546,0.0869574042968749,0.0379720383300786,0.0949441007208881,0.638275000000021,
0.097252471435547,0.0773805976562499,-0.00272938989257732,0.124311100321516,0.64122999999995,
0.0373974299316408,-0.0638773002929689,0.0212126267089854,0.0769990440856565,0.644275999999991,
-0.0416112248535155,-0.147674358398438,-0.0817380446777332,0.173839920932849,0.647200999999995,
-0.0392170231933592,-0.0207816704101563,0.0044532150878922,0.0446058724587231,0.650221999999985,
0.0757046564941408,0.0893516059570312,0.026001030029299,0.119962319353124,0.653197000000091,
0.0565510432128908,-0.0279642753906251,0.00205901342773629,0.0631210006486317,0.656218000000081,
-0.0823126530761717,-0.116549736816406,-0.000335188232421402,0.142686111305771,0.659141000000091,
-0.0392170231933592,0.0199197578124999,-0.0314598098144518,0.0540785659297527,0.662086000000045,
-0.017669208251953,0.0510443793945311,-0.0386424147949214,0.06641510226753,0.665111000000024,
0.0613394465332033,0.0199197578124999,0.00205901342773629,0.0645256847201481,0.668083000000024,
-0.0224576115722654,-0.0614830986328126,0.0116358200683599,0.0664823889739694,0.671074999999973,
-0.0344286198730467,-0.00641646044921884,0.0307894333496108,0.0466314275682105,0.674017000000049,
0.0469742365722658,-0.00881066210937509,-0.02667140649414,0.0547318060429987,0.676956000000018,
0.0326090266113283,0.0175255561523436,-0.0338540114746078,0.0501656040321468,0.680022999999892,
0.0182438166503908,-0.0638773002929689,0.0140300217285176,0.0678968913013982,0.682982999999922,
-0.0272460148925779,-0.0423294853515627,-0.0218830031738264,0.0548907686734339,0.685989999999947,
0.0230322199707033,0.0127371528320311,0.026001030029299,0.0369969158394303,0.688963999999942,
-0.00569819995117171,0.000766144531249902,0.026001030029299,0.0266291198260627,0.691902999999911,
0.0373974299316408,-0.00402225878906259,-0.0434308181152332,0.0574541755960056,0.694923999999901,
-0.00569819995117171,-0.0207816704101563,0.0140300217285176,0.0257135920754487,0.697875000000067,
-0.0440054265136717,-0.00641646044921884,0.0044532150878922,0.0446931723193329,0.700884000000087,
-0.000909796630859216,-0.0183874687500001,-0.012306196533201,0.022144281655893,0.703811999999971,
0.0302148249511721,-0.0231758720703126,-0.012306196533201,0.0400187351894489,0.706740000000082,
0.00866701000976578,-0.0255700737304688,-0.00991199487304506,0.0287609696542774,0.70977199999993,
-0.0152750065917967,-0.0255700737304688,-0.012306196533201,0.0322272705961087,0.712690000000066,
0.0134554133300783,-0.0183874687500001,-0.02667140649414,0.0350786413546923,0.715717000000041,
0.0350032282714846,-0.0399352836914064,0.083461869873048,0.0989238929462664,0.71866799999998,
-0.0104866032714842,0.0151313544921874,0.0355778366699226,0.0400588217382069,0.721686000000091,
0.0230322199707033,-0.0447236870117189,0.0762792648925803,0.0913740531510641,0.724827999999889,
0.0158496149902345,-0.0686657036132814,-0.00512359155273323,0.0706572030188353,0.72787500000004,
0.011061211669922,-0.0279642753906251,0.0882502731933599,0.0932333728899271,0.73098600000003,
0.0158496149902345,0.0534385810546874,0.047548844970704,0.0732651683852914,0.733960000000025,
0.020638018310547,-0.0566946953125002,0.0571256516113294,0.0830876425732653,0.736895000000004,
-0.0200634099121092,0.000766144531249902,-0.0577960280761705,0.0611842157433236,0.739908999999898,
0.0158496149902345,0.00794874951171864,0.0307894333496108,0.0355300171703989,0.742897999999968,
0.0158496149902345,-0.0135990654296876,0.047548844970704,0.051933010060535,0.745940000000019,
-0.0320344182128905,-0.0159932670898438,0.0499430466308599,0.0614515780856578,0.748876999999993,
0.0134554133300783,-0.0183874687500001,-0.0530076247558586,0.0576971007692188,0.751893000000109,
-0.0224576115722654,-0.0183874687500001,0.0451546433105481,0.0536785351613269,0.754844000000048,
0.0134554133300783,-0.0255700737304688,-0.000335188232421402,0.0288961791525456,0.757798000000093,
0.011061211669922,0.00316034619140615,-0.0242772048339823,0.0268648630409219,0.760856000000103,
0.011061211669922,-0.00402225878906259,-0.0386424147949214,0.0403951134489776,0.763848000000053,
-0.000909796630859216,-0.0662715019531251,0.00924161840820403,0.0669189600325307,0.766863000000058,
-0.00569819995117171,-0.0447236870117189,0.0044532150878922,0.0453046221397415,0.769810000000007,
0.00627280834960953,-0.0303584770507814,0.0307894333496108,0.0436918122698508,0.772764000000052,
0.0134554133300783,-0.0351468803710939,-0.0218830031738264,0.0435340921073236,0.775797999999895,
-0.000909796630859216,-0.0351468803710939,0.0116358200683599,0.037034082118945,0.778739000000087,
-0.0200634099121092,-0.00402225878906259,0.0140300217285176,0.024810491586629,0.781756000000087,
0.0278206232910158,-0.0231758720703126,0.0044532150878922,0.0364820401175583,0.784703000000036,
0.0134554133300783,-0.0351468803710939,-0.00751779321288915,0.0383779697547304,0.787649999999985,
-0.0320344182128905,0.0318907661132811,0.0188184250488295,0.0489628229869233,0.790696000000025,
0.039791631591797,-0.0112048637695313,0.00205901342773629,0.0413903666705993,0.793676000000005,
0.0254264216308596,-0.0566946953125002,-0.0218830031738264,0.0658760747269687,0.796693999999889,
0.0350032282714846,-0.0135990654296876,-0.000335188232421402,0.0375536006414529,0.799643999999944,
0.0182438166503908,0.000766144531249902,0.0044532150878922,0.0187950777608094,0.802609999999959,
-0.00330399829101546,-0.0112048637695313,-0.0314598098144518,0.033558680104591,0.805609000000004,
-0.000909796630859216,0.000766144531249902,-0.000335188232421402,0.00123574208613314,0.808557999999948,
0.0182438166503908,-0.0135990654296876,-0.00751779321288915,0.0239643201724097,0.811586999999918,
0.00627280834960953,0.0223139594726561,0.00684741674804812,0.0241691544754822,0.814560000000029,
-0.0152750065917967,-0.0183874687500001,0.026001030029299,0.0353196601908366,0.817489999999907,
-0.0152750065917967,-0.00881066210937509,-0.012306196533201,0.0215033966223659,0.820504000000028,
-0.0272460148925779,-0.00402225878906259,-0.0577960280761705,0.0640226893739575,0.823439999999891,
0.0158496149902345,-0.0159932670898438,0.00205901342773629,0.0226104936664671,0.826487000000043,
0.0182438166503908,-0.0375410820312502,0.0283952316894549,0.0504822629123136,0.829455000000053,
0.00148440502929703,-0.0112048637695313,-0.0338540114746078,0.0356909865835568,0.832382000000052,
-0.0152750065917967,-0.00402225878906259,0.0499430466308599,0.0523814117690414,0.835417000000007,
0.0278206232910158,0.0055545478515624,0.0164242233886736,0.0327810188379946,0.838391000000001,
0.011061211669922,-0.0183874687500001,0.0307894333496108,0.0375291702097072,0.841425000000072,
0.0254264216308596,-0.0183874687500001,-0.0338540114746078,0.0461594629182939,0.844376999999895,
0.00387860668945328,-0.0447236870117189,-0.012306196533201,0.0465477630277485,0.847385999999915,
0.0134554133300783,0.0294965644531249,0.0379720383300786,0.0499296620994129,0.850376000000097,
0.0254264216308596,-0.0135990654296876,0.0236068283691413,0.0372655315695518,0.853317999999945,
0.020638018310547,-0.00402225878906259,0.0667024582519549,0.0699380032772344,0.856363999999985,
-0.00330399829101546,-0.0519062919921877,-0.048219221435545,0.0709244165921399,0.859326999999894,
-0.000909796630859216,-0.0112048637695313,0.0547314499511735,0.0558740397301027,0.862435000000005,
-0.00330399829101546,0.0175255561523436,0.0140300217285176,0.0226914748938596,0.865510999999969,
0.0278206232910158,0.0103429511718749,0.0331836350097667,0.0445209765358512,0.86857800000007,
-0.00809240161132796,-0.0112048637695313,0.0044532150878922,0.0145212623608215,0.871619999999893,
-0.00330399829101546,-0.0231758720703126,-0.0290656081542959,0.0373208658568582,0.874536999999918,
0.0230322199707033,-0.0375410820312502,0.0164242233886736,0.0470060752539177,0.877580999999964,
-0.00569819995117171,-0.0183874687500001,0.026001030029299,0.0323515386388387,0.880537000000004,
0.0254264216308596,0.00794874951171864,-0.00991199487304506,0.0284241653899206,0.883518999999978,
0.00387860668945328,-0.0375410820312502,0.0164242233886736,0.0411598292495192,0.886561999999913,
-0.0152750065917967,-0.00641646044921884,0.0188184250488295,0.0250724931427697,0.889515999999958,
0.011061211669922,-0.00641646044921884,0.0188184250488295,0.0227520216600992,0.892567999999983,
0.0230322199707033,0.0271023627929686,-0.00991199487304506,0.0369224710454735,0.895549000000074,
0.00387860668945328,-0.0375410820312502,0.0212126267089854,0.0432937866422341,0.898513000000094,
-0.00809240161132796,0.0103429511718749,0.0164242233886736,0.0210289970446492,0.901577999999972,
0.00866701000976578,-0.0135990654296876,0.0044532150878922,0.0167296971786502,0.904565999999932,
-0.0128808049316405,-0.0207816704101563,0.047548844970704,0.0534666776485259,0.907596999999896,
0.0278206232910158,-0.00402225878906259,0.0379720383300786,0.0472444847681479,0.910562999999911,
0.0302148249511721,-0.00881066210937509,-0.0314598098144518,0.0445003713152714,0.913502999999992,
0.0278206232910158,-0.0423294853515627,0.064308256591799,0.0818616166240652,0.916543999999931,
0.0278206232910158,0.0342849677734374,0.00205901342773629,0.0442005161940655,0.919525999999905,
0.00387860668945328,-0.00641646044921884,0.0212126267089854,0.0224986685482191,0.922551999999996,
-0.00569819995117171,-0.0686657036132814,0.0164242233886736,0.0708322204177703,0.92549299999996,
0.058945244873047,-0.00162805712890635,0.047548844970704,0.0757501493147472,0.928445000000011,
-0.0152750065917967,0.0127371528320311,-0.0314598098144518,0.0372193568215174,0.931479000000081,
0.0326090266113283,-0.0159932670898438,0.0499430466308599,0.0617530656365953,0.934443999999985,
0.0134554133300783,-0.0495120903320314,-0.0218830031738264,0.0557795756960931,0.93747099999996,
0.0182438166503908,-0.00881066210937509,0.0331836350097667,0.0388795350440315,0.940440000000081,
0.0134554133300783,-0.0279642753906251,-0.06497863305664,0.0720088300135159,0.943455000000085,
-0.00569819995117171,-0.0183874687500001,-0.0721612380371077,0.0746847559061679,0.946390000000065,
0.00148440502929703,0.0175255561523436,-0.0147003981933587,0.0229227023665024,0.94936400000006,
0.0134554133300783,0.000766144531249902,-0.012306196533201,0.0182504136511965,0.95240600000011,
-0.00330399829101546,0.0294965644531249,-0.000335188232421402,0.0296829255700232,0.955367999999908,
0.00866701000976578,-0.0183874687500001,-0.00512359155273323,0.0209634744243613,0.958392000000003,
0.0373974299316408,-0.00162805712890635,0.0283952316894549,0.0469841198513369,0.961375000000089,
-0.00569819995117171,-0.0303584770507814,0.026001030029299,0.0403752420935264,0.964296000000104,
-0.00330399829101546,0.0151313544921874,-0.0314598098144518,0.0350655661160169,0.967331999999942,
-0.00330399829101546,-0.00641646044921884,0.0595198532714853,0.0599558195912838,0.970274999999901,
-0.00809240161132796,-0.00881066210937509,0.064308256591799,0.0654115173078966,0.973295999999891,
-0.0392170231933592,-0.0183874687500001,-0.00991199487304506,0.0444333383569587,0.976227999999992,
0.020638018310547,0.0247081611328124,0.0116358200683599,0.0342317591574658,0.979192999999896,
0.0158496149902345,-0.0327526787109377,0.0451546433105481,0.0579904308535762,0.982226000000082,
0.0134554133300783,-0.0447236870117189,0.00205901342773629,0.0467492873111563,0.985185000000001,
0.00148440502929703,-0.00641646044921884,0.0164242233886736,0.0176954665637401,0.988225999999941,
0.0230322199707033,-0.0159932670898438,0.0188184250488295,0.033769821887365,0.991181000000097,
0.00148440502929703,-0.0519062919921877,-0.0362482131347637,0.0633277155922468,0.994106999999985,
0.0541568415527345,-0.00641646044921884,-0.0194888015136705,0.0579132785818903,0.997131000000081,
-0.000909796630859216,-0.00402225878906259,-0.00751779321288915,0.00857458514841833,1.00012399999991,
-0.000909796630859216,-0.0423294853515627,-0.00991199487304506,0.0434840281298887,1.00324099999989,
0.039791631591797,-0.0471178886718752,0.0451546433105481,0.0764356670026196,1.00630999999998,
0.0134554133300783,0.0103429511718749,-0.00991199487304506,0.0196538146218567,1.00934000000007,
-0.00569819995117171,0.00794874951171864,0.00684741674804812,0.0119389789180244,1.01239899999996,
-0.00330399829101546,-0.0375410820312502,0.0403662399902363,0.0552239311868816,1.01533900000004,
