X,Y,Z,Magnitude,Seconds,
0.00627280834960953,-0.0255700737304688,0.0164242233886736,0.0310311441795754,0.0,
0.020638018310547,-0.0135990654296876,-0.012306196533201,0.0276098687693579,0.00387399999999616,
0.00627280834960953,-0.0279642753906251,0.0188184250488295,0.0342853021575144,0.00778600000012375,
-0.00809240161132796,-0.0399352836914064,0.00924161840820403,0.0417818304787499,0.0116680000000997,
0.0278206232910158,-0.00162805712890635,0.0212126267089854,0.0350230378780932,0.0156030000000555,
0.011061211669922,-0.0159932670898438,0.026001030029299,0.0324682700247243,0.0196130000001631,
0.0350032282714846,0.0103429511718749,-0.00272938989257732,0.0366012595077703,0.0235890000001291,
-0.0152750065917967,0.00316034619140615,-0.0506134230957009,0.0529625548089724,0.0275650000000951,
0.020638018310547,-0.0231758720703126,0.0044532150878922,0.0313509165834908,0.0315689999999904,
0.00148440502929703,0.0199197578124999,0.0499430466308599,0.0537894796068144,0.0354260000001432,
0.039791631591797,0.0127371528320311,0.0978270798339853,0.106375497911167,0.0394330000001446,
0.0278206232910158,-0.0135990654296876,-0.0338540114746078,0.0458804506711127,0.0432620000001407,
0.00866701000976578,-0.0183874687500001,-0.0147003981933587,0.0250862068991092,0.0471150000000762,
-0.00809240161132796,-0.00402225878906259,0.0236068283691413,0.0252774182869871,0.0509890000000723,
0.0182438166503908,-0.0566946953125002,-0.0194888015136705,0.0626652910867695,0.0548400000000129,
-0.0128808049316405,-0.0135990654296876,0.0283952316894549,0.0340167443907515,0.0586570000000393,
0.0278206232910158,-0.00881066210937509,0.0212126267089854,0.0360775606021381,0.0626170000000457,
0.0350032282714846,-0.00641646044921884,0.0523372482910176,0.0632896872546995,0.0667700000001332,
0.00866701000976578,0.00316034619140615,0.0379720383300786,0.0390765984381941,0.0706230000000687,
0.0302148249511721,-0.0375410820312502,-0.000335188232421402,0.0481910867075871,0.0745560000000296,
0.0254264216308596,-0.00641646044921884,0.0499430466308599,0.0564090576806498,0.0784590000000662,
0.00627280834960953,-0.0279642753906251,-0.0338540114746078,0.0443558667555547,0.0823120000000017,
0.00148440502929703,-0.0279642753906251,-0.0147003981933587,0.0316276123578278,0.0861859999999979,
0.0613394465332033,0.0366791694335936,-0.00751779321288915,0.0718638044228785,0.0901870000000145,
-0.0104866032714842,-0.00402225878906259,-0.0170945998535146,0.0204541623659214,0.0940960000000359,
0.011061211669922,-0.0279642753906251,0.0188184250488295,0.0354751211844012,0.0979570000001786,
0.00387860668945328,0.0247081611328124,0.0331836350097667,0.0415534649443089,0.101941000000124,
0.0637336481933595,-0.0303584770507814,0.0810676682128921,0.10749689237533,0.10580600000003,
0.0733104548339845,-0.0159932670898438,0.026001030029299,0.079411969770037,0.109727000000021,
0.0230322199707033,-0.0183874687500001,0.0116358200683599,0.0316855562121662,0.113749000000098,
0.0445800349121095,-0.0112048637695313,-0.0721612380371077,0.0855580081576633,0.117546000000175,
0.0230322199707033,-0.00402225878906259,0.0044532150878922,0.0238011102086455,0.121342000000141,
0.0134554133300783,-0.0207816704101563,0.00205901342773629,0.0248428160484115,0.125246000000061,
0.0134554133300783,-0.0159932670898438,0.0044532150878922,0.0213696950074015,0.129100000000108,
0.00148440502929703,-0.0135990654296876,0.00205901342773629,0.0138339284061876,0.132916000000023,
0.0182438166503908,-0.00402225878906259,0.0619140549316413,0.0646712116000432,0.136938999999984,
0.0302148249511721,-0.00402225878906259,0.085856071533204,0.0911064170720745,0.140967000000046,
0.00387860668945328,-0.0207816704101563,0.0164242233886736,0.0267708148700948,0.144940000000133,
0.00866701000976578,-0.0375410820312502,0.0116358200683599,0.0402472634007541,0.14884700000016,
0.00148440502929703,-0.0399352836914064,0.0331836350097667,0.0519440465719175,0.152741000000105,
0.0134554133300783,-0.0327526787109377,0.0523372482910176,0.0631899807667385,0.156562000000122,
0.00387860668945328,-0.0135990654296876,0.0762792648925803,0.0775790205078978,0.160379000000148,
0.0158496149902345,-0.0351468803710939,0.0427604416503922,0.0575757663022842,0.164399000000003,
-0.0152750065917967,-0.00641646044921884,0.0140300217285176,0.0217103270536973,0.16822900000011,
0.00627280834960953,-0.0183874687500001,-0.00991199487304506,0.0218104281018606,0.172045000000026,
-0.017669208251953,-0.00162805712890635,0.0236068283691413,0.0295319121615238,0.175950000000057,
0.0254264216308596,-0.00402225878906259,-0.02667140649414,0.0370681184725107,0.179823000000169,
-0.0128808049316405,-0.0112048637695313,0.0379720383300786,0.0416333976840911,0.183664000000135,
0.0469742365722658,0.000766144531249902,0.0164242233886736,0.0497686748157012,0.18758200000002,
0.0302148249511721,0.0175255561523436,0.0595198532714853,0.069012272087927,0.191445000000158,
0.0445800349121095,-0.0112048637695313,-0.00512359155273323,0.0462512667421975,0.195277000000033,
0.0350032282714846,-0.0159932670898438,-0.0218830031738264,0.0442704914083686,0.19914000000017,
0.011061211669922,-0.0399352836914064,0.0571256516113294,0.070572780582452,0.202981000000136,
-0.000909796630859216,0.0055545478515624,-0.012306196533201,0.013532302274875,0.206863999999996,
0.0278206232910158,0.000766144531249902,-0.00751779321288915,0.0288286536719136,0.210966999999982,
-0.00809240161132796,0.0199197578124999,-0.0242772048339823,0.032429406249557,0.21485900000016,
0.0134554133300783,-0.00402225878906259,0.0379720383300786,0.0404858297258485,0.218879000000015,
0.00148440502929703,-0.0112048637695313,-0.000335188232421402,0.0113077310516262,0.222768000000087,
0.0302148249511721,-0.0375410820312502,0.0212126267089854,0.0526521036502986,0.226706000000149,
0.0302148249511721,-0.0112048637695313,0.0116358200683599,0.0342618873909038,0.230576000000156,
0.0613394465332033,-0.0279642753906251,0.0810676682128921,0.105434791357493,0.234546000000137,
0.0182438166503908,0.000766144531249902,-0.0338540114746078,0.038464502028997,0.238721000000169,
0.0517626398925783,-0.0351468803710939,-0.048219221435545,0.0789921983762881,0.242677000000185,
0.00148440502929703,-0.0112048637695313,0.0427604416503922,0.0442290379787007,0.246688000000177,
0.0254264216308596,-0.00402225878906259,-0.0242772048339823,0.0353845186100867,0.250646000000188,
0.0326090266113283,-0.00162805712890635,0.0523372482910176,0.0616861957428802,0.254561000000194,
0.020638018310547,-0.00402225878906259,-0.00512359155273323,0.0216415700898041,0.258489000000054,
0.00627280834960953,-0.0423294853515627,-0.000335188232421402,0.0427930579167958,0.262425000000121,
0.0517626398925783,0.0199197578124999,0.0307894333496108,0.0634362423693863,0.266346000000112,
0.0326090266113283,-0.0566946953125002,0.0403662399902363,0.0768574682387138,0.270241000000169,
0.0254264216308596,-0.0279642753906251,-0.00751779321288915,0.0385359680021759,0.27412100000015,
-0.00569819995117171,-0.0255700737304688,0.0451546433105481,0.0522038309491552,0.277966000000106,
0.0182438166503908,-0.0327526787109377,0.0307894333496108,0.0485135446520362,0.281928999999991,
0.0757046564941408,-0.0423294853515627,0.0762792648925803,0.115505439688252,0.285943000000088,
-0.017669208251953,0.0247081611328124,0.026001030029299,0.0399843433033533,0.289965000000166,
0.020638018310547,0.0318907661132811,0.0499430466308599,0.0627475630590601,0.293985000000021,
-0.0104866032714842,-0.0327526787109377,0.0451546433105481,0.0567595685626506,0.297839000000067,
0.0350032282714846,-0.0207816704101563,0.0738850632324226,0.0843570173922781,0.301688000000013,
-0.0511880314941405,-0.176404778320313,-0.29482199243164,0.347359853183763,0.305468000000019,
0.262452385986328,0.702267230957031,1.70433639379883,1.86194067086284,0.309459000000061,
-0.372011053955078,-0.712705950195313,-1.30517509301758,1.53291357197398,0.313153000000057,
0.69580288647461,-1.10056661914063,-0.452839302001951,1.37856881345497,0.316152999999986,
0.137953899658203,-0.0782425102539064,-1.09209114526367,1.10354711653153,0.319135000000188,
-0.905918024169922,2.37820839306641,2.07064924780274,3.28087654976433,0.322192000000086,
-0.455808112060547,-0.3631525078125,0.0140300217285176,0.582955933549364,0.325185000000147,
1.4403996027832,-3.24337710498047,-1.30278089135742,3.78040792927106,0.328286000000162,
0.552150786865235,1.43968134228516,0.425832707275392,1.59965194756402,0.331276000000116,
-1.71036978198242,3.22575578076172,0.231902372802736,3.65850295322387,0.334227000000055,
-0.474961725341797,-2.77171937792969,0.380342875732424,2.83772402704192,0.337277999999969,
1.73009800366211,-2.41258912890625,-0.488752326904295,3.00877121832927,0.340213000000176,
0.463565325439453,3.1994195625,-0.230178547607421,3.24101226650504,0.343286000000035,
-1.78937843676758,1.86584923779297,0.634128251708987,2.66183906496183,0.346326999999974,
0.171472722900391,-3.55941172412109,-0.203842329345703,3.56936498718507,0.34927400000015,
1.18422002514648,-1.00479855273438,-0.426503083740233,1.61055955492958,0.35233200000016,
-0.213993744384765,3.13477611767578,0.248661784423829,3.15189582848468,0.355299000000059,
-0.616219623291015,0.529884711425781,0.468928337158205,0.938295378290687,0.358384000000115,
-0.0272460148925779,-2.64243248828125,-0.407349470458984,2.67378484391227,0.36133400000017,
0.532997173583985,-0.411036541015625,-0.232572749267577,0.712128576031383,0.364279000000124,
0.0541568415527345,2.16033604199219,0.334853044189455,2.18680390959509,0.367357000000084,
-0.182869122802734,0.300041352050781,0.236690776123048,0.42366077528706,0.370370999999977,
-0.175686517822265,-1.62010837939453,-0.330735017333984,1.66282968617348,0.373465000000124,
0.12119448803711,-0.320056877929688,-0.14159308618164,0.370368885160616,0.376438000000007,
0.14034810131836,1.13801193310547,0.198383549560548,1.16366867370844,0.379489000000149,
0.0350032282714846,0.278493537109375,0.210354557861329,0.350760482686051,0.382483000000093,
-0.017669208251953,-0.810868218261719,-0.196659724365233,0.834562469497997,0.385406000000103,
-0.0894952580566405,-0.243442424804688,0.0283952316894549,0.260921261287977,0.388470999999981,
-0.115831476318359,0.455664459960937,0.246267582763673,0.530749237679948,0.391483000000107,
0.0541568415527345,0.19230227734375,0.0427604416503922,0.204307573840759,0.394590000000107,
0.365403057373047,-0.360758306152344,-0.048219221435545,0.515743194924886,0.397600000000011,
0.0326090266113283,-0.26738444140625,-0.00272938989257732,0.269379356469378,0.400602000000163,
-0.458202313720703,0.367078998535156,0.0427604416503922,0.58866357695607,0.403709000000163,
0.252875579345703,0.0127371528320311,0.0283952316894549,0.254783403844107,0.406723000000056,
0.556939190185547,-0.444555364257813,-0.0362482131347637,0.713529723564753,0.409805000000006,
-0.213993744384765,0.0366791694335936,0.047548844970704,0.222260155592942,0.41292199999998,
-0.496509540283203,0.410174628417969,0.047548844970704,0.645775380490852,0.415889000000107,
0.286394402587891,-0.169222173339844,-0.00272938989257732,0.33266401571664,0.418942000000015,
0.35103784741211,-0.298509062988281,-0.0147003981933587,0.461032897642796,0.42193199999997,
-0.20441693774414,0.108505219238281,0.0451546433105481,0.235793572539928,0.425047000000177,
-0.216387946044922,0.201879083984375,-0.0147003981933587,0.296302226537287,0.42802800000004,
0.0900698664550782,-0.217106206542969,-0.00991199487304506,0.235257164407542,0.430965000000015,
0.219356756103516,-0.154856963378906,0.0547314499511735,0.274032109740722,0.43400900000006,
0.0134554133300783,0.120476227539062,0.0762792648925803,0.143227426851423,0.43701800000008,
-0.0607648381347655,0.11568782421875,0.083461869873048,0.155054577322691,0.440045000000055,
-0.12780248461914,-0.174010576660156,-0.086526447998045,0.232594028443518,0.443034000000125,
0.169078521240235,-0.0997903251953126,0.0355778366699226,0.199528037652562,0.446084000000155,
0.173866924560547,0.0773805976562499,0.0786734665527362,0.205929547877923,0.449162999999999,
-0.137379291259766,0.0318907661132811,-0.0242772048339823,0.143106510351132,0.45217700000012,
-0.0966778630371092,-0.123732341796875,-0.00272938989257732,0.157046971244741,0.455180000000155,
0.116406084716797,-0.0878193168945314,-0.0506134230957009,0.154351312195202,0.458159000000023,
0.195414739501953,0.0606211860351561,0.0044532150878922,0.204650139837588,0.461153000000195,
-0.065553241455078,0.0701979926757811,-0.00272938989257732,0.0960855619235402,0.464204999999993,
-0.142167694580078,-0.0399352836914064,-0.0458250197753891,0.154616987110544,0.467180000000099,
0.152319109619141,-0.0183874687500001,0.0140300217285176,0.154065089075698,0.470262000000048,
0.128377093017578,-0.00402225878906259,0.0690966599121108,0.145846511745808,0.473214000000098,
-0.12780248461914,-0.0183874687500001,-0.0194888015136705,0.130580961346963,0.476204000000052,
-0.0200634099121092,0.0247081611328124,-0.00751779321288915,0.032703988421263,0.479236000000128,
0.176261126220703,0.0773805976562499,-0.0170945998535146,0.193256220739155,0.482175999999981,
-0.0104866032714842,-0.00402225878906259,0.0212126267089854,0.024002561234886,0.485278999999991,
-0.115831476318359,-0.145280156738281,-0.048219221435545,0.19195923568258,0.488228000000163,
0.111617681396485,-0.0423294853515627,0.0283952316894549,0.12270526196196,0.491275999999971,
0.164290117919922,0.127658832519531,0.0379720383300786,0.211494435059962,0.494266000000152,
-0.149350299560547,0.0366791694335936,-0.012306196533201,0.154279991970045,0.497213999999985,
-0.132590887939453,-0.116549736816406,0.0523372482910176,0.184128684009911,0.500258000000031,
0.181049529541016,-0.00881066210937509,0.0403662399902363,0.185704047464718,0.503227000000152,
0.166684319580078,0.0223139594726561,-0.0386424147949214,0.172553792778959,0.506276000000071,
-0.132590887939453,0.0893516059570312,0.083461869873048,0.1803605743348,0.509285000000091,
-0.146956097900391,-0.0183874687500001,0.026001030029299,0.150367041866647,0.512251999999989,
0.12119448803711,-0.202740996582031,0.0140300217285176,0.236619646554032,0.515333000000055,
0.21696255444336,0.0917458076171874,0.107403886474611,0.258893101638048,0.518341000000191,
-0.0224576115722654,0.194696479003906,0.0044532150878922,0.196037992181792,0.521424000000025,
-0.194840131103516,-0.128520745117188,0.0403662399902363,0.236874844474591,0.524342000000161,
0.0709162531738283,-0.253019231445313,0.0451546433105481,0.266621057416503,0.527347000000191,
0.243298772705078,0.199484882324219,0.0523372482910176,0.318947799231129,0.530445999999984,
-0.0104866032714842,0.223426898925781,-0.0314598098144518,0.225874451068124,0.533437000000049,
-0.192445929443359,-0.320056877929688,-0.0506134230957009,0.376873399786827,0.536526999999978,
0.0421858332519533,-0.123732341796875,-0.00751779321288915,0.130942178645737,0.539547000000084,
0.183443731201172,0.252157318847656,0.0188184250488295,0.312392460035073,0.54256700000019,
0.0733104548339845,0.00316034619140615,0.0188184250488295,0.0757531761534368,0.545672000000195,
-0.187657526123047,-0.176404778320313,-0.0530076247558586,0.262952089185689,0.548615000000154,
0.0613394465332033,0.00794874951171864,0.0762792648925803,0.0982050740662222,0.551763000000165,
0.19780894116211,0.0821690009765624,0.0379720383300786,0.217536198413281,0.554797000000008,
-0.00809240161132796,-0.0231758720703126,0.0140300217285176,0.0282745383651298,0.557725000000119,
-0.206811139404297,-0.0614830986328126,0.0188184250488295,0.216575972629731,0.560782000000017,
0.135559697998047,0.0247081611328124,-0.00512359155273323,0.137888274114538,0.563818000000083,
0.0900698664550782,0.0318907661132811,0.0547314499511735,0.110114183556368,0.566958000000113,
-0.175686517822265,-0.0471178886718752,0.0044532150878922,0.181949660901106,0.569885000000113,
-0.0272460148925779,-0.0399352836914064,-0.0194888015136705,0.0521247119462442,0.572873000000072,
0.224145159423828,0.00316034619140615,0.0236068283691413,0.225407015478297,0.575876000000108,
0.0469742365722658,-0.0207816704101563,-0.0721612380371077,0.0885759617595637,0.578844000000117,
-0.137379291259766,-0.0423294853515627,0.0212126267089854,0.145309430282616,0.581878000000188,
-0.00330399829101546,-0.0207816704101563,0.00205901342773629,0.0211431730362072,0.584886000000097,
0.17865532788086,0.0247081611328124,-0.00991199487304506,0.180627979696241,0.587991999999986,
-0.00809240161132796,-0.00641646044921884,0.0140300217285176,0.0174212352672849,0.591012000000092,
-0.113437274658203,-0.0614830986328126,-0.012306196533201,0.129613383462074,0.593959000000041,
0.0804930598144533,0.0103429511718749,0.0499430466308599,0.0952912232265343,0.597055000000182,
0.125982891357422,0.00794874951171864,-0.0147003981933587,0.127086479377703,0.60004200000003,
-0.0272460148925779,-0.0519062919921877,-0.048219221435545,0.0759058745536533,0.603065000000015,
-0.0631590397949217,-0.0830309135742189,-0.0338540114746078,0.109678124572354,0.60603100000003,
0.0852814631347658,0.0151313544921874,-0.0410366164550773,0.095843047391325,0.60904000000005,
0.0828872614746095,0.0797747993164062,0.064308256591799,0.131794797266849,0.612154000000146,
-0.0487938298339842,-0.11415553515625,0.00924161840820403,0.124489885321983,0.615071000000171,
-0.0272460148925779,-0.0734541069335939,-0.0218830031738264,0.0813432048842687,0.618131000000176,
0.0900698664550782,0.0630153876953123,-0.00512359155273323,0.1100444052191,0.621100000000069,
0.0541568415527345,0.0438617744140624,0.00205901342773629,0.0697212899910328,0.62407700000017,
-0.065553241455078,-0.111761333496094,-0.0242772048339823,0.131822630093031,0.627132000000074,
-0.0607648381347655,-0.0902135185546876,-0.0218830031738264,0.110949133892369,0.630075000000033,
0.0517626398925783,0.0534385810546874,0.0188184250488295,0.0767410317568479,0.633163000000195,
0.0565510432128908,0.0486501777343749,0.0188184250488295,0.0769349946602384,0.636102000000164,
-0.0416112248535155,-0.106972930175781,-0.0147003981933587,0.115718639515187,0.639035000000149,
-0.00569819995117171,-0.0950019218750001,-0.00272938989257732,0.095211786097168,0.642088000000058,
0.0469742365722658,0.0414675727539061,0.0762792648925803,0.0987150684758924,0.645061000000169,
0.0804930598144533,0.0438617744140624,0.0451546433105481,0.102185760972584,0.648116000000073,
-0.0535822331542967,-0.0926077202148439,0.0331836350097667,0.112019637500099,0.651087000000189,
-0.017669208251953,-0.0638773002929689,0.00205901342773629,0.0663079931023749,0.654106000000183,
0.097252471435547,0.0845632026367187,0.0307894333496108,0.132502708072291,0.657187000000022,
0.078098858154297,0.0342849677734374,0.0738850632324226,0.112844553386904,0.660167000000001,
-0.0511880314941405,-0.111761333496094,-0.000335188232421402,0.122926492605221,0.663191000000097,
-0.0535822331542967,0.0055545478515624,0.026001030029299,0.0598160703675962,0.666148000000021,
0.0924640681152345,0.0199197578124999,0.0283952316894549,0.0987557078169419,0.669242000000168,
0.0373974299316408,-0.0327526787109377,0.0164242233886736,0.0523551415063979,0.672250000000076,
-0.0583706364746092,-0.0159932670898438,-0.00991199487304506,0.0613283249161538,0.675277000000051,
0.00627280834960953,0.0175255561523436,-0.00751779321288915,0.0200751203690449,0.678384000000051,
0.049368438232422,-0.0351468803710939,-0.00751779321288915,0.0610660552854057,0.681401000000051,
0.0278206232910158,0.000766144531249902,-0.00272938989257732,0.0279646853536577,0.684484000000111,
-0.00809240161132796,-0.0255700737304688,0.047548844970704,0.0545912840338884,0.687511000000086,
0.011061211669922,0.00316034619140615,0.0331836350097667,0.0351211022622834,0.690547000000151,
0.0613394465332033,-0.00402225878906259,0.0116358200683599,0.0625627570958085,0.693727000000081,
-0.00330399829101546,-0.00641646044921884,-0.000335188232421402,0.00722493740835009,0.696669000000156,
-0.0392170231933592,0.0223139594726561,0.0427604416503922,0.0621638404993804,0.699764000000187,
0.0469742365722658,0.0127371528320311,-0.0314598098144518,0.0579528566800222,0.702768000000106,
0.0421858332519533,0.0223139594726561,-0.0147003981933587,0.0499365499564422,0.705805000000055,
-0.0128808049316405,-0.0303584770507814,-0.000335188232421402,0.0329797606977514,0.708874000000151,
-0.0392170231933592,-0.0303584770507814,0.0044532150878922,0.0497940072861216,0.711821999999984,
0.0709162531738283,-0.00641646044921884,0.0283952316894549,0.076658822790392,0.714874000000009,
0.0230322199707033,-0.0351468803710939,-0.0290656081542959,0.0510939911729151,0.717864000000191,
-0.00330399829101546,0.000766144531249902,0.00684741674804812,0.00764136756551124,0.72081900000012,
0.0182438166503908,-0.0519062919921877,-0.012306196533201,0.0563785639003433,0.723891000000094,
0.0613394465332033,-0.0279642753906251,0.0355778366699226,0.076225395120223,0.72698000000014,
0.0182438166503908,0.0271023627929686,-0.0314598098144518,0.0453552042052094,0.730054999999993,
0.00387860668945328,-0.0159932670898438,-0.000335188232421402,0.0164602713589329,0.73305100000016,
0.0350032282714846,-0.00402225878906259,0.0355778366699226,0.0500718185939311,0.735993000000008,
0.0613394465332033,-0.00402225878906259,-0.0242772048339823,0.0660915194356812,0.739074000000073,
0.00387860668945328,-0.0231758720703126,0.00924161840820403,0.0252501910264818,0.742066000000023,
0.0182438166503908,0.0199197578124999,0.0164242233886736,0.0316131097996192,0.745180000000119,
0.00148440502929703,-0.0255700737304688,-0.00272938989257732,0.0257581384820083,0.748167000000194,
0.0421858332519533,-0.0112048637695313,0.047548844970704,0.0645452256739676,0.751148000000057,
-0.00330399829101546,0.000766144531249902,0.0188184250488295,0.0191216239757038,0.754196000000093,
0.0134554133300783,-0.0135990654296876,-0.0147003981933587,0.0241264260819433,0.757123999999976,
0.0254264216308596,-0.0112048637695313,0.0164242233886736,0.0322770352257615,0.760256000000027,
-0.0104866032714842,0.00794874951171864,0.0403662399902363,0.0424568580787945,0.763187000000016,
0.058945244873047,0.0247081611328124,0.0355778366699226,0.0731492828523984,0.766283000000158,
0.0254264216308596,-0.0159932670898438,0.0427604416503922,0.0522565104010392,0.769279000000097,
-0.017669208251953,0.0055545478515624,0.0331836350097667,0.0380027308827615,0.772260000000188,
0.0350032282714846,-0.0183874687500001,0.0403662399902363,0.0565044982935627,0.775311000000102,
0.039791631591797,0.0342849677734374,-0.0194888015136705,0.0560236230924258,0.778287999999975,
0.00148440502929703,-0.00402225878906259,0.0164242233886736,0.0169746027340331,0.781315000000177,
-0.00809240161132796,-0.0423294853515627,0.0236068283691413,0.0491381179901843,0.784287000000177,
0.0182438166503908,0.0199197578124999,-0.0194888015136705,0.0333083620389981,0.787244000000101,
0.0182438166503908,-0.00881066210937509,0.0547314499511735,0.0583609135169804,0.790341000000126,
0.020638018310547,0.0103429511718749,0.00205901342773629,0.0231763667347982,0.79332700000009,
0.0134554133300783,-0.0183874687500001,0.00924161840820403,0.0245876933793785,0.796412000000146,
0.00627280834960953,-0.0135990654296876,0.0379720383300786,0.0408186036029261,0.799402999999984,
0.00387860668945328,0.00316034619140615,0.00924161840820403,0.0105089908508792,0.802417999999989,
0.0230322199707033,-0.00641646044921884,0.0499430466308599,0.0553711299166588,0.805459000000155,
0.0230322199707033,-0.00402225878906259,-0.000335188232421402,0.0233832006726241,0.808444000000009,
-0.0104866032714842,0.0151313544921874,-0.0218830031738264,0.0285970726622051,0.811529000000064,
0.0158496149902345,-0.0135990654296876,-0.0362482131347637,0.0418339315790764,0.814522000000125,
0.011061211669922,0.0318907661132811,-0.0338540114746078,0.0478065420190761,0.817537000000129,
0.0158496149902345,-0.0112048637695313,-0.00512359155273323,0.0200751203690454,0.820658000000094,
0.0541568415527345,-0.0255700737304688,0.0212126267089854,0.0635355623996858,0.823669000000109,
0.00148440502929703,-0.00162805712890635,0.0355778366699226,0.0356459884197041,0.826778000000104,
-0.0104866032714842,-0.0471178886718752,0.0164242233886736,0.0509884241273426,0.829732000000149,
0.0326090266113283,-0.0183874687500001,0.0044532150878922,0.0376998507714497,0.832762000000002,
0.00387860668945328,-0.0327526787109377,0.00684741674804812,0.03368484330845,0.835903000000144,
-0.0272460148925779,-0.00402225878906259,-0.0338540114746078,0.0436419292219724,0.838836000000128,
-0.0296402165527342,0.0103429511718749,0.00205901342773629,0.0314604293125883,0.841891000000032,
0.00387860668945328,0.0127371528320311,0.0331836350097667,0.0357551714382606,0.844917000000123,
0.0350032282714846,0.00794874951171864,0.0355778366699226,0.0505390054347867,0.847959000000174,
0.0230322199707033,-0.0207816704101563,-0.0338540114746078,0.0459179167072953,0.850987000000032,
-0.0200634099121092,0.0366791694335936,0.0188184250488295,0.0458479553410837,0.853960000000143,
0.0421858332519533,-0.0159932670898438,-0.02667140649414,0.0524098563606536,0.856995000000097,
0.0445800349121095,-0.0207816704101563,-0.0386424147949214,0.0625499285290082,0.859979000000067,
0.049368438232422,-0.0207816704101563,-0.00751779321288915,0.0540891646574117,0.862982000000102,
0.0230322199707033,0.00316034619140615,0.026001030029299,0.0348787113783309,0.866040000000112,
0.0469742365722658,-0.0255700737304688,-0.0147003981933587,0.0554662895745885,0.869053000000122,
0.0469742365722658,0.0103429511718749,0.0116358200683599,0.04948684521319,0.872159000000011,
0.020638018310547,-0.0112048637695313,-0.00991199487304506,0.0254896923136295,0.875133000000005,
0.00148440502929703,-0.0207816704101563,-0.00751779321288915,0.0221494581901935,0.878167000000076,
0.0613394465332033,0.0390733710937499,0.0188184250488295,0.0751224943072846,0.881192000000055,
0.0326090266113283,0.00794874951171864,0.026001030029299,0.0424568580787942,0.884152000000086,
-0.00809240161132796,-0.0112048637695313,0.0786734665527362,0.0798783467239857,0.887222000000065,
0.0182438166503908,-0.0159932670898438,0.0116358200683599,0.0269075035416407,0.890242000000171,
0.00866701000976578,-0.0279642753906251,0.0523372482910176,0.0599692030904841,0.893323000000009,
0.0421858332519533,0.0294965644531249,0.0571256516113294,0.0768962412196977,0.896311000000196,
0.039791631591797,-0.00641646044921884,-0.00991199487304506,0.0415065362539078,0.899276999999984,
0.011061211669922,0.00316034619140615,0.0307894333496108,0.0328683342694223,0.902329000000009,
0.0541568415527345,0.0199197578124999,0.00205901342773629,0.0577407981809417,0.905349000000115,
0.020638018310547,-0.00641646044921884,-0.0170945998535146,0.0275558361991547,0.908415999999988,
0.0158496149902345,-0.00881066210937509,0.0307894333496108,0.0357327198535792,0.911405000000059,
0.0134554133300783,0.0103429511718749,0.0379720383300786,0.0415920723427914,0.914357000000109,
0.0278206232910158,-0.00402225878906259,0.00684741674804812,0.0289318641326177,0.917423000000099,
0.00866701000976578,-0.0159932670898438,0.0140300217285176,0.0229726612393762,0.920417000000043,
0.0182438166503908,-0.0471178886718752,-0.00512359155273323,0.0507856620441984,0.923453000000109,
-0.0224576115722654,0.0294965644531249,0.00924161840820403,0.038207317923023,0.926429000000098,
0.020638018310547,-0.0495120903320314,-0.000335188232421402,0.053642215092079,0.929418000000169,
0.0421858332519533,0.0055545478515624,0.00205901342773629,0.0425997308124418,0.932600999999977,
0.0445800349121095,-0.0303584770507814,0.0451546433105481,0.070341726266211,0.935576000000083,
0.020638018310547,-0.0135990654296876,-0.0697670363769518,0.0740155506982845,0.938628000000108,
0.00866701000976578,-0.00881066210937509,-0.06497863305664,0.0661435377283709,0.941579000000047,
-0.0152750065917967,-0.0327526787109377,-0.0386424147949214,0.0529084115269406,0.944541000000072,
-0.00330399829101546,-0.0327526787109377,-0.0673728347167959,0.0749850200055027,0.947599000000082,
-0.0152750065917967,-0.0231758720703126,-0.000335188232421402,0.0277589485346632,0.950589000000036,
0.0182438166503908,-0.0207816704101563,-0.0194888015136705,0.0338308742932944,0.953689000000168,
0.0182438166503908,-0.00162805712890635,0.0595198532714853,0.0622743956168761,0.956705000000056,
0.0254264216308596,-0.0303584770507814,0.047548844970704,0.0618791782738031,0.959790999999996,
0.00387860668945328,-0.0351468803710939,0.0523372482910176,0.0631627607720489,0.962819000000081,
-0.00330399829101546,0.0127371528320311,-0.00751779321288915,0.0151548237127759,0.965806000000157,
0.00627280834960953,0.0151313544921874,-0.00991199487304506,0.0191455910256759,0.968989000000192,
0.0445800349121095,0.000766144531249902,-0.0410366164550773,0.060596785230644,0.97195499999998,
0.0134554133300783,-0.00881066210937509,0.0188184250488295,0.0247549800243757,0.975002000000131,
0.0230322199707033,0.0223139594726561,-0.0218830031738264,0.0388234693456407,0.978019000000131,
0.0326090266113283,0.0055545478515624,-0.000335188232421402,0.0330804167072419,0.98103100000003,
0.020638018310547,-0.0303584770507814,0.00684741674804812,0.0373423626026895,0.984106999999995,
-0.00569819995117171,-0.0207816704101563,-0.0530076247558586,0.057220237591064,0.987025000000131,
0.0158496149902345,0.00794874951171864,0.0403662399902363,0.0440888449053506,0.99009100000012,
0.078098858154297,-0.0112048637695313,0.0379720383300786,0.0875605865217891,0.993040000000065,
-0.00569819995117171,-0.00162805712890635,-0.100891657958982,0.101065556439426,0.995955000000095,
-0.0128808049316405,-0.0279642753906251,0.00205901342773629,0.0308570149253827,0.999094000000014,
0.011061211669922,-0.0519062919921877,0.0451546433105481,0.0696818151635553,1.00207599999999,
0.0230322199707033,-0.00402225878906259,-0.00272938989257732,0.0235395686394369,1.00520300000017,
0.0302148249511721,-0.00402225878906259,0.0188184250488295,0.0358224417637125,1.00815499999999,
0.00627280834960953,-0.0231758720703126,0.0355778366699226,0.0429214588862275,1.01113500000019,
0.0326090266113283,-0.0279642753906251,0.0499430466308599,0.0658760747269696,1.01420300000018,
0.0421858332519533,0.00316034619140615,0.0690966599121108,0.0810183974552758,1.01721199999997,
0.011061211669922,0.0247081611328124,0.085856071533204,0.090022822935556,1.02031099999999,
0.00627280834960953,-0.0399352836914064,-0.0218830031738264,0.0459678239207572,1.02324199999998,
0.0924640681152345,-0.0399352836914064,0.0140300217285176,0.101692046324354,1.02618800000005,
-0.000909796630859216,-0.0207816704101563,0.0499430466308599,0.0541018803898546,1.02922600000011,
-0.000909796630859216,-0.0207816704101563,0.0499430466308599,0.0541018803898546,1.03217700000005,
