X,Y,Z,Magnitude,Seconds,
0.020638018310547,-0.0303584770507814,0.0451546433105481,0.0581937001842306,0.0,
0.0613394465332033,-0.00402225878906259,-0.0530076247558586,0.0811696652021173,0.00373599999988983,
-0.0152750065917967,0.0055545478515624,0.0355778366699226,0.0391147196120134,0.00752199999988079,
0.011061211669922,-0.0231758720703126,0.00684741674804812,0.0265774070583976,0.0112770000000637,
0.0182438166503908,-0.00881066210937509,0.0331836350097667,0.0388795350440315,0.0150730000000294,
0.00866701000976578,-0.0231758720703126,0.0044532150878922,0.0251409871196002,0.0188200000000052,
0.0302148249511721,-0.0303584770507814,0.0140300217285176,0.0450712134890494,0.022555999999895,
0.00627280834960953,0.00794874951171864,0.0188184250488295,0.0213696950074022,0.0262869999999111,
0.0182438166503908,-0.0183874687500001,0.00205901342773629,0.0259841372629707,0.0299999999999727,
0.0613394465332033,-0.0159932670898438,0.0307894333496108,0.0704719908843003,0.0337139999999181,
0.0158496149902345,-0.0710599052734376,0.0427604416503922,0.084434446779411,0.0374229999999898,
0.0278206232910158,0.0103429511718749,0.121769096435548,0.125334259346653,0.0412630000000718,
0.011061211669922,0.0103429511718749,0.00924161840820403,0.0177407596611155,0.045229000000063,
0.0350032282714846,0.0294965644531249,0.0355778366699226,0.0579746131170765,0.0490310000000136,
0.039791631591797,-0.0303584770507814,0.0164242233886736,0.0526760494674874,0.0527569999999287,
0.0541568415527345,-0.0375410820312502,0.00684741674804812,0.0662509127723271,0.0564859999999499,
0.00387860668945328,-0.0112048637695313,0.0595198532714853,0.0606894183149284,0.0602119999998649,
0.020638018310547,-0.00881066210937509,0.0714908615722667,0.0749299596619206,0.0640909999999622,
-0.00330399829101546,-0.0471178886718752,-0.000335188232421402,0.0472347773230001,0.0678089999998974,
0.00148440502929703,-0.0471178886718752,0.0212126267089854,0.0516940463020741,0.0715659999998479,
0.0182438166503908,0.000766144531249902,0.0140300217285176,0.0230274908124727,0.0753230000000258,
0.0517626398925783,-0.0159932670898438,0.0283952316894549,0.061167349652847,0.0790999999999258,
0.020638018310547,-0.0231758720703126,0.0140300217285176,0.034057163060194,0.0828449999999066,
0.0278206232910158,-0.0255700737304688,0.0044532150878922,0.0380479549450592,0.0865779999999177,
0.0373974299316408,-0.0183874687500001,0.0379720383300786,0.056378563900344,0.0904309999998532,
0.0445800349121095,0.0199197578124999,0.0427604416503922,0.064904788992879,0.0941699999998491,
0.0326090266113283,-0.00881066210937509,0.083461869873048,0.0900381036342364,0.0978909999998905,
0.00866701000976578,-0.0112048637695313,0.00205901342773629,0.0143145230761885,0.101613000000043,
0.0350032282714846,-0.0375410820312502,0.0403662399902363,0.0652992508414305,0.105319999999892,
-0.00330399829101546,0.0342849677734374,-0.012306196533201,0.0365761929818624,0.109014999999999,
0.020638018310547,-0.0303584770507814,0.0379720383300786,0.0528151552451591,0.11290699999995,
0.0254264216308596,0.00794874951171864,-0.0673728347167959,0.0724484947637077,0.116925999999921,
0.0278206232910158,-0.0423294853515627,-0.0218830031738264,0.0551782406237682,0.120713999999907,
0.00627280834960953,-0.0303584770507814,0.00205901342773629,0.0310680670420506,0.124508999999989,
0.0326090266113283,0.00794874951171864,-0.0147003981933587,0.036641956039241,0.128292999999985,
0.039791631591797,-0.0495120903320314,0.0427604416503922,0.076572034085044,0.132145999999921,
-0.0440054265136717,-0.0159932670898438,-0.0242772048339823,0.0527413009832748,0.136011999999937,
0.011061211669922,-0.0135990654296876,0.0140300217285176,0.0224527613863066,0.139822999999978,
-0.0248518132324217,-0.0112048637695313,0.0044532150878922,0.0276223228142015,0.143583000000035,
0.0541568415527345,-0.0231758720703126,-0.0242772048339823,0.0637139482981445,0.14736599999992,
0.0254264216308596,0.0271023627929686,0.0188184250488295,0.0416554211025449,0.151153999999906,
-0.00809240161132796,0.0390733710937499,0.0140300217285176,0.0422972434346683,0.154890000000023,
0.00387860668945328,-0.0207816704101563,-0.0362482131347637,0.0419625353184372,0.158603999999968,
0.0302148249511721,-0.0399352836914064,0.0810676682128921,0.0952876138845896,0.16246799999999,
0.011061211669922,-0.00402225878906259,0.0738850632324226,0.0748166528136089,0.16619199999991,
0.0254264216308596,-0.0159932670898438,0.0619140549316413,0.0688159698560997,0.169902999999977,
0.0421858332519533,0.0055545478515624,-0.00512359155273323,0.0428573064878807,0.173612000000048,
0.0278206232910158,-0.0183874687500001,-0.0410366164550773,0.0528780670733525,0.177314000000024,
0.011061211669922,-0.0327526787109377,-0.00512359155273323,0.0349476688313823,0.18101200000001,
0.0158496149902345,-0.00641646044921884,0.0212126267089854,0.0272462252785559,0.184989999999971,
0.020638018310547,-0.00641646044921884,-0.0554018264160145,0.0594681522725658,0.188875000000053,
0.0445800349121095,-0.00641646044921884,0.0283952316894549,0.053243212338843,0.192632999999887,
0.0541568415527345,-0.00162805712890635,0.0427604416503922,0.0690222386417564,0.19638800000007,
-0.00569819995117171,-0.00881066210937509,0.0667024582519549,0.0675227012666325,0.200109999999995,
-0.000909796630859216,-0.00881066210937509,0.0140300217285176,0.0165920766155951,0.203884000000016,
0.00866701000976578,-0.0159932670898438,0.0140300217285176,0.0229726612393762,0.207668999999896,
0.0302148249511721,0.00316034619140615,0.0307894333496108,0.043254047681918,0.211534999999913,
-0.00569819995117171,-0.0231758720703126,-0.000335188232421402,0.0238684494689995,0.215226999999913,
0.0134554133300783,-0.0447236870117189,-0.0170945998535146,0.0497341097432861,0.218969999999899,
0.039791631591797,-0.0303584770507814,0.0044532150878922,0.050247807894466,0.222719999999981,
0.00627280834960953,-0.0303584770507814,0.0116358200683599,0.0331115925635872,0.226427000000058,
0.00387860668945328,-0.0183874687500001,0.0044532150878922,0.0193125275793391,0.230149999999867,
-0.00569819995117171,-0.0112048637695313,-0.0410366164550773,0.0429187877841209,0.233899000000065,
0.0182438166503908,-0.00162805712890635,-0.0458250197753891,0.049349973185432,0.237623999999869,
0.00866701000976578,0.0151313544921874,0.00205901342773629,0.0175588862851041,0.241362999999865,
-0.00569819995117171,0.0199197578124999,-0.0362482131347637,0.0417516369673745,0.245060999999851,
0.00866701000976578,-0.0303584770507814,0.0762792648925803,0.0825547118213409,0.248777999999902,
0.0565510432128908,-0.0231758720703126,-0.0194888015136705,0.0641479143786061,0.252527999999984,
-0.00809240161132796,-0.0375410820312502,0.00205901342773629,0.0384585405366828,0.256579999999985,
0.0158496149902345,-0.0423294853515627,0.0379720383300786,0.0590327986835097,0.260417999999845,
0.00387860668945328,-0.0183874687500001,-0.0290656081542959,0.0346114457118274,0.264218999999912,
-0.0152750065917967,-0.0135990654296876,0.047548844970704,0.0517605357873003,0.268002999999908,
0.00866701000976578,-0.0327526787109377,0.0355778366699226,0.0491287847128644,0.271799999999985,
-0.000909796630859216,-0.0112048637695313,-0.02667140649414,0.0289437493490206,0.275609999999915,
0.0350032282714846,0.0127371528320311,0.00205901342773629,0.0373055034544204,0.279417999999851,
-0.017669208251953,0.0606211860351561,0.107403886474611,0.124590224120558,0.283312999999907,
-0.0200634099121092,0.0223139594726561,-0.00512359155273323,0.0304418198379778,0.287098000000015,
0.039791631591797,-0.296114861328125,0.0355778366699226,0.300887300340549,0.29087299999992,
-0.0224576115722654,0.0342849677734374,-0.0577960280761705,0.0708532581758798,0.29461399999991,
0.0469742365722658,0.371867401855469,-0.0625844313964823,0.380011518927394,0.298361999999997,
0.0326090266113283,0.0151313544921874,0.174441532958985,0.178107144512474,0.301995999999917,
-0.0894952580566405,-0.434978557617188,0.0236068283691413,0.444716796564964,0.304906999999957,
-0.0128808049316405,-0.509198809082031,-0.194265522705077,0.545149920313782,0.307816000000003,
0.114011883056641,0.187513874023437,-0.00512359155273323,0.21951403968721,0.310856999999942,
0.0254264216308596,0.845919330566406,0.351612455810548,0.91643730599752,0.313815999999861,
0.0302148249511721,0.177937067382812,0.0403662399902363,0.184943150526249,0.316853000000037,
0.087675664794922,-1.29689115527344,-0.381013252197265,1.35454228031968,0.319778000000042,
-0.103860468017578,-0.253019231445313,0.176835734619141,0.325694036384301,0.322705999999926,
-0.0487938298339842,1.36306688916016,0.428226908935548,1.42958401910874,0.325738000000001,
0.245692974365235,0.139629840820312,-0.251726362548826,0.378454345597992,0.328694999999925,
0.109223479736328,-1.29928535693359,-0.263697370849608,1.33026633072508,0.331707999999935,
-0.230753156005859,-0.142885955078125,0.150499516357423,0.310344195352629,0.334654,
-0.0703416447753905,0.960841010253906,0.128951701416018,0.972004081922262,0.337600000000066,
0.377374065673828,0.137235639160156,0.0762792648925803,0.408733816011648,0.340686000000005,
-0.0200634099121092,-0.581024858886719,-0.0386424147949214,0.582653982465422,0.343706999999995,
-0.218782147705078,-0.2865380546875,-0.0697670363769518,0.367201748774929,0.346810999999889,
-0.0416112248535155,0.156389252441406,0.0236068283691413,0.163543188970503,0.34986200000003,
0.240904571044922,0.266522528808594,0.148105314697267,0.388592916757938,0.352818999999954,
0.291182805908203,0.218638495605469,0.0283952316894549,0.365234866079205,0.355845000000045,
-0.168503912841797,-0.207529399902344,-0.086526447998045,0.280978374025442,0.358757999999852,
-0.357645843994141,-0.430190154296875,0.00924161840820403,0.559517225910922,0.361783999999943,
0.130771294677735,-0.0112048637695313,0.0619140549316413,0.145120745180911,0.364761000000044,
0.669466668212891,0.517913703125,0.0571256516113294,0.848341655115873,0.367784999999913,
-0.0487938298339842,0.221032697265625,0.0331836350097667,0.228773785042882,0.370744000000059,
-0.632979034912109,-0.597784270507813,-0.100891657958982,0.876463130628172,0.373689999999897,
0.00866701000976578,-0.377517717773438,0.0307894333496108,0.378870338640232,0.376745999999912,
0.597640618408203,0.630441181152344,0.0954328781738294,0.873920949457468,0.379725999999891,
0.0254264216308596,0.436510846679687,0.0427604416503922,0.439336633523889,0.382779000000028,
-0.477355927001953,-0.777349395019531,-0.0506134230957009,0.913620534783774,0.385753999999906,
0.00627280834960953,-0.2865380546875,-0.0889206496582027,0.300083799703224,0.388668000000052,
0.456382720458985,0.838736725585937,0.116980693115236,0.962002580527664,0.391726000000062,
0.0517626398925783,0.113293622558594,0.0140300217285176,0.125346149964012,0.394685999999865,
-0.355251642333984,-0.870723259765625,-0.132016279541014,0.949626780657391,0.397705999999971,
0.039791631591797,-0.0495120903320314,-0.0147003981933587,0.0651991007670186,0.400628999999981,
0.279211797607422,0.836342523925781,0.0738850632324226,0.88480904596335,0.40357999999992,
-0.00569819995117171,-0.104578728515625,0.0188184250488295,0.106411057047408,0.406590999999935,
-0.170898114501953,-0.700734941894531,-0.086526447998045,0.72644507743904,0.409492,
0.0350032282714846,0.0965342109374999,0.00205901342773629,0.102705011596548,0.412538999999924,
0.137953899658203,0.565797736328125,0.11458649145508,0.593538895851756,0.41551400000003,
-0.036822821533203,-0.1333091484375,0.0331836350097667,0.142226589902377,0.418420999999853,
-0.0607648381347655,-0.506804607421875,-0.105680061279296,0.521259581216097,0.421417000000019,
0.0733104548339845,-0.121338140136719,0.00924161840820403,0.142066092191651,0.424365999999964,
0.157107512939453,0.340742780273438,0.121769096435548,0.394482098170782,0.427406000000019,
-0.137379291259766,0.0366791694335936,0.0307894333496108,0.145486839072694,0.430345999999872,
-0.0272460148925779,-0.262596038085938,-0.00272938989257732,0.26401983659404,0.433248000000049,
0.23611616772461,-0.0231758720703126,0.0499430466308599,0.242450559112467,0.436283000000003,
0.0565510432128908,0.197090680664062,0.0595198532714853,0.213507306260345,0.439249999999902,
-0.180474921142578,-0.0471178886718752,0.0690966599121108,0.198911138464705,0.442258999999922,
0.0804930598144533,-0.207529399902344,-0.0218830031738264,0.223665934666023,0.445197000000007,
0.248087176025391,0.0294965644531249,0.0140300217285176,0.250228167344313,0.448145000000068,
-0.0918894597167967,0.237792108886719,0.00684741674804812,0.255020875561118,0.45115799999985,
-0.168503912841797,-0.0590888969726564,0.0212126267089854,0.179819470359402,0.454077999999981,
0.231327764404297,-0.269778643066406,0.0044532150878922,0.355405236263706,0.457118000000037,
0.185837932861328,0.0366791694335936,0.0954328781738294,0.212105004648761,0.460068999999976,
-0.170898114501953,0.283281940429687,-0.00991199487304506,0.330988022375878,0.463064999999915,
-0.111043072998047,-0.0183874687500001,0.0355778366699226,0.118044252422528,0.465999000000011,
0.21696255444336,-0.312874272949219,0.0164242233886736,0.381094234826521,0.468924999999899,
0.164290117919922,-0.0471178886718752,-0.0170945998535146,0.17176601416808,0.471941000000015,
-0.180474921142578,0.276099335449219,0.00924161840820403,0.329980980827263,0.474903999999924,
-0.12780248461914,0.00316034619140615,0.0307894333496108,0.131496966006312,0.477910999999949,
0.240904571044922,-0.193164189941406,-0.00512359155273323,0.308826274491755,0.480939000000035,
0.188232134521485,-0.0614830986328126,0.0379720383300786,0.201626842406827,0.483985999999959,
-0.156532904541015,0.161177655761719,0.0355778366699226,0.227478722923709,0.48711400000002,
-0.151744501220703,0.0223139594726561,0.0355778366699226,0.157448686562254,0.490121999999928,
0.169078521240235,-0.183587383300781,0.0379720383300786,0.252455440319581,0.493150000000014,
0.157107512939453,-0.0279642753906251,0.0164242233886736,0.160419844265179,0.496093999999857,
-0.0583706364746092,0.106111017578125,-0.000335188232421402,0.121106529985246,0.499014999999872,
-0.094283661376953,-0.0519062919921877,0.00205901342773629,0.107647162003082,0.502056999999922,
0.0709162531738283,-0.0997903251953126,0.0307894333496108,0.126234754219236,0.505006999999978,
0.0757046564941408,0.0965342109374999,0.0595198532714853,0.136354911278181,0.508051999999907,
-0.0871010563964843,0.0486501777343749,0.00924161840820403,0.100194018433101,0.510997999999972,
-0.000909796630859216,-0.150068560058594,0.00205901342773629,0.150085442279606,0.513901000000033,
0.0733104548339845,-0.0878193168945314,0.0331836350097667,0.1191125889243,0.516971000000012,
0.0517626398925783,0.1348414375,0.107403886474611,0.179992163678217,0.519929000000047,
-0.0320344182128905,0.0965342109374999,0.0427604416503922,0.110333644921668,0.522995999999921,
-0.00809240161132796,-0.106972930175781,0.0379720383300786,0.113800573149579,0.525932000000012,
0.0709162531738283,-0.121338140136719,-0.0386424147949214,0.145757659960756,0.528855000000021,
0.078098858154297,0.0678037910156248,-0.048219221435545,0.114113448098573,0.531907000000047,
0.0230322199707033,0.0654095893554686,0.0451546433105481,0.0827516727863112,0.534877999999935,
-0.0392170231933592,-0.0734541069335939,0.0403662399902363,0.092536014959094,0.53787699999998,
0.0350032282714846,-0.0926077202148439,0.0547314499511735,0.113123593677775,0.540833000000021,
0.068522051513672,0.0510443793945311,-0.000335188232421402,0.0854453776547702,0.543777999999975,
-0.0511880314941405,0.0606211860351561,-0.00751779321288915,0.0796973022087064,0.546793999999863,
-0.046399628173828,-0.0351468803710939,-0.00272938989257732,0.0582724485814281,0.549700999999914,
0.0996466730957034,-0.0614830986328126,0.0667024582519549,0.13475477287795,0.552750999999944,
0.078098858154297,0.0294965644531249,0.0714908615722667,0.10991097419224,0.55571800000007,
-0.106254669677734,0.0247081611328124,-0.00751779321288915,0.10934836656156,0.558721999999989,
-0.017669208251953,-0.0399352836914064,0.0427604416503922,0.0611185992468789,0.561676000000034,
0.147530706298828,-0.0231758720703126,0.0427604416503922,0.155341191309283,0.564629999999852,
0.0326090266113283,0.0438617744140624,0.0595198532714853,0.0808072818794665,0.567682999999988,
-0.046399628173828,-0.0495120903320314,0.00205901342773629,0.0678867595338909,0.570620999999846,
-0.0200634099121092,-0.0614830986328126,0.0116358200683599,0.0657122830485803,0.573603999999932,
0.0350032282714846,-0.0135990654296876,0.0762792648925803,0.0850216844254394,0.576575999999932,
0.0613394465332033,0.0199197578124999,-0.00751779321288915,0.0649295130668644,0.579532999999856,
0.00866701000976578,-0.0543004936523439,0.0331836350097667,0.0642247172501292,0.582576000000017,
0.0469742365722658,-0.0734541069335939,0.026001030029299,0.0909842749575087,0.585525999999845,
0.0158496149902345,-0.0543004936523439,0.00684741674804812,0.0569793034561529,0.588569000000007,
0.011061211669922,0.0486501777343749,-0.0147003981933587,0.0520124206727238,0.591535999999905,
0.0182438166503908,0.0510443793945311,0.0619140549316413,0.0822904351174801,0.594495999999936,
0.0350032282714846,-0.0710599052734376,0.0355778366699226,0.0868361594556512,0.59753099999989,
0.00866701000976578,-0.0231758720703126,0.0451546433105481,0.0514896098376333,0.600484000000051,
-0.000909796630859216,0.0366791694335936,-0.000335188232421402,0.0366919821132485,0.603517000000011,
0.0373974299316408,-0.00881066210937509,-0.00272938989257732,0.03851811393985,0.606458999999859,
0.0565510432128908,-0.00881066210937509,-0.00272938989257732,0.0572983230510067,0.609384999999975,
0.011061211669922,-0.0279642753906251,0.0547314499511735,0.0624490409493,0.612415000000055,
0.0469742365722658,0.00794874951171864,0.0571256516113294,0.0743848209809382,0.615368999999873,
-0.0152750065917967,0.000766144531249902,0.0116358200683599,0.0192173128320649,0.618426999999883,
0.0278206232910158,0.0199197578124999,0.0379720383300786,0.0511141812665548,0.621492999999873,
0.078098858154297,0.000766144531249902,0.0116358200683599,0.0789646182230435,0.624542999999903,
0.058945244873047,-0.0159932670898438,0.0044532150878922,0.061238530436071,0.62767400000007,
-0.0416112248535155,-0.0183874687500001,0.00684741674804812,0.0460052188013871,0.630628999999999,
0.0326090266113283,0.0414675727539061,-0.00751779321288915,0.0532862592178375,0.633673000000044,
0.0661278498535158,-0.00881066210937509,0.0212126267089854,0.0700035415171937,0.636629999999968,
0.0158496149902345,-0.0375410820312502,0.0786734665527362,0.0886005500820408,0.639580000000024,
-0.0272460148925779,0.000766144531249902,-0.0338540114746078,0.0434629313080954,0.642618999999968,
0.0541568415527345,0.0199197578124999,-0.012306196533201,0.05900171786813,0.645567999999912,
0.0804930598144533,-0.0159932670898438,0.0044532150878922,0.0821872763578357,0.648625999999922,
0.0230322199707033,-0.0662715019531251,0.00205901342773629,0.070189989772029,0.651574999999866,
-0.0128808049316405,0.0462559760742186,-0.048219221435545,0.0680486867920005,0.654581999999891,
0.0326090266113283,-0.0135990654296876,-0.0362482131347637,0.0506183381054979,0.657531000000063,
0.0541568415527345,-0.00402225878906259,-0.012306196533201,0.0556828925779539,0.660486999999875,
-0.00569819995117171,-0.0135990654296876,-0.012306196533201,0.019205377797852,0.663508999999976,
-0.00330399829101546,0.0127371528320311,0.0164242233886736,0.021045345825018,0.666472999999996,
0.0565510432128908,0.00794874951171864,0.0451546433105481,0.0728020941990621,0.66949899999986,
0.0326090266113283,-0.0399352836914064,0.0307894333496108,0.0600513505763322,0.672456999999895,
0.00866701000976578,0.0247081611328124,0.00684741674804812,0.0270646892684149,0.675397999999859,
-0.0224576115722654,-0.00881066210937509,0.0451546433105481,0.0511948620160183,0.678398999999899,
0.0517626398925783,0.000766144531249902,0.026001030029299,0.0579310920721853,0.681356999999934,
0.00148440502929703,0.000766144531249902,0.00924161840820403,0.00939137617906035,0.684393,
0.0182438166503908,0.0055545478515624,0.0116358200683599,0.0223401467423923,0.687345999999934,
0.020638018310547,-0.0135990654296876,0.064308256591799,0.0688942250571414,0.69028000000003,
0.0326090266113283,-0.00162805712890635,-0.0170945998535146,0.0368540978821227,0.693317999999863,
0.0134554133300783,-0.0112048637695313,0.00924161840820403,0.0197991068177294,0.696269000000029,
-0.0152750065917967,0.0103429511718749,-0.000335188232421402,0.0184503337767742,0.699288999999908,
0.0541568415527345,-0.0423294853515627,-0.0362482131347637,0.0777089555492763,0.702219000000014,
0.0350032282714846,0.0318907661132811,-0.0194888015136705,0.0512060576217004,0.705165999999963,
0.0278206232910158,-0.0327526787109377,-0.00751779321288915,0.0436261648306871,0.708183999999846,
0.0565510432128908,-0.0183874687500001,-0.048219221435545,0.0765585580542672,0.711113999999952,
0.00627280834960953,-0.0183874687500001,0.0331836350097667,0.0384525781201284,0.714150000000018,
0.0230322199707033,-0.0207816704101563,0.0595198532714853,0.0671191024617759,0.717110000000048,
0.020638018310547,0.000766144531249902,-0.0147003981933587,0.0253498813463207,0.720056999999997,
-0.0200634099121092,-0.0255700737304688,0.0188184250488295,0.0375566533280236,0.723074999999881,
0.0158496149902345,-0.0183874687500001,0.0451546433105481,0.0512664716444746,0.726022999999941,
0.0517626398925783,-0.0375410820312502,0.0212126267089854,0.0673697206511987,0.729057000000012,
0.0421858332519533,0.00794874951171864,0.0379720383300786,0.0573123271286606,0.732011000000057,
0.00148440502929703,0.0103429511718749,0.0188184250488295,0.0215247118111533,0.734940999999935,
0.00866701000976578,-0.0183874687500001,-0.0338540114746078,0.0394881015302646,0.737940999999864,
0.0469742365722658,-0.0159932670898438,0.0403662399902363,0.0639671542645413,0.740900000000011,
0.0373974299316408,0.0103429511718749,0.0044532150878922,0.0390560562404194,0.74393699999996,
-0.0104866032714842,-0.0159932670898438,0.0164242233886736,0.0252092949981081,0.746849999999995,
0.00866701000976578,-0.0399352836914064,-0.0601902297363264,0.0727516852157683,0.749855000000025,
-0.0224576115722654,-0.00162805712890635,-0.0218830031738264,0.0313984189960487,0.75277200000005,
0.0182438166503908,-0.00402225878906259,0.0810676682128921,0.0831924410100751,0.755721999999878,
0.0158496149902345,-0.00162805712890635,-0.00512359155273323,0.0167365485017936,0.758812000000034,
0.0278206232910158,-0.0135990654296876,-0.00272938989257732,0.0310865120276823,0.761852999999974,
0.0517626398925783,-0.00402225878906259,-0.000335188232421402,0.0519197631501347,0.764950999999883,
0.00627280834960953,-0.0183874687500001,-0.012306196533201,0.022997599977757,0.767973999999867,
0.0230322199707033,-0.0135990654296876,0.0355778366699226,0.0445106751179027,0.770907999999963,
0.0254264216308596,-0.0303584770507814,-0.00751779321288915,0.0403070373580697,0.773923999999852,
0.0469742365722658,-0.0351468803710939,0.0307894333496108,0.0662561039252785,0.776871000000028,
0.0158496149902345,0.0271023627929686,0.0044532150878922,0.0317108733547247,0.779933000000028,
-0.0224576115722654,-0.0135990654296876,-0.0362482131347637,0.0447572547589207,0.782840999999962,
-0.0200634099121092,0.000766144531249902,0.083461869873048,0.0858429444826404,0.785793000000012,
-0.00330399829101546,-0.0255700737304688,0.00205901342773629,0.0258647368357817,0.788808999999901,
0.011061211669922,-0.0375410820312502,0.0379720383300786,0.0545303487851016,0.791760999999951,
0.0158496149902345,-0.0279642753906251,0.0044532150878922,0.0324506104423386,0.794814999999971,
0.00627280834960953,-0.0375410820312502,0.0451546433105481,0.0590560985603588,0.797771000000012,
0.0182438166503908,-0.0183874687500001,-0.0338540114746078,0.0426266342317591,0.800739999999905,
-0.0272460148925779,-0.0159932670898438,0.0164242233886736,0.0356073733046221,0.80377499999986,
0.0302148249511721,-0.0183874687500001,0.0403662399902363,0.0536699914739284,0.806730000000016,
0.0302148249511721,0.0103429511718749,0.0355778366699226,0.0478089400414342,0.80978099999993,
-0.00569819995117171,0.0055545478515624,0.0451546433105481,0.0458504557994973,0.812729999999874,
-0.0128808049316405,-0.0447236870117189,0.026001030029299,0.0533120706612834,0.815650999999889,
0.011061211669922,-0.0375410820312502,-0.0218830031738264,0.0448391466420757,0.818667000000005,
0.0302148249511721,0.00316034619140615,0.0547314499511735,0.0625975642388529,0.821639000000005,
0.0326090266113283,-0.0303584770507814,-0.00751779321288915,0.0451829941479413,0.824652999999898,
0.00866701000976578,-0.0135990654296876,-0.02667140649414,0.031167540285463,0.827595999999858,
0.020638018310547,-0.00402225878906259,0.0331836350097667,0.0392843480029144,0.830549999999903,
0.0421858332519533,-0.00881066210937509,0.00684741674804812,0.0436366750576695,0.833572999999888,
-0.0128808049316405,0.000766144531249902,0.0236068283691413,0.0269032425328218,0.836518999999953,
0.0350032282714846,0.000766144531249902,-0.0434308181152332,0.0557857412698522,0.839562999999998,
0.00627280834960953,0.0055545478515624,-0.00512359155273323,0.00982101404262649,0.842529000000013,
0.0326090266113283,0.000766144531249902,0.0188184250488295,0.0376572531565898,0.845561999999973,
0.0158496149902345,0.00316034619140615,-0.000335188232421402,0.0161650992740334,0.848528999999871,
0.020638018310547,-0.0375410820312502,-0.00751779321288915,0.0434945727034453,0.851454999999987,
0.0469742365722658,-0.0135990654296876,0.0044532150878922,0.0491054437585809,0.854499000000033,
0.020638018310547,-0.0351468803710939,-0.000335188232421402,0.040759579864832,0.857447999999977,
0.0326090266113283,-0.00402225878906259,0.0595198532714853,0.0679863230051725,0.860460999999987,
0.0230322199707033,0.00316034619140615,0.064308256591799,0.0683814507794698,0.863430999999991,
0.0350032282714846,-0.00402225878906259,0.0116358200683599,0.0371052134322806,0.86636099999987,
0.0230322199707033,0.0175255561523436,-0.0769496413574213,0.0822123809426754,0.869398000000047,
0.0278206232910158,-0.00162805712890635,0.0355778366699226,0.0451931423163657,0.872353999999859,
0.00387860668945328,-0.0159932670898438,0.0164242233886736,0.0232504472210666,0.875381999999945,
0.00866701000976578,-0.0471178886718752,-0.0147003981933587,0.0501130143021541,0.878314000000046,
-0.0392170231933592,-0.0279642753906251,0.0307894333496108,0.0571661159452111,0.881243999999924,
-0.0128808049316405,-0.0303584770507814,0.047548844970704,0.0578657491317432,0.884258999999929,
0.00148440502929703,-0.0255700737304688,0.0116358200683599,0.028132266839625,0.887218999999959,
0.0278206232910158,0.000766144531249902,0.0307894333496108,0.0415037740902379,0.890261999999893,
0.020638018310547,0.0247081611328124,0.0212126267089854,0.0385538137963841,0.893227000000024,
0.0661278498535158,-0.0375410820312502,0.0547314499511735,0.0936896844913248,0.896195999999918,
0.020638018310547,-0.00641646044921884,-0.00991199487304506,0.0237770142542359,0.899326999999857,
0.0230322199707033,-0.00402225878906259,0.0355778366699226,0.042572810391807,0.902385999999979,
-0.0320344182128905,-0.0351468803710939,0.0451546433105481,0.0655778084611035,0.905504999999948,
0.0445800349121095,-0.00162805712890635,0.109798088134767,0.118514346139317,0.908492000000024,
0.0373974299316408,-0.0399352836914064,0.121769096435548,0.133495720889229,0.911427000000003,
0.0278206232910158,-0.0327526787109377,0.047548844970704,0.0640906990217033,0.914456999999857,
0.0469742365722658,0.0223139594726561,0.0140300217285176,0.0538640250872251,0.917410000000018,
0.0230322199707033,-0.0638773002929689,0.0283952316894549,0.0736008276597133,0.920476999999892,
0.0158496149902345,-0.0423294853515627,-0.00751779321288915,0.0458204412927089,0.923407999999881,
0.0421858332519533,-0.00162805712890635,0.11458649145508,0.122116170596534,0.926334999999881,
0.020638018310547,0.0055545478515624,-0.00272938989257732,0.0215460059131031,0.929382000000032,
0.0469742365722658,0.00794874951171864,0.064308256591799,0.080033201774163,0.932338999999956,
-0.00809240161132796,0.00794874951171864,-0.00272938989257732,0.0116670112635916,0.935379999999896,
0.0182438166503908,0.0199197578124999,0.0355778366699226,0.0446700801364114,0.93836199999987,
0.039791631591797,-0.0159932670898438,0.0667024582519549,0.0792992841947401,0.94140399999992,
0.039791631591797,-0.00641646044921884,0.0307894333496108,0.0507201549231055,0.944365000000062,
-0.00569819995117171,0.00316034619140615,0.00924161840820403,0.0113077310516268,0.947314000000006,
0.0326090266113283,-0.00881066210937509,0.00205901342773629,0.0338410389858156,0.950343999999859,
0.0326090266113283,-0.0279642753906251,0.0164242233886736,0.0459902644978488,0.953313999999864,
-0.00569819995117171,-0.00162805712890635,0.0547314499511735,0.0550513548103616,0.956306000000041,
-0.0128808049316405,-0.0447236870117189,0.0403662399902363,0.0616080891325037,0.959251999999879,
0.0254264216308596,-0.0303584770507814,0.0379720383300786,0.0548636103508876,0.962185999999974,
0.011061211669922,0.000766144531249902,0.0188184250488295,0.0218419436490436,0.965224999999919,
-0.0128808049316405,0.00794874951171864,0.0499430466308599,0.0521862593146823,0.968166999999994,
-0.00330399829101546,-0.00162805712890635,0.047548844970704,0.0476912951467043,0.971199999999953,
-0.0104866032714842,-0.0447236870117189,-0.0338540114746078,0.0570637461179913,0.974128000000064,
0.0254264216308596,-0.0255700737304688,0.0164242233886736,0.0396243195708508,0.977082999999993,
0.0373974299316408,-0.0399352836914064,0.0403662399902363,0.0679913816594018,0.980121999999938,
0.039791631591797,-0.0112048637695313,0.00205901342773629,0.0413903666705993,0.983076999999867,
0.0230322199707033,-0.00402225878906259,-0.0170945998535146,0.0289635472050099,0.986101999999846,
0.0278206232910158,-0.0495120903320314,0.0331836350097667,0.065776802915688,0.989057000000003,
0.0182438166503908,-0.0303584770507814,-0.0338540114746078,0.0489955923297063,0.991978000000017,
-0.00330399829101546,0.0271023627929686,-0.02667140649414,0.0381682904784112,0.995010999999977,
0.020638018310547,-0.00162805712890635,0.0212126267089854,0.0296404099448071,0.997969999999896,
0.0302148249511721,-0.00641646044921884,-0.0410366164550773,0.0513625398671783,1.0009849999999,
0.011061211669922,-0.0399352836914064,0.0355778366699226,0.0546164787333605,1.00393199999985,
0.039791631591797,0.0055545478515624,0.064308256591799,0.0758272959589702,1.00687799999992,
0.0254264216308596,0.0151313544921874,-0.0410366164550773,0.0505911523470221,1.00990899999988,
-0.0152750065917967,-0.00402225878906259,0.00684741674804812,0.0172160247521626,1.01285099999996,
