X,Y,Z,Magnitude,Seconds,
0.00450109912109375,-0.0256179577636719,0.00201112939453019,0.0260880105550563,0.0,
-0.0122583125,0.0198718737792969,0.00201112939453019,0.0234350642049367,0.00374899999997069,
0.0260489140625,-0.00407014282226563,0.0331357509765624,0.0423448931892608,0.00750400000015361,
0.0332315190429687,0.00311246215820311,-0.0434787021484375,0.0548125790225381,0.011257999999998,
0.00689530078125,-0.0280121594238281,-0.0339018955078121,0.0445147702170019,0.0150610000000597,
0.00928950244140625,-0.0208295544433594,-0.0362960971679698,0.0428669087239151,0.0188159999997879,
0.035625720703125,-0.0208295544433594,0.0163763393554675,0.0443987252588559,0.0225399999999354,
0.00928950244140625,0.0126892687988281,0.0139821376953115,0.0210431122410269,0.0262739999998303,
0.0212605107421875,0.00550666381835938,0.0355299526367183,0.0417697282465968,0.0300619999998162,
0.00450109912109375,0.0270544787597656,0.102567599121093,0.106171168891209,0.0340839999998934,
-0.00507570751953124,0.0462080920410156,0.0259531459960929,0.0532401762204945,0.0378749999999854,
0.035625720703125,-0.0328005627441406,0.0929907924804692,0.104844438946923,0.041819999999916,
-0.00507570751953124,-0.0208295544433594,-0.0123540805664071,0.024743816435101,0.0455659999997806,
-0.0146525141601562,-0.00646434448242188,0.0882023891601555,0.0896445501654201,0.0493719999999485,
0.016472107421875,-0.00885854614257814,0.00440533105468788,0.0192148667541405,0.0532199999997829,
-0.00268150585937499,0.00311246215820311,-0.00277727392578164,0.00495894593829529,0.0570170000000871,
0.0116837041015625,0.0246602770996094,-0.0434787021484375,0.0513325992783819,0.0607899999999972,
-0.000287304199218741,-0.0256179577636719,0.023558944335937,0.0348049732352712,0.0646619999997711,
-0.000287304199218741,-0.0232237561035156,-0.0219308872070325,0.0319435315039845,0.0684280000000399,
0.0116837041015625,0.0174776721191406,0.0738371791992183,0.0767717851579246,0.07220099999995,
0.00450109912109375,0.00550666381835938,-0.0554497104492189,0.0559039679147067,0.075930999999855,
-0.0122583125,0.0150834704589844,-0.00517147558593756,0.0201127190148587,0.0796879999998055,
0.0212605107421875,0.0246602770996094,0.0163763393554675,0.0364461667989052,0.0834209999998166,
0.0332315190429687,0.0222660754394531,-0.00517147558593756,0.0403343046687873,0.0872220000001107,
0.0308373173828125,0.00311246215820311,-0.0243250888671884,0.0393997146239813,0.0909670000000915,
0.00689530078125,0.00311246215820311,-0.00995987890625116,0.0125072691414769,0.0947080000000824,
-0.00746990917968748,0.00550666381835938,0.0618661708984369,0.0625583407004679,0.0984279999997852,
0.0236547124023437,0.0414196887207031,0.0355299526367183,0.0594770003188206,0.102329999999711,
-0.0146525141601562,0.0318428820800781,0.0451067592773438,0.0571251699593408,0.106238999999732,
0.0284431157226562,0.00311246215820311,-0.00277727392578164,0.0287473738480141,0.109997000000021,
0.00689530078125,0.0126892687988281,0.00679953271484379,0.0159623419538942,0.113894999999957,
0.0547793339843751,0.0725443103027344,0.0666545742187488,0.112722156887427,0.117674999999963,
0.0332315190429687,-0.0280121594238281,-0.000383072265625728,0.0434644875484556,0.121448999999757,
0.0499909306640626,0.00311246215820311,0.00440533105468788,0.0502810850225684,0.125281000000086,
-0.0194409174804687,-0.0160411511230469,-0.0291134921875003,0.0385079631918706,0.128992999999809,
0.00689530078125,0.0246602770996094,-0.0219308872070325,0.0337140661027561,0.132767999999942,
0.0236547124023437,0.0126892687988281,0.00919373437499971,0.0283740676189467,0.136626999999862,
-0.03141192578125,0.0126892687988281,0.0451067592773438,0.0564122890551332,0.140389000000141,
0.00928950244140625,0.0222660754394531,0.0618661708984369,0.0664040365694655,0.144144999999753,
0.00689530078125,-0.00646434448242188,-0.0243250888671884,0.026096798095704,0.147879000000103,
0.0140779057617187,0.0246602770996094,-0.00756567724609347,0.0293863262327466,0.151622999999745,
-0.0122583125,0.0198718737792969,0.0139821376953115,0.0272150283369063,0.155367999999726,
-0.00507570751953124,0.0198718737792969,-0.00756567724609347,0.0218607787262071,0.159064999999828,
-0.00268150585937499,-0.0328005627441406,0.0498951625976556,0.0597711857055944,0.162880999999743,
0.0260489140625,-0.00646434448242188,-0.0410845004882816,0.0490741261134066,0.166586999999708,
-0.00507570751953124,-0.00167594116210938,0.0139821376953115,0.0149690266929193,0.17031599999973,
0.0499909306640626,-0.00167594116210938,-0.0171424838867189,0.0528750099881256,0.174269999999979,
0.0308373173828125,0.0174776721191406,-0.0219308872070325,0.0416818063399378,0.178163999999924,
0.0332315190429687,0.0270544787597656,0.0427125576171878,0.0605032334430764,0.181970999999976,
0.016472107421875,-0.0136469494628906,-0.0291134921875003,0.0361270671368729,0.185837999999876,
0.0188663090820312,0.00550666381835938,-0.0339018955078121,0.0391867258623347,0.189664999999877,
0.00689530078125,0.0198718737792969,-0.0362960971679698,0.0419504852175862,0.193535999999767,
-0.0122583125,0.00790086547851562,0.0498951625976556,0.0519828543974236,0.197353000000021,
-0.021835119140625,-0.00646434448242188,0.00201112939453019,0.0228605515881452,0.201126999999815,
-0.0194409174804687,-0.0280121594238281,-0.0123540805664071,0.0362664259985684,0.204867999999806,
0.0116837041015625,-0.00407014282226563,-0.0315076938476562,0.0338498120485792,0.208736999999928,
0.0116837041015625,-0.0232237561035156,0.0259531459960929,0.0367344195024634,0.21252400000003,
0.00928950244140625,0.00790086547851562,0.00679953271484379,0.0139625275669817,0.216290999999728,
0.0404141240234375,0.0150834704589844,-0.014748282226563,0.0455886425582424,0.220058999999765,
-0.021835119140625,0.00790086547851562,-0.0793917270507816,0.0827178482995096,0.223821999999927,
0.0188663090820312,0.000718260498046866,0.059471969238281,0.0623968640365911,0.22758900000008,
0.0260489140625,0.0126892687988281,-0.0243250888671884,0.0378321743345666,0.231330000000071,
0.00450109912109375,0.0126892687988281,-0.00517147558593756,0.0144229537780155,0.235185999999885,
0.0116837041015625,-0.0256179577636719,0.0259531459960929,0.0382930083515079,0.238934999999856,
0.0284431157226562,0.0174776721191406,-0.0171424838867189,0.0375279177216511,0.242756999999983,
0.0308373173828125,-0.0232237561035156,0.0115879360351556,0.0403058711911645,0.24678300000005,
0.0116837041015625,0.00550666381835938,-0.0482671054687511,0.0499654456426923,0.250595999999859,
0.0380199223632812,-0.0112527478027344,-0.0434787021484375,0.0588433205226763,0.254403999999795,
0.0380199223632812,0.0318428820800781,-0.0362960971679698,0.0614564097983473,0.258307000000059,
0.0140779057617187,-0.00885854614257814,0.0810197841796878,0.0827095320922517,0.262177000000065,
0.0212605107421875,0.00550666381835938,0.0163763393554675,0.0273955681472849,0.266017999999804,
0.0380199223632812,-0.0112527478027344,-0.0746033237304697,0.0844854705926122,0.269792999999936,
-0.00268150585937499,0.000718260498046866,-0.014748282226563,0.0150072715858437,0.273560000000089,
-0.0170467158203125,0.0222660754394531,-0.0315076938476562,0.0421794192389077,0.277333999999883,
0.0332315190429687,-0.0615309826660156,0.00679953271484379,0.0702611509362673,0.281112000000121,
0.0428083256835937,-0.0112527478027344,0.0259531459960929,0.0513102608455569,0.284967999999935,
0.0188663090820312,0.00311246215820311,0.0307415493164065,0.0362031475625813,0.288716999999906,
-0.0194409174804687,0.000718260498046866,0.059471969238281,0.0625729997339467,0.292433999999957,
-0.0290177241210937,0.0414196887207031,-0.0937569370117188,0.106526908172101,0.296143999999913,
-0.706576793945313,0.247321031494141,-7.94913258398438,7.98430506031198,0.299856999999975,
-1.56130678662109,3.10360361206055,2.35551136132812,4.19743588826443,0.303237999999965,
-0.857411498535156,0.304781871337891,-8.76076694677734,8.80789895279589,0.306188999999904,
-1.92043703564453,-1.54593601196289,9.32203964196778,9.64253180691552,0.309104999999818,
-1.59482560986328,-0.784579884033203,-3.02665397070313,3.50993854343325,0.312081000000035,
0.457005212890625,-1.52199399536133,-1.37704902685547,2.10275616962327,0.315040999999837,
0.670089160644531,-0.571495936279297,1.31882204248047,1.58584950992501,0.31804800000009,
-0.0745075556640625,0.594480272216797,-0.11291055029297,0.60967775281164,0.321104999999989,
-0.301956713378906,0.544202037353516,-0.0961511386718747,0.629744992582082,0.324153000000024,
-0.208582848632813,0.357454307861328,0.0498951625976556,0.416857186819475,0.327283000000079,
-0.0649307490234375,0.0366312854003906,-0.0195366855468748,0.0770683808120229,0.330290999999761,
0.169701013671875,-0.286585938720703,-0.0267192905273443,0.334131493277681,0.333290999999917,
0.289411096679688,-0.312922156982422,0.00440533105468788,0.426261030535953,0.33624699999973,
0.0643561406250001,-0.0160411511230469,0.0331357509765624,0.0741418192269246,0.339206000000104,
-0.088872765625,0.237744224853516,-0.0410845004882816,0.257115968196078,0.342252999999801,
-0.227736461914062,0.185071788330078,-0.00756567724609347,0.293551873427884,0.345213000000058,
-0.0721133540039063,-0.0567425793457031,0.00201112939453019,0.0917829002480182,0.348218000000088,
0.152941602050781,-0.195606275634766,-0.0746033237304697,0.259265509887445,0.351184999999987,
0.231950256835938,-0.0758961926269531,-0.000383072265625728,0.244051839669128,0.354131000000052,
0.0571735356445313,0.0916979235839844,-0.014748282226563,0.109063441153968,0.357198000000153,
-0.0673249506835938,0.0940921252441406,0.0403183559570301,0.122521617866339,0.360176000000138,
-0.0840843623046875,-0.0351947644042969,0.00201112939453019,0.0911750846838184,0.363222999999834,
0.00689530078125,-0.0950498059082031,-0.0291134921875003,0.099647409416415,0.366175000000112,
0.0763271489257813,-0.0304063610839844,-0.0195366855468748,0.0844515395932218,0.3691859999999,
0.145758997070312,0.0653617053222656,0.0475009609374997,0.166655870102328,0.372168999999758,
0.0523851323242188,0.0869095202636719,0.0498951625976556,0.113079591667701,0.375130999999783,
-0.0362003291015625,-0.0639251843261719,0.0666545742187488,0.0991953894214805,0.378119999999853,
-0.0745075556640625,-0.0782903942871094,-0.0554497104492189,0.121471939465733,0.381053000000065,
-0.00268150585937499,-0.00885854614257814,0.00440533105468788,0.0102504270708808,0.384055999999873,
0.0691445439453125,0.0270544787597656,0.00919373437499971,0.0748160245544089,0.38702400000011,
0.117028577148438,0.0629675036621094,0.0762313808593742,0.153205149438759,0.389967999999953,
0.0116837041015625,-0.0208295544433594,-0.00517147558593756,0.0244361093379795,0.392992000000049,
-0.0362003291015625,-0.0447715710449219,-0.0602381137695325,0.0833281930165479,0.395916999999827,
-0.0481713374023437,-0.0232237561035156,0.0379241542968742,0.0655596070291696,0.398924000000079,
-0.0122583125,0.0964863269042969,0.0786255825195301,0.125067420743237,0.401871000000028,
0.093086560546875,0.0797269152832031,-0.383455337890625,0.402566124918423,0.404834999999821,
0.0523851323242188,-0.0184353527832031,-0.232620633300781,0.239157737399658,0.407844999999725,
0.145758997070312,-0.351229383544922,-0.579779874023439,0.693363156949462,0.410797000000002,
0.128999585449219,-0.229125098876953,0.310863143554688,0.407154882080697,0.413809000000128,
0.0643561406250001,0.122822545166016,0.059471969238281,0.150877452133451,0.41680099999985,
0.0523851323242188,0.240138426513672,-0.0434787021484375,0.249601809924529,0.419742000000042,
0.00450109912109375,0.0150834704589844,0.00201112939453019,0.0158686992480956,0.422786999999971,
0.0212605107421875,-0.159693250732422,-0.014748282226563,0.161775942201371,0.425737000000026,
0.0523851323242188,-0.121386024169922,-0.0602381137695325,0.145283857681843,0.42877499999986,
0.0547793339843751,0.141976158447266,0.0379241542968742,0.156831905167118,0.431744999999864,
-0.021835119140625,0.130005150146484,0.0522893642578115,0.14181780250371,0.434686000000056,
-0.0481713374023437,-0.0854729992675781,-0.0386902988281257,0.105465873979859,0.437671000000137,
0.00450109912109375,-0.121386024169922,-0.0243250888671884,0.123881139425965,0.440634999999929,
0.035625720703125,-0.0280121594238281,0.0427125576171878,0.0622754817677441,0.443660999999793,
0.0452025273437501,0.113245738525391,-0.0123540805664071,0.122558104909732,0.446630999999797,
0.0595677373046876,0.0749385119628906,0.00679953271484379,0.0959704618513051,0.449577999999747,
-0.0290177241210937,-0.0160411511230469,-0.00277727392578164,0.0332725125738823,0.452551999999741,
-0.0362003291015625,-0.154904847412109,0.0331357509765624,0.162492933912866,0.455504000000019,
0.0332315190429687,0.0318428820800781,-0.0267192905273443,0.0532186384958652,0.458591999999953,
0.0523851323242188,0.122822545166016,0.00201112939453019,0.133542593696264,0.461672999999792,
0.0571735356445313,0.0581791003417969,-0.00517147558593756,0.0817335001967572,0.464795999999751,
-0.021835119140625,-0.0758961926269531,0.0522893642578115,0.0947163243461176,0.467841000000135,
0.0236547124023437,-0.116597620849609,-0.014748282226563,0.119883536965095,0.470835999999963,
0.0308373173828125,0.0366312854003906,0.0163763393554675,0.0506060836672688,0.473899000000074,
0.0380199223632812,0.115639940185547,-0.0362960971679698,0.127025654622417,0.47686799999974,
0.0404141240234375,0.0653617053222656,0.0187705410156251,0.0791061764544068,0.479907999999796,
-0.03141192578125,-0.0639251843261719,-0.00517147558593756,0.0714134611411445,0.482864000000063,
0.0188663090820312,-0.0351947644042969,0.00201112939453019,0.0399831677246093,0.48580899999979,
-0.0146525141601562,0.0438138903808594,-0.0698149204101561,0.0837166427503873,0.488835000000108,
0.0571735356445313,0.0725443103027344,0.0211647426757811,0.0947598884968104,0.491829000000052,
0.0404141240234375,-0.0375889660644531,0.0451067592773438,0.0712800920515724,0.494857000000138,
0.00210689746093751,-0.0926556042480469,-0.0362960971679698,0.0995334450579718,0.497828999999911,
0.00450109912109375,-0.0280121594238281,-0.0123540805664071,0.0309445354711482,0.500794000000042,
-0.0122583125,0.0605733020019531,0.0283473476562488,0.0679923764837773,0.503863999999794,
0.0332315190429687,0.0845153186035156,0.0211647426757811,0.0932476233964651,0.506851999999981,
0.0404141240234375,-0.0112527478027344,0.0307415493164065,0.0520093127051952,0.509868999999981,
0.035625720703125,-0.0998382092285157,-0.0123540805664071,0.106721522216539,0.512828999999783,
0.0260489140625,-0.0232237561035156,-0.0267192905273443,0.0439523521290468,0.515758999999889,
0.0308373173828125,0.0893037219238281,0.0139821376953115,0.0955070419777902,0.518806999999924,
0.00928950244140625,0.0270544787597656,-0.0315076938476562,0.0425555454455601,0.521772000000055,
-0.00746990917968748,-0.0399831677246094,0.00679953271484379,0.0412393851746999,0.524789000000055,
0.0308373173828125,-0.0495599743652344,-0.0578439121093748,0.0821769394086204,0.527731000000131,
0.00210689746093751,0.0294486804199219,0.0690487758789065,0.0750959203003802,0.530703999999787,
0.0116837041015625,0.0821211169433594,-0.0362960971679698,0.0905416669781625,0.533734999999979,
0.00210689746093751,0.0198718737792969,0.0307415493164065,0.0366656956675346,0.536720999999943,
-0.0170467158203125,-0.0519541760253906,-0.0267192905273443,0.0608584210526399,0.539715999999771,
0.0212605107421875,-0.0160411511230469,0.0163763393554675,0.0312651936993285,0.542684000000008,
0.0571735356445313,0.0126892687988281,0.0283473476562488,0.0650646051235973,0.545638999999937,
0.0404141240234375,0.0318428820800781,-0.0291134921875003,0.0591173915789523,0.548666000000139,
0.0284431157226562,0.00550666381835938,-0.000383072265625728,0.0289737971757506,0.551630999999816,
-0.00746990917968748,-0.0471657727050781,0.0762313808593742,0.08995350513319,0.554655999999795,
0.0260489140625,0.000718260498046866,-0.014748282226563,0.0299428397219255,0.557639000000108,
0.0188663090820312,0.0102950671386719,0.00919373437499971,0.0233762866496488,0.560672999999952,
0.00210689746093751,0.0629675036621094,0.0522893642578115,0.0818750459470696,0.563638000000083,
-0.00746990917968748,-0.00407014282226563,0.00201112939453019,0.00874129550970353,0.56655499999988,
-0.03141192578125,-0.0471657727050781,0.0211647426757811,0.0604918633262844,0.56955999999991,
0.0140779057617187,0.0198718737792969,-0.0195366855468748,0.0312211607774856,0.572528000000148,
0.0188663090820312,0.0438138903808594,0.0211647426757811,0.0521875554248014,0.575565999999981,
0.0380199223632812,-0.0256179577636719,-0.00995987890625116,0.0469147465549841,0.57850099999996,
-0.00746990917968748,-0.00407014282226563,-0.0386902988281257,0.039614452276361,0.581412999999884,
-0.0529597407226562,-0.0280121594238281,0.00679953271484379,0.0602963419963198,0.584414999999808,
0.00450109912109375,0.0222660754394531,0.0379241542968742,0.0442072334342068,0.587394000000131,
0.0332315190429687,0.0222660754394531,-0.00517147558593756,0.0403343046687873,0.590429999999742,
0.00928950244140625,0.0102950671386719,0.00679953271484379,0.0154439926229873,0.593409999999949,
-0.0385945307617187,0.0126892687988281,-0.0482671054687511,0.0630893716698598,0.596332999999959,
0.0116837041015625,-0.0399831677246094,0.0259531459960929,0.049078798171121,0.599451999999928,
-0.00986411083984373,0.0462080920410156,-0.0291134921875003,0.0554985034039958,0.602504999999837,
0.0188663090820312,-0.0112527478027344,-0.0123540805664071,0.0252028819409994,0.605618999999933,
0.0260489140625,0.000718260498046866,-0.0123540805664071,0.0288389515866968,0.608656999999766,
0.00689530078125,-0.0208295544433594,0.0187705410156251,0.0288747072918851,0.611603999999716,
-0.00268150585937499,0.0126892687988281,-0.0219308872070325,0.0254788506414704,0.614622999999938,
0.0332315190429687,0.0150834704589844,-0.00756567724609347,0.037270422739517,0.61759499999971,
0.0571735356445313,0.0222660754394531,0.00919373437499971,0.0620412447113206,0.620672999999897,
-0.0122583125,-0.0423773693847656,-0.0410845004882816,0.0602830311256173,0.623591000000033,
0.0260489140625,-0.0160411511230469,0.0546835659179692,0.0626590522964784,0.62654399999974,
0.016472107421875,0.0414196887207031,-0.0267192905273443,0.0519696201922081,0.629590000000007,
0.0212605107421875,0.00311246215820311,0.0355299526367183,0.041521973364381,0.632571999999982,
-0.0146525141601562,-0.0208295544433594,0.0355299526367183,0.0437143459734891,0.635602999999719,
0.016472107421875,-0.00167594116210938,0.00679953271484379,0.0178989593786028,0.638578000000052,
-0.00746990917968748,0.0198718737792969,-0.0315076938476562,0.0379924424359729,0.641549999999825,
0.016472107421875,0.0270544787597656,-0.0195366855468748,0.0372150134493845,0.644596000000092,
0.0116837041015625,0.0270544787597656,-0.00277727392578164,0.0296001184618289,0.647574000000077,
0.00450109912109375,-0.0328005627441406,0.0403183559570301,0.052169978308487,0.650611000000026,
0.0260489140625,-0.0184353527832031,0.0187705410156251,0.0370235244958652,0.653581999999915,
-0.021835119140625,0.0102950671386719,0.0307415493164065,0.039087129462882,0.656598000000031,
0.0284431157226562,-0.0112527478027344,0.0283473476562488,0.041703804194205,0.659557999999834,
-0.00986411083984373,0.0246602770996094,-0.0195366855468748,0.0329713820069422,0.662483000000066,
0.0212605107421875,-0.0375889660644531,0.0475009609374997,0.064197203808259,0.665516000000025,
0.0332315190429687,-0.0375889660644531,-0.00277727392578164,0.0502491540043873,0.668467999999848,
0.0212605107421875,0.0677559069824219,0.00679953271484379,0.071337969505513,0.671519999999873,
-0.0122583125,0.00311246215820311,0.0307415493164065,0.0332414876382955,0.674474999999802,
0.00928950244140625,0.0198718737792969,0.0115879360351556,0.0248085969910444,0.677425999999741,
0.0116837041015625,0.00790086547851562,0.0331357509765624,0.0360126451350526,0.680479999999989,
-0.00986411083984373,-0.00167594116210938,0.0403183559570301,0.0415412961824419,0.683398000000125,
-0.00507570751953124,0.0366312854003906,0.0163763393554675,0.0404450042353086,0.686435999999958,
0.0404141240234375,-0.00407014282226563,0.0187705410156251,0.0447459572832529,0.689397000000099,
-0.00746990917968748,-0.0136469494628906,-0.0339018955078121,0.0373011701132562,0.692309000000023,
0.00450109912109375,-0.0328005627441406,0.0259531459960929,0.0420678332782273,0.695349000000078,
0.0140779057617187,-0.0256179577636719,0.0115879360351556,0.0314443548538043,0.698313999999755,
0.0332315190429687,0.0102950671386719,0.0451067592773438,0.0569643923674886,0.701356999999916,
-0.0242293208007812,-0.0160411511230469,-0.0267192905273443,0.0394752960990064,0.704279000000042,
0.00928950244140625,0.000718260498046866,0.0427125576171878,0.0437169684671014,0.707237000000077,
-0.00507570751953124,-0.0208295544433594,0.023558944335937,0.0318536811586428,0.710242000000108,
0.0188663090820312,-0.00885854614257814,-0.0219308872070325,0.0302551693405689,0.71320199999991,
0.0236547124023437,0.0486022937011719,0.023558944335937,0.0589639909612328,0.716253000000052,
0.0116837041015625,-0.0184353527832031,0.0163763393554675,0.0272865473165708,0.719213999999738,
0.0428083256835937,-0.0351947644042969,0.0355299526367183,0.0658300973998523,0.722166000000016,
-0.0170467158203125,-0.00167594116210938,0.0139821376953115,0.0221110712894694,0.725176999999803,
-0.0146525141601562,0.0126892687988281,-0.0267192905273443,0.0330096076945353,0.728131999999732,
0.0260489140625,0.0533906970214844,-0.0171424838867189,0.0618302289020659,0.731178,
0.00928950244140625,-0.0184353527832031,0.0570777675781251,0.0606961995478508,0.734148000000005,
-0.00268150585937499,-0.0567425793457031,-0.00995987890625116,0.0576724368507562,0.737099999999828,
-0.0170467158203125,-0.0232237561035156,-0.0291134921875003,0.0409576463577402,0.740201999999954,
0.00450109912109375,0.0246602770996094,0.00919373437499971,0.0267004477806175,0.743282999999792,
0.00210689746093751,-0.0112527478027344,-0.000383072265625728,0.0114546974811009,0.746401999999762,
0.00210689746093751,-0.0208295544433594,-0.0315076938476562,0.0378291438816345,0.749377000000095,
-0.00507570751953124,-0.0160411511230469,0.0163763393554675,0.0234790508083629,0.752390999999989,
0.016472107421875,0.0150834704589844,0.0355299526367183,0.0419668790639987,0.755372999999963,
-0.0146525141601562,0.0150834704589844,-0.0171424838867189,0.0271306469902037,0.758315999999922,
0.0116837041015625,-0.00885854614257814,0.00679953271484379,0.0161621912633555,0.761371999999938,
-0.0266235224609375,0.00311246215820311,0.00679953271484379,0.0276538065020807,0.76433199999974,
-0.00746990917968748,-0.0160411511230469,0.0331357509765624,0.0375645586329184,0.76733699999977,
0.0260489140625,0.00790086547851562,-0.0554497104492189,0.0617708668228585,0.770324000000073,
-0.00268150585937499,-0.0232237561035156,-0.0386902988281257,0.0452047845326035,0.773255000000063,
-0.0338061274414062,-0.00407014282226563,-0.0386902988281257,0.0515398829896606,0.776253999999881,
0.00210689746093751,0.00311246215820311,0.059471969238281,0.0595906163978541,0.779257000000143,
0.0260489140625,0.0150834704589844,0.0762313808593742,0.0819590167867424,0.7823199999998,
0.0140779057617187,0.00790086547851562,0.0283473476562488,0.0326218213024605,0.7852969999999,
-0.0457771357421874,0.0174776721191406,0.00919373437499971,0.0498551896117234,0.78824399999985,
0.0260489140625,0.000718260498046866,-0.00995987890625116,0.0278973297970568,0.791283000000021,
0.0619619389648438,-0.0351947644042969,0.023558944335937,0.0750531623582962,0.794264000000112,
0.035625720703125,-0.00407014282226563,0.0307415493164065,0.0472313549729812,0.797289999999975,
0.0212605107421875,-0.0184353527832031,-0.014748282226563,0.0317707944171086,0.800251000000117,
0.0188663090820312,-0.0399831677246094,0.00679953271484379,0.0447305819860776,0.803200999999717,
0.0260489140625,-0.0351947644042969,0.0139821376953115,0.0459643072376831,0.806239000000005,
0.0284431157226562,0.00550666381835938,-0.00756567724609347,0.0299428397219252,0.80922099999998,
0.0547793339843751,0.00550666381835938,0.0211647426757811,0.0589834308150362,0.812280000000101,
0.0260489140625,-0.0519541760253906,0.0163763393554675,0.0603818418152197,0.815238000000136,
0.0212605107421875,0.0174776721191406,-0.00756567724609347,0.0285432621106087,0.818201999999928,
0.0140779057617187,0.0342370837402344,-0.0123540805664071,0.0390254870605471,0.821250999999847,
-0.0170467158203125,-0.0208295544433594,0.023558944335937,0.035769885613336,0.824208999999883,
0.00210689746093751,-0.0351947644042969,0.059471969238281,0.0691377290881318,0.827241999999842,
0.00450109912109375,-0.00885854614257814,-0.00277727392578164,0.0103173147435233,0.830192999999781,
0.00450109912109375,0.0270544787597656,-0.0243250888671884,0.0366594416577385,0.833156000000145,
-0.00507570751953124,0.0486022937011719,-0.0434787021484375,0.0654090460131574,0.836201000000074,
0.0236547124023437,-0.00885854614257814,-0.0339018955078121,0.0422771543226408,0.83915799999977,
0.0332315190429687,-0.00407014282226563,0.0355299526367183,0.0488188227517244,0.842196999999942,
0.0212605107421875,0.0342370837402344,0.0666545742187488,0.0778910744844182,0.845186000000012,
0.0188663090820312,-0.0280121594238281,0.0163763393554675,0.0375340270241568,0.84820499999978,
0.00450109912109375,-0.00407014282226563,0.0355299526367183,0.036044465459471,0.851173999999901,
0.0547793339843751,0.0150834704589844,-0.0626323154296884,0.0845641380784003,0.8541409999998,
0.0571735356445313,0.00311246215820311,0.00201112939453019,0.0572935008550209,0.857193999999708,
0.016472107421875,-0.0160411511230469,0.00201112939453019,0.0230801536760863,0.860155999999733,
0.0188663090820312,0.00311246215820311,-0.0291134921875003,0.0348313144514619,0.863190000000031,
-0.00507570751953124,0.00790086547851562,0.0163763393554675,0.0188777904644282,0.8661689999999,
-0.00268150585937499,0.00790086547851562,-0.0386902988281257,0.0395797090994,0.869110000000092,
0.00210689746093751,0.0390254870605469,-0.00995987890625116,0.040331462223071,0.872150000000147,
0.00689530078125,-0.0160411511230469,0.0403183559570301,0.0439366991169583,0.875121000000036,
0.0212605107421875,-0.00407014282226563,-0.0123540805664071,0.0249238577722949,0.878221999999823,
-0.00746990917968748,0.00311246215820311,0.00201112939453019,0.00833856134357535,0.881304,
0.0284431157226562,-0.0160411511230469,0.00201112939453019,0.0327165707678293,0.884356999999909,
0.0236547124023437,0.00311246215820311,0.0307415493164065,0.0389136954541315,0.887474999999995,
0.0547793339843751,0.0486022937011719,-0.0171424838867189,0.0752118550402335,0.890434999999798,
0.0452025273437501,0.0414196887207031,0.0690487758789065,0.0923395502607516,0.893486999999823,
0.0140779057617187,0.0246602770996094,-0.00995987890625116,0.0300917909917728,0.896451999999954,
0.0236547124023437,0.0222660754394531,0.0498951625976556,0.059538649505674,0.899423999999726,
0.0116837041015625,-0.0471657727050781,-0.014748282226563,0.0507802213960742,0.902442000000065,
0.035625720703125,0.0653617053222656,0.0211647426757811,0.0773905086608415,0.905427000000145,
0.0284431157226562,0.0222660754394531,0.00201112939453019,0.0361778051977918,0.90848300000016,
0.0140779057617187,0.0414196887207031,0.0283473476562488,0.0521282089036254,0.911455999999816,
0.0236547124023437,-0.0399831677246094,0.0307415493164065,0.0557067498109959,0.914417999999841,
-0.021835119140625,-0.0208295544433594,-0.0243250888671884,0.0387601949761708,0.917422999999872,
-0.021835119140625,0.0557848986816406,0.023558944335937,0.0643719753233499,0.920427000000018,
0.00928950244140625,-0.00407014282226563,0.00919373437499971,0.0136888885582645,0.923483000000033,
-0.00268150585937499,-0.00885854614257814,-0.00517147558593756,0.0106022862237348,0.926414000000022,
0.0212605107421875,0.00790086547851562,-0.0195366855468748,0.0299351812168515,0.929376000000047,
-0.00507570751953124,0.0246602770996094,0.0427125576171878,0.0495807891390903,0.932410999999775,
0.0380199223632812,0.000718260498046866,-0.0219308872070325,0.0438975421674217,0.935382000000118,
0.00928950244140625,-0.00885854614257814,0.0570777675781251,0.0585033353499743,0.938415999999961,
-0.00268150585937499,-0.00167594116210938,-0.0243250888671884,0.0245297615326633,0.941344999999728,
0.0236547124023437,-0.0184353527832031,0.00201112939453019,0.0300574831368212,0.944375000000036,
-0.000287304199218741,0.0246602770996094,0.0163763393554675,0.0296039913021511,0.947329000000082,
0.0116837041015625,-0.0184353527832031,-0.00277727392578164,0.0220019186489008,0.950281999999788,
0.0236547124023437,0.0222660754394531,-0.00995987890625116,0.0339782683805429,0.953322999999727,
0.0452025273437501,-0.00407014282226563,0.0427125576171878,0.0623233272463666,0.956290000000081,
-0.00268150585937499,-0.00646434448242188,-0.0171424838867189,0.0185160194714657,0.959279000000151,
0.0188663090820312,-0.00885854614257814,-0.00995987890625116,0.0231000139819461,0.962228999999752,
-0.0385945307617187,0.000718260498046866,-0.00517147558593756,0.0389460891823076,0.96517700000004,
0.0452025273437501,-0.0208295544433594,-0.0339018955078121,0.0602202402485573,0.968201000000136,
-0.00986411083984373,0.0126892687988281,0.0379241542968742,0.0411893154160489,0.97117900000012,
0.0404141240234375,0.00311246215820311,-0.0626323154296884,0.074604261120609,0.974227000000155,
-0.00268150585937499,0.0102950671386719,0.0139821376953115,0.0175692645148929,0.97721300000012,
0.00689530078125,-0.0304063610839844,0.00919373437499971,0.0325056413410288,0.980161999999837,
0.00210689746093751,0.0438138903808594,0.0139821376953115,0.0460390723380426,0.983212999999978,
0.00689530078125,-0.0232237561035156,0.00201112939453019,0.0243091065623776,0.98618099999976,
-0.000287304199218741,0.0102950671386719,-0.0171424838867189,0.0199983925578799,0.989200999999866,
-0.00268150585937499,0.0222660754394531,0.0139821376953115,0.0264285596217412,0.992185999999947,
-0.00507570751953124,-0.0160411511230469,-0.00517147558593756,0.0176018605809784,0.995093999999881,
-0.021835119140625,0.0246602770996094,0.0810197841796878,0.087459174035878,0.998136000000159,
0.0260489140625,0.0150834704589844,-0.0339018955078121,0.0453364701310675,1.00111699999979,
-0.00746990917968748,-0.0136469494628906,0.0451067592773438,0.047714342762944,1.00414000000001,
0.0308373173828125,0.00790086547851562,-0.0195366855468748,0.0373503132628814,1.00711700000011,
0.016472107421875,0.0126892687988281,0.0379241542968742,0.0432503103422372,1.01008300000012,
0.0428083256835937,0.0462080920410156,0.023558944335937,0.0672515009210008,1.01312199999984,
0.0571735356445313,0.00790086547851562,-0.0171424838867189,0.0602088166900207,1.0161250000001,
