X,Y,Z,Magnitude,Seconds,
0.0140779057617187,-0.0136469494628906,-0.000383072265625728,0.0196105432010237,0.0,
0.0428083256835937,-0.0136469494628906,-0.00277727392578164,0.0450167216480071,0.00375400000029913,
-0.00268150585937499,0.0246602770996094,0.00201112939453019,0.0248870324013315,0.00755100000014863,
0.00928950244140625,0.0102950671386719,0.023558944335937,0.0273369186490071,0.0112980000003517,
0.0428083256835937,0.0150834704589844,-0.00277727392578164,0.0454728169281221,0.01504900000009,
-0.021835119140625,-0.0136469494628906,-0.0267192905273443,0.0371070363113603,0.0188670000002276,
-0.00746990917968748,-0.0112527478027344,-0.0243250888671884,0.0278232604965942,0.0225900000000365,
-0.0122583125,0.0414196887207031,0.0834139858398437,0.0939348171486869,0.0263319999999112,
0.0212605107421875,-0.0304063610839844,-0.0985453403320324,0.105298339077805,0.030051000000185,
0.0236547124023437,-0.0591367810058594,-0.170371390136719,0.18188764351569,0.0337589999999182,
-0.0122583125,0.000718260498046866,-0.211072818359375,0.211429697000351,0.0375040000003537,
0.0475967290039063,0.000718260498046866,0.0163763393554675,0.0503403317499973,0.0415570000000116,
0.0236547124023437,0.0102950671386719,0.00440533105468788,0.0261713730615868,0.0454790000003413,
0.0308373173828125,0.0102950671386719,0.0762313808593742,0.082874314346998,0.0492790000002969,
-0.0242293208007812,-0.00646434448242188,0.0211647426757811,0.0328145405054926,0.0530710000002728,
0.0116837041015625,0.00550666381835938,0.0403183559570301,0.0423367702478482,0.0568630000002486,
0.0475967290039063,0.0270544787597656,0.00919373437499971,0.0555150266557799,0.060758000000078,
-0.00268150585937499,-0.00407014282226563,-0.0243250888671884,0.0248085969910456,0.0645380000000841,
-0.0362003291015625,-0.0232237561035156,-0.00995987890625116,0.0441475465053744,0.0684360000000197,
0.00210689746093751,0.0246602770996094,-0.00277727392578164,0.0249054518930946,0.072247999999945,
0.0619619389648438,0.0126892687988281,-0.0315076938476562,0.0706614052685734,0.0760910000003605,
0.0284431157226562,0.0126892687988281,-0.00756567724609347,0.0320510194354779,0.0798760000002403,
0.0188663090820312,-0.0280121594238281,0.0403183559570301,0.0525945674099758,0.0836550000003626,
0.0332315190429687,-0.0328005627441406,0.0115879360351556,0.0481091575044747,0.0874300000000403,
-0.0194409174804687,0.000718260498046866,0.0163763393554675,0.025429307133913,0.091291000000183,
0.00210689746093751,0.0126892687988281,-0.0171424838867189,0.0214317827855322,0.0950830000001588,
0.00928950244140625,0.0174776721191406,-0.0219308872070325,0.0295419649312746,0.0988550000001851,
0.035625720703125,-0.0184353527832031,0.0379241542968742,0.0552023159567726,0.102600000000166,
-0.000287304199218741,0.00790086547851562,-0.000383072265625728,0.00791536249158434,0.106336000000283,
-0.000287304199218741,0.0270544787597656,-0.0602381137695325,0.0660352762936344,0.110144000000219,
0.00210689746093751,0.0150834704589844,0.00440533105468788,0.0158542435864773,0.11425700000018,
0.0140779057617187,-0.0351947644042969,-0.00517147558593756,0.0382570651232651,0.118087000000287,
0.00928950244140625,0.0198718737792969,0.023558944335937,0.0321902171681549,0.121947999999975,
0.016472107421875,0.000718260498046866,0.00919373437499971,0.0188777904644292,0.125797000000148,
0.0236547124023437,-0.00646434448242188,0.0331357509765624,0.041222702012432,0.129659000000174,
0.0236547124023437,0.0198718737792969,0.0475009609374997,0.05666372804823,0.133524000000307,
-0.00986411083984373,-0.0136469494628906,0.0427125576171878,0.0459118992256365,0.137361999999939,
-0.0290177241210937,-0.0160411511230469,-0.050661307128907,0.0605467991105209,0.141125000000102,
-0.00507570751953124,0.0246602770996094,-0.050661307128907,0.0565726092156159,0.144940000000133,
0.0667503422851563,-0.0184353527832031,-0.000383072265625728,0.069250394741022,0.148746000000301,
0.00689530078125,0.0270544787597656,-0.00277727392578164,0.0280571424825363,0.152532000000065,
-0.021835119140625,-0.00167594116210938,-0.0315076938476562,0.0383707698419222,0.156253000000106,
0.0595677373046876,0.000718260498046866,-0.0123540805664071,0.0608395803107204,0.160103000000163,
0.0523851323242188,0.0174776721191406,0.0163763393554675,0.0576008298726289,0.163868000000093,
0.00928950244140625,-0.0136469494628906,0.00679953271484379,0.017854067614743,0.16761200000019,
0.0236547124023437,0.0222660754394531,0.0379241542968742,0.0499356086720302,0.171369000000141,
0.0404141240234375,-0.0184353527832031,0.0618661708984369,0.0761615831929559,0.175113000000238,
0.0308373173828125,-0.00885854614257814,0.0187705410156251,0.0371718602325437,0.178828999999951,
-0.0362003291015625,-0.00646434448242188,0.0115879360351556,0.0385555681867575,0.182729999999992,
-0.000287304199218741,0.0174776721191406,0.0451067592773438,0.048375317041972,0.186754000000292,
0.0547793339843751,-0.0495599743652344,0.0570777675781251,0.0933532969024494,0.190518000000338,
0.00450109912109375,-0.00646434448242188,0.00201112939453019,0.00812971612830808,0.194298000000344,
-0.00507570751953124,0.000718260498046866,0.0211647426757811,0.0217767086011387,0.198088999999982,
-0.0338061274414062,-0.0423773693847656,0.0187705410156251,0.0573674899100243,0.201899000000139,
0.00689530078125,-0.0112527478027344,0.00679953271484379,0.0148459809752027,0.205740000000333,
0.0188663090820312,-0.00407014282226563,-0.0195366855468748,0.0274624427742661,0.209589000000051,
0.00689530078125,-0.00646434448242188,0.0522893642578115,0.0531367155264363,0.213396999999986,
0.00210689746093751,-0.0136469494628906,0.00440533105468788,0.0144943157222062,0.217207000000144,
0.035625720703125,-0.0184353527832031,-0.014748282226563,0.0427383438669841,0.221000000000004,
0.0332315190429687,0.0126892687988281,0.0379241542968742,0.0519960852342292,0.22478799999999,
0.0260489140625,0.00311246215820311,-0.0362960971679698,0.0447843724322275,0.228591999999935,
0.0140779057617187,-0.0112527478027344,-0.115304751953126,0.116704745347906,0.232424000000265,
0.0284431157226562,-0.0184353527832031,-0.000383072265625728,0.0338971947012472,0.236210999999912,
0.0140779057617187,-0.00407014282226563,-0.0769975253906257,0.0783796683426864,0.239946000000145,
0.00928950244140625,0.0270544787597656,0.0187705410156251,0.0342136359744294,0.243739000000005,
0.0428083256835937,-0.0208295544433594,-0.014748282226563,0.049839090228212,0.247454000000289,
0.0188663090820312,-0.00407014282226563,0.00440533105468788,0.0197967326262132,0.251257000000351,
0.016472107421875,0.0174776721191406,-0.0339018955078121,0.0415468153369736,0.255274000000099,
0.0116837041015625,0.0318428820800781,0.0522893642578115,0.062327006146491,0.259253000000172,
0.00450109912109375,-0.0304063610839844,-0.00756567724609347,0.0316551126969974,0.263063000000329,
0.0428083256835937,-0.0232237561035156,-0.0219308872070325,0.0534121653659145,0.266916999999921,
0.00689530078125,0.00311246215820311,0.023558944335937,0.0247438164351001,0.270776000000296,
0.0308373173828125,-0.0136469494628906,0.0163763393554675,0.0374881829873953,0.274662000000262,
0.0332315190429687,0.0390254870605469,-0.0291134921875003,0.0589484344623989,0.278496000000359,
0.00689530078125,0.0174776721191406,-0.014748282226563,0.0238856865968397,0.282404000000042,
0.00689530078125,0.00790086547851562,-0.0554497104492189,0.0564326079237502,0.286237000000256,
0.0212605107421875,-0.00646434448242188,0.0379241542968742,0.0439549604224508,0.290087000000312,
0.0140779057617187,-0.0208295544433594,-0.0267192905273443,0.036687576306283,0.293844000000263,
0.0140779057617187,-0.00646434448242188,0.0810197841796878,0.0824874572813737,0.297640000000229,
-0.0816901606445313,-0.727119044189453,-7.39367779882813,7.42979453145597,0.301366000000144,
-0.0721133540039063,-1.28975643432617,9.32203964196778,9.41111550678931,0.304949000000306,
-1.61637342480469,0.108457335205078,-10.3241806308594,10.450508683341,0.307876000000306,
1.37159024707031,2.33027647583008,9.32203964196778,9.70627999524453,0.310820000000149,
-0.244495873535156,-0.482910474853516,-2.95722212255859,3.00635051866028,0.313810000000103,
0.136182190429687,-1.2059593762207,-2.32036448095703,2.61858261862632,0.316761000000042,
0.603051514160156,-0.99766383178711,1.94610287744141,2.26855034318675,0.319785000000138,
-0.179852428710938,0.371819517822266,0.495216671386718,0.64485362801658,0.32273400000031,
-0.397724779785156,0.651941112060547,-0.088968533691407,0.768848238625213,0.325669000000289,
-0.040988732421875,0.362242711181641,-0.203890213378907,0.417697351082663,0.328695000000153,
0.421092187988281,-0.109415015869141,-0.088968533691407,0.444078457560825,0.331652000000304,
0.093086560546875,-0.0447715710449219,-0.0434787021484375,0.112071400762148,0.334666000000198,
-0.266043688476563,0.0916979235839844,-0.00277727392578164,0.281416891138907,0.337700000000041,
-0.210977050292969,-0.0208295544433594,-0.0219308872070325,0.213134112479252,0.340709999999945,
0.203219836914063,-0.150116444091797,-0.0841801303710934,0.266307234696014,0.343847000000096,
0.258286475097656,-0.0375889660644531,-0.00517147558593756,0.261058571489049,0.346884000000045,
-0.088872765625,0.189860191650391,0.00440533105468788,0.209677532857149,0.349930000000313,
-0.230130663574219,0.0821211169433594,-0.0339018955078121,0.246684694872134,0.352875999999924,
-0.0242293208007812,-0.183635267333984,0.00919373437499971,0.185454835868599,0.355804000000262,
0.212796643554688,-0.162087452392578,-0.053055508789063,0.27270797704527,0.358849000000191,
0.0380199223632812,0.0940921252441406,-0.0123540805664071,0.102232410888672,0.361838000000262,
-0.10802637890625,0.182677586669922,0.0714429775390624,0.223930565691222,0.364880000000085,
-0.0505655390624999,-0.0232237561035156,0.00201112939453019,0.0556799894906449,0.367811999999958,
0.0787213505859375,-0.188423670654297,-0.00995987890625116,0.204449822422863,0.370820999999978,
0.0619619389648438,-0.00646434448242188,0.0187705410156251,0.0650646051235978,0.373809000000165,
-0.03141192578125,0.156341368408203,-0.0315076938476562,0.162548661417539,0.376743000000261,
0.0428083256835937,0.0366312854003906,-0.00756567724609347,0.0568475442751009,0.379814000000351,
0.0595677373046876,-0.140539637451172,-0.0482671054687511,0.160091906393917,0.382804000000306,
-0.0146525141601562,-0.0328005627441406,0.0139821376953115,0.0385496207773376,0.385811000000103,
-0.0505655390624999,0.0940921252441406,0.0379241542968742,0.113350973761911,0.388777000000118,
0.0116837041015625,0.0893037219238281,-0.0243250888671884,0.0932918733833655,0.39173000000028,
0.100269165527344,-0.0950498059082031,-0.0410845004882816,0.144139888091772,0.39474300000029,
-0.0146525141601562,-0.0328005627441406,0.00679953271484379,0.0365623677117076,0.397694000000229,
-0.079295958984375,0.0174776721191406,0.00440533105468788,0.0813186637596639,0.400724999999966,
-0.0266235224609375,0.0246602770996094,-0.00756567724609347,0.0370699431756999,0.403674000000137,
0.0787213505859375,-0.0280121594238281,-0.00756567724609347,0.0838985791646802,0.406594999999925,
0.016472107421875,0.0102950671386719,-0.053055508789063,0.0564996083453141,0.409658000000036,
-0.0362003291015625,0.0390254870605469,0.0427125576171878,0.0682481871229993,0.412642000000233,
0.0260489140625,-0.00407014282226563,0.0427125576171878,0.0501943678576665,0.415672000000086,
0.0404141240234375,-0.00646434448242188,-0.00995987890625116,0.0421223023824243,0.418630000000121,
-0.0577481440429687,-0.0232237561035156,0.0618661708984369,0.0877588405210418,0.421561000000111,
-0.0266235224609375,0.0581791003417969,0.0786255825195301,0.101368643531145,0.424589000000196,
0.0811155522460938,0.0198718737792969,0.0259531459960929,0.0874539305622314,0.427559000000201,
0.0523851323242188,0.0533906970214844,-0.00517147558593756,0.0749767482410501,0.430592000000161,
-0.00746990917968748,-0.0423773693847656,0.00440533105468788,0.043255611437443,0.433537000000342,
-0.000287304199218741,-0.0280121594238281,0.0139821376953115,0.0313091646937363,0.436473000000206,
0.0260489140625,-0.0495599743652344,0.0259531459960929,0.0617114476415252,0.439497000000301,
0.0380199223632812,-0.00167594116210938,-0.0123540805664071,0.0400118305246094,0.44244800000024,
-0.0146525141601562,0.0725443103027344,0.0403183559570301,0.0842789591510881,0.44547300000022,
-0.0505655390624999,-0.00407014282226563,-0.0362960971679698,0.0623766500615539,0.448399000000336,
0.0188663090820312,-0.0543483776855469,0.0187705410156251,0.0605146014235313,0.451343000000179,
0.0260489140625,0.00311246215820311,0.0475009609374997,0.0542639349338732,0.454376000000138,
0.0380199223632812,0.108457335205078,0.00919373437499971,0.115295415381769,0.45733700000028,
0.00928950244140625,0.0438138903808594,-0.00756567724609347,0.0454223658356421,0.460370000000239,
-0.0122583125,-0.0375889660644531,-0.0219308872070325,0.0452123922042381,0.463299000000006,
0.0236547124023437,-0.0256179577636719,-0.0195366855468748,0.0399688286165149,0.466303000000153,
0.0284431157226562,0.0222660754394531,-0.00277727392578164,0.0362284722000067,0.469270000000051,
0.0116837041015625,0.0150834704589844,0.023558944335937,0.0303157365215444,0.47222899999997,
-0.000287304199218741,-0.0806845959472656,-0.0554497104492189,0.0979017719746615,0.47523000000001,
0.00210689746093751,0.0198718737792969,-0.0219308872070325,0.0296697522419516,0.478308000000197,
-0.0194409174804687,-0.00167594116210938,-0.00756567724609347,0.0209283903693835,0.481385999999929,
0.0428083256835937,0.0270544787597656,0.0139821376953115,0.0525356806687216,0.484471000000212,
0.0260489140625,-0.0519541760253906,0.023558944335937,0.0627120896521282,0.487433000000237,
0.00450109912109375,-0.0351947644042969,-0.00517147558593756,0.0358563173584213,0.490446000000247,
-0.00746990917968748,0.0486022937011719,0.023558944335937,0.0545252817910327,0.49341000000004,
0.0691445439453125,0.0414196887207031,0.0690487758789065,0.106133369029258,0.496445000000222,
-0.0122583125,0.0198718737792969,-0.0362960971679698,0.0431574357726993,0.499428999999964,
-0.0194409174804687,-0.0591367810058594,-0.0243250888671884,0.0668342583456567,0.502330000000256,
0.00689530078125,-0.00407014282226563,0.0115879360351556,0.0140851516503162,0.505358000000342,
0.0308373173828125,0.0318428820800781,-0.000383072265625728,0.0443289524678258,0.508350000000064,
-0.021835119140625,-0.0208295544433594,-0.014748282226563,0.0335880126656597,0.511340000000018,
0.0116837041015625,-0.00407014282226563,-0.0458729038085934,0.0475120859146278,0.514325999999983,
0.0140779057617187,0.0150834704589844,0.0355299526367183,0.0410862026243645,0.517303000000084,
0.0595677373046876,0.00311246215820311,0.0403183559570301,0.0719970317121776,0.520371999999952,
0.0499909306640626,0.0222660754394531,-0.0769975253906257,0.0944642269878634,0.52332800000022,
0.0332315190429687,0.0126892687988281,0.0211647426757811,0.0413920008345107,0.526377000000139,
-0.021835119140625,-0.0184353527832031,0.0666545742187488,0.0725221822921038,0.529310000000351,
-0.00268150585937499,0.00790086547851562,-0.0219308872070325,0.0234643977691959,0.532243999999992,
0.0404141240234375,0.0270544787597656,0.0187705410156251,0.0521304081277296,0.535280999999941,
-0.00746990917968748,-0.00407014282226563,0.0546835659179692,0.0553412864618388,0.538206000000173,
0.00450109912109375,-0.0184353527832031,-0.0315076938476562,0.0367812030409107,0.54122499999994,
0.0140779057617187,-0.0112527478027344,-0.0123540805664071,0.02185028765003,0.544170000000122,
-0.000287304199218741,-0.0184353527832031,0.0570777675781251,0.0599817999700452,0.547105000000101,
0.0452025273437501,0.0126892687988281,0.0690487758789065,0.0834986195771334,0.550142000000051,
0.0332315190429687,-0.0208295544433594,-0.000383072265625728,0.0392218171503152,0.553071000000273,
-0.0122583125,-0.0495599743652344,-0.0243250888671884,0.0565523406485263,0.556072000000313,
0.0212605107421875,0.0438138903808594,0.0498951625976556,0.0697222601324076,0.559044999999969,
0.0308373173828125,-0.0232237561035156,-0.0291134921875003,0.0483516123647964,0.562033000000156,
0.0236547124023437,0.0126892687988281,0.00919373437499971,0.0283740676189467,0.565007000000151,
0.0140779057617187,-0.0136469494628906,0.0403183559570301,0.0448329843681671,0.567935999999918,
0.016472107421875,-0.00167594116210938,-0.0315076938476562,0.0355931717228779,0.57094700000016,
0.0260489140625,-0.00885854614257814,0.0379241542968742,0.0468536150443999,0.573924000000261,
0.0116837041015625,0.0174776721191406,0.0355299526367183,0.0412838406474555,0.576949000000241,
0.0428083256835937,-0.0399831677246094,0.0427125576171878,0.072495303484629,0.57990400000017,
-0.00507570751953124,-0.0304063610839844,-0.0195366855468748,0.0364964612442211,0.582808000000114,
0.035625720703125,0.0246602770996094,0.0307415493164065,0.0531259267836302,0.585853000000043,
-0.0194409174804687,0.0294486804199219,0.0331357509765624,0.0484061157679259,0.588799999999992,
0.0380199223632812,-0.0160411511230469,0.0618661708984369,0.0743656918712989,0.591832000000068,
0.0140779057617187,-0.0471657727050781,-0.0123540805664071,0.0507486044354345,0.594770000000153,
0.0116837041015625,0.00790086547851562,0.0115879360351556,0.0182541194911539,0.597741999999926,
0.0452025273437501,-0.00885854614257814,0.0642603725585928,0.0790641372519286,0.600758000000042,
0.0188663090820312,-0.0136469494628906,-0.0195366855468748,0.0303950477903703,0.603710000000319,
-0.000287304199218741,-0.00167594116210938,0.0211647426757811,0.0212329379741422,0.606725999999981,
0.0212605107421875,0.00790086547851562,0.0475009609374997,0.0526381447461263,0.609710000000177,
0.00689530078125,0.0174776721191406,-0.0195366855468748,0.0271052813622283,0.612676000000192,
0.016472107421875,0.000718260498046866,0.00679953271484379,0.0178347936966222,0.615827000000081,
0.0236547124023437,0.0222660754394531,-0.00756567724609347,0.0333551046543864,0.618885000000319,
0.0236547124023437,0.000718260498046866,-0.0315076938476562,0.0394055337304075,0.622029000000111,
-0.0194409174804687,0.0126892687988281,0.0187705410156251,0.0298546483005674,0.625029000000268,
0.0475967290039063,0.0462080920410156,0.0187705410156251,0.068941784078754,0.627992000000177,
0.00450109912109375,0.0222660754394531,0.0115879360351556,0.0255013385987518,0.631027000000358,
0.0332315190429687,0.0126892687988281,0.0451067592773438,0.0574453752103365,0.634005000000343,
0.0667503422851563,-0.00167594116210938,0.0522893642578115,0.0848091657101429,0.63704800000005,
0.00928950244140625,0.0198718737792969,0.023558944335937,0.0321902171681549,0.640029000000141,
0.0380199223632812,0.00790086547851562,0.0115879360351556,0.040524294359981,0.64295200000015,
0.0404141240234375,-0.0280121594238281,0.0187705410156251,0.052633788636075,0.645976000000246,
0.00689530078125,0.00790086547851562,-0.0410845004882816,0.0424017102077866,0.648952000000008,
0.0499909306640626,0.0294486804199219,-0.0458729038085934,0.0739637832385977,0.652018000000226,
0.0188663090820312,0.0773327136230469,0.0355299526367183,0.0871703146091051,0.65501600000016,
0.00689530078125,-0.00407014282226563,0.0451067592773438,0.0458119085823957,0.658041000000139,
-0.00986411083984373,-0.0136469494628906,-0.0243250888671884,0.0295846220307109,0.660975000000235,
-0.00507570751953124,-0.0232237561035156,-0.00756567724609347,0.0249468460245271,0.663883000000169,
0.0308373173828125,0.0102950671386719,0.0690487758789065,0.0763194732760488,0.666932999999972,
0.016472107421875,0.00311246215820311,0.0762313808593742,0.0780528101437161,0.669902000000093,
0.00928950244140625,-0.0232237561035156,0.0403183559570301,0.047446891681566,0.672904000000017,
0.0212605107421875,0.0294486804199219,0.0546835659179692,0.0656469837616188,0.675881000000118,
0.0260489140625,0.0174776721191406,0.0331357509765624,0.045628860815502,0.678824000000077,
0.00928950244140625,-0.00407014282226563,0.0403183559570301,0.0415744001193081,0.681841999999961,
-0.00986411083984373,-0.0447715710449219,0.0139821376953115,0.0479300994263715,0.684784000000036,
0.0116837041015625,0.000718260498046866,0.059471969238281,0.0606130346110056,0.687838000000284,
0.035625720703125,-0.00646434448242188,0.0953849941406251,0.102025863546512,0.690785000000233,
0.0236547124023437,-0.0208295544433594,-0.0123540805664071,0.0338531987231302,0.693723000000318,
0.0140779057617187,-0.0351947644042969,-0.0219308872070325,0.0437929524672336,0.696734000000106,
0.00928950244140625,0.0102950671386719,-0.0291134921875003,0.0322471501120687,0.699718000000303,
0.00928950244140625,0.0150834704589844,-0.053055508789063,0.0559347204298214,0.702758000000358,
-0.00986411083984373,0.0222660754394531,-0.0219308872070325,0.032772589336574,0.705722000000151,
0.0428083256835937,0.0102950671386719,-0.0195366855468748,0.0481686956163426,0.708667000000332,
0.0188663090820312,-0.0160411511230469,0.00679953271484379,0.0256805333447612,0.711729999999989,
0.0188663090820312,-0.0328005627441406,0.0427125576171878,0.0570629224007379,0.714686000000256,
0.0140779057617187,0.00550666381835938,0.0331357509765624,0.0364209935315474,0.717734000000291,
0.0332315190429687,-0.00646434448242188,-0.0171424838867189,0.0379471522159045,0.720675000000028,
0.016472107421875,-0.0495599743652344,-0.0267192905273443,0.0586638037318167,0.723613999999998,
0.0260489140625,-0.00885854614257814,0.00679953271484379,0.0283417255779518,0.726646000000073,
-0.00986411083984373,-0.0160411511230469,0.0115879360351556,0.0221110712894697,0.729588000000149,
0.00210689746093751,0.0414196887207031,-0.0219308872070325,0.0469147465549845,0.732620000000225,
0.0547793339843751,-0.0160411511230469,0.00679953271484379,0.0574832811021115,0.735585000000356,
0.0428083256835937,-0.0112527478027344,-0.014748282226563,0.0466549987630364,0.738518999999997,
0.0188663090820312,-0.00885854614257814,-0.0386902988281257,0.0439471350778249,0.741530000000239,
0.016472107421875,-0.0328005627441406,-0.0243250888671884,0.0440331373813712,0.744477000000188,
0.00210689746093751,0.000718260498046866,0.0259531459960929,0.0260484299363411,0.74752400000034,
0.00928950244140625,-0.0519541760253906,-0.00756567724609347,0.0533176399916409,0.750453000000107,
0.0284431157226562,-0.0208295544433594,-0.0339018955078121,0.0489103229323207,0.753536000000167,
0.0284431157226562,0.0222660754394531,-0.0410845004882816,0.0547058052482499,0.756609000000026,
0.00928950244140625,0.0102950671386719,-0.000383072265625728,0.0138719143365055,0.759684000000107,
-0.00507570751953124,-0.0351947644042969,-0.0123540805664071,0.0376438249244025,0.762754000000314,
-0.00507570751953124,0.00311246215820311,0.0187705410156251,0.0196922176894665,0.765738000000056,
0.00928950244140625,-0.0160411511230469,-0.00277727392578164,0.0187437092225671,0.768742000000202,
0.0380199223632812,0.0246602770996094,-0.0291134921875003,0.0538631524373675,0.771740000000136,
0.00450109912109375,-0.0184353527832031,-0.0410845004882816,0.045255478186742,0.774686000000202,
0.00928950244140625,-0.0184353527832031,-0.0434787021484375,0.0481305997091517,0.777714000000287,
0.00689530078125,0.0174776721191406,-0.00517147558593756,0.0194873896482838,0.780700000000252,
-0.00746990917968748,-0.00885854614257814,-0.0243250888671884,0.0269440778522773,0.783718000000135,
0.0188663090820312,0.0246602770996094,0.00679953271484379,0.0317852250290679,0.786711000000196,
0.0116837041015625,0.0150834704589844,0.0355299526367183,0.0403286195770122,0.789682999999968,
0.0188663090820312,0.00311246215820311,0.0642603725585928,0.067044914202601,0.792724000000362,
0.00689530078125,-0.0351947644042969,0.059471969238281,0.0694487706112708,0.795726000000286,
-0.0170467158203125,0.00790086547851562,-0.0243250888671884,0.0307363651716449,0.798753999999917,
0.0260489140625,0.00550666381835938,0.0498951625976556,0.0565543678321173,0.801736000000346,
0.0140779057617187,0.0414196887207031,-0.000383072265625728,0.0437484261284502,0.804681000000073,
-0.00268150585937499,0.00550666381835938,0.0259531459960929,0.0266660759613559,0.807733999999982,
0.0475967290039063,0.0486022937011719,-0.00995987890625116,0.068751950901145,0.810702000000219,
0.016472107421875,-0.0375889660644531,-0.0123540805664071,0.0428588847189667,0.813726000000315,
0.0332315190429687,-0.0280121594238281,-0.0171424838867189,0.0467212980052521,0.81668000000036,
0.035625720703125,0.00550666381835938,-0.0626323154296884,0.0722656367723241,0.819645999999921,
0.0236547124023437,0.0126892687988281,0.0427125576171878,0.0504472550262955,0.822681999999986,
-0.00746990917968748,-0.00167594116210938,0.00919373437499971,0.0119638235397252,0.825631000000158,
0.0260489140625,-0.0232237561035156,0.0307415493164065,0.0465073287317616,0.828661000000011,
-0.0194409174804687,0.000718260498046866,-0.00756567724609347,0.0208735392978169,0.831615000000056,
0.0236547124023437,-0.0136469494628906,0.00679953271484379,0.0281428195748137,0.834561000000122,
-0.0122583125,-0.0112527478027344,0.00679953271484379,0.0179756558600745,0.837561000000278,
-0.0146525141601562,0.00550666381835938,-0.00756567724609347,0.0173855971946339,0.840517999999975,
0.0547793339843751,0.0102950671386719,-0.0291134921875003,0.062883696348999,0.843561000000136,
0.0380199223632812,0.0414196887207031,-0.0386902988281257,0.0682498669129804,0.846538000000237,
0.0428083256835937,0.0246602770996094,-0.050661307128907,0.070761925174995,0.849578000000292,
-0.0194409174804687,-0.00407014282226563,0.0115879360351556,0.0229955560191723,0.852530999999999,
0.0452025273437501,-0.0375889660644531,-0.0291134921875003,0.0656033099424771,0.855456000000231,
0.0308373173828125,0.00550666381835938,-0.00995987890625116,0.0328703921121109,0.858494999999948,
-0.0290177241210937,0.0174776721191406,0.0283473476562488,0.0441709118653478,0.861468000000059,
-0.00507570751953124,-0.0280121594238281,-0.0913627353515629,0.0956953148974887,0.86444100000017,
-0.0290177241210937,0.0222660754394531,0.0139821376953115,0.0391574591000741,0.867406000000301,
-0.0170467158203125,-0.0256179577636719,-0.0482671054687511,0.0572414513318042,0.870312000000013,
0.0428083256835937,-0.0136469494628906,-0.00756567724609347,0.0455634881200658,0.873334000000341,
0.0116837041015625,-0.00646434448242188,0.0163763393554675,0.0211301013202899,0.876300000000356,
0.0475967290039063,-0.00407014282226563,-0.00277727392578164,0.0478511016061675,0.879308000000037,
0.0212605107421875,0.0222660754394531,0.0307415493164065,0.0435066694527074,0.882280000000264,
0.0212605107421875,0.0126892687988281,-0.050661307128907,0.0563878967481234,0.885224999999991,
-0.0385945307617187,0.0174776721191406,0.0259531459960929,0.0496847322073487,0.888251000000309,
-0.0122583125,0.0174776721191406,-0.0123540805664071,0.0246649255967481,0.891223999999966,
0.0116837041015625,0.0462080920410156,-0.014748282226563,0.0498919686947528,0.89435900000035,
-0.0338061274414062,0.00311246215820311,0.0187705410156251,0.0387927168846178,0.897436000000198,
0.00450109912109375,0.000718260498046866,0.0522893642578115,0.052487650032432,0.900488000000223,
0.00689530078125,0.0198718737792969,-0.0219308872070325,0.0303875032546571,0.903555000000324,
0.0260489140625,0.00311246215820311,-0.0243250888671884,0.0357762951256607,0.906534000000192,
0.0380199223632812,0.0246602770996094,-0.0123540805664071,0.0469709172763395,0.909574000000248,
-0.00507570751953124,0.0270544787597656,0.0187705410156251,0.0333172753658774,0.91253800000004,
0.00210689746093751,-0.00646434448242188,-0.0219308872070325,0.0229606310929361,0.915514000000258,
-0.00507570751953124,0.00790086547851562,0.0953849941406251,0.0958461454067951,0.918552000000091,
0.0140779057617187,0.0294486804199219,0.00440533105468788,0.0329365928840844,0.921530000000075,
-0.0122583125,-0.00407014282226563,0.0570777675781251,0.058520969230215,0.924528000000009,
0.0188663090820312,0.00311246215820311,-0.0243250888671884,0.0309408304261795,0.927505999999994,
0.0140779057617187,-0.00646434448242188,0.0498951625976556,0.0522446402118891,0.930481000000327,
0.00450109912109375,-0.00885854614257814,0.0115879360351556,0.0152647959243796,0.93352700000014,
0.0188663090820312,-0.00407014282226563,0.00440533105468788,0.0197967326262132,0.936513000000105,
-0.00746990917968748,-0.0136469494628906,-0.0195366855468748,0.0249744039959503,0.939526000000114,
-0.00507570751953124,0.0390254870605469,0.0498951625976556,0.0635474523311771,0.94248400000015,
0.00689530078125,0.00311246215820311,0.0498951625976556,0.0504654321709093,0.945524000000205,
-0.00746990917968748,0.00311246215820311,-0.00756567724609347,0.011078196425009,0.948464000000058,
-0.00507570751953124,0.0294486804199219,-0.0171424838867189,0.034450723346614,0.95139300000028,
0.0380199223632812,0.0174776721191406,0.0139821376953115,0.0441189720386227,0.95442200000025,
-0.040988732421875,-0.00885854614257814,0.0283473476562488,0.0506174094996621,0.957350000000133,
0.016472107421875,0.0198718737792969,0.0642603725585928,0.0692503947410211,0.960387999999966,
0.035625720703125,0.0533906970214844,-0.00756567724609347,0.0646296988717189,0.963357999999971,
0.00928950244140625,-0.00646434448242188,-0.00995987890625116,0.0150758679028273,0.966292000000067,
0.0332315190429687,0.000718260498046866,-0.0171424838867189,0.0373993918380054,0.969327000000249,
-0.0242293208007812,-0.0423773693847656,0.0307415493164065,0.0576883374419223,0.972277000000304,
-0.0266235224609375,0.00550666381835938,0.00919373437499971,0.028699478155439,0.975296999999955,
0.00210689746093751,-0.0136469494628906,-0.0291134921875003,0.032222254326866,0.978244000000359,
0.0499909306640626,0.000718260498046866,-0.0602381137695325,0.0782830722270997,0.981203000000278,
0.0308373173828125,-0.00646434448242188,0.0259531459960929,0.0408202606563241,0.984222999999929,
0.0116837041015625,-0.0280121594238281,0.0451067592773438,0.0543673592298087,0.987182000000303,
-0.0122583125,0.00311246215820311,0.0259531459960929,0.0288707366225459,0.99022100000002,
0.0523851323242188,0.0198718737792969,-0.0243250888671884,0.0610803029177397,0.993186000000151,
0.0308373173828125,0.0318428820800781,-0.0171424838867189,0.0475265613771971,0.996136000000206,
0.0499909306640626,-0.00167594116210938,0.0283473476562488,0.0574932521830362,0.999170000000049,
-0.0242293208007812,0.0366312854003906,0.023558944335937,0.0498390902282116,1.00211600000011,
0.00928950244140625,0.0605733020019531,-0.0219308872070325,0.0650875071324467,1.00514800000019,
0.0116837041015625,-0.0399831677246094,0.023558944335937,0.0478558930650227,1.00811000000022,
0.0475967290039063,-0.0160411511230469,0.0115879360351556,0.0515465556829803,1.01104900000018,
0.0188663090820312,0.0246602770996094,-0.0267192905273443,0.0409632441500046,1.01407700000027,
-0.000287304199218741,0.0390254870605469,0.0522893642578115,0.0652475961128216,1.01704900000004,
