X,Y,Z,Magnitude,Seconds,
0.0284431157226562,0.00311246215820311,0.0475009609374997,0.05545303907528,0.0,
-0.0122583125,-0.00167594116210938,0.0211647426757811,0.0245157365106279,0.00384600000006685,
-0.0146525141601562,-0.00646434448242188,0.0259531459960929,0.0304967163461168,0.00789900000017951,
0.00689530078125,0.0509964953613281,-0.0434787021484375,0.0673690229446325,0.0118130000000747,
0.035625720703125,-0.00167594116210938,0.0403183559570301,0.0538290867605397,0.0158210000004146,
0.00210689746093751,-0.0112527478027344,-0.0386902988281257,0.0403485138937299,0.0198430000000371,
0.0308373173828125,-0.00407014282226563,0.0355299526367183,0.0472216448287159,0.023703000000296,
0.0116837041015625,0.0246602770996094,-0.0267192905273443,0.0381910813469195,0.0275630000001001,
0.0188663090820312,-0.0232237561035156,-0.0243250888671884,0.0385615146788988,0.0314040000002933,
0.0212605107421875,-0.0280121594238281,0.0427125576171878,0.0553267834850918,0.0353880000002391,
0.00210689746093751,0.0390254870605469,0.00201112939453019,0.0391340299313188,0.0392660000002252,
0.016472107421875,0.0126892687988281,0.0570777675781251,0.0607471762081924,0.0431410000001051,
0.0284431157226562,0.0222660754394531,0.0259531459960929,0.0444786997852044,0.0469670000002225,
-0.00746990917968748,-0.0112527478027344,-0.014748282226563,0.0199983925578802,0.0508150000000569,
0.0428083256835937,-0.0112527478027344,0.00919373437499971,0.0452073205653976,0.0549410000003263,
0.0380199223632812,-0.00407014282226563,-0.0123540805664071,0.0401833779782742,0.0588120000002164,
0.0236547124023437,0.0102950671386719,-0.014748282226563,0.0297160841104899,0.0628030000002582,
0.0380199223632812,-0.0184353527832031,0.0283473476562488,0.0508817142782682,0.0666880000003403,
0.0260489140625,0.0126892687988281,0.0187705410156251,0.0345238566284778,0.0705510000002505,
0.0308373173828125,-0.00407014282226563,-0.0554497104492189,0.0635781141184933,0.0743650000003981,
0.0212605107421875,0.00550666381835938,0.00440533105468788,0.0223995447527064,0.0783370000003742,
-0.00507570751953124,0.00311246215820311,0.00919373437499971,0.010953309055629,0.0822930000003907,
0.0404141240234375,-0.0136469494628906,0.0714429775390624,0.0832084111726179,0.0862850000003164,
0.0547793339843751,-0.00407014282226563,0.00440533105468788,0.0551067004643423,0.0902450000003228,
-0.0146525141601562,-0.00885854614257814,0.0187705410156251,0.0254067554204198,0.0941040000002431,
0.0188663090820312,0.0198718737792969,0.0522893642578115,0.0590339444757432,0.0980450000001838,
0.0475967290039063,0.0150834704589844,0.0187705410156251,0.0533412870390059,0.101938000000246,
0.035625720703125,0.0270544787597656,0.0163763393554675,0.0476373937916959,0.105780000000323,
0.0475967290039063,-0.0184353527832031,0.023558944335937,0.056216854255074,0.109629000000041,
-0.00268150585937499,-0.00885854614257814,0.00201112939453019,0.0094714811342045,0.113545000000158,
0.0140779057617187,-0.0208295544433594,-0.0362960971679698,0.044152739876155,0.117398000000321,
0.035625720703125,-0.00646434448242188,0.0163763393554675,0.0397386992224194,0.12123500000007,
0.0188663090820312,-0.00885854614257814,-0.014748282226563,0.0255327884645072,0.125165000000379,
-0.00986411083984373,-0.00167594116210938,-0.0434787021484375,0.044615098363134,0.129135000000133,
0.0260489140625,-0.00407014282226563,-0.0650265170898443,0.0701680832805412,0.133154000000104,
0.0260489140625,0.0198718737792969,-0.0195366855468748,0.0381460269686541,0.137109000000237,
0.00689530078125,0.0174776721191406,0.0738371791992183,0.0761901780262099,0.141035000000102,
0.0308373173828125,0.0198718737792969,0.0259531459960929,0.0449377046361196,0.144868000000315,
0.0643561406250001,0.000718260498046866,-0.0362960971679698,0.0738893456725294,0.148706000000402,
0.035625720703125,-0.00885854614257814,-0.072209122070312,0.0810050808625143,0.152648000000227,
0.0308373173828125,0.00311246215820311,0.0115879360351556,0.0330893914360693,0.156547000000046,
0.0284431157226562,0.0174776721191406,-0.0219308872070325,0.0399430052500332,0.160501000000295,
-0.0122583125,0.00550666381835938,0.0379241542968742,0.040234699587411,0.164437000000362,
0.0212605107421875,0.0198718737792969,0.0379241542968742,0.0478031606031662,0.168321999999989,
0.016472107421875,0.0174776721191406,-0.0267192905273443,0.0359265894833702,0.172169000000395,
0.0523851323242188,-0.0328005627441406,-0.0458729038085934,0.0769701390721797,0.175983999999971,
-0.00268150585937499,-0.00885854614257814,-0.00517147558593756,0.0106022862237348,0.179777000000286,
0.0236547124023437,-0.00167594116210938,0.023558944335937,0.0334272053250077,0.183679000000211,
0.0140779057617187,-0.00885854614257814,0.0115879360351556,0.0202716928733364,0.187564000000293,
0.0116837041015625,0.0102950671386719,-0.0291134921875003,0.0330165530647018,0.191420999999991,
-0.0194409174804687,0.00550666381835938,0.023558944335937,0.0310370178515043,0.195322000000033,
0.0284431157226562,-0.0304063610839844,-0.0339018955078121,0.0536926079214324,0.199344999999994,
0.0475967290039063,0.00790086547851562,0.0882023891601555,0.100536230985354,0.203258000000005,
-0.0242293208007812,0.0174776721191406,-0.0219308872070325,0.0370606640909056,0.207270000000335,
0.0236547124023437,-0.0519541760253906,0.0115879360351556,0.0582499964538173,0.211311000000023,
0.0116837041015625,0.0174776721191406,0.097779195800781,0.100013744533862,0.215285000000222,
0.0380199223632812,0.0318428820800781,-0.0458729038085934,0.0675559541380932,0.219142000000375,
-0.00268150585937499,-0.0423773693847656,0.00440533105468788,0.0426900322247258,0.223079000000325,
0.016472107421875,-0.00885854614257814,0.0786255825195301,0.080819467884993,0.227110000000266,
0.0452025273437501,0.0174776721191406,0.00919373437499971,0.049328108140539,0.231062000000293,
0.035625720703125,-0.00885854614257814,-0.0746033237304697,0.083146387335894,0.235083000000031,
0.00928950244140625,-0.00646434448242188,-0.050661307128907,0.0519100245155573,0.23904900000025,
0.0188663090820312,0.00790086547851562,0.0283473476562488,0.0349561641607395,0.242966000000251,
-0.00507570751953124,-0.0351947644042969,-0.072209122070312,0.0804896984617474,0.246841000000131,
0.0428083256835937,-0.0160411511230469,-0.000383072265625728,0.0457167149032577,0.250710000000254,
-0.03141192578125,-0.00646434448242188,0.00201112939453019,0.0321331833517272,0.254552000000331,
0.00689530078125,0.0198718737792969,0.0307415493164065,0.0372488844764144,0.258520000000317,
0.00928950244140625,-0.0160411511230469,0.00679953271484379,0.0197445443123297,0.262445000000298,
0.0404141240234375,0.00790086547851562,-0.0243250888671884,0.0478271371115604,0.266301000000112,
-0.000287304199218741,0.00550666381835938,-0.000383072265625728,0.00552744375566216,0.270229000000199,
0.00689530078125,0.0198718737792969,0.0379241542968742,0.0433667847493602,0.27426800000012,
0.016472107421875,0.0390254870605469,-0.0410845004882816,0.0590106358515337,0.278160000000298,
0.0140779057617187,0.0318428820800781,0.00440533105468788,0.0350936391886477,0.282227000000148,
0.0308373173828125,0.000718260498046866,0.0403183559570301,0.0507644153772025,0.286085000000185,
0.0188663090820312,0.00311246215820311,0.0331357509765624,0.038257065123265,0.289939000000231,
0.0428083256835937,0.0318428820800781,-0.050661307128907,0.0735737040457244,0.293749000000389,
0.0140779057617187,-0.0160411511230469,0.0259531459960929,0.03360166286187,0.297735000000102,
0.0452025273437501,-0.00646434448242188,-0.0674207187500002,0.0814285548478943,0.301634000000377,
0.0380199223632812,-0.0280121594238281,-0.0315076938476562,0.0567708582257969,0.305519000000004,
0.0547793339843751,-0.257855518798828,-0.735402981933595,0.781221984997611,0.309481000000233,
-0.141545202148437,0.94403371459961,-2.07136750830078,2.28074506532321,0.313440000000355,
0.0380199223632812,-0.660081397705078,-0.89820869482422,1.11531691709156,0.316431000000193,
0.471370422851563,-0.906684168701172,0.760973055664062,1.27410605867773,0.319400000000314,
0.203219836914063,0.232955821533203,0.265373312011718,0.407418349647701,0.322507000000314,
-0.155910412109375,0.474770189208984,0.713089022460936,0.870752974798217,0.325475000000097,
0.016472107421875,-0.238701905517578,-0.206284415039063,0.31591642867798,0.328510000000279,
0.169701013671875,-0.159693250732422,-0.0386902988281257,0.236214537220214,0.331466999999975,
0.0116837041015625,0.254503636474609,0.023558944335937,0.255858620684465,0.334479000000101,
-0.0840843623046875,0.141976158447266,0.286921126953125,0.330985109398716,0.337529000000359,
-0.0122583125,-0.138145435791016,0.119327010742188,0.182957271372043,0.340485000000172,
0.0763271489257813,-0.116597620849609,0.0307415493164065,0.142709080668683,0.343591000000288,
0.0116837041015625,0.0390254870605469,0.0882023891601555,0.0971553345699828,0.346656000000166,
0.0332315190429687,0.0893037219238281,0.0211647426757811,0.097608580257494,0.349688000000242,
0.0140779057617187,0.0940921252441406,-0.000383072265625728,0.0951402239221433,0.352745000000141,
-0.0481713374023437,-0.0543483776855469,-0.0434787021484375,0.0846440868855813,0.355694000000312,
-0.00268150585937499,-0.0567425793457031,0.0475009609374997,0.0740489842905569,0.358731000000262,
0.0308373173828125,0.0294486804199219,-0.0243250888671884,0.049090476370062,0.36170200000015,
0.093086560546875,0.0845153186035156,-0.0243250888671884,0.128061144698528,0.364705000000413,
-0.03141192578125,-0.0160411511230469,-0.0243250888671884,0.0428455080380172,0.367739000000256,
-0.0625365473632813,-0.0639251843261719,-0.014748282226563,0.0906353174865589,0.370767000000342,
0.00689530078125,0.0126892687988281,-0.0195366855468748,0.0242949541606953,0.373876000000109,
0.0906923588867188,0.0366312854003906,0.0403183559570301,0.10579472981959,0.376922000000377,
0.0428083256835937,0.0222660754394531,0.0475009609374997,0.0677102071573697,0.380019000000175,
-0.0481713374023437,-0.0399831677246094,-0.0123540805664071,0.0638103028911943,0.382982999999967,
-0.0433829340820312,-0.0423773693847656,0.0259531459960929,0.0659657956264703,0.385967000000164,
0.0523851323242188,0.00550666381835938,0.00440533105468788,0.0528576614762301,0.389149999999972,
0.0188663090820312,0.0390254870605469,0.0355299526367183,0.0560473352895487,0.392134000000169,
-0.00746990917968748,0.0126892687988281,-0.00517147558593756,0.0156064488445527,0.395172000000002,
-0.0290177241210937,-0.0495599743652344,-0.0339018955078121,0.0666900134298472,0.398155000000315,
-0.00507570751953124,-0.00407014282226563,0.0379241542968742,0.0384781801616265,0.401156000000356,
0.0116837041015625,0.0845153186035156,-0.0291134921875003,0.0901495615493401,0.4042400000003,
-0.0170467158203125,0.0174776721191406,0.0307415493164065,0.039256877070594,0.407221000000391,
0.0332315190429687,-0.0208295544433594,0.0498951625976556,0.0634644108682855,0.410264999999981,
0.0116837041015625,-0.102232410888672,0.0283473476562488,0.106731189896803,0.41326700000036,
0.0116837041015625,0.137187755126953,-0.124881558593751,0.185882739314629,0.416220000000067,
-0.0242293208007812,0.0821211169433594,0.0427125576171878,0.0956833340383458,0.419338000000153,
0.0571735356445313,-0.176452662353516,-0.0171424838867189,0.186274582226204,0.422411000000011,
0.0212605107421875,0.0150834704589844,-0.0626323154296884,0.0678404549969243,0.425490999999965,
0.016472107421875,0.137187755126953,-0.0626323154296884,0.151705693419115,0.42852000000039,
0.035625720703125,-0.0160411511230469,0.0379241542968742,0.0544495361238516,0.431479000000309,
-0.00507570751953124,-0.0639251843261719,-0.0769975253906257,0.100203846803598,0.434509000000162,
-0.0457771357421874,-0.00407014282226563,-0.0171424838867189,0.0490507591496677,0.437466000000313,
0.0428083256835937,0.0557848986816406,-0.000383072265625728,0.0703182367036762,0.440563000000111,
0.0308373173828125,0.00790086547851562,-0.0578439121093748,0.0660248588547903,0.443573000000015,
-0.0146525141601562,0.0198718737792969,0.0115879360351556,0.0272739399476633,0.446552000000338,
-0.0649307490234375,0.00550666381835938,0.0642603725585928,0.0915189652286466,0.449606000000131,
0.0404141240234375,-0.0136469494628906,0.0522893642578115,0.0674812437993741,0.452564000000166,
0.0643561406250001,0.0342370837402344,0.0187705410156251,0.0752743246346314,0.455688000000009,
0.0284431157226562,0.0486022937011719,0.0331357509765624,0.0653388994229941,0.458635000000413,
-0.03141192578125,-0.0184353527832031,0.0307415493164065,0.0476614536905974,0.461621000000378,
0.035625720703125,-0.00646434448242188,-0.0123540805664071,0.0382570651232653,0.464684000000034,
0.0332315190429687,0.0246602770996094,-0.0339018955078121,0.0534958095887456,0.467672000000221,
0.0523851323242188,0.0462080920410156,-0.00277727392578164,0.0699078186553959,0.470732000000226,
0.0523851323242188,-0.0304063610839844,0.0139821376953115,0.0621630843630382,0.47372600000017,
-0.000287304199218741,-0.0447715710449219,-0.0291134921875003,0.0534057257687321,0.476704000000154,
0.0116837041015625,0.00550666381835938,-0.0291134921875003,0.0318500818726253,0.479710000000068,
0.0308373173828125,0.00790086547851562,0.00440533105468788,0.0321367509306605,0.482664000000113,
0.0284431157226562,-0.0232237561035156,-0.0291134921875003,0.0468609550363587,0.485736999999972,
-0.00746990917968748,-0.0543483776855469,0.0115879360351556,0.056069831119404,0.488717000000179,
0.016472107421875,-0.00885854614257814,0.0355299526367183,0.0401519824796413,0.491754000000128,
-0.000287304199218741,0.0773327136230469,-0.0362960971679698,0.0854273832540467,0.494753000000401,
0.00689530078125,-0.0184353527832031,0.0331357509765624,0.0385406979423806,0.497739000000365,
0.0284431157226562,-0.0375889660644531,-0.0410845004882816,0.0625290123237097,0.500757000000249,
0.0140779057617187,0.0342370837402344,-0.00517147558593756,0.03737792789077,0.503766000000269,
0.0404141240234375,0.00550666381835938,0.0427125576171878,0.0590591851043663,0.506862000000183,
0.00210689746093751,0.0294486804199219,0.00919373437499971,0.0309222985423731,0.509868999999981,
0.00689530078125,-0.0256179577636719,0.0139821376953115,0.0299887496801023,0.512874000000011,
0.00450109912109375,-0.0256179577636719,0.0283473476562488,0.0384722207888162,0.515996000000086,
0.0260489140625,-0.0112527478027344,0.0163763393554675,0.0327620931509708,0.519005000000107,
-0.00268150585937499,0.0318428820800781,-0.00277727392578164,0.0320760481247059,0.522094000000379,
-0.00507570751953124,0.0174776721191406,-0.0267192905273443,0.0323288155646421,0.525068000000374,
0.016472107421875,-0.0160411511230469,-0.053055508789063,0.0578233159299651,0.528070000000298,
0.0499909306640626,0.0174776721191406,-0.0219308872070325,0.0573195078926091,0.531208000000333,
0.0452025273437501,-0.00885854614257814,0.0331357509765624,0.0567425793457031,0.534174000000348,
0.00450109912109375,-0.00646434448242188,0.0451067592773438,0.0457893805962645,0.537257000000409,
0.0116837041015625,0.00550666381835938,-0.0339018955078121,0.0362790684412363,0.540284000000156,
0.0284431157226562,0.0102950671386719,0.00679953271484379,0.031003755974759,0.543331000000308,
0.0332315190429687,0.0174776721191406,0.0187705410156251,0.0419778047380594,0.546393999999964,
0.00928950244140625,-0.00407014282226563,-0.00277727392578164,0.0105154252724918,0.549332000000049,
-0.0242293208007812,-0.00885854614257814,0.0163763393554675,0.0305568047562697,0.552366000000347,
0.00450109912109375,0.00550666381835938,-0.0698149204101561,0.0701762520485582,0.555365000000165,
0.0260489140625,0.0390254870605469,0.0403183559570301,0.0618635950396209,0.55834300000015,
0.00210689746093751,-0.0208295544433594,-0.0291134921875003,0.035859514533404,0.5614300000002,
-0.000287304199218741,0.0294486804199219,-0.0410845004882816,0.0505494164412329,0.56445900000017,
0.00210689746093751,-0.00646434448242188,0.0139821376953115,0.0155475702612651,0.567564000000402,
0.016472107421875,-0.0112527478027344,0.0522893642578115,0.0559654560467064,0.57056300000022,
0.0643561406250001,0.0246602770996094,0.0451067592773438,0.0823678446681625,0.573631000000205,
0.00450109912109375,0.00790086547851562,-0.0219308872070325,0.023741259071395,0.576631000000361,
0.0404141240234375,0.000718260498046866,-0.00995987890625116,0.0416295148488669,0.57959000000028,
0.00928950244140625,-0.0160411511230469,-0.053055508789063,0.0562005373446523,0.582686000000194,
-0.00986411083984373,-0.00407014282226563,-0.00517147558593756,0.0118579469129488,0.585662000000411,
0.0260489140625,-0.0304063610839844,-0.0171424838867189,0.0435540752629598,0.588685000000169,
0.0188663090820312,0.00550666381835938,0.00679953271484379,0.0207965047526596,0.591687999999976,
0.0140779057617187,0.0294486804199219,0.0283473476562488,0.0432317513900924,0.594672000000173,
0.0212605107421875,0.0390254870605469,-0.0243250888671884,0.0506626875099239,0.597734000000401,
0.035625720703125,0.0270544787597656,-0.0410845004882816,0.0607377393138013,0.600710000000163,
0.0595677373046876,-0.0208295544433594,-0.0171424838867189,0.0653915164200644,0.603798999999981,
0.00689530078125,-0.00407014282226563,-0.0219308872070325,0.0233468423806118,0.606751000000259,
0.00928950244140625,0.0102950671386719,-0.00517147558593756,0.0147995750862855,0.609727000000021,
0.0260489140625,-0.00407014282226563,0.023558944335937,0.0353572601406405,0.612763000000086,
-0.0242293208007812,-0.00646434448242188,-0.00517147558593756,0.0256045288140699,0.615721000000121,
0.0428083256835937,-0.0184353527832031,0.0331357509765624,0.0571873497624653,0.618779000000359,
0.035625720703125,-0.00885854614257814,-0.053055508789063,0.0645178489120925,0.621718000000328,
-0.000287304199218741,0.0294486804199219,0.00679953271484379,0.0302248402364315,0.624676000000363,
-0.00986411083984373,0.0246602770996094,0.023558944335937,0.0355028704123204,0.627772000000277,
-0.021835119140625,-0.0112527478027344,-0.0458729038085934,0.0520357575598712,0.630762000000232,
0.0428083256835937,-0.00885854614257814,0.0355299526367183,0.056332975440325,0.633835999999974,
0.0284431157226562,0.0150834704589844,0.0403183559570301,0.0515954623991031,0.636838000000353,
-0.00268150585937499,0.00550666381835938,-0.00517147558593756,0.00801610752287161,0.639786000000186,
0.0188663090820312,0.0246602770996094,0.0139821376953115,0.0340524163538934,0.642843999999968,
0.0380199223632812,0.000718260498046866,-0.0243250888671884,0.0451413374087388,0.645860000000084,
-0.000287304199218741,0.0414196887207031,-0.00756567724609347,0.042105969049707,0.648931000000175,
-0.00746990917968748,-0.00646434448242188,-0.0267192905273443,0.028486975603332,0.651980000000094,
-0.0146525141601562,-0.00646434448242188,0.0163763393554675,0.0229056414772961,0.654952000000321,
0.00210689746093751,0.000718260498046866,-0.0219308872070325,0.0220435643384082,0.658076000000165,
0.0499909306640626,0.0246602770996094,0.0139821376953115,0.0574693186824003,0.66110000000026,
0.035625720703125,0.0126892687988281,0.0115879360351556,0.0395536316894017,0.66421500000024,
0.00210689746093751,-0.0423773693847656,-0.0362960971679698,0.0558362527620764,0.667219000000387,
0.0260489140625,-0.0304063610839844,0.0163763393554675,0.043258261741436,0.670383000000129,
0.00689530078125,0.0102950671386719,0.0307415493164065,0.0331447799001098,0.673388000000159,
0.0308373173828125,0.00550666381835938,-0.00756567724609347,0.0322258120451416,0.676378999999997,
0.0236547124023437,-0.00167594116210938,-0.0482671054687511,0.0537779477848308,0.679463000000396,
0.016472107421875,-0.00407014282226563,0.0427125576171878,0.0459593185732015,0.682486000000154,
0.0308373173828125,0.0414196887207031,-0.014748282226563,0.0537032828207234,0.685552000000371,
0.0140779057617187,-0.00646434448242188,-0.0195366855468748,0.024933055616605,0.688524000000143,
-0.00268150585937499,-0.00646434448242188,-0.0219308872070325,0.0230204699549958,0.691436000000067,
0.0236547124023437,-0.00407014282226563,-0.0267192905273443,0.0359170150167837,0.69451700000036,
0.0332315190429687,0.00790086547851562,-0.0171424838867189,0.0382180884793995,0.697483000000375,
0.00450109912109375,-0.00407014282226563,0.0379241542968742,0.0384066066585513,0.700565999999981,
-0.021835119140625,0.0150834704589844,-0.0362960971679698,0.0449632091670406,0.703636000000188,
0.0212605107421875,0.00311246215820311,0.0498951625976556,0.0543251690135558,0.706617000000278,
-0.00746990917968748,-0.0280121594238281,0.0211647426757811,0.0358946646630216,0.709687000000031,
0.0380199223632812,-0.00646434448242188,0.0498951625976556,0.0630621082484866,0.712639000000308,
0.016472107421875,0.00550666381835938,0.0283473476562488,0.0332449362831462,0.71573699999999,
0.0260489140625,0.00550666381835938,-0.0195366855468748,0.0330234969741456,0.718714000000091,
0.0212605107421875,0.0270544787597656,0.0355299526367183,0.0494604050968927,0.721723000000111,
0.0380199223632812,0.0342370837402344,0.0618661708984369,0.0802814767002972,0.724825000000237,
0.0284431157226562,-0.0136469494628906,-0.0267192905273443,0.0413421159102886,0.72778900000003,
0.0236547124023437,-0.0208295544433594,0.0427125576171878,0.053082749884949,0.730828000000201,
0.0308373173828125,-0.00167594116210938,0.00679953271484379,0.0316225009650943,0.73379900000009,
0.0308373173828125,0.0150834704589844,0.00440533105468788,0.0346100876357856,0.736823000000186,
0.0404141240234375,-0.0160411511230469,0.0475009609374997,0.0643969039622254,0.739844000000176,
-0.00986411083984373,0.0102950671386719,-0.0219308872070325,0.0261582282224555,0.742860000000292,
0.016472107421875,-0.0136469494628906,0.0331357509765624,0.0394404303391994,0.745936000000256,
0.0236547124023437,0.0438138903808594,-0.00995987890625116,0.0507779636946062,0.748941000000286,
0.0140779057617187,-0.00407014282226563,0.00440533105468788,0.0153023016220068,0.751887000000352,
0.0428083256835937,-0.0184353527832031,0.0139821376953115,0.0486612284535074,0.75495200000023,
-0.00507570751953124,0.0198718737792969,-0.00756567724609347,0.0218607787262071,0.757919000000129,
0.0116837041015625,0.0342370837402344,0.00440533105468788,0.0364430210914255,0.760997000000316,
0.016472107421875,0.00550666381835938,0.0379241542968742,0.0417120503986479,0.763969000000088,
0.00210689746093751,0.0222660754394531,0.059471969238281,0.0635384313424983,0.767044000000169,
0.0140779057617187,0.0150834704589844,-0.00517147558593756,0.0212706998347218,0.770031000000017,
-0.00507570751953124,-0.0160411511230469,-0.072209122070312,0.0741433654910639,0.772982000000411,
0.016472107421875,0.0150834704589844,0.0379241542968742,0.0440123037699456,0.776065000000017,
0.0188663090820312,-0.0423773693847656,-0.000383072265625728,0.0463888542509114,0.77905200000032,
0.0236547124023437,-0.0519541760253906,-0.0410845004882816,0.0703329084119694,0.782054000000244,
0.035625720703125,-0.00407014282226563,0.0714429775390624,0.0799365815997762,0.785067000000254,
0.0428083256835937,-0.0184353527832031,-0.00995987890625116,0.0476614536905975,0.788037000000259,
0.0140779057617187,0.00790086547851562,-0.0123540805664071,0.0203281679594279,0.791139000000385,
0.016472107421875,-0.0447715710449219,-0.00277727392578164,0.0477863698894057,0.794154000000162,
0.00928950244140625,-0.00885854614257814,0.00679953271484379,0.0145259196097634,0.797275000000354,
0.0404141240234375,0.0318428820800781,0.0259531459960929,0.0576266982122181,0.800301000000218,
0.0284431157226562,0.000718260498046866,-0.0339018955078121,0.0442590696826998,0.803321000000324,
-0.00746990917968748,-0.0160411511230469,-0.0554497104492189,0.0582047116770405,0.806354000000283,
-0.0170467158203125,-0.00885854614257814,0.0163763393554675,0.0252437883588044,0.809371000000283,
-0.0146525141601562,0.000718260498046866,-0.0315076938476562,0.0347555296457163,0.812482000000273,
0.0380199223632812,0.0150834704589844,0.00919373437499971,0.0419231478941531,0.815462000000025,
-0.0170467158203125,-0.00167594116210938,-0.0339018955078121,0.037983388712172,0.818374000000404,
0.0332315190429687,-0.0280121594238281,-0.0339018955078121,0.0551212613472494,0.821436000000176,
0.0284431157226562,0.0222660754394531,0.0786255825195301,0.0865261300072023,0.824494000000414,
0.0428083256835937,0.0126892687988281,0.0403183559570301,0.0601592895366903,0.827543000000333,
0.0260489140625,0.0150834704589844,0.0163763393554675,0.0342672072922203,0.830517000000327,
0.0188663090820312,-0.0208295544433594,0.0139821376953115,0.0313896182075899,0.833462000000054,
0.0332315190429687,0.0318428820800781,-0.000383072265625728,0.0460266199218414,0.836533000000145,
0.0236547124023437,0.0222660754394531,0.0139821376953115,0.0353669861430637,0.839517000000342,
0.0188663090820312,0.0126892687988281,0.00679953271484379,0.0237315993175319,0.842634999999973,
-0.0266235224609375,-0.0136469494628906,-0.00756567724609347,0.0308592068929645,0.845639000000119,
0.00928950244140625,0.0150834704589844,-0.0123540805664071,0.0215969730133004,0.848646000000372,
0.00928950244140625,0.0174776721191406,0.0283473476562488,0.0345736315341231,0.85173900000018,
0.0140779057617187,-0.0328005627441406,0.0163763393554675,0.0392714761328572,0.854727000000366,
-0.000287304199218741,0.00311246215820311,0.0427125576171878,0.0428267736654388,0.857791000000361,
0.00450109912109375,0.0198718737792969,0.0187705410156251,0.0277035100811699,0.860763000000134,
0.0140779057617187,0.0102950671386719,-0.0291134921875003,0.0339377557504505,0.863847999999962,
0.0236547124023437,0.0294486804199219,-0.072209122070312,0.0814918861450483,0.86687400000028,
0.00210689746093751,0.00311246215820311,-0.0410845004882816,0.0412560615906168,0.869865000000118,
0.0188663090820312,0.000718260498046866,-0.0291134921875003,0.0346994084081188,0.872933000000103,
0.00450109912109375,0.0366312854003906,-0.0243250888671884,0.0442020464659658,0.875934000000143,
0.00689530078125,-0.0136469494628906,0.0403183559570301,0.0431202299342708,0.878970000000209,
0.00928950244140625,-0.0280121594238281,-0.000383072265625728,0.0295147874048848,0.88193500000034,
0.00928950244140625,-0.00885854614257814,0.0211647426757811,0.0247530811799482,0.884923000000072,
0.0236547124023437,0.00550666381835938,-0.014748282226563,0.0284144434026144,0.888026000000082,
0.0284431157226562,0.0414196887207031,0.0211647426757811,0.0545210764591491,0.891006000000289,
-0.00268150585937499,0.000718260498046866,0.0211647426757811,0.0213460231506701,0.894033000000036,
0.00928950244140625,-0.0112527478027344,-0.0339018955078121,0.0369087754842049,0.896999000000051,
0.0284431157226562,-0.00885854614257814,-0.0291134921875003,0.0416542926854393,0.899953000000096,
-0.00507570751953124,-0.0136469494628906,0.00440533105468788,0.0152121325976312,0.902993000000151,
0.0428083256835937,0.000718260498046866,0.0738371791992183,0.0853521978514505,0.90595200000007,
0.00450109912109375,0.00550666381835938,0.0403183559570301,0.0409408483886708,0.909061000000293,
0.0140779057617187,0.0150834704589844,-0.00517147558593756,0.0212706998347218,0.912103999999999,
0.0212605107421875,0.0294486804199219,0.0355299526367183,0.0508095623860392,0.915084000000206,
0.0236547124023437,0.00790086547851562,-0.000383072265625728,0.0249422500690673,0.918173000000024,
-0.00268150585937499,-0.00646434448242188,0.0498951625976556,0.0503835833770065,0.921135000000049,
0.0380199223632812,-0.0112527478027344,-0.00277727392578164,0.0397473531204369,0.924159000000145,
0.00689530078125,0.0174776721191406,-0.0626323154296884,0.0653897632022939,0.927196999999978,
0.0236547124023437,0.0198718737792969,-0.0219308872070325,0.0378866810373446,0.930203000000347,
-0.0122583125,0.0102950671386719,-0.0267192905273443,0.031147634244386,0.933316999999988,
0.00928950244140625,-0.0184353527832031,-0.00756567724609347,0.0219862811780916,0.936302000000069,
0.0571735356445313,0.0174776721191406,0.0331357509765624,0.0683539332707448,0.939486000000215,
0.0212605107421875,0.0198718737792969,0.0187705410156251,0.0346299566060693,0.942508000000089,
-0.0122583125,-0.00885854614257814,0.0115879360351556,0.0190530923123439,0.945474000000104,
0.0260489140625,-0.00646434448242188,-0.00517147558593756,0.0273327245835258,0.948567000000367,
0.00210689746093751,-0.0112527478027344,-0.0410845004882816,0.0426497307188974,0.951660000000174,
0.00928950244140625,-0.0136469494628906,-0.0482671054687511,0.0510122294708154,0.954709999999977,
0.0284431157226562,-0.00167594116210938,0.0498951625976556,0.0574573481935753,0.957704000000376,
-0.000287304199218741,-0.0136469494628906,0.0163763393554675,0.0213191525167163,0.960741000000326,
0.0212605107421875,-0.0232237561035156,0.0139821376953115,0.0344507233466135,0.963771000000179,
0.0380199223632812,0.0198718737792969,0.0187705410156251,0.0468266918971381,0.966777999999977,
0.0188663090820312,0.0126892687988281,-0.0243250888671884,0.0332966230934049,0.969833999999992,
0.016472107421875,0.0174776721191406,-0.0123540805664071,0.0270078257596433,0.972805000000335,
0.035625720703125,-0.00167594116210938,-0.0195366855468748,0.0406654993397768,0.975831000000198,
0.0116837041015625,0.0126892687988281,-0.0291134921875003,0.033839649991296,0.978824000000259,
0.00450109912109375,-0.0112527478027344,-0.0315076938476562,0.0337582434082031,0.981778000000304,
-0.00986411083984373,0.0318428820800781,0.0139821376953115,0.0361492738012416,0.984951000000365,
0.0475967290039063,-0.0280121594238281,0.0498951625976556,0.0744288716702312,0.987920000000031,
0.0116837041015625,-0.00885854614257814,-0.0267192905273443,0.0304779144230324,0.991029000000253,
0.0140779057617187,0.00790086547851562,0.0211647426757811,0.0266187422407119,0.993995000000268,
0.0212605107421875,0.0390254870605469,-0.0339018955078121,0.0558957643865274,0.997004000000288,
-0.00268150585937499,0.0270544787597656,0.0283473476562488,0.0392773142383833,1.00008700000035,
0.00928950244140625,0.00790086547851562,0.0331357509765624,0.0353085899420984,1.00311200000033,
-0.0146525141601562,0.0414196887207031,0.0139821376953115,0.0461062572701816,1.00619600000027,
0.00450109912109375,-0.00407014282226563,0.0427125576171878,0.0431414943423746,1.00917200000004,
0.0380199223632812,0.0294486804199219,-0.0626323154296884,0.0789654748043004,1.01212900000019,
0.00928950244140625,0.0198718737792969,0.00201112939453019,0.0220279564315608,1.01523600000019,
0.00689530078125,-0.0232237561035156,-0.050661307128907,0.0561556413945111,1.01817600000004,
0.0212605107421875,0.000718260498046866,-0.00995987890625116,0.0234888144228037,1.02128000000039,
0.0236547124023437,-0.0256179577636719,-0.0650265170898443,0.0737853176699449,1.0242760000001,
-0.0242293208007812,0.0174776721191406,-0.0386902988281257,0.0488821872728811,1.02726100000018,
0.0260489140625,0.0270544787597656,-0.0315076938476562,0.0490227040910204,1.03031300000021,
-0.0146525141601562,-0.0304063610839844,-0.0339018955078121,0.047839120859458,1.0332800000001,
