X,Y,Z,Magnitude,Seconds,
0.0188663090820312,0.00790086547851562,0.0115879360351556,0.0235083294864436,0.0,
0.0667503422851563,-0.0256179577636719,0.0522893642578115,0.0885780196756108,0.00375600000006671,
0.016472107421875,-0.0136469494628906,-0.0267192905273443,0.0342270366646766,0.00753399999985049,
0.0308373173828125,-0.0112527478027344,0.0211647426757811,0.0390577880711681,0.0114169999997102,
-0.021835119140625,-0.0160411511230469,0.0187705410156251,0.0329609491255483,0.0152170000001206,
-0.00746990917968748,-0.0136469494628906,0.0355299526367183,0.0387868058386214,0.0189860000000408,
-0.0242293208007812,0.0270544787597656,0.00440533105468788,0.0365843101497237,0.0227649999997084,
0.0116837041015625,0.000718260498046866,-0.00756567724609347,0.0139378732907133,0.0265519999998105,
0.0380199223632812,-0.0160411511230469,0.0355299526367183,0.0544537469806239,0.0303589999998621,
0.00210689746093751,0.0102950671386719,0.0283473476562488,0.0302324253649108,0.0342110000001412,
-0.00507570751953124,-0.0280121594238281,-0.0219308872070325,0.0359361613990333,0.037949000000026,
0.0260489140625,-0.0423773693847656,0.023558944335937,0.0550400873730425,0.0417099999999664,
-0.0266235224609375,-0.00167594116210938,-0.0195366855468748,0.0330651298071603,0.0454399999998714,
-0.021835119140625,-0.00885854614257814,0.0498951625976556,0.0551794664553035,0.0491830000000846,
-0.000287304199218741,-0.0495599743652344,0.0187705410156251,0.0529962905570271,0.0529139999998733,
0.0116837041015625,0.0150834704589844,-0.0554497104492189,0.0586403479826146,0.0567310000001271,
-0.00507570751953124,-0.0136469494628906,-0.0602381137695325,0.0619728358797438,0.0604539999999361,
0.0212605107421875,0.0174776721191406,-0.0602381137695325,0.0662277033440991,0.0642969999998968,
0.016472107421875,0.000718260498046866,-0.0195366855468748,0.0255641996396975,0.0683140000001004,
0.0140779057617187,0.000718260498046866,-0.00995987890625116,0.0172598527399881,0.0721330000001217,
-0.00986411083984373,-0.00885854614257814,0.0139821376953115,0.0192684897423633,0.075930999999855,
-0.00268150585937499,-0.00885854614257814,-0.0219308872070325,0.0238039519223517,0.0796930000001339,
0.0236547124023437,0.000718260498046866,0.0331357509765624,0.0407190288410886,0.08366500000011,
0.0212605107421875,0.0270544787597656,0.0307415493164065,0.0461410553883885,0.0875129999999444,
0.0547793339843751,0.0294486804199219,-0.0267192905273443,0.0676898862204025,0.0913139999997838,
0.0308373173828125,-0.00885854614257814,0.00919373437499971,0.0333757207395817,0.0950789999997141,
-0.0146525141601562,0.0533906970214844,-0.00277727392578164,0.0554344292846273,0.0988330000000133,
0.00450109912109375,-0.0208295544433594,-0.0339018955078121,0.040043335907856,0.102602999999817,
-0.0170467158203125,0.00550666381835938,0.0211647426757811,0.0277283284602399,0.106420000000071,
-0.0122583125,0.0390254870605469,0.0211647426757811,0.0460565000645142,0.110145000000102,
-0.0146525141601562,0.0102950671386719,-0.0195366855468748,0.026502201055022,0.113855999999942,
0.016472107421875,-0.0184353527832031,0.0139821376953115,0.0284023366941806,0.117562999999791,
0.0188663090820312,-0.0112527478027344,0.0355299526367183,0.0417724728243149,0.121278999999959,
-0.0242293208007812,0.000718260498046866,0.0379241542968742,0.0450090809031172,0.12498800000003,
0.0284431157226562,0.0318428820800781,-0.0410845004882816,0.0592529843261062,0.128705999999966,
0.0332315190429687,0.0126892687988281,0.0498951625976556,0.0612770646424794,0.132551000000149,
-0.000287304199218741,0.0102950671386719,0.0163763393554675,0.019345682768465,0.136447999999746,
0.0236547124023437,-0.0328005627441406,0.0163763393554675,0.0436303429490914,0.140350000000126,
0.0404141240234375,0.0174776721191406,0.0331357509765624,0.0551067004643421,0.144136999999773,
0.00450109912109375,-0.00646434448242188,0.00919373437499971,0.0121067086626953,0.147912999999789,
-0.0170467158203125,-0.0112527478027344,0.0498951625976556,0.0539142105943964,0.151624999999967,
0.0380199223632812,0.0653617053222656,-0.0123540805664071,0.0766178198971094,0.155510000000049,
0.0284431157226562,-0.0351947644042969,-0.0434787021484375,0.0627541218885176,0.159317999999985,
0.0475967290039063,0.0102950671386719,0.0211647426757811,0.0530978657932038,0.163098999999875,
0.0428083256835937,0.0174776721191406,0.0259531459960929,0.0530244053020053,0.166867999999795,
-0.0194409174804687,-0.00885854614257814,-0.0171424838867189,0.0273913830619959,0.170622999999978,
0.00210689746093751,-0.0112527478027344,-0.00517147558593756,0.0125621459058075,0.174367000000075,
0.0236547124023437,-0.00407014282226563,-0.00277727392578164,0.0241624653520716,0.178170000000136,
-0.000287304199218741,0.0102950671386719,0.0546835659179692,0.0556449758073227,0.181958000000122,
0.0523851323242188,0.0126892687988281,0.023558944335937,0.05882383436583,0.185713999999734,
0.00689530078125,0.00311246215820311,-0.0434787021484375,0.0441319627261546,0.189456000000064,
0.00210689746093751,0.0198718737792969,-0.0195366855468748,0.0279466002685242,0.193193000000065,
0.0404141240234375,-0.00167594116210938,-0.0554497104492189,0.0686351264897417,0.196930000000066,
0.0260489140625,0.0126892687988281,0.0475009609374997,0.055640855101897,0.200667000000067,
0.00210689746093751,-0.0280121594238281,0.0115879360351556,0.030387503254656,0.204525000000103,
0.0332315190429687,0.0294486804199219,-0.050661307128907,0.0673656193943716,0.208509999999933,
0.00210689746093751,0.0246602770996094,-0.00756567724609347,0.0258806444226662,0.212347000000136,
-0.021835119140625,-0.0160411511230469,-0.0339018955078121,0.0433984962442286,0.21610499999997,
0.0308373173828125,-0.0232237561035156,-0.00277727392578164,0.0387039564047749,0.219896000000062,
0.016472107421875,0.0270544787597656,-0.00277727392578164,0.0317960436900446,0.223719999999958,
0.0284431157226562,-0.0351947644042969,0.0331357509765624,0.0560861860556335,0.227652000000035,
0.016472107421875,-0.0399831677246094,0.0379241542968742,0.0575171757246925,0.231503999999859,
0.00450109912109375,0.0270544787597656,0.0403183559570301,0.0487624296086476,0.235318000000007,
0.0380199223632812,-0.0184353527832031,0.0451067592773438,0.061806119933671,0.239117000000078,
-0.00507570751953124,0.0126892687988281,0.0163763393554675,0.0213299048323749,0.242929999999888,
0.0452025273437501,0.00790086547851562,-0.00995987890625116,0.0469562705226816,0.246710999999777,
0.0332315190429687,0.0246602770996094,-0.0171424838867189,0.044792051508489,0.250482999999804,
0.00928950244140625,-0.00885854614257814,-0.0243250888671884,0.027504156845206,0.254333999999744,
0.0116837041015625,0.0270544787597656,-0.0291134921875003,0.0414252240772107,0.258099000000129,
0.016472107421875,-0.0256179577636719,-0.00756567724609347,0.0313823127747322,0.261821999999938,
-0.0266235224609375,0.0198718737792969,-0.0291134921875003,0.0441735072535562,0.265558000000055,
0.0475967290039063,-0.00167594116210938,-0.0195366855468748,0.0514775628095155,0.269279000000097,
0.0140779057617187,0.00311246215820311,0.0283473476562488,0.0318032540861201,0.273005999999896,
0.00928950244140625,-0.0112527478027344,0.0115879360351556,0.0186332887670345,0.276919999999791,
0.0140779057617187,0.0126892687988281,-0.00277727392578164,0.01915510959884,0.280902999999853,
0.016472107421875,-0.00407014282226563,-0.0195366855468748,0.0258762143225955,0.284634000000096,
0.0140779057617187,0.00550666381835938,0.00919373437499971,0.0176928100877818,0.288416999999754,
0.0404141240234375,-0.00407014282226563,-0.0362960971679698,0.0544726918079337,0.292171000000053,
0.00210689746093751,0.0557848986816406,0.140874825683593,0.151532539242284,0.296011999999791,
-0.0457771357421874,0.283234056396484,0.559860116210936,0.629094926528015,0.299896999999874,
-0.0505655390624999,0.0557848986816406,-0.18952500341797,0.203932723176501,0.303710000000137,
0.0499909306640626,-0.401507618408203,-0.577385672363281,0.70504019420093,0.30665799999997,
0.0954807622070313,0.220984813232422,-0.0865743320312511,0.255824116528644,0.309608000000026,
-0.0721133540039063,0.323935484619141,0.344381966796874,0.478260883907532,0.312637999999879,
-0.0864785639648438,-0.157299049072266,0.0211647426757811,0.180747003286341,0.315595999999914,
0.0882981572265625,-0.281797535400391,-0.0339018955078121,0.297246958010278,0.31861600000002,
0.0499909306640626,0.0773327136230469,-0.00517147558593756,0.0922289862499813,0.321593000000121,
0.016472107421875,0.280839854736328,0.0522893642578115,0.286140755478359,0.32455600000003,
-0.00268150585937499,0.000718260498046866,0.0163763393554675,0.0166099627483733,0.327566999999817,
-0.0529597407226562,-0.186029468994141,-0.088968533691407,0.212901614505038,0.330484000000069,
-0.00268150585937499,-0.0280121594238281,0.0546835659179692,0.0614993002461386,0.333507999999711,
0.1026633671875,0.120428343505859,-0.0291134921875003,0.160904780255878,0.336473999999725,
0.0739329472656251,0.0940921252441406,-0.0339018955078121,0.124373418556231,0.339427999999771,
-0.0769017573242188,-0.0830787976074219,-0.0267192905273443,0.116318044076285,0.342431000000033,
-0.0433829340820312,-0.107020814208984,-0.0339018955078121,0.120353114469641,0.345362000000023,
0.0691445439453125,0.0557848986816406,0.00201112939453019,0.0888648835016831,0.348398999999972,
0.167306812011719,0.0653617053222656,0.0139821376953115,0.180164430570215,0.351364999999987,
-0.0290177241210937,-0.00885854614257814,-0.00995987890625116,0.0319327628111831,0.354250999999749,
-0.134362597167969,-0.0304063610839844,0.00679953271484379,0.137927836049261,0.357259999999769,
-0.0290177241210937,-0.0399831677246094,-0.0243250888671884,0.0550671586597562,0.360181999999895,
0.0906923588867188,0.0749385119628906,0.0570777675781251,0.130762212000838,0.363229000000047,
0.1026633671875,0.0581791003417969,0.0498951625976556,0.128117531702351,0.366196999999829,
-0.0529597407226562,-0.0471657727050781,0.0187705410156251,0.0733599172729722,0.369185000000016,
-0.0457771357421874,-0.0567425793457031,0.0139821376953115,0.0742345380674839,0.372116000000005,
0.0571735356445313,0.000718260498046866,0.00919373437499971,0.0579124669479517,0.37507800000003,
0.0715387456054688,0.0725443103027344,-0.0650265170898443,0.120867352932623,0.378099999999904,
-0.0194409174804687,-0.0160411511230469,0.0475009609374997,0.0537736840082646,0.381049999999959,
-0.0122583125,-0.0639251843261719,-0.0243250888671884,0.0694867279764943,0.384105000000091,
0.0404141240234375,-0.0208295544433594,0.023558944335937,0.0512073785417144,0.387165999999979,
0.016472107421875,0.146764561767578,-0.0434787021484375,0.153953124210779,0.390218000000004,
0.035625720703125,0.00550666381835938,0.0331357509765624,0.0489642044232953,0.39334000000008,
0.0188663090820312,-0.0806845959472656,0.0355299526367183,0.0901571914819871,0.396283999999923,
0.0188663090820312,-0.00167594116210938,0.0355299526367183,0.0402631833257758,0.399317999999766,
0.0475967290039063,0.122822545166016,0.0522893642578115,0.141721571496422,0.40228500000012,
0.035625720703125,-0.00167594116210938,0.0451067592773438,0.0575032215349728,0.405233999999837,
-0.0362003291015625,-0.0423773693847656,0.0139821376953115,0.0574613386335974,0.408235999999761,
0.0188663090820312,-0.0399831677246094,0.00919373437499971,0.0451565728486012,0.411219000000074,
0.0380199223632812,0.0318428820800781,0.0331357509765624,0.0596444601656889,0.41427799999974,
0.0260489140625,0.0557848986816406,-0.0410845004882816,0.0740164645543681,0.417241999999987,
0.00450109912109375,-0.0136469494628906,-0.014748282226563,0.020591526208005,0.420184999999947,
0.00928950244140625,-0.0663193859863281,0.0331357509765624,0.0747163556792837,0.42322699999977,
0.08350975390625,0.0198718737792969,0.0307415493164065,0.09118011416617,0.426241000000118,
0.0260489140625,0.0318428820800781,-0.00995987890625116,0.0423286457476312,0.429284999999709,
0.0116837041015625,0.0174776721191406,-0.014748282226563,0.0256805333447615,0.432236000000103,
-0.0745075556640625,-0.0351947644042969,0.0498951625976556,0.0963305483382807,0.435184999999819,
0.00210689746093751,-0.0112527478027344,0.0187705410156251,0.0219862811780918,0.438212000000021,
0.0547793339843751,0.0462080920410156,-0.0674207187500002,0.0983946976142989,0.44117899999992,
0.0260489140625,0.00790086547851562,-0.00517147558593756,0.0277076480214589,0.444212999999763,
-0.021835119140625,-0.0711077893066406,-0.00756567724609347,0.0747685067401706,0.447145000000091,
-0.000287304199218741,-0.0304063610839844,-0.0339018955078121,0.0455408372463126,0.450057999999899,
0.0188663090820312,0.0438138903808594,0.0379241542968742,0.0609412511179236,0.453086999999869,
0.00689530078125,0.0318428820800781,-0.0339018955078121,0.0470197068371579,0.45605599999999,
-0.00507570751953124,-0.0208295544433594,0.0259531459960929,0.0336630202481478,0.459076999999979,
0.00928950244140625,-0.0351947644042969,0.0905965908203115,0.0976355906693138,0.462034000000131,
0.0499909306640626,0.00550666381835938,-0.0243250888671884,0.0558670425516167,0.465073999999731,
0.0811155522460938,0.0533906970214844,0.0307415493164065,0.1018594237123,0.468045999999958,
0.00210689746093751,-0.0399831677246094,0.00679953271484379,0.0406118992826657,0.470985999999812,
0.0116837041015625,-0.0184353527832031,-0.0195366855468748,0.0292925460814094,0.473993999999948,
0.016472107421875,0.00311246215820311,-0.0698149204101561,0.0717993095752353,0.47696199999973,
0.0140779057617187,0.0414196887207031,-0.0243250888671884,0.0500548498424717,0.480003000000124,
0.0332315190429687,0.0126892687988281,-0.0195366855468748,0.0405836602921616,0.482986999999866,
-0.0146525141601562,-0.0256179577636719,0.0115879360351556,0.0317057753847736,0.48591499999975,
0.00689530078125,-0.00646434448242188,0.0379241542968742,0.0390841963149359,0.488945999999942,
-0.00268150585937499,-0.0160411511230469,0.0187705410156251,0.0248363083618632,0.491888000000017,
-0.0242293208007812,-0.0423773693847656,0.0403183559570301,0.0633124888905643,0.494902999999795,
0.016472107421875,-0.0567425793457031,-0.0267192905273443,0.0648457486656283,0.497851000000082,
0.0140779057617187,-0.0256179577636719,0.023558944335937,0.0375431891138844,0.500801000000138,
0.016472107421875,-0.00646434448242188,-0.0171424838867189,0.0246370214577904,0.503807000000052,
-0.00986411083984373,0.0102950671386719,0.00201112939453019,0.0143990878701405,0.506789000000026,
-0.00268150585937499,0.0246602770996094,-0.014748282226563,0.0288588213365989,0.509807999999794,
-0.00268150585937499,-0.0208295544433594,0.0475009609374997,0.0519365199254687,0.512757999999849,
0.00210689746093751,0.0174776721191406,0.0139821376953115,0.0224812858650421,0.515710000000126,
0.0380199223632812,0.0126892687988281,0.023558944335937,0.0464925359319388,0.51873999999998,
-0.00986411083984373,-0.0256179577636719,0.0642603725585928,0.069878293654118,0.521691999999803,
0.0428083256835937,-0.0304063610839844,-0.0267192905273443,0.058915363263642,0.524818999999752,
0.0475967290039063,0.0557848986816406,-0.0626323154296884,0.096437598834045,0.527888999999959,
-0.0242293208007812,0.00790086547851562,0.0618661708984369,0.0669096911023461,0.530953999999838,
-0.00268150585937499,-0.0160411511230469,-0.0195366855468748,0.0254202888493376,0.533978999999817,
-0.00746990917968748,-0.0304063610839844,0.00679953271484379,0.0320402868692315,0.536932999999863,
0.0428083256835937,0.0318428820800781,0.0570777675781251,0.0781306178057032,0.539980999999898,
0.0571735356445313,0.0414196887207031,-0.000383072265625728,0.070601349393458,0.542973000000075,
0.00210689746093751,-0.0543483776855469,-0.00277727392578164,0.0544600626553127,0.545924000000014,
0.0212605107421875,-0.00885854614257814,-0.0291134921875003,0.0371224808455805,0.548941999999897,
0.0212605107421875,0.00790086547851562,0.100173397460937,0.102709018840582,0.551919999999882,
0.0188663090820312,0.00550666381835938,0.0307415493164065,0.0364870363164812,0.554978000000119,
-0.000287304199218741,0.00550666381835938,0.00679953271484379,0.008754400907632,0.557937999999922,
0.00210689746093751,-0.0112527478027344,-0.0386902988281257,0.0403485138937299,0.560953000000154,
0.0188663090820312,0.0342370837402344,-0.0195366855468748,0.043701231144809,0.563944999999876,
0.0475967290039063,-0.00885854614257814,0.0259531459960929,0.0549316688143187,0.566921999999977,
0.016472107421875,0.000718260498046866,0.0618661708984369,0.0640255364889311,0.569973000000118,
0.00928950244140625,-0.0136469494628906,0.0259531459960929,0.0307587365206391,0.572929999999815,
0.0332315190429687,0.0126892687988281,-0.0434787021484375,0.0561760530926181,0.575953999999911,
0.0188663090820312,-0.00407014282226563,-0.0123540805664071,0.0229156494041441,0.578909999999723,
0.0308373173828125,0.0198718737792969,-0.000383072265625728,0.0366875763062826,0.581862000000001,
0.00928950244140625,-0.0256179577636719,-0.0482671054687511,0.0554282246325977,0.584887999999864,
0.0284431157226562,0.0246602770996094,0.00919373437499971,0.0387513206278184,0.587858999999753,
0.0404141240234375,0.0198718737792969,-0.0123540805664071,0.0466992087162445,0.590883999999733,
0.035625720703125,0.0270544787597656,0.0187705410156251,0.048512575757209,0.593866000000162,
-0.021835119140625,-0.0639251843261719,0.00679953271484379,0.0678928218898034,0.596784999999727,
0.00210689746093751,0.0174776721191406,0.00201112939453019,0.017718709915133,0.599830999999995,
0.0116837041015625,0.0270544787597656,-0.0386902988281257,0.0486353059608464,0.602800999999999,
0.0260489140625,0.0102950671386719,-0.00995987890625116,0.0297276557947723,0.605833000000075,
0.0260489140625,-0.0495599743652344,0.0522893642578115,0.0766088415093473,0.608815999999933,
0.00210689746093751,0.0150834704589844,0.0642603725585928,0.0660404843968237,0.611767999999756,
0.0236547124023437,0.0246602770996094,0.0331357509765624,0.0475988726573211,0.614802999999938,
-0.00986411083984373,0.0294486804199219,0.023558944335937,0.0389813970934751,0.617745000000014,
0.0380199223632812,-0.00646434448242188,0.0115879360351556,0.0402688776557307,0.62079199999971,
-0.00507570751953124,-0.0256179577636719,-0.0434787021484375,0.0507192281814072,0.623708999999963,
0.0308373173828125,0.0174776721191406,-0.0195366855468748,0.0404733399687987,0.626660999999785,
0.0116837041015625,0.00550666381835938,0.0259531459960929,0.028989620125759,0.629697999999735,
-0.0242293208007812,-0.00646434448242188,-0.00277727392578164,0.0252301602554049,0.632612999999765,
0.0116837041015625,0.0390254870605469,0.00919373437499971,0.0417614934311961,0.635651000000053,
0.0260489140625,0.0509964953613281,-0.0578439121093748,0.0813947580074451,0.638619999999719,
-0.0122583125,-0.0280121594238281,0.0259531459960929,0.0401062724274911,0.641541999999845,
0.00689530078125,-0.0447715710449219,0.0642603725585928,0.0786220975811734,0.644565000000057,
-0.0194409174804687,0.0150834704589844,0.00919373437499971,0.0262675675563517,0.647519000000102,
0.0499909306640626,0.0150834704589844,0.0522893642578115,0.0738971030841687,0.650565999999799,
0.016472107421875,0.000718260498046866,0.0714429775390624,0.0733208378341915,0.653524999999718,
-0.00986411083984373,0.00550666381835938,-0.00277727392578164,0.011633455184423,0.65652399999999,
-0.0122583125,-0.0304063610839844,0.0427125576171878,0.0538439931461151,0.65946299999996,
-0.0242293208007812,-0.0375889660644531,0.0211647426757811,0.0494766277023183,0.66246000000001,
0.016472107421875,0.00790086547851562,0.0115879360351556,0.0216340994677904,0.665597000000162,
0.0332315190429687,-0.00885854614257814,-0.0123540805664071,0.036543549421268,0.668636999999762,
-0.0338061274414062,-0.00407014282226563,-0.000383072265625728,0.0340524163538937,0.671688999999787,
0.035625720703125,0.00311246215820311,-0.014748282226563,0.038683216321005,0.674664000000121,
0.0116837041015625,-0.00407014282226563,0.0139821376953115,0.0186701681475331,0.677609999999731,
-0.0266235224609375,-0.0160411511230469,-0.014748282226563,0.0344041030433119,0.680605000000014,
0.0116837041015625,-0.0112527478027344,-0.00517147558593756,0.0170257873351208,0.683591999999862,
0.00210689746093751,0.0246602770996094,-0.014748282226563,0.0288111109153184,0.686639000000014,
0.0332315190429687,-0.0136469494628906,0.0259531459960929,0.0443186064158204,0.689622999999756,
-0.000287304199218741,-0.0663193859863281,-0.0362960971679698,0.0756025804515505,0.692525999999816,
-0.00507570751953124,0.0174776721191406,-0.0195366855468748,0.0267004477806174,0.695553999999902,
0.0284431157226562,-0.00167594116210938,0.00201112939453019,0.0285633375541587,0.698543999999856,
0.0404141240234375,-0.00885854614257814,0.0522893642578115,0.0666779789347883,0.701567999999952,
0.0188663090820312,0.0294486804199219,0.0259531459960929,0.0435514429605718,0.704589999999826,
0.0140779057617187,-0.0328005627441406,-0.0123540805664071,0.0377715190799816,0.707512999999835,
0.035625720703125,0.00550666381835938,-0.0267192905273443,0.0448713250117503,0.710555000000113,
0.00689530078125,0.00550666381835938,0.0546835659179692,0.0553909821250465,0.713543999999729,
0.0332315190429687,0.0366312854003906,0.00440533105468788,0.0496547265594068,0.716582000000017,
0.00210689746093751,0.00550666381835938,-0.00756567724609347,0.00959175872879367,0.719532000000072,
0.0116837041015625,-0.0136469494628906,0.0307415493164065,0.0356060532149888,0.722479999999905,
0.0188663090820312,0.0222660754394531,-0.00995987890625116,0.0308369084326127,0.725504000000001,
-0.0146525141601562,-0.00885854614257814,0.0307415493164065,0.0351882489667619,0.7284709999999,
-0.00268150585937499,-0.00407014282226563,0.00679953271484379,0.00836601347164429,0.731464999999844,
0.016472107421875,-0.0447715710449219,0.0738371791992183,0.0879076386262636,0.734452000000147,
0.0188663090820312,0.0246602770996094,0.0666545742187488,0.0735316200643705,0.737395000000106,
-0.00986411083984373,0.0390254870605469,-0.00995987890625116,0.041466715698266,0.74038900000005,
0.00210689746093751,0.00790086547851562,-0.0291134921875003,0.030240008590808,0.743355999999949,
-0.021835119140625,0.0270544787597656,0.0331357509765624,0.0480280672277019,0.746391000000131,
0.0140779057617187,0.00790086547851562,0.0355299526367183,0.0390254870605465,0.749363999999787,
0.0332315190429687,-0.0136469494628906,0.0283473476562488,0.0457618313301611,0.752371000000039,
0.016472107421875,0.0102950671386719,0.00919373437499971,0.0214905440151152,0.755325999999968,
-0.00986411083984373,0.0150834704589844,0.00201112939453019,0.0181343983961233,0.758262999999715,
0.035625720703125,0.0102950671386719,-0.0362960971679698,0.0518901440799072,0.761304999999993,
0.0308373173828125,0.0102950671386719,0.00201112939453019,0.0325725834437432,0.764284999999745,
0.0236547124023437,0.00550666381835938,0.059471969238281,0.0642400489595475,0.767305999999735,
0.00689530078125,0.0318428820800781,-0.0243250888671884,0.0406598605559129,0.770262999999886,
0.00928950244140625,-0.00885854614257814,0.0355299526367183,0.0377775889878712,0.773204999999962,
0.0380199223632812,0.0366312854003906,-0.00517147558593756,0.0530481830634259,0.776238999999805,
-0.00507570751953124,0.000718260498046866,0.0139821376953115,0.0148922422588921,0.77920899999981,
0.0284431157226562,0.00790086547851562,0.023558944335937,0.0377684837602172,0.782245999999759,
0.035625720703125,0.0270544787597656,-0.000383072265625728,0.0447357076722876,0.785205000000133,
0.0188663090820312,0.0126892687988281,-0.0362960971679698,0.0428294505060986,0.788167000000158,
-0.00746990917968748,-0.00646434448242188,0.0187705410156251,0.0212113295849049,0.791171999999733,
0.0236547124023437,-0.00167594116210938,-0.014748282226563,0.0279260814696728,0.794112999999925,
0.0212605107421875,0.00790086547851562,-0.0626323154296884,0.0666126108812157,0.797141000000011,
-0.00507570751953124,0.0294486804199219,0.0115879360351556,0.0320510194354778,0.800131999999849,
0.016472107421875,0.00311246215820311,-0.0386902988281257,0.0421658270049776,0.80318299999999,
0.00210689746093751,0.00550666381835938,-0.0291134921875003,0.0297045079183442,0.806325999999899,
-0.0146525141601562,0.0150834704589844,-0.000383072265625728,0.0210322133086683,0.809371999999712,
0.00689530078125,-0.00646434448242188,-0.0434787021484375,0.0444941621222815,0.812427999999727,
-0.00268150585937499,-0.0232237561035156,0.00919373437499971,0.025120869272131,0.815367000000151,
-0.0122583125,0.00550666381835938,0.0115879360351556,0.0177445719393549,0.81831000000011,
-0.0290177241210937,-0.0256179577636719,-0.0339018955078121,0.0514552873101666,0.821292000000085,
0.00450109912109375,0.0222660754394531,-0.00756567724609347,0.0239432136724665,0.824295999999777,
0.00689530078125,-0.00646434448242188,0.0259531459960929,0.0276206210926879,0.827318000000105,
-0.0122583125,-0.00407014282226563,0.0307415493164065,0.033344791831924,0.830249000000094,
0.0236547124023437,0.0222660754394531,-0.0267192905273443,0.0420623824883665,0.833215000000109,
-0.00746990917968748,0.000718260498046866,-0.0698149204101561,0.0702170816338323,0.83621600000015,
0.016472107421875,0.0150834704589844,-0.0291134921875003,0.0366938255208759,0.839195000000018,
0.0260489140625,-0.0184353527832031,0.0139821376953115,0.0348411872732161,0.842243000000053,
-0.00746990917968748,0.00790086547851562,-0.00756567724609347,0.0132462330741398,0.845209999999952,
0.0332315190429687,0.0462080920410156,-0.0578439121093748,0.081150722708373,0.848246999999901,
0.0236547124023437,-0.0351947644042969,-0.050661307128907,0.0660665187543661,0.851188999999977,
0.0236547124023437,0.0342370837402344,-0.0243250888671884,0.0482020048366251,0.854151999999885,
0.00689530078125,-0.0256179577636719,-0.0171424838867189,0.0315862262173182,0.857159000000138,
0.0595677373046876,-0.0184353527832031,-0.0410845004882816,0.0746733803989952,0.860106000000087,
0.0284431157226562,-0.0232237561035156,0.0259531459960929,0.0449657588244934,0.863119999999981,
0.0260489140625,-0.0184353527832031,-0.0602381137695325,0.0681691903031553,0.866067999999814,
0.0260489140625,-0.00167594116210938,0.00201112939453019,0.0261801326210527,0.869009999999889,
0.00928950244140625,-0.0160411511230469,0.097779195800781,0.0995207742956655,0.872050999999828,
0.00928950244140625,0.0198718737792969,0.0451067592773438,0.0501578105145493,0.875031000000035,
-0.0266235224609375,0.0150834704589844,-0.00995987890625116,0.0321795310273826,0.878044999999929,
0.0260489140625,-0.00646434448242188,0.0403183559570301,0.0484345279785064,0.881010999999944,
-0.00507570751953124,0.00790086547851562,0.0355299526367183,0.0367500206326591,0.883949999999913,
0.0595677373046876,0.0438138903808594,-0.050661307128907,0.089635597604499,0.886986999999863,
0.0499909306640626,-0.00407014282226563,0.0187705410156251,0.053553640597741,0.889956999999868,
0.0452025273437501,0.00311246215820311,0.0187705410156251,0.0490437468895677,0.892996000000039,
0.00210689746093751,0.0270544787597656,-0.000383072265625728,0.0271390969310736,0.89596500000016,
0.00928950244140625,0.0222660754394531,-0.0243250888671884,0.0342605154584826,0.898933999999826,
0.016472107421875,-0.0184353527832031,-0.00995987890625116,0.0266531751014046,0.901954999999816,
0.0308373173828125,0.000718260498046866,-0.0123540805664071,0.0332276894795988,0.90492600000016,
0.016472107421875,0.00790086547851562,0.0139821376953115,0.02300552483118,0.907976999999846,
0.0284431157226562,0.0366312854003906,-0.0195366855468748,0.0503243875695945,0.910937999999987,
0.035625720703125,0.00550666381835938,0.0187705410156251,0.0406429395103843,0.913896999999906,
0.00450109912109375,-0.00407014282226563,-0.000383072265625728,0.00608051809077508,0.916901999999936,
0.0236547124023437,-0.00407014282226563,0.00201112939453019,0.0240864302642126,0.919869999999719,
0.0188663090820312,0.0126892687988281,-0.014748282226563,0.0271010514493811,0.922896999999921,
0.00928950244140625,0.000718260498046866,-0.00517147558593756,0.010656214782365,0.925877000000128,
-0.00746990917968748,0.0677559069824219,0.00679953271484379,0.0685047160369534,0.928829999999834,
0.016472107421875,0.00790086547851562,0.0498951625976556,0.0531345579531239,0.9318659999999,
0.0452025273437501,0.0102950671386719,-0.0291134921875003,0.0547435138898105,0.934827999999925,
-0.0266235224609375,-0.00885854614257814,0.0355299526367183,0.0452732075554149,0.937840999999935,
0.0212605107421875,0.000718260498046866,-0.00995987890625116,0.0234888144228037,0.940873000000011,
0.00450109912109375,0.0414196887207031,-0.0195366855468748,0.0460166555626908,0.944005999999717,
0.0236547124023437,-0.00646434448242188,0.0163763393554675,0.0294875848300678,0.947065999999722,
0.0332315190429687,0.0150834704589844,-0.0434787021484375,0.0567647996517454,0.95010000000002,
0.00689530078125,-0.0256179577636719,-0.0626323154296884,0.0680193492245344,0.953116000000136,
0.0404141240234375,-0.00885854614257814,-0.050661307128907,0.065409046013158,0.956065999999737,
0.0332315190429687,0.0270544787597656,0.00440533105468788,0.0430776696278617,0.959101999999803,
0.0236547124023437,0.000718260498046866,0.00201112939453019,0.0237509148965296,0.962085999999999,
0.00689530078125,-0.0423773693847656,0.0115879360351556,0.0444709666005995,0.965032999999949,
-0.0122583125,0.00550666381835938,-0.0243250888671884,0.0277902774392898,0.968061999999918,
-0.00746990917968748,0.0102950671386719,0.023558944335937,0.0267733413821719,0.971025999999711,
-0.00746990917968748,0.0246602770996094,-0.0746033237304697,0.0789277183340274,0.974057999999786,
-0.0146525141601562,-0.0232237561035156,0.00201112939453019,0.0275333190917968,0.97702900000013,
0.0188663090820312,0.00311246215820311,0.0115879360351556,0.0223585621322087,0.980000000000018,
0.0260489140625,-0.00646434448242188,0.0570777675781251,0.0630730150311954,0.98305100000016,
-0.0170467158203125,0.00550666381835938,-0.0315076938476562,0.0362442911127332,0.986026999999922,
0.035625720703125,-0.0112527478027344,-0.0315076938476562,0.0488728051202982,0.989037999999709,
0.0212605107421875,0.0222660754394531,-0.00517147558593756,0.0312174885637848,0.99203499999976,
0.0116837041015625,0.0150834704589844,0.00201112939453019,0.0191850114428286,0.994998000000123,
0.0380199223632812,-0.0232237561035156,0.00919373437499971,0.0454904615916739,0.998021999999764,
-0.00746990917968748,0.0222660754394531,-0.0123540805664071,0.026536785134403,1.00097099999994,
0.0116837041015625,-0.0375889660644531,-0.00756567724609347,0.0400833978539686,1.00398899999982,
0.0284431157226562,0.0198718737792969,-0.0219308872070325,0.041047119426341,1.00696500000004,
0.0404141240234375,0.0294486804199219,0.023558944335937,0.0552770301054629,1.00993599999993,
0.0140779057617187,0.0102950671386719,0.0379241542968742,0.0417422725442533,1.01298499999984,
0.00210689746093751,-0.0112527478027344,0.0283473476562488,0.0305718084052462,1.015942,
