X,Y,Z,Magnitude,Seconds,
-0.208582848632813,0.362242711181641,-0.00517147558593756,0.418035083106359,0.0,
-0.220553856933594,0.402944139404297,-0.0219308872070325,0.459879274486513,0.00407900000027439,
-0.182246630371094,0.419703551025391,0.0379241542968742,0.45913303791393,0.0081319999999323,
-0.201400243652344,0.379002122802734,-0.0386902988281257,0.43093109246794,0.0120580000002519,
-0.143939403808594,0.429280357666016,-0.00277727392578164,0.452777970640241,0.015990000000329,
-0.141545202148437,0.374213719482422,0.0498951625976556,0.403187895838599,0.0199130000000878,
-0.196611840332031,0.345483299560547,-0.00756567724609347,0.397582903941031,0.023942000000261,
-0.163093017089844,0.393367332763672,0.00201112939453019,0.42584179615265,0.0279829999999492,
-0.201400243652344,0.410126744384766,-0.00277727392578164,0.456917626989077,0.0318720000000212,
-0.230130663574219,0.395761534423828,0.104961800781249,0.469685313874998,0.0358900000001086,
-0.18464083203125,0.434068760986328,-0.014748282226563,0.471937959848572,0.0398130000003221,
-0.196611840332031,0.407732542724609,-0.0339018955078121,0.453928827763171,0.0437120000001414,
-0.2037944453125,0.419703551025391,0.0762313808593742,0.472752017564472,0.0476060000000871,
-0.153516210449219,0.371819517822266,-0.00277727392578164,0.402274401316725,0.0515740000000733,
-0.158304613769531,0.386184727783203,-0.053055508789063,0.420730176867043,0.0554040000001805,
-0.175064025390625,0.374213719482422,-0.0219308872070325,0.413720055893506,0.0592719999999645,
-0.194217638671875,0.431674559326172,-0.00995987890625116,0.473458145487593,0.0630960000003142,
-0.167881420410156,0.402944139404297,-0.0171424838867189,0.436854684709924,0.0670310000000427,
-0.194217638671875,0.441251365966797,0.112144405761718,0.49497436992484,0.0710500000000138,
-0.215765453613281,0.414915147705078,0.0187705410156251,0.468040216197381,0.0749900000000707,
-0.196611840332031,0.395761534423828,0.0403183559570301,0.443744270628173,0.0790329999999813,
-0.194217638671875,0.371819517822266,0.0427125576171878,0.421656978577448,0.0829330000001391,
-0.179852428710938,0.407732542724609,0.0546835659179692,0.448979971592724,0.0868460000001505,
-0.16548721875,0.400549937744141,0.0115879360351556,0.433544175901372,0.0906960000002073,
-0.208582848632813,0.388578929443359,0.0475009609374997,0.443572689016256,0.0946859999999106,
-0.187035033691406,0.414915147705078,0.0259531459960929,0.455862094728402,0.098674000000301,
-0.18464083203125,0.400549937744141,-0.0315076938476562,0.442182342763282,0.102608000000146,
-0.172669823730469,0.441251365966797,-0.0386902988281257,0.475409902313872,0.106537000000117,
-0.196611840332031,0.426886156005859,0.059471969238281,0.473735074776278,0.11046000000033,
-0.167881420410156,0.388578929443359,0.00440533105468788,0.423316858473627,0.114340000000084,
-0.201400243652344,0.367031114501953,-0.00756567724609347,0.418725610188774,0.118209000000206,
-0.160698815429688,0.407732542724609,-0.014748282226563,0.438505926420402,0.122018000000025,
-0.182246630371094,0.374213719482422,0.0331357509765624,0.417549661864631,0.12610500000028,
-0.199006041992188,0.362242711181641,0.0858081874999996,0.422121110104265,0.130004999999983,
-0.172669823730469,0.410126744384766,-0.000383072265625728,0.444993214814697,0.133870999999999,
-0.213371251953125,0.412520946044922,-0.00517147558593756,0.464464817015861,0.137856000000284,
-0.18464083203125,0.379002122802734,0.00440533105468788,0.421609123340414,0.141954000000169,
-0.170275622070313,0.381396324462891,-0.0267192905273443,0.418534185308105,0.146005000000059,
-0.153516210449219,0.390973131103516,0.0187705410156251,0.420451601644702,0.150012000000061,
-0.218159655273438,0.386184727783203,-0.0315076938476562,0.444662809253944,0.15395800000033,
-0.220553856933594,0.357454307861328,-0.050661307128907,0.423065188897544,0.157849000000169,
-0.206188646972656,0.383790526123047,0.00201112939453019,0.435675304238904,0.161844000000201,
-0.148727807128906,0.393367332763672,-0.00995987890625116,0.420662594351822,0.165847000000213,
-0.191823437011719,0.364636912841797,-0.0123540805664071,0.412200112203316,0.169773999999961,
-0.160698815429688,0.405338341064453,0.0738371791992183,0.442238859723436,0.173782000000301,
-0.148727807128906,0.383790526123047,-0.00277727392578164,0.411610060379526,0.177846000000045,
-0.18464083203125,0.364636912841797,0.0475009609374997,0.411471331139819,0.181814000000031,
-0.151122008789062,0.379002122802734,0.0307415493164065,0.409176628711604,0.185684999999921,
-0.182246630371094,0.367031114501953,0.107356002441406,0.423616553683119,0.189603000000261,
-0.155910412109375,0.350271702880859,0.0331357509765624,0.384832821412042,0.193493000000217,
-0.191823437011719,0.422097752685547,0.0283473476562488,0.464506529478674,0.197454999999991,
-0.170275622070313,0.386184727783203,0.00201112939453019,0.422062170877538,0.201375999999982,
-0.179852428710938,0.390973131103516,0.0307415493164065,0.431453274657271,0.205367000000024,
-0.182246630371094,0.376607921142578,0.0307415493164065,0.419514485331944,0.20943699999998,
-0.2037944453125,0.390973131103516,-0.053055508789063,0.444080006528084,0.213318000000072,
-0.170275622070313,0.350271702880859,-0.0195366855468748,0.389956068541889,0.217317000000094,
-0.172669823730469,0.379002122802734,-0.0315076938476562,0.417672373862203,0.221197000000302,
-0.220553856933594,0.381396324462891,0.0163763393554675,0.440880193037487,0.22514000000001,
-0.194217638671875,0.376607921142578,0.0498951625976556,0.426665612264757,0.229021000000103,
-0.170275622070313,0.367031114501953,0.0427125576171878,0.406853768646893,0.232993999999962,
-0.194217638671875,0.393367332763672,-0.0315076938476562,0.439830745206019,0.236867000000075,
-0.182246630371094,0.412520946044922,-0.000383072265625728,0.45098504626182,0.240755000000263,
-0.206188646972656,0.381396324462891,0.0618661708984369,0.437954720896866,0.244704000000183,
-0.206188646972656,0.390973131103516,0.0379241542968742,0.44363497254436,0.248581000000286,
-0.170275622070313,0.376607921142578,-0.00756567724609347,0.413381849155183,0.252597000000151,
-0.189429235351563,0.405338341064453,0.0690487758789065,0.452714412619188,0.256437000000005,
-0.167881420410156,0.362242711181641,0.0379241542968742,0.401051361551473,0.260244999999941,
-0.2037944453125,0.369425316162109,-0.0626323154296884,0.42653258620859,0.264141000000109,
-0.16548721875,0.422097752685547,0.00201112939453019,0.453383476797778,0.268074999999953,
-0.170275622070313,0.426886156005859,-0.0123540805664071,0.459758850885475,0.271940000000086,
-0.218159655273438,0.343089097900391,-0.0482671054687511,0.409430675154489,0.275979000000007,
-0.194217638671875,0.386184727783203,0.00440533105468788,0.432294508507762,0.279962000000069,
-0.210977050292969,0.402944139404297,-0.0123540805664071,0.455003207172469,0.283981999999924,
-0.170275622070313,0.383790526123047,-0.0267192905273443,0.420717097227486,0.287972000000082,
-0.194217638671875,0.388578929443359,-0.014748282226563,0.434662613307449,0.291921000000002,
-0.179852428710938,0.412520946044922,0.0475009609374997,0.452522671618789,0.295857999999953,
-0.139151000488281,0.379002122802734,0.0905965908203115,0.413779352184388,0.299979000000349,
-0.208582848632813,0.367031114501953,0.0187705410156251,0.422576593017578,0.304085000000214,
-0.191823437011719,0.376607921142578,0.0475009609374997,0.425307063830721,0.308166000000256,
-0.488704442871094,-0.0639251843261719,-2.04981969335938,2.10824079197728,0.312181000000237,
-0.323504528320313,0.268868846435547,1.58457842675781,1.63946162717326,0.316281000000345,
-0.704182592285156,0.240138426513672,-0.218255423339844,0.775354768466126,0.31927399999995,
-0.385753771484375,0.290416661376953,0.191153060546874,0.519314261287125,0.322219000000132,
-0.239707470214844,0.551384642333985,0.183970455566406,0.628752593314642,0.325331000000006,
-0.258861083496094,0.376607921142578,0.0355299526367183,0.458372080683884,0.328312000000096,
-0.254072680175781,0.333512291259766,-0.0626323154296884,0.42391765965707,0.331333000000086,
-0.14633360546875,0.290416661376953,-0.0482671054687511,0.328762946155967,0.334339,
-0.278014696777344,0.448433970947266,0.119327010742188,0.540947440530407,0.337386000000151,
-0.278014696777344,0.477164390869141,-0.0865743320312511,0.558992971784417,0.340438000000177,
-0.151122008789062,0.352665904541016,-0.0841801303710934,0.392807072384738,0.343425000000025,
-0.0864785639648438,0.319147081298828,-0.014748282226563,0.330984763026362,0.346460000000206,
-0.177458227050781,0.376607921142578,0.0283473476562488,0.417287096295207,0.349489000000176,
-0.273226293457031,0.402944139404297,-0.0291134921875003,0.487713217315144,0.352494000000206,
-0.215765453613281,0.398155736083984,0.0331357509765624,0.454071248971244,0.35560600000008,
-0.158304613769531,0.345483299560547,0.0498951625976556,0.383286561552332,0.3586150000001,
-0.170275622070313,0.426886156005859,0.0307415493164065,0.460619822104156,0.361749000000145,
-0.175064025390625,0.376607921142578,-0.0267192905273443,0.416166865259103,0.364741000000322,
-0.14633360546875,0.338300694580078,-0.00995987890625116,0.36872765455099,0.367756000000099,
-0.273226293457031,0.424491954345703,-0.0339018955078121,0.505959845501128,0.370871000000079,
-0.26125528515625,0.434068760986328,0.0379241542968742,0.508043555972726,0.373865000000023,
-0.122391588867187,0.355060106201172,0.0163763393554675,0.375919625095189,0.376942000000327,
-0.153516210449219,0.379002122802734,0.0307415493164065,0.410066919921665,0.379953999999998,
-0.18464083203125,0.450828172607422,-0.0291134921875003,0.48804290128747,0.383001000000149,
-0.155910412109375,0.395761534423828,0.0546835659179692,0.428865411423121,0.38598600000023,
-0.179852428710938,0.359848509521484,-0.0386902988281257,0.404146984575496,0.388945000000149,
-0.194217638671875,0.414915147705078,0.0379241542968742,0.459688277472396,0.391994000000068,
-0.194217638671875,0.359848509521484,0.0139821376953115,0.409153933319287,0.395014000000174,
-0.112814782226562,0.369425316162109,0.0355299526367183,0.387897688630222,0.398114999999962,
-0.175064025390625,0.436462962646484,0.0522893642578115,0.473161186449821,0.401154000000133,
-0.227736461914062,0.407732542724609,-0.014748282226563,0.467254999235369,0.404143000000204,
-0.163093017089844,0.350271702880859,0.00440533105468788,0.386405234183268,0.407224999999926,
-0.189429235351563,0.338300694580078,-0.00277727392578164,0.387735100822327,0.410194000000047,
-0.194217638671875,0.390973131103516,0.0211647426757811,0.437067988702785,0.413281999999981,
-0.172669823730469,0.400549937744141,-0.00277727392578164,0.436191281325527,0.41629200000034,
-0.160698815429688,0.376607921142578,0.0475009609374997,0.412206230954634,0.419253000000026,
-0.129574193847656,0.400549937744141,0.0307415493164065,0.422107530366941,0.422328000000107,
-0.225342260253906,0.417309349365234,-0.0195366855468748,0.474666103072604,0.425318000000061,
-0.163093017089844,0.393367332763672,-0.0219308872070325,0.426401400704502,0.428349000000253,
-0.163093017089844,0.412520946044922,0.133692220703125,0.463299549995247,0.431373000000349,
-0.170275622070313,0.359848509521484,0.0475009609374997,0.400925278033515,0.434349000000111,
-0.201400243652344,0.347877501220703,-0.0602381137695325,0.406459646643175,0.437397000000146,
-0.206188646972656,0.398155736083984,0.0451067592773438,0.45063995389834,0.440381000000343,
-0.196611840332031,0.400549937744141,0.0618661708984369,0.450470744318893,0.443451999999979,
-0.201400243652344,0.371819517822266,-0.0362960971679698,0.424416327026226,0.446400000000267,
-0.194217638671875,0.319147081298828,0.0163763393554675,0.373956595293525,0.449383000000125,
-0.220553856933594,0.390973131103516,-0.0195366855468748,0.449316898341614,0.452446000000236,
-0.189429235351563,0.386184727783203,-0.00517147558593756,0.430173015586288,0.455433000000085,
-0.136756798828125,0.443645567626953,-0.000383072265625728,0.46424557988754,0.458508000000165,
-0.148727807128906,0.357454307861328,-0.0410845004882816,0.389334661958534,0.461463000000094,
-0.170275622070313,0.379002122802734,-0.00517147558593756,0.415527545079922,0.464439000000311,
-0.225342260253906,0.393367332763672,0.0331357509765624,0.454549195065535,0.467536000000109,
-0.230130663574219,0.371819517822266,-0.000383072265625728,0.437275682945042,0.470598000000336,
-0.208582848632813,0.371819517822266,-0.00277727392578164,0.426338212957529,0.473721000000296,
-0.16548721875,0.388578929443359,-0.0123540805664071,0.422530741229084,0.47673900000018,
-0.1271799921875,0.371819517822266,-0.0698149204101561,0.399122321297959,0.479800000000068,
-0.160698815429688,0.402944139404297,-0.0339018955078121,0.435129207569196,0.482828000000154,
-0.172669823730469,0.398155736083984,-0.0171424838867189,0.434323293132543,0.485871000000316,
-0.175064025390625,0.405338341064453,-0.0386902988281257,0.443219497479818,0.488940000000184,
-0.160698815429688,0.352665904541016,-0.0410845004882816,0.389724628021644,0.491910000000189,
-0.167881420410156,0.383790526123047,-0.0386902988281257,0.420685486419661,0.494997000000239,
-0.177458227050781,0.400549937744141,0.0427125576171878,0.44017727968745,0.498015000000123,
-0.175064025390625,0.371819517822266,0.0139821376953115,0.411208787593459,0.500961000000189,
-0.172669823730469,0.417309349365234,0.00679953271484379,0.45167266326388,0.504021000000193,
-0.199006041992188,0.364636912841797,0.00679953271484379,0.415463255416568,0.506996000000072,
-0.158304613769531,0.364636912841797,-0.0219308872070325,0.398122333914093,0.510059000000183,
-0.182246630371094,0.376607921142578,-0.0219308872070325,0.418961005778151,0.513092000000142,
-0.199006041992188,0.407732542724609,0.0355299526367183,0.455095164422167,0.516097000000173,
-0.210977050292969,0.374213719482422,-0.0458729038085934,0.432031881813163,0.519195000000309,
-0.196611840332031,0.395761534423828,-0.014748282226563,0.442154859429234,0.522190000000137,
-0.170275622070313,0.352665904541016,0.059471969238281,0.396111023353609,0.52523999999994,
-0.129574193847656,0.410126744384766,0.0355299526367183,0.431573627212419,0.528252000000066,
-0.155910412109375,0.419703551025391,0.0115879360351556,0.447876553984457,0.531238999999914,
-0.151122008789062,0.379002122802734,-0.0243250888671884,0.408744639815395,0.534320000000207,
-0.187035033691406,0.407732542724609,0.00201112939453019,0.448588870644449,0.537285000000338,
-0.189429235351563,0.386184727783203,0.0666545742187488,0.435275672928257,0.54038300000002,
-0.206188646972656,0.390973131103516,0.0642603725585928,0.446657746900992,0.543357000000015,
-0.155910412109375,0.398155736083984,0.0115879360351556,0.427750309225194,0.546362000000045,
-0.189429235351563,0.390973131103516,-0.0219308872070325,0.434999296855124,0.549448000000211,
-0.170275622070313,0.412520946044922,-0.00517147558593756,0.446311620459254,0.552396000000044,
-0.218159655273438,0.362242711181641,0.0379241542968742,0.424560547475132,0.555470000000241,
-0.16548721875,0.383790526123047,0.0163763393554675,0.418269496858307,0.558442000000014,
-0.129574193847656,0.405338341064453,0.0522893642578115,0.428745635619348,0.561379000000215,
-0.177458227050781,0.393367332763672,0.0115879360351556,0.431698460844102,0.564454000000296,
-0.179852428710938,0.395761534423828,0.00201112939453019,0.434716152085665,0.567510000000311,
-0.16548721875,0.371819517822266,-0.00756567724609347,0.407054066280371,0.570570000000316,
-0.175064025390625,0.383790526123047,0.0307415493164065,0.422951089113325,0.57356400000026,
-0.225342260253906,0.390973131103516,0.0283473476562488,0.452153398328897,0.576596000000336,
-0.189429235351563,0.400549937744141,0.0403183559570301,0.444914888107591,0.579619000000093,
-0.153516210449219,0.355060106201172,0.0283473476562488,0.387863994211142,0.582608000000164,
-0.172669823730469,0.390973131103516,-0.000383072265625728,0.427404964894371,0.585746000000199,
-0.196611840332031,0.405338341064453,-0.0626323154296884,0.454838645490591,0.588786000000255,
-0.172669823730469,0.362242711181641,0.00679953271484379,0.401348830167072,0.591887000000042,
-0.187035033691406,0.426886156005859,0.0570777675781251,0.469544210452122,0.594900999999936,
-0.182246630371094,0.412520946044922,0.0355299526367183,0.452382297113606,0.597900000000209,
-0.194217638671875,0.362242711181641,-0.014748282226563,0.411287958496403,0.601071000000047,
-0.182246630371094,0.395761534423828,-0.0195366855468748,0.436145283699456,0.604061000000002,
-0.199006041992188,0.390973131103516,0.00201112939453019,0.438711110681875,0.607132000000092,
-0.227736461914062,0.383790526123047,-0.000383072265625728,0.446272574522904,0.610157000000072,
-0.187035033691406,0.386184727783203,0.0163763393554675,0.429405324014057,0.613158999999996,
-0.148727807128906,0.338300694580078,0.0163763393554675,0.369912834404839,0.616209000000254,
-0.16548721875,0.390973131103516,0.0379241542968742,0.426244355145767,0.619175000000268,
-0.244495873535156,0.362242711181641,0.023558944335937,0.437667725378704,0.622231000000284,
-0.199006041992188,0.381396324462891,-0.0458729038085934,0.432632504982036,0.625199000000066,
-0.167881420410156,0.352665904541016,-0.0362960971679698,0.392268808617625,0.628232000000025,
-0.220553856933594,0.374213719482422,0.0331357509765624,0.43563504180671,0.631304,
-0.206188646972656,0.374213719482422,-0.0195366855468748,0.427704744036632,0.634281999999985,
-0.160698815429688,0.379002122802734,0.0211647426757811,0.412207065322777,0.637361000000055,
-0.220553856933594,0.367031114501953,0.00440533105468788,0.42822336433517,0.640355,
-0.179852428710938,0.379002122802734,-0.0267192905273443,0.420361065857063,0.643318000000363,
-0.213371251953125,0.390973131103516,0.0187705410156251,0.445802213559949,0.646435999999994,
-0.187035033691406,0.405338341064453,0.0427125576171878,0.448448031708279,0.649408000000221,
-0.194217638671875,0.393367332763672,0.0259531459960929,0.439467763827996,0.652464000000236,
-0.199006041992188,0.355060106201172,-0.0482671054687511,0.409879003164733,0.655465000000277,
-0.170275622070313,0.381396324462891,-0.014748282226563,0.417940732178462,0.65839700000015,
-0.177458227050781,0.388578929443359,-0.0195366855468748,0.427629148722946,0.66149600000017,
-0.170275622070313,0.362242711181641,0.0570777675781251,0.404316016041116,0.664506000000074,
-0.199006041992188,0.424491954345703,0.0666545742187488,0.473539498160305,0.667546000000129,
-0.158304613769531,0.345483299560547,0.0905965908203115,0.390674805028717,0.670536000000084,
-0.155910412109375,0.386184727783203,0.023558944335937,0.417135139295799,0.673571000000265,
-0.172669823730469,0.362242711181641,-0.0315076938476562,0.402526253308942,0.676535000000058,
-0.199006041992188,0.381396324462891,0.0139821376953115,0.430420795545161,0.679509999999937,
-0.177458227050781,0.402944139404297,-0.0171424838867189,0.44062372448846,0.682595000000219,
-0.194217638671875,0.390973131103516,0.0163763393554675,0.436862295130687,0.685574999999972,
-0.163093017089844,0.398155736083984,-0.0123540805664071,0.430441570607079,0.688626000000113,
-0.206188646972656,0.367031114501953,-0.0171424838867189,0.421330585059721,0.691604999999981,
-0.232524865234375,0.388578929443359,-0.000383072265625728,0.4528372158999,0.694588000000294,
-0.172669823730469,0.398155736083984,-0.0339018955078121,0.43530701432749,0.697696000000178,
-0.170275622070313,0.395761534423828,-0.014748282226563,0.431089887876727,0.700728000000254,
-0.167881420410156,0.398155736083984,0.0307415493164065,0.433194187807136,0.703821000000062,
-0.189429235351563,0.402944139404297,0.0139821376953115,0.445469319774861,0.706858000000011,
-0.129574193847656,0.390973131103516,0.0259531459960929,0.41270210411779,0.709855000000061,
-0.172669823730469,0.405338341064453,-0.0171424838867189,0.440917116381073,0.71291199999996,
-0.191823437011719,0.379002122802734,0.00440533105468788,0.42480377472154,0.71603099999993,
-0.2037944453125,0.383790526123047,0.0498951625976556,0.437397840795632,0.719084000000294,
-0.160698815429688,0.367031114501953,-0.014748282226563,0.4009407189619,0.72204099999999,
-0.143939403808594,0.398155736083984,-0.0291134921875003,0.424374996403776,0.725034000000051,
-0.151122008789062,0.381396324462891,0.0834139858398437,0.418639356592203,0.728145999999924,
-0.191823437011719,0.371819517822266,-0.0362960971679698,0.419956416179343,0.731093000000328,
-0.187035033691406,0.393367332763672,0.00679953271484379,0.435621620169031,0.734142000000247,
-0.196611840332031,0.383790526123047,-0.0171424838867189,0.43156140751272,0.737133999999969,
-0.175064025390625,0.371819517822266,0.0283473476562488,0.411947495366455,0.7400990000001,
-0.141545202148437,0.405338341064453,-0.000383072265625728,0.429341777296929,0.743257000000085,
-0.191823437011719,0.412520946044922,-0.0195366855468748,0.455358588361902,0.746233000000302,
-0.256466881835937,0.374213719482422,0.0163763393554675,0.453959638974879,0.749337000000196,
-0.2037944453125,0.364636912841797,-0.0410845004882816,0.419738240249084,0.752296999999999,
-0.155910412109375,0.400549937744141,0.0163763393554675,0.430135436486737,0.755284000000302,
-0.18464083203125,0.419703551025391,0.023558944335937,0.459127794252035,0.75834900000018,
-0.201400243652344,0.364636912841797,-0.0434787021484375,0.418822795332981,0.761359000000084,
-0.170275622070313,0.417309349365234,0.0666545742187488,0.455613556430611,0.764454999999998,
-0.141545202148437,0.381396324462891,-0.0458729038085934,0.409392872274148,0.76740800000016,
-0.18464083203125,0.419703551025391,0.00440533105468788,0.458544124963145,0.770468000000164,
-0.208582848632813,0.371819517822266,0.0163763393554675,0.426643578491516,0.773435999999947,
-0.155910412109375,0.398155736083984,0.0522893642578115,0.430778625740856,0.776446000000306,
-0.172669823730469,0.393367332763672,-0.0123540805664071,0.429773602981102,0.779520999999932,
-0.170275622070313,0.393367332763672,-0.00277727392578164,0.428648293134938,0.782478999999967,
-0.194217638671875,0.357454307861328,0.0738371791992183,0.413456167461555,0.785506000000169,
-0.201400243652344,0.376607921142578,-0.00756567724609347,0.427144968228293,0.788500000000113,
-0.134362597167969,0.407732542724609,0.0139821376953115,0.429528385661446,0.791469000000234,
-0.158304613769531,0.388578929443359,0.0475009609374997,0.422268014936075,0.794532000000345,
-0.208582848632813,0.359848509521484,0.00919373437499971,0.416031584498546,0.797546000000239,
-0.187035033691406,0.405338341064453,0.0427125576171878,0.448448031708279,0.800630000000183,
-0.227736461914062,0.398155736083984,-0.0171424838867189,0.459005175368994,0.803620000000137,
-0.201400243652344,0.390973131103516,0.0187705410156251,0.440198115168761,0.806592000000364,
-0.187035033691406,0.393367332763672,0.0570777675781251,0.439292424092715,0.809688000000278,
-0.2037944453125,0.376607921142578,0.00919373437499971,0.42831089988386,0.812721000000238,
-0.153516210449219,0.422097752685547,0.00201112939453019,0.449152295256653,0.815837999999985,
-0.182246630371094,0.395761534423828,0.0331357509765624,0.436965678748231,0.818868000000293,
-0.16548721875,0.412520946044922,0.0115879360351556,0.444627744025227,0.821862000000237,
-0.187035033691406,0.393367332763672,0.0163763393554675,0.435876297593981,0.824978000000101,
-0.182246630371094,0.424491954345703,-0.0315076938476562,0.46303346353957,0.827951000000212,
-0.199006041992188,0.402944139404297,0.0475009609374997,0.451911192071685,0.831164000000172,
-0.206188646972656,0.390973131103516,0.0738371791992183,0.448135778997168,0.834139999999934,
-0.213371251953125,0.410126744384766,-0.0410845004882816,0.464132711409207,0.837095000000318,
-0.14633360546875,0.379002122802734,0.0187705410156251,0.40670439681479,0.840219000000161,
-0.227736461914062,0.395761534423828,0.0211647426757811,0.457098495454941,0.843237000000045,
-0.16548721875,0.388578929443359,0.0331357509765624,0.423647945787228,0.846289999999954,
-0.177458227050781,0.417309349365234,-0.014748282226563,0.453713596054026,0.849236000000019,
-0.199006041992188,0.379002122802734,0.0379241542968742,0.429749060868675,0.852208000000246,
-0.158304613769531,0.400549937744141,0.0115879360351556,0.43085366846426,0.855266999999913,
-0.187035033691406,0.393367332763672,0.0211647426757811,0.436082456246617,0.858328000000256,
-0.172669823730469,0.398155736083984,-0.014748282226563,0.434235385513808,0.861378000000059,
-0.163093017089844,0.376607921142578,0.0187705410156251,0.410834749870093,0.864418000000114,
-0.194217638671875,0.417309349365234,-0.0410845004882816,0.462120677333622,0.867420999999922,
-0.172669823730469,0.383790526123047,0.0283473476562488,0.421798065533806,0.870431000000281,
-0.175064025390625,0.374213719482422,-0.0195366855468748,0.413600051882245,0.873397000000296,
-0.158304613769531,0.402944139404297,-0.00517147558593756,0.432956203767455,0.876483000000007,
-0.199006041992188,0.407732542724609,-0.00277727392578164,0.453714606770082,0.879484000000048,
-0.151122008789062,0.410126744384766,-0.0386902988281257,0.438792373707085,0.882505000000037,
-0.177458227050781,0.383790526123047,0.0355299526367183,0.424321773921843,0.885478000000148,
-0.160698815429688,0.357454307861328,0.0642603725585928,0.397148696297111,0.888441999999941,
-0.172669823730469,0.388578929443359,-0.0123540805664071,0.425395199480553,0.891528000000108,
-0.163093017089844,0.398155736083984,0.0379241542968742,0.431932360305616,0.894471999999951,
-0.196611840332031,0.400549937744141,-0.00517147558593756,0.446232240593751,0.897559000000001,
-0.2037944453125,0.383790526123047,0.0403183559570301,0.436409112770474,0.900559000000158,
-0.196611840332031,0.376607921142578,0.00201112939453019,0.424845603328461,0.903528000000279,
-0.22294805859375,0.412520946044922,0.00440533105468788,0.46893365703287,0.906566000000112,
-0.153516210449219,0.414915147705078,0.0355299526367183,0.443829003333697,0.90956099999994,
-0.170275622070313,0.379002122802734,0.0163763393554675,0.41581796624376,0.912600999999995,
-0.187035033691406,0.412520946044922,0.0331357509765624,0.454151530600221,0.915559999999914,
-0.187035033691406,0.422097752685547,0.0738371791992183,0.46754737266103,0.918495000000348,
-0.220553856933594,0.393367332763672,0.0451067592773438,0.453228951002023,0.92158100000006,
-0.155910412109375,0.419703551025391,0.023558944335937,0.448346017274227,0.924559999999929,
-0.179852428710938,0.386184727783203,-0.00756567724609347,0.42607837255416,0.927644000000328,
-0.172669823730469,0.376607921142578,0.0355299526367183,0.415825410273125,0.930616999999984,
-0.225342260253906,0.383790526123047,-0.0698149204101561,0.450497974812341,0.933579000000009,
-0.151122008789062,0.393367332763672,-0.0243250888671884,0.422098839105776,0.936607999999978,
-0.163093017089844,0.388578929443359,0.00201112939453019,0.42142254480777,0.939593000000059,
-0.172669823730469,0.367031114501953,0.0403183559570301,0.40761780734744,0.942695000000185,
-0.16548721875,0.414915147705078,0.0307415493164065,0.447756230798758,0.945701000000099,
-0.189429235351563,0.371819517822266,0.0355299526367183,0.418802538881783,0.948699000000033,
-0.177458227050781,0.438857164306641,-0.0315076938476562,0.474425724200185,0.951833999999963,
-0.199006041992188,0.407732542724609,0.00440533105468788,0.453727493202443,0.954828000000361,
-0.175064025390625,0.367031114501953,0.0475009609374997,0.409408833916052,0.957937000000129,
-0.210977050292969,0.383790526123047,0.0331357509765624,0.439208904377983,0.960907000000134,
-0.143939403808594,0.426886156005859,-0.050661307128907,0.453339729340196,0.964011000000028,
-0.158304613769531,0.424491954345703,0.0211647426757811,0.453543511008026,0.967043999999987,
-0.199006041992188,0.402944139404297,0.0139821376953115,0.449625271091602,0.970016000000214,
-0.230130663574219,0.388578929443359,-0.050661307128907,0.454445018417484,0.973061000000143,
-0.160698815429688,0.374213719482422,-0.0123540805664071,0.407446487818971,0.976067999999941,
-0.208582848632813,0.398155736083984,-0.00995987890625116,0.449593142861616,0.97915200000034,
-0.175064025390625,0.426886156005859,0.0115879360351556,0.461533837802802,0.982132000000092,
-0.16548721875,0.383790526123047,0.00440533105468788,0.417972001996685,0.985067999999956,
-0.158304613769531,0.393367332763672,-0.0578439121093748,0.427953417318337,0.988111000000117,
-0.167881420410156,0.422097752685547,-0.00995987890625116,0.454367564125068,0.991089000000102,
-0.170275622070313,0.376607921142578,-0.000383072265625728,0.413312787708204,0.994140000000243,
-0.189429235351563,0.405338341064453,0.0163763393554675,0.447717310848538,0.99719099999993,
-0.187035033691406,0.407732542724609,0.0283473476562488,0.449479145616084,1.00018900000032,
-0.16548721875,0.395761534423828,-0.0458729038085934,0.431413415418373,1.0032540000002,
-0.199006041992188,0.407732542724609,0.0283473476562488,0.454590808601775,1.00623500000029,
-0.18464083203125,0.381396324462891,0.00440533105468788,0.423762669555373,1.00929200000019,
-0.16548721875,0.405338341064453,-0.014748282226563,0.438067006444365,1.01226200000019,
-0.18464083203125,0.393367332763672,0.00679953271484379,0.434599043928928,1.01521100000036,
-0.170275622070313,0.388578929443359,0.0427125576171878,0.426393872443051,1.01830100000006,
-0.155910412109375,0.388578929443359,0.0331357509765624,0.419999546433378,1.02128600000015,
-0.191823437011719,0.390973131103516,0.0331357509765624,0.436754162229344,1.02437000000009,
-0.175064025390625,0.386184727783203,-0.0267192905273443,0.424852889180762,1.02732600000036,
-0.182246630371094,0.381396324462891,-0.0339018955078121,0.424059346217535,1.03029300000026,
-0.16548721875,0.376607921142578,-0.0219308872070325,0.411947217068683,1.03334300000006,
-0.206188646972656,0.379002122802734,-0.0482671054687511,0.43414983669204,1.03630100000009,
