X,Y,Z,Magnitude,Seconds,
-0.701788390625,0.596874473876953,-0.0267192905273443,0.921672394763021,0.0,
-0.673057970703125,0.599268675537109,-0.00756567724609347,0.901214301306411,0.00397199999997611,
-0.708970995605469,0.594480272216797,0.00919373437499971,0.925273576525627,0.00805300000001807,
-0.694605785644531,0.589691868896485,-0.0554497104492189,0.912846300360793,0.0119879999997465,
-0.708970995605469,0.548990440673828,-0.0674207187500002,0.899208501893649,0.0158820000001469,
-0.708970995605469,0.620816490478516,-0.0769975253906257,0.945506005468051,0.0197429999998349,
-0.689817382324219,0.632787498779297,-0.0291134921875003,0.936544518426833,0.0237269999997807,
-0.694605785644531,0.572932457275391,-0.0626323154296884,0.902580525485986,0.0277799999998933,
-0.701788390625,0.587297667236328,-0.088968533691407,0.919424219359301,0.0316790000001674,
-0.725730407226563,0.616028087158203,-0.00517147558593756,0.951946412515307,0.0356390000001738,
-0.701788390625,0.604057078857422,-0.0434787021484375,0.926974809406546,0.0395370000001094,
-0.689817382324219,0.601662877197266,0.00201112939453019,0.915341621142277,0.0434110000001056,
-0.694605785644531,0.616028087158203,0.00919373437499971,0.928467730387228,0.0473170000000209,
-0.699394188964844,0.577720860595703,-0.00995987890625116,0.907200542059504,0.0511160000000928,
-0.704182592285156,0.558567247314453,-0.0793917270507816,0.902315653955972,0.0550769999999829,
-0.694605785644531,0.584903465576172,0.00201112939453019,0.908071201027383,0.0589979999999741,
-0.658692760742188,0.620816490478516,-0.110516348632814,0.911867935185439,0.0628499999997985,
-0.699394188964844,0.577720860595703,-0.0267192905273443,0.907539280037793,0.0666879999998855,
-0.670663769042969,0.599268675537109,-0.00756567724609347,0.89942763803383,0.070650999999998,
-0.694605785644531,0.575326658935547,0.00679953271484379,0.901955761430646,0.074685000000045,
-0.670663769042969,0.584903465576172,-0.014748282226563,0.890010936437621,0.0787780000000566,
-0.704182592285156,0.635181700439453,0.0115879360351556,0.948400335360629,0.082723999999871,
-0.692211583984375,0.584903465576172,-0.014748282226563,0.906358898490994,0.0866639999999279,
-0.701788390625,0.604057078857422,-0.0291134921875003,0.926412162679842,0.0905210000000807,
-0.708970995605469,0.594480272216797,-0.000383072265625728,0.925227979153856,0.0943830000001071,
-0.718547802246094,0.546596239013672,-0.0291134921875003,0.903286216015685,0.09838899999977,
-0.639539147460938,0.599268675537109,-0.0219308872070325,0.876706467655367,0.102308999999877,
-0.718547802246094,0.594480272216797,0.00201112939453019,0.932588753314713,0.106374999999844,
-0.692211583984375,0.623210692138672,-0.0243250888671884,0.931740389672207,0.11032299999988,
-0.673057970703125,0.580115062255859,-0.0410845004882816,0.889510232410791,0.114244999999755,
-0.708970995605469,0.616028087158203,-0.0817859287109375,0.942772196722366,0.11810400000013,
-0.699394188964844,0.584903465576172,-0.0602381137695325,0.913724753933765,0.121925999999803,
-0.694605785644531,0.592086070556641,-0.0219308872070325,0.91297539737484,0.125723000000107,
-0.677846374023438,0.563355650634766,-0.0793917270507816,0.884956689450364,0.129617000000053,
-0.723336205566406,0.620816490478516,-0.0650265170898443,0.955435413336822,0.133495000000039,
-0.694605785644531,0.625604893798828,-0.0171424838867189,0.93496125339487,0.137291000000005,
-0.694605785644531,0.601662877197266,-0.050661307128907,0.920348837826266,0.141150999999809,
-0.706576793945313,0.616028087158203,-0.00277727392578164,0.937416173937857,0.145128000000113,
-0.699394188964844,0.613633885498047,-0.0243250888671884,0.930747273397896,0.148960999999872,
-0.701788390625,0.604057078857422,0.0259531459960929,0.926318231236374,0.153017999999975,
-0.677846374023438,0.582509263916016,-0.0315076938476562,0.894307264924253,0.156946999999946,
-0.706576793945313,0.575326658935547,-0.0650265170898443,0.913498756511913,0.160843999999997,
-0.706576793945313,0.620816490478516,0.023558944335937,0.940860725320343,0.164729000000079,
-0.687423180664063,0.572932457275391,-0.0434787021484375,0.89593115106822,0.168671999999788,
-0.677846374023438,0.565749852294922,-0.0817859287109375,0.886700366687394,0.172629000000143,
-0.649115954101562,0.568144053955078,-0.0243250888671884,0.862977924319092,0.176665999999841,
-0.735307213867188,0.599268675537109,-0.000383072265625728,0.948577772767994,0.180649999999787,
-0.704182592285156,0.589691868896485,-0.0339018955078121,0.919107698824841,0.184564000000137,
-0.701788390625,0.606451280517578,-0.0482671054687511,0.928773284675959,0.188419999999951,
-0.708970995605469,0.594480272216797,-0.0578439121093748,0.927034295391969,0.192305999999917,
-0.692211583984375,0.587297667236328,0.0259531459960929,0.908156920763414,0.196132999999918,
-0.675452172363281,0.568144053955078,-0.014748282226563,0.882746178141498,0.200031999999737,
-0.696999987304688,0.587297667236328,0.00201112939453019,0.91144477445724,0.203993999999966,
-0.677846374023438,0.642364305419922,-0.014748282226563,0.933983468527669,0.207833999999821,
-0.675452172363281,0.644758507080078,-0.0219308872070325,0.93403968513982,0.211687999999867,
-0.689817382324219,0.613633885498047,-0.0362960971679698,0.923965352736613,0.215667999999823,
-0.675452172363281,0.596874473876953,-0.00277727392578164,0.901389198940516,0.219727000000148,
-0.687423180664063,0.637575902099609,-0.0410845004882816,0.938478340950285,0.223645000000033,
-0.716153600585938,0.551384642333985,-0.0386902988281257,0.90465349314386,0.227731999999833,
-0.699394188964844,0.630393297119141,-0.00756567724609347,0.941597143200172,0.231663000000026,
-0.699394188964844,0.637575902099609,0.0618661708984369,0.948410610230377,0.235569999999825,
-0.716153600585938,0.563355650634766,-0.0554497104492189,0.912863757152854,0.239434000000074,
-0.716153600585938,0.584903465576172,0.023558944335937,0.924955711119966,0.243476999999984,
-0.694605785644531,0.618422288818359,-0.0123540805664071,0.93009459092333,0.247409999999945,
-0.706576793945313,0.613633885498047,0.0187705410156251,0.93602865574911,0.251415000000179,
-0.728124608886719,0.592086070556641,-0.0243250888671884,0.938788086291063,0.25544600000012,
-0.723336205566406,0.584903465576172,-0.0817859287109375,0.93381811315766,0.25941899999998,
-0.699394188964844,0.594480272216797,0.00201112939453019,0.917912343447995,0.263419999999769,
-0.718547802246094,0.599268675537109,-0.0650265170898443,0.937903159989094,0.267335000000003,
-0.711365197265625,0.637575902099609,-0.0291134921875003,0.955714952402778,0.271212000000105,
-0.673057970703125,0.620816490478516,-0.0219308872070325,0.915915449477056,0.275192999999945,
-0.68263477734375,0.592086070556641,-0.0195366855468748,0.903846135284381,0.279137999999875,
-0.670663769042969,0.587297667236328,-0.0315076938476562,0.892020838220583,0.283049000000119,
-0.728124608886719,0.596874473876953,-0.0865743320312511,0.9454732669933,0.286893999999847,
-0.677846374023438,0.592086070556641,-0.00277727392578164,0.900027407901773,0.290848000000096,
-0.725730407226563,0.639970103759766,-0.0961511386718747,0.972363820361194,0.294753000000128,
-0.706576793945313,0.563355650634766,-0.050661307128907,0.905089455735822,0.298780000000079,
-0.725730407226563,0.584903465576172,-0.0674207187500002,0.93452781731365,0.302794000000176,
-0.637144945800781,0.991917747802735,0.11693280908203,1.18470577875072,0.306792999999743,
-0.718547802246094,0.254503636474609,1.01954683496094,1.2730117021341,0.310715999999957,
-0.41448419140625,0.450828172607422,-0.239803238281251,0.657684407016325,0.314417000000049,
-0.706576793945313,0.936851109619141,-0.232620633300781,1.19626632752657,0.317465999999968,
-0.876565111816406,0.946427916259766,0.444938436523437,1.36457407575603,0.320487999999841,
-0.79755645703125,0.194648594970703,-0.249380044921875,0.858006284639889,0.323597999999947,
-0.371388561523438,0.402944139404297,0.00201112939453019,0.547994058135815,0.326587000000018,
-0.553347887695313,0.733343968505859,-0.103333743652344,0.924481002259103,0.329674000000068,
-1.02021721142578,0.941639512939453,0.0355299526367183,1.38880902515523,0.33267399999977,
-0.790373852050781,0.465193382568359,-0.117698953613282,0.924634388757331,0.335633000000144,
-0.503069652832031,0.498712205810547,-0.0195366855468748,0.70864280276252,0.338733000000047,
-0.486310241210938,0.575326658935547,0.023558944335937,0.753693199549262,0.341728999999759,
-0.890930321777344,0.616028087158203,-0.0937569370117188,1.08721562059598,0.344776999999794,
-0.934025951660156,0.704613548583984,-0.00995987890625116,1.17003586714707,0.347764000000097,
-0.548559484375,0.613633885498047,-0.0243250888671884,0.82344141459948,0.350742999999966,
-0.493492846191406,0.520260020751953,0.00679953271484379,0.717113597751471,0.353800999999748,
-0.742489818847656,0.520260020751953,-0.00277727392578164,0.906625244263421,0.356774999999743,
-0.898112926757813,0.678277330322266,-0.0554497104492189,1.12682813082896,0.359916999999768,
-0.685028979003906,0.702219346923828,0.00919373437499971,0.98105108838481,0.36287399999992,
-0.543771081054688,0.551384642333985,0.0139821376953115,0.774536966559822,0.365854000000127,
-0.708970995605469,0.419703551025391,0.00440533105468788,0.823899478270762,0.368883000000096,
-0.855017296875,0.651941112060547,-0.0315076938476562,1.07567398700618,0.371865999999955,
-0.704182592285156,0.683065733642578,-0.0817859287109375,0.984449520234139,0.374944000000141,
-0.546165282714844,0.611239683837891,0.0115879360351556,0.819783353943458,0.377910000000156,
-0.754460827148438,0.460404979248047,-0.0195366855468748,0.884061969943316,0.380941999999777,
-0.776008642089844,0.582509263916016,-0.0315076938476562,0.970823974733679,0.383960000000116,
-0.651510155761719,0.673488927001953,-0.1057279453125,0.942990570618235,0.387000000000171,
-0.6251739375,0.644758507080078,-0.0554497104492189,0.899794784920588,0.390074999999797,
-0.807133263671875,0.501106407470703,0.0187705410156251,0.950223168599791,0.393055999999888,
-0.723336205566406,0.465193382568359,-0.0554497104492189,0.861797435513416,0.396091000000069,
-0.629962340820313,0.627999095458985,-0.00995987890625116,0.889569903906903,0.39907600000015,
-0.689817382324219,0.716584556884766,0.0259531459960929,0.9949949818514,0.402078999999958,
-0.773614440429688,0.532231029052734,-0.050661307128907,0.940380635045129,0.405173000000104,
-0.692211583984375,0.465193382568359,-0.0243250888671884,0.834358118637283,0.40824799999973,
-0.622779735839844,0.649546910400391,-0.0434787021484375,0.900919633332492,0.411333999999897,
-0.692211583984375,0.702219346923828,-0.0386902988281257,0.986795737434904,0.414346000000023,
-0.754460827148438,0.541807835693359,-0.050661307128907,0.930233002295788,0.417343999999957,
-0.706576793945313,0.546596239013672,-0.0123540805664071,0.893404072943799,0.420443999999861,
-0.620385534179688,0.623210692138672,-0.0123540805664071,0.879444370680727,0.423464999999851,
-0.756855028808594,0.627999095458985,-0.00995987890625116,0.983520003720304,0.426630999999816,
-0.785585448730469,0.611239683837891,0.0139821376953115,0.995466698855279,0.429614000000129,
-0.649115954101562,0.592086070556641,-0.0602381137695325,0.880650933779608,0.432582999999795,
-0.632356542480469,0.584903465576172,-0.0243250888671884,0.861729987182334,0.435689999999795,
-0.792768053710938,0.608845482177735,-0.00756567724609347,0.999615549911594,0.438702999999805,
-0.780797045410156,0.608845482177735,-0.0291134921875003,0.990547546923831,0.441773000000012,
-0.596443517578125,0.616028087158203,0.00919373437499971,0.857508016627553,0.444758999999976,
-0.622779735839844,0.577720860595703,-0.0578439121093748,0.851446950965415,0.44769899999983,
-0.771220238769531,0.654335313720703,0.00201112939453019,1.01140466882012,0.450788999999986,
-0.7400956171875,0.651941112060547,-0.0195366855468748,0.986483866191965,0.453742000000148,
-0.6251739375,0.570538255615235,-0.0195366855468748,0.846603824307383,0.456862000000001,
-0.711365197265625,0.587297667236328,-0.000383072265625728,0.922474466078251,0.459923999999774,
-0.699394188964844,0.548990440673828,-0.0602381137695325,0.89116292890781,0.462904999999864,
-0.730518810546875,0.606451280517578,-0.00277727392578164,0.949446471084437,0.466016999999738,
-0.665875365722656,0.594480272216797,-0.0602381137695325,0.894664980359547,0.468996000000061,
-0.658692760742188,0.563355650634766,0.0498951625976556,0.868179284138323,0.472089999999753,
-0.72094200390625,0.558567247314453,0.0163763393554675,0.912152907828227,0.475088000000142,
-0.737701415527344,0.601662877197266,0.0403183559570301,0.952799646355632,0.478154999999788,
-0.677846374023438,0.630393297119141,0.0187705410156251,0.9258637853591,0.481198999999833,
-0.649115954101562,0.515471617431641,0.0690487758789065,0.831763333946111,0.484198000000106,
-0.718547802246094,0.596874473876953,0.00440533105468788,0.934124985545447,0.487282999999934,
-0.706576793945313,0.647152708740234,-0.0602381137695325,0.960044803393243,0.490259000000151,
-0.68263477734375,0.649546910400391,-0.0578439121093748,0.944058973908919,0.493347000000085,
-0.677846374023438,0.563355650634766,0.00919373437499971,0.881436226071177,0.496329999999944,
-0.713759398925781,0.575326658935547,-0.050661307128907,0.918161103552553,0.499346999999943,
-0.646721752441406,0.584903465576172,-0.0602381137695325,0.874065054486456,0.50245300000006,
-0.649115954101562,0.616028087158203,0.0259531459960929,0.89527408754195,0.505454999999984,
-0.716153600585938,0.587297667236328,0.00440533105468788,0.926182453145781,0.508527999999842,
-0.7400956171875,0.584903465576172,-0.0937569370117188,0.947968327456663,0.511516999999913,
-0.708970995605469,0.618422288818359,-0.0267192905273443,0.941169442982204,0.514501000000109,
-0.6634811640625,0.620816490478516,-0.0219308872070325,0.908901168295804,0.517575999999735,
-0.692211583984375,0.587297667236328,-0.0171424838867189,0.90794784635308,0.52054199999975,
-0.716153600585938,0.556173045654297,-0.0123540805664071,0.906839048371441,0.52364099999977,
-0.677846374023438,0.616028087158203,-0.0267192905273443,0.916340674329586,0.526656999999886,
-0.706576793945313,0.630393297119141,-0.0123540805664071,0.946994771950415,0.529641000000083,
-0.732913012207031,0.577720860595703,0.00440533105468788,0.933242885411684,0.532760999999937,
-0.641933349121094,0.577720860595703,-0.0674207187500002,0.866247869144872,0.535749000000123,
-0.665875365722656,0.560961448974609,-0.0315076938476562,0.871240773083751,0.538802000000032,
-0.685028979003906,0.594480272216797,-0.053055508789063,0.90856281188642,0.541834000000108,
-0.704182592285156,0.582509263916016,-0.0386902988281257,0.914706021106689,0.544832000000042,
-0.713759398925781,0.620816490478516,-0.0458729038085934,0.94708495802055,0.54793699999982,
-0.713759398925781,0.580115062255859,-0.0219308872070325,0.920036373642206,0.550959000000148,
-0.718547802246094,0.616028087158203,-0.0434787021484375,0.947466065788637,0.554098000000067,
-0.708970995605469,0.580115062255859,-0.014748282226563,0.916182771009455,0.557097999999769,
-0.673057970703125,0.589691868896485,-0.0123540805664071,0.894928016924422,0.560118999999759,
-0.687423180664063,0.601662877197266,0.0762313808593742,0.916711552528556,0.563220000000001,
-0.675452172363281,0.599268675537109,0.00440533105468788,0.902982829057108,0.566308999999819,
-0.680240575683594,0.613633885498047,-0.0386902988281257,0.916935507798224,0.569417000000158,
-0.687423180664063,0.522654222412109,-0.0554497104492189,0.865328108816769,0.572407999999996,
-0.696999987304688,0.599268675537109,-0.00756567724609347,0.919232923287089,0.575456999999915,
-0.728124608886719,0.587297667236328,0.0139821376953115,0.935563731758666,0.578512000000046,
-0.713759398925781,0.613633885498047,0.0403183559570301,0.942138309810933,0.581561999999849,
-0.680240575683594,0.592086070556641,-0.0554497104492189,0.903530755504456,0.58461699999998,
-0.673057970703125,0.618422288818359,-0.050661307128907,0.915434174189688,0.587587999999869,
-0.661086962402344,0.584903465576172,-0.088968533691407,0.887165957354414,0.590605999999752,
-0.723336205566406,0.565749852294922,-0.0578439121093748,0.920127208500569,0.593632999999954,
-0.706576793945313,0.599268675537109,-0.0315076938476562,0.927020197187545,0.596603999999843,
-0.675452172363281,0.577720860595703,-0.0674207187500002,0.891371181514459,0.599757999999838,
-0.754460827148438,0.623210692138672,-0.000383072265625728,0.978571843679261,0.602761999999984,
-0.718547802246094,0.623210692138672,-0.0626323154296884,0.953218399866861,0.605868999999984,
-0.656298559082031,0.565749852294922,-0.0793917270507816,0.870117084276009,0.608858000000055,
-0.713759398925781,0.587297667236328,-0.0219308872070325,0.924582064129417,0.611855999999989,
-0.706576793945313,0.599268675537109,-0.014748282226563,0.926601976606284,0.614942000000156,
-0.687423180664063,0.625604893798828,0.0163763393554675,0.92962373945055,0.617929999999888,
-0.677846374023438,0.548990440673828,-0.0267192905273443,0.872685585542841,0.621048999999857,
-0.728124608886719,0.592086070556641,-0.0123540805664071,0.938554198925284,0.624080000000049,
-0.706576793945313,0.575326658935547,-0.0554497104492189,0.912867022415027,0.627058999999917,
-0.699394188964844,0.601662877197266,-0.0841801303710934,0.926410677671829,0.63015200000018,
-0.685028979003906,0.596874473876953,-0.0123540805664071,0.9086674105236,0.633170999999948,
-0.689817382324219,0.620816490478516,-0.0458729038085934,0.929174611744494,0.636235999999826,
-0.677846374023438,0.611239683837891,-0.0793917270507816,0.916183772067085,0.63922999999977,
-0.68263477734375,0.604057078857422,-0.000383072265625728,0.911523636830814,0.642263000000185,
-0.708970995605469,0.594480272216797,0.0187705410156251,0.925418283737028,0.64536199999975,
-0.701788390625,0.577720860595703,0.0259531459960929,0.909363460762836,0.648353000000043,
-0.694605785644531,0.587297667236328,-0.0698149204101561,0.91228826064132,0.651409000000058,
-0.677846374023438,0.604057078857422,0.0115879360351556,0.908017038141927,0.654416999999739,
-0.670663769042969,0.608845482177735,-0.0602381137695325,0.907805784639903,0.657415000000128,
-0.718547802246094,0.560961448974609,-0.0578439121093748,0.913419186089553,0.660481999999774,
-0.661086962402344,0.632787498779297,-0.00995987890625116,0.915180413720455,0.663465000000087,
-0.680240575683594,0.596874473876953,0.00919373437499971,0.905025360486652,0.666605999999774,
-0.675452172363281,0.558567247314453,-0.0410845004882816,0.877451390735175,0.669653999999809,
-0.68263477734375,0.584903465576172,-0.0362960971679698,0.899677558879732,0.67272099999991,
-0.665875365722656,0.596874473876953,-0.00277727392578164,0.894235345696327,0.675726999999824,
-0.696999987304688,0.577720860595703,-0.0219308872070325,0.905566860526523,0.678720999999769,
-0.732913012207031,0.596874473876953,0.00201112939453019,0.945211439662955,0.681801000000178,
-0.6634811640625,0.580115062255859,0.0115879360351556,0.881405139980137,0.684839000000011,
-0.677846374023438,0.580115062255859,-0.0195366855468748,0.892407347748213,0.687926000000061,
-0.723336205566406,0.541807835693359,-0.0195366855468748,0.903964976746382,0.691036000000167,
-0.725730407226563,0.596874473876953,-0.00517147558593756,0.93966510294831,0.694050000000061,
-0.696999987304688,0.635181700439453,-0.014748282226563,0.943123685793398,0.69718499999999,
-0.692211583984375,0.625604893798828,0.0283473476562488,0.933456979333459,0.700232000000142,
-0.668269567382812,0.575326658935547,-0.000383072265625728,0.881807873584893,0.703344999999899,
-0.708970995605469,0.613633885498047,-0.00756567724609347,0.937679933406614,0.706401999999798,
-0.708970995605469,0.606451280517578,0.00201112939453019,0.932966812321136,0.709511999999904,
-0.658692760742188,0.556173045654297,-0.0362960971679698,0.862856892211083,0.712586999999985,
-0.699394188964844,0.589691868896485,-0.050661307128907,0.916217932503195,0.715605999999752,
-0.761643432128906,0.565749852294922,0.0379241542968742,0.949532439970304,0.718725000000177,
-0.7400956171875,0.568144053955078,-0.0195366855468748,0.933226055522891,0.721768999999767,
-0.711365197265625,0.599268675537109,-0.0267192905273443,0.930525287054064,0.724764999999934,
-0.711365197265625,0.606451280517578,-0.000383072265625728,0.934785401183893,0.727843000000121,
-0.685028979003906,0.601662877197266,0.023558944335937,0.912040538425047,0.730831999999737,
-0.696999987304688,0.548990440673828,-0.0291134921875003,0.88772015955555,0.733938999999737,
-0.723336205566406,0.608845482177735,0.0379241542968742,0.946227419244749,0.736918999999943,
-0.704182592285156,0.606451280517578,0.00679953271484379,0.929355966551027,0.739944999999807,
-0.6634811640625,0.611239683837891,0.00679953271484379,0.902146019117257,0.743121999999858,
-0.706576793945313,0.577720860595703,-0.0434787021484375,0.913730023612002,0.746122999999898,
-0.72094200390625,0.627999095458985,-0.0315076938476562,0.956625826363297,0.749261999999817,
-0.694605785644531,0.575326658935547,-0.0243250888671884,0.902258096046354,0.752250000000004,
-0.687423180664063,0.625604893798828,-0.0482671054687511,0.930731876498098,0.755252999999811,
-0.694605785644531,0.563355650634766,-0.0362960971679698,0.895077758199031,0.758342000000084,
-0.711365197265625,0.568144053955078,-0.00995987890625116,0.910454451970608,0.76136600000018,
-0.694605785644531,0.616028087158203,-0.0602381137695325,0.930374350446723,0.764490999999907,
-0.72094200390625,0.558567247314453,-0.0219308872070325,0.912269536147345,0.767491999999947,
-0.752066625488281,0.594480272216797,-0.014748282226563,0.958764055989232,0.770531000000119,
-0.687423180664063,0.594480272216797,0.0379241542968742,0.909612920339408,0.773521000000073,
-0.708970995605469,0.599268675537109,-0.050661307128907,0.929693167733215,0.776542999999947,
-0.658692760742188,0.568144053955078,-0.050661307128907,0.871338273656497,0.779579999999896,
-0.723336205566406,0.584903465576172,-0.00995987890625116,0.93028303731394,0.782619000000068,
-0.689817382324219,0.589691868896485,-0.000383072265625728,0.907515657134149,0.785687999999936,
-0.677846374023438,0.582509263916016,0.0283473476562488,0.894201499352268,0.788708000000042,
-0.675452172363281,0.584903465576172,-0.0769975253906257,0.896814540531972,0.791662999999971,
-0.711365197265625,0.589691868896485,-0.0410845004882816,0.924913444763218,0.794738999999936,
-0.687423180664063,0.568144053955078,-0.0650265170898443,0.894184960331834,0.797720000000027,
-0.713759398925781,0.572932457275391,-0.014748282226563,0.915380572211987,0.800801999999749,
-0.713759398925781,0.599268675537109,0.0211647426757811,0.932214230403841,0.803784000000178,
-0.704182592285156,0.563355650634766,-0.0650265170898443,0.904141117472488,0.806798999999955,
-0.718547802246094,0.589691868896485,-0.0626323154296884,0.931649210428155,0.809891999999763,
-0.699394188964844,0.572932457275391,0.0403183559570301,0.90500243203236,0.812925000000178,
-0.699394188964844,0.599268675537109,-0.0171424838867189,0.921178072791358,0.816022999999859,
-0.687423180664063,0.599268675537109,0.0187705410156251,0.912154541733097,0.819050000000061,
-0.685028979003906,0.616028087158203,0.0211647426757811,0.921522247466365,0.822012000000086,
-0.735307213867188,0.611239683837891,0.0115879360351556,0.956255682401378,0.825139999999919,
-0.704182592285156,0.599268675537109,0.00201112939453019,0.924662161764439,0.828163000000131,
-0.670663769042969,0.620816490478516,-0.0219308872070325,0.914157519123848,0.831282999999985,
-0.701788390625,0.565749852294922,0.0283473476562488,0.901877714940833,0.834340999999768,
-0.692211583984375,0.577720860595703,-0.0362960971679698,0.902350085299062,0.837383000000045,
-0.713759398925781,0.582509263916016,0.0259531459960929,0.921652368244104,0.840490000000045,
-0.706576793945313,0.606451280517578,0.0259531459960929,0.931508178799597,0.843531999999868,
-0.728124608886719,0.613633885498047,-0.100939541992188,0.957549363028069,0.846614000000045,
-0.704182592285156,0.594480272216797,0.0283473476562488,0.921999723129863,0.849701999999979,
-0.687423180664063,0.582509263916016,-0.0578439121093748,0.902891793090618,0.852737000000161,
-0.696999987304688,0.589691868896485,-0.0219308872070325,0.913250483908468,0.855802999999923,
-0.651510155761719,0.577720860595703,-0.0195366855468748,0.870981376328023,0.858800999999858,
-0.639539147460938,0.630393297119141,-0.0698149204101561,0.900710915499352,0.861921000000166,
-0.704182592285156,0.592086070556641,-0.0362960971679698,0.92073690318911,0.864990000000034,
-0.704182592285156,0.594480272216797,-0.050661307128907,0.922955299769393,0.868049000000156,
-0.699394188964844,0.582509263916016,-0.0195366855468748,0.910412519788655,0.871028000000024,
-0.728124608886719,0.604057078857422,-0.014748282226563,0.946185981936339,0.874013999999988,
-0.706576793945313,0.558567247314453,-0.0434787021484375,0.901741943715049,0.877108000000135,
-0.689817382324219,0.608845482177735,-0.0386902988281257,0.920889668390457,0.880103999999847,
-0.716153600585938,0.575326658935547,-0.0817859287109375,0.922261178977654,0.883226999999806,
-0.723336205566406,0.553778843994141,-0.0793917270507816,0.914433879874756,0.886304000000109,
-0.708970995605469,0.568144053955078,-0.00756567724609347,0.908561928613847,0.889317000000119,
-0.699394188964844,0.620816490478516,-0.0458729038085934,0.936306397346342,0.892421999999897,
-0.713759398925781,0.618422288818359,-0.0698149204101561,0.946980849845501,0.895449000000099,
-0.680240575683594,0.563355650634766,0.00201112939453019,0.883233193754576,0.898549999999886,
-0.692211583984375,0.556173045654297,-0.0554497104492189,0.889696579797538,0.901536999999735,
-0.708970995605469,0.565749852294922,-0.0195366855468748,0.907245529095456,0.904566000000159,
-0.68263477734375,0.548990440673828,0.00679953271484379,0.876029095884112,0.907681000000139,
-0.701788390625,0.616028087158203,-0.0171424838867189,0.933965424487239,0.910679999999957,
-0.706576793945313,0.618422288818359,-0.050661307128907,0.940352838613988,0.913756999999805,
-0.723336205566406,0.584903465576172,-0.0291134921875003,0.930685191540928,0.916776999999911,
-0.675452172363281,0.625604893798828,-0.0386902988281257,0.92147385178242,0.919754000000012,
-0.704182592285156,0.587297667236328,-0.0578439121093748,0.918769607348215,0.922831999999744,
-0.675452172363281,0.596874473876953,-0.0339018955078121,0.902022235443888,0.925879999999779,
-0.711365197265625,0.606451280517578,0.0307415493164065,0.935290672666281,0.92896699999983,
-0.680240575683594,0.618422288818359,-0.0123540805664071,0.919416114401051,0.931958000000122,
-0.68263477734375,0.601662877197266,-0.00277727392578164,0.909942948918723,0.934921999999915,
-0.687423180664063,0.604057078857422,-0.0482671054687511,0.916387089227249,0.938012000000072,
-0.6634811640625,0.616028087158203,0.00440533105468788,0.905382386715815,0.941045000000031,
-0.699394188964844,0.625604893798828,0.0283473476562488,0.938795657649725,0.944125999999869,
-0.699394188964844,0.575326658935547,-0.0410845004882816,0.906554428713523,0.94711499999994,
-0.713759398925781,0.551384642333985,-0.0219308872070325,0.90219646816553,0.950152999999773,
-0.725730407226563,0.632787498779297,0.0570777675781251,0.964553012610657,0.953298999999788,
-0.699394188964844,0.620816490478516,0.0115879360351556,0.935253776613282,0.956310999999914,
-0.651510155761719,0.601662877197266,-0.100939541992188,0.892553915455836,0.959405000000061,
-0.687423180664063,0.596874473876953,-0.0267192905273443,0.910781909880994,0.962415999999848,
-0.692211583984375,0.551384642333985,-0.000383072265625728,0.884975732745421,0.965462000000116,
-0.692211583984375,0.546596239013672,-0.00756567724609347,0.882032632603942,0.968520999999782,
-0.673057970703125,0.584903465576172,0.0283473476562488,0.892144981541212,0.971540999999888,
-0.694605785644531,0.594480272216797,-0.000383072265625728,0.914266995056791,0.974693000000116,
-0.675452172363281,0.558567247314453,-0.0386902988281257,0.877342547780587,0.977712999999767,
-0.706576793945313,0.565749852294922,-0.0482671054687511,0.906450977485321,0.980814999999893,
-0.713759398925781,0.596874473876953,-0.0650265170898443,0.932705776247589,0.983873000000131,
-0.680240575683594,0.611239683837891,-0.00995987890625116,0.91457115146522,0.986884999999802,
-0.725730407226563,0.572932457275391,-0.0195366855468748,0.924833988700138,0.99002100000007,
-0.701788390625,0.560961448974609,-0.0195366855468748,0.898646968800251,0.993149999999787,
-0.680240575683594,0.596874473876953,-0.0769975253906257,0.908248312571247,0.996224999999868,
-0.704182592285156,0.608845482177735,-0.050661307128907,0.932272767212306,0.999261999999817,
-0.752066625488281,0.601662877197266,-0.00517147558593756,0.963135074187602,1.00226299999986,
-0.685028979003906,0.608845482177735,-0.0841801303710934,0.920349834352496,1.00538999999981,
-0.716153600585938,0.575326658935547,-0.0458729038085934,0.919772291068814,1.0084109999998,
-0.708970995605469,0.553778843994141,-0.0267192905273443,0.900013778312077,1.01148400000011,
-0.711365197265625,0.611239683837891,0.0211647426757811,0.938137698481165,1.01445699999977,
-0.694605785644531,0.596874473876953,-0.0243250888671884,0.916148484125332,1.01745399999982,
-0.692211583984375,0.604057078857422,0.0307415493164065,0.919231676115598,1.02051699999993,
-0.692211583984375,0.599268675537109,-0.050661307128907,0.916976766620708,1.02350799999977,
-0.72094200390625,0.548990440673828,-0.0123540805664071,0.90625631046313,1.02666700000009,
-0.706576793945313,0.584903465576172,-0.0386902988281257,0.918073945283528,1.02965499999982,
-0.685028979003906,0.611239683837891,-0.0291134921875003,0.918545724828509,1.03268200000002,
-0.711365197265625,0.606451280517578,-0.00995987890625116,0.934838381063807,1.03572900000017,
-0.668269567382812,0.594480272216797,-0.0243250888671884,0.894752881355162,1.03873799999974,
