X,Y,Z,Magnitude,Seconds,
-0.328292931640625,-0.542765516357422,0.0642603725585928,0.637573564534559,0.0,
-0.311533520019531,-0.559524927978516,0.0714429775390624,0.644379839973885,0.00291999999990367,
-0.33786973828125,-0.523611903076172,0.0307415493164065,0.623915401271409,0.00593000000026223,
-0.316321923339844,-0.545159718017578,0.0115879360351556,0.630391114781909,0.00896000000011554,
-0.294774108398438,-0.571495936279297,-0.0123540805664071,0.643157837138354,0.0120500000002721,
-0.33786973828125,-0.549948121337891,-0.053055508789063,0.647621635850889,0.0150870000002215,
-0.311533520019531,-0.540371314697266,-0.0171424838867189,0.623977689182248,0.0180550000000039,
-0.342658141601563,-0.516429298095703,-0.0362960971679698,0.620831078963581,0.0210470000001806,
-0.330687133300781,-0.540371314697266,-0.0841801303710934,0.639094227972397,0.0239759999999478,
-0.345052343261719,-0.547553919677734,-0.0315076938476562,0.647973108482483,0.0269969999999375,
-0.318716125,-0.516429298095703,-0.0243250888671884,0.60734742793152,0.0299450000002253,
-0.292379906738281,-0.554736524658203,-0.0243250888671884,0.627543091430815,0.0328520000002754,
-0.213371251953125,-0.516429298095703,0.00679953271484379,0.558813694120684,0.035874000000149,
-0.151122008789062,-0.427843836669922,0.207912472167969,0.499115023015614,0.038825000000088,
-0.098449572265625,-0.458968458251953,0.239037093749999,0.526766642962427,0.0418359999998756,
0.0739329472656251,-0.458968458251953,0.164816842285155,0.493236979414973,0.0448200000000725,
0.301382104980469,-0.439814844970703,-0.0769975253906257,0.538699257448293,0.04773699999987,
0.435457397949219,-0.303345350341797,-0.572597269042969,0.780710688743377,0.0507740000002741,
0.413909583007813,-0.255461317138672,-1.23579112890625,1.3280667685562,0.0537279999998646,
0.519254456054688,-0.126174427490234,-1.84870675390625,1.92438609385532,0.0567740000001322,
0.457005212890625,-0.128568629150391,-2.52866002539063,2.57283990582767,0.0597410000000309,
0.375602356445313,-0.0902614025878906,-2.97637573583984,3.0013391630838,0.0627580000000307,
0.124211182128906,-0.118991822509766,-3.44324505957031,3.44753883398656,0.0657129999999597,
-0.189429235351563,-0.152510645751953,-3.66590581396484,3.67396357754603,0.0686380000001918,
-0.550953686035156,-0.358411988525391,-3.57013774755859,3.63013672665606,0.0716210000000501,
-0.692211583984375,-0.432632239990234,-3.11763363378906,3.22272664162102,0.0745809999998528,
-1.13035048779297,-0.456574256591797,-2.39937313574219,2.69130892347152,0.0775659999999334,
-1.60919081982422,-0.755849464111328,-1.16635928076172,2.1263107672264,0.0805199999999786,
-2.02578190869141,-1.14849853637695,0.325228353515625,2.3513006425321,0.0834220000001551,
-2.50462224072266,-1.25863181274414,1.99877531396484,3.44272992906639,0.0864059999998972,
-2.63390913037109,-1.40228391235352,3.74175412255859,4.78587519598891,0.0893240000000333,
-2.64588013867188,-1.53396500366211,5.26207217675781,6.08630708509578,0.0923090000001139,
-2.52138165234375,-1.58184903686523,6.26524267236328,6.93634468259825,0.0952299999999013,
-2.19337602490234,-1.49805197875977,6.78478443261719,7.28617580866445,0.0981289999999717,
-1.774390734375,-1.17483475463867,6.79196703759766,7.11754981849483,0.101113000000169,
-1.15429250439453,-0.698388624267578,6.05455292626953,6.20304352662519,0.104065999999875,
-0.550953686035156,-0.360806190185547,4.66352176171875,4.70979471878088,0.107065000000148,
0.0308373173828125,-0.0423773693847656,2.79604446679688,2.79653561427076,0.110051000000112,
0.430668994628906,0.0964863269042969,0.997999020019531,1.09123207347205,0.113010999999915,
0.749097815429688,0.137187755126953,-0.785681216796876,1.09419513418116,0.116042999999991,
0.923874536621094,0.259292039794922,-2.33472969091797,2.52423042747127,0.119015000000218,
1.03161361132813,0.513077415771484,-3.71139564550781,3.88612052246795,0.122067000000243,
1.22075554248047,0.357454307861328,-4.49190538671875,4.66853635307024,0.125051999999869,
1.13217008105469,0.379002122802734,-5.03538916357422,5.17499717199585,0.12802099999999,
1.0986512578125,0.711796153564453,-5.30593395117188,5.46503645410719,0.131071000000247,
1.14174688769531,0.417309349365234,-5.30832815283203,5.44573969509916,0.134058999999979,
1.11301646777344,0.390973131103516,-4.94680370214844,5.08552185270787,0.137105000000247,
0.840077478515625,0.381396324462891,-4.27882143896484,4.37715732328279,0.140093999999863,
0.500100842773438,0.139581956787109,-3.4001494296875,3.43956394326482,0.143047000000024,
0.246315466796875,-0.233913502197266,-2.14798196142578,2.17467545677604,0.146082000000206,
-0.0433829340820312,-0.504458289794922,-0.694701553710939,0.859633930135831,0.149112000000059,
-0.349840746582031,-0.856405933837891,1.16798733789062,1.48997117185355,0.152229000000261,
-0.306745116699219,-1.73028953979492,3.27727900048828,3.71867612265226,0.155271000000084,
-0.610808727539063,-1.60100265014648,5.12560268212891,5.40445183552051,0.158296000000064,
-0.6634811640625,-1.62973307006836,6.44001939355469,6.67608320230512,0.161229000000276,
-0.692211583984375,-2.02238214233398,7.12715527001953,7.44080161337478,0.164150999999947,
-0.910083935058594,-2.13969802368164,7.10560745507813,7.47637731171058,0.167183999999907,
-1.18541712597656,-1.96013289916992,6.47114401513672,6.86462232097343,0.170149000000038,
-1.37455905712891,-1.50284038208008,5.24291856347656,5.62460104174446,0.173119000000042,
-1.40328947705078,-0.949779798583984,3.65316866113281,4.02702673058953,0.176050999999916,
-1.27400258740234,-0.473333668212891,1.96525649072266,2.38942679915064,0.178989000000001,
-0.881353515136719,-0.212365687255859,0.14326902734375,0.917828534075689,0.182009000000107,
-0.696999987304688,-0.00407014282226563,-1.1017158359375,1.30368835674819,0.184935000000223,
-0.251678478515625,-0.0232237561035156,-2.64358170507813,2.65563657732365,0.187957999999981,
-0.119997387207031,0.264080443115234,-3.64675220068359,3.65827001006802,0.190931999999975,
0.14097059375,0.575326658935547,-4.49908799169922,4.53791430393262,0.193892000000233,
0.392361768066406,0.532231029052734,-5.22213689306641,5.2638323828986,0.196950999999899,
0.423486389648438,0.455616575927735,-5.49507588232422,5.53017053434873,0.19993999999997,
0.337295129882813,0.402944139404297,-5.66506420019531,5.68938347946924,0.202978000000257,
0.258286475097656,0.417309349365234,-5.44000924414063,5.46210212030327,0.205954999999904,
0.0499909306640626,0.357454307861328,-5.02341815527344,5.0363680006616,0.208904999999959,
-0.160698815429688,0.283234056396484,-4.27403303564453,4.28642088807949,0.211931000000277,
-0.368994359863281,0.0557848986816406,-3.27804514501953,3.29921941757713,0.21487500000012,
-0.728124608886719,-0.162087452392578,-1.79842851904297,1.94699330414787,0.217889999999898,
-0.828681078613281,-0.84443492553711,-0.0291134921875003,1.18348226389156,0.220835999999963,
-1.09683166455078,-0.798945093994141,2.05384195214844,2.46162948633287,0.223773000000165,
-1.13035048779297,-0.933020386962891,4.10327857324219,4.35719110406815,0.226782000000185,
-0.744884020507813,-1.42622592895508,5.63796183740234,5.86306969807087,0.229721000000154,
-0.574895702636719,-1.71113592651367,6.50945124169922,6.75510523204306,0.232719999999972,
-0.400118981445313,-0.336864173583984,0.0666545742187488,0.527271754431752,16.4560289999999,
-0.371388561523438,-0.296162745361328,-0.00517147558593756,0.475045870974733,16.4603040000002,
-0.371388561523438,-0.310527955322266,0.0187705410156251,0.48446817013824,16.4632340000003,
-0.390542174804688,-0.291374342041016,0.0187705410156251,0.487621298459193,16.466144,
-0.380965368164063,-0.336864173583984,0.023558944335937,0.509084577494766,16.4691480000001,
-0.400118981445313,-0.341652576904297,-0.053055508789063,0.528806741287445,16.4720620000003,
-0.368994359863281,-0.324893165283203,-0.050661307128907,0.494245864422416,16.475046,
-0.371388561523438,-0.303345350341797,0.0211647426757811,0.479995636997846,16.4779800000001,
-0.3570233515625,-0.286585938720703,0.00201112939453019,0.457822256421407,16.4808880000001,
-0.390542174804688,-0.310527955322266,0.0115879360351556,0.499084242988453,16.4839000000002,
-0.409695788085938,-0.296162745361328,-0.0171424838867189,0.505822968309193,16.486821,
-0.407301586425781,-0.336864173583984,-0.0267192905273443,0.529231493994512,16.4898050000002,
-0.368994359863281,-0.265038123779297,-0.088968533691407,0.462944321333097,16.4927189999999,
-0.404907384765625,-0.305739552001953,-0.0554497104492189,0.510393313323162,16.4956190000003,
-0.424060998046875,-0.344046778564453,-0.053055508789063,0.548644514160085,16.4986159999999,
-0.428849401367188,-0.358411988525391,-0.053055508789063,0.561414151571357,16.5015400000002,
-0.412089989746094,-0.305739552001953,-0.0458729038085934,0.515169056340851,16.5045300000002,
-0.378571166503906,-0.358411988525391,0.0379241542968742,0.52269830983655,16.5074709999999,
-0.404907384765625,-0.305739552001953,-0.000383072265625728,0.507372457510706,16.5103640000002,
-0.426455199707031,-0.308133753662109,-0.0458729038085934,0.528123821472671,16.5133510000001,
-0.380965368164063,-0.344046778564453,-0.1057279453125,0.524100368251121,16.516271,
-0.385753771484375,-0.324893165283203,-0.0482671054687511,0.506647070979878,16.51926,
-0.404907384765625,-0.327287366943359,-0.0410845004882816,0.522259463273598,16.5221790000001,
-0.378571166503906,-0.324893165283203,-0.0602381137695325,0.502494106737958,16.525165,
-0.416878393066406,-0.312922156982422,-0.0554497104492189,0.524197044368874,16.528084,
-0.407301586425781,-0.327287366943359,-0.0434787021484375,0.524310976812605,16.5309910000001,
-0.395330578125,-0.351229383544922,-0.050661307128907,0.531239036504286,16.5339870000003,
-0.378571166503906,-0.312922156982422,-0.0841801303710934,0.498319875971202,16.53692,
-0.385753771484375,-0.351229383544922,-0.0339018955078121,0.522797657415168,16.5398989999999,
-0.407301586425781,-0.310527955322266,-0.0554497104492189,0.51516683096885,16.5428310000002,
-0.380965368164063,-0.336864173583984,-0.0434787021484375,0.510394436416888,16.5457340000003,
-0.3570233515625,-0.322498963623047,-0.00756567724609347,0.4811740792801,16.5487499999999,
-0.400118981445313,-0.351229383544922,-0.0219308872070325,0.532858558148284,16.5517840000002,
-0.416878393066406,-0.317710560302734,0.0139821376953115,0.524331092829747,16.554909,
-0.392936376464844,-0.341652576904297,0.00201112939453019,0.520700992793474,16.5579480000001,
-0.438426208007813,-0.372777198486328,-0.053055508789063,0.577923235899277,16.5609119999999,
-0.419272594726563,-0.327287366943359,0.0211647426757811,0.532310506736429,16.5639120000001,
-0.402513183105469,-0.303345350341797,-0.0482671054687511,0.506324972342878,16.5668220000002,
-0.371388561523438,-0.291374342041016,-0.0698149204101561,0.477181929605637,16.5697970000001,
-0.392936376464844,-0.363200391845703,0.0139821376953115,0.535265374146997,16.5727609999999,
-0.397724779785156,-0.344046778564453,-0.00277727392578164,0.525890577540792,16.5756489999999,
-0.395330578125,-0.296162745361328,-0.0434787021484375,0.495871994854638,16.578634,
-0.380965368164063,-0.329681568603516,0.0139821376953115,0.5040040164441,16.5815710000002,
-0.388147973144531,-0.341652576904297,0.0331357509765624,0.518153751655177,16.5845589999999,
-0.366600158203125,-0.308133753662109,-0.0123540805664071,0.479056060860417,16.5874939999999,
-0.385753771484375,-0.317710560302734,0.0331357509765624,0.50084323928259,16.5904350000001,
-0.400118981445313,-0.300951148681641,0.023558944335937,0.501220327863762,16.593453,
-0.3570233515625,-0.303345350341797,0.0331357509765624,0.469661636849007,16.5963830000001,
-0.383359569824219,-0.341652576904297,0.0283473476562488,0.514290399677362,16.599369,
-0.412089989746094,-0.351229383544922,-0.0339018955078121,0.542521500065485,16.6022670000002,
-0.390542174804688,-0.310527955322266,0.0307415493164065,0.499895833341482,16.6051700000003,
-0.390542174804688,-0.308133753662109,-0.0554497104492189,0.500543974927257,16.6081290000002,
-0.347446544921875,-0.298556947021484,-0.0123540805664071,0.458266271396422,16.611034,
-0.383359569824219,-0.339258375244141,-0.0362960971679698,0.513203869450271,16.6140150000001,
-0.404907384765625,-0.341652576904297,0.0379241542968742,0.531144721353999,16.6169380000001,
-0.373782763183594,-0.303345350341797,0.0283473476562488,0.482219377199107,16.6199390000002,
-0.364205956542969,-0.353623585205078,-0.0195366855468748,0.508013091245521,16.6228610000003,
-0.409695788085938,-0.351229383544922,-0.00995987890625116,0.539733191334877,16.6257490000003,
-0.431243603027344,-0.332075770263672,-0.014748282226563,0.544484044005746,16.6287170000001,
-0.354629149902344,-0.336864173583984,0.0307415493164065,0.490086062094458,16.6316409999999,
-0.407301586425781,-0.310527955322266,-0.0123540805664071,0.512322961273674,16.634607,
-0.383359569824219,-0.308133753662109,0.023558944335937,0.492408360794103,16.6375590000002,
-0.395330578125,-0.324893165283203,0.00919373437499971,0.511787416414417,16.6404689999999,
-0.400118981445313,-0.329681568603516,-0.00995987890625116,0.518540581996758,16.6434640000002,
-0.368994359863281,-0.305739552001953,-0.0171424838867189,0.47950743062342,16.646405,
-0.404907384765625,-0.317710560302734,0.0211647426757811,0.515109635609884,16.6494090000001,
-0.397724779785156,-0.312922156982422,0.00201112939453019,0.506072446816782,16.6523419999999,
-0.378571166503906,-0.315316358642578,-0.014748282226563,0.492907745896103,16.6552489999999,
-0.388147973144531,-0.315316358642578,-0.0985453403320324,0.509700342539593,16.658242,
-0.373782763183594,-0.329681568603516,-0.00756567724609347,0.498458353528386,16.6611699999999,
-0.397724779785156,-0.288980140380859,-0.0243250888671884,0.492225793653775,16.6641680000002,
-0.388147973144531,-0.327287366943359,-0.0482671054687511,0.510005473585585,16.6670920000001,
-0.390542174804688,-0.348835181884766,0.00679953271484379,0.52369400232091,16.6700190000001,
-0.395330578125,-0.334469971923828,-0.0410845004882816,0.519465460160485,16.6730189999998,
-0.419272594726563,-0.320104761962891,0.0738371791992183,0.532642935137753,16.6759630000001,
-0.368994359863281,-0.363200391845703,-0.0123540805664071,0.517903451962261,16.6789600000002,
-0.402513183105469,-0.312922156982422,-0.00995987890625116,0.509937582545212,16.6818899999998,
-0.412089989746094,-0.293768543701172,0.00440533105468788,0.506100310075922,16.6848129999998,
-0.400118981445313,-0.324893165283203,-0.072209122070312,0.520446851725263,16.6878649999999,
-0.443214611328125,-0.339258375244141,0.00440533105468788,0.558170980802242,16.6909190000001,
-0.395330578125,-0.298556947021484,0.0546835659179692,0.498410281792963,16.694023,
-0.41448419140625,-0.336864173583984,-0.0315076938476562,0.535039579042253,16.6970369999999,
-0.400118981445313,-0.300951148681641,-0.0195366855468748,0.501047378286516,16.6999390000001,
-0.388147973144531,-0.291374342041016,-0.00517147558593756,0.485370580500898,16.702929,
-0.392936376464844,-0.308133753662109,-0.0674207187500002,0.50387593652802,16.7058700000002,
-0.424060998046875,-0.320104761962891,-0.00995987890625116,0.531407553468765,16.708862,
-0.400118981445313,-0.322498963623047,-0.0626323154296884,0.517709945613234,16.7118049999999,
-0.366600158203125,-0.332075770263672,-0.0195366855468748,0.495026943986814,16.7147760000003,
-0.426455199707031,-0.327287366943359,-0.0386902988281257,0.538960107189104,16.7176840000002,
-0.4336378046875,-0.312922156982422,-0.0865743320312511,0.54171684204147,16.720605,
-0.416878393066406,-0.332075770263672,-0.0937569370117188,0.541158271709543,16.7236040000003,
-0.404907384765625,-0.305739552001953,-0.0865743320312511,0.514705526357305,16.726541,
-0.392936376464844,-0.320104761962891,-0.0171424838867189,0.507109376105833,16.7295490000001,
-0.373782763183594,-0.305739552001953,-0.0602381137695325,0.486640378577475,16.7325040000001,
-0.4336378046875,-0.312922156982422,-0.050661307128907,0.537148573510845,16.735408,
-0.416878393066406,-0.298556947021484,-0.0171424838867189,0.513047473411794,16.7384160000001,
-0.390542174804688,-0.332075770263672,-0.0578439121093748,0.515890904809828,16.7413430000001,
-0.402513183105469,-0.296162745361328,0.00679953271484379,0.499775417521506,16.7443480000002,
-0.388147973144531,-0.300951148681641,-0.0793917270507816,0.497527375400703,16.7472590000002,
-0.383359569824219,-0.298556947021484,-0.0434787021484375,0.487843425630716,16.7501700000003,
-0.378571166503906,-0.293768543701172,-0.00517147558593756,0.479210631701939,16.7531600000002,
-0.354629149902344,-0.303345350341797,-0.0650265170898443,0.471177974293454,16.7560830000002,
-0.402513183105469,-0.305739552001953,-0.00277727392578164,0.505471314203398,16.759082,
-0.390542174804688,-0.358411988525391,0.0283473476562488,0.530835111818203,16.7620350000002,
-0.380965368164063,-0.344046778564453,0.0115879360351556,0.513456013542068,16.764956,
-0.400118981445313,-0.288980140380859,0.0307415493164065,0.494519730346271,16.7679710000002,
-0.395330578125,-0.315316358642578,-0.0195366855468748,0.506055682816051,16.7708940000002,
-0.41448419140625,-0.279403333740234,-0.072209122070312,0.505052002412638,16.7738950000003,
-0.392936376464844,-0.308133753662109,-0.0362960971679698,0.5006623740255,16.77682,
-0.412089989746094,-0.332075770263672,-0.0315076938476562,0.530174699148068,16.7797289999999,
-0.457579821289063,-0.339258375244141,-0.0793917270507816,0.575133536101252,16.7827130000001,
-0.368994359863281,-0.312922156982422,-0.0602381137695325,0.487550760733644,16.7856540000002,
-0.397724779785156,-0.312922156982422,-0.072209122070312,0.51119412564685,16.788638,
-0.416878393066406,-0.272220728759766,-0.0410845004882816,0.499579479114684,16.7915720000001,
-0.388147973144531,-0.320104761962891,-0.0123540805664071,0.503267852136581,16.7944729999999,
-0.383359569824219,-0.315316358642578,-0.0841801303710934,0.503463265941736,16.7974589999999,
-0.380965368164063,-0.272220728759766,0.00201112939453019,0.468233682629004,16.800393,
-0.383359569824219,-0.317710560302734,-0.000383072265625728,0.497900297899136,16.8033850000002,
-0.380965368164063,-0.344046778564453,-0.0746033237304697,0.518718086722056,16.8063090000001,
-0.385753771484375,-0.300951148681641,-0.000383072265625728,0.489262417166472,16.809291,
-0.378571166503906,-0.322498963623047,-0.014748282226563,0.497533136056989,16.812218,
-0.409695788085938,-0.351229383544922,0.0211647426757811,0.540056168350326,16.8151379999999,
-0.388147973144531,-0.348835181884766,0.0905965908203115,0.529672139577917,16.8181359999999,
-0.385753771484375,-0.375171400146484,0.114538607421874,0.550162379931994,16.8210880000001,
-0.383359569824219,-0.324893165283203,0.0307415493164065,0.503453246566076,16.8240759999999,
-0.359417553222656,-0.312922156982422,0.0187705410156251,0.476920944292775,16.8271180000002,
-0.371388561523438,-0.358411988525391,0.0642603725585928,0.520113461304879,16.8301350000002,
-0.371388561523438,-0.348835181884766,0.0139821376953115,0.509716536837443,16.8332490000003,
-0.368994359863281,-0.317710560302734,0.023558944335937,0.487495499053083,16.836233,
-0.352234948242188,-0.310527955322266,-0.0410845004882816,0.471365045352511,16.8392250000002,
-0.3570233515625,-0.317710560302734,0.0618661708984369,0.481905692838788,16.8421779999999,
-0.390542174804688,-0.351229383544922,-0.0434787021484375,0.527044274902056,16.8450950000001,
-0.366600158203125,-0.305739552001953,-0.0339018955078121,0.478562104822283,16.8481070000003,
-0.397724779785156,-0.322498963623047,-0.053055508789063,0.51478681899011,16.851032,
-0.359417553222656,-0.272220728759766,-0.00756567724609347,0.450934964494051,16.8540360000002,
-0.390542174804688,-0.339258375244141,-0.0434787021484375,0.519143364606524,16.8569910000001,
-0.407301586425781,-0.324893165283203,-0.0219308872070325,0.521470147723131,16.8599199999999,
-0.352234948242188,-0.310527955322266,-0.0171424838867189,0.46988395860426,16.862932,
-0.424060998046875,-0.312922156982422,-0.0626323154296884,0.530726684208668,16.8658810000002,
-0.409695788085938,-0.296162745361328,-0.0267192905273443,0.506238018131393,16.868911,
-0.400118981445313,-0.324893165283203,-0.0698149204101561,0.520120073898758,16.8718410000001,
-0.37617696484375,-0.322498963623047,-0.0339018955078121,0.496652825357933,16.8747480000002,
-0.400118981445313,-0.310527955322266,-0.0123540805664071,0.506631457428477,16.877747,
-0.385753771484375,-0.329681568603516,-0.0315076938476562,0.508417784565894,16.8806749999999,
-0.366600158203125,-0.334469971923828,-0.0386902988281257,0.497757749650061,16.8836630000001,
-0.385753771484375,-0.324893165283203,-0.0434787021484375,0.506213333094527,16.8865949999999,
-0.371388561523438,-0.353623585205078,-0.0195366855468748,0.513186891615422,16.8894960000002,
-0.385753771484375,-0.332075770263672,-0.00756567724609347,0.509055526325786,16.892488,
-0.378571166503906,-0.312922156982422,-0.053055508789063,0.494015476935213,16.8954119999999,
-0.424060998046875,-0.320104761962891,-0.0362960971679698,0.532552528268768,16.8984270000001,
-0.390542174804688,-0.281797535400391,-0.0434787021484375,0.483552932779259,16.901351,
-0.412089989746094,-0.324893165283203,-0.000383072265625728,0.524760779061312,16.9043380000003,
-0.359417553222656,-0.303345350341797,-0.0746033237304697,0.476198524829909,16.907256,
-0.373782763183594,-0.300951148681641,-0.0386902988281257,0.481437521563672,16.9101639999999,
-0.388147973144531,-0.296162745361328,0.00201112939453019,0.488236894793509,16.9131780000002,
-0.400118981445313,-0.296162745361328,-0.050661307128907,0.500373999217388,16.9160999999999,
-0.352234948242188,-0.286585938720703,0.00440533105468788,0.454114925957411,16.9190979999999,
-0.404907384765625,-0.317710560302734,-0.0985453403320324,0.524024020887184,16.9220420000001,
-0.416878393066406,-0.317710560302734,-0.0554497104492189,0.527069506917644,16.9249589999999,
-0.383359569824219,-0.310527955322266,-0.0386902988281257,0.494862718373335,16.9279500000002,
-0.37617696484375,-0.308133753662109,-0.0434787021484375,0.488206837892988,16.930887,
-0.380965368164063,-0.293768543701172,-0.0243250888671884,0.481691061736756,16.9338809999999,
-0.407301586425781,-0.351229383544922,-0.00995987890625116,0.53791808052726,16.9368079999999,
-0.397724779785156,-0.269826527099609,-0.0195366855468748,0.481012512585634,16.9397159999999,
-0.392936376464844,-0.272220728759766,-0.0698149204101561,0.483091341495266,16.9427049999999,
-0.409695788085938,-0.312922156982422,-0.0339018955078121,0.516643255665756,16.9456290000003,
-0.426455199707031,-0.317710560302734,0.0451067592773438,0.533702779848059,16.9486400000001,
-0.385753771484375,-0.332075770263672,0.0522893642578115,0.511678089256435,16.9515799999999,
-0.349840746582031,-0.310527955322266,0.00679953271484379,0.467827310715012,16.9544930000002,
-0.395330578125,-0.315316358642578,-0.000383072265625728,0.505678572586008,16.9574849999999,
-0.385753771484375,-0.334469971923828,-0.053055508789063,0.513313765007342,16.9604050000003,
-0.378571166503906,-0.327287366943359,-0.0315076938476562,0.501423856074323,16.963452,
-0.368994359863281,-0.296162745361328,-0.00756567724609347,0.473208673655781,16.9664849999999,
-0.407301586425781,-0.356017786865234,-0.0362960971679698,0.542181384353063,16.9694939999999,
-0.419272594726563,-0.324893165283203,0.00919373437499971,0.530499389526738,16.9726150000001,
-0.380965368164063,-0.324893165283203,0.0379241542968742,0.502123911069023,16.975559,
-0.404907384765625,-0.344046778564453,0.0139821376953115,0.53152015601748,16.9785609999999,
-0.400118981445313,-0.310527955322266,0.00440533105468788,0.50649996771092,16.9815050000002,
-0.421666796386719,-0.291374342041016,-0.00995987890625116,0.512641291316551,16.9844160000002,
-0.412089989746094,-0.310527955322266,-0.000383072265625728,0.515990229975262,16.987427,
-0.392936376464844,-0.303345350341797,-0.00517147558593756,0.496431406825802,16.9903509999999,
-0.373782763183594,-0.308133753662109,0.00919373437499971,0.484504374542503,16.993363,
-0.37617696484375,-0.291374342041016,0.0211647426757811,0.476294092354107,16.9962960000003,
-0.383359569824219,-0.312922156982422,-0.088968533691407,0.502792438381427,16.999296,
-0.364205956542969,-0.332075770263672,0.0163763393554675,0.493141440631666,17.002242,
-0.395330578125,-0.310527955322266,-0.0362960971679698,0.504015162179572,17.0051870000002,
-0.395330578125,-0.293768543701172,-0.0291134921875003,0.493390128292314,17.0082050000001,
-0.392936376464844,-0.324893165283203,-0.0458729038085934,0.511916876163399,17.011129,
-0.395330578125,-0.291374342041016,-0.0386902988281257,0.492627864035208,17.0141240000003,
-0.385753771484375,-0.332075770263672,0.00679953271484379,0.509044716165261,17.0170670000002,
-0.390542174804688,-0.279403333740234,-0.0961511386718747,0.48972896042018,17.0199750000002,
-0.390542174804688,-0.310527955322266,0.0307415493164065,0.499895833341482,17.0229939999999,
-0.378571166503906,-0.322498963623047,-0.00517147558593756,0.497341385575144,17.0259180000003,
-0.397724779785156,-0.356017786865234,-0.0482671054687511,0.535969568622979,17.028914,
-0.37617696484375,-0.293768543701172,-0.0554497104492189,0.480503628015716,17.031837,
-0.407301586425781,-0.308133753662109,0.00679953271484379,0.510771207191635,17.0347729999999,
-0.404907384765625,-0.353623585205078,0.00919373437499971,0.537665467556537,17.0377790000002,
-0.380965368164063,-0.298556947021484,-0.00517147558593756,0.484042980028535,17.0407009999999,
-0.400118981445313,-0.308133753662109,-0.0578439121093748,0.50831833296356,17.0436920000002,
-0.421666796386719,-0.320104761962891,-0.0578439121093748,0.532555972621164,17.046617,
-0.409695788085938,-0.288980140380859,-0.0674207187500002,0.505871242142371,17.0495230000001,
-0.380965368164063,-0.315316358642578,0.00201112939453019,0.494533176247495,17.0525299999999,
-0.37617696484375,-0.315316358642578,-0.0865743320312511,0.498426152878567,17.0554480000001,
-0.373782763183594,-0.341652576904297,-0.088968533691407,0.514155071302139,17.058442,
-0.421666796386719,-0.322498963623047,0.0163763393554675,0.531108890156871,17.0614,
-0.383359569824219,-0.360806190185547,-0.0578439121093748,0.529614562507619,17.064304,
-0.404907384765625,-0.303345350341797,0.00201112939453019,0.505937186272335,17.067313,
-0.407301586425781,-0.332075770263672,-0.0171424838867189,0.525797265355171,17.070232,
-0.426455199707031,-0.315316358642578,-0.100939541992188,0.539886316294803,17.0732210000001,
-0.388147973144531,-0.293768543701172,-0.0315076938476562,0.487802768643345,17.0761430000002,
-0.404907384765625,-0.324893165283203,-0.0482671054687511,0.521378243270477,17.0790529999999,
-0.392936376464844,-0.320104761962891,-0.053055508789063,0.509588992810389,17.082042,
-0.390542174804688,-0.320104761962891,-0.0291134921875003,0.505804156131448,17.084981,
-0.443214611328125,-0.322498963623047,-0.100939541992188,0.557345103477435,17.0879749999999,
-0.424060998046875,-0.329681568603516,-0.0434787021484375,0.538895225699671,17.0909059999999,
-0.388147973144531,-0.279403333740234,-0.00756567724609347,0.478311939463732,17.0938940000001,
-0.361811754882813,-0.303345350341797,-0.0769975253906257,0.47838767381868,17.0968210000001,
-0.412089989746094,-0.262643922119141,-0.0746033237304697,0.494333536578993,17.099729,
-0.402513183105469,-0.320104761962891,-0.0674207187500002,0.51868051295743,17.1028220000003,
-0.404907384765625,-0.341652576904297,-0.0482671054687511,0.531983258207827,17.1058510000003,
-0.419272594726563,-0.310527955322266,-0.0315076938476562,0.522694800526052,17.1089390000002,
-0.450397216308594,-0.277009132080078,-0.0817859287109375,0.535052006677294,17.1119250000002,
-0.368994359863281,-0.315316358642578,-0.050661307128907,0.48800390539271,17.1148290000001,
-0.416878393066406,-0.310527955322266,-0.0315076938476562,0.520776286339781,17.117823,
-0.431243603027344,-0.317710560302734,-0.000383072265625728,0.535640917055674,17.1207530000002,
-0.416878393066406,-0.310527955322266,-0.00277727392578164,0.519829701818504,17.1238020000001,
-0.4336378046875,-0.315316358642578,-0.0674207187500002,0.540381073871556,17.1267210000001,
-0.436032006347656,-0.351229383544922,0.00440533105468788,0.559915526991893,17.1296520000001,
-0.409695788085938,-0.303345350341797,0.0451067592773438,0.511765239227763,17.132654,
-0.4336378046875,-0.308133753662109,0.00201112939453019,0.531970112357393,17.1356030000002,
-0.416878393066406,-0.353623585205078,-0.00517147558593756,0.546684533143803,17.1386299999999,
-0.493492846191406,-0.324893165283203,-0.0171424838867189,0.591087660879197,17.1415660000002,
-0.407301586425781,-0.329681568603516,0.0187705410156251,0.524344211555589,17.1445180000001,
-0.412089989746094,-0.272220728759766,-0.014748282226563,0.494105046163332,17.1475180000002,
-0.373782763183594,-0.320104761962891,-0.0410845004882816,0.49383048596138,17.1504479999999,
-0.373782763183594,-0.288980140380859,-0.0339018955078121,0.473679653465004,17.15344,
-0.428849401367188,-0.322498963623047,0.0307415493164065,0.537459238868686,17.1563850000002,
-0.380965368164063,-0.358411988525391,-0.0554497104492189,0.52599280950219,17.1592900000001,
-0.390542174804688,-0.298556947021484,-0.0554497104492189,0.494706085777067,17.162276,
-0.416878393066406,-0.327287366943359,-0.0243250888671884,0.53056227260779,17.1651970000003,
