X,Y,Z,Magnitude,Seconds,
0.0129286889648438,-0.00373495458984374,-0.0146525141601543,0.0198946489124938,0.0,
0.00574608398437504,-0.0228885678710937,-0.0433829340820289,0.0493860606842742,0.00378200000022844,
0.03447650390625,-0.0396479794921876,-0.0912669672851543,0.105310260263851,0.00751399999990099,
0.0129286889648438,-0.0228885678710937,0.0164721074218761,0.0310220544203179,0.0112850000000435,
-0.0565031591796875,-0.0228885678710937,0.0236547124023456,0.0653914287602928,0.0150170000001708,
0.00574608398437504,-0.0396479794921876,0.0116837041015643,0.0417311478454802,0.0187700000001314,
-0.032561142578125,-0.0276769711914062,0.0691445439453133,0.0812847507084095,0.0224889999999505,
0.0177170922851563,-0.00373495458984374,0.0308373173828134,0.0357601088952104,0.0263230000000476,
-0.051714755859375,-0.0540131894531251,-0.0170467158203103,0.0766970086036761,0.029997000000094,
-0.00383072265624995,-0.0276769711914062,0.100269165527346,0.104089359331054,0.0337370000002011,
0.03447650390625,0.00105344873046875,-0.0290177241210916,0.0450751304933572,0.0377189999999246,
0.000957680664062543,-0.0133117612304687,-0.0170467158203103,0.0216497265472279,0.0415610000000015,
0.0320823022460938,-0.0444363828125001,0.0116837041015643,0.0560390504594936,0.0453779999998005,
0.015322890625,0.0154186586914062,0.0188663090820338,0.0287830441636499,0.0492699999999786,
-0.0181959326171875,-0.0276769711914062,0.00928950244140836,0.0344006039735946,0.0531139999998231,
0.024899697265625,0.00823605371093761,-0.0194409174804662,0.0326462367989255,0.0570010000001275,
0.0201112939453125,0.0249954653320312,-0.0362003291015611,0.048370458529777,0.0608250000000226,
0.024899697265625,0.0417548769531251,-0.0242293208007798,0.0543187321258283,0.0646480000000338,
-0.00383072265624995,0.0297838686523437,-0.0218351191406239,0.0371285024725535,0.0684280000000399,
-0.0134075292968751,-0.0492247861328126,0.00210689746093884,0.0510615357052509,0.0722890000001826,
0.00814028564453129,-0.0204943662109374,0.00689530078125244,0.0231047282958816,0.076090000000022,
-0.00383072265624995,-0.0396479794921876,-0.0074699091796866,0.0405269818396929,0.0798249999998006,
0.0225054956054688,0.00344765039062511,-0.0194409174804662,0.0299388192510334,0.0835879999999634,
-0.0134075292968751,-0.0181001645507812,0.00689530078125244,0.0235568030826736,0.0873320000000604,
0.0177170922851563,0.0249954653320312,-0.0122583124999984,0.0329990131905961,0.091073999999935,
0.0129286889648438,-0.0420421811523437,-0.0074699091796866,0.044614969881744,0.0947919999998703,
0.0177170922851563,-0.00852335791015624,0.0164721074218761,0.0256490411521209,0.0986280000001898,
0.0105344873046875,-0.00134075292968738,0.0236547124023456,0.0259291044972396,0.102334000000155,
0.00814028564453129,0.00584185205078125,0.102663367187501,0.103151143706861,0.106213000000025,
0.000957680664062543,-0.0157059628906249,0.035625720703127,0.038945941999048,0.110156000000188,
-0.032561142578125,-0.0588015927734374,0.0164721074218761,0.0692039423848381,0.113901000000169,
0.0296881005859375,0.0489374819335937,0.0380199223632829,0.068715172639757,0.117678000000069,
-0.0134075292968751,-0.0707726010742187,-0.00986411083984251,0.0727036696963624,0.121505999999954,
0.0368707055664063,-0.0348595761718749,-0.0194409174804662,0.0543377240260361,0.125313999999889,
-0.0277727392578125,-0.0252827695312499,0.0523851323242202,0.0644573158739859,0.129116000000067,
0.0368707055664063,-0.0133117612304687,0.0523851323242202,0.0654282355306002,0.132885999999871,
0.000957680664062543,0.0130244570312501,0.035625720703127,0.0379439798760015,0.13665200000014,
0.015322890625,0.00823605371093761,0.0332315190429711,0.037509431023924,0.140440000000126,
0.0105344873046875,-0.0133117612304687,0.0116837041015643,0.0206079438897369,0.144182999999884,
-0.0014365209960937,-0.0444363828125001,0.0452025273437524,0.0634028720823746,0.148015000000214,
0.00814028564453129,0.0106302553710937,0.0619619389648456,0.0633920220525618,0.151769999999942,
0.0201112939453125,-0.0324653745117187,0.0763271489257829,0.0853481010303074,0.155491999999867,
0.0320823022460938,-0.0468305844726562,0.0332315190429711,0.065777744088435,0.159209999999803,
0.0105344873046875,0.0178128603515626,0.0188663090820338,0.0280037682295745,0.162949000000026,
0.0464475122070312,-0.0779552060546874,0.0547793339843761,0.105996042251694,0.166647999999896,
0.0871489404296875,0.0130244570312501,0.0236547124023456,0.0912366139102815,0.170447999999851,
-0.0565031591796875,-0.0588015927734374,0.0404141240234388,0.0910139315190821,0.174159000000145,
0.0320823022460938,0.0561200869140626,0.00210689746093884,0.0646774867288654,0.178142000000207,
-0.0110133276367188,-0.14020444921875,0.0260489140625015,0.14302841287731,0.181974999999966,
0.000957680664062543,0.125551935058594,-0.0122583124999984,0.1261525733965,0.185769000000164,
0.00574608398437504,-0.092320416015625,0.00450109912109475,0.0926085125015594,0.189566999999897,
0.0129286889648438,-0.0204943662109374,-0.0338061274414052,0.04159356076753,0.193413999999848,
-0.0684741674804688,0.00823605371093761,-0.00268150585937299,0.069019813579483,0.197255999999925,
0.0608127221679687,-0.0731668027343749,0.0595677373046897,0.112249202792047,0.201040999999805,
-0.0493205541992188,0.0226012636718751,-0.00268150585937299,0.0543187321258288,0.204787000000124,
0.0320823022460938,-0.0468305844726562,-0.0505655390624984,0.0760213884386582,0.208536000000095,
-0.032561142578125,-0.0564073911132812,-0.0984495722656238,0.11804380567181,0.212319000000207,
0.0105344873046875,0.0489374819335937,0.0428083256835947,0.0658665720119557,0.216113999999834,
0.0177170922851563,-0.152175457519531,0.0332315190429711,0.156766064848942,0.219985000000179,
-0.0349553442382813,0.149493951660156,-0.0697191523437475,0.168615176889023,0.223747999999887,
0.000957680664062543,-0.149781255859375,0.0667503422851574,0.163984602796273,0.227503999999954,
0.00574608398437504,0.113580926757813,0.0140779057617202,0.114594205067075,0.23126400000001,
-0.0397437475585938,-0.113868230957031,-0.0433829340820289,0.128170271361384,0.234968000000208,
0.0656011254882812,-0.0252827695312499,-0.0242293208007798,0.0743625314722853,0.238660999999865,
0.00814028564453129,0.0106302553710937,0.0308373173828134,0.0336185473064734,0.242479000000003,
0.0416591088867188,-0.0181001645507812,-0.0362003291015611,0.0580823651125036,0.246295999999802,
-0.0541089575195313,-0.00612915624999988,-0.0338061274414052,0.0640952423567606,0.250263999999788,
-0.0205901342773438,0.0585142885742187,0.0188663090820338,0.0648368199041626,0.25405499999988,
0.00335188232421879,-0.0635899960937499,-0.0242293208007798,0.0681320974635718,0.257857999999942,
-0.0014365209960937,0.0537258852539062,0.0116837041015643,0.0550003934569656,0.261657000000014,
0.024899697265625,-0.0396479794921876,0.00210689746093884,0.0468657254146739,0.265498000000207,
0.00335188232421879,0.0154186586914062,0.0308373173828134,0.0346397213373008,0.269478000000163,
-0.0181959326171875,0.0106302553710937,0.0212605107421897,0.0299349897291224,0.273263999999926,
0.03447650390625,-0.0276769711914062,0.0452025273437524,0.0632290481834915,0.277055999999902,
-0.0014365209960937,0.00344765039062511,-0.0242293208007798,0.0245155026922822,0.2808500000001,
0.03447650390625,-0.0276769711914062,0.0308373173828134,0.0539034711247427,0.284639999999854,
0.00814028564453129,0.00105344873046875,-0.0074699091796866,0.0110983578855187,0.288382000000183,
-0.0014365209960937,0.0776679018554689,0.0619619389648456,0.0993662339604668,0.292201000000205,
0.132638771972656,-0.243155120605469,0.160124207031252,0.319933146429784,0.295954000000165,
-0.449152231445313,0.314693866210938,-0.0122583124999984,0.548561958823649,0.299665000000005,
0.558806667480469,-0.382018816894531,0.133787988769534,0.690001807259315,0.30307300000004,
-0.391691391601563,-0.135416045898437,-0.038594530761717,0.416232134206687,0.305979000000207,
-0.137906015625,0.673824115234375,0.0787213505859388,0.692281776775198,0.308914000000186,
0.4367023828125,-0.717207049316406,-0.00986411083984251,0.839757240770166,0.311932999999954,
-0.123540805664063,-0.123445037597656,0.0547793339843761,0.183034923999176,0.314870000000155,
-0.161848032226563,0.769592181640625,-0.0050757075195289,0.78644305221981,0.317877999999837,
-0.0493205541992188,-0.341317388671875,-0.076901757324217,0.353332643773341,0.320792999999867,
0.273896669921875,-0.489757891601562,0.0643561406250015,0.564821999409057,0.323719999999867,
-0.104387192382812,0.757621173339844,0.0739329472656269,0.768344069358116,0.326778999999988,
-0.267192905273438,-0.281462347167969,-0.0505655390624984,0.391369359100126,0.329780999999912,
0.434308181152344,-0.0779552060546874,0.0547793339843761,0.444636239862045,0.332894000000124,
-0.257616098632813,0.376943109375,-0.0314119257812475,0.457644918098487,0.335919999999987,
-0.135511813964844,-0.286250750488281,-0.0697191523437475,0.324289537424008,0.338839000000007,
0.305021291503906,-0.133021844238281,0.0691445439453133,0.339873163507609,0.341862000000219,
0.0177170922851563,0.175830169921875,-0.00268150585937299,0.176740868186931,0.344814999999926,
-0.231279880371094,0.1087925234375,-0.0146525141601543,0.256009555273978,0.347850999999991,
0.278685073242187,-0.168934869140625,-0.0194409174804662,0.326469461561178,0.350805000000037,
-0.00861912597656256,-0.0564073911132812,0.0284431157226575,0.063758089187326,0.353719000000183,
-0.305500131835938,0.115975128417969,0.0547793339843761,0.331332667262242,0.356740000000173,
0.237983645019531,0.00105344873046875,0.0284431157226575,0.239679652626214,0.359696999999869,
0.108696755371094,-0.317375372070313,0.0116837041015643,0.335676362537647,0.362739000000147,
-0.178607443847656,0.0680910952148439,-0.0338061274414052,0.194113035363252,0.365678000000116,
0.024899697265625,0.214137396484375,0.0116837041015643,0.215896568843878,0.368722000000162,
0.132638771972656,-0.221607305664063,0.0954807622070337,0.275353259842217,0.371692000000166,
-0.0205901342773438,-0.156963860839844,-0.000287304199217076,0.158308843034784,0.374596000000111,
-0.0852335791015625,0.142311346679687,0.00928950244140836,0.166143243184481,0.377628000000186,
-0.0301669409179688,0.0609084902343751,0.0260489140625015,0.0727903457253417,0.380572999999913,
0.11109095703125,-0.176117474121094,0.0619619389648456,0.217250655477024,0.383581000000049,
-0.0445321508789063,-0.0157059628906249,0.0475967290039083,0.0670465386436529,0.386512000000039,
-0.104387192382812,0.111186725097656,0.0595677373046897,0.163729927316629,0.389455999999882,
0.0967257470703125,-0.0803494077148437,-0.000287304199217076,0.125745695791701,0.392479000000094,
0.0368707055664063,-0.0779552060546874,0.0763271489257829,0.115162045584177,0.395427999999811,
-0.0277727392578125,0.0513316835937501,-0.040988732421873,0.0713186018651741,0.398451999999907,
-0.0948103857421875,-0.0564073911132812,-0.0050757075195289,0.110438063291661,0.401374999999916,
0.101514150390625,-0.0181001645507812,-0.0481713374023425,0.113812198087139,0.404296000000159,
0.0656011254882812,0.0393606752929687,0.0332315190429711,0.0834092577760472,0.407338999999865,
-0.236068283691406,-0.14020444921875,0.00450109912109475,0.27460113262519,0.410264999999981,
0.199676418457031,0.125551935058594,0.00928950244140836,0.236051382839402,0.413319000000229,
-0.0636857641601563,-0.130627642578125,-0.0170467158203103,0.146321727991573,0.416225999999824,
0.000957680664062543,0.0273896669921876,-0.0194409174804662,0.0336014922686411,0.419158000000152,
-0.0158017309570313,0.0226012636718751,0.00689530078125244,0.028426343304547,0.422199999999975,
-0.130723410644531,-0.106685625976563,0.0619619389648456,0.179749032711815,0.425126000000091,
0.166157595214844,0.137522943359375,-0.0050757075195289,0.215746771017852,0.428159999999934,
0.00814028564453129,-0.164146465820312,0.0523851323242202,0.172495010305515,0.431106999999884,
-0.169030637207031,0.0154186586914062,0.00210689746093884,0.169745487030931,0.434041999999863,
0.0775721337890625,0.118369330078125,-0.0074699091796866,0.141719913162848,0.437077000000045,
0.142215578613281,-0.202453692382813,-0.24689007519531,0.349524645182125,0.440009999999802,
2.66570412841797,5.63939835839844,-4.49180961865234,7.68668628182452,0.443051000000196,
-7.75625569824219,-11.3474624204102,9.37480784655762,16.6376509158899,0.445992999999817,
-8.12256855224609,-20.6704836850586,-7.65455001171875,23.4912143479667,0.44888200000014,
18.2639279443359,18.5555177645264,-3.613137609375,26.2856056968416,0.451912999999877,
-7.34445301269531,12.3934412416992,4.22308442431641,15.0124221204323,0.454859999999826,
-18.8342267797852,-20.6704836850586,-3.14387408398437,28.1403791449689,0.457848000000013,
18.739775524292,4.33455845361328,2.70276637011719,19.4235045689515,0.460794999999962,
9.39101659179688,18.5555177645264,3.89986720019531,21.1590972471941,0.463807999999972,
-20.486225925293,-13.3729570249023,-5.8948117915039,25.1648611819991,0.466815000000224,
7.45171324707031,-7.50716295751953,1.67565385791016,10.709497739803,0.469836000000214,
14.1554778955078,13.3726697207031,2.59263309375,19.64503999151,0.472960000000057,
-12.1951055761719,-8.82157966894531,-2.8853003046875,15.3253328093636,0.475942000000032,
-2.46267582763672,0.422432940917969,0.387573364746096,2.52852426024735,0.47894099999985,
7.20271627441406,7.07352515283203,1.5750973881836,10.2173779219387,0.481901999999991,
-2.41958019775391,-8.37865236181641,-1.467932921875,8.84369893181914,0.484781000000112,
-0.525766684570313,1.39926721826172,0.0643561406250015,1.49616879647388,0.487841000000117,
0.752737001953125,5.7782620546875,0.904720923339845,5.89690133170631,0.490795000000162,
-1.16501852783203,-5.13211491064453,-0.570107299316405,5.29347654750502,0.493817999999919,
2.06475951171875,-0.7339664609375,0.117028577148439,2.19445535267491,0.496772999999848,
-0.853772312011719,3.69051820703125,0.198431433593752,3.79318162378564,0.499690999999984,
-1.54330239013672,-1.98134552587891,-0.172669823730468,2.51740485984062,0.502727999999934,
2.44543757568359,-0.444268060058594,0.24392126513672,2.49740598008001,0.505686999999853,
-0.736456430664063,0.726496551757813,-0.0816901606445288,1.03770833875833,0.508734000000004,
-1.15783592285156,-0.475392681640625,-0.13915100048828,1.25934317282458,0.511676999999963,
1.47818010498047,0.544537225585938,0.251103870117189,1.59517722099983,0.514622000000145,
-0.492247861328125,-0.61904478125,-0.0242293208007798,0.791272050663639,0.517623000000185,
-0.279163913574219,-0.0827436093749999,-0.0721133540039052,0.299965550288977,0.520550000000185,
0.508528432617187,0.58763285546875,0.241527063476564,0.81378674233368,0.523595000000114,
-0.391691391601563,-0.492152093261719,-0.17745822705078,0.65354973147012,0.526499999999942,
0.252348854980469,0.0178128603515626,0.0763271489257829,0.264240565142819,0.529456000000209,
0.024899697265625,0.197377984863281,0.0452025273437524,0.20401306897077,0.53248799999983,
-0.34859576171875,-0.0995030209960938,-0.0146525141601543,0.362814763270237,0.53539499999988,
0.431913979492188,-0.152175457519531,0.0643561406250015,0.462437853541642,0.53843599999982,
-0.185790048828125,-0.0516189877929687,0.0212605107421897,0.193996060427387,0.541369000000032,
-0.0397437475585938,0.247656219726563,0.0547793339843761,0.256737110817709,0.544304000000011,
0.0560243188476562,-0.183300079101562,-0.00268150585937299,0.191689420090564,0.547313000000031,
0.0799663354492187,-0.0731668027343749,0.0619619389648456,0.124849019651062,0.550267000000076,
0.0368707055664063,0.12794613671875,0.0547793339843761,0.14398068711459,0.553312999999889,
-0.209732065429688,-0.0827436093749999,0.0380199223632829,0.228647236279635,0.556228999999803,
0.209253225097656,0.0633026918945312,-0.0553539423828102,0.225517631133763,0.559247000000141,
0.0679953271484375,-0.231184112304688,0.0236547124023456,0.242134267948523,0.562206999999944,
-0.212126267089844,0.0345722719726562,-0.0242293208007798,0.21628651175071,0.565132000000176,
0.063206923828125,0.099215716796875,0.0308373173828134,0.121613378469231,0.568167999999787,
0.063206923828125,-0.243155120605469,0.0571735356445338,0.257659350838605,0.571111000000201,
-0.0110133276367188,-0.0635899960937499,0.0691445439453133,0.0945830267344105,0.574090999999953,
-0.0277727392578125,0.175830169921875,0.0643561406250015,0.189286255541132,0.577049999999872,
-0.142694418945313,-0.17851167578125,-0.0577481440429679,0.235717974980225,0.579949999999826,
0.127850368652344,-0.0157059628906249,0.0811155522460947,0.152223936524618,0.582985000000008,
0.0392649072265625,0.0345722719726562,0.00210689746093884,0.0523585135939971,0.585943999999927,
-0.152271225585938,-0.0492247861328126,-0.0505655390624984,0.167828720581269,0.588933999999881,
0.120667763671875,-0.00852335791015624,-0.00986411083984251,0.121369920088533,0.591862000000219,
-0.0014365209960937,-0.0659841977539062,0.0332315190429711,0.0738939226438965,0.594783000000007,
-0.0995987890625,0.0537258852539062,0.00210689746093884,0.113184930737016,0.597799000000123,
0.0536301171875,-0.0516189877929687,-0.0146525141601543,0.0758643891528111,0.600723000000016,
0.0201112939453125,-0.0731668027343749,0.0595677373046897,0.0964684429962784,0.603783999999905,
-0.0397437475585938,0.0489374819335937,-0.0050757075195289,0.0632471771293063,0.606815999999981,
-0.00622492431640631,-0.0516189877929687,-0.0673249506835916,0.0850642026240396,0.609809000000041,
-0.00383072265624995,-0.0588015927734374,0.0332315190429711,0.0676508359642778,0.612900999999965,
-0.0301669409179688,-0.0109175595703124,0.0380199223632829,0.0497468785737316,0.615850000000137,
0.0105344873046875,-0.0899262143554688,-0.0074699091796866,0.0908487699103907,0.618857999999818,
0.0201112939453125,-0.0348595761718749,-0.00268150585937299,0.0403341625512587,0.62179100000003,
-0.0158017309570313,0.0106302553710937,0.0236547124023456,0.0303684449606949,0.624749000000065,
0.0105344873046875,-0.0659841977539062,-0.0122583124999984,0.0679349394740794,0.627782000000025,
0.000957680664062543,-0.00612915624999988,0.0452025273437524,0.0456262225792791,0.630723000000216,
-0.0181959326171875,-0.0109175595703124,-0.000287304199217076,0.0212218664231834,0.633710000000065,
-0.00861912597656256,-0.0324653745117187,0.0260489140625015,0.0425068911898012,0.636646999999812,
-0.0205901342773438,-0.0204943662109374,0.0140779057617202,0.0322825046516365,0.639572999999928,
-0.00383072265624995,-0.0133117612304687,0.0452025273437524,0.0472773296770112,0.64258000000018,
0.0751779321289062,0.192589581542969,-0.244495873535154,0.320188539104373,0.645568999999796,
0.0129286889648438,0.221320001464844,-0.0433829340820289,0.225902131500156,0.648628999999801,
-0.614352145996094,-1.04521267675781,1.06034403125,1.61066059849763,0.651573999999982,
0.348116921386719,-1.18407637304688,-1.00585200146484,1.59215592735587,0.654613000000154,
1.33931640869141,3.91796736474609,0.21279664355469,4.14602449646811,0.657596999999896,
-2.45309902099609,-2.50567568945313,0.0835097539062524,3.50757456749331,0.660499999999956,
0.925119521484375,-1.62460947851563,-0.289985705078124,1.89190216339639,0.663555999999971,
2.07912472167969,3.63066316552734,0.514466052734377,4.21534695478709,0.66653899999983,
-3.04446683105469,-2.3428699765625,-0.637144945800779,3.89406878398798,0.6695279999999,
1.15256867919922,-0.200059490722656,0.162518408691408,1.18103793049285,0.672497000000021,
1.05440641113281,1.86134813867188,0.198431433593752,2.14843310508224,0.67546399999992,
-1.72047331298828,-2.27343812841797,-0.402513183105468,2.87933433401249,0.67845699999998,
1.09989624267578,1.30110495019531,0.308564709960939,1.73143235972657,0.681438000000071,
-0.260010300292969,0.427221344238281,0.0284431157226575,0.500931576228946,0.684470000000147,
-0.499430466308594,-1.55996603369141,-0.222948058593749,1.65306704455047,0.68741399999999,
1.00891657958984,1.15984705224609,0.188854626953127,1.54881371355526,0.690383000000111,
-0.853772312011719,-0.106685625976563,-0.108026378906247,0.867167043935275,0.693382999999812,
0.082360537109375,-0.621438982910156,0.00450109912109475,0.626889087037454,0.696336999999858,
0.6665457421875,0.496653192382813,0.0811155522460947,0.835181029926155,0.699399000000085,
-0.702937607421875,-0.264702935546875,-0.076901757324217,0.755051524264852,0.702350000000024,
-0.228885678710938,-0.202453692382813,-0.0146525141601543,0.305926212753361,0.70526000000018,
0.585142885742188,0.293146051269531,0.0811155522460947,0.659474439933651,0.708312000000205,
-0.429998618164063,-0.393989825195313,-0.0721133540039052,0.587645411626883,0.711229999999887,
0.0464475122070312,0.0920331118164064,0.0332315190429711,0.10831342907847,0.714286999999786,
0.190099611816406,0.305117059570313,-0.00268150585937299,0.359501700868377,0.717239000000063,
-0.358172568359375,-0.595102764648438,-0.00986411083984251,0.694645369883098,0.720151999999871,
0.388818349609375,0.367366302734375,0.105057568847657,0.545137415841055,0.723205000000235,
-0.08044517578125,0.156676556640625,-0.0529597407226543,0.183912217768831,0.726136000000224,
-0.224097275390625,-0.597496966308594,-0.0505655390624984,0.640139896683651,0.729147999999896,
0.412760366210938,0.372154706054687,0.0571735356445338,0.55869406505827,0.732128999999986,
-0.307894333496094,0.14709975,-0.0601423457031238,0.346488612793754,0.735050000000228,
-0.113963999023438,-0.465815875,-0.0673249506835916,0.484257030367116,0.738050999999814,
0.434308181152344,0.226108404785156,0.0882981572265642,0.497539115547664,0.741019000000051,
-0.341413156738281,0.08963891015625,-0.0338061274414052,0.354599678596277,0.744105000000218,
-0.111569797363281,-0.209636297363281,-0.00986411083984251,0.237681504409852,0.747112999999899,
0.419942971191406,0.00584185205078125,0.121816980468752,0.437293497572253,0.750234999999975,
-0.303105930175781,-0.0564073911132812,-0.0290177241210916,0.309672451136842,0.75322099999994,
-0.0876277807617187,-0.0252827695312499,-0.0601423457031238,0.109247188261612,0.756128999999873,
0.429519777832031,0.180618573242188,0.117028577148439,0.48042272679205,0.759171000000151,
-0.324653745117188,-0.171329070800781,0.0116837041015643,0.367274030747626,0.762091000000055,
-0.0924161840820312,-0.0420421811523437,-0.0481713374023425,0.112377817310449,0.765108000000055,
0.30262708984375,0.0968215151367189,0.0811155522460947,0.327928794278355,0.768102999999883,
-0.171424838867188,-0.1593580625,-0.00986411083984251,0.234262178225713,0.771010999999817,
-0.051714755859375,0.0848505068359375,-0.0338061274414052,0.104961320192225,0.774049000000105,
0.127850368652344,-0.106685625976563,0.0188663090820338,0.167581255434282,0.77700300000015,
-0.00861912597656256,-0.0588015927734374,0.0164721074218761,0.0616704707960856,0.780037999999877,
-0.032561142578125,0.154282354980469,-0.0074699091796866,0.157857760681777,0.782975999999962,
0.0368707055664063,-0.154569659179687,-0.0457771357421866,0.16536860229393,0.785942999999861,
0.015322890625,-0.0635899960937499,0.0404141240234388,0.0768881005155592,0.788989000000129,
-0.0014365209960937,0.106398321777344,0.0284431157226575,0.110143893619301,0.791936999999962,
0.0105344873046875,-0.104291424316406,0.0164721074218761,0.106108467765938,0.794969999999921,
0.0656011254882812,-0.0588015927734374,0.0619619389648456,0.107705231341405,0.797919999999976,
0.0225054956054688,0.0513316835937501,-0.0290177241210916,0.063114716082578,0.800857000000178,
-0.0493205541992188,-0.0396479794921876,-0.0218351191406239,0.0669421524319038,0.803849999999784,
0.015322890625,-0.0588015927734374,0.00689530078125244,0.0611552406802788,0.806790000000092,
0.0201112939453125,-0.0109175595703124,0.0595677373046897,0.0638120096747203,0.809820999999829,
-0.0158017309570313,-0.0683783994140624,0.0404141240234388,0.0809851938828904,0.812730999999985,
0.0392649072265625,-0.0468305844726562,0.00689530078125244,0.0615010711648593,0.815695000000233,
0.0392649072265625,-0.0204943662109374,0.0260489140625015,0.0513838292630489,0.818722999999864,
-0.0445321508789063,-0.0204943662109374,-0.0170467158203103,0.0519010792618814,0.821637999999894,
0.0392649072265625,-0.0492247861328126,0.071538745605471,0.0953027000254242,0.824668000000202,
0.0272938989257813,-0.00373495458984374,0.0212605107421897,0.034798220089219,0.827624000000014,
-0.04213794921875,0.00105344873046875,-0.0242293208007798,0.0486186847318681,0.83055400000012,
-0.0181959326171875,-0.0324653745117187,0.00928950244140836,0.0383586673595984,0.833569999999781,
0.0105344873046875,-0.0324653745117187,0.0499909306640642,0.0605315546935485,0.836530000000039,
-0.0349553442382813,-0.0181001645507812,-0.0362003291015611,0.0534785552781995,0.839539000000059,
-0.0229843359375,-0.0372537778320312,-0.0050757075195289,0.0440668409132082,0.842470999999932,
0.0177170922851563,-0.0252827695312499,-0.0266235224609357,0.0407667234695037,0.845480999999836,
0.000957680664062543,0.00105344873046875,-0.000287304199217076,0.0014523946381522,0.848461999999927,
-0.0397437475585938,0.0154186586914062,-0.00268150585937299,0.042714060676985,0.851403000000118,
-0.00622492431640631,0.00584185205078125,-0.0170467158203103,0.0190648220129803,0.854424999999992,
0.0201112939453125,-0.0420421811523437,0.0380199223632829,0.0601458530300411,0.857395999999881,
-0.0014365209960937,-0.00373495458984374,-0.0122583124999984,0.0128949487671735,0.860383000000184,
-0.0349553442382813,-0.00612915624999988,-0.0218351191406239,0.0416679142151236,0.863319999999931,
0.0201112939453125,-0.0492247861328126,-0.000287304199217076,0.0531754290784643,0.866253000000142,
-0.0205901342773438,-0.0109175595703124,0.0643561406250015,0.0684460340171389,0.869285000000218,
-0.0014365209960937,0.00344765039062511,-0.000287304199217076,0.00374598845314335,0.872230999999829,
0.0201112939453125,-0.0252827695312499,-0.0050757075195289,0.0327023758486882,0.875262000000021,
-0.00622492431640631,-0.0492247861328126,0.0571735356445338,0.0757010068008537,0.878203000000212,
0.000957680664062543,0.0321780703125001,0.0380199223632829,0.0498182683139486,0.881175999999869,
-0.0110133276367188,-0.00373495458984374,0.0260489140625015,0.0285269906449576,0.884286999999858,
0.0201112939453125,-0.0181001645507812,0.0404141240234388,0.0486351880997906,0.88734199999999,
-0.00383072265624995,-0.0468305844726562,0.0523851323242202,0.0703703074225611,0.890456000000086,
-0.00622492431640631,-0.0204943662109374,0.0212605107421897,0.0301790994920617,0.893422999999984,
0.015322890625,-0.0157059628906249,0.0691445439453133,0.0725426509360718,0.896372000000156,
0.0105344873046875,-0.0372537778320312,-0.0433829340820289,0.0581454929903997,0.899398000000019,
0.0105344873046875,-0.0396479794921876,-0.00986411083984251,0.0421928712372866,0.902365999999802,
-0.0253785375976563,-0.0157059628906249,0.0284431157226575,0.0412281247806618,0.905412000000069,
0.024899697265625,-0.0348595761718749,0.035625720703127,0.0557169359389022,0.908374000000094,
-0.0445321508789063,-0.00373495458984374,0.0691445439453133,0.0823287939004042,0.911293000000114,
0.00335188232421879,0.00344765039062511,-0.0146525141601543,0.0154213352062949,0.914354000000003,
0.0512359155273437,-0.0372537778320312,-0.0074699091796866,0.0637868524528073,0.917292999999972,
-0.0014365209960937,-0.0228885678710937,0.0116837041015643,0.0257382803095854,0.920352000000094,
-0.00622492431640631,-0.0252827695312499,0.0284431157226575,0.0385613660277715,0.92330099999981,
-0.00383072265624995,-0.0228885678710937,0.00450109912109475,0.023639392305148,0.926256000000194,
-0.0014365209960937,0.0130244570312501,-0.0697191523437475,0.0709398356148488,0.929293000000143,
-0.00383072265624995,-0.00852335791015624,-0.0122583124999984,0.0154138992951604,0.932225999999901,
0.0105344873046875,-0.0157059628906249,0.00689530078125244,0.0201295272164611,0.935273000000052,
-0.00861912597656256,-0.0204943662109374,-0.000287304199217076,0.0222349032534606,0.938195000000178,
0.000957680664062543,-0.0396479794921876,-0.0505655390624984,0.0642631556239522,0.941196000000218,
-0.0014365209960937,-0.0468305844726562,0.0475967290039083,0.0667878420559782,0.944144000000051,
0.0105344873046875,-0.0109175595703124,0.0859039555664083,0.0872333543531337,0.94709499999999,
-0.0158017309570313,-0.0157059628906249,0.0164721074218761,0.027707441139122,0.950114000000212,
-0.0014365209960937,0.0226012636718751,0.0140779057617202,0.0266658609981698,0.953084000000217,
-0.00861912597656256,-0.0516189877929687,-0.00268150585937299,0.0524022872310394,0.956079000000045,
0.000957680664062543,-0.0133117612304687,-0.000287304199217076,0.0133492577701615,0.9590290000001,
-0.0014365209960937,-0.00612915624999988,-0.0074699091796866,0.00976881221346263,0.961942999999792,
-0.0205901342773438,-0.0276769711914062,-0.0792959589843729,0.0864743746733119,0.964942000000065,
0.0105344873046875,-0.00852335791015624,0.0332315190429711,0.0358881165671952,0.967909999999847,
0.00335188232421879,-0.0228885678710937,0.00928950244140836,0.0249282271715019,0.970949000000019,
-0.0205901342773438,-0.00373495458984374,-0.0242293208007798,0.0320150511761943,0.973861999999826,
0.00335188232421879,-0.0372537778320312,0.00689530078125244,0.0380345139411258,0.976807000000008,
0.0225054956054688,-0.00373495458984374,0.00210689746093884,0.0229103957876524,0.979867000000013,
0.0129286889648438,0.00344765039062511,-0.0481713374023425,0.0499951501517494,0.982837000000018,
-0.00861912597656256,-0.0109175595703124,0.0260489140625015,0.0295301263696376,0.985865000000103,
0.00814028564453129,-0.00852335791015624,-0.0266235224609357,0.029115697289729,0.988804999999957,
-0.0229843359375,0.0130244570312501,-0.0601423457031238,0.0656887960471251,0.99173299999984,
0.024899697265625,-0.0540131894531251,-0.0242293208007798,0.064222111031062,0.9947659999998,
0.015322890625,-0.0348595761718749,-0.00986411083984251,0.0393355019117483,0.997703000000001,
-0.00861912597656256,-0.0133117612304687,-0.0194409174804662,0.0250886745791634,1.00070400000004,
0.0225054956054688,0.0130244570312501,-0.0457771357421866,0.0526467470045893,1.00367099999994,
0.0320823022460938,0.00344765039062511,0.0188663090820338,0.0373777745325283,1.00663500000019,
0.015322890625,-0.00134075292968738,0.0404141240234388,0.043242224920858,1.00965899999983,
0.0296881005859375,-0.0492247861328126,0.0667503422851574,0.0880912656363135,1.01261599999998,
