X,Y,Z,Magnitude,Seconds,
0.0177170922851563,-0.0372537778320312,0.00210689746093884,0.041305911667823,0.0,
0.000957680664062543,-0.0109175595703124,0.0164721074218761,0.0197848573950753,0.00306700000055571,
-0.0181959326171875,-0.0252827695312499,0.0140779057617202,0.034183297524016,0.00605200000063633,
-0.0134075292968751,-0.0516189877929687,0.0236547124023456,0.0583423273572018,0.00905800000055024,
-0.0229843359375,-0.0204943662109374,0.0404141240234388,0.0508094495685375,0.0119960000001811,
-0.0541089575195313,-0.0707726010742187,-0.00268150585937299,0.0891276097532902,0.0149670000000697,
0.0105344873046875,0.00105344873046875,0.00689530078125244,0.0126344904869286,0.0179990000006001,
-0.0134075292968751,-0.0228885678710937,-0.0122583124999984,0.0292218173011852,0.0208830000001399,
0.0272938989257813,-0.0133117612304687,0.0380199223632829,0.0486587546299516,0.0239170000004378,
-0.00861912597656256,0.0106302553710937,-0.0577481440429679,0.0593476183368962,0.026864000000387,
0.0225054956054688,-0.00134075292968738,-0.0529597407226543,0.0575589184078107,0.0298800000000483,
0.00574608398437504,0.00584185205078125,0.00928950244140836,0.012387072783658,0.0328910000007454,
-0.00622492431640631,-0.0396479794921876,-0.0721133540039052,0.0825290723699864,0.0357900000008158,
0.0177170922851563,-0.0564073911132812,-0.0529597407226543,0.0793752056290766,0.0388419999999314,
-0.0373495458984375,-0.0324653745117187,0.0787213505859388,0.0929840855151027,0.0418079999999463,
0.00335188232421879,0.00105344873046875,0.0164721074218761,0.016842659892694,0.0448490000007951,
-0.0253785375976563,-0.00134075292968738,0.0404141240234388,0.0477406452574325,0.0477850000006583,
-0.0181959326171875,-0.0731668027343749,0.0212605107421897,0.0783357026087015,0.0507020000004559,
0.00335188232421879,-0.0444363828125001,-0.0074699091796866,0.0451843642837567,0.0537180000001172,
-0.00383072265624995,-0.0659841977539062,-0.0170467158203103,0.0682581812646229,0.0566400000006979,
-0.0253785375976563,-0.0109175595703124,-0.0194409174804662,0.0337818375765628,0.05962400000044,
0.00335188232421879,-0.0372537778320312,-0.0362003291015611,0.0520532698774542,0.0625780000000304,
-0.0205901342773438,-0.0133117612304687,0.0116837041015643,0.0271599992295465,0.0655070000002524,
0.000957680664062543,-0.0611957944335937,-0.0625365473632797,0.0875023551953472,0.0685280000006969,
-0.0373495458984375,-0.0181001645507812,0.00689530078125244,0.0420731471184269,0.0714760000000751,
-0.0134075292968751,-0.0348595761718749,0.00689530078125244,0.0379802193989615,0.0744620000004943,
0.0201112939453125,-0.0324653745117187,-0.0194409174804662,0.042853400784806,16.7937950000005,
-0.0158017309570313,0.00105344873046875,-0.0266235224609357,0.0309776758923918,16.7985820000004,
0.00814028564453129,0.00344765039062511,0.00689530078125244,0.0112114101010747,16.8023630000007,
-0.0493205541992188,-0.0396479794921876,0.0284431157226575,0.0693793209562005,16.8060370000003,
0.0105344873046875,-0.0300711728515624,0.0140779057617202,0.0348344411477641,16.8097470000002,
0.0177170922851563,-0.0109175595703124,-0.0218351191406239,0.030163900508676,16.8134580000005,
0.0177170922851563,-0.0204943662109374,0.00450109912109475,0.0274622340447145,16.8171920000004,
0.0129286889648438,-0.00373495458984374,0.00210689746093884,0.0136213032066972,16.8209230000002,
0.0201112939453125,-0.0540131894531251,0.0428083256835947,0.0717944393869515,16.8247620000002,
0.015322890625,-0.0588015927734374,-0.0697191523437475,0.0924833957709683,16.8284780000004,
-0.00861912597656256,-0.0324653745117187,0.0811155522460947,0.0877953454972126,16.832206,
-0.0158017309570313,-0.0348595761718749,-0.0673249506835916,0.0774437456265461,16.8359100000007,
-0.00383072265624995,-0.0827436093749999,-0.00986411083984251,0.0834175042250269,16.8395950000004,
-0.00383072265624995,-0.0300711728515624,0.00210689746093884,0.0303873146172635,16.843312,
-0.0110133276367188,-0.0300711728515624,0.0212605107421897,0.0384392786004241,16.8470780000007,
-0.0110133276367188,-0.00373495458984374,-0.0529597407226543,0.0542215585245636,16.850966,
-0.0253785375976563,-0.0157059628906249,0.0116837041015643,0.0320508405888246,16.8548230000006,
0.00814028564453129,-0.00373495458984374,0.035625720703127,0.0367342634577034,16.8585730000004,
-0.0014365209960937,-0.0468305844726562,-0.0194409174804662,0.050725895823584,16.8622810000006,
0.00574608398437504,-0.00612915624999988,0.0547793339843761,0.0554198472504591,16.8660340000006,
0.015322890625,-0.0420421811523437,-0.038594530761717,0.059092078808156,16.869882,
-0.0181959326171875,-0.0276769711914062,0.0284431157226575,0.0436591059247855,16.8736530000006,
-0.0205901342773438,0.0154186586914062,0.00210689746093884,0.0258094494771205,16.8773450000008,
0.0105344873046875,-0.00373495458984374,-0.0433829340820289,0.0447996013166019,16.881069,
-0.0014365209960937,-0.0181001645507812,-0.0457771357421866,0.04924658065385,16.8847960000003,
-0.0229843359375,-0.00134075292968738,-0.0314119257812475,0.0389459419990443,16.8884770000004,
-0.0301669409179688,-0.0252827695312499,-0.000287304199217076,0.0393617238344741,16.8921550000005,
-0.00383072265624995,-0.0348595761718749,-0.0074699091796866,0.0358561574921884,16.8959750000004,
-0.0445321508789063,-0.0276769711914062,0.0140779057617202,0.0542891759641595,16.8996690000004,
0.015322890625,0.0226012636718751,-0.0194409174804662,0.0335195072928232,16.9033760000002,
0.00335188232421879,-0.0204943662109374,-0.0601423457031238,0.0636266917902972,16.9070890000003,
0.000957680664062543,-0.0228885678710937,-0.0194409174804662,0.0300458476985802,16.9108249999999,
0.0105344873046875,-0.0564073911132812,0.0571735356445338,0.0810035948157615,16.9145610000005,
0.00814028564453129,-0.00852335791015624,-0.0290177241210916,0.031319964776592,16.9184160000004,
0.00335188232421879,-0.0276769711914062,0.0116837041015643,0.0302284434097796,16.9224170000007,
-0.0014365209960937,-0.0109175595703124,-0.0505655390624984,0.0517506564231275,16.9262290000006,
0.00814028564453129,-0.0157059628906249,0.0140779057617202,0.0226081611665372,16.930026,
-0.00861912597656256,-0.00134075292968738,0.00450109912109475,0.00981564283764648,16.9338090000001,
0.0129286889648438,-0.0204943662109374,0.00450109912109475,0.0246460937682953,16.9376790000006,
-0.0205901342773438,-0.0468305844726562,0.00928950244140836,0.0519937700808334,16.9415349999999,
-0.0110133276367188,-0.0300711728515624,0.00450109912109475,0.0323392751248412,16.9454490000007,
0.0296881005859375,-0.0444363828125001,-0.0146525141601543,0.0554136409656803,16.949278,
0.00814028564453129,-0.0300711728515624,0.0260489140625015,0.0406089351113606,16.9530770000001,
-0.0349553442382813,-0.00852335791015624,-0.0194409174804662,0.0408958799069498,16.9568680000002,
0.0129286889648438,-0.0444363828125001,-0.0050757075195289,0.0465564809949434,16.9606380000005,
-0.0110133276367188,-0.0659841977539062,0.0284431157226575,0.0726926307879471,16.9643830000005,
0.0225054956054688,-0.0444363828125001,-0.0218351191406239,0.0543862287513306,16.9682130000001,
-0.0541089575195313,0.0106302553710937,0.0452025273437524,0.0713025251401925,16.9719940000004,
-0.0253785375976563,-0.0276769711914062,-0.0170467158203103,0.0412392461762336,16.9756950000001,
-0.0397437475585938,-0.0899262143554688,0.0236547124023456,0.101122870396091,16.9794110000003,
0.0105344873046875,0.149493951660156,0.0452025273437524,0.156533336653904,16.983158,
0.0272938989257813,-0.303010162109375,-0.00268150585937299,0.304248756338944,16.9868700000006,
-0.0205901342773438,0.00105344873046875,0.0260489140625015,0.0332206157020361,16.9908420000002,
-0.231279880371094,0.348212689453125,-0.0050757075195289,0.418052894939707,16.9947930000008,
0.237983645019531,-0.496940496582031,-0.0553539423828102,0.553759994381409,16.9984140000006,
0.108696755371094,-0.0157059628906249,0.0404141240234388,0.117025481494874,17.001397,
-0.312682736816406,0.238079413085938,-0.0050757075195289,0.393036974908426,17.0043400000004,
0.14939818359375,-0.233578313964844,-0.0050757075195289,0.277316441673758,17.0073600000005,
0.168551796875,-0.0803494077148437,-0.0242293208007798,0.188289127504443,17.0103250000002,
-0.286346518554688,0.08963891015625,-0.0457771357421866,0.303521019138953,17.0133620000006,
0.024899697265625,-0.0133117612304687,0.0332315190429711,0.0436065564895938,17.0163380000004,
0.156580788574219,-0.0971088193359375,0.0523851323242202,0.191551215689095,17.0193160000008,
-0.178607443847656,0.0321780703125001,-0.00268150585937299,0.181502720862536,17.0223640000004,
0.00814028564453129,-0.00134075292968738,-0.038594530761717,0.0394664373045015,17.0253130000001,
0.113485158691406,-0.0588015927734374,-0.0146525141601543,0.1286514855224,17.0283400000008,
-0.173819040527344,0.250050421386719,-0.0242293208007798,0.30549195091195,17.0313020000003,
-0.15705962890625,0.123157733398437,-0.0314119257812475,0.202045201401311,17.0342460000002,
0.367270534667969,-0.472998479980469,0.0212605107421897,0.599222176672516,17.0372850000003,
0.204464821777344,-0.247943523925781,0.00689530078125244,0.321448906630648,17.0402630000008,
-0.319865341796875,0.187801178222656,-0.0984495722656238,0.38376482082642,17.0432940000001,
-0.0732625708007812,0.0537258852539062,-0.0721133540039052,0.115992287900308,17.0462520000001,
0.108696755371094,-0.128233440917969,-0.0194409174804662,0.169223961868135,17.0492039999999,
-0.154665427246094,0.0609084902343751,-0.0721133540039052,0.181194852006177,17.0522370000008,
-0.0301669409179688,0.0417548769531251,-0.00986411083984251,0.0524482102304696,17.0551920000007,
0.113485158691406,-0.173723272460937,0.0212605107421897,0.208592104248386,17.0582450000002,
-0.0014365209960937,-0.0611957944335937,0.00450109912109475,0.0613779173826287,17.0611850000005,
-0.00383072265624995,0.00105344873046875,-0.0266235224609357,0.0269183234716574,17.0642100000005,
0.0296881005859375,-0.104291424316406,0.00689530078125244,0.108653714502586,17.0671850000008,
0.00335188232421879,-0.0468305844726562,0.0380199223632829,0.0604140153745475,17.0701320000007,
-0.104387192382812,0.0585142885742187,0.0308373173828134,0.123578105035971,17.0731670000005,
0.0703895288085937,-0.0109175595703124,0.0571735356445338,0.0913383383413774,17.076161,
0.0919373437499999,-0.0755610043945312,0.00450109912109475,0.119089044224118,17.079178,
0.0871489404296875,0.0154186586914062,0.17448941699219,0.195650784552819,17.0821770000002,
-0.15705962890625,0.0656968935546876,0.0882981572265642,0.191782098811417,17.0851120000007,
0.0416591088867188,-0.116262432617187,0.0236547124023456,0.125745695791702,17.0881440000003,
0.108696755371094,0.0369664736328126,0.00450109912109475,0.114898932520484,17.0911190000006,
-0.113963999023438,0.080062103515625,0.0499909306640642,0.147975763696019,17.0941440000006,
-0.00383072265624995,-0.0468305844726562,0.00210689746093884,0.0470342119635336,17.0970790000001,
0.0584185205078125,-0.0635899960937499,-0.00986411083984251,0.0869120925083819,17.1000200000008,
-0.051714755859375,-0.0683783994140624,-0.0314119257812475,0.0913056984054687,17.1030150000006,
0.0464475122070312,0.0297838686523437,-0.0218351191406239,0.0593398908830107,17.1059920000007,
-0.0493205541992188,-0.10189722265625,0.0380199223632829,0.119419745218643,17.1090000000004,
0.0799663354492187,-0.137810247558594,-0.000287304199217076,0.159330981547974,17.1119510000008,
-0.0229843359375,0.0848505068359375,0.0404141240234388,0.0967532409244529,17.1149000000005,
-0.0134075292968751,-0.0468305844726562,0.0116837041015643,0.050093656538828,17.1180080000004,
0.139821376953125,-0.106685625976563,-0.0146525141601543,0.176483813462573,17.1210520000004,
-0.0181959326171875,0.0393606752929687,-0.0505655390624984,0.0666125248283594,17.1241810000001,
-0.0493205541992188,-0.0372537778320312,0.0308373173828134,0.0690746058450193,17.1271800000004,
0.0847547387695312,-0.0540131894531251,0.0499909306640642,0.112249202792046,17.1301280000007,
-0.0158017309570313,-0.0372537778320312,0.0212605107421897,0.0457115738190615,17.1331410000003,
-0.0780509741210937,0.00584185205078125,-0.038594530761717,0.08726751744694,17.1361020000004,
0.0703895288085937,-0.0516189877929687,-0.0984495722656238,0.131573264556105,17.1391530000001,
0.0201112939453125,-0.0348595761718749,-0.0601423457031238,0.0723654333346493,17.1421100000007,
-0.090021982421875,0.0249954653320312,-0.0290177241210916,0.0978302556446467,17.1450380000006,
0.082360537109375,-0.0540131894531251,-0.0481713374023425,0.10964105278122,17.1480730000003,
0.063206923828125,-0.0875320126953125,-0.0218351191406239,0.110153260933084,17.1510170000001,
-0.0636857641601563,0.00823605371093761,0.112240173828127,0.129311893336849,17.1541050000005,
-0.0852335791015625,0.0154186586914062,-0.0290177241210916,0.0913483790522424,17.1570590000001,
0.0608127221679687,-0.0300711728515624,0.0404141240234388,0.0789668540257809,17.1601210000008,
0.044053310546875,0.0345722719726562,0.0116837041015643,0.0572052891000791,17.1631040000002,
-0.0541089575195313,0.0680910952148439,0.00450109912109475,0.0870886698985884,17.1660440000005,
0.0560243188476562,0.0585142885742187,0.0404141240234388,0.0905314734789658,17.1690900000003,
-0.0158017309570313,-0.135416045898437,0.00928950244140836,0.136650997228762,17.1720420000001,
-0.0636857641601563,-0.137810247558594,0.00928950244140836,0.152098112231654,17.1750420000008,
0.0177170922851563,0.0130244570312501,0.0284431157226575,0.0359519494883394,17.1780240000007,
0.0225054956054688,0.00823605371093761,0.0164721074218761,0.029080237896122,17.1809650000005,
-0.00622492431640631,-0.0300711728515624,-0.0122583124999984,0.0330649564457772,17.1839560000008,
0.168551796875,-0.0971088193359375,-0.00986411083984251,0.194774566371669,17.1869030000007,
0.0488417138671875,-0.307798565429688,0.00928950244140836,0.311788012517587,17.1899410000005,
-0.0828393774414062,-0.0133117612304687,0.035625720703127,0.0911523856931566,17.1928720000005,
-0.178607443847656,0.312299664550781,0.0619619389648456,0.365062982725731,17.1958320000003,
0.082360537109375,-0.0228885678710937,0.0859039555664083,0.121188424340322,17.1988550000006,
0.209253225097656,-0.298221758789063,0.0284431157226575,0.36542049814019,17.2018280000002,
-0.04213794921875,0.0920331118164064,0.0164721074218761,0.102552575579022,17.2048480000003,
-0.147482822265625,0.159070758300781,0.0475967290039083,0.222081376125264,17.2078090000005,
-0.0445321508789063,-0.0228885678710937,0.0140779057617202,0.0520114067462822,17.2107250000008,
0.0320823022460938,-0.0468305844726562,0.0212605107421897,0.0606167227461124,17.2137760000005,
-0.15705962890625,0.0154186586914062,-0.00986411083984251,0.158122619351792,17.2167250000002,
-0.142694418945313,0.0920331118164064,0.0116837041015643,0.170200763248243,17.2197620000006,
0.400789357910156,0.0154186586914062,0.0882981572265642,0.410690161824561,17.2227419999999,
0.269108266601563,-0.257520330566406,0.0763271489257829,0.380212852848858,17.2256790000001,
-0.090021982421875,-0.14020444921875,-0.0290177241210916,0.169125022433303,17.2286700000004,
0.000957680664062543,0.0537258852539062,0.035625720703127,0.0644715431348391,17.2316520000004,
0.170945998535156,-0.137810247558594,0.00928950244140836,0.219773732741089,17.2346630000002,
0.235589443359375,-0.202453692382813,0.071538745605471,0.318759588882623,17.2376300000005,
0.326569106445312,-0.104291424316406,0.138576392089846,0.369766816946942,17.2405650000001,
0.259531459960938,-0.0947146176757813,0.0739329472656269,0.285995661159933,17.2435890000006,
0.142215578613281,-0.0947146176757813,0.0691445439453133,0.184328775722037,17.2465520000005,
0.082360537109375,-0.0588015927734374,0.071538745605471,0.123930131559852,17.2495790000003,
0.103908352050781,0.0656968935546876,0.0547793339843761,0.134587528695704,17.2525560000004,
0.0751779321289062,0.0393606752929687,0.131393787109376,0.156413910921123,17.2556260000001,
0.082360537109375,-0.00612915624999988,0.107451770507815,0.135523826741078,17.258664,
0.0296881005859375,0.0178128603515626,0.0284431157226575,0.0448072777829394,17.2617130000008,
0.0201112939453125,0.0609084902343751,0.0954807622070337,0.115025580974068,17.2648410000002,
0.11109095703125,0.139917145019531,0.0571735356445338,0.187581505971757,17.2678250000008,
-0.0852335791015625,0.12794613671875,0.0882981572265642,0.177289428554898,17.2708310000007,
-0.224097275390625,0.290751849609375,-0.00268150585937299,0.367101372051983,17.2737870000001,
-0.221703073730469,0.235685211425781,-0.0362003291015611,0.325592130760887,17.2767280000007,
-0.113963999023438,0.16625336328125,0.00210689746093884,0.201574831992122,17.2797710000004,
-0.0565031591796875,0.168647564941406,-0.0290177241210916,0.180212753353137,17.2827290000005,
-0.0253785375976563,0.180618573242188,0.0739329472656269,0.196807570642039,17.2857540000005,
-0.161848032226563,0.173435968261719,-0.0697191523437475,0.247256103718434,17.2887120000005,
-0.181001645507813,0.08963891015625,-0.0577481440429679,0.210075172333485,17.291655,
-0.137906015625,0.0680910952148439,0.0260489140625015,0.155990423798884,17.2946810000003,
-0.0756567724609375,-0.0731668027343749,-0.0362003291015611,0.111300458528428,17.2976340000005,
-0.109175595703125,-0.0420421811523437,0.00450109912109475,0.117077391440349,17.300671,
-0.0948103857421875,0.0824563051757814,-0.0912669672851543,0.155298779213661,17.3036220000004,
-0.224097275390625,0.00105344873046875,-0.0792959589843729,0.237715266028458,17.3065610000003,
-0.262404501953125,-0.106685625976563,-0.0936611689453102,0.298346040703544,17.309561,
-0.185790048828125,-0.10189722265625,-0.00986411083984251,0.212127996528688,17.3124870000001,
-0.121146604003906,-0.1210508359375,-0.0721133540039052,0.185822873641916,17.3154880000002,
-0.188184250488281,-0.0899262143554688,-0.040988732421873,0.212556139280177,17.3184250000004,
-0.200155258789062,-0.0204943662109374,-0.0577481440429679,0.209325093592985,17.321336,
-0.216914670410156,0.123157733398437,0.00928950244140836,0.249611891524816,17.3243790000006,
-0.11875240234375,0.28117504296875,0.0571735356445338,0.310532367119737,17.327354,
-0.145088620605469,0.297934454589844,0.0954807622070337,0.344865514385799,17.3303800000003,
-0.109175595703125,0.187801178222656,0.00450109912109475,0.217275983790773,17.3333440000006,
-0.0660799658203125,0.0393606752929687,0.0811155522460947,0.111783529459939,17.3362940000006,
0.024899697265625,0.0944273134765625,0.124211182128908,0.15800294370733,17.3393370000003,
0.015322890625,0.202166388183594,0.121816980468752,0.236527833919879,17.3423070000008,
-0.0541089575195313,0.295540252929688,0.172095215332034,0.346249308339776,17.3453360000003,
0.044053310546875,0.254838824707031,0.109845972167971,0.280979818402901,17.3483220000007,
-0.171424838867188,-0.0444363828125001,0.138576392089846,0.224865479660038,17.351318,
0.0967257470703125,-0.10189722265625,0.0284431157226575,0.143345474164272,17.3543,
0.192493813476563,-0.188088482421875,0.0667503422851574,0.277284607653759,17.3572620000004,
0.0775721337890625,-0.228789910644531,-0.0218351191406239,0.242567581472063,17.3602740000006,
0.0177170922851563,-0.0588015927734374,-0.0577481440429679,0.0842992930702345,17.3632460000008,
0.0177170922851563,-0.0995030209960938,0.0308373173828134,0.10566781293165,17.3662730000005,
0.0584185205078125,-0.231184112304688,-0.00986411083984251,0.23865480930224,17.3692340000007,
0.118273562011719,-0.264702935546875,-0.038594530761717,0.292482165888435,17.3721740000001,
0.0320823022460938,-0.257520330566406,0.0116837041015643,0.259773947334935,17.3752220000006,
-0.0732625708007812,-0.1593580625,-0.0792959589843729,0.19248440320022,17.3781580000004,
-0.0373495458984375,-0.195271087402344,-0.0816901606445288,0.214939685726583,17.3811720000003,
-0.0756567724609375,-0.346105791992187,-0.0697191523437475,0.361073298200346,17.3840950000003,
0.000957680664062543,-0.432297051757813,-0.122391588867186,0.44928983867453,17.3870350000007,
0.0871489404296875,-0.516094109863281,-0.0721133540039052,0.528344966739802,17.3900530000001,
0.151792385253906,-0.489757891601562,-0.122391588867186,0.527146489727962,17.3930120000005,
0.00814028564453129,-0.346105791992187,-0.0314119257812475,0.34762363639747,17.3961090000003,
0.000957680664062543,-0.25512612890625,-0.00268150585937299,0.255142017857931,17.3991570000007,
0.000957680664062543,-0.238366717285156,0.0547793339843761,0.244582060857553,17.4022000000004,
0.0512359155273437,-0.243155120605469,-0.0050757075195289,0.248546362925328,17.4052820000006,
-0.0469263525390625,-0.262308733886719,0.0691445439453133,0.275297879383912,17.4082370000006,
0.0225054956054688,-0.245549322265625,0.119422778808595,0.273975851300661,17.4112830000004,
0.0584185205078125,-0.111474029296875,0.160124207031252,0.203663802437717,17.4142580000007,
0.218830031738281,-0.130627642578125,0.229556055175783,0.342995840009704,17.4172410000001,
0.127850368652344,-0.286250750488281,0.0308373173828134,0.315017696428332,17.420271,
0.135032973632812,-0.231184112304688,0.0643561406250015,0.275357423336236,17.4232690000008,
0.185311208496094,-0.209636297363281,0.107451770507815,0.299722378463359,17.4263010000004,
0.211647426757813,-0.226395708984375,0.0811155522460947,0.320358210626683,17.4292860000005,
0.170945998535156,-0.276673943847656,0.0763271489257829,0.334061131056183,17.4322609999999,
0.0368707055664063,-0.286250750488281,0.0332315190429711,0.290522417279583,17.4352940000008,
-0.178607443847656,-0.180905877441406,-0.0457771357421866,0.258308152498905,17.4382600000008,
-0.11875240234375,-0.130627642578125,0.00928950244140836,0.17678237729915,17.4413020000002,
-0.149877023925781,-0.106685625976563,-0.0864785639648424,0.203281792387517,17.4442400000007,
-0.173819040527344,-0.137810247558594,0.00689530078125244,0.22192852082342,17.4472660000001,
-0.303105930175781,-0.0971088193359375,-0.0960553706054679,0.332460466706493,17.4502030000003,
-0.331836350097656,-0.0324653745117187,-0.122391588867186,0.355174696190135,17.4531340000003,
-0.451546433105469,0.0202070620117187,-0.119997387207029,0.467655727583797,17.456158,
-0.334230551757813,-0.0635899960937499,-0.110420580566405,0.35769603568415,17.4591020000007,
-0.236068283691406,-0.0252827695312499,-0.0912669672851543,0.254356270450732,17.4620810000006,
-0.317471140136719,-0.0779552060546874,-0.0816901606445288,0.336954331203601,17.4650260000008,
-0.437181223144531,0.0130244570312501,-0.0362003291015611,0.438870735158052,17.4679590000005,
-0.343807358398438,0.0585142885742187,-0.0266235224609357,0.349765969763336,17.4709800000001,
-0.362960971679688,0.0872447084960939,0.0140779057617202,0.373564577488106,17.4739290000007,
-0.243250888671875,0.00344765039062511,0.0547793339843761,0.249366510511425,17.47696,
-0.161848032226563,0.0537258852539062,0.0332315190429711,0.173740007309283,17.4799130000001,
-0.15705962890625,0.144705548339844,0.0787213505859388,0.227605961676267,17.4828690000004,
-0.209732065429688,0.159070758300781,0.0978749638671896,0.280839017887102,17.4858860000004,
-0.274375510253906,0.123157733398437,0.0571735356445338,0.306134874035986,17.4888510000001,
-0.200155258789062,0.211743194824219,0.071538745605471,0.300025166107925,17.4918880000005,
-0.0181959326171875,0.0633026918945312,0.12899958544922,0.144842037444154,17.4948650000006,
0.015322890625,-0.0133117612304687,0.12899958544922,0.130586703037612,17.4978010000004,
0.120667763671875,-0.0995030209960938,0.227161853515627,0.275797150220186,17.5008430000007,
0.281079274902344,-0.0611957944335937,0.301382104980471,0.416631320520248,17.5037990000001,
0.41754876953125,-0.133021844238281,0.337295129882815,0.5530007148497,17.5068330000004,
0.611479104003906,-0.269491338867187,0.476158826171877,0.820523920491797,17.5097970000006,
0.956244143066406,-0.396384026855469,0.68445437060547,1.24096774467989,17.5127440000006,
1.39677724853516,-0.520882513183594,0.933451343261721,1.75887369779726,17.5157750000008,
1.8923769921875,-0.853676543945313,1.05794982958985,2.33004552834751,17.5187490000008,
2.15813337646484,-1.05718368505859,1.06752663623047,2.62959885412721,17.5218370000002,
2.49332160888672,-1.26547922949219,1.38595545703125,3.12073114101364,17.5248460000003,
2.3903709375,-1.10027931494141,1.15132369433594,2.87228724866994,17.5278050000006,
1.91871321044922,-0.812975115722656,1.11780487109375,2.36471491993803,17.5308430000005,
1.37283523193359,-0.465815875,0.780222437011721,1.64633169642593,17.5338540000002,
1.14299187255859,-0.173723272460937,1.31173520556641,1.74850205766304,17.5369960000007,
1.22918313232422,0.230896808105469,1.1920251225586,1.7277524132799,17.5400890000001,
1.19327010742188,0.879725458007813,1.77142192431641,2.30992338935353,17.5432330000003,
1.26749035888672,1.63150477929688,2.35081872607422,3.12964667935544,17.546241,
1.62662060791016,2.54848401513672,3.73466728564453,4.80503955363001,17.5492240000003,
2.3520637109375,3.32420535302734,4.96289273730469,6.41972345599064,17.5522950000004,
4.15010915771484,3.3265995546875,5.68594163867188,7.78585916495915,17.5553330000002,
4.55712343994141,2.86212443261719,6.00915886279297,8.06654328401769,17.5584020000006,
3.75267168212891,2.15344074121094,5.28371575976563,6.82916568914205,17.561404,
3.03441118408203,1.57404393945313,3.81367594042969,5.12146363220745,17.5643840000002,
1.73435968261719,2.07203788476563,3.42820947314453,4.36508472957283,17.5674560000007,
0.568383474121094,2.18935376611328,2.91106191455078,3.6865446094136,17.5704660000001,
-0.0972045874023437,2.31145805078125,2.29335788623047,3.25757232408875,17.573539,
-1.42598650878906,1.77755108056641,2.40827956591797,3.31555965636109,17.5765350000002,
-3.83215917724609,0.326664874511719,4.64206971484375,6.02834679970062,17.5795250000001,
-8.12735695556641,-2.05556577734375,9.37480784655762,12.5764185644427,17.5825350000005,
-10.710700546875,-4.04275315527344,9.37480784655762,14.7969585198844,17.5854880000006,
-11.7737260839844,-4.39709500097656,9.37480784655762,15.6793524263021,17.5885029999999,
-10.8663236547852,-4.86396432470703,9.37480784655762,15.1532887810681,17.5914640000001,
-9.30769837402344,-5.98684490332031,9.37480784655762,14.5038816555462,17.5943960000004,
-11.4696624731445,-9.12564327978516,1.36919604541016,14.720910988404,17.597417,
-12.7936559912109,-9.55899378027344,-5.40878885449219,16.8614054154816,17.6003630000005,
-11.9341375952148,-6.61891414160156,-7.53244572705078,15.5875399979079,17.6033830000006,
-8.05792510742188,-2.4194844296875,-9.36400999707031,12.5884369628462,17.6063080000004,
-6.573520078125,-1.01887645849609,-10.5515340205078,12.4733373898538,17.6092619999999,
-4.95743395751953,1.83740612207031,-10.508438390625,11.7634812071151,17.6122789999999,
-3.25515657714844,3.56362551904297,-9.31133756054687,10.4879205921945,17.6152529999999,
-2.43394540771484,4.91874365869141,-6.60828388623047,8.58996771522841,17.6182900000003,
-2.3214179296875,4.41835551171875,-4.18295760449219,6.51214104217569,17.6212800000003,
-2.45309902099609,3.16858224511719,-2.6554569453125,4.8071883507194,17.6242420000008,
-2.34057154296875,2.41201452050781,-1.68101686962891,3.75791257360687,17.6273090000004,
-2.32860053466797,2.04091326318359,-0.950785363281248,3.23908940983797,17.6302860000005,
-1.37331407226563,1.68657141748047,-0.414484191406249,2.21411649022145,17.6333530000002,
-0.621534750976562,1.49024688134766,-0.855017296874998,1.82707301222292,17.6363340000007,
0.384029946289063,1.449545453125,-1.78875594433594,2.33416127307418,17.6393969999999,
0.415154567871094,1.62432217431641,-2.74404240673828,3.21567171383806,17.6423840000007,
0.68569935546875,1.756003265625,-3.65862744091797,4.115736365028,17.6453750000001,
0.525287844238281,1.99302922998047,-4.60433709667969,5.04460235605561,17.6484360000004,
0.537258852539062,2.57721443505859,-4.75756600292969,5.43738131743014,17.6514480000005,
0.5133168359375,3.02253594384766,-4.82939205273437,5.72033611817714,17.6545070000002,
0.501345827636719,3.11351560693359,-4.58278928173828,5.56302837259735,17.6575280000006,
0.750342800292969,2.73762594628906,-4.44631978710937,5.27516538024989,17.6605250000002,
1.37762363525391,2.30666964746094,-3.86931718701172,4.71064615914123,17.6636050000006,
2.22995942626953,2.2923044375,-2.74164820507812,4.21236436664715,17.6666060000007,
3.59944277587891,1.93317418847656,-0.893324523437498,4.1822457417031,17.6696710000006,
3.7311238671875,3.01774754052734,-0.428849401367186,4.81788307659163,17.6726670000007,
4.49008579345703,2.57721443505859,0.318141516601564,5.18691803496687,17.6757290000005,
3.88195857177734,3.00817073388672,0.938239746582033,4.99989873290195,17.6788830000005,
3.59226017089844,2.28033342919922,0.696425378906252,4.31152664286462,17.6819780000005,
3.06553580566406,1.38729620996094,0.856836890136721,3.47221399200561,17.6851040000001,
2.28023766113281,1.11435722070313,0.68445437060547,2.62864101619498,17.6881100000001,
1.90913640380859,0.783957391601563,0.445034204589845,2.11126654959739,17.6910860000007,
1.25312514892578,0.611574872070313,1.0986512578125,1.77521295886186,17.6941660000002,
2.27784345947266,-0.202453692382813,0.983729578125002,2.48943411366917,17.697185,
1.63140901123047,0.0680910952148439,1.45299310351563,2.18570828749756,17.7002650000004,
1.45423808837891,-0.123445037597656,2.04675511523438,2.51381256197385,17.7032720000007,
1.76069590087891,-0.518488311523438,2.27659847460938,2.92434279781833,17.7062680000008,
1.92829001708984,-0.822551922363281,2.42982738085938,3.20919852233635,17.7093330000007,
1.95702043701172,-0.846493938964844,2.60699830371094,3.36792534583792,17.7123600000004,
