X,Y,Z,Magnitude,Seconds,
-0.700543405761719,-0.0755610043945312,-0.0074699091796866,0.704646243362222,0.0,
-0.659841977539063,-0.0755610043945312,-0.0433829340820289,0.66556966553272,0.00388500000008207,
-0.7125144140625,-0.0635899960937499,-0.0433829340820289,0.716660698531458,0.00785300000006828,
-0.688572397460938,-0.0611957944335937,-0.00268150585937299,0.691291589906268,0.0118069999998625,
-0.643082565917969,-0.0707726010742187,0.0188663090820338,0.647240206777073,0.0156750000005559,
-0.688572397460938,-0.0396479794921876,-0.0074699091796866,0.689753367781607,0.0195899999998801,
-0.690966599121094,-0.0779552060546874,0.0116837041015643,0.695448318851611,0.0235149999998612,
-0.698149204101563,-0.0204943662109374,-0.0314119257812475,0.699155947779406,0.0274220000001151,
-0.690966599121094,-0.0611957944335937,-0.0122583124999984,0.693779527359144,0.0313519999999698,
-0.705331809082031,-0.0444363828125001,-0.0050757075195289,0.706748410558675,0.0351799999998548,
-0.664630380859375,-0.092320416015625,-0.0505655390624984,0.672914166974702,0.0391280000003462,
-0.700543405761719,-0.0659841977539062,-0.0362003291015611,0.704574652919416,0.0430450000003475,
-0.659841977539063,-0.0564073911132812,-0.00986411083984251,0.662322074052744,0.0469520000006014,
-0.645476767578125,-0.0803494077148437,-0.0242293208007798,0.650909628742499,0.0509330000004411,
-0.683783994140625,-0.0611957944335937,-0.0673249506835916,0.68981020932124,0.0548050000006697,
-0.681389792480469,-0.104291424316406,-0.0146525141601543,0.689480562926711,0.0586419999999634,
-0.681389792480469,-0.0372537778320312,-0.0529597407226543,0.684459368696744,0.0625490000002173,
-0.702937607421875,-0.0851378110351562,-0.0457771357421866,0.709552868328081,0.0664010000000417,
-0.700543405761719,-0.0300711728515624,-0.00268150585937299,0.701193646054049,0.0702970000002097,
-0.667024582519531,-0.0851378110351562,-0.0050757075195289,0.672455205467276,0.0744030000005296,
-0.676601389160156,-0.0228885678710937,-0.0218351191406239,0.677340460020312,0.0782800000006318,
-0.681389792480469,-0.0731668027343749,0.0164721074218761,0.685504748810586,0.0822539999999208,
-0.688572397460938,-0.0540131894531251,0.0164721074218761,0.690884000033957,0.0861760000007052,
-0.698149204101563,-0.0779552060546874,-0.0314119257812475,0.703189899259056,0.0900140000003375,
-0.69336080078125,-0.0611957944335937,-0.0481713374023425,0.697721006609021,0.0938869999999952,
-0.705331809082031,-0.0851378110351562,0.0140779057617202,0.710591018238638,0.0979210000004969,
-0.669418784179688,-0.0659841977539062,-0.0146525141601543,0.672822501955048,0.101854999999887,
-0.662236179199219,-0.0947146176757813,0.0308373173828134,0.669685415688006,0.105840000000171,
-0.688572397460938,-0.0635899960937499,0.0140779057617202,0.691645734157988,0.109781000000112,
-0.686178195800781,-0.0588015927734374,0.00928950244140836,0.688755717624701,0.113698000000113,
-0.645476767578125,-0.10189722265625,0.0332315190429711,0.654314630224685,0.117615000000114,
-0.6742071875,-0.092320416015625,0.0404141240234388,0.681697654617163,0.12152900000001,
-0.698149204101563,-0.0276769711914062,0.0212605107421897,0.699020983403928,0.125474000000395,
-0.686178195800781,-0.0611957944335937,0.0428083256835947,0.690230392257981,0.129378000000543,
-0.7125144140625,-0.0420421811523437,-0.00986411083984251,0.713821851672765,0.133225000000493,
-0.705331809082031,-0.092320416015625,0.0188663090820338,0.711598171536864,0.137099999999919,
-0.688572397460938,-0.0659841977539062,-0.0433829340820289,0.693085809887849,0.141077000000223,
-0.69336080078125,-0.0540131894531251,-0.038594530761717,0.696531522976263,0.144979000000603,
-0.678995590820313,-0.0683783994140624,0.00928950244140836,0.682493159464227,0.149026000000049,
-0.69336080078125,-0.0731668027343749,-0.0194409174804662,0.697481562734722,0.152936000000409,
-0.702937607421875,-0.0851378110351562,-0.0146525141601543,0.708226251255248,0.156785000000127,
-0.714908615722656,-0.0540131894531251,0.0212605107421897,0.717261293244242,0.160598000000391,
-0.657447775878906,-0.092320416015625,0.0380199223632829,0.664985828208338,0.16455600000063,
-0.7125144140625,-0.0635899960937499,-0.0577481440429679,0.717673551129229,0.16850500000055,
-0.729273825683594,-0.0228885678710937,0.00210689746093884,0.729635962918006,0.17236899999989,
-0.710120212402344,-0.0707726010742187,-0.0242293208007798,0.714049394027911,0.176470000000336,
-0.700543405761719,-0.0659841977539062,-0.0074699091796866,0.703683719615999,0.180433999999877,
-0.678995590820313,-0.0779552060546874,-0.00986411083984251,0.6835271224956,0.184309000000212,
-0.707726010742188,-0.0899262143554688,-0.0218351191406239,0.713750378449807,0.18815799999993,
-0.667024582519531,-0.0492247861328126,-0.0194409174804662,0.669120932662892,0.192004000000452,
-0.643082565917969,-0.0635899960937499,-0.0673249506835916,0.649716494461538,0.195862999999918,
-0.700543405761719,-0.0564073911132812,-0.0050757075195289,0.702829011876473,0.199852000000647,
-0.664630380859375,-0.0659841977539062,0.0164721074218761,0.668100881482297,0.203792000000249,
-0.724485422363281,-0.0348595761718749,-0.0050757075195289,0.725341354173749,0.207731000000422,
-0.702937607421875,-0.0707726010742187,-0.0529597407226543,0.708473552878448,0.211835000000065,
-0.69336080078125,-0.0875320126953125,-0.040988732421873,0.700065089468158,0.215820000000349,
-0.705331809082031,-0.0707726010742187,-0.00986411083984251,0.708942185688228,0.219672000000173,
-0.686178195800781,-0.0564073911132812,0.0140779057617202,0.68863669492357,0.223641999999927,
-0.714908615722656,-0.0755610043945312,-0.000287304199217076,0.718890726580402,0.227460000000065,
-0.683783994140625,-0.0635899960937499,0.0188663090820338,0.686993577746174,0.231352000000697,
-0.671812985839844,-0.0540131894531251,0.0404141240234388,0.675191390643073,0.235325000000557,
-0.688572397460938,-0.0947146176757813,0.00450109912109475,0.695070546951797,0.239207000000533,
-0.69336080078125,-0.0779552060546874,-0.0242293208007798,0.698149893788943,0.243156999999883,
-0.707726010742188,-0.0947146176757813,-0.038594530761717,0.715077969795768,0.247083000000202,
-0.688572397460938,-0.0707726010742187,-0.0673249506835916,0.695466287171752,0.250998999999865,
-0.681389792480469,-0.0683783994140624,-0.0457771357421866,0.686340441005602,0.254869000000326,
-0.690966599121094,-0.0181001645507812,-0.00986411083984251,0.69127401060679,0.258684000000358,
-0.6742071875,-0.0683783994140624,0.00928950244140836,0.677729468179375,0.262489000000642,
-0.676601389160156,-0.0683783994140624,-0.00986411083984251,0.68011936158482,0.266337000000021,
-0.710120212402344,-0.0324653745117187,-0.0912669672851543,0.716696850782788,0.270188999999846,
-0.683783994140625,-0.0611957944335937,-0.0505655390624984,0.688376604512345,0.274092000000564,
-0.700543405761719,-0.092320416015625,-0.0146525141601543,0.706752303668506,0.277995000000374,
-0.688572397460938,-0.104291424316406,-0.076901757324217,0.700658638718314,0.281761000000188,
-0.647870969238281,-0.0468305844726562,-0.0601423457031238,0.652339634063786,0.285641000000396,
-0.705331809082031,-0.0492247861328126,0.00450109912109475,0.707061737308737,0.289475999999922,
-0.650265170898438,-0.0276769711914062,-0.0314119257812475,0.651611476494384,0.293257000000267,
-0.722091220703125,-0.0420421811523437,0.0284431157226575,0.723873115155266,0.297169000000395,
-0.832224497070313,-0.166540667480469,-0.0242293208007798,0.849070354820637,0.301086000000396,
-0.437181223144531,-0.0252827695312499,-0.117603185546873,0.453428218747015,0.304924000000028,
-1.02136642822266,0.142311346679687,-0.0433829340820289,1.0321453284609,0.30881700000009,
-0.427604416503906,-0.382018816894531,0.162518408691408,0.59598334426285,0.312295000000631,
-0.863349118652344,-0.0635899960937499,-0.347446544921873,0.932809996654801,0.315239000000474,
-0.767581052246094,0.173435968261719,0.253498071777345,0.826753880697837,0.318224000000555,
-0.456334836425781,-0.221607305664063,-0.108026378906247,0.518672323725708,0.321264000000156,
-0.805888278808594,-0.21681890234375,-0.040988732421873,0.835551572627434,0.324195000000145,
-0.817859287109375,0.20456058984375,0.0260489140625015,0.843455626783125,0.327291000000514,
-0.50182466796875,-0.176117474121094,0.133787988769534,0.548401849022902,0.330251000000317,
-0.736456430664063,-0.118656634277344,-0.256466881835935,0.788810961259494,0.333194000000731,
-0.793917270507813,-0.0109175595703124,0.13618219042969,0.805586379296333,0.336208000000624,
-0.61674634765625,-0.104291424316406,0.00689530078125244,0.625540009676546,0.339175000000068,
-0.698149204101563,-0.10189722265625,-0.0338061274414052,0.706355582851362,0.342220999999881,
-0.676601389160156,0.0393606752929687,0.00450109912109475,0.677760254416169,0.345204000000194,
-0.73166802734375,-0.144992852539062,-0.0457771357421866,0.7472995220668,0.348160999999891,
-0.669418784179688,-0.0947146176757813,0.0140779057617202,0.676232618885481,0.351230000000214,
-0.6358999609375,0.0154186586914062,0.0523851323242202,0.63824031324007,0.354221000000507,
-0.772369455566406,-0.0971088193359375,-0.0266235224609357,0.778905328414817,0.357262999999875,
-0.724485422363281,-0.142598650878906,-0.040988732421873,0.73952253423066,0.360236000000441,
-0.631111557617188,0.00584185205078125,0.071538745605471,0.635180067001618,0.363188000000264,
-0.758004245605469,-0.0204943662109374,-0.00268150585937299,0.758285992140154,0.366257000000587,
-0.724485422363281,-0.154569659179687,-0.0792959589843729,0.745022654599897,0.36922500000037,
-0.662236179199219,-0.0971088193359375,0.0380199223632829,0.670397191469139,0.372347999999874,
-0.702937607421875,0.00105344873046875,-0.0266235224609357,0.7034423939673,0.375380000000405,
-0.73166802734375,-0.092320416015625,0.0140779057617202,0.737603788548451,0.378446000000622,
-0.640688364257813,-0.123445037597656,0.0164721074218761,0.652680310508718,0.381454000000303,
-0.7125144140625,-0.0396479794921876,0.0140779057617202,0.713755518336129,0.384422000000086,
-0.702937607421875,-0.0516189877929687,0.0212605107421897,0.705150912320036,0.387524000000667,
-0.705331809082031,-0.0635899960937499,-0.0601423457031238,0.710741690245344,0.390535000000455,
-0.698149204101563,-0.0875320126953125,-0.0218351191406239,0.703953788868291,0.393538000000262,
-0.73166802734375,-0.0276769711914062,-0.0266235224609357,0.73267518650467,0.396507000000383,
-0.688572397460938,-0.0827436093749999,0.00210689746093884,0.693529300357539,0.399508000000424,
-0.678995590820313,-0.0947146176757813,0.00689530078125244,0.685604416794232,0.402584000000388,
-0.717302817382813,-0.0204943662109374,-0.038594530761717,0.718632652108451,0.40551300000061,
-0.695755002441406,-0.0683783994140624,0.0260489140625015,0.699592148935725,0.408542000000125,
-0.738850632324219,-0.0683783994140624,-0.0050757075195289,0.742025353474631,0.41151600000012,
-0.686178195800781,-0.0516189877929687,-0.0050757075195289,0.688135741769028,0.414437000000362,
-0.702937607421875,-0.0635899960937499,0.00450109912109475,0.70582237668162,0.417511999999988,
-0.667024582519531,-0.147387054199219,-0.0505655390624984,0.684982927649704,0.420544000000518,
-0.729273825683594,-0.0276769711914062,-0.0362003291015611,0.730696100570255,0.423584000000119,
-0.659841977539063,-0.0276769711914062,-0.0577481440429679,0.662942152979729,0.426557000000685,
-0.6742071875,-0.0971088193359375,-0.0146525141601543,0.681322354426077,0.429495000000315,
-0.690966599121094,-0.0995030209960938,-0.0146525141601543,0.69824808518143,0.432529000000613,
-0.688572397460938,-0.0851378110351562,-0.0577481440429679,0.69621493919146,0.435465999999906,
-0.676601389160156,-0.0372537778320312,-0.0242293208007798,0.678059247973714,0.438519000000269,
-0.695755002441406,-0.0947146176757813,-0.0218351191406239,0.702511675811581,0.441489000000729,
-0.714908615722656,-0.0540131894531251,-0.000287304199217076,0.716946187668982,0.444413000000168,
-0.705331809082031,-0.0348595761718749,-0.00268150585937299,0.706197806161622,0.447463999999854,
-0.681389792480469,-0.0995030209960938,0.0404141240234388,0.689801567049907,0.450459000000592,
-0.683783994140625,-0.0851378110351562,-0.0290177241210916,0.689674579656183,0.45345400000042,
-0.7125144140625,-0.0372537778320312,-0.00986411083984251,0.713555838664534,0.456451000000015,
-0.695755002441406,-0.0611957944335937,-0.0792959589843729,0.702928017502398,0.459389000000556,
-0.700543405761719,-0.106685625976563,-0.076901757324217,0.712781008743774,0.462430000000495,
-0.7125144140625,-0.0731668027343749,-0.0362003291015611,0.717175456284067,0.465353000000505,
-0.705331809082031,-0.0252827695312499,0.0308373173828134,0.706458151259839,0.468417000000045,
-0.676601389160156,-0.0492247861328126,-0.0170467158203103,0.678603794495384,0.47135900000012,
-0.662236179199219,-0.092320416015625,-0.0314119257812475,0.669377714997269,0.474351000000752,
-0.690966599121094,-0.0731668027343749,0.00450109912109475,0.694844214206781,0.477302000000236,
-0.690966599121094,-0.0683783994140624,-0.0146525141601543,0.69449632308502,0.480274999999892,
-0.719697019042969,-0.0659841977539062,-0.040988732421873,0.72387691616608,0.483345000000554,
-0.69336080078125,-0.0803494077148437,-0.0170467158203103,0.698209007318296,0.486314000000675,
-0.714908615722656,-0.0755610043945312,0.00689530078125244,0.718923736840327,0.489348000000064,
-0.698149204101563,-0.0659841977539062,0.0404141240234388,0.702424036434869,0.492296000000351,
-0.678995590820313,-0.0396479794921876,-0.0050757075195289,0.680171108941024,0.495263000000705,
-0.724485422363281,-0.0588015927734374,0.0380199223632829,0.72786143532001,0.498336999999992,
-0.714908615722656,-0.0827436093749999,0.0260489140625015,0.720152330865299,0.501353000000563,
-0.69336080078125,-0.0779552060546874,-0.0218351191406239,0.698070903733231,0.504405000000588,
-0.698149204101563,-0.0899262143554688,-0.0266235224609357,0.704420220581564,0.507435000000442,
-0.719697019042969,-0.0731668027343749,-0.0194409174804662,0.72366783092396,0.510417000000416,
-0.719697019042969,-0.0635899960937499,-0.0218351191406239,0.722830726553889,0.513469000000441,
-0.671812985839844,-0.0468305844726562,-0.0074699091796866,0.673484662875295,0.516460000000734,
-0.676601389160156,-0.0803494077148437,-0.0266235224609357,0.681875559821444,0.519584000000577,
-0.741244833984375,-0.0659841977539062,0.0332315190429711,0.744917547195429,0.522523000000547,
-0.7125144140625,-0.0971088193359375,-0.000287304199217076,0.719101519664192,0.525480000000243,
-0.695755002441406,-0.0635899960937499,-0.0673249506835916,0.701891273638583,0.528545000000122,
-0.676601389160156,-0.109079827636719,0.0643561406250015,0.688352788508084,0.531569000000673,
-0.710120212402344,-0.0803494077148437,-0.0314119257812475,0.715341493598521,0.534602000000632,
-0.6358999609375,-0.0971088193359375,0.00450109912109475,0.643287760653373,0.537556000000222,
-0.710120212402344,-0.0803494077148437,-0.0601423457031238,0.717177694249584,0.540477000000465,
-0.688572397460938,-0.0588015927734374,-0.0266235224609357,0.691591198473509,0.543502999999873,
-0.717302817382813,-0.0947146176757813,-0.0266235224609357,0.724018647947011,0.546451000000161,
-0.690966599121094,-0.0276769711914062,-0.0218351191406239,0.691865325235472,0.549569000000702,
-0.73166802734375,-0.0851378110351562,-0.000287304199217076,0.736604800180297,0.552510999999868,
-0.698149204101563,-0.0659841977539062,0.0452025273437524,0.702715798896776,0.555552000000716,
-0.729273825683594,-0.104291424316406,-0.00986411083984251,0.736759332954656,0.558567000000039,
-0.667024582519531,-0.0516189877929687,0.0140779057617202,0.669167020269799,0.561556000000564,
-0.676601389160156,-0.0420421811523437,-0.0122583124999984,0.678017146564043,0.564589999999953,
-0.683783994140625,-0.0396479794921876,-0.038594530761717,0.686018987146447,0.567567000000054,
-0.698149204101563,-0.0635899960937499,0.00928950244140836,0.701100772818328,0.570636000000377,
-0.686178195800781,-0.0540131894531251,-0.0266235224609357,0.688815470917678,0.573592000000644,
-0.657447775878906,-0.0755610043945312,-0.0745075556640611,0.665956769801362,0.576516000000083,
-0.6742071875,-0.0396479794921876,-0.0529597407226543,0.677445221469518,0.579556000000593,
-0.683783994140625,-0.0635899960937499,-0.0625365473632797,0.689575998713869,0.582486000000245,
-0.681389792480469,-0.0444363828125001,-0.0338061274414052,0.683673530032149,0.585498000000371,
-0.734062229003906,-0.0683783994140624,-0.0050757075195289,0.737257569892257,0.588504000000285,
-0.667024582519531,-0.0851378110351562,-0.0649307490234357,0.675563648164966,0.591424000000188,
-0.664630380859375,-0.0588015927734374,-0.0529597407226543,0.669324961891742,0.594442999999956,
-0.678995590820313,-0.104291424316406,-0.038594530761717,0.688041605823432,0.59737800000039,
-0.678995590820313,-0.0348595761718749,0.0404141240234388,0.681089938132175,0.60043399999995,
-0.719697019042969,-0.0875320126953125,0.0452025273437524,0.72640823298204,0.60338800000045,
-0.669418784179688,-0.0276769711914062,0.00450109912109475,0.670005808363061,0.60631900000044,
-0.702937607421875,-0.0396479794921876,-0.0074699091796866,0.704094483538222,0.609378000000106,
-0.6742071875,-0.0779552060546874,-0.0577481440429679,0.681151373754833,0.612380999999914,
-0.705331809082031,-0.092320416015625,-0.000287304199217076,0.71134808825211,0.615409,
-0.669418784179688,-0.0875320126953125,0.0188663090820338,0.675380855131001,0.618398999999954,
-0.662236179199219,-0.0540131894531251,-0.000287304199217076,0.664435297240433,0.621328000000176,
-0.688572397460938,-0.0731668027343749,0.0452025273437524,0.693922615315092,0.624352000000727,
-0.678995590820313,-0.0803494077148437,0.0236547124023456,0.684142225777937,0.627339000000575,
-0.686178195800781,-0.0516189877929687,-0.0721133540039052,0.691885374985538,0.630426000000625,
-0.710120212402344,-0.0827436093749999,-0.0170467158203103,0.715127828765607,0.633429999999862,
-0.657447775878906,-0.0995030209960938,0.0452025273437524,0.666469577455515,0.636403000000428,
-0.683783994140625,-0.0875320126953125,0.0595677373046897,0.691932597307714,0.639455000000453,
-0.650265170898438,-0.0492247861328126,-0.0362003291015611,0.653129647068985,0.642423000000235,
-0.698149204101563,-0.111474029296875,-0.038594530761717,0.708045413938995,0.645462000000407,
-0.676601389160156,-0.0659841977539062,-0.0673249506835916,0.683136884636767,0.648506999999881,
-0.69336080078125,-0.0899262143554688,-0.0146525141601543,0.699321542825284,0.651486000000659,
-0.681389792480469,-0.0755610043945312,0.0188663090820338,0.68582610937472,0.654512000000068,
-0.669418784179688,-0.0779552060546874,-0.000287304199217076,0.673942583093948,0.657466000000568,
-0.695755002441406,-0.0827436093749999,0.00450109912109475,0.700672382935093,0.660539999999855,
-0.700543405761719,-0.0779552060546874,-0.0290177241210916,0.705464461061239,0.663503000000674,
-0.681389792480469,-0.0755610043945312,0.0116837041015643,0.68566611672389,0.666524000000209,
-0.681389792480469,-0.0947146176757813,-0.0792959589843729,0.692496034074779,0.669439000000239,
-0.659841977539063,-0.0564073911132812,-0.0290177241210916,0.662884045220607,0.672399000000041,
-0.664630380859375,-0.0851378110351562,-0.0673249506835916,0.673434955295375,0.675403000000188,
-0.686178195800781,-0.0731668027343749,-0.000287304199217076,0.6900680980588,0.678405000000566,
-0.678995590820313,-0.0564073911132812,-0.076901757324217,0.685660766272349,0.681486000000405,
-0.729273825683594,-0.0851378110351562,-0.0840843623046865,0.739025669161247,0.684468000000379,
-0.707726010742188,-0.0420421811523437,-0.040988732421873,0.710157537073746,0.687417000000096,
-0.676601389160156,-0.104291424316406,0.00928950244140836,0.684654975776125,0.690469000000121,
-0.690966599121094,-0.0659841977539062,0.0452025273437524,0.695580350450226,0.693465000000288,
-0.719697019042969,-0.0851378110351562,-0.0314119257812475,0.725395723152873,0.696479000000181,
-0.6742071875,-0.0516189877929687,0.00689530078125244,0.676215495792794,0.699496000000181,
-0.671812985839844,-0.0707726010742187,-0.0146525141601543,0.675689385129787,0.702449000000342,
-0.662236179199219,-0.0947146176757813,-0.0601423457031238,0.671673073443117,0.705474000000322,
-0.650265170898438,-0.0947146176757813,-0.0457771357421866,0.658719361672178,0.708413000000292,
-0.69336080078125,-0.0803494077148437,-0.0074699091796866,0.698040849036283,0.711471999999958,
-0.647870969238281,-0.0468305844726562,-0.040988732421873,0.650853265037022,0.714375999999902,
-0.710120212402344,-0.0276769711914062,-0.0290177241210916,0.711251544188023,0.717352000000574,
-0.698149204101563,-0.0659841977539062,-0.0242293208007798,0.70167890486129,0.720412000000579,
-0.647870969238281,-0.0611957944335937,0.0164721074218761,0.650963169742365,0.723375000000487,
-0.686178195800781,-0.0635899960937499,-0.0146525141601543,0.6892741835923,0.726384000000508,
-0.734062229003906,-0.0588015927734374,0.0236547124023456,0.736793409838684,0.729356000000735,
-0.643082565917969,-0.0707726010742187,0.0236547124023456,0.647397476878993,0.732302000000345,
-0.690966599121094,-0.0564073911132812,0.00450109912109475,0.693279809865018,0.735330000000431,
-0.705331809082031,-0.116262432617187,0.0188663090820338,0.715098490950286,0.73829300000034,
-0.6742071875,-0.0683783994140624,-0.0338061274414052,0.678508505057729,0.741335000000618,
-0.69336080078125,-0.0492247861328126,0.0140779057617202,0.695248493029991,0.744308000000274,
-0.69336080078125,-0.0683783994140624,-0.0840843623046865,0.701779869724568,0.747260000000097,
-0.664630380859375,-0.0683783994140624,-0.0912669672851543,0.674343241965942,0.75030599999991,
-0.667024582519531,-0.0899262143554688,-0.0266235224609357,0.673585428629427,0.753203000000212,
-0.667024582519531,-0.0851378110351562,-0.00268150585937299,0.672441395979521,0.756272999999965,
-0.643082565917969,-0.0588015927734374,-0.0050757075195289,0.645785240391228,0.759267000000364,
-0.678995590820313,-0.0611957944335937,0.0380199223632829,0.682807038705881,0.762345000000096,
-0.69336080078125,-0.0396479794921876,-0.00268150585937299,0.694498634132208,0.765341000000262,
-0.724485422363281,-0.123445037597656,-0.0218351191406239,0.735251369908465,0.768334000000323,
-0.700543405761719,-0.0827436093749999,-0.0074699091796866,0.70545259783474,0.771405000000414,
-0.662236179199219,-0.0444363828125001,0.0164721074218761,0.663929724805839,0.774388000000727,
-0.647870969238281,-0.0444363828125001,-0.0529597407226543,0.651549015068414,0.777441000000181,
-0.700543405761719,-0.0468305844726562,-0.0170467158203103,0.702313859694181,0.780480000000352,
-0.695755002441406,-0.0731668027343749,0.00210689746093884,0.699594770893496,0.783417000000554,
-0.688572397460938,-0.0300711728515624,0.0284431157226575,0.689815361393021,0.786452000000281,
-0.657447775878906,-0.0707726010742187,-0.0170467158203103,0.661465743324013,0.789451999999983,
-0.671812985839844,-0.0588015927734374,-0.0936611689453102,0.68085441162112,0.792546000000584,
-0.662236179199219,-0.0300711728515624,0.0164721074218761,0.663123188253862,0.79548000000068,
-0.669418784179688,-0.0635899960937499,-0.0481713374023425,0.674155526538902,0.798397000000477,
-0.719697019042969,-0.0779552060546874,0.0308373173828134,0.724563146670966,0.801433999999972,
-0.714908615722656,-0.0635899960937499,-0.0074699091796866,0.717770030010198,0.804355000000214,
-0.659841977539063,-0.0444363828125001,-0.0481713374023425,0.663088610358563,0.807419000000664,
-0.707726010742188,-0.0635899960937499,-0.0266235224609357,0.711075668148252,0.81044700000075,
-0.690966599121094,-0.0779552060546874,0.0236547124023456,0.695752398968797,0.813404999999875,
-0.705331809082031,-0.0803494077148437,-0.0649307490234357,0.712856921402747,0.81648800000039,
-0.667024582519531,-0.0564073911132812,-0.0433829340820289,0.670809709550426,0.819421000000148,
-0.676601389160156,-0.0611957944335937,-0.040988732421873,0.680598590400659,0.822480000000724,
-0.688572397460938,-0.0779552060546874,0.0212605107421897,0.693297172944727,0.825426000000334,
-0.719697019042969,-0.111474029296875,-0.038594530761717,0.729300895537454,0.828401000000667,
-0.686178195800781,-0.111474029296875,-0.0242293208007798,0.695596172780273,0.831455999999889,
-0.729273825683594,-0.0995030209960938,0.0475967290039083,0.737568039320038,0.83442500000001,
-0.678995590820313,-0.0659841977539062,-0.0481713374023425,0.683892831117407,0.837441000000581,
-0.69336080078125,-0.0396479794921876,-0.00986411083984251,0.694563505390609,0.840427000000091,
-0.722091220703125,-0.0803494077148437,0.0212605107421897,0.726858836125471,0.843334000000141,
-0.705331809082031,-0.0755610043945312,-0.0290177241210916,0.709960882444385,0.846384000000398,
-0.698149204101563,-0.0803494077148437,0.00450109912109475,0.702772081404113,0.849395000000186,
-0.683783994140625,-0.0492247861328126,0.0236547124023456,0.685961497193221,0.852437999999893,
-0.681389792480469,-0.0851378110351562,-0.0194409174804662,0.686963205300631,0.855350000000726,
-0.683783994140625,-0.109079827636719,-0.0338061274414052,0.693254508598932,0.858369000000494,
-0.719697019042969,-0.0540131894531251,-0.0242293208007798,0.72212760911123,0.861306000000695,
-0.690966599121094,-0.0588015927734374,0.0835097539062524,0.698474299749924,0.864265000000159,
-0.681389792480469,-0.0803494077148437,-0.00986411083984251,0.686181737806657,0.867275000000518,
-0.717302817382813,-0.0252827695312499,-0.0338061274414052,0.718543947516835,0.870272000000114,
-0.714908615722656,-0.0372537778320312,-0.0338061274414052,0.716676375395358,0.873341000000437,
-0.702937607421875,-0.10189722265625,-0.0266235224609357,0.710783466226723,0.876310000000558,
-0.683783994140625,-0.0755610043945312,0.0236547124023456,0.688352788508084,0.879271000000699,
-0.669418784179688,-0.0875320126953125,-0.0122583124999984,0.675228574694859,0.882301999999981,
-0.683783994140625,-0.0803494077148437,-0.0362003291015611,0.689439657830976,0.885252000000037,
-0.667024582519531,-0.0444363828125001,-0.0266235224609357,0.669033031883361,0.888311000000613,
-0.6742071875,-0.0635899960937499,-0.0314119257812475,0.677927524416253,0.891317000000527,
-0.714908615722656,-0.106685625976563,-0.0457771357421866,0.724273220394938,0.894305000000713,
-0.69336080078125,-0.0899262143554688,-0.0481713374023425,0.700825514543708,0.897383999999875,
-0.686178195800781,-0.0899262143554688,-0.0074699091796866,0.692086006189891,0.900384000000486,
-0.688572397460938,-0.0755610043945312,-0.0290177241210916,0.693313378093472,0.903454000000238,
-0.69336080078125,-0.0731668027343749,-0.040988732421873,0.698414387930217,0.906409000000167,
-0.667024582519531,-0.0564073911132812,-0.0433829340820289,0.670809709550426,0.909458000000086,
-0.676601389160156,-0.0971088193359375,-0.0601423457031238,0.686175388915215,0.912482000000637,
-0.700543405761719,-0.0372537778320312,-0.0553539423828102,0.703713696226176,0.915445999999974,
-0.714908615722656,-0.0564073911132812,-0.0218351191406239,0.717462817876004,0.91851300000053,
-0.695755002441406,-0.0611957944335937,0.0452025273437524,0.699902291149888,0.921503000000484,
-0.6742071875,-0.0779552060546874,-0.0218351191406239,0.679050158865731,0.924455000000307,
-0.683783994140625,-0.0875320126953125,-0.0362003291015611,0.690313600993389,0.927465000000666,
-0.678995590820313,-0.109079827636719,0.0499909306640642,0.68951614506068,0.930403000000297,
-0.707726010742188,-0.111474029296875,-0.0266235224609357,0.716945867856814,0.933447000000342,
-0.669418784179688,-0.0875320126953125,-0.0122583124999984,0.675228574694859,0.936376999999993,
-0.671812985839844,-0.0659841977539062,-0.00268150585937299,0.675050955684048,0.939417999999932,
-0.710120212402344,-0.0827436093749999,-0.0122583124999984,0.715029710697465,0.942453999999998,
-0.678995590820313,-0.0492247861328126,-0.076901757324217,0.685107270580892,0.945486000000528,
-0.69336080078125,-0.0659841977539062,-0.0601423457031238,0.69908527102201,0.948526000000129,
-0.669418784179688,-0.0540131894531251,-0.0481713374023425,0.673319694494852,0.951484000000164,
-0.714908615722656,-0.0564073911132812,-0.0338061274414052,0.717926860382919,0.95449600000029,
-0.681389792480469,-0.0420421811523437,-0.0194409174804662,0.682962329535901,0.957488000000012,
-0.662236179199219,-0.10189722265625,0.00689530078125244,0.670065180559549,0.96048300000075,
-0.676601389160156,-0.0827436093749999,0.0260489140625015,0.682139641590849,0.963536000000204,
-0.681389792480469,-0.0971088193359375,0.0332315190429711,0.6890765602945,0.966474000000744,
-0.657447775878906,-0.0899262143554688,-0.0074699091796866,0.663611408566474,0.969498000000385,
-0.664630380859375,-0.0731668027343749,-0.0074699091796866,0.668687313867103,0.972459999999955,
-0.695755002441406,-0.0827436093749999,0.0475967290039083,0.702272722613171,0.975384000000304,
-0.686178195800781,-0.0995030209960938,-0.0433829340820289,0.694711052560221,0.978453000000627,
-0.688572397460938,-0.0540131894531251,-0.0074699091796866,0.690728000535055,0.981410000000324,
-0.664630380859375,-0.0420421811523437,-0.040988732421873,0.667218977804796,0.984425999999985,
-0.611957944335938,-0.0731668027343749,-0.0481713374023425,0.618196072783844,0.987347000000227,
-0.702937607421875,-0.0659841977539062,-0.0242293208007798,0.706443383625103,0.990300000000389,
-0.676601389160156,-0.0755610043945312,-0.0050757075195289,0.680826459536781,0.993328000000474,
-0.695755002441406,-0.0731668027343749,0.00689530078125244,0.699625578161259,0.996257000000696,
-0.698149204101563,-0.0659841977539062,0.0140779057617202,0.701401748623075,0.999327000000449,
-0.688572397460938,-0.0635899960937499,0.0404141240234388,0.692682420427203,1.00232099999994,
-0.6742071875,-0.0803494077148437,-0.0505655390624984,0.680858452791377,1.00527899999997,
-0.683783994140625,-0.0611957944335937,-0.0170467158203103,0.686728524541921,1.00831500000004,
-0.705331809082031,-0.0635899960937499,0.0188663090820338,0.708443777673651,1.01127900000029,
-0.710120212402344,-0.0707726010742187,-0.0433829340820289,0.714955632256104,1.01429900000039,
-0.717302817382813,-0.0659841977539062,-0.0050757075195289,0.720349227101252,1.01729599999999,
-0.688572397460938,-0.0755610043945312,-0.0218351191406239,0.693049914766678,1.02028100000007,
-0.671812985839844,-0.0564073911132812,-0.0553539423828102,0.676445519352869,1.02341700000034,
-0.69336080078125,-0.109079827636719,-0.0505655390624984,0.70370766842344,1.02640299999985,
