X,Y,Z,Magnitude,Seconds,
-0.0115879360351562,0.0530555087890624,-0.0339976635742136,0.0640703394943913,0.0,
-0.00919373437499998,0.0243250888671874,-0.0675164868164018,0.0723513005562718,0.00375400000029913,
0.00277727392578125,0.0315076938476562,-0.0746990917968695,0.0811196791002873,0.00750400000015361,
-0.00201112939453124,0.00756567724609369,-0.0268150585937459,0.0279344139193868,0.0112930000004781,
-0.0115879360351562,-0.0355299526367188,-0.0435744702148391,0.0574055071437075,0.015001000000666,
0.0267192905273438,0.00756567724609369,-0.0579396801757763,0.0642508093127854,0.0187380000006669,
0.0123540805664062,0.0123540805664062,0.066558806152349,0.0688136708053602,0.0225000000000364,
-0.0211647426757812,0.00995987890624994,0.00909796630859816,0.0250981774499979,0.0264500000002954,
-0.00201112939453124,-0.0259531459960938,0.0330399829101609,0.042062464255436,0.0302590000001146,
-0.00679953271484374,0.0147482822265624,0.0138863696289118,0.0213676562880755,0.0341340000004493,
0.0291134921875,-0.037924154296875,0.0114921679687541,0.0491722160483628,0.0379579999998896,
-0.0211647426757812,0.0027772739257812,-0.0531512768554645,0.0572775507014493,0.0417710000001534,
-0.076231380859375,0.0291134921874999,-0.0268150585937459,0.0858945063578849,0.0456100000001243,
-0.00440533105468749,0.0171424838867187,0.0138863696289118,0.0224967321399924,0.0494260000004942,
-0.0307415493164062,-0.00679953271484379,-0.0411802685546832,0.0518371586581392,0.0531780000001163,
0.0171424838867188,0.0339018955078124,-0.0770932934570272,0.0859452102730592,0.0569949999999153,
-0.0163763393554687,-0.0139821376953125,-0.00766144531249502,0.0228556865898294,0.0608680000004824,
-0.0355299526367187,-0.00919373437500004,-0.0555454785156204,0.0665747885438233,0.0646180000003369,
-0.0115879360351562,0.0362960971679687,-0.0435744702148391,0.0578828246173715,0.0683619999999792,
-0.0355299526367187,0.0123540805664062,-0.0339976635742136,0.0507034709809313,0.0720980000005511,
-0.0331357509765625,0.0219308872070312,-0.0244208569335882,0.0466403265408709,0.0758220000006986,
-0.0331357509765625,0.0195366855468749,0.00909796630859816,0.0395276240860821,0.079544000000169,
-0.0211647426757812,0.0315076938476562,0.00430956298828633,0.0382001758802191,0.0833250000005137,
0.0051714755859375,-0.0115879360351563,-0.0411802685546832,0.0430910540544862,0.0870330000007016,
-0.0163763393554687,0.0530555087890624,-0.045968671874995,0.0720846051352347,0.0907230000002528,
0.00756567724609375,0.00517147558593745,0.0114921679687541,0.0146987603746052,0.0945680000004359,
-0.02834734765625,0.0386902988281249,0.0258573779296913,0.0544895892437518,0.0985200000004625,
-0.0427125576171875,0.00517147558593745,0.0210689746093795,0.0479062462423032,0.102279000000635,
-0.0307415493164062,0.0434787021484374,-0.0052672436523391,0.0535087306014512,0.10606800000005,
-0.00679953271484374,0.0123540805664062,0.028251579589849,0.0315754445907427,0.109989999999925,
0.0291134921875,0.00517147558593745,0.00430956298828633,0.0298816318201931,0.113820000000487,
-0.00679953271484374,0.0243250888671874,0.00430956298828633,0.0256225667466552,0.117646000000605,
-0.0211647426757812,0.0219308872070312,-0.0507570751953086,0.0592046520858097,0.121405000000777,
-0.0163763393554687,-0.00919373437500004,0.0186747729492236,0.0264850219397414,0.125151000000187,
0.00995987890625,-0.00679953271484379,-0.0435744702148391,0.0452124682744848,0.128924000000552,
-0.0331357509765625,-0.00679953271484379,-0.0124498486328086,0.0360445608781802,0.132736000000477,
0.0171424838867188,-0.0522893642578126,-0.0268150585937459,0.0612134767488226,0.13646400000016,
-0.0522893642578125,0.0267192905273437,0.0234631762695354,0.0632346324526844,0.140186999999969,
-0.00679953271484374,0.0315076938476562,0.00191536132813042,0.0322898904574661,0.143923000000541,
-0.00919373437499998,0.0219308872070312,-0.0651222851562459,0.0693282091894561,0.147628000000623,
-0.02834734765625,0.0339018955078124,0.00909796630859816,0.0451185508313301,0.151346999999987,
-0.0498951625976562,0.0123540805664062,-0.0172382519531205,0.0542153842344317,0.15513700000065,
0.00277727392578125,0.0219308872070312,-0.0244208569335882,0.0329401778610428,0.158879000000525,
-0.0235589443359375,0.0243250888671874,0.00191536132813042,0.0339175826915431,0.16260500000044,
-0.0594719692382812,0.0123540805664062,-0.045968671874995,0.0761751746021713,0.166512000000694,
0.019536685546875,-0.0020111293945313,-0.00287304199218319,0.0198489569974816,0.170348000000558,
-0.0498951625976562,0.0291134921874999,-0.0052672436523391,0.0580074696370328,0.174091000000772,
0.0051714755859375,-0.0139821376953125,0.0210689746093795,0.0258098048298957,0.177842000000055,
0.04826710546875,0.0339018955078124,0.0138863696289118,0.0605960662982741,0.18170900000041,
-0.06665457421875,0.0123540805664062,-0.0675164868164018,0.0956761807502445,0.185498000000734,
0.0123540805664062,0.000383072265624951,-0.000478840332027275,0.0123692901601314,0.189284000000043,
0.0458729038085938,0.0171424838867187,-0.0172382519531205,0.0519167158826343,0.193052000000534,
-0.0427125576171875,-0.0115879360351563,-0.0579396801757763,0.0729085000437376,0.196762999999919,
-0.0115879360351562,0.00517147558593745,0.0138863696289118,0.0188110521439281,0.200540000000728,
0.00995987890625,0.0243250888671874,-0.0124498486328086,0.0290844953059801,0.204361000000063,
-0.0498951625976562,-0.0115879360351563,-0.000478840332027275,0.0512253531004424,0.208091000000422,
0.00277727392578125,0.0123540805664062,-0.0100556469726509,0.0161694957601857,0.211837000000742,
-0.00201112939453124,0.0171424838867187,-0.0435744702148391,0.0468683672614254,0.215565000000424,
-0.0498951625976562,0.0027772739257812,0.0306457812500049,0.0586208530262784,0.219282000000021,
0.00277727392578125,-0.00440533105468754,-0.0292092602539018,0.0296698681618302,0.222991999999977,
0.00756567724609375,-0.018770541015625,-0.00766144531249502,0.021639556984552,0.226695000000291,
-0.0139821376953125,-0.00919373437500004,-0.0507570751953086,0.0534444160663296,0.230489000000489,
0.019536685546875,0.0219308872070312,-0.0387860668945272,0.0486518743831288,0.234269999999924,
-0.018770541015625,0.0123540805664062,0.0474051928710981,0.0524614985280303,0.238274000000274,
-0.00440533105468749,0.0027772739257812,0.0162805712890677,0.0170931914415838,0.242103000000498,
0.0267192905273438,0.0722091220703125,0.0138863696289118,0.0782362387766734,0.245902999999998,
-0.0522893642578125,-0.00440533105468754,-0.0316034619140577,0.0612565372930995,0.249660000000404,
0.019536685546875,0.0243250888671874,-0.0411802685546832,0.0516643643993601,0.253583000000617,
-0.00679953271484374,0.0195366855468749,-0.0148440502929645,0.0254609810572523,0.257460000000719,
-0.0259531459960937,-0.0498951625976564,-0.0435744702148391,0.0711465212940522,0.261223000000427,
0.0362960971679688,0.0506613071289062,0.00430956298828633,0.0624703693184697,0.265044000000671,
-0.00919373437499998,-0.0307415493164063,0.00670376464844225,0.0327796898489415,0.268809000000147,
-0.057077767578125,0.0123540805664062,0.0234631762695354,0.0629365990422028,0.272636000000603,
0.00277727392578125,0.0291134921874999,0.0593762011718795,0.066187928985684,0.276488000000427,
-0.02834734765625,0.000383072265624951,0.00670376464844225,0.029131757996501,0.2802470000006,
-0.0403183559570312,0.00756567724609369,-0.0651222851562459,0.0769657152454347,0.283988000000136,
0.0147482822265625,0.0291134921874999,0.00909796630859816,0.0338803814461754,0.28773000000001,
-0.0235589443359375,-0.018770541015625,-0.0627280834960899,0.0695856991581998,0.291409000000385,
-0.00201112939453124,0.337965506347656,0.0833182177734422,0.348090007807193,0.295125999999982,
-0.037924154296875,-0.504793478027344,0.0641646044921913,0.510266394550646,0.298808000000463,
0.46964659765625,-0.782520870605469,-0.443406147460934,1.01465060549402,0.302468000000772,
-0.689147005859375,1.84391835058594,0.107260234375005,1.97141148347845,0.305544000000737,
-0.183970455566406,-0.306074740234375,0.250912333984379,0.436444583511286,0.308593000000656,
0.716249368652344,-0.784915072265625,0.0593762011718795,1.06425108035192,0.311773000000358,
-0.856741122070313,2.03066608007813,0.0450109912109422,2.20445822558649,0.314785000000484,
0.153611978515625,-0.617320956054688,-0.0794874951171831,0.641092867381757,0.31780500000059,
-0.112144405761719,-1.25178439599609,-0.110612116699214,1.26165588896642,0.320749000000433,
-0.531129696289063,1.19987810400391,0.0545877978515676,1.31331110039564,0.323703000000023,
1.59252717626953,0.266139456542969,0.0402225878906304,1.61511326973145,0.32681600000069,
-0.423390621582031,-0.916596163574219,-0.184832368164058,1.02643614016836,0.329771000000619,
-2.24537808496094,0.282898868164063,-0.0411802685546832,2.26350399349097,0.332804000000579,
1.58534457128906,0.464858194335938,0.0809240161132863,1.65407353129807,0.335832000000664,
1.80082272070313,-0.533523897949219,0.0138863696289118,1.87824467318425,0.338794000000235,
-2.30283892480469,0.203890213378906,-0.0866701000976509,2.31347142600859,0.341882000000624,
-0.918990365234375,0.321206094726562,-0.0938527050781204,0.978020949128177,0.344869000000472,
2.45922817724609,-0.557465914550781,0.0809240161132863,2.52291897809482,0.347955000000184,
-0.0235589443359375,0.309235086425781,0.0689530078125049,0.317704075865223,0.350949000000583,
-2.18552304345703,0.364301724609375,-0.199197578124995,2.22461376314315,0.353894000000764,
0.709066763671875,-0.634080367675781,0.0162805712890677,0.951366724779388,0.356959000000643,
1.50873011816406,0.156006180175781,0.133596452636723,1.52264654791107,0.359962000000451,
-1.13446851464844,0.591750882324219,-0.165678754882808,1.29020826507957,0.362998000000516,
-0.847164315429688,-0.579013729492188,-0.141736738281246,1.03587334131954,0.365963000000193,
1.17593608740234,-0.148057430664063,0.0905008227539117,1.18867030052454,0.369005999999899,
0.158400381835938,0.749768191894531,-0.0292092602539018,0.766874307450149,0.371996000000763,
-0.945326583496094,-0.310863143554688,-0.144130939941402,1.0055108012018,0.374947000000247,
0.194313406738281,-0.495216671386719,0.0306457812500049,0.532856843407309,0.377991000000293,
0.596539285644531,0.560626260742187,0.0354341845703168,0.819400088471571,0.380990999999995,
-0.368323983398438,0.0698149204101562,-0.0675164868164018,0.380913580553908,0.384038000000146,
-0.358747176757813,-0.521552889648438,-0.0363918652343695,0.634067284590187,0.387009000000035,
0.345148111328125,0.261351053222656,-0.0052672436523391,0.432965744175745,0.389981000000262,
0.156006180175781,0.299658279785156,0.0426167895507863,0.340513147541256,0.393061000000671,
-0.315651546875,-0.337199361816406,0.00670376464844225,0.461935330013232,0.396034000000327,
-0.0475009609375,-0.0139821376953125,0.0402225878906304,0.0637941850103602,0.399065999999948,
0.306840884765625,0.304446683105469,0.0545877978515676,0.435682153745086,0.402078000000074,
-0.0403183559570312,-0.145663229003906,-0.0316034619140577,0.154408953483519,0.405007000000296,
-0.272555916992188,-0.193547262207031,-0.00287304199218319,0.334298556631013,0.40805200000068,
0.139246768554688,0.237409036621094,0.0402225878906304,0.278155657499354,0.411052000000382,
0.177553995117188,0.0315076938476562,0.0186747729492236,0.181292313952845,0.414109000000281,
-0.29649793359375,-0.14326902734375,-0.0052672436523391,0.329339919653056,0.417073000000528,
-0.131298019042969,0.0147482822265624,-0.045968671874995,0.139892102804958,0.420033000000331,
0.249380044921875,0.103333743652344,0.00670376464844225,0.27002446156396,0.423101000000315,
-0.0475009609375,-0.0498951625976564,-0.0100556469726509,0.0696202885419979,0.426042000000052,
-0.210306673828125,-0.0427125576171875,-0.0411802685546832,0.218515615352969,0.429074000000583,
0.0985453403320313,0.0722091220703125,0.0138863696289118,0.122955978597187,0.432076000000052,
0.108122146972656,0.0027772739257812,0.0450109912109422,0.117149909288172,0.435056000000259,
-0.18157625390625,-0.0235589443359375,-0.13215993164062,0.225812327768225,0.438071000000491,
-0.0929907924804687,0.00517147558593745,-0.0723048901367136,0.117906864870387,0.441064000000551,
0.122487356933594,0.00995987890624994,0.0378283862304727,0.128582030631059,0.444173000000774,
-0.0259531459960937,-0.00440533105468754,-0.0363918652343695,0.0449148147500629,0.447220000000016,
-0.109750204101563,-0.00440533105468754,-0.0268150585937459,0.113064413541229,0.450256000000081,
0.038690298828125,0.0339018955078124,-0.0387860668945272,0.0644254354085325,0.453414000000521,
0.0793917270507813,0.00756567724609369,-0.0124498486328086,0.0807173124383962,0.456418000000667,
-0.0882023891601562,0.0291134921874999,-0.0316034619140577,0.0981123625536791,0.45946400000048,
-0.0331357509765625,0.0267192905273437,-0.0483628735351509,0.0644272148679606,0.462438000000475,
0.0339018955078125,0.0219308872070312,-0.00766144531249502,0.0410974461127029,0.465500000000247,
-0.0331357509765625,0.0362960971679687,-0.0507570751953086,0.0706517186258735,0.468501000000288,
-0.0427125576171875,0.0482671054687499,-0.0483628735351509,0.0805794240802823,0.471443000000363,
0.0171424838867188,0.00995987890624994,-0.0196324536132764,0.0279015622593256,0.474504000000707,
-0.00201112939453124,0.0458729038085937,-0.0675164868164018,0.0816507436420722,0.477482000000236,
-0.037924154296875,-0.0020111293945313,-0.0890643017578086,0.0968232201911334,0.480497000000469,
-0.0355299526367187,0.0482671054687499,-0.00287304199218319,0.0600028780558712,0.483477000000676,
0.0434787021484375,0.0315076938476562,0.0186747729492236,0.0568496214307117,0.486490000000231,
0.00995987890625,-0.0642603725585938,-0.0842758984374949,0.106447272048857,0.489548999999897,
-0.0929907924804687,0.151217776855469,0.00909796630859816,0.177755102639019,0.49254000000019,
-0.0427125576171875,-0.0427125576171875,-0.0220266552734323,0.0642954018491038,0.495558000000528,
0.141640970214844,-0.0858081875000001,0.00191536132813042,0.165616660075171,0.498545000000377,
-0.116932809082031,0.167977188476563,-0.0172382519531205,0.205394194218592,0.501498000000538,
-0.109750204101563,-0.0259531459960938,-0.0292092602539018,0.116498300296654,0.504509000000326,
0.0985453403320313,-0.0690487758789063,0.0138863696289118,0.121126994567694,0.507496000000174,
0.076997525390625,0.0386902988281249,-0.0363918652343695,0.0935410390947528,0.510553000000073,
-0.0522893642578125,0.110516348632812,-0.0363918652343695,0.12756335204459,0.513527000000067,
-0.109750204101563,-0.0714429775390626,-0.0531512768554645,0.141330338467535,0.516462000000502,
0.0722091220703125,-0.0115879360351563,-0.00766144531249502,0.0735332259322038,0.519509000000653,
0.12488155859375,0.08657433203125,0.0402225878906304,0.157188979321328,0.522507000000587,
-0.112144405761719,-0.0786255825195313,-0.00287304199218319,0.136991256438042,0.525517000000036,
-0.10496180078125,-0.018770541015625,0.028251579589849,0.110306230932725,0.528483000000051,
0.12488155859375,0.0937569370117187,0.0378283862304727,0.160675927628956,0.531459000000723,
0.0458729038085938,0.0195366855468749,-0.0890643017578086,0.102070834392572,0.534509000000071,
-0.162422640625,-0.0498951625976564,-0.0148440502929645,0.170560802259325,0.537458000000697,
-0.00201112939453124,0.0841801303710937,0.0641646044921913,0.105865175862392,0.540518000000702,
0.167977188476563,0.0147482822265624,0.00430956298828633,0.168678451529159,0.543531000000257,
-0.0475009609375,-0.0355299526367188,-0.0339976635742136,0.0683707536367619,0.546454000000267,
-0.128903817382813,0.0506613071289062,0.0210689746093795,0.140095195731194,0.549503000000186,
0.108122146972656,-0.018770541015625,-0.00287304199218319,0.109776984137317,0.552474000000075,
0.0410845004882813,-0.00919373437500004,-0.0411802685546832,0.0588920661071206,0.555509000000711,
-0.0882023891601562,0.0506613071289062,-0.0172382519531205,0.103166791284639,0.558484000000135,
-0.0139821376953125,0.0027772739257812,-0.0411802685546832,0.0435778377529832,0.561509000000115,
0.0602381137695312,0.00517147558593745,-0.0196324536132764,0.0635673481051741,0.564503999999943,
-0.00201112939453124,0.0362960971679687,0.00430956298828633,0.0366063333894311,0.567487000000256,
-0.0475009609375,0.0027772739257812,-0.00766144531249502,0.0481949404473237,0.570525000000089,
0.0554497104492188,-0.0331357509765625,-0.0172382519531205,0.0668566055979678,0.573490000000675,
0.0219308872070313,0.0650265170898438,-0.081881696777339,0.106836435758871,0.576541000000361,
-0.0403183559570312,-0.0235589443359375,0.00909796630859816,0.0475748534023392,0.579509000000144,
0.0171424838867188,-0.0522893642578126,0.00430956298828633,0.0551961475235603,0.582472000000053,
0.0506613071289063,0.0219308872070312,-0.0100556469726509,0.0561128139531023,0.585620000000745,
-0.0475009609375,0.0315076938476562,-0.0339976635742136,0.0663695501724167,0.588695000000371,
-0.00440533105468749,-0.0115879360351563,-0.0196324536132764,0.0232189672064396,0.591809999999896,
0.0147482822265625,-0.0163763393554688,0.0258573779296913,0.0339749954042485,0.594852000000174,
-0.0427125576171875,0.0291134921874999,-0.00287304199218319,0.0517707675801898,0.59780099999989,
-0.0714429775390625,-0.0235589443359375,-0.0555454785156204,0.0935116200340901,0.600816000000123,
-0.00201112939453124,-0.0020111293945313,0.00909796630859816,0.00953217046823454,0.603767999999945,
-0.00919373437499998,0.00995987890624994,-0.0292092602539018,0.0322010065706864,0.60685199999989,
-0.0451067592773437,0.0219308872070312,-0.0124498486328086,0.0516776767780016,0.609820000000582,
-0.00440533105468749,0.0291134921874999,-0.0363918652343695,0.0468120734884659,0.612773000000743,
0.00756567724609375,-0.0307415493164063,-0.0196324536132764,0.0372520544593523,0.615829000000303,
-0.037924154296875,0.0147482822265624,0.0114921679687541,0.0422826587667991,0.618817999999919,
-0.0331357509765625,-0.0475009609375001,-0.0555454785156204,0.0802472396179203,0.621875000000728,
-0.00679953271484374,-0.00679953271484379,-0.0172382519531205,0.0197389113347145,0.624835999999959,
-0.018770541015625,0.0027772739257812,-0.0124498486328086,0.0226946071007614,0.627828000000591,
0.000383072265625006,0.0147482822265624,-0.0196324536132764,0.0245579275972643,0.630895000000237,
-0.00440533105468749,0.0315076938476562,-0.0411802685546832,0.0520380267836402,0.63387000000057,
0.00277727392578125,0.0602381137695312,-0.045968671874995,0.0758252094947371,0.636952000000747,
0.000383072265625006,0.0171424838867187,0.0426167895507863,0.0459369377493005,0.639961000000767,
-0.0403183559570312,-0.0163763393554688,0.0474051928710981,0.0643506536789593,0.642896000000292,
0.000383072265625006,0.0219308872070312,0.0138863696289118,0.0259603894331148,0.645962999999938,
0.019536685546875,-0.0451067592773439,0.0928950244140676,0.105098940886918,0.648936999999933,
-0.0211647426757812,-0.0139821376953125,0.0378283862304727,0.0455459472605909,0.651975000000675,
-0.0403183559570312,0.00995987890624994,-0.0292092602539018,0.0507735157290216,0.654954000000544,
0.038690298828125,0.0171424838867187,0.0138863696289118,0.0445380201478106,0.658019000000422,
0.0123540805664062,0.0315076938476562,-0.0292092602539018,0.0447050216733988,0.660998000000291,
-0.00919373437499998,0.0219308872070312,-0.0292092602539018,0.0376652286602079,0.663958000000093,
-0.0475009609375,-0.00440533105468754,0.0114921679687541,0.0490695237016761,0.666989000000285,
-0.0211647426757812,0.0171424838867187,0.0138863696289118,0.0305719209047977,0.669976000000133,
0.0051714755859375,0.00517147558593745,-0.0866701000976509,0.086978126965397,0.673025000000052,
-0.018770541015625,0.0171424838867187,-0.0052672436523391,0.0259603894331109,0.676011000000472,
-0.0259531459960937,0.0147482822265624,0.0186747729492236,0.0352111454007669,0.678979000000254,
-0.00919373437499998,0.06742071875,-0.0052672436523391,0.0682482375172998,0.682045000000471,
-0.00919373437499998,0.00995987890624994,0.0186747729492236,0.0230753349767728,0.685036000000764,
0.00756567724609375,0.0315076938476562,-0.0507570751953086,0.0602183935867763,0.688101000000643,
-0.0403183559570312,0.0506613071289062,-0.0292092602539018,0.0710304072328704,0.691083000000617,
0.00995987890625,-0.0259531459960938,-0.0699106884765577,0.0752347615015029,0.69404300000042,
-0.018770541015625,0.0362960971679687,-0.0603338818359322,0.0728691785121674,0.697089000000233,
-0.02834734765625,-0.00919373437500004,0.00430956298828633,0.0301109482423315,0.700066000000334,
-0.0139821376953125,0.0482671054687499,0.0138863696289118,0.0521348722673497,0.703113000000485,
0.0123540805664062,0.0219308872070312,-0.000478840332027275,0.025175710682965,0.706114000000525,
-0.00440533105468749,-0.0115879360351563,-0.0627280834960899,0.0639413767630061,0.709052000000156,
0.0362960971679688,0.00995987890624994,-0.0435744702148391,0.0575789919324548,0.712121999999908,
-0.0139821376953125,0.0147482822265624,-0.0268150585937459,0.0336460899741863,0.715101000000686,
-0.00679953271484374,0.00995987890624994,0.0258573779296913,0.02853133060981,0.718165000000226,
0.0171424838867188,-0.018770541015625,0.00909796630859816,0.026999462120162,0.721148999999969,
-0.02834734765625,0.0243250888671874,0.00430956298828633,0.0376012553073814,0.724153000000115,
0.0171424838867188,0.0171424838867187,-0.081881696777339,0.0853952093196622,0.727314000000661,
-0.037924154296875,0.0243250888671874,0.00191536132813042,0.0450956764728842,0.730422000000544,
-0.02834734765625,0.0291134921874999,-0.00287304199218319,0.0407360027099465,0.733557999999903,
-0.00440533105468749,0.0027772739257812,0.0402225878906304,0.0405583131895263,0.736564000000726,
-0.0235589443359375,0.0147482822265624,-0.0316034619140577,0.0420869872028331,0.739508999999998,
-0.00440533105468749,0.000383072265624951,0.0162805712890677,0.0168704086364409,0.742557999999917,
-0.0307415493164062,-0.0259531459960938,-0.0316034619140577,0.0511604089743318,0.745496999999887,
-0.00679953271484374,0.0195366855468749,0.0234631762695354,0.0312799675184133,0.748573000000761,
-0.0235589443359375,0.00756567724609369,-0.0746990917968695,0.0786906452235143,0.751537000000098,
-0.018770541015625,-0.0331357509765625,-0.0555454785156204,0.0673469478620173,0.754546000000119,
0.0171424838867188,0.00756567724609369,-0.0292092602539018,0.0347028112777429,0.757537000000411,
-0.00201112939453124,-0.02834734765625,-0.0316034619140577,0.0425017125012528,0.760478000000148,
-0.0259531459960937,0.0027772739257812,0.0138863696289118,0.0295653563994102,0.763541000000259,
-0.0211647426757812,0.00517147558593745,0.0186747729492236,0.028695603094778,0.766556999999921,
-0.0546835659179687,0.0339018955078124,-0.0124498486328086,0.0655334237737302,0.769610000000284,
0.0219308872070313,0.00517147558593745,0.00909796630859816,0.0242998140810966,0.772615000000769,
-0.0235589443359375,0.00756567724609369,0.00670376464844225,0.0256359862474133,0.77556900000036,
-0.0163763393554687,0.0195366855468749,-0.0148440502929645,0.0294993627379136,0.778615000000173,
-0.0259531459960937,0.0171424838867187,-0.0962469067382763,0.101147899620246,0.781590000000506,
-0.02834734765625,0.0267192905273437,-0.0292092602539018,0.0486895624339454,0.784628000000339,
0.00756567724609375,0.0339018955078124,-0.0435744702148391,0.0557253303778326,0.787616999999955,
0.0339018955078125,0.000383072265624951,-0.00766144531249502,0.034758927021122,0.790594000000056,
-0.057077767578125,0.0123540805664062,-0.0387860668945272,0.0701060185967685,0.793634999999995,
-0.0139821376953125,0.0027772739257812,-0.0148440502929645,0.0205805552424992,0.796611000000667,
-0.00440533105468749,0.00995987890624994,-0.0172382519531205,0.0203902785642526,0.799661000000015,
-0.0163763393554687,-0.00679953271484379,0.0713472094726608,0.0735176334994636,0.802623000000494,
-0.0211647426757812,0.000383072265624951,-0.0172382519531205,0.0272992748491968,0.805581999999958,
0.00277727392578125,0.00995987890624994,-0.0914585034179645,0.0920411336617482,0.808641000000534,
0.0339018955078125,0.0315076938476562,-0.0220266552734323,0.0512566759862059,0.811637000000701,
0.00756567724609375,-0.0115879360351563,-0.0268150585937459,0.0301756044037723,0.814682000000175,
-0.00201112939453124,0.000383072265624951,-0.0316034619140577,0.0316697046205918,0.817657000000509,
0.00995987890625,0.0171424838867187,-0.0268150585937459,0.0333483329271434,0.820644000000357,
0.0291134921875,0.00517147558593745,0.0593762011718795,0.0663315373912822,0.823723000000427,
-0.02834734765625,-0.00440533105468754,-0.000478840332027275,0.0286916076389817,0.826668000000609,
-0.0115879360351562,-0.018770541015625,0.0450109912109422,0.0501258695821394,0.829695000000356,
-0.02834734765625,0.0434787021484374,0.0186747729492236,0.0551608267193476,0.832691000000523,
-0.0259531459960937,0.0123540805664062,-0.0268150585937459,0.0393094958136305,0.835644000000684,
-0.0594719692382812,0.00756567724609369,-0.0507570751953086,0.0785521182378511,0.838682999999946,
0.000383072265625006,0.0243250888671874,-0.0172382519531205,0.029816338191611,0.841677000000345,
-0.0498951625976562,0.0339018955078124,-0.0148440502929645,0.0621225530606176,0.844722000000729,
0.0123540805664062,0.0147482822265624,-0.0435744702148391,0.0476326525587174,0.84771499999988,
-0.0427125576171875,-0.00679953271484379,0.00430956298828633,0.0434645666778331,0.850745000000643,
-0.0307415493164062,0.0195366855468749,-0.0124498486328086,0.0384931639062101,0.85372499999994,
-0.0403183559570312,0.000383072265624951,-0.0148440502929645,0.0429658282887532,0.856688000000759,
0.0315076938476563,-0.0403183559570313,-0.00766144531249502,0.0517397559228092,0.859729000000698,
0.0267192905273438,-0.02834734765625,-0.0148440502929645,0.0416873893945036,0.86270500000046,
0.0123540805664062,0.0147482822265624,0.00191536132813042,0.0193340048694752,0.865841000000728,
-0.0235589443359375,0.00756567724609369,-0.0746990917968695,0.0786906452235143,0.868910000000142,
-0.037924154296875,0.0362960971679687,-0.00766144531249502,0.0530504089808567,0.87197500000002,
-0.037924154296875,0.0027772739257812,-0.0292092602539018,0.0479493025410399,0.875080000000708,
0.0243250888671875,0.0195366855468749,-0.0435744702148391,0.0535922241100138,0.878077000000303,
-0.0355299526367187,-0.00440533105468754,-0.0244208569335882,0.0433377748556574,0.881100999999944,
-0.0115879360351562,0.00995987890624994,0.0617704028320354,0.0636322411629039,0.884111000000303,
-0.0259531459960937,-0.0211647426757813,-0.0842758984374949,0.0906859370413823,0.887070000000676,
-0.00919373437499998,0.0027772739257812,0.00430956298828633,0.0105266488193958,0.89013100000011,
-0.00919373437499998,-0.0020111293945313,0.0569819995117236,0.0577539406582241,0.89310900000055,
-0.00679953271484374,-0.00679953271484379,-0.0220266552734323,0.0240341597068648,0.896150999999918,
-0.018770541015625,0.0339018955078124,-0.0387860668945272,0.0548272807477138,0.899141000000782,
-0.0331357509765625,0.00517147558593745,0.00430956298828633,0.0338126379578216,0.902137000000039,
-0.0235589443359375,0.0171424838867187,0.00670376464844225,0.0298969743032955,0.905193999999938,
-0.0427125576171875,-0.0020111293945313,-0.0387860668945272,0.0577301152327782,0.908185000000231,
-0.00919373437499998,0.0267192905273437,0.0545877978515676,0.0614676574494772,0.911256000000321,
-0.0115879360351562,-0.00919373437500004,-0.0268150585937459,0.0306243755968829,0.914203000000271,
-0.00201112939453124,-0.0403183559570313,-0.00766144531249502,0.0410890765629477,0.917153000000326,
-0.0259531459960937,0.0171424838867187,-0.0052672436523391,0.0315463848419129,0.920195000000604,
-0.0139821376953125,0.00995987890624994,-0.0196324536132764,0.0260793519328086,0.92317600000024,
0.00756567724609375,-0.00440533105468754,-0.0100556469726509,0.013332758526728,0.926213000000644,
-0.0139821376953125,-0.00919373437500004,-0.0148440502929645,0.0223689685812466,0.929168000000573,
-0.0211647426757812,0.000383072265624951,0.0354341845703168,0.041275592219325,0.932145000000673,
-0.0331357509765625,0.0315076938476562,-0.0292092602539018,0.0542576598183018,0.935182000000168,
-0.02834734765625,0.0195366855468749,0.0138863696289118,0.0371225734933953,0.93818900000042,
-0.0403183559570312,0.0267192905273437,0.0306457812500049,0.0572595338942401,0.94123800000034,
0.0051714755859375,-0.0259531459960938,-0.0627280834960899,0.0680817332764299,0.944210999999996,
0.00277727392578125,0.0339018955078124,-0.00287304199218319,0.0341365806689877,0.947265000000698,
-0.018770541015625,-0.0115879360351563,0.0138863696289118,0.0260661606886188,0.95024100000046,
0.0051714755859375,-0.0020111293945313,-0.0100556469726509,0.0114849831177969,0.953194000000622,
-0.00679953271484374,0.0123540805664062,-0.0411802685546832,0.0435278240900842,0.956235000000561,
-0.02834734765625,0.0027772739257812,-0.0603338818359322,0.0667192825725469,0.959208000000217,
-0.0259531459960937,-0.0307415493164063,-0.0962469067382763,0.104317187932546,0.962230000000091,
-0.0163763393554687,-0.00919373437500004,0.00191536132813042,0.0188779726522958,0.965195000000676,
0.0530555087890625,0.0410845004882812,0.028251579589849,0.072807794517891,0.968179000000418,
-0.018770541015625,0.0554497104492186,-0.0387860668945272,0.070223661141158,0.971220000000358,
-0.0163763393554687,0.0147482822265624,-0.0316034619140577,0.0385288868807951,0.974194000000352,
-0.0307415493164062,0.0722091220703125,-0.0220266552734323,0.0815130278364934,0.977233999999953,
-0.00919373437499998,0.0434787021484374,0.0138863696289118,0.0465591403887717,0.980223999999907,
-0.037924154296875,-0.00440533105468754,-0.0555454785156204,0.0674013991276429,0.983157000000574,
-0.0259531459960937,0.0434787021484374,-0.0196324536132764,0.0543083470792892,0.986194000000069,
-0.00201112939453124,-0.00919373437500004,-0.0411802685546832,0.0422419686027466,0.989156999999977,
-0.00679953271484374,0.00995987890624994,0.0138863696289118,0.0183919573302614,0.992205999999896,
-0.018770541015625,0.00756567724609369,0.00430956298828633,0.020691665359785,0.995189000000209,
-0.00919373437499998,0.000383072265624951,0.0234631762695354,0.0252030184060171,0.998145000000477,
0.0051714755859375,0.0267192905273437,0.0114921679687541,0.0295420813525825,1.00120800000059,
-0.0307415493164062,-0.0211647426757813,-0.0699106884765577,0.0792495649841144,1.00417900000048,
0.00756567724609375,-0.0355299526367188,-0.0196324536132764,0.0412922540125504,1.00732200000039,
-0.0163763393554687,0.00756567724609369,-0.0723048901367136,0.074521279515047,1.0104080000001,
-0.00440533105468749,0.0315076938476562,-0.0483628735351509,0.0578887661802877,1.0134680000001,
-0.0211647426757812,0.0291134921874999,0.0210689746093795,0.0417066355748618,1.01655200000005,
-0.02834734765625,0.0027772739257812,0.0785298144531303,0.0835357236614744,1.01952900000015,
