X,Y,Z,Magnitude,Seconds,
-0.0163763393554687,0.0195366855468749,0.0138863696289118,0.0290292582460129,0.0,
-0.0139821376953125,0.000383072265624951,-0.0483628735351509,0.0503449546178003,0.00381900000047608,
0.0339018955078125,0.00756567724609369,0.00670376464844225,0.0353768066913395,0.00753600000007282,
-0.00679953271484374,0.0147482822265624,-0.0483628735351509,0.0510167914548883,0.0112399999998161,
0.000383072265625006,0.00756567724609369,-0.0627280834960899,0.0631838482180785,0.0149719999999434,
0.00277727392578125,-0.00679953271484379,0.0210689746093795,0.0223125208501804,0.0189399999999296,
-0.0115879360351562,-0.00679953271484379,-0.0172382519531205,0.0218556911831762,0.0227089999998498,
-0.00919373437499998,0.0434787021484374,-0.0100556469726509,0.0455635636041473,0.0265339999996286,
-0.018770541015625,0.0123540805664062,-0.0507570751953086,0.0555088929725925,0.0303299999995943,
0.0171424838867188,0.0267192905273437,0.0258573779296913,0.040943732530021,0.0341260000004695,
-0.00440533105468749,0.00756567724609369,0.0330399829101609,0.0341802118863704,0.0379270000003089,
-0.00201112939453124,0.0123540805664062,-0.0483628735351509,0.0499563357809578,0.0417129999996178,
-0.00440533105468749,0.00756567724609369,-0.0100556469726509,0.013332758526728,0.0454620000000432,
-0.037924154296875,0.0267192905273437,-0.0770932934570272,0.0899752069265144,0.0493200000000797,
-0.0331357509765625,-0.0235589443359375,-0.0292092602539018,0.0500617891768236,0.0530879999996614,
-0.0235589443359375,-0.00440533105468754,-0.0627280834960899,0.0671508991676033,0.0568249999996624,
-0.0235589443359375,0.00756567724609369,-0.0866701000976509,0.0901330659711112,0.0605470000000423,
-0.0259531459960937,0.0315076938476562,-0.0507570751953086,0.0651350999160545,0.0642939999997907,
-0.0235589443359375,0.000383072265624951,0.00909796630859816,0.0252575452793196,0.0680190000002767,
-0.02834734765625,-0.018770541015625,0.028251579589849,0.0442047178306246,0.0717260000001261,
-0.00679953271484374,0.000383072265624951,-0.0100556469726509,0.0121448106423898,0.0755239999998594,
-0.0163763393554687,-0.0355299526367188,-0.0196324536132764,0.0437720831116181,0.0792160000000877,
-0.0115879360351562,0.0458729038085937,-0.0938527050781204,0.105104394845639,0.0829190000004019,
-0.0115879360351562,-0.00440533105468754,-0.0675164868164018,0.0686451979040458,0.0867440000001807,
-0.0307415493164062,0.0123540805664062,-0.0196324536132764,0.0385110295355985,0.0907079999997222,
0.0051714755859375,-0.00679953271484379,0.0114921679687541,0.014319487752648,0.0944840000001932,
-0.0139821376953125,0.0315076938476562,0.0641646044921913,0.0728377060029189,0.0983379999997851,
0.00756567724609375,0.0027772739257812,0.0258573779296913,0.0270842521781528,0.102144000000408,
-0.00679953271484374,0.0171424838867187,-0.0746990917968695,0.0769418788061728,0.1059350000005,
-0.0331357509765625,0.0123540805664062,0.0330399829101609,0.0483967123896421,0.109776999999667,
-0.0163763393554687,-0.0139821376953125,-0.0052672436523391,0.0221681871362829,0.113500999999815,
0.0171424838867188,0.0123540805664062,-0.0483628735351509,0.0527774155963009,0.117271000000073,
-0.0594719692382812,0.0123540805664062,-0.0100556469726509,0.0615682910901294,0.121046999999635,
-0.0259531459960937,0.000383072265624951,-0.0339976635742136,0.0427732820807646,0.124904999999671,
-0.00919373437499998,0.0123540805664062,0.00670376464844225,0.016795491027684,0.128643000000011,
-0.00679953271484374,0.00995987890624994,-0.0435744702148391,0.0452124682744847,0.132359999999608,
-0.0235589443359375,-0.0163763393554688,0.028251579589849,0.0402661160062757,0.136067000000367,
0.019536685546875,-0.00440533105468754,0.00430956298828633,0.0204856378228475,0.139798000000155,
0.00995987890625,0.00995987890624994,-0.0411802685546832,0.0435225561506922,0.143506000000343,
0.00277727392578125,0.0123540805664062,-0.0579396801757763,0.0593071926158314,0.147329999999783,
-0.0163763393554687,0.00756567724609369,-0.0124498486328086,0.0219185468007663,0.151034000000436,
0.000383072265625006,0.0410845004882812,-0.0148440502929645,0.0436855668823506,0.154771000000437,
-0.0355299526367187,0.0386902988281249,0.0258573779296913,0.0585484478972412,0.158690999999635,
-0.02834734765625,0.0147482822265624,-0.0651222851562459,0.0725396165674319,0.162564999999631,
0.00756567724609375,-0.0307415493164063,-0.0555454785156204,0.0639342045394666,0.166283000000476,
-0.00679953271484374,0.0482671054687499,-0.0220266552734323,0.0534894443606052,0.170124000000214,
0.0458729038085938,0.00995987890624994,-0.0172382519531205,0.050006797758494,0.17389699999967,
-0.018770541015625,-0.00440533105468754,-0.0124498486328086,0.0229507926377391,0.177684999999656,
-0.018770541015625,-0.0020111293945313,-0.0196324536132764,0.0272362091036593,0.181440999999722,
-0.0451067592773437,0.0219308872070312,-0.0220266552734323,0.0547791665574275,0.185203000000001,
-0.0139821376953125,0.0147482822265624,-0.0220266552734323,0.0299697438377381,0.188938000000235,
-0.0163763393554687,0.0195366855468749,-0.108217915039058,0.111179960911325,0.192726000000221,
-0.0235589443359375,-0.0020111293945313,-0.081881696777339,0.0852272301955275,0.196538000000146,
0.0171424838867188,0.0267192905273437,0.028251579589849,0.0424963173629502,0.200313000000278,
0.0123540805664062,0.00517147558593745,-0.0435744702148391,0.0455862031856251,0.204052000000047,
-0.00919373437499998,0.0195366855468749,-0.0244208569335882,0.0325973171792758,0.207782000000407,
-0.037924154296875,-0.0235589443359375,-0.000478840332027275,0.0446485680108619,0.211467000000084,
-0.0451067592773437,0.0027772739257812,-0.0196324536132764,0.0492723676906287,0.215175999999701,
0.00995987890625,-0.0139821376953125,0.0234631762695354,0.0290726676280856,0.218952000000172,
-0.0451067592773437,0.0362960971679687,-0.000478840332027275,0.0578986674302132,0.222682999999961,
-0.0211647426757812,-0.0020111293945313,0.0210689746093795,0.0299314661362296,0.226432000000386,
0.0123540805664062,0.0410845004882812,-0.0292092602539018,0.0519012559731747,0.230454000000464,
-0.00679953271484374,0.0195366855468749,-0.0723048901367136,0.0752058033996042,0.234241000000111,
-0.0139821376953125,0.0219308872070312,0.00909796630859816,0.0275542551917229,0.238064000000122,
-0.0115879360351562,-0.00440533105468754,-0.0363918652343695,0.0384454816394955,0.241809000000103,
0.00277727392578125,0.0339018955078124,0.00430956298828633,0.0342873752659993,0.245770999999877,
-0.0163763393554687,0.00995987890624994,-0.0746990917968695,0.0771189859489203,0.249595999999656,
-0.00679953271484374,0.0339018955078124,-0.0507570751953086,0.0614154121255005,0.253402999999707,
0.00995987890625,0.0195366855468749,-0.0938527050781204,0.0963805557177654,0.257179000000178,
0.00756567724609375,0.0027772739257812,-0.0220266552734323,0.0234547706274333,0.261008999999831,
0.0123540805664062,0.0219308872070312,-0.0986411083984322,0.101802040187808,0.264806000000135,
-0.0475009609375,0.00517147558593745,-0.0244208569335882,0.0536606345759406,0.268627000000379,
0.0147482822265625,0.000383072265624951,-0.0531512768554645,0.0551608267193419,0.272383000000445,
0.00277727392578125,0.0410845004882812,0.0354341845703168,0.0543252323234211,0.276152000000366,
-0.00679953271484374,0.000383072265624951,0.0330399829101609,0.0337345647697527,0.279859000000215,
0.0051714755859375,-0.00919373437500004,-0.0962469067382763,0.0968232201911322,0.283574000000044,
0.0147482822265625,0.132064163574219,0.0402225878906304,0.138839157681872,0.287306000000171,
0.0458729038085938,-0.183970455566406,0.00670376464844225,0.189721881409618,0.291095000000496,
-0.0403183559570312,-0.1241154140625,-0.0651222851562459,0.1458462130429,0.294778999999835,
0.0841801303710938,0.395426346191406,0.0737414111328167,0.41095752253419,0.298667000000023,
0.0362960971679688,-0.33480516015625,-0.0627280834960899,0.342559067017604,0.302443000000494,
-0.344381966796875,-0.112144405761719,-0.156101948242183,0.394389560008297,0.305411999999706,
0.132064163574219,0.424156766113281,0.00430956298828633,0.444261722268963,0.308402999999998,
0.510348025878906,-0.243825497070313,0.0833182177734422,0.571706136011347,0.311466000000109,
-0.483245663085938,-0.284526925292969,-0.158496149902339,0.582754641029913,0.314419000000271,
-0.332410958496094,0.416974161132813,-0.0363918652343695,0.534498703680319,0.317476999999599,
0.886237686523438,0.0195366855468749,0.0569819995117236,0.888282538027697,0.320483000000422,
-0.138480624023438,-0.365929781738281,-0.0148440502929645,0.391537781346892,0.323406000000432,
-0.926172970214844,0.167977188476563,-0.0770932934570272,0.944434265844441,0.326476999999613,
0.620481302246094,0.191919205078125,0.00430956298828633,0.64949872982784,0.329467000000477,
0.582174075683594,-0.210306673828125,0.0162805712890677,0.619209664375641,0.332532000000356,
-0.859135323730469,0.108122146972656,-0.0938527050781204,0.870983486294611,0.335508000000118,
-0.0834139858398437,0.0554497104492186,-0.0387860668945272,0.107410066603362,0.338448000000426,
0.780892813476563,-0.1241154140625,0.088106621093754,0.795588460718106,0.341497999999774,
-0.41141961328125,0.175159793457031,-0.000478840332027275,0.447154649673317,0.344482999999855,
-0.485639864746094,0.057843912109375,-0.0794874951171831,0.495489917433973,0.347528000000239,
0.654000125488281,-0.21988348046875,0.00430956298828633,0.689988029935947,0.350497999999789,
-0.0403183559570312,0.108122146972656,0.0258573779296913,0.118256384548376,0.353457000000162,
-0.662810787597656,0.129669961914062,-0.0339976635742136,0.676230937111816,0.356464000000415,
0.390637942871094,-0.222277682128906,0.0210689746093795,0.449943632107678,0.359443000000283,
0.314023489746094,-0.0235589443359375,-0.0124498486328086,0.315151986669161,0.36247800000001,
-0.504793478027344,0.146429373535156,-0.0268150585937459,0.526286104946945,0.365461999999752,
-0.0427125576171875,-0.121721212402344,-0.0196324536132764,0.130483138227801,0.368465999999898,
0.455281387695313,-0.018770541015625,0.0833182177734422,0.46322284119496,0.371441000000232,
-0.155240035644531,0.141640970214844,-0.00287304199218319,0.210166332890419,0.374399000000267,
-0.322834151855469,-0.0977791958007813,-0.0699106884765577,0.344485362677362,0.377443000000312,
0.273322061523438,-0.0786255825195313,0.0450109912109422,0.287946038124765,0.380412999999862,
0.112910550292969,0.167977188476563,0.0521935961914117,0.209019854796964,0.383456999999908,
-0.33480516015625,-0.0427125576171875,-0.0579396801757763,0.34245563856407,0.386427000000367,
0.0746033237304688,-0.140874825683594,-0.045968671874995,0.165905066881536,0.389358999999786,
0.211072818359375,0.1057279453125,0.0186747729492236,0.236809797548323,0.392421999999897,
-0.152845833984375,0.057843912109375,0.0114921679687541,0.163828682040473,0.395398999999998,
-0.121721212402344,-0.1241154140625,0.0186747729492236,0.174841175646091,0.398428000000422,
0.132064163574219,0.076997525390625,-0.045968671874995,0.159632957157314,0.401418999999805,
-0.0355299526367187,0.115304751953125,0.00670376464844225,0.120840820163556,0.4043929999998,
-0.14326902734375,-0.109750204101563,-0.0244208569335882,0.182119465598078,0.407401000000391,
0.0434787021484375,-0.0403183559570313,-0.0196324536132764,0.0624611927717353,0.4103640000003,
0.0817859287109375,0.144035171875,-0.0723048901367136,0.180729261631462,0.413427000000411,
-0.112144405761719,-0.0714429775390626,-0.0363918652343695,0.137858023482612,0.416374999999789,
-0.0259531459960937,-0.0355299526367188,-0.00287304199218319,0.0440930571830859,0.419294999999693,
0.0650265170898438,0.1057279453125,0.00430956298828633,0.124199109006421,0.422357000000375,
-0.0355299526367187,-0.02834734765625,-0.0100556469726509,0.0465517528085717,0.425291999999899,
-0.057077767578125,-0.0738371791992188,0.00909796630859816,0.0937687238622367,0.428364000000329,
-0.0163763393554687,0.0913627353515625,0.0378283862304727,0.100231335950425,0.431432000000314,
0.057843912109375,0.0722091220703125,0.0162805712890677,0.0939421762563589,0.434492000000319,
-0.0427125576171875,-0.037924154296875,-0.0363918652343695,0.0677271873959879,0.43758600000001,
-0.0403183559570312,-0.018770541015625,-0.0531512768554645,0.069303400121952,0.440536000000066,
0.000383072265625006,0.0722091220703125,-0.0172382519531205,0.0742392172973641,0.443583000000217,
-0.0163763393554687,-0.0139821376953125,-0.0603338818359322,0.064061392137608,0.446530000000166,
-0.0475009609375,0.0219308872070312,-0.0387860668945272,0.0651280591513379,0.449486000000434,
-0.00201112939453124,0.0434787021484374,-0.0339976635742136,0.0552293699987561,0.452530999999908,
-0.018770541015625,-0.00679953271484379,-0.0363918652343695,0.0415082487030711,0.455463000000236,
-0.037924154296875,-0.018770541015625,0.00430956298828633,0.0425340689600989,0.458496000000196,
0.00756567724609375,0.0171424838867187,-0.0052672436523391,0.0194640201831887,0.46148600000015,
-0.0427125576171875,0.0195366855468749,0.00430956298828633,0.0471658456248697,0.464547000000493,
-0.0475009609375,-0.037924154296875,0.00670376464844225,0.0611516412664516,0.467496999999639,
0.0051714755859375,-0.00679953271484379,0.00430956298828633,0.00956818363254939,0.470484999999826,
-0.00679953271484374,0.0243250888671874,0.0450109912109422,0.0516133018061072,0.473549999999705,
-0.0259531459960937,0.00756567724609369,0.028251579589849,0.0391018798602854,0.476521999999932,
-0.0307415493164062,-0.0020111293945313,0.00430956298828633,0.0311072311362582,0.479527999999846,
0.00756567724609375,0.0554497104492186,0.0258573779296913,0.0616483077991046,0.482530999999653,
0.000383072265625006,0.0339018955078124,-0.0052672436523391,0.0343107726388729,0.485483999999815,
-0.0546835659179687,-0.0403183559570313,-0.0339976635742136,0.0759717272219615,0.48849700000028,
-0.0331357509765625,0.0315076938476562,-0.0244208569335882,0.05183715865814,0.491455000000315,
0.0291134921875,0.0195366855468749,-0.0268150585937459,0.0441398332223302,0.494515999999749,
-0.018770541015625,0.000383072265624951,0.00670376464844225,0.0199354060616195,0.497494000000188,
-0.0475009609375,0.0147482822265624,-0.0435744702148391,0.0661255440289464,0.500442000000476,
0.0362960971679688,-0.00919373437500004,-0.0387860668945272,0.0539100213924223,0.503467999999884,
0.00995987890625,0.00756567724609369,-0.0292092602539018,0.031774510926203,0.506459000000177,
-0.109750204101563,-0.00440533105468754,-0.0268150585937459,0.113064413541229,0.509468000000197,
0.0171424838867188,0.0458729038085937,-0.0603338818359322,0.0777069196084308,0.512459999999919,
0.0746033237304688,0.0219308872070312,-0.00766144531249502,0.0781365309544582,0.515427000000273,
-0.0618661708984375,-0.00919373437500004,-0.0363918652343695,0.0723623915347554,0.518444000000272,
-0.0403183559570312,-0.0307415493164063,0.0354341845703168,0.0618562374996587,0.521394999999757,
0.0291134921875,0.00995987890624994,0.00670376464844225,0.0314918255368039,0.524459000000206,
-0.0259531459960937,-0.00679953271484379,-0.0363918652343695,0.0452124682744849,0.527407000000494,
-0.00919373437499998,-0.0403183559570313,-0.0603338818359322,0.0731455526756629,0.530330999999933,
0.0291134921875,-0.00919373437500004,0.0258573779296913,0.0400090511323197,0.533376000000317,
-0.0235589443359375,-0.0139821376953125,-0.045968671874995,0.0535130154888083,0.536326000000372,
-0.076231380859375,-0.00440533105468754,-0.0244208569335882,0.0801686261750771,0.539335999999821,
0.00756567724609375,0.00756567724609369,-0.045968671874995,0.0471974335990324,0.54232200000024,
0.019536685546875,0.0267192905273437,-0.0483628735351509,0.0586052054430242,0.545291000000361,
-0.0139821376953125,0.0171424838867187,-0.0100556469726509,0.0242998140810927,0.54832499999975,
-0.0259531459960937,0.0219308872070312,0.00430956298828633,0.0342505756730028,0.551311999999598,
0.0362960971679688,0.0171424838867187,-0.0316034619140577,0.051088650680815,0.554369000000406,
-0.0235589443359375,-0.02834734765625,-0.0196324536132764,0.0417615757873856,0.557315000000017,
-0.0403183559570312,0.0147482822265624,-0.0531512768554645,0.0683237871248253,0.560333999999784,
-0.00679953271484374,0.0458729038085937,-0.0411802685546832,0.0620191217868211,0.56330700000035,
-0.00919373437499998,-0.018770541015625,-0.0268150585937459,0.0339986077533087,0.566229000000021,
-0.0211647426757812,-0.018770541015625,-0.105823713378902,0.109539663391172,0.569330000000264,
0.0123540805664062,-0.0020111293945313,-0.0220266552734323,0.0253345907923816,0.572387000000163,
0.00277727392578125,-0.0139821376953125,-0.00766144531249502,0.0161836698330711,0.575496000000385,
-0.0163763393554687,0.0434787021484374,-0.0244208569335882,0.052487715558679,0.578521000000364,
-0.0139821376953125,-0.00440533105468754,-0.0387860668945272,0.0414640338290767,0.58143999999993,
-0.00440533105468749,0.0291134921874999,-0.000478840332027275,0.029448797210015,0.58447200000046,
-0.0427125576171875,0.0410845004882812,0.00430956298828633,0.0594211333762925,0.587464000000182,
-0.00679953271484374,0.0243250888671874,0.00191536132813042,0.0253300651904825,0.590519999999742,
0.000383072265625006,0.0195366855468749,-0.00766144531249502,0.0209887248491783,0.593501999999717,
-0.0163763393554687,-0.00440533105468754,0.066558806152349,0.0686852684992411,0.596456999999646,
-0.02834734765625,0.00756567724609369,0.0210689746093795,0.0361208150853084,0.59950200000003,
0.000383072265625006,0.0386902988281249,0.00670376464844225,0.0392686443391161,0.602498000000196,
-0.00440533105468749,0.0171424838867187,-0.00287304199218319,0.0179311479218887,0.605537999999797,
-0.0211647426757812,0.0362960971679687,-0.0268150585937459,0.0498437595847733,0.608510000000024,
-0.0115879360351562,-0.0139821376953125,-0.0124498486328086,0.0220177012211856,0.611463000000185,
0.00995987890625,0.00995987890624994,-0.0363918652343695,0.0390226374158749,0.614521999999852,
-0.0139821376953125,0.0027772739257812,0.00909796630859816,0.0169111328994213,0.617502000000059,
-0.037924154296875,0.00517147558593745,-0.134554133300776,0.139892102804955,0.620541999999659,
-0.0331357509765625,0.0315076938476562,-0.000478840332027275,0.0457268198373992,0.623509000000013,
0.0123540805664062,-0.00919373437500004,-0.0411802685546832,0.0439654702765152,0.626454000000194,
-0.0403183559570312,0.0434787021484374,-0.0220266552734323,0.0632545722467952,0.62948200000028,
0.000383072265625006,0.0291134921874999,-0.0268150585937459,0.0395826924185096,0.632480999999643,
-0.0139821376953125,-0.0211647426757813,-0.0220266552734323,0.0335949408333656,0.63548499999979,
0.00995987890625,0.000383072265624951,-0.0435744702148391,0.0446998924684585,0.638474999999744,
-0.0163763393554687,0.00995987890624994,-0.0699106884765577,0.0724906065761553,0.64144000000033,
0.0243250888671875,0.0147482822265624,-0.0483628735351509,0.0561087276063885,0.644487000000481,
0.000383072265625006,0.0362960971679687,-0.0220266552734323,0.0424585321993346,0.647471999999652,
-0.02834734765625,0.0171424838867187,-0.0100556469726509,0.0346201228910195,0.65051399999993,
-0.0115879360351562,0.0027772739257812,-0.00766144531249502,0.0141665541431235,0.653478000000177,
-0.02834734765625,-0.037924154296875,-0.0052672436523391,0.0476398725226106,0.656484000000091,
0.000383072265625006,-0.0020111293945313,-0.00766144531249502,0.00793026670917131,0.659443999999894,
0.000383072265625006,0.0123540805664062,0.00909796630859816,0.0153474115718037,0.662424000000101,
-0.018770541015625,0.0243250888671874,0.00191536132813042,0.0307849276015573,0.66547300000002,
-0.00440533105468749,-0.00919373437500004,-0.0316034619140577,0.0332070850634733,0.668419999999969,
0.00995987890625,-0.0020111293945313,-0.0196324536132764,0.0221060413495081,0.671430999999757,
0.0147482822265625,0.0219308872070312,-0.0339976635742136,0.0430617785376693,0.674426999999923,
0.00995987890625,0.0171424838867187,-0.0244208569335882,0.0314554000928991,0.67739900000015,
0.0171424838867188,0.0147482822265624,0.0354341845703168,0.0420351997569183,0.680459000000155,
-0.00201112939453124,-0.0115879360351563,-0.0603338818359322,0.0614695225326231,0.683395000000019,
-0.0307415493164062,-0.0163763393554688,-0.00287304199218319,0.0349497026503426,0.686412000000018,
-0.00919373437499998,0.00756567724609369,0.00430956298828633,0.0126624072395467,0.689382999999907,
-0.018770541015625,0.0410845004882812,0.00909796630859816,0.0460764840384249,0.692345999999816,
-0.00679953271484374,0.0219308872070312,-0.0268150585937459,0.0353021929377451,0.69537500000024,
-0.018770541015625,0.0362960971679687,0.0138863696289118,0.0431575154650571,0.698358999999982,
-0.018770541015625,-0.0020111293945313,-0.105823713378902,0.10749435410644,0.701366999999664,
-0.0594719692382812,0.0195366855468749,-0.0148440502929645,0.0643346177134566,0.704341999999997,
0.00277727392578125,-0.018770541015625,-0.0292092602539018,0.0348314131935277,0.707312999999886,
-0.0163763393554687,-0.00679953271484379,-0.0196324536132764,0.0264547041318393,0.710423999999875,
-0.0307415493164062,0.06742071875,-0.0172382519531205,0.0760772863707618,0.713472000000365,
0.00995987890625,0.0171424838867187,-0.0316034619140577,0.0373074087358915,0.716623999999683,
-0.0259531459960937,-0.00679953271484379,-0.0148440502929645,0.0306617882931646,0.719579999999951,
0.0171424838867188,-0.0115879360351563,-0.00766144531249502,0.0220645135826204,0.722522000000026,
-0.0115879360351562,0.0267192905273437,-0.0124498486328086,0.0316733244042888,0.725548999999774,
-0.0115879360351562,-0.0307415493164063,-0.0435744702148391,0.0545715820774129,0.728513000000021,
-0.02834734765625,0.0386902988281249,-0.0507570751953086,0.0698340319968432,0.731555999999728,
-0.018770541015625,0.00517147558593745,-0.0220266552734323,0.0293981447082946,0.734516999999869,
-0.0331357509765625,0.00995987890624994,0.00191536132813042,0.0346532219227191,0.737492000000202,
0.0171424838867188,-0.02834734765625,-0.0268150585937459,0.0426202327578903,0.740520999999717,
0.0123540805664062,0.0195366855468749,-0.0316034619140577,0.0391546190602338,0.74351999999999,
-0.0163763393554687,0.00995987890624994,0.00191536132813042,0.0192627175530851,0.746583000000101,
-0.00201112939453124,-0.0115879360351563,-0.0172382519531205,0.0208682110732013,0.749542000000474,
-0.0139821376953125,-0.0139821376953125,0.0354341845703168,0.0405780948939774,0.752594000000499,
0.019536685546875,0.0171424838867187,0.00430956298828633,0.0263461414464034,0.755583000000115,
-0.00919373437499998,-0.0211647426757813,-0.0603338818359322,0.0645960399845248,0.758496999999807,
0.019536685546875,0.00517147558593745,-0.0483628735351509,0.052415587170902,0.761553999999705,
0.019536685546875,0.0123540805664062,-0.0411802685546832,0.0472241453817277,0.764537000000018,
0.00756567724609375,-0.00919373437500004,-0.0339976635742136,0.0360222896614795,0.76755299999968,
-0.0307415493164062,0.0195366855468749,-0.0363918652343695,0.05148876374285,0.770516999999927,
0.0051714755859375,0.0027772739257812,-0.0220266552734323,0.0227954151690509,0.773487999999816,
-0.018770541015625,0.0315076938476562,-0.0292092602539018,0.0468854867330719,0.776523000000452,
0.0123540805664062,-0.02834734765625,-0.0507570751953086,0.0594346372763204,0.779491999999664,
-0.0331357509765625,-0.00679953271484379,-0.0268150585937459,0.0431654839577528,0.782506999999896,
0.0051714755859375,0.0410845004882812,0.0210689746093795,0.0464605427346496,0.785496000000421,
-0.0331357509765625,0.0315076938476562,-0.0531512768554645,0.0701125594722132,0.788448999999673,
-0.00919373437499998,-0.0020111293945313,-0.0675164868164018,0.0681692407558494,0.79145200000039,
-0.0403183559570312,0.0195366855468749,0.00191536132813042,0.0448432884415566,0.794431000000259,
-0.037924154296875,0.0219308872070312,0.00430956298828633,0.0440201956602957,0.797467000000324,
-0.00919373437499998,-0.00440533105468754,-0.00287304199218319,0.0105917922821541,0.800416000000041,
-0.0163763393554687,-0.0355299526367188,0.0114921679687541,0.0407753841143773,0.803361000000223,
-0.00440533105468749,0.0291134921874999,-0.0363918652343695,0.0468120734884659,0.806415000000015,
-0.0451067592773437,0.0458729038085937,0.0378283862304727,0.0746319625973921,0.809401999999864,
0.0123540805664062,0.0123540805664062,0.0689530078125049,0.071132017401968,0.812458999999762,
-0.0235589443359375,0.0219308872070312,0.0426167895507863,0.0534057901685513,0.815427999999883,
0.000383072265625006,0.000383072265624951,0.0474051928710981,0.047408288303496,0.818403999999646,
-0.00679953271484374,0.0554497104492186,-0.0316034619140577,0.0641847555031233,0.821423999999752,
0.00756567724609375,0.000383072265624951,-0.000478840332027275,0.00759048777196352,0.824419000000489,
-0.0115879360351562,-0.037924154296875,-0.0196324536132764,0.0442487850179585,0.827433000000383,
-0.0139821376953125,0.0315076938476562,-0.0363918652343695,0.0501258695821312,0.830410999999913,
-0.0139821376953125,0.00995987890624994,-0.0603338818359322,0.0627285952317607,0.833362000000307,
-0.0331357509765625,-0.00679953271484379,-0.0100556469726509,0.0352892005287677,0.836366999999882,
-0.0355299526367187,0.00756567724609369,-0.0220266552734323,0.0424828265195968,0.839331000000129,
0.00995987890625,-0.018770541015625,-0.0172382519531205,0.0273621952380595,0.84236299999975,
-0.0451067592773437,0.0027772739257812,0.0521935961914117,0.0690398759149755,0.845349999999598,
-0.02834734765625,0.00517147558593745,-0.0196324536132764,0.0348675997705276,0.848455000000286,
-0.0355299526367187,0.00756567724609369,-0.0292092602539018,0.0466132802014587,0.851509000000078,
0.0051714755859375,0.0410845004882812,-0.0411802685546832,0.0583994422776738,0.854564999999639,
0.0051714755859375,-0.00440533105468754,-0.0363918652343695,0.0370205207509816,0.857659999999669,
-0.0163763393554687,-0.0020111293945313,0.00909796630859816,0.0188415000220102,0.860617999999704,
-0.0307415493164062,-0.018770541015625,-0.0435744702148391,0.0565341535613314,0.863618999999744,
-0.00201112939453124,0.0147482822265624,-0.0268150585937459,0.0306692653557582,0.866595000000416,
-0.0403183559570312,0.0147482822265624,0.0306457812500049,0.0527469957830336,0.869561000000431,
-0.0139821376953125,0.00756567724609369,0.0354341845703168,0.0388371096103458,0.87260200000037,
-0.0331357509765625,0.0291134921874999,0.0210689746093795,0.0488822576322234,0.87557199999992,
-0.018770541015625,-0.0139821376953125,-0.0411802685546832,0.0473671605945065,0.878582999999708,
-0.018770541015625,-0.00919373437500004,0.0210689746093795,0.029677595132827,0.881537000000208,
-0.0211647426757812,0.0291134921874999,-0.0435744702148391,0.056517928256329,0.884508000000096,
-0.0115879360351562,-0.02834734765625,-0.0172382519531205,0.0351427049485158,0.887518999999884,
-0.0163763393554687,-0.00440533105468754,-0.0339976635742136,0.0379925329623109,0.890494000000217,
-0.0259531459960937,0.0243250888671874,-0.0699106884765577,0.0784396589663508,0.89354000000003,
0.0051714755859375,0.0027772739257812,0.0402225878906304,0.0406486652525548,0.896537999999964,
0.00995987890625,-0.00440533105468754,-0.0124498486328086,0.0165410054261645,0.899478000000272,
0.019536685546875,-0.0427125576171875,-0.00287304199218319,0.0470563388997475,0.902512999999999,
-0.018770541015625,-0.00679953271484379,-0.00766144531249502,0.0213837461506594,0.905459999999948,
-0.00919373437499998,0.0027772739257812,-0.0172382519531205,0.0197331024579548,0.908489999999802,
0.0219308872070313,-0.0115879360351563,-0.000478840332027275,0.0248087356248959,0.911455999999816,
0.0051714755859375,-0.00440533105468754,0.00909796630859816,0.0113544745536607,0.91442300000017,
-0.0427125576171875,0.00756567724609369,-0.0220266552734323,0.048649517910543,0.917457999999897,
-0.0427125576171875,0.0195366855468749,-0.0699106884765577,0.0842232095305405,0.920450999999957,
-0.00919373437499998,-0.0020111293945313,-0.0938527050781204,0.0943233780336574,0.923456999999871,
-0.0211647426757812,-0.00440533105468754,-0.0292092602539018,0.0363391546243662,0.926403000000391,
0.00756567724609375,0.0027772739257812,-0.0220266552734323,0.0234547706274333,0.929372999999941,
-0.02834734765625,0.0386902988281249,-0.0675164868164018,0.0828190034628723,0.932407000000239,
-0.0139821376953125,0.0195366855468749,0.0114921679687541,0.0266317889243326,0.935395000000426,
-0.02834734765625,-0.00679953271484379,-0.0746990917968695,0.0801857847723752,0.938401999999769,
0.0267192905273438,0.0506613071289062,-0.0411802685546832,0.0705429163313354,0.941391000000294,
-0.0403183559570312,0.0530555087890624,0.0354341845703168,0.0754721026347314,0.944441999999981,
-0.00440533105468749,-0.0020111293945313,-0.0172382519531205,0.017905555382121,0.947390999999698,
-0.00201112939453124,0.0339018955078124,-0.00287304199218319,0.0340828040330168,0.95034300000043,
-0.02834734765625,0.000383072265624951,-0.0220266552734323,0.0359011476980836,0.953379000000496,
-0.00440533105468749,0.00517147558593745,0.00670376464844225,0.0095441899551007,0.95636100000047,
-0.037924154296875,0.00995987890624994,-0.0339976635742136,0.051896838010285,0.959383000000344,
-0.0331357509765625,0.0410845004882812,0.00430956298828633,0.0529574027526119,0.962365999999747,
0.0171424838867188,0.0219308872070312,0.0162805712890677,0.0322472567669306,0.965339999999742,
-0.00679953271484374,0.0027772739257812,0.0450109912109422,0.0456063178231982,0.968375000000378,
-0.00679953271484374,0.0315076938476562,-0.0124498486328086,0.0345538297113027,0.971338999999716,
-0.00919373437499998,0.0123540805664062,-0.0387860668945272,0.0417313676213236,0.974382000000332,
0.0123540805664062,0.0410845004882812,-0.00287304199218319,0.0429978354955419,0.977364999999736,
-0.0115879360351562,0.0123540805664062,-0.0268150585937459,0.0317167295852229,0.980319999999665,
-0.0211647426757812,0.00995987890624994,-0.0052672436523391,0.0239768508368448,0.983347000000322,
-0.0139821376953125,0.0027772739257812,-0.0746990917968695,0.0760471415653911,0.986343000000488,
0.0315076938476563,0.00995987890624994,-0.0699106884765577,0.0773268279621704,0.989485000000059,
-0.0403183559570312,-0.00679953271484379,-0.0124498486328086,0.0427411067147068,0.992518000000018,
0.0147482822265625,-0.0115879360351563,-0.0483628735351509,0.0518725324884588,0.995550999999978,
-0.00201112939453124,0.000383072265624951,0.0186747729492236,0.0187866583113467,0.998634000000493,
-0.0163763393554687,0.0291134921874999,0.0138863696289118,0.0361747312292414,1.00159900000017,
-0.00919373437499998,-0.0115879360351563,-0.045968671874995,0.0482899969689778,1.00460300000032,
0.00277727392578125,0.0027772739257812,-0.0268150585937459,0.0271011783563681,1.0075939999997,
-0.0163763393554687,0.0123540805664062,-0.0124498486328086,0.0239959690012005,1.0105709999998,
0.0147482822265625,0.0027772739257812,-0.0651222851562459,0.0668291635669979,1.01361699999961,
-0.0259531459960937,0.0315076938476562,0.0114921679687541,0.0424071984846234,1.01661799999965,
