X,Y,Z,Magnitude,Seconds,
-0.920091697998047,0.151457197021484,0.0365834013671886,0.9331914918762,0.0,
-0.910514891357422,0.173005011962891,0.0222181914062514,0.92707159894868,0.0038109999999989,
-0.958398924560547,0.158639802001953,0.0724964262695327,0.974141066375854,0.00766800000000956,
-0.891361278076172,0.182581818603516,0.0246123930664091,0.9102015262735,0.0114810000000034,
-0.948822117919922,0.201735431884766,0.00306457812500227,0.970036075396613,0.0152649999999994,
-0.951216319580078,0.165822406982422,0.0557370146484395,0.967169153816867,0.0190470000000005,
-0.917697496337891,0.151457197021484,0.0820732329101581,0.933725866019981,0.0228160000000059,
-0.898543883056641,0.156245600341797,-0.0591846650390604,0.913945634039827,0.0265580000000085,
-0.934456907958985,0.153851398681641,0.0294007963867209,0.947493732188629,0.0303130000000067,
-0.920091697998047,0.170610810302734,-0.00411802685546725,0.935785092562532,0.0342449999999985,
-0.922485899658203,0.144274592041016,-0.00411802685546725,0.933708922053328,0.038250000000005,
-0.912909093017578,0.177793415283203,-0.0687614716796858,0.932599405221663,0.0420579999999973,
-0.908120689697266,0.187370221923828,0.0222181914062514,0.927515194026161,0.0458980000000082,
-0.888967076416016,0.187370221923828,0.0413718046875022,0.909440316479605,0.0497119999999995,
-0.965581529541016,0.117938373779297,0.0796790312500022,0.976015316591605,0.0535849999999982,
-0.917697496337891,0.177793415283203,0.0222181914062514,0.935025583250139,0.0575150000000093,
-0.936851109619141,0.156245600341797,0.0198239897460954,0.949997726202667,0.0613590000000102,
-0.910514891357422,0.175399213623047,-0.011300631835935,0.927324083480577,0.0651459999999986,
-0.929668504638672,0.125120978759766,-0.00172382519531133,0.938052109115592,0.0689619999999991,
-0.910514891357422,0.180187616943359,-0.0256658417968723,0.928527694858095,0.0727660000000014,
-0.946427916259766,0.180187616943359,0.0246123930664091,0.963742262157256,0.0765540000000016,
-0.908120689697266,0.141880390380859,-0.0400310517578113,0.920008541990616,0.0802940000000092,
-0.958398924560547,0.189764423583984,-0.00651222851562316,0.97702683902604,0.0841500000000082,
-0.92488010131836,0.187370221923828,0.027006594726565,0.94405516683993,0.0879060000000038,
-0.946427916259766,0.189764423583984,0.0174297880859395,0.965422257173867,0.0916470000000089,
-0.932062706298828,0.168216608642578,0.0653138212890649,0.949370112836762,0.0954310000000049,
-0.90572648803711,0.184976020263672,0.00545877978515819,0.924438422763445,0.0991590000000002,
-0.908120689697266,0.158639802001953,-0.011300631835935,0.921942231441509,0.10288700000001,
-0.920091697998047,0.137091987060547,0.0198239897460954,0.930460066961819,0.10687200000001,
-0.898543883056641,0.170610810302734,-0.00172382519531133,0.914599436881505,0.110787999999999,
-0.900938084716797,0.149062995361328,0.0605254179687513,0.915189890295754,0.114580000000004,
-0.920091697998047,0.194552826904297,0.0198239897460954,0.940644739394654,0.11836000000001,
-0.939245311279297,0.163428205322266,0.027006594726565,0.953739948420808,0.122143000000008,
-0.881784471435547,0.153851398681641,0.0677080229492208,0.897662789310583,0.125996999999998,
-0.876996068115235,0.156245600341797,0.0389776030273463,0.891658031228064,0.129913999999999,
-0.891361278076172,0.192158625244141,0.04855440966797,0.913130547078297,0.133729000000002,
-0.934456907958985,0.182581818603516,-0.0232716401367163,0.952411362044514,0.137510000000006,
-0.953610521240235,0.158639802001953,0.0365834013671886,0.967407855175305,0.141333000000003,
-0.939245311279297,0.149062995361328,0.0341891997070327,0.951614645075853,0.145130000000009,
-0.881784471435547,0.182581818603516,0.01024718310547,0.900547044474097,0.148910000000001,
-0.90572648803711,0.161034003662109,0.04855440966797,0.92121113332704,0.152734000000009,
-0.912909093017578,0.189764423583984,0.0389776030273463,0.933237805765549,0.156529000000006,
-0.903332286376953,0.177793415283203,-0.0304542451171859,0.921166206053358,0.160279000000003,
-0.903332286376953,0.156245600341797,0.0150355864257836,0.916868570786648,0.164043000000007,
-0.888967076416016,0.127515180419922,0.0246123930664091,0.898403224661187,0.167803000000006,
-0.917697496337891,0.163428205322266,-0.0184832368164045,0.932319206668457,0.171571999999998,
-0.922485899658203,0.175399213623047,0.0198239897460954,0.939222076921769,0.175429000000008,
-0.900938084716797,0.194552826904297,0.062919619628909,0.923850157484357,0.179473999999999,
-0.912909093017578,0.163428205322266,-0.00890643017577908,0.92746488607791,0.18329700000001,
-0.876996068115235,0.108361567138672,0.000670376464846356,0.883665537478369,0.187108000000009,
-0.898543883056641,0.173005011962891,0.0557370146484395,0.916743398528021,0.190948000000006,
-0.912909093017578,0.139486188720703,0.0126413847656277,0.923590392742799,0.194794000000002,
-0.920091697998047,0.110755768798828,-0.0448194550781231,0.927816984432086,0.198639,
-0.88657287475586,0.187370221923828,0.0341891997070327,0.90680095042587,0.202595000000002,
-0.939245311279297,0.161034003662109,-0.0160890351562486,0.953085810485001,0.20639700000001,
-0.912909093017578,0.177793415283203,-0.0136948334960927,0.930161845646621,0.210216000000003,
-0.94403371459961,0.168216608642578,-0.00890643017577908,0.958945152874982,0.214033000000001,
-0.865025059814453,0.180187616943359,-0.0520020600585926,0.885121542872539,0.217819000000006,
-0.910514891357422,0.196947028564453,-0.011300631835935,0.931640061248912,0.221578000000008,
-0.910514891357422,0.165822406982422,0.0174297880859395,0.925655570692351,0.225457000000006,
-0.939245311279297,0.156245600341797,0.00306457812500227,0.95215746283133,0.229247000000001,
-0.90572648803711,0.163428205322266,0.0294007963867209,0.920822271806599,0.233032000000009,
-0.900938084716797,0.173005011962891,-0.0160890351562486,0.917539657840308,0.236755000000002,
-0.934456907958985,0.156245600341797,-0.0304542451171859,0.947918699838806,0.240503000000004,
-0.948822117919922,0.146668793701172,0.0437660063476581,0.961088242468623,0.244261000000009,
-0.917697496337891,0.139486188720703,0.0605254179687513,0.930208803360274,0.248199,
-0.896149681396485,0.211312238525391,0.0246123930664091,0.921055309691057,0.252186000000009,
-0.912909093017578,0.129909382080078,-0.00890643017577908,0.922149003233795,0.255972999999997,
-0.90572648803711,0.125120978759766,-0.0304542451171859,0.914835062458526,0.259747000000004,
-0.896149681396485,0.189764423583984,0.000670376464846356,0.916021417506047,0.263558000000003,
-0.915303294677735,0.153851398681641,-0.0232716401367163,0.928435212257089,0.267404999999997,
-0.927274302978516,0.156245600341797,-0.00890643017577908,0.940388029001293,0.271241000000003,
-0.917697496337891,0.153851398681641,0.00545877978515819,0.930520685389569,0.275147000000004,
-0.898543883056641,0.132303583740234,0.0174297880859395,0.908399221466937,0.27892700000001,
-0.88657287475586,0.161034003662109,0.0365834013671886,0.901821355837125,0.282757000000004,
-0.927274302978516,0.149062995361328,0.0246123930664091,0.939501559042261,0.286557000000002,
-0.927274302978516,0.201735431884766,0.0365834013671886,0.949670028324374,0.290332000000006,
-0.929668504638672,0.161034003662109,0.0126413847656277,0.943596992079429,0.294083000000001,
-0.94403371459961,0.196947028564453,0.0413718046875022,0.965245778330165,0.297933,
-1.04698438598633,-0.0328963308105469,-4.89786622021484,5.00862775460521,0.301669000000004,
-1.0541669909668,0.529741059326172,-1.97694019482422,2.30221331954526,0.305430999999999,
-0.896149681396485,1.09237844946289,2.44036186816406,2.81988314933566,0.308382000000009,
-0.611239683837891,0.874506098388672,1.70055355517578,2.00755006444129,0.311332000000007,
-0.857842454833985,-0.200490447021484,-0.253114999511716,0.916600948963227,0.314323999999999,
-1.01825396606445,-0.382449773193359,-0.0256658417968723,1.088010893262,0.317256,
-0.558567247314453,0.999004584716797,6.64457998339844,6.74243655408317,0.320283000000003,
-1.21936690551758,0.941543744873047,-0.475775753906248,1.61236560425548,0.323249000000004,
-0.831506236572266,0.788314838623047,1.41803775927734,1.82309461986705,0.326253000000008,
-0.613633885498047,-0.162183220458984,-0.205230966308592,0.66706048598447,0.329371000000009,
-0.642364305419922,-0.648206157470703,0.259244155761721,0.948688914111028,0.332447999999999,
-0.716584556884766,0.220889045166016,0.0581312163085954,0.752106798100913,0.335582000000002,
-0.92488010131836,0.484251227783203,0.196994912597658,1.06240738373449,0.338541000000006,
-1.21218430053711,0.0389297189941406,-0.140587521484374,1.22093044547457,0.341504,
-0.881784471435547,0.00541089575195308,0.084467434570314,0.885837388780015,0.34453400000001,
-0.654335313720703,0.287926691650391,0.00545877978515819,0.714902987001351,0.347549000000001,
-1.13556984741211,0.0987847604980468,-0.0783382783203113,1.1425472388958,0.350594999999998,
-1.02543657104492,0.134697785400391,0.0581312163085954,1.03587783687926,0.353564000000006,
-0.699825145263672,0.323839716552734,0.0078529814453141,0.771160855644175,0.356504000000001,
-0.900938084716797,0.0700543405761718,0.0413718046875022,0.90460415063708,0.359544,
-1.04459018432617,0.0748427438964843,0.0078529814453141,1.04729735931211,0.362510999999998,
-0.876996068115235,0.424396186279297,0.000670376464846356,0.97428675235918,0.365564000000006,
-0.869813463134766,0.117938373779297,0.0581312163085954,0.879695492184493,0.368566999999999,
-0.888967076416016,-0.0688093557128906,-0.0376368500976536,0.892420149296583,0.371570000000006,
-0.80995842163086,0.225677448486328,0.201783315917972,0.864684602678286,0.374543000000003,
-0.915303294677735,0.237648456787109,-0.200442562988279,0.96666133227647,0.377493000000001,
-0.956004722900391,-0.131058598876953,0.333464407226565,1.02094069241774,0.380524000000008,
-0.718978758544922,0.232860053466797,-0.0352426484374977,0.756568770177732,0.383487000000002,
-0.927274302978516,0.292715094970703,0.0078529814453141,0.972410113638058,0.386519000000007,
-1.14754085571289,-0.0209253225097656,0.0509486113281277,1.14886189145984,0.389481000000004,
-0.802775816650391,0.237648456787109,-0.00890643017577908,0.837260488325152,0.392415999999997,
-0.726161363525391,0.225677448486328,-0.0400310517578113,0.761474307995477,0.395445000000009,
-1.10205102416992,0.0101992990722656,0.000670376464846356,1.10209842345416,0.39843900000001,
-0.975158336181641,0.259196271728516,0.0198239897460954,1.00921230594556,0.401460999999998,
-0.793199010009766,0.287926691650391,0.0509486113281277,0.845376963396494,0.404407000000006,
-0.94403371459961,-0.0185311208496094,0.132351467773439,0.953446363338003,0.407328000000007,
-0.979946739501953,0.240042658447266,0.0294007963867209,1.00934656930269,0.410364000000001,
-0.893755479736328,0.443549799560547,-0.0927034882812485,1.00206248257702,0.413305000000008,
-1.03022497436523,0.0269587106933593,0.0317949980468768,1.03106798601688,0.416347000000002,
-0.888967076416016,0.0149877023925781,0.0653138212890649,0.89148919759357,0.419297999999998,
-0.812352623291016,0.283138288330078,-0.0903092866210926,0.865008579226988,0.422241,
-0.92488010131836,0.354964338134766,1.63112170703125,1.90839223073001,0.425301000000005,
-1.00149455444336,0.295109296630859,0.153899282714846,1.05535104527252,0.428252999999998,
-0.800381614990235,0.182581818603516,-0.21959617626953,0.849805466404601,0.431295000000006,
-0.857842454833985,0.0413239206542969,0.129957266113284,0.868613973379129,0.434269,
-1.00628295776367,0.225677448486328,-0.0160890351562486,1.03140416854556,0.437198000000009,
-0.967975731201172,0.196947028564453,-0.119039706542967,0.994955074356952,0.440241,
-0.857842454833985,0.091602155517578,0.117986257812502,0.870749900513151,0.443193000000008,
-0.841083043212891,0.113149970458984,-0.00411802685546725,0.848669876654232,0.446227000000007,
-1.03501337768555,0.199341230224609,0.0222181914062514,1.05426906721428,0.449194000000006,
-1.03261917602539,0.192158625244141,0.027006594726565,1.0506934168014,0.452144000000004,
-0.802775816650391,0.125120978759766,0.00545877978515819,0.812486350286112,0.455163999999996,
-0.824323631591797,0.144274592041016,-0.011300631835935,0.836930290878029,0.458121000000006,
-1.02543657104492,0.216100641845703,-0.0879150849609349,1.05164096097774,0.461151999999998,
-0.984735142822266,0.278349885009766,0.0341891997070327,1.02389006312726,0.464137000000008,
-0.841083043212891,0.156245600341797,-0.0304542451171859,0.856014505865458,0.467264999999998,
-0.855448253173828,0.0197761057128906,0.0294007963867209,0.856181765189785,0.470347000000004,
-1.02304236938477,0.247225263427734,0.285580374023439,1.09054673006739,0.473403000000005,
-0.939245311279297,0.275955683349609,-0.0520020600585926,0.980325205318843,0.47646300000001,
-0.869813463134766,0.0365355173339844,0.0701022246093768,0.873398320683375,0.479431000000005,
-0.874601866455078,0.194552826904297,-0.0424252534179672,0.896983349561595,0.482443000000004,
-0.953610521240235,0.307080304931641,0.0605254179687513,1.00366063294187,0.485422999999997,
-1.03980178100586,0.132303583740234,0.0557370146484395,1.04966594536328,0.488410999999999,
-0.807564219970703,0.137091987060547,0.0198239897460954,0.81935778074206,0.49145200000001,
-0.850659849853516,0.177793415283203,0.0724964262695327,0.872059866346758,0.494410999999999,
-1.03261917602539,0.182581818603516,0.0341891997070327,1.04919368305215,0.497471000000004,
-0.975158336181641,0.199341230224609,0.0677080229492208,0.99762472055563,0.500427000000002,
-0.807564219970703,0.194552826904297,0.0605254179687513,0.832870997246054,0.503385000000009,
-0.929668504638672,0.0700543405761718,0.0126413847656277,0.932389909726322,0.506444000000002,
-0.989523546142578,0.192158625244141,-0.0232716401367163,1.00827741959292,0.509415000000004,
-0.891361278076172,0.208918036865234,0.0461602080078141,0.916680118135293,0.512471000000005,
-0.912909093017578,0.0652659372558593,0.0389776030273463,0.916068724615037,0.515417999999997,
-0.903332286376953,0.0413239206542969,0.0317949980468768,0.904835790588578,0.518366999999998,
-0.915303294677735,0.220889045166016,0.0341891997070327,0.942200081139286,0.521399000000002,
-0.96318732788086,0.201735431884766,-0.00172382519531133,0.984088402858863,0.524336000000005,
-0.94403371459961,0.0628717355957031,0.0150355864257836,0.946244460114151,0.527371000000002,
-0.84826564819336,0.182581818603516,-0.0184832368164045,0.867889601523534,0.530309000000003,
-0.929668504638672,0.201735431884766,-0.10467449658203,0.957046217917159,0.533231999999998,
-0.958398924560547,0.170610810302734,-0.00890643017577908,0.973506996220081,0.536257000000006,
-0.910514891357422,0.163428205322266,-0.0256658417968723,0.925421461342678,0.539197999999999,
-0.845871446533203,0.149062995361328,0.00306457812500227,0.858910747566561,0.542226999999997,
-0.967975731201172,0.173005011962891,0.0317949980468768,0.983828578696271,0.545166000000009,
-0.970369932861328,0.187370221923828,0.0078529814453141,0.98832538972884,0.548105000000007,
-0.872207664794922,0.163428205322266,0.0246123930664091,0.887727862981851,0.55113200000001,
-0.855448253173828,0.103573163818359,-0.0328484467773418,0.86232136386453,0.554073000000002,
-0.94403371459961,0.180187616943359,0.00306457812500227,0.961080966016677,0.557108999999997,
-0.939245311279297,0.232860053466797,0.0365834013671886,0.96837178011149,0.560054000000008,
-0.912909093017578,0.149062995361328,-0.00890643017577908,0.925041681871009,0.56307000000001,
-0.860236656494141,0.132303583740234,0.0174297880859395,0.870525784201392,0.566033000000004,
-0.936851109619141,0.199341230224609,0.04855440966797,0.959053939234015,0.568971000000005,
-0.941639512939453,0.206523835205078,-0.0136948334960927,0.964118569109189,0.572005000000004,
-0.896149681396485,0.146668793701172,0.0724964262695327,0.910961974143066,0.574966000000003,
-0.86741926147461,0.156245600341797,-0.00172382519531133,0.881380641026696,0.577967000000001,
-0.991917747802735,0.163428205322266,0.0581312163085954,1.00697012617576,0.580939999999998,
-0.910514891357422,0.177793415283203,0.0294007963867209,0.92817685423084,0.583882000000003,
-0.876996068115235,0.201735431884766,-0.0328484467773418,0.900498921944384,0.586910000000003,
-0.910514891357422,0.141880390380859,-0.0711556733398417,0.924245931777192,0.589863000000008,
-0.936851109619141,0.153851398681641,-0.00651222851562316,0.949422278857597,0.592887000000005,
-0.915303294677735,0.175399213623047,0.0317949980468768,0.93249982696422,0.595853000000005,
-0.920091697998047,0.163428205322266,0.000670376464846356,0.934493424494999,0.598793999999998,
-0.900938084716797,0.161034003662109,0.0341891997070327,0.91585494714241,0.601824000000008,
-0.936851109619141,0.187370221923828,0.0365834013671886,0.956104569026837,0.604846000000009,
-0.956004722900391,0.192158625244141,-0.00172382519531133,0.975127139934519,0.607971000000006,
-0.881784471435547,0.132303583740234,-0.0663672700195299,0.894121192493066,0.611024999999998,
-0.891361278076172,0.137091987060547,0.0246123930664091,0.902177870966835,0.614030999999997,
-0.934456907958985,0.208918036865234,0.0078529814453141,0.957558420294798,0.617068000000003,
-0.94403371459961,0.146668793701172,0.0461602080078141,0.956473812579215,0.620018999999999,
-0.922485899658203,0.180187616943359,0.0198239897460954,0.940128077943312,0.623058,
-0.888967076416016,0.163428205322266,0.0294007963867209,0.904342660762318,0.626028000000005,
-0.975158336181641,0.189764423583984,0.0413718046875022,0.994311793808063,0.628973000000002,
-0.951216319580078,0.192158625244141,0.01024718310547,0.970485666381933,0.63201500000001,
-0.908120689697266,0.168216608642578,0.0126413847656277,0.923655682106834,0.63497000000001,
-0.929668504638672,0.156245600341797,0.0198239897460954,0.942915270166268,0.638013000000001,
-0.929668504638672,0.161034003662109,-0.011300631835935,0.943579982371629,0.640973000000002,
-0.929668504638672,0.206523835205078,0.0868616362304699,0.956284772896418,0.643928000000002,
-0.891361278076172,0.153851398681641,0.0389776030273463,0.905380822895891,0.646984000000003,
-0.951216319580078,0.153851398681641,0.00306457812500227,0.963582965369797,0.64997000000001,
-0.910514891357422,0.170610810302734,0.0365834013671886,0.927083470476832,0.653013999999999,
-0.94403371459961,0.149062995361328,0.0246123930664091,0.956046651988952,0.655984000000004,
-0.922485899658203,0.105967365478516,0.0389776030273463,0.929369986147831,0.659006000000005,
-0.881784471435547,0.184976020263672,0.0317949980468768,0.90153807686545,0.661967000000004,
-0.960793126220704,0.177793415283203,0.0413718046875022,0.977980345474345,0.664906000000002,
-0.987129344482422,0.156245600341797,-0.0567904633789045,1.00103056251808,0.667933000000005,
-0.898543883056641,0.110755768798828,-0.0184832368164045,0.905532760392432,0.670883000000003,
-0.948822117919922,0.206523835205078,0.0150355864257836,0.971154763578405,0.673896999999997,
-0.92488010131836,0.184976020263672,-0.00411802685546725,0.943205326550072,0.676867000000001,
-0.910514891357422,0.187370221923828,-0.00172382519531133,0.929595578206301,0.679802000000009,
-0.896149681396485,0.170610810302734,-0.0232716401367163,0.912542530128777,0.682828000000001,
-0.900938084716797,0.137091987060547,0.0246123930664091,0.911641056173884,0.685783999999998,
-0.94403371459961,0.182581818603516,0.0365834013671886,0.962223529145332,0.688811999999999,
-0.908120689697266,0.184976020263672,-0.0136948334960927,0.926869388637531,0.691754000000003,
-0.922485899658203,0.137091987060547,-0.0424252534179672,0.933581464100478,0.694692000000003,
-0.908120689697266,0.187370221923828,-0.0448194550781231,0.928331605986526,0.697710999999998,
-0.946427916259766,0.208918036865234,-0.0256658417968723,0.969552103931794,0.700654999999998,
-0.884178673095703,0.151457197021484,0.0605254179687513,0.899096510229672,0.703701000000009,
-0.893755479736328,0.165822406982422,-0.00172382519531133,0.909009845815469,0.70663900000001,
-0.888967076416016,0.161034003662109,0.0533428129882836,0.905008214871329,0.709585000000004,
-0.965581529541016,0.120332575439453,0.0437660063476581,0.97403443584623,0.712609999999998,
-0.934456907958985,0.189764423583984,0.0150355864257836,0.953648949115761,0.715564999999998,
-0.898543883056641,0.151457197021484,0.01024718310547,0.911276794980377,0.718592999999998,
-0.891361278076172,0.161034003662109,0.0748906279296886,0.908881446911938,0.721558999999999,
-0.946427916259766,0.153851398681641,0.000670376464846356,0.958851658473147,0.724496000000002,
-0.853054051513672,0.168216608642578,-0.0136948334960927,0.869589323009193,0.727525999999997,
-0.908120689697266,0.149062995361328,-0.0256658417968723,0.920631141705228,0.730474000000001,
-0.898543883056641,0.113149970458984,0.01024718310547,0.905698090069187,0.733501000000004,
-0.929668504638672,0.201735431884766,-0.00172382519531133,0.95130630428277,0.736439000000004,
-0.922485899658203,0.141880390380859,-0.0328484467773418,0.933910756281623,0.739367999999999,
-0.903332286376953,0.127515180419922,0.0222181914062514,0.91255848518213,0.742399000000006,
-0.90572648803711,0.156245600341797,0.0868616362304699,0.923199925588623,0.745452,
-0.932062706298828,0.213706440185547,0.0533428129882836,0.957735238334362,0.748585000000006,
-0.936851109619141,0.141880390380859,0.0509486113281277,0.9489024226787,0.751636000000005,
-0.876996068115235,0.168216608642578,-0.00411802685546725,0.892992659016844,0.754671999999999,
-0.910514891357422,0.132303583740234,0.027006594726565,0.920473227102697,0.757630000000006,
-0.920091697998047,0.173005011962891,-0.011300631835935,0.936283702287454,0.760558000000003,
-0.908120689697266,0.175399213623047,0.0078529814453141,0.924937695476512,0.763582999999997,
-0.903332286376953,0.182581818603516,0.0413718046875022,0.922527488110074,0.766576999999998,
-0.941639512939453,0.163428205322266,0.0222181914062514,0.955974580547554,0.769585000000006,
-0.953610521240235,0.161034003662109,-0.0208774384765604,0.967336985746365,0.772542999999999,
-0.912909093017578,0.187370221923828,0.0198239897460954,0.932149989404825,0.775502000000003,
-0.929668504638672,0.149062995361328,-0.0543962617187486,0.943113067660591,0.778517000000008,
-0.927274302978516,0.113149970458984,-0.0256658417968723,0.934504833703017,0.781497000000002,
-0.920091697998047,0.194552826904297,0.0246123930664091,0.940757835510201,0.784540000000007,
-0.934456907958985,0.177793415283203,-0.011300631835935,0.951287504191148,0.787520999999998,
-0.90572648803711,0.127515180419922,0.0150355864257836,0.914782302642945,0.790474000000003,
-0.936851109619141,0.208918036865234,0.0317949980468768,0.960389332314265,0.793508000000003,
-0.956004722900391,0.175399213623047,0.0246123930664091,0.972273461655666,0.796469999999999,
-0.920091697998047,0.180187616943359,0.0198239897460954,0.937778918825812,0.799502000000004,
-0.92488010131836,0.184976020263672,-0.0160890351562486,0.943333550203482,0.802439000000007,
-0.90572648803711,0.184976020263672,0.0437660063476581,0.925457758364068,0.80538,
-0.970369932861328,0.156245600341797,0.0677080229492208,0.985197883980249,0.808407000000003,
-0.94403371459961,0.149062995361328,0.0078529814453141,0.955762052084309,0.811355000000006,
-0.908120689697266,0.173005011962891,0.0533428129882836,0.925991024210289,0.814385999999999,
-0.922485899658203,0.144274592041016,0.0461602080078141,0.93484017766682,0.81734800000001,
-0.94403371459961,0.194552826904297,-0.0400310517578113,0.964703551285071,0.820278999999999,
-0.939245311279297,0.199341230224609,0.0509486113281277,0.9615167402723,0.823323000000002,
-0.929668504638672,0.165822406982422,-0.011300631835935,0.944408970443653,0.826264000000009,
-0.936851109619141,0.180187616943359,0.0246123930664091,0.954339221025102,0.829306000000003,
-0.92488010131836,0.180187616943359,0.0461602080078141,0.943398931480056,0.832254000000006,
-0.910514891357422,0.170610810302734,-0.0232716401367163,0.92665364900292,0.835177000000002,
-0.94403371459961,0.175399213623047,0.0796790312500022,0.963490158985165,0.838211999999999,
-0.900938084716797,0.177793415283203,-0.0376368500976536,0.919084579076654,0.841161999999997,
-0.915303294677735,0.127515180419922,-0.011300631835935,0.924212068069516,0.844189,
-0.917697496337891,0.158639802001953,0.0772848295898463,0.934509618168151,0.847138000000001,
-0.922485899658203,0.161034003662109,0.0461602080078141,0.937572903942396,0.850152000000008,
-0.898543883056641,0.165822406982422,-0.0256658417968723,0.914077084206301,0.853099,
-0.888967076416016,0.184976020263672,-0.011300631835935,0.90807835306438,0.856026999999997,
-0.903332286376953,0.177793415283203,0.000670376464846356,0.920662895708133,0.859059999999999,
-0.920091697998047,0.182581818603516,0.0796790312500022,0.941410431868287,0.862006000000008,
-0.94403371459961,0.173005011962891,-0.011300631835935,0.959821906785269,0.865015,
-0.991917747802735,0.165822406982422,0.0294007963867209,1.00611246682052,0.867995000000008,
-0.910514891357422,0.184976020263672,0.0198239897460954,0.929325823393312,0.87093800000001,
-0.908120689697266,0.223283246826172,0.0437660063476581,0.936191251123988,0.87397,
-0.948822117919922,0.187370221923828,-0.00651222851562316,0.967167731387928,0.876919999999998,
-0.941639512939453,0.156245600341797,0.0126413847656277,0.954598064403973,0.879964999999999,
-0.903332286376953,0.173005011962891,-0.00890643017577908,0.919793062744969,0.882963000000004,
-0.896149681396485,0.158639802001953,0.0533428129882836,0.911644828836177,0.886007000000006,
-0.903332286376953,0.173005011962891,0.01024718310547,0.919807022443779,0.889147000000008,
-0.915303294677735,0.139486188720703,0.0389776030273463,0.926690763755365,0.892159000000007,
-0.939245311279297,0.175399213623047,0.0150355864257836,0.955600705189618,0.895192000000009,
-0.92488010131836,0.163428205322266,0.0174297880859395,0.93936988328466,0.898142000000007,
-0.90572648803711,0.158639802001953,0.0198239897460954,0.919728247082098,0.901085000000009,
-0.898543883056641,0.132303583740234,0.027006594726565,0.908633426750161,0.904126000000005,
-0.932062706298828,0.170610810302734,0.0222181914062514,0.947809361155827,0.9071,
-0.920091697998047,0.192158625244141,0.0174297880859395,0.940105030033011,0.91014100000001,
-0.900938084716797,0.228071650146484,0.04855440966797,0.930625403044596,0.913083,
-0.912909093017578,0.175399213623047,-0.0160890351562486,0.929745531479458,0.916019000000006,
-0.910514891357422,0.168216608642578,0.0341891997070327,0.926554421598341,0.919076000000004,
-0.900938084716797,0.139486188720703,0.0294007963867209,0.912145951131271,0.922031000000004,
-0.939245311279297,0.129909382080078,-0.0615788666992163,0.950184276409861,0.925089,
-0.920091697998047,0.149062995361328,0.0150355864257836,0.932209514095511,0.928077999999999,
-0.932062706298828,0.184976020263672,0.0126413847656277,0.950324587261887,0.931038999999998,
-0.893755479736328,0.153851398681641,0.0174297880859395,0.90706830390425,0.934069000000008,
-0.94403371459961,0.175399213623047,0.0078529814453141,0.960221957548306,0.93702900000001,
-0.917697496337891,0.208918036865234,0.01024718310547,0.941233470332443,0.940064000000007,
-0.920091697998047,0.151457197021484,0.000670376464846356,0.932474377481301,0.943015000000003,
-0.922485899658203,0.187370221923828,0.0150355864257836,0.941442459203512,0.946019000000007,
-0.872207664794922,0.180187616943359,-0.0448194550781231,0.891752528104203,0.948975000000004,
-0.958398924560547,0.182581818603516,-0.0136948334960927,0.975731606307732,0.951909999999998,
-0.893755479736328,0.182581818603516,0.0341891997070327,0.912854796459924,0.954949999999997,
-0.903332286376953,0.184976020263672,0.0557370146484395,0.923759688709959,0.957898999999998,
-0.927274302978516,0.139486188720703,0.0198239897460954,0.937916318430154,0.960907000000006,
-0.936851109619141,0.180187616943359,0.0581312163085954,0.955791199584857,0.963872000000009,
-0.898543883056641,0.168216608642578,-0.0328484467773418,0.914744203401913,0.966805000000008,
-0.920091697998047,0.187370221923828,0.0365834013671886,0.939688606956745,0.969850000000008,
-0.932062706298828,0.156245600341797,-0.00172382519531133,0.945069599380156,0.972797999999997,
-0.932062706298828,0.211312238525391,-0.0208774384765604,0.955944359291403,0.975819000000001,
-0.903332286376953,0.170610810302734,-0.00411802685546725,0.919311822151957,0.978761000000006,
-0.932062706298828,0.156245600341797,0.00545877978515819,0.945083792251252,0.981724999999997,
-0.927274302978516,0.194552826904297,0.000670376464846356,0.947464450428274,0.984758999999997,
-0.874601866455078,0.165822406982422,0.0389776030273463,0.891035773132543,0.987710000000007,
-0.920091697998047,0.170610810302734,0.0294007963867209,0.936237783976517,0.990750000000006,
-0.910514891357422,0.177793415283203,0.0701022246093768,0.930355946827271,0.993696,
-0.90572648803711,0.163428205322266,0.0246123930664091,0.920681823063402,0.996631000000008,
-0.922485899658203,0.161034003662109,0.0126413847656277,0.936521217064753,0.999662999999998,
-0.92488010131836,0.199341230224609,0.0772848295898463,0.949269757638392,1.00261,
-0.956004722900391,0.184976020263672,0.0389776030273463,0.97451547541237,1.00564200000001,
-0.932062706298828,0.165822406982422,0.0317949980468768,0.947232221280157,1.008585,
-0.932062706298828,0.187370221923828,-0.00172382519531133,0.950711028709662,1.011523,
-0.903332286376953,0.158639802001953,-0.00651222851562316,0.917179489255224,1.01455800000001,
-0.920091697998047,0.173005011962891,-0.00890643017577908,0.936257865861583,1.017499,
