X,Y,Z,Magnitude,Seconds,
-0.0373974299316407,-0.021068974609375,-0.0416112248535185,0.059782635358376,0.0,
-0.030214824951172,-0.0282515795898438,0.00387860668945095,0.0415467325550722,0.00379899999916233,
-0.0254264216308595,0.00287304199218748,-0.0080924016113304,0.0268373666941854,0.0076069999995525,
-0.0469742365722657,0.0100556469726562,-0.0104866032714863,0.0491697446175941,0.0114199999998164,
-0.020638018310547,-0.0641646044921875,0.0469742365722627,0.082155968565724,0.0152649999999994,
-0.039791631591797,0.0292092602539062,-0.0703416447753931,0.0859331241083746,0.0190309999998135,
0.0272460148925781,0.00047884033203123,0.00148440502929503,0.0272906224531644,0.0228250000000116,
-0.0421858332519532,-0.0282515795898438,0.039791631591795,0.064507133103402,0.0265209999997751,
-0.00866701000976572,-0.0450109912109375,-0.0200634099121118,0.0500364548064898,0.0302319999991596,
-0.00148440502929698,-0.0426167895507813,0.0158496149902323,0.045492906098041,0.0339739999999438,
0.00809240161132801,0.00047884033203123,-0.0631590397949235,0.0636771588540141,0.0376929999993081,
-0.0469742365722657,-0.040222587890625,0.0565510432128882,0.0838000952662477,0.041545999999471,
-0.0661278498535157,-0.00670376464843752,0.0350032282714814,0.0751202966989361,0.0453809999999066,
0.0152750065917968,-0.0282515795898438,-0.0320344182128931,0.0453616746377297,0.0493199999991702,
0.0128808049316406,-0.0737414111328125,-0.00569819995117449,0.0750744985612893,0.0530909999997675,
-0.030214824951172,0.00047884033203123,-0.0823126530761744,0.0876843075546143,0.0568509999993694,
0.0200634099121093,-0.00191536132812502,-0.0368228215332049,0.0419777228060892,0.0606239999997342,
-0.00148440502929698,-0.00670376464843752,-0.0487938298339863,0.0492745547785127,0.0644649999994726,
-0.0517626398925782,-0.00670376464843752,-0.0128808049316422,0.0537608266751674,0.0682559999995647,
-0.0134554133300782,-0.0617704028320313,-0.00330399829101857,0.063305191087475,0.0720159999991665,
-0.011061211669922,0.0100556469726562,0.0134554133300764,0.0201125480118434,0.0757699999994657,
-0.0517626398925782,-0.0282515795898438,0.0350032282714814,0.0685765894995912,0.0795279999992999,
-0.011061211669922,-0.0162805712890625,-0.0224576115722677,0.0298622122863648,0.0832319999999527,
-0.0661278498535157,-0.00191536132812502,0.0326090266113255,0.0737557438563569,0.0869529999999941,
-0.0182438166503907,0.00047884033203123,0.0326090266113255,0.0373686332446717,0.0907979999992676,
0.0248518132324218,-0.00430956298828127,0.0254264216308577,0.0358146320801888,0.0945229999997537,
-0.0182438166503907,-0.00909796630859377,-0.034428619873049,0.0400117445669179,0.098214999999982,
-0.039791631591797,-0.0138863696289063,0.0661278498535136,0.0784161828480368,0.101911999999174,
-0.030214824951172,-0.0186747729492188,-0.0320344182128931,0.0478318590666657,0.105595999999423,
-0.0134554133300782,-0.0330399829101563,0.00866701000976278,0.0367124730996972,0.109283999999207,
0.000909796630859272,-0.0521935961914063,-0.0128808049316422,0.0537672237426122,0.113098999999238,
-0.0565510432128907,-0.021068974609375,-0.0080924016113304,0.0608884976280068,0.117026999999325,
0.0200634099121093,0.00526724365234373,0.039791631591795,0.0448738032456757,0.120882999999594,
-0.00627280834960947,-0.01149216796875,-0.0272460148925813,0.0302285192614467,0.124598999999762,
-0.0254264216308595,-0.021068974609375,-0.0200634099121118,0.0386386467845621,0.128347999999278,
-0.0182438166503907,0.0148440502929687,0.0230322199707,0.0329190800578019,0.132104999999683,
-0.020638018310547,-0.0426167895507813,0.00627280834960686,0.047764701150462,0.136016999999811,
0.000909796630859272,-0.0258573779296875,0.0326090266113255,0.0416266782225816,0.139836999999716,
-0.00627280834960947,-0.00909796630859377,0.039791631591795,0.0412976398875332,0.143585999999232,
-0.00627280834960947,-0.00191536132812502,0.0110612116699187,0.012859515434687,0.147342999999637,
-0.0350032282714844,-0.0282515795898438,0.0421858332519509,0.0616686489709993,0.15113299999939,
-0.0445800349121095,-0.0928950244140625,0.0445800349121068,0.112268626901815,0.154881999999816,
-0.00148440502929698,-0.0258573779296875,-0.0152750065917999,0.0300688090563831,0.158599999999751,
-0.00387860668945322,-0.0426167895507813,0.0685220515136695,0.0807867927640962,0.162508999999773,
-0.0230322199707032,0.0292092602539062,-0.0104866032714863,0.0386475470053771,0.16622499999994,
0.00330399829101552,-0.0378283862304688,-0.0248518132324236,0.0453818887933041,0.170008999999482,
-0.020638018310547,-0.0234631762695313,-0.0296402165527372,0.0430696050334191,0.173719999999776,
-0.0182438166503907,-0.0426167895507813,-0.000909796630862658,0.0463665324075263,0.177424999999857,
-0.020638018310547,-0.0354341845703125,-0.0104866032714863,0.0423258559762587,0.181101999999555,
0.0104866032714843,0.0124498486328125,-0.0080924016113304,0.0181784087035282,0.184999999999491,
-0.0469742365722657,-0.0234631762695313,0.0445800349121068,0.0688801789702012,0.189002999999502,
-0.00866701000976572,-0.040222587890625,0.104435076416014,0.112248201879349,0.19280499999968,
0.00569819995117177,-0.00670376464843752,0.0469742365722627,0.0477910958724748,0.196612999999161,
0.0272460148925781,0.00287304199218748,0.0661278498535136,0.0715785737778024,0.200409000000036,
-0.00866701000976572,-0.00909796630859377,0.0278206232910136,0.0305266626699051,0.204203999999663,
-0.00627280834960947,-0.0186747729492188,0.0804930598144509,0.0828687392663154,0.208010999999715,
0.000909796630859272,-0.00430956298828127,0.0278206232910136,0.0281671287738026,0.21191699999963,
0.0320344182128905,-0.0282515795898438,0.0804930598144509,0.0911234787409503,0.215690999999424,
-0.0254264216308595,-0.0545877978515625,-0.000909796630862658,0.0602258941082888,0.219476999999642,
-0.0254264216308595,0.00287304199218748,0.0757046564941373,0.0799121536572156,0.223252999999204,
-0.0134554133300782,-0.0138863696289063,0.0254264216308577,0.0319434238350244,0.226992999999311,
-0.0469742365722657,0.0244208569335937,0.00387860668945095,0.0530848447748479,0.230712999999923,
0.0200634099121093,-0.0234631762695313,-0.00330399829101857,0.0310479864510321,0.234517999999298,
-0.020638018310547,-0.0162805712890625,-0.0487938298339863,0.055424025757362,0.238226999999824,
-0.0326090266113282,0.02681505859375,-0.0200634099121118,0.0467433032767901,0.241946999999527,
-0.00148440502929698,0.0100556469726562,0.00148440502929503,0.0102724365474161,0.24568299999919,
-0.030214824951172,-0.01149216796875,0.0254264216308577,0.0411279526405348,0.24938099999963,
-0.00627280834960947,-0.0426167895507813,-0.0487938298339863,0.0650874542909348,0.253103999999439,
0.00330399829101552,-0.00191536132812502,0.0541568415527323,0.0542913298850936,0.257072999999764,
-0.0134554133300782,0.00047884033203123,0.0206380183105441,0.0246415347682157,0.261010999999598,
-0.00148440502929698,-0.0186747729492188,-0.000909796630862658,0.0187557546610475,0.264757999999347,
-0.0158496149902345,-0.00191536132812502,-0.0320344182128931,0.0357922177937394,0.268512999999984,
0.00569819995117177,-0.0474051928710938,-0.0320344182128931,0.0574971803140612,0.272286999999778,
-0.0445800349121095,-0.0138863696289063,-0.00330399829101857,0.0468094774478691,0.276053999999931,
-0.0565510432128907,0.00526724365234373,-0.0631590397949235,0.084940147468533,0.279859999999644,
-0.0158496149902345,0.0220266552734375,-0.0272460148925813,0.0384542476899533,0.283730999999534,
0.0296402165527343,-0.00909796630859377,-0.0583706364746117,0.0660942253959948,0.287492999999813,
-0.078098858154297,-0.00191536132812502,0.0373974299316373,0.0866121701582058,0.29124899999988,
0.0392170231933593,-0.0138863696289063,-0.103860468017581,0.111882987922428,0.2950179999998,
0.439048700439453,-0.732146867675781,2.99184227856445,3.11125746556127,0.29878699999972,
-0.102040874755859,-9.94742905761719,-6.08936461840821,11.6637094722206,0.302133999999569,
-0.19780894116211,8.16949490478516,9.38136795910644,12.4414565128309,0.305089999999836,
-4.38526764477539,19.5748730633545,-14.1745836247559,24.5626759270637,0.308008999999402,
5.37349832202148,-7.08875227539063,9.38136795910644,12.9280686037309,0.311009000000013,
3.44856018725586,-19.6511283862305,-3.55151085864258,20.2650596741361,0.313943999999537,
-4.03092579907227,-0.100077629394531,-7.02310326586914,8.09829351237614,0.316930999999386,
-5.94628712719727,14.7535494702148,8.60624517163086,18.0857128287322,0.319882999999209,
1.5092568425293,2.47608335693359,-2.11020145922852,3.58633450834347,0.322807999999895,
7.12126553393555,-6.32021354248047,-1.27462507983399,9.60636201282846,0.32583699999941,
0.824515167724609,-4.01699154541016,1.14830700024414,4.2584803985124,0.328773999999612,
-6.01093057202149,1.94217638671875,-0.922677435791018,6.38393836979245,0.33179199999995,
-4.80904133862305,4.35074325683594,-0.0463996281738304,6.48521382908717,0.334719999999834,
2.36877523852539,1.14011883056641,0.477930535400388,2.6719627009244,0.337655999999697,
4.3439916081543,-3.40647012207031,0.0685220515136695,5.52077866390388,0.340671999999358,
-0.501872552001953,-0.959596025390625,-0.458202313720706,1.17586136542428,0.343593999999939,
-3.29351168774414,2.41383411376953,0.193020537841795,4.08791772105721,0.346696999999949,
-0.805936162841797,0.555933625488281,0.145136504638669,0.989777702064173,0.349708999999166,
2.15569129077148,-1.75925937988281,-0.185263324462893,2.78860556662371,0.352735999999823,
0.247512567626953,0.347638081054688,0.0230322199707,0.427370085159749,0.3558409999996,
-1.34941993969727,1.31489555175781,0.164290117919919,1.89126299824514,0.358760999999504,
-1.03099111889648,0.316513459472656,0.0421858332519509,1.07930676908742,0.361777999999504,
0.585095001708984,-1.05536409179687,-0.240329962646486,1.23040156787316,0.364708999999493,
0.664103656494141,-0.365834013671875,0.0541568415527323,0.760132327700335,0.367745999999897,
-0.137953899658203,0.73549875,0.128377093017576,0.759256457130337,0.370678999999654,
-0.379768267333985,0.3907337109375,-0.113437274658205,0.556565166911052,0.373608999999306,
-0.312730620849609,-0.526245524902344,-0.0607648381347676,0.615164335157907,0.376605999999811,
0.111043072998047,-0.463996281738281,0.00627280834960686,0.47713987640145,0.379564999999275,
0.410318280517578,0.235110603027344,0.0302148249511696,0.473868148992537,0.382579999999507,
-0.128377093017578,0.481713374023438,0.0469742365722627,0.50073449214752,0.385534000000007,
-0.401316082275391,-0.08810662109375,-0.0248518132324236,0.411624813628096,0.388476999999511,
0.0272460148925781,-0.456813676757813,-0.051188031494144,0.460479418832985,0.391521999999895,
0.252300970947266,-0.0545877978515625,-0.0296402165527372,0.259834851497079,0.394468999999845,
-0.0924640681152345,0.383551105957031,0.0757046564941373,0.401736542759276,0.397510999999213,
-0.147530706298828,0.110612116699219,0.00387860668945095,0.184432625236329,0.400450999999521,
0.0775242497558593,-0.380199223632813,-0.0128808049316422,0.388236234896859,0.40337399999953,
0.0440054265136718,-0.102471831054688,0.0996466730957,0.149554047693106,0.406386999999995,
-0.0661278498535157,0.280600434570312,0.0469742365722627,0.292089156438311,0.409324999999626,
0.000909796630859272,0.0316034619140625,-0.051188031494144,0.0601649491241254,0.412347999999838,
0.055976434814453,-0.198239897460938,-0.0463996281738304,0.211152418159323,0.415294999999787,
-0.0733104548339845,-0.0569819995117188,0.0206380183105441,0.095117289995592,0.418240999999398,
-0.0350032282714844,0.0699106884765625,-0.0200634099121118,0.0807172272194359,0.421251999999186,
0.0440054265136718,0.00047884033203123,0.00866701000976278,0.0448533601107328,0.424205999999685,
0.0176692082519531,-0.0617704028320313,-0.0248518132324236,0.0688868362404717,0.427236999999877,
-0.123588689697266,-0.0330399829101563,-0.051188031494144,0.13778976471435,0.43014199999925,
0.000909796630859272,-0.0545877978515625,0.0206380183105441,0.0583659421578966,0.433100999999624,
0.0487938298339843,0.055545478515625,0.0350032282714814,0.0818007579599542,0.436119999999391,
0.00809240161132801,0.0196324536132812,-0.000909796630862658,0.0212543625786847,0.439069999999447,
-0.0852814631347657,-0.0689530078125,0.0278206232910136,0.113143414837531,0.442109999999957,
-0.0637336481933595,-0.0426167895507813,-0.00330399829101857,0.076740374434567,0.445064999999886,
0.00569819995117177,0.0842758984375,0.0134554133300764,0.0855332957859952,0.448001999999178,
0.0535822331542968,0.00287304199218748,0.00627280834960686,0.0540246073996026,0.451028999999835,
-0.00627280834960947,-0.0857124194335938,-0.0487938298339863,0.0988271460663478,0.453933999999208,
-0.0828872614746095,-0.0186747729492188,0.00627280834960686,0.0851962052209841,0.456954999999653,
-0.039791631591797,0.0124498486328125,0.0230322199707,0.0476325081482799,0.459899999999834,
0.0535822331542968,-0.0234631762695313,-0.0104866032714863,0.0594268053880575,0.46288899999945,
0.0440054265136718,-0.0641646044921875,0.00866701000976278,0.0782859572004989,0.465852999999697,
-0.0326090266113282,-0.0282515795898438,-0.0104866032714863,0.044401229870727,0.468756999999641,
-0.0733104548339845,-0.0234631762695313,-0.0128808049316422,0.0780439527721898,0.471751999999469,
-0.0445800349121095,-0.0258573779296875,0.00148440502929503,0.0515576082111514,0.474676999999247,
0.0320344182128905,-0.01149216796875,0.0469742365722627,0.0580073510549072,0.477678999999625,
0.00330399829101552,0.00287304199218748,-0.0104866032714863,0.01136396159662,0.480641999999534,
-0.0254264216308595,-0.226970317382813,-0.266666180908206,0.351102378132039,0.483571999999185,
0.0894952580566406,-0.440054265136719,0.39413347729492,0.597493393607183,0.486708999999792,
-0.238510369384766,0.948582697753906,-0.0440054265136745,0.979097956460326,0.489724999999453,
0.00569819995117177,0.457771357421875,-0.0847068547363303,0.465577422560278,0.492860999999721,
0.436654498779297,-0.899740983886719,0.039791631591795,1.00089178402781,0.495836999999483,
-0.298365410888672,-0.392170231933594,-0.0990720646972676,0.502627778015695,0.498752999999851,
-0.379768267333985,0.421858332519531,0.00148440502929503,0.56761835157816,0.501772999999957,
-0.00387860668945322,0.531991608886719,0.0469742365722627,0.534075551225927,0.504708999999821,
0.405529877197266,-0.43287166015625,-0.0583706364746117,0.596019703255277,0.507754999999634,
0.0823126530761717,-0.480755693359375,-0.0559764348144558,0.490952921173129,0.510698000000048,
-0.401316082275391,0.309330854492188,0.0350032282714814,0.5079029448853,0.513621000000057,
-0.188232134521484,0.304542451171875,-0.0559764348144558,0.362368324066584,0.516660999999658,
0.348069037353516,-0.248518132324219,0.0254264216308577,0.428438816839781,0.519594999999754,
0.156532904541016,-0.260489140625,-0.0080924016113304,0.304010903671952,0.522599999999329,
-0.293577007568359,0.153707746582031,0.0685220515136695,0.338391492617295,0.525586999999177,
-0.231327764404297,0.168072956542969,-0.051188031494144,0.290484539818611,0.528531999999359,
0.192445929443359,-0.131202250976563,-0.115831476318363,0.260127655828301,0.531557999999677,
0.209205341064453,-0.174297880859375,0.0182438166503882,0.272909257534324,0.53451799999948,
-0.169078521240234,0.0603338818359375,-0.072735846435549,0.193696223501836,0.537515999999414,
-0.226539361083984,0.0962469067382812,0.0517626398925763,0.251521211959699,0.540465999999469,
0.0894952580566406,-0.078529814453125,0.0158496149902323,0.120114708791245,0.543376999999964,
0.130196686279297,-0.131202250976563,-0.0176692082519558,0.185680932515101,0.546378000000004,
-0.0996466730957032,0.0531512768554687,-0.000909796630862658,0.112939565345003,0.549314999999297,
-0.147530706298828,0.0627280834960937,0.0182438166503882,0.161347322897211,0.552338999999847,
0.0344286198730468,-0.097683427734375,-0.0487938298339863,0.114491133936946,0.555264999999963,
0.111043072998047,-0.0450109912109375,0.00627280834960686,0.119982921764856,0.558312999999544,
-0.0278206232910157,0.0292092602539062,-0.0320344182128931,0.0515108912281623,0.561229999999341,
-0.049368438232422,-0.0857124194335938,0.00387860668945095,0.0989894192755985,0.564161999999669,
-0.068522051513672,0.0531512768554687,-0.0296402165527372,0.0916453611062893,0.567173999999795,
0.046399628173828,0.017238251953125,0.0948582697753881,0.106996140911012,0.57013999999981,
0.0200634099121093,-0.01149216796875,0.00387860668945095,0.0234446994387803,0.573138999999173,
-0.0421858332519532,-0.0474051928710938,-0.000909796630862658,0.0634643566753554,0.576082999999926,
-0.078098858154297,-0.0617704028320313,0.0206380183105441,0.101690422906106,0.579019999999218,
-0.049368438232422,0.0411802685546875,0.0828872614746068,0.104896879488879,0.582075999999688,
0.0535822331542968,-0.00670376464843752,-0.0080924016113304,0.0546029590233178,0.58499699999993,
0.065553241455078,-0.0689530078125,-0.0224576115722677,0.0977552508522652,0.588036999999531,
-0.0661278498535157,0.00047884033203123,-0.0631590397949235,0.0914449895955456,0.590979999999945,
-0.0326090266113282,0.045968671875,-0.0272460148925813,0.0626004212287464,0.593896999999743,
0.0392170231933593,-0.0282515795898438,0.0373974299316373,0.0611121462801093,0.596919999999955,
0.0703416447753905,-0.0617704028320313,0.00148440502929503,0.0936254939320997,0.599881999999525,
-0.049368438232422,0.0100556469726562,0.0206380183105441,0.054445261771191,0.602877999999691,
-0.0565510432128907,0.0316034619140625,0.00866701000976278,0.0653598986835901,0.605816999999661,
0.0152750065917968,-0.0162805712890625,-0.0535822331542999,0.058046865011639,0.608726999999817,
0.0152750065917968,-0.0689530078125,-0.0320344182128931,0.077550287317383,0.611767999999756,
-0.0469742365722657,-0.0162805712890625,0.0158496149902323,0.05218089878858,0.614694999999301,
-0.078098858154297,0.00287304199218748,-0.000909796630862658,0.0781569814233086,0.617709999999533,
-0.00627280834960947,-0.0186747729492188,0.0445800349121068,0.0487388426417828,0.620626999999331,
-0.00148440502929698,-0.0665588061523438,-0.0272460148925813,0.0719348556837576,0.623630000000048,
-0.0182438166503907,-0.0426167895507813,-0.0128808049316422,0.0481138517817444,0.626750999999786,
-0.058945244873047,0.0316034619140625,-0.0080924016113304,0.0673706736045895,0.629783999999745,
-0.00866701000976572,0.017238251953125,0.0685220515136695,0.0711866977500065,0.63288299999931,
0.000909796630859272,-0.0689530078125,-0.00569819995117449,0.0691940351402039,0.635837999999239,
-0.030214824951172,0.00047884033203123,-0.0080924016113304,0.0312834125173806,0.638766999999461,
-0.0733104548339845,-0.00191536132812502,-0.00330399829101857,0.0734098617468389,0.641748999999436,
-0.0517626398925782,-0.00670376464843752,-0.0535822331542999,0.0748021861907266,0.644674999999552,
0.0200634099121093,-0.0474051928710938,-0.0392170231933626,0.0647129634354329,0.647715999999491,
-0.00387860668945322,-0.01149216796875,-0.0128808049316422,0.0176926156958335,0.650625999999647,
-0.0278206232910157,-0.0138863696289063,0.0445800349121068,0.0543525331013733,0.653610999999728,
-0.00387860668945322,-0.00430956298828127,0.00627280834960686,0.00854189953068594,0.656533999999738,
-0.00148440502929698,-0.0713472094726563,-0.0248518132324236,0.075566132485164,0.659443999999894,
-0.020638018310547,-0.0186747729492188,0.0182438166503882,0.0332792997291759,0.662464,
-0.00148440502929698,0.0148440502929687,0.078098858154295,0.0795108856220069,0.665450999999848,
0.0176692082519531,-0.0162805712890625,0.0110612116699187,0.0264501101199197,0.66845899999953,
0.000909796630859272,-0.03064578125,0.00866701000976278,0.0318607705625853,0.671411999999691,
-0.00866701000976572,0.0100556469726562,-0.0224576115722677,0.0260878787194153,0.674332999999933,
-0.00387860668945322,-0.01149216796875,0.0445800349121068,0.0462005738842939,0.677346999999827,
-0.0158496149902345,0.0124498486328125,0.00387860668945095,0.020524439484918,0.680278999999246,
-0.00387860668945322,0.00047884033203123,0.00387860668945095,0.00550603920858767,0.683301999999458,
-0.0541568415527345,-0.0138863696289063,-0.0104866032714863,0.0568837727002363,0.68620699999974,
-0.0350032282714844,-0.00670376464843752,-0.0368228215332049,0.0512453572097371,0.68911399999979,
0.0152750065917968,-0.00909796630859377,0.0565510432128882,0.0592800076399935,0.692134999999325,
-0.030214824951172,0.02681505859375,0.00627280834960686,0.0408819170148258,0.695089999999254,
0.00809240161132801,-0.0258573779296875,0.0206380183105441,0.0340590480933345,0.698108999999931,
-0.030214824951172,-0.0450109912109375,-0.034428619873049,0.0642203615918189,0.701052999999774,
-0.0230322199707032,-0.00909796630859377,0.0685220515136695,0.0728596437774242,0.703959999999825,
-0.0613394465332032,0.00047884033203123,0.0230322199707,0.0655228215650241,0.706994999999552,
-0.0350032282714844,-0.0162805712890625,0.0158496149902323,0.0417312027895493,0.709907999999814,
-0.0613394465332032,-0.0234631762695313,-0.0152750065917999,0.0674268060049883,0.712904999999409,
-0.0230322199707032,-0.0186747729492188,-0.0535822331542999,0.0612395787974206,0.715807999999925,
-0.030214824951172,-0.01149216796875,-0.0224576115722677,0.0393617820859622,0.718709999999191,
-0.0469742365722657,-0.0138863696289063,0.0541568415527323,0.0730231035356999,0.721725999999762,
-0.00148440502929698,-0.00670376464843752,-0.0104866032714863,0.0125344631686479,0.724632999999812,
-0.039791631591797,-0.00430956298828127,0.00866701000976278,0.0409519638161174,0.727634999999282,
-0.030214824951172,-0.021068974609375,0.0445800349121068,0.0578292041332501,0.730555999999524,
-0.0254264216308595,0.0124498486328125,-0.0392170231933626,0.048368135751535,0.733455999999933,
-0.0350032282714844,-0.00670376464843752,-0.0128808049316422,0.0378956671081841,0.736442999999781,
0.0296402165527343,-0.01149216796875,0.0326090266113255,0.0455407617245593,0.739365999999791,
-0.0373974299316407,0.00766144531249998,-0.00569819995117449,0.0385970852844093,0.742373000000043,
0.00569819995117177,-0.021068974609375,-0.106254669677737,0.108473157979747,0.745292999999947,
-0.0421858332519532,0.0100556469726562,0.0541568415527323,0.0693810064078638,0.748310999999376,
-0.0134554133300782,-0.0282515795898438,-0.0104866032714863,0.0330025566491154,0.75121499999932,
-0.0158496149902345,-0.00670376464843752,-0.072735846435549,0.0747439235824296,0.75412199999937,
-0.0278206232910157,-0.01149216796875,0.0230322199707,0.0379017171339411,0.757115999999769,
-0.0278206232910157,-0.0330399829101563,-0.000909796630862658,0.0432024916053872,0.760050999999294,
-0.00387860668945322,-0.0474051928710938,-0.0200634099121118,0.0516220526354628,0.763149999999769,
-0.020638018310547,-0.00909796630859377,0.0278206232910136,0.0358146320801885,0.766189999999369,
-0.0421858332519532,-0.0186747729492188,-0.0416112248535185,0.062127978445114,0.769184999999197,
-0.0158496149902345,0.00287304199218748,-0.034428619873049,0.0380104529306143,0.7722389999999,
0.0128808049316406,-0.0234631762695313,0.00866701000976278,0.0281345488474829,0.775180999999975,
-0.0350032282714844,-0.00191536132812502,0.0661278498535136,0.0748450875120857,0.778197999999975,
0.0320344182128905,-0.0282515795898438,0.00627280834960686,0.0431706361332625,0.781160999999884,
-0.121194488037109,0.00287304199218748,-0.0224576115722677,0.123291129520322,0.784115999999813,
0.0392170231933593,-0.0450109912109375,0.00627280834960686,0.0600275966746169,0.787149999999201,
-0.00627280834960947,-0.0138863696289063,-0.0224576115722677,0.0271389702013984,0.790070999999443,
-0.0852814631347657,-0.0833182177734375,-0.0152750065917999,0.120200579007457,0.793077999999696,
-0.0134554133300782,-0.0282515795898438,0.00148440502929503,0.0313273579399144,0.795997999999599,
-0.00866701000976572,-0.00430956298828127,0.00387860668945095,0.0104275109930796,0.798938999999336,
0.00330399829101552,-0.0234631762695313,0.00387860668945095,0.0240100111456364,0.801987999999255,
-0.0158496149902345,-0.00191536132812502,0.0278206232910136,0.0320759409005634,0.804943999999523,
-0.0278206232910157,-0.0258573779296875,-0.00569819995117449,0.0384065171082052,0.807947999999669,
-0.0254264216308595,0.0316034619140625,0.0517626398925763,0.0657620909837299,0.810897999999725,
-0.0134554133300782,-0.00670376464843752,-0.0559764348144558,0.0579598987480301,0.813797999999224,
-0.00866701000976572,-0.0378283862304688,0.00866701000976278,0.0397645687744785,0.816845999999714,
-0.0182438166503907,-0.0474051928710938,-0.00569819995117449,0.0511131943807295,0.819795999999769,
-0.0517626398925782,-0.0138863696289063,0.0158496149902323,0.0558874981141394,0.822800999999345,
-0.00866701000976572,-0.0378283862304688,0.00627280834960686,0.0393122371775227,0.825764999999592,
-0.011061211669922,-0.0450109912109375,0.0493684382324187,0.0677169286582465,0.828733999999713,
0.0152750065917968,0.0100556469726562,-0.000909796630862658,0.0183103684377911,0.831758999999693,
-0.00148440502929698,-0.00909796630859377,0.00627280834960686,0.0111500929966618,0.83470699999998,
-0.0613394465332032,-0.03064578125,-0.0200634099121118,0.0714439082548258,0.837696999999935,
-0.0517626398925782,-0.0354341845703125,0.039791631591795,0.0742854378027675,0.840628999999353,
-0.020638018310547,0.0148440502929687,-0.0128808049316422,0.0284989256740263,0.843622999999752,
0.00809240161132801,0.00287304199218748,-0.0392170231933626,0.0401461858994928,0.846587,
-0.0158496149902345,-0.0330399829101563,0.0158496149902323,0.0399256942504533,0.849505999999565,
-0.00627280834960947,-0.040222587890625,-0.000909796630862658,0.0407189443762914,0.852519999999458,
-0.0350032282714844,-0.021068974609375,0.0373974299316373,0.0553867804264507,0.855450000000019,
-0.020638018310547,-0.0282515795898438,0.0302148249511696,0.0462278616846764,0.858455999999933,
-0.00866701000976572,0.0316034619140625,0.0254264216308577,0.0414776902010361,0.861399999999776,
-0.0421858332519532,-0.0569819995117188,0.0326090266113255,0.078038076680895,0.864335999999639,
-0.0350032282714844,-0.0138863696289063,0.0182438166503882,0.0418436864636619,0.867343999999321,
-0.0230322199707032,-0.0162805712890625,-0.0535822331542999,0.0605524224790294,0.870247999999265,
0.0224576115722656,-0.03064578125,0.0373974299316373,0.0533111244623984,0.873274999999921,
-0.0469742365722657,-0.00430956298828127,0.0350032282714814,0.0587399116795607,0.876201000000037,
-0.039791631591797,-0.0258573779296875,0.0373974299316373,0.0604197459745381,0.87912199999937,
-0.030214824951172,-0.00909796630859377,0.0373974299316373,0.0489313437713905,0.882128999999622,
0.0176692082519531,-0.0186747729492188,-0.0440054265136745,0.0509649450858741,0.88506899999993,
-0.00148440502929698,0.0244208569335937,0.0110612116699187,0.0268501790546879,0.888112999999976,
-0.0421858332519532,-0.0282515795898438,-0.0128808049316422,0.0523804487587678,0.891030999999202,
-0.0134554133300782,0.00287304199218748,0.00387860668945095,0.0142949679266367,0.893978000000061,
-0.0230322199707032,-0.0282515795898438,0.00148440502929503,0.0364806574007533,0.896982999999636,
-0.039791631591797,-0.021068974609375,0.0613394465332,0.0760907572365205,0.899970999999823,
-0.011061211669922,-0.00430956298828127,-0.051188031494144,0.0525465251467902,0.903072999999495,
-0.0158496149902345,-0.0186747729492188,-0.0320344182128931,0.0403256914420829,0.906095999999707,
0.00330399829101552,-0.040222587890625,0.0110612116699187,0.0418464261906896,0.909136999999646,
-0.0230322199707032,-0.0354341845703125,0.0302148249511696,0.0519519031390733,0.912133999999241,
0.0104866032714843,-0.00430956298828127,0.0134554133300764,0.0175951507298649,0.91508899999917,
-0.0182438166503907,-0.00191536132812502,-0.0176692082519558,0.0254697148637619,0.918079999999463,
0.00569819995117177,-0.0282515795898438,0.0421858332519509,0.0510907600175043,0.921032999999625,
0.00569819995117177,-0.0234631762695313,-0.0104866032714863,0.0263241138789547,0.923953999999867,
-0.0517626398925782,-0.00430956298828127,-0.0248518132324236,0.0575808635115692,0.926958999999442,
-0.0254264216308595,-0.0665588061523438,0.0230322199707,0.0748803094955825,0.929904999999962,
-0.0278206232910157,0.0100556469726562,0.0206380183105441,0.0360698061559201,0.932949000000008,
-0.0158496149902345,0.00766144531249998,0.00627280834960686,0.0186883965124349,0.935886999999639,
0.000909796630859272,-0.00670376464843752,0.0517626398925763,0.0522028646629637,0.938907999999174,
-0.0326090266113282,0.0196324536132812,0.0517626398925763,0.0642507022534733,0.941887999999381,
-0.00148440502929698,-0.0354341845703125,-0.0128808049316422,0.0377319497262068,0.944805999999517,
-0.030214824951172,-0.0138863696289063,-0.00330399829101857,0.0334168118318853,0.947797999999239,
0.0176692082519531,-0.0282515795898438,0.0134554133300764,0.0359360656924956,0.950755999999274,
-0.020638018310547,0.02681505859375,0.0206380183105441,0.0396346182895593,0.953760999999758,
-0.00387860668945322,-0.0258573779296875,-0.0272460148925813,0.0377623213107579,0.956686999999874,
-0.00627280834960947,-0.00191536132812502,0.0613394465332,0.061689094940739,0.959602999999333,
-0.0326090266113282,0.00766144531249998,0.00627280834960686,0.0340792383337075,0.962638999999399,
-0.0278206232910157,-0.00430956298828127,0.0110612116699187,0.0302474762097157,0.965555999999197,
0.0152750065917968,-0.0330399829101563,-0.00330399829101857,0.0365497291616492,0.968571999999767,
-0.011061211669922,-0.0282515795898438,0.0158496149902323,0.0342302855417055,0.971513999999843,
-0.00387860668945322,-0.0258573779296875,0.0230322199707,0.0348443788871157,0.974421999999322,
-0.030214824951172,-0.0354341845703125,0.0206380183105441,0.0509356936026132,0.977417999999489,
-0.0373974299316407,0.0220266552734375,-0.0080924016113304,0.0441500653664962,0.980360999999903,
0.0128808049316406,0.00526724365234373,-0.000909796630862658,0.0139458496080253,0.98338799999965,
-0.0541568415527345,0.0100556469726562,-0.0392170231933626,0.0676169685149772,0.986332999999831,
-0.0421858332519532,-0.0330399829101563,-0.00330399829101857,0.053686137899574,0.989227000000028,
-0.0373974299316407,-0.0138863696289063,0.00148440502929503,0.0399199509675749,0.992244999999457,
0.00330399829101552,0.00287304199218748,0.0709162531738254,0.0710512894971654,0.995210000000043,
0.0200634099121093,0.00047884033203123,0.0206380183105441,0.0287871065783149,0.998253999999179,
-0.020638018310547,0.0196324536132812,0.039791631591795,0.0489360294609324,1.00118499999917,
0.0248518132324218,-0.0138863696289063,0.0493684382324187,0.0569884775715049,1.00413499999922,
-0.020638018310547,-0.00670376464843752,-0.0224576115722677,0.0312283937752002,1.00712599999952,
-0.00627280834960947,0.00526724365234373,-0.0128808049316422,0.0152645706120776,1.01006899999993,
