X,Y,Z,Magnitude,Seconds,
0.0224576115722656,-0.03064578125,0.0158496149902323,0.0411669590969773,0.0,
-0.0517626398925782,0.0124498486328125,-0.0200634099121118,0.0568938488496788,0.00400999999965279,
0.00330399829101552,-0.0378283862304688,-0.0440054265136745,0.0581238399639851,0.00818499999968481,
-0.0373974299316407,-0.040222587890625,0.0158496149902323,0.0571632280181029,0.0121319999998377,
0.0152750065917968,-0.0186747729492188,-0.00330399829101857,0.024351373180816,0.0160599999999249,
0.00809240161132801,-0.00909796630859377,0.0110612116699187,0.0164502388553503,0.0199089999996431,
-0.011061211669922,-0.0138863696289063,0.0206380183105441,0.0272233257495072,0.0237850000003164,
-0.039791631591797,-0.0450109912109375,-0.000909796630862658,0.0600848650197196,0.0277729999997973,
0.0200634099121093,0.017238251953125,-0.0080924016113304,0.0276619723002502,0.0317509999995309,
-0.0517626398925782,-0.00909796630859377,-0.0368228215332049,0.0641721439977449,0.0356750000000829,
-0.030214824951172,-0.040222587890625,-0.0080924016113304,0.0509536965026884,0.0396170000003622,
-0.011061211669922,-0.03064578125,0.0182438166503882,0.0373410117431579,0.0434530000002269,
-0.0278206232910157,-0.0186747729492188,-0.034428619873049,0.0480423156328708,0.047273000000132,
0.00809240161132801,-0.0474051928710938,0.00387860668945095,0.0482471021392589,0.0510709999998653,
-0.020638018310547,-0.0186747729492188,0.00627280834960686,0.0285310895179669,0.0548730000000432,
0.0128808049316406,-0.04979939453125,-0.0104866032714863,0.052496320628589,0.0588459999999031,
-0.049368438232422,-0.0234631762695313,0.0637336481933577,0.0839627372481284,0.0627070000000458,
-0.0613394465332032,-0.0354341845703125,0.0110612116699187,0.0716969981294155,0.0664980000001378,
-0.0134554133300782,0.017238251953125,-0.0224576115722677,0.0313456503491874,0.070397999999841,
-0.0158496149902345,-0.0162805712890625,0.0373974299316373,0.043758828393007,0.0743510000002061,
-0.0278206232910157,0.00766144531249998,-0.00569819995117449,0.0294135055248537,0.0781740000002173,
-0.00866701000976572,-0.0282515795898438,-0.0320344182128931,0.0435829411819486,0.0821759999998903,
-0.0541568415527345,-0.04979939453125,0.0254264216308577,0.0778424440751781,0.0860929999998916,
0.00809240161132801,-0.00909796630859377,0.0517626398925763,0.0531754721976201,0.0899980000003779,
-0.0158496149902345,-0.0234631762695313,0.0373974299316373,0.0469073416586943,0.0938409999998839,
-0.0661278498535157,-0.0378283862304688,0.00387860668945095,0.076281864954274,0.0978519999998753,
-0.0278206232910157,-0.00430956298828127,0.0517626398925763,0.0589230880224306,0.101829999999609,
-0.00866701000976572,-0.00909796630859377,0.0182438166503882,0.0221523565210266,0.10578600000008,
-0.0517626398925782,-0.0617704028320313,0.00627280834960686,0.0808350275516193,0.109787999999753,
-0.0421858332519532,0.0124498486328125,0.0996466730957,0.108922461949695,0.113714000000073,
-0.00627280834960947,-0.0761356127929688,-0.0296402165527372,0.081942187530264,0.117564000000129,
-0.0350032282714844,0.00766144531249998,-0.0296402165527372,0.0465023243612105,0.121446999999534,
-0.0158496149902345,-0.0258573779296875,0.00627280834960686,0.030970347323339,0.125237000000197,
0.00569819995117177,-0.040222587890625,-0.0296402165527372,0.0502878563531569,0.129047000000355,
-0.0230322199707032,0.00287304199218748,0.00387860668945095,0.0235325544070164,0.133090999999695,
-0.030214824951172,-0.0282515795898438,-0.0583706364746117,0.0715417262763662,0.136908000000403,
-0.00866701000976572,-0.0234631762695313,0.0230322199707,0.0340017773056525,0.140741999999591,
0.00809240161132801,-0.040222587890625,0.0493684382324187,0.0641917925748005,0.144667999999911,
-0.0158496149902345,-0.01149216796875,0.00148440502929503,0.0196337382648243,0.148742000000311,
-0.049368438232422,-0.040222587890625,0.00866701000976278,0.0642667591577236,0.15262999999959,
-0.0278206232910157,-0.0713472094726563,-0.00569819995117449,0.0767911509388892,0.156574999999975,
-0.0637336481933595,0.110612116699219,-0.0703416447753931,0.145756527340713,0.160490999999638,
0.0775242497558593,-0.167115275878906,0.0876756647949186,0.204020947281211,0.164324999999735,
-0.00148440502929698,-0.078529814453125,0.0637336481933577,0.101148965038541,0.1680980000001,
-0.0661278498535157,0.0339976635742187,0.0948582697753881,0.120527279067999,0.172031000000061,
0.0104866032714843,-0.0378283862304688,0.0230322199707,0.0455130619685573,0.175956000000042,
-0.0637336481933595,-0.01149216796875,0.0278206232910136,0.0704842884404558,0.179836999999679,
-0.0134554133300782,-0.0186747729492188,0.0445800349121068,0.0501714540884833,0.183885000000373,
-0.0326090266113282,-0.0713472094726563,-0.0104866032714863,0.0791438043326637,0.187823000000208,
-0.0661278498535157,0.02681505859375,0.0589452448730441,0.0925552904310634,0.19173899999987,
0.0224576115722656,-0.0474051928710938,0.104435076416014,0.116868651976032,0.195646000000124,
-0.0182438166503907,-0.0737414111328125,0.00148440502929503,0.075979181491528,0.19952000000012,
-0.0948582697753907,0.0770932934570312,-0.0559764348144558,0.134442658763392,0.203416999999718,
0.075130048095703,-0.040222587890625,0.106829278076169,0.136656047644286,0.20743500000026,
-0.0350032282714844,-0.0450109912109375,0.0469742365722627,0.0738768855648615,0.211338000000069,
-0.068522051513672,-0.0450109912109375,0.0206380183105441,0.0845410472682931,0.215192999999999,
0.0535822331542968,0.0148440502929687,0.111617681396481,0.124699271606646,0.21922799999993,
-0.0326090266113282,0.00047884033203123,0.0421858332519509,0.0533218757337296,0.223103000000265,
-0.0804930598144532,-0.00909796630859377,0.0517626398925763,0.0961315585949483,0.227068999999574,
0.00809240161132801,0.0220266552734375,0.0302148249511696,0.0382569752228753,0.23102899999958,
-0.011061211669922,-0.00670376464843752,-0.051188031494144,0.0527968316503361,0.234921999999642,
-0.0158496149902345,-0.0354341845703125,0.00866701000976278,0.0397732170437716,0.238752000000204,
-0.00866701000976572,0.074699091796875,0.0876756647949186,0.115507980568523,0.242675000000418,
0.0152750065917968,-0.100077629394531,-0.0272460148925813,0.104838938658951,0.246691000000283,
-0.0517626398925782,-0.0186747729492188,0.0613394465332,0.0824053744263862,0.250700999999935,
0.00569819995117177,0.0339976635742187,0.0110612116699187,0.0362030525618495,0.254767999999785,
0.000909796630859272,-0.0138863696289063,0.0134554133300764,0.0193573536224178,0.258944999999585,
-0.0445800349121095,-0.0282515795898438,0.0541568415527323,0.0756207296252418,0.262821999999687,
-0.0326090266113282,-0.0234631762695313,0.0206380183105441,0.0451641124896722,0.266743999999562,
-0.00627280834960947,-0.00191536132812502,-0.0128808049316422,0.0144544757530402,0.270580999999765,
0.0104866032714843,-0.021068974609375,0.0350032282714814,0.0421793376985631,0.274468999999954,
-0.011061211669922,-0.03064578125,-0.0463996281738304,0.0566960299024489,0.278320999999778,
-0.0350032282714844,-0.0282515795898438,-0.0200634099121118,0.0492536105889543,0.282299000000421,
0.00330399829101552,-0.0162805712890625,-0.0080924016113304,0.0184786463260798,0.286181000000397,
-0.0350032282714844,0.0483628735351562,0.0182438166503882,0.0624261994035849,0.290176000000429,
-0.0182438166503907,-0.0138863696289063,-0.0200634099121118,0.0304665148112663,0.29420300000038,
0.00809240161132801,-0.03064578125,0.0541568415527323,0.0627504132195926,0.298111000000063,
-0.0517626398925782,0.02681505859375,0.0110612116699187,0.0593360654209708,0.302139999999781,
0.000909796630859272,-0.0713472094726563,-0.00330399829101857,0.0714294647477613,0.306055000000015,
0.211599542724609,-0.1838746875,2.41483967846679,2.43105634239153,0.310029999999642,
0.293002399169922,-11.5347847583008,-4.99282025805664,12.5724048596722,0.313919000000169,
-1.29195909985352,13.8102340161133,9.22155499829102,16.6561939974897,0.31689600000027,
-3.78671722973633,19.0367762402344,-14.943122357666,24.4956115007344,0.319932000000335,
6.92972940112305,-11.6233702197266,9.38136795910644,16.4661455605665,0.322943000000123,
1.84683927661133,-19.3997372119141,-7.33434948168946,20.8219427893873,0.325950000000375,
-4.86410797680664,1.93978218505859,-5.28491286059571,7.43993315021006,0.329001000000062,
-5.88643208569336,14.2890743481445,8.77862769116211,17.7733517538567,0.331998999999996,
3.49644422045898,1.19039706542969,-3.12534296313477,4.83838154731318,0.334947000000284,
6.70467444506836,-5.60674144775391,-0.362434247314456,8.74754637941067,0.338010000000395,
-0.248087176025391,-4.29950734130859,1.01662590893554,4.42502416531184,0.341000000000349,
-6.1306406550293,2.25581680419922,-1.31053810473633,6.66265520788608,0.344081000000187,
-1.7851646418457,4.27652300537109,0.822695574462887,4.70662191196671,0.34703300000001,
4.40624085131836,-1.36900450927734,0.231327764404295,4.61980998752467,0.349962999999661,
2.57946498461914,-3.11916592285156,-0.233147357666018,4.05428086737233,0.353054999999586,
-2.31667741040039,0.974918916015625,-0.221176349365237,2.52316866146183,0.355964999999742,
-2.75242211254883,2.07146327636719,0.374979864013669,3.46516918625936,0.359096999999565,
0.771842731201172,-0.813549724121094,-0.127802484619144,1.1286885444623,0.362049999999726,
2.3520158269043,-1.50068560058594,-0.0320344182128931,2.79017238280442,0.365018999999847,
0.00569819995117177,0.656490095214844,0.0493684382324187,0.658368405447426,0.368077000000085,
-1.69179077709961,1.08744639404297,0.078098858154295,2.01265872045942,0.371030000000246,
-0.322307427490234,-0.511880314941406,-0.118225677978518,0.616344745717335,0.374050000000352,
0.891552814208984,-1.00269165527344,-0.12301408129883,1.34736388562138,0.377011999999922,
0.321732819091797,0.292571442871094,0.130771294677732,0.454104820031806,0.380051000000094,
-0.279211797607422,0.757046564941406,0.0206380183105441,0.807158384217458,0.383052999999563,
-0.288788604248047,-0.188663090820313,-0.0871010563964862,0.355779726525827,0.386000000000422,
-0.291182805908203,-0.588494768066406,-0.0631590397949235,0.659623061153811,0.389052999999876,
0.357645843994141,-0.102471831054688,0.0350032282714814,0.373679343656305,0.392021999999997,
0.302579205810547,0.438617744140625,0.0493684382324187,0.53514198485772,0.395086999999876,
-0.295971209228516,0.232716401367187,-0.0487938298339863,0.379653418247949,0.398049000000356,
-0.303153814208984,-0.368228215332031,-0.0224576115722677,0.477491987318739,0.401025000000118,
0.151744501220703,-0.2987963671875,0.0110612116699187,0.335302867716299,0.40411099999983,
0.156532904541016,0.211168586425781,0.0565510432128882,0.268873097548965,0.407113000000209,
-0.123588689697266,0.323696064453125,0.104435076416014,0.361883947626235,0.410224000000198,
-0.0757046564941407,-0.171903679199219,-0.0200634099121118,0.188903706566137,0.413241999999627,
0.0344286198730468,-0.392170231933594,-0.0535822331542999,0.397308288852641,0.416247999999541,
-0.0158496149902345,0.0483628735351562,0.039791631591795,0.0646030322558726,0.419345999999678,
-0.0278206232910157,0.323696064453125,0.0350032282714814,0.326769575101734,0.422319000000243,
0.0679474431152343,-0.0474051928710938,0.00627280834960686,0.083087035460621,0.425443000000087,
-0.0517626398925782,-0.214999309082031,0.0326090266113255,0.223533940176738,0.428445999999894,
-0.0924640681152345,-0.0138863696289063,-0.0104866032714863,0.0940872148703684,0.431367000000137,
0.00569819995117177,0.0603338818359375,-0.0440054265136745,0.0748940875017968,0.434439999999995,
0.0440054265136718,0.0244208569335937,-0.0392170231933626,0.0638030620281657,0.437449000000015,
0.0176692082519531,-0.0521935961914063,-0.00569819995117449,0.0553971288635614,0.440582000000177,
-0.0757046564941407,-0.107260234375,0.00387860668945095,0.131343048856524,0.443535000000338,
-0.0254264216308595,-0.0282515795898438,0.0445800349121068,0.0585835657760449,0.446455999999671,
0.0416112248535155,0.06512228515625,-0.000909796630862658,0.077286698646606,0.449526000000333,
-0.0134554133300782,0.0292092602539062,0.0757046564941373,0.0822521978269213,0.452522999999928,
-0.0421858332519532,-0.078529814453125,-0.0080924016113304,0.0895101293097206,0.455541999999696,
-0.0254264216308595,-0.00191536132812502,-0.0152750065917999,0.0297236833576703,0.45853999999963,
-0.0469742365722657,-0.0521935961914063,0.0230322199707,0.0739001592807315,0.461562999999842,
0.0176692082519531,-0.0474051928710938,0.0254264216308577,0.0566211634315883,0.464638999999806,
0.0392170231933593,-0.0282515795898438,-0.0368228215332049,0.0607622155877813,0.467601000000286,
-0.0733104548339845,0.045968671875,0.00387860668945095,0.0866174645886645,0.470674999999574,
-0.0637336481933595,0.0220266552734375,0.0278206232910136,0.0729461344751746,0.473654000000352,
-0.0158496149902345,-0.0282515795898438,0.00627280834960686,0.0329956083327894,0.476663999999801,
-0.020638018310547,-0.0258573779296875,-0.0128808049316422,0.0355027735377418,0.479645000000346,
-0.00148440502929698,0.0292092602539062,0.0757046564941373,0.0811577436709939,0.482670999999755,
-0.0278206232910157,-0.00909796630859377,-0.034428619873049,0.0451894892382711,0.485695999999734,
-0.0158496149902345,-0.00191536132812502,0.0158496149902323,0.0224964263760833,0.488642999999684,
-0.00627280834960947,-0.0234631762695313,0.0661278498535136,0.0704468685712493,0.491684999999961,
-0.030214824951172,-0.00670376464843752,-0.0152750065917999,0.0345137933828076,0.494646999999532,
-0.0254264216308595,-0.0354341845703125,-0.0775242497558626,0.0889499502716138,0.497553000000153,
0.00569819995117177,-0.349074602050781,-0.269060382568362,0.440770957241319,0.500661000000036,
0.0918894597167968,-0.466390483398438,0.50905515698242,0.696491858288429,0.50363600000037,
-0.157107512939453,1.60459395263672,-0.0463996281738304,1.61293442177759,0.506680999999844,
0.312156012451172,0.0339976635742187,-0.170898114501956,0.357495989877153,0.509632999999667,
-0.0158496149902345,-1.21577560302734,-0.0080924016113304,1.21590584099908,0.512577999999849,
-0.109223479736328,-0.1838746875,-0.0631590397949235,0.22299940254797,0.515610000000379,
-0.157107512939453,0.766623371582031,-0.0104866032714863,0.782626432805585,0.518557999999757,
-0.011061211669922,0.203985981445312,0.0852814631347627,0.221371992321116,0.521593000000394,
0.324127020751953,-0.545399138183594,-0.0416112248535185,0.635806605460146,0.524589999999989,
0.0128808049316406,-0.128808049316406,-0.034428619873049,0.133950582569646,0.527592000000368,
-0.456382720458985,0.280600434570312,0.128377093017576,0.550910582060497,0.530703000000358,
0.120619879638672,-0.0450109912109375,-0.0152750065917999,0.129647485591578,0.533679999999549,
0.273848785888672,-0.20302830078125,-0.0631590397949235,0.346702628716077,0.53674299999966,
-0.0445800349121095,0.00526724365234373,-0.101466266357424,0.110952812388752,0.53967399999965,
-0.288788604248047,0.146525141601562,-0.0224576115722677,0.324611797971706,0.542693999999756,
-0.0613394465332032,-0.021068974609375,0.0134554133300764,0.0662380369574264,0.545769000000291,
0.245118365966797,-0.186268889160156,-0.0152750065917999,0.308240876960812,0.548791999999594,
0.065553241455078,0.0316034619140625,-0.00330399829101857,0.0728486285041003,0.551859999999579,
-0.252875579345703,0.189620771484375,0.106829278076169,0.333638412449811,0.554904999999962,
-0.0613394465332032,-0.107260234375,-0.0176692082519558,0.124817813229645,0.557896999999684,
0.120619879638672,-0.162326872558594,-0.0559764348144558,0.209839296065438,0.560991999999715,
0.00809240161132801,0.0244208569335937,-0.0368228215332049,0.0449197662825213,0.563983000000007,
-0.0733104548339845,0.139342536621094,0.0350032282714814,0.161294734227104,0.567183999999543,
-0.0421858332519532,-0.0713472094726563,-0.0583706364746117,0.101376526026235,0.57013199999983,
0.0392170231933593,-0.128808049316406,-0.0104866032714863,0.135053535033407,0.57315699999981,
0.0224576115722656,0.00047884033203123,0.00387860668945095,0.022795113411558,0.576188000000002,
-0.0565510432128907,0.036391865234375,0.0589452448730441,0.0894255569557511,0.579176999999618,
-0.00866701000976572,-0.0258573779296875,0.0134554133300764,0.0304100181484863,0.582250000000386,
-0.0134554133300782,-0.102471831054688,0.0493684382324187,0.114537186106049,0.585191000000123,
-0.0373974299316407,0.0699106884765625,0.00866701000976278,0.0797570635822826,0.588203000000249,
-0.0158496149902345,0.117794721679687,0.102040874755858,0.156649758607776,0.591188000000329,
-0.00627280834960947,-0.0857124194335938,-0.0200634099121118,0.0882525205705348,0.594097999999576,
-0.0804930598144532,-0.195845695800781,0.00627280834960686,0.211834882317753,0.597173000000112,
-0.0900698664550782,0.0794874951171875,0.0110612116699187,0.120636616028664,0.600220999999692,
0.00569819995117177,0.1608903515625,0.0134554133300764,0.161552538997292,0.603299000000334,
0.0248518132324218,-0.138384855957031,-0.0296402165527372,0.143688981541664,0.606300000000374,
-0.0350032282714844,-0.171903679199219,0.0350032282714814,0.178889146962802,0.60927300000003,
-0.109223479736328,0.0770932934570312,0.0517626398925763,0.1433614847524,0.612350999999762,
-0.0350032282714844,0.132159931640625,0.0110612116699187,0.13716349340946,0.615340000000288,
0.0416112248535155,-0.0713472094726563,0.00866701000976278,0.0830483918920424,0.618373999999676,
0.0224576115722656,-0.138384855957031,0.0302148249511696,0.143414254251831,0.621379000000161,
-0.0828872614746095,0.0148440502929687,0.0134554133300764,0.0852742170397575,0.624364000000242,
-0.0709162531738282,0.117794721679687,-0.0104866032714863,0.137893728167684,0.627424000000246,
0.0511880314941405,-0.0282515795898438,-0.0416112248535185,0.0717625274873766,0.630361999999877,
-0.0254264216308595,-0.116837041015625,0.0158496149902323,0.120617608024598,0.633464999999887,
-0.0134554133300782,-0.00909796630859377,0.0230322199707,0.0281834046136067,0.636371999999938,
-0.0804930598144532,0.122583125,-0.0248518132324236,0.148739261239251,0.639358999999786,
0.0248518132324218,-0.0450109912109375,0.0326090266113255,0.060884731807477,0.64247400000022,
0.0440054265136718,-0.140779057617188,-0.0871010563964862,0.171294526041019,0.645411999999851,
-0.00866701000976572,0.00287304199218748,-0.0104866032714863,0.0139046855761574,0.64847699999973,
-0.0828872614746095,0.0866701000976562,-0.0128808049316422,0.120614756565625,0.651410000000396,
-0.0254264216308595,-0.0450109912109375,0.0206380183105441,0.0556634534189866,0.654394000000138,
0.0128808049316406,-0.0809240161132813,0.0158496149902323,0.0834614989976108,0.657443000000058,
0.000909796630859272,-0.0258573779296875,-0.0152750065917999,0.0300459240112157,0.660361000000194,
-0.0373974299316407,0.0507570751953125,0.0206380183105441,0.0663383467359636,0.663464999999633,
0.0200634099121093,-0.0258573779296875,-0.0224576115722677,0.0396924265853181,0.666419000000133,
0.0128808049316406,-0.0641646044921875,0.0230322199707,0.0693793540046644,0.669458999999733,
0.0200634099121093,-0.00909796630859377,0.0326090266113255,0.0393530433993582,0.672477000000072,
-0.0565510432128907,-0.00430956298828127,0.039791631591795,0.0692817924591543,0.675438999999642,
-0.00387860668945322,-0.00909796630859377,-0.0440054265136745,0.0451031500391512,0.678463000000193,
-0.0230322199707032,-0.00430956298828127,-0.0128808049316422,0.0267389346387593,0.681405999999697,
-0.0350032282714844,-0.00430956298828127,-0.0440054265136745,0.0563939348265929,0.68444399999953,
-0.0350032282714844,0.02681505859375,0.0757046564941373,0.0876097504374211,0.6875,
-0.0469742365722657,-0.00909796630859377,-0.0296402165527372,0.0562840504032239,0.690502000000379,
-0.0517626398925782,-0.0474051928710938,-0.00330399829101857,0.0702676284251958,0.693613999999798,
-0.0278206232910157,-0.04979939453125,0.0254264216308577,0.0624537404238517,0.696611999999732,
-0.0182438166503907,-0.03064578125,0.0134554133300764,0.0381188785548463,0.699673000000075,
-0.030214824951172,-0.00430956298828127,0.00627280834960686,0.0311585639041793,0.702635999999984,
-0.00627280834960947,-0.0162805712890625,0.00387860668945095,0.0178731283199285,0.705643000000236,
-0.030214824951172,-0.021068974609375,0.0493684382324187,0.0615961040280032,0.708773000000292,
-0.0230322199707032,-0.00670376464843752,-0.0416112248535185,0.0480303825828046,0.711699000000408,
-0.0469742365722657,-0.01149216796875,0.0613394465332,0.0781100283393141,0.714762999999948,
-0.0469742365722657,0.00287304199218748,0.0757046564941373,0.0891404974561584,0.717762000000221,
-0.00148440502929698,-0.0138863696289063,-0.0152750065917999,0.0206968728589887,0.720739000000322,
-0.0158496149902345,-0.0186747729492188,-0.0392170231933626,0.0462377805283978,0.723783999999796,
-0.00387860668945322,-0.0162805712890625,0.00627280834960686,0.0178731283199281,0.726713000000018,
-0.030214824951172,0.00047884033203123,-0.0224576115722677,0.03764982406897,0.729752999999619,
-0.0421858332519532,-0.0282515795898438,0.00866701000976278,0.0515064397817614,0.732724000000417,
-0.0517626398925782,0.0244208569335937,0.0445800349121068,0.0725474234882566,0.735689000000093,
-0.00387860668945322,-0.040222587890625,0.0517626398925763,0.0656678845031501,0.738798999999744,
-0.0637336481933595,-0.0138863696289063,-0.072735846435549,0.0977001153029068,0.741788999999699,
-0.0158496149902345,-0.0378283862304688,-0.0128808049316422,0.0429896759214024,0.744869000000108,
-0.049368438232422,-0.0282515795898438,0.0110612116699187,0.0579460511720729,0.747867000000042,
-0.0350032282714844,0.00766144531249998,0.00866701000976278,0.0368651705029477,0.750820999999632,
-0.0541568415527345,-0.00191536132812502,-0.000909796630862658,0.0541983378517717,0.753864999999678,
-0.030214824951172,-0.021068974609375,0.00866701000976278,0.0378411733490094,0.756814000000304,
-0.030214824951172,-0.04979939453125,-0.0128808049316422,0.059655934140671,0.75987299999997,
-0.0230322199707032,-0.0354341845703125,0.0350032282714814,0.0548752274015085,0.762867000000369,
-0.011061211669922,-0.0641646044921875,0.0182438166503882,0.0676186639857566,0.765879999999925,
-0.0182438166503907,-0.0234631762695313,0.00627280834960686,0.0303760697131651,0.768858999999793,
0.0104866032714843,-0.0354341845703125,0.0254264216308577,0.044855916012123,0.77185499999996,
-0.068522051513672,0.0124498486328125,0.0565510432128882,0.0897122665140515,0.774913000000197,
-0.0421858332519532,0.0124498486328125,0.0206380183105441,0.0485857083711651,0.777852000000166,
-0.0373974299316407,0.0292092602539062,-0.0272460148925813,0.054718314827845,0.780902999999853,
0.00330399829101552,-0.0258573779296875,0.0110612116699187,0.0283173233500709,0.783908999999767,
0.0128808049316406,-0.021068974609375,-0.0104866032714863,0.0268288217212574,0.786858999999822,
-0.0230322199707032,-0.0426167895507813,0.0373974299316373,0.0611983796671624,0.789915000000292,
-0.0230322199707032,-0.0234631762695313,-0.00569819995117449,0.0333687470564527,0.792846999999711,
-0.0469742365722657,0.0124498486328125,0.0350032282714814,0.0598899292197992,0.795914999999695,
-0.0373974299316407,0.00287304199218748,-0.0104866032714863,0.0389460008724181,0.798869999999624,
-0.030214824951172,-0.0138863696289063,0.0158496149902323,0.036837171493468,0.801779999999781,
-0.0421858332519532,-0.0138863696289063,-0.0176692082519558,0.0477982919034059,0.804830000000038,
-0.0541568415527345,-0.0162805712890625,-0.00330399829101857,0.0566474791422645,0.807840000000397,
-0.0278206232910157,-0.0234631762695313,-0.0176692082519558,0.0404562558970388,0.810900000000402,
-0.00627280834960947,0.00526724365234373,-0.0631590397949235,0.0636879603072733,0.813852999999654,
0.000909796630859272,-0.0282515795898438,0.0158496149902323,0.0324066316449179,0.81683299999986,
-0.0134554133300782,-0.0258573779296875,-0.00330399829101857,0.0293354486243008,0.819837000000007,
0.00330399829101552,-0.0354341845703125,-0.034428619873049,0.049515933872168,0.822844999999688,
-0.00866701000976572,-0.0234631762695313,-0.0200634099121118,0.0320652166757984,0.825890000000072,
-0.0182438166503907,-0.00191536132812502,-0.0080924016113304,0.0200497485976611,0.828864000000067,
0.00569819995117177,-0.040222587890625,-0.0272460148925813,0.0489149403232729,0.831860999999662,
-0.0278206232910157,-0.00909796630859377,-0.034428619873049,0.0451894892382711,0.834961999999905,
-0.00627280834960947,-0.00191536132812502,0.0421858332519509,0.0426926370791219,0.837969000000157,
-0.020638018310547,-0.0426167895507813,0.0278206232910136,0.0549190825824917,0.841059999999743,
-0.011061211669922,-0.03064578125,0.0541568415527323,0.0632018812931816,0.844003999999586,
0.0104866032714843,0.0148440502929687,0.0302148249511696,0.0352597550204693,0.847074999999677,
-0.00866701000976572,-0.0138863696289063,0.0733104548339814,0.0751157181417126,0.850126000000273,
-0.0326090266113282,-0.0282515795898438,-0.0176692082519558,0.0466229695119323,0.853057000000263,
-0.011061211669922,-0.01149216796875,0.0565510432128882,0.0587574745602185,0.856133000000227,
0.00569819995117177,-0.0641646044921875,0.00627280834960686,0.0647218207169211,0.859129999999823,
-0.0373974299316407,-0.0162805712890625,0.0326090266113255,0.0522204307099085,0.86218000000008,
-0.0350032282714844,-0.0258573779296875,0.00387860668945095,0.0436906577276629,0.865139999999883,
-0.0445800349121095,-0.0474051928710938,-0.0152750065917999,0.0668427830830676,0.868085000000065,
-0.00866701000976572,-0.0162805712890625,0.0493684382324187,0.0527012026192549,0.871111000000383,
-0.00387860668945322,-0.021068974609375,-0.0176692082519558,0.0277695192827126,0.874037999999928,
-0.0182438166503907,-0.0282515795898438,0.0158496149902323,0.0371779355348431,0.877072999999655,
-0.0326090266113282,-0.0354341845703125,-0.0368228215332049,0.0606205430392004,0.880118000000039,
-0.0158496149902345,-0.0569819995117188,0.0230322199707,0.0634715819912415,0.883084000000053,
-0.0230322199707032,0.00526724365234373,-0.00569819995117449,0.0243042485001199,0.886198000000149,
-0.0565510432128907,-0.0474051928710938,-0.00569819995117449,0.0740117712414411,0.889164000000164,
0.0128808049316406,-0.01149216796875,0.0326090266113255,0.036896255593855,0.892248999999538,
-0.0637336481933595,-0.040222587890625,-0.0368228215332049,0.0838794055434361,0.895214999999553,
-0.0278206232910157,-0.0521935961914063,0.0326090266113255,0.0675389308490319,0.898175000000265,
-0.0661278498535157,-0.0641646044921875,0.0541568415527323,0.106878213321779,0.901262999999744,
-0.0158496149902345,-0.0258573779296875,0.0326090266113255,0.044532717245588,0.904255999999805,
-0.0158496149902345,-0.03064578125,-0.0152750065917999,0.0377319497262075,0.907286999999997,
-0.0565510432128907,-0.00430956298828127,0.00387860668945095,0.0568474837742855,0.910256000000118,
-0.0421858332519532,-0.00430956298828127,0.0517626398925763,0.0669147797497691,0.913255999999819,
-0.020638018310547,-0.00430956298828127,0.0110612116699187,0.023808623155134,0.91627200000039,
-0.0278206232910157,-0.00909796630859377,-0.0392170231933626,0.0489360294609366,0.919254000000365,
-0.0350032282714844,-0.021068974609375,0.0350032282714814,0.0537991976700543,0.922328999999991,
-0.020638018310547,-0.0138863696289063,0.0206380183105441,0.0323216160029699,0.925312999999733,
0.0344286198730468,-0.0138863696289063,-0.0559764348144558,0.0671678671864038,0.928262000000359,
-0.0182438166503907,-0.0234631762695313,-0.0224576115722677,0.0372518698075549,0.931276999999682,
-0.0134554133300782,-0.00909796630859377,0.0278206232910136,0.0322150309504126,0.934272999999848,
-0.0517626398925782,-0.021068974609375,-0.000909796630862658,0.0558936517830849,0.937310999999681,
-0.00148440502929698,0.00047884033203123,0.0469742365722627,0.0470001239136823,0.940284000000247,
0.0224576115722656,-0.0162805712890625,0.0326090266113255,0.0428106287686497,0.943261000000348,
-0.0230322199707032,-0.0426167895507813,-0.0272460148925813,0.0555789459770622,0.946302000000287,
-0.0326090266113282,0.00047884033203123,0.0637336481933577,0.0715929872029138,0.949343999999655,
-0.00627280834960947,0.00766144531249998,0.0158496149902323,0.018688396512434,0.952406999999766,
0.00809240161132801,0.00526724365234373,0.0373974299316373,0.0386238085256219,0.955417999999554,
-0.0254264216308595,-0.0474051928710938,-0.0152750065917999,0.0559203098567539,0.958435999999892,
-0.0134554133300782,-0.0282515795898438,0.0134554133300764,0.0340624139644817,0.961395999999695,
-0.00387860668945322,-0.00909796630859377,0.0421858332519509,0.043329679296819,0.964401999999609,
-0.0326090266113282,-0.040222587890625,0.0350032282714814,0.0625014494438553,0.967470999999932,
-0.030214824951172,0.0244208569335937,-0.0080924016113304,0.0396837607093894,0.970508999999765,
-0.0158496149902345,-0.0330399829101563,0.0757046564941373,0.0841073467714765,0.973557999999684,
-0.00866701000976572,-0.00191536132812502,0.111617681396481,0.111970051673888,0.976563999999598,
0.00569819995117177,-0.021068974609375,0.0517626398925763,0.0561759918686138,0.979557999999997,
-0.020638018310547,-0.0234631762695313,0.0134554133300764,0.0340220015331956,0.982618000000002,
-0.00627280834960947,-0.0665588061523438,0.0302148249511696,0.0733645585268938,0.985705000000053,
-0.039791631591797,0.00047884033203123,-0.0463996281738304,0.0611271521295618,0.988862999999583,
-0.039791631591797,-0.0378283862304688,0.0110612116699187,0.0560063492217227,0.991858999999749,
0.0176692082519531,0.00047884033203123,-0.00569819995117449,0.0185714751971412,0.994878000000426,
0.0248518132324218,-0.01149216796875,0.0350032282714814,0.0444399430128637,0.99798600000031,
-0.0134554133300782,0.0292092602539062,-0.000909796630862658,0.032172298058628,1.00099200000022,
-0.00866701000976572,-0.0545877978515625,0.0326090266113255,0.0641739304806131,1.00407100000029,
-0.00627280834960947,0.00287304199218748,0.00387860668945095,0.00791492796753429,1.00704099999984,
-0.0134554133300782,0.0244208569335937,-0.0128808049316422,0.0307138655486625,1.00996599999962,
-0.00387860668945322,0.00287304199218748,-0.0368228215332049,0.0371378263473592,1.01303600000028,
-0.011061211669922,0.00047884033203123,0.0637336481933577,0.0646881565953543,1.01599999999962,
-0.0350032282714844,-0.01149216796875,-0.034428619873049,0.0504244561736715,1.01905400000032,
-0.0158496149902345,0.0339976635742187,0.00387860668945095,0.0377106750628503,1.02211699999953,
-0.0254264216308595,0.0124498486328125,-0.0368228215332049,0.0464480552186681,1.02506300000005,
-0.0421858332519532,0.00287304199218748,-0.0176692082519558,0.0458268460370279,1.02814800000033,
-0.0350032282714844,-0.0330399829101563,-0.034428619873049,0.0591793572666346,1.03107699999964,
