X,Y,Z,Magnitude,Seconds,
0.000909796630859272,0.017238251953125,0.0278206232910136,0.0327409856389424,0.0,
-0.020638018310547,0.0100556469726562,-0.0104866032714863,0.0252391102061604,0.00370899999961694,
-0.0278206232910157,-0.00670376464843752,0.0757046564941373,0.0809328274290326,0.00742699999955221,
-0.0326090266113282,0.00766144531249998,0.00866701000976278,0.0346000494699656,0.0111329999999725,
0.0176692082519531,-0.0258573779296875,0.00866701000976278,0.0324949530875012,0.0148449999996956,
-0.0278206232910157,-0.00670376464843752,-0.0631590397949235,0.069339684514562,0.0185839999994641,
-0.020638018310547,0.02681505859375,0.0326090266113255,0.0469928056590671,0.0223180000002685,
-0.0182438166503907,-0.0234631762695313,-0.0248518132324236,0.0387423554726275,0.026202000000012,
-0.00387860668945322,-0.0162805712890625,0.0206380183105441,0.0265711947630526,0.0300600000000486,
-0.0158496149902345,-0.04979939453125,0.0230322199707,0.0571110597677584,0.0338419999998223,
0.00330399829101552,-0.0258573779296875,0.0230322199707,0.0347851053596858,0.0376429999996617,
-0.0230322199707032,-0.021068974609375,0.0541568415527323,0.0625087860611378,0.0413929999995162,
0.0272460148925781,-0.040222587890625,-0.0272460148925813,0.0557005137469341,0.0453729999999268,
-0.00148440502929698,-0.0186747729492188,-0.0463996281738304,0.0500387459641585,0.0491329999995287,
0.00330399829101552,-0.0282515795898438,0.0158496149902323,0.0325619171635656,0.0529379999998127,
-0.011061211669922,-0.0138863696289063,-0.0248518132324236,0.0305416811262362,0.0566600000001927,
-0.0134554133300782,0.0339976635742187,0.0206380183105441,0.0419859152118346,0.0604910000001837,
0.0272460148925781,-0.00670376464843752,0.0110612116699187,0.0301601755895912,0.0642209999996339,
0.0128808049316406,0.0220266552734375,-0.00330399829101857,0.0257294594371681,0.0680529999999635,
-0.058945244873047,0.0148440502929687,-0.000909796630862658,0.060792396335012,0.0717859999995198,
-0.0517626398925782,-0.0234631762695313,-0.0128808049316422,0.0582735503036399,0.0755129999997735,
-0.0278206232910157,-0.0162805712890625,-0.00569819995117449,0.0327339817999952,0.0792229999997289,
-0.0445800349121095,0.00047884033203123,-0.0128808049316422,0.0464060765042198,0.0829590000003009,
-0.00627280834960947,0.017238251953125,0.0421858332519509,0.0460016302118931,0.08667400000013,
-0.00866701000976572,-0.021068974609375,-0.0440054265136745,0.0495529647574216,0.0903769999995347,
0.0152750065917968,0.00526724365234373,-0.0463996281738304,0.0491324249019149,0.094293000000107,
-0.0373974299316407,-0.00430956298828127,-0.0152750065917999,0.0406259267589242,0.0982850000000326,
-0.0517626398925782,-0.0234631762695313,0.0421858332519509,0.070778076100338,0.102068999999574,
-0.00148440502929698,-0.0138863696289063,0.0709162531738254,0.0722782794757576,0.105853999999454,
-0.0326090266113282,0.0124498486328125,0.0158496149902323,0.0383348098059303,0.109636000000137,
-0.0541568415527345,-0.0186747729492188,0.0421858332519509,0.0711432017752523,0.113443999999618,
-0.011061211669922,-0.0258573779296875,0.00148440502929503,0.028163058344159,0.117314000000079,
-0.0158496149902345,0.00047884033203123,0.0134554133300764,0.0207963393722415,0.12112100000013,
-0.0350032282714844,-0.0234631762695313,0.0445800349121068,0.0613443244550415,0.12487499999952,
0.00569819995117177,0.00526724365234373,-0.0128808049316422,0.0150375687550783,0.128678999999465,
-0.00387860668945322,-0.00430956298828127,-0.0128808049316422,0.0141255463146901,0.132415999999466,
-0.0254264216308595,0.00047884033203123,-0.0104866032714863,0.0275081997445737,0.136147000000165,
-0.0182438166503907,0.0124498486328125,-0.0200634099121118,0.0298391687929547,0.139946999999665,
-0.0182438166503907,-0.00430956298828127,0.00387860668945095,0.0191429561190139,0.143704000000071,
-0.00866701000976572,-0.01149216796875,0.0254264216308577,0.0292179722787447,0.147396000000299,
-0.011061211669922,0.00047884033203123,0.0469742365722627,0.048261357142307,0.151130000000194,
0.00569819995117177,-0.0450109912109375,0.0589452448730441,0.0743841428371515,0.154880000000048,
-0.0326090266113282,-0.0138863696289063,0.0206380183105441,0.0410135060412454,0.158574000000044,
-0.0158496149902345,-0.0258573779296875,-0.0200634099121118,0.0363641953855545,0.16226000000006,
0.00330399829101552,0.00287304199218748,0.00866701000976278,0.00971019245459297,0.166309000000183,
0.000909796630859272,-0.0330399829101563,-0.0440054265136745,0.055035858885488,0.170175000000199,
-0.020638018310547,0.0100556469726562,0.039791631591795,0.0459392836313574,0.173956999999973,
-0.00866701000976572,-0.00909796630859377,0.00148440502929503,0.0126528064773268,0.177693999999974,
-0.039791631591797,-0.0354341845703125,-0.0080924016113304,0.0538928784232141,0.18142699999953,
-0.0158496149902345,-0.00191536132812502,-0.0080924016113304,0.0178987672255663,0.185185000000274,
0.0296402165527343,-0.0282515795898438,-0.0176692082519558,0.0445970302471504,0.189081999999871,
0.0224576115722656,-0.00670376464843752,0.0421858332519509,0.0482589816008772,0.192868999999519,
0.00330399829101552,-0.0330399829101563,0.0373974299316373,0.050011245144489,0.196646000000328,
-0.030214824951172,-0.0378283862304688,0.0278206232910136,0.0558382443485822,0.200439999999617,
-0.011061211669922,0.02681505859375,0.0326090266113255,0.0436434002746257,0.204241999999795,
-0.00866701000976572,-0.0162805712890625,-0.0128808049316422,0.0224964263760857,0.207969000000048,
0.036822821533203,0.00766144531249998,0.00866701000976278,0.0385970852844082,0.211757000000034,
-0.00866701000976572,0.0220266552734375,-0.000909796630862658,0.0236879364857676,0.215611999999965,
0.000909796630859272,-0.0282515795898438,0.0637336481933577,0.0697205664869806,0.219363000000158,
0.0104866032714843,-0.0378283862304688,0.0134554133300764,0.0414970336392642,0.223125999999866,
0.0248518132324218,0.0244208569335937,0.0469742365722627,0.0584856373467635,0.226896999999553,
0.00569819995117177,-0.0378283862304688,0.00627280834960686,0.0387660213598965,0.230679999999666,
-0.0254264216308595,-0.0258573779296875,0.0948582697753881,0.101553917970353,0.234453999999459,
-0.00387860668945322,-0.03064578125,0.0278206232910136,0.0415715597322835,0.23849700000028,
-0.0158496149902345,-0.0138863696289063,0.0254264216308577,0.0330233928262895,0.242333000000144,
-0.0350032282714844,-0.0545877978515625,0.0302148249511696,0.0715401237805647,0.24612100000013,
-0.0134554133300782,0.00287304199218748,-0.0128808049316422,0.018847218730071,0.249939999999697,
-0.049368438232422,0.00526724365234373,0.0373974299316373,0.062157496045878,0.253789000000324,
0.0152750065917968,-0.00670376464843752,0.0517626398925763,0.054384162910627,0.257676000000174,
0.0104866032714843,-0.0138863696289063,0.0709162531738254,0.0730199635295596,0.261569000000236,
-0.00627280834960947,-0.0330399829101563,-0.0416112248535185,0.0535021740596065,0.265368999999737,
-0.0230322199707032,0.02681505859375,-0.00569819995117449,0.0358050276755747,0.269180000000233,
0.0128808049316406,-0.0450109912109375,0.039791631591795,0.0614432942656496,0.273036999999931,
-0.0158496149902345,0.0100556469726562,0.0326090266113255,0.0376254561157136,0.27680700000019,
-0.0350032282714844,-0.03064578125,0.00148440502929503,0.0465466793245179,0.280555000000277,
-0.0326090266113282,0.0100556469726562,0.00148440502929503,0.0341565236941349,0.284349999999904,
-0.0182438166503907,-0.00191536132812502,0.0852814631347627,0.08723206640563,0.288193999999748,
0.0200634099121093,-0.059376201171875,-0.146956097900393,0.159762850478496,0.291978000000199,
0.0487938298339843,-0.188663090820313,0.0685220515136695,0.206566868619784,0.29573100000016,
-0.274423394287109,0.402704719238281,-0.0152750065917999,0.487557807911247,0.299450999999863,
0.216387946044922,-0.305978972167969,0.106829278076169,0.389691376934084,0.303042999999889,
0.257089374267578,-0.540610734863281,0.0900698664550763,0.60536558694226,0.30606699999953,
-0.377374065673828,0.436223542480469,-0.185263324462893,0.605825605144292,0.309094000000186,
-0.164290117919922,0.44819455078125,0.236116167724607,0.532560271572245,0.31222600000001,
0.276242987548828,-0.54779333984375,-0.142167694580081,0.629761371258422,0.315247999999883,
0.0942836613769531,-0.2987963671875,-0.0703416447753931,0.32111777409044,0.31827499999963,
-0.319913225830078,0.407493122558594,-0.00330399829101857,0.51807917676574,0.321227999999792,
-0.0709162531738282,0.192014973144531,-0.0176692082519558,0.205453317802757,0.324169999999867,
0.257089374267578,-0.353863005371094,-0.0296402165527372,0.438397668069586,0.32724700000017,
0.0200634099121093,-0.135990654296875,-0.034428619873049,0.141708603619387,0.33017800000016,
-0.207385747802735,0.273417829589844,0.0373974299316373,0.345202441611892,0.3332419999997,
-0.020638018310547,0.105823713378906,-0.000909796630862658,0.107821212398103,0.336201000000074,
0.170898114501953,-0.265277543945313,0.0134554133300764,0.31584709751692,0.339140000000043,
-0.0709162531738282,-0.116837041015625,-0.0535822331542999,0.146802809330418,0.342173999999432,
-0.193020537841797,0.139342536621094,0.0230322199707,0.239173062232176,0.345146999999997,
-0.00866701000976572,0.093852705078125,-0.0200634099121118,0.0963638299897441,0.348197000000255,
0.132590887939453,-0.143173259277344,0.0421858332519509,0.199646112568794,0.351160999999593,
0.00569819995117177,-0.0809240161132813,-0.0152750065917999,0.0825499345424675,0.354086000000279,
-0.118800286376953,0.0699106884765625,-0.00330399829101857,0.137883751077566,0.357122999999774,
-0.0613394465332032,0.0316034619140625,0.00866701000976278,0.0695443999791689,0.360090999999557,
0.106254669677734,-0.100077629394531,0.0589452448730441,0.157417053163553,0.363118000000213,
0.0511880314941405,-0.08810662109375,0.00387860668945095,0.101970754820459,0.366063999999824,
-0.0924640681152345,0.017238251953125,0.0445800349121068,0.104087178535989,0.369087000000036,
-0.049368438232422,0.0699106884765625,0.0373974299316373,0.0933986874761479,0.372018999999455,
0.0248518132324218,-0.00670376464843752,-0.0200634099121118,0.0326357702330164,0.374955999999656,
0.0224576115722656,-0.0641646044921875,-0.0320344182128931,0.0751508132850746,0.378017999999429,
-0.0637336481933595,0.00047884033203123,0.0302148249511696,0.0705346925060875,0.381005999999616,
-0.0757046564941407,0.0292092602539062,0.0182438166503882,0.083169782646399,0.384022999999615,
-0.00866701000976572,-0.0186747729492188,0.0134554133300764,0.0245949660519678,0.386964999999691,
0.0320344182128905,-0.0857124194335938,-0.0463996281738304,0.102595069521242,0.389901999999893,
-0.0445800349121095,0.00287304199218748,-0.0296402165527372,0.053611345071234,0.392942999999832,
-0.0278206232910157,0.0196324536132812,0.0254264216308577,0.0424961554982141,0.395910000000185,
0.0272460148925781,-0.0665588061523438,0.0709162531738254,0.101002648322536,0.398965000000317,
-0.0134554133300782,-0.0426167895507813,0.0302148249511696,0.0539460336477914,0.401936000000205,
-0.0326090266113282,0.0244208569335937,0.0876756647949186,0.0966785863939905,0.40488699999969,
-0.0421858332519532,0.0316034619140625,0.0302148249511696,0.0607565550286141,0.407917999999881,
-0.020638018310547,-0.0162805712890625,-0.0799184514160185,0.0841305157360825,0.41084200000023,
0.0128808049316406,-0.0474051928710938,-0.0128808049316422,0.0507846687743417,0.413891000000149,
0.00330399829101552,0.00047884033203123,0.0230322199707,0.0232729209500941,0.416865000000143,
-0.020638018310547,-0.0234631762695313,0.0948582697753881,0.0998726177949786,0.419780999999602,
-0.0158496149902345,-0.00191536132812502,0.0182438166503882,0.0242428494680168,0.422802999999476,
-0.0541568415527345,-0.0354341845703125,0.0206380183105441,0.0679299103703024,0.42572999999993,
-0.00627280834960947,-0.00670376464843752,-0.0104866032714863,0.0139376265277169,0.428734000000077,
0.0128808049316406,-0.0162805712890625,-0.0200634099121118,0.028870617494031,0.431676000000152,
0.0176692082519531,-0.0545877978515625,-0.0487938298339863,0.0753184334967341,0.434637000000293,
-0.011061211669922,-0.0258573779296875,0.00387860668945095,0.0283901036781651,0.437638000000334,
0.00330399829101552,0.0100556469726562,-0.0128808049316422,0.0166717598481007,0.44061099999999,
0.0104866032714843,0.00287304199218748,0.0637336481933577,0.0646544749456452,0.443693999999596,
0.00569819995117177,-0.0450109912109375,0.00627280834960686,0.0458018224207894,0.446756000000278,
0.0224576115722656,-0.0282515795898438,0.0326090266113255,0.0486399494591654,0.449760999999853,
0.000909796630859272,0.00766144531249998,-0.034428619873049,0.0352825075717253,0.452889000000141,
-0.0326090266113282,-0.021068974609375,0.0565510432128882,0.0685949764639857,0.455834999999752,
0.0200634099121093,-0.0162805712890625,-0.0104866032714863,0.0278848752368218,0.458856999999625,
0.0272460148925781,-0.00670376464843752,-0.000909796630862658,0.0280733595762558,0.461796999999933,
-0.00148440502929698,-0.00909796630859377,-0.000909796630862658,0.00926305452606421,0.464802999999847,
-0.0278206232910157,-0.0282515795898438,0.0469742365722627,0.0614712756591954,0.467775000000074,
-0.039791631591797,-0.01149216796875,0.0421858332519509,0.059119272631864,0.470691999999872,
-0.0134554133300782,0.00047884033203123,0.0876756647949186,0.0887034364225973,0.473711999999978,
-0.00387860668945322,-0.04979939453125,0.0230322199707,0.0550046038283095,0.476681000000099,
-0.0134554133300782,-0.0378283862304688,0.0254264216308577,0.0475240767362704,0.479712000000291,
-0.00627280834960947,-0.0186747729492188,0.0182438166503882,0.0268501790546876,0.482691999999588,
-0.0326090266113282,-0.0282515795898438,-0.0487938298339863,0.0651332341875298,0.485627000000022,
-0.058945244873047,-0.00670376464843752,0.0158496149902323,0.0614059659067725,0.488679999999476,
-0.00866701000976572,0.00766144531249998,0.0373974299316373,0.0391456584090436,0.491637999999512,
0.00330399829101552,0.0196324536132812,0.0517626398925763,0.0554591789358011,0.494686000000002,
0.00330399829101552,0.00766144531249998,0.00387860668945095,0.00920096401660799,0.49765699999989,
-0.0278206232910157,-0.021068974609375,-0.0703416447753931,0.0785228359211426,0.500578000000132,
-0.00866701000976572,0.017238251953125,-0.0392170231933626,0.0437063988571186,0.503609999999753,
-0.0254264216308595,-0.00670376464843752,-0.0703416447753931,0.0750958745013297,0.506540999999743,
0.0152750065917968,-0.0162805712890625,0.0254264216308577,0.0338361603144895,0.509571999999935,
-0.0469742365722657,-0.00430956298828127,-0.0176692082519558,0.0503721366923038,0.512501000000157,
-0.0182438166503907,0.0196324536132812,0.0182438166503882,0.0324207792445477,0.515446999999767,
-0.011061211669922,-0.0521935961914063,-0.0128808049316422,0.0548856722896369,0.518487999999707,
-0.0134554133300782,0.0124498486328125,-0.0176692082519558,0.0254607108917676,0.521429999999782,
0.00569819995117177,-0.0330399829101563,-0.0320344182128931,0.0463714772637824,0.524459999999635,
-0.0469742365722657,-0.0234631762695313,0.0254264216308577,0.0583404016025981,0.527403999999478,
0.000909796630859272,-0.0186747729492188,-0.0559764348144558,0.0590164055932875,0.530345999999554,
-0.00627280834960947,-0.0162805712890625,0.0110612116699187,0.0206580620992368,0.533365000000231,
-0.049368438232422,0.0148440502929687,-0.0368228215332049,0.0633522589042799,0.536321999999927,
-0.00866701000976572,-0.0138863696289063,0.0493684382324187,0.0520114508304481,0.539332999999715,
-0.00627280834960947,-0.0258573779296875,0.0373974299316373,0.0458968395805348,0.542292000000089,
0.00809240161132801,-0.0234631762695313,-0.0272460148925813,0.036855839863187,0.545215000000098,
0.0128808049316406,-0.0186747729492188,-0.0248518132324236,0.0336492927315139,0.548240999999507,
0.00809240161132801,0.0316034619140625,0.0421858332519509,0.0533283254561216,0.551225000000159,
-0.0182438166503907,0.00766144531249998,0.0589452448730441,0.0621777812678503,0.554251999999906,
-0.00866701000976572,0.00047884033203123,-0.0272460148925813,0.0285953086729225,0.557200999999623,
0.00569819995117177,0.0124498486328125,-0.0176692082519558,0.0223532801600674,0.560230999999476,
-0.0230322199707032,-0.021068974609375,0.00866701000976278,0.0323960168906407,0.563183000000208,
0.00330399829101552,0.0148440502929687,0.0158496149902323,0.0219652573202732,0.566146000000117,
-0.0278206232910157,-0.0162805712890625,0.00627280834960686,0.032838882538688,0.569155000000137,
0.00569819995117177,-0.0258573779296875,-0.00330399829101857,0.0266831385108514,0.572105000000192,
-0.0158496149902345,0.0196324536132812,0.0278206232910136,0.037558362724123,0.575138000000152,
0.00569819995117177,-0.00430956298828127,-0.0296402165527372,0.0304890841634617,0.578088000000207,
-0.0158496149902345,-0.0641646044921875,-0.0248518132324236,0.0706110429459641,0.581032999999479,
-0.00387860668945322,-0.0186747729492188,0.0326090266113255,0.0377774979464559,0.584147999999914,
-0.0134554133300782,0.0148440502929687,-0.00330399829101857,0.0203054273949229,0.587193000000298,
-0.00148440502929698,0.0244208569335937,0.0110612116699187,0.0268501790546879,0.590320999999676,
-0.0158496149902345,0.00287304199218748,0.0206380183105441,0.0261800012493104,0.593332999999802,
-0.0134554133300782,-0.021068974609375,0.0110612116699187,0.0273367928364042,0.596250999999938,
-0.0326090266113282,0.00287304199218748,0.0206380183105441,0.0386979429248318,0.599287999999433,
-0.0134554133300782,0.00526724365234373,0.0254264216308577,0.0292454256342176,0.6022439999997,
-0.049368438232422,-0.00430956298828127,0.039791631591795,0.0635546140842313,0.605293999999958,
-0.0278206232910157,0.02681505859375,0.0685220515136695,0.0786657866631284,0.608250999999655,
0.0128808049316406,0.017238251953125,0.039791631591795,0.0452376658419014,0.61121600000024,
-0.00148440502929698,0.0220266552734375,0.0254264216308577,0.0336731334713003,0.614246999999523,
-0.0134554133300782,-0.03064578125,0.0493684382324187,0.0596444025019468,0.617178999999851,
0.0248518132324218,0.0148440502929687,-0.0152750065917999,0.0327304793185021,0.620240000000194,
-0.0254264216308595,0.00047884033203123,-0.0200634099121118,0.0323924778662461,0.623199999999997,
-0.0182438166503907,-0.0186747729492188,0.0134554133300764,0.0293705999012813,0.626164999999673,
-0.0254264216308595,-0.021068974609375,-0.0607648381347676,0.0691575748677268,0.629178000000138,
-0.0326090266113282,-0.0282515795898438,-0.0080924016113304,0.0438974638185243,0.632112999999663,
-0.0350032282714844,-0.03064578125,-0.0200634099121118,0.0506648824645822,0.635126999999557,
-0.0254264216308595,-0.0521935961914063,0.039791631591795,0.0703850008530152,0.638114000000314,
-0.0469742365722657,-0.0354341845703125,0.0804930598144509,0.0997060329970204,0.64105599999948,
-0.0182438166503907,-0.021068974609375,-0.0152750065917999,0.031781509772871,0.644056000000091,
0.000909796630859272,0.0244208569335937,0.0924640681152322,0.0956389558480167,0.647052000000258,
-0.00148440502929698,-0.00670376464843752,-0.0272460148925813,0.0280978512751314,0.650055999999495,
0.00330399829101552,0.00287304199218748,0.039791631591795,0.0400317963590574,0.653040000000146,
-0.0182438166503907,-0.0354341845703125,-0.00330399829101857,0.0399916827208246,0.656047999999828,
-0.030214824951172,-0.040222587890625,0.0110612116699187,0.0515086655530481,0.659034000000247,
-0.0565510432128907,0.02681505859375,0.0158496149902323,0.0645622037355532,0.661994999999479,
-0.00866701000976572,-0.0689530078125,-0.00569819995117449,0.0697287876818724,0.665034999999989,
-0.030214824951172,-0.0162805712890625,0.0757046564941373,0.0831215234654871,0.667999000000236,
-0.0158496149902345,0.00526724365234373,-0.00330399829101857,0.01702558532735,0.671018999999433,
-0.00866701000976572,0.00047884033203123,-0.0080924016113304,0.0118673212820763,0.673984000000019,
0.00330399829101552,-0.0234631762695313,-0.0320344182128931,0.0398452129571504,0.676924000000326,
-0.049368438232422,-0.0186747729492188,-0.0392170231933626,0.0657568608311109,0.679949000000306,
-0.011061211669922,-0.00191536132812502,-0.0152750065917999,0.0189563930905546,0.682883999999831,
-0.00627280834960947,0.0124498486328125,0.00627280834960686,0.0152870854044115,0.685935999999856,
-0.0134554133300782,0.0100556469726562,0.0278206232910136,0.0324984809525373,0.688903999999638,
-0.00866701000976572,-0.0378283862304688,0.0589452448730441,0.0705736902850774,0.691877000000204,
0.00330399829101552,0.00287304199218748,0.0421858332519509,0.0424124427751729,0.694950000000063,
-0.00627280834960947,0.017238251953125,0.0206380183105441,0.0276121939508019,0.697916000000077,
0.0152750065917968,-0.03064578125,0.00148440502929503,0.0342737974711482,0.700949999999466,
-0.0134554133300782,0.0148440502929687,0.0445800349121068,0.0488750804577148,0.703918000000158,
-0.0517626398925782,0.0124498486328125,-0.0104866032714863,0.0542617587975383,0.706852000000254,
-0.0350032282714844,0.0196324536132812,0.0373974299316373,0.0548564215912322,0.709909999999581,
-0.0373974299316407,0.0124498486328125,-0.0272460148925813,0.0479156740952131,0.712856000000102,
-0.0230322199707032,-0.00191536132812502,-0.0224576115722677,0.0322257053193097,0.715868999999657,
-0.0230322199707032,-0.021068974609375,0.0254264216308577,0.040260250431654,0.718802999999753,
0.0176692082519531,-0.0138863696289063,0.0445800349121068,0.0499240592749243,0.721798999999919,
0.00330399829101552,-0.03064578125,0.121194488037107,0.125052725854762,0.724935999999616,
-0.020638018310547,0.0100556469726562,0.0828872614746068,0.0860078016844111,0.728003000000172,
-0.0182438166503907,-0.01149216796875,0.0541568415527323,0.0582912536969551,0.731095999999525,
0.0176692082519531,-0.0330399829101563,-0.000909796630862658,0.0374789156842061,0.734064000000217,
-0.011061211669922,-0.00430956298828127,0.0158496149902323,0.0198023491559809,0.736998999999741,
0.00330399829101552,-0.040222587890625,0.0158496149902323,0.0433587739294446,0.740048999999999,
-0.00866701000976572,-0.0234631762695313,0.0110612116699187,0.0273493712317344,0.743015999999443,
-0.020638018310547,-0.01149216796875,0.0517626398925763,0.0568978788098201,0.746052999999847,
-0.00387860668945322,0.00766144531249998,-0.0559764348144558,0.0566312863059362,0.74900499999967,
-0.030214824951172,-0.01149216796875,0.00627280834960686,0.0329295262043477,0.752015000000029,
-0.020638018310547,-0.0138863696289063,-0.0392170231933626,0.0464406499675212,0.754963000000316,
0.0200634099121093,0.00287304199218748,-0.00569819995117449,0.021053842173669,0.757939000000079,
-0.039791631591797,-0.00909796630859377,-0.00569819995117449,0.0412142744491902,0.76096299999972,
0.000909796630859272,0.0100556469726562,0.0421858332519509,0.0433772785350766,0.76397199999974,
0.000909796630859272,-0.021068974609375,-0.0224576115722677,0.0308070404052525,0.766998999999487,
-0.0421858332519532,0.00766144531249998,0.0110612116699187,0.044279709518523,0.769986999999674,
-0.0182438166503907,-0.0330399829101563,-0.0224576115722677,0.0439183519067752,0.772898999999597,
0.000909796630859272,-0.00191536132812502,-0.0128808049316422,0.0130541746048465,0.775934000000234,
0.00809240161132801,-0.0426167895507813,0.0804930598144509,0.091437467122331,0.778929999999491,
-0.0182438166503907,-0.03064578125,-0.0272460148925813,0.0448814670206165,0.781919999999445,
-0.039791631591797,-0.01149216796875,0.039791631591795,0.0574353359361325,0.784872999999607,
-0.0350032282714844,0.0148440502929687,0.0350032282714814,0.0516797620732842,0.787822999999662,
0.00330399829101552,-0.01149216796875,-0.034428619873049,0.0364460724316339,0.790844999999536,
0.00330399829101552,-0.0378283862304688,-0.00330399829101857,0.0381158708967224,0.793842000000041,
-0.00387860668945322,0.0124498486328125,0.0230322199707,0.0264674418410644,0.796927000000323,
-0.0373974299316407,-0.0162805712890625,0.00866701000976278,0.0416982233374463,0.799871999999596,
0.0128808049316406,-0.0186747729492188,-0.0176692082519558,0.028755229100858,0.802807999999459,
-0.049368438232422,-0.00191536132812502,0.0493684382324187,0.0698437828015771,0.805830999999671,
-0.0182438166503907,-0.0450109912109375,0.00866701000976278,0.0493350102693158,0.808798000000024,
-0.00866701000976572,0.00766144531249998,-0.0272460148925813,0.0296000022687933,0.811824999999772,
0.0128808049316406,-0.01149216796875,0.00866701000976278,0.0193158515944358,0.81480399999964,
-0.0278206232910157,-0.00191536132812502,-0.0272460148925813,0.0389871904199911,0.817710000000261,
-0.0182438166503907,-0.0138863696289063,0.0565510432128882,0.0610220336920168,0.820746000000327,
-0.00148440502929698,-0.03064578125,0.0469742365722627,0.0561065617219658,0.823680999999851,
-0.0158496149902345,-0.040222587890625,0.0302148249511696,0.0527446918541339,0.826715000000149,
-0.0134554133300782,0.00287304199218748,0.0206380183105441,0.0248038367588257,0.829673999999613,
-0.0469742365722657,-0.021068974609375,-0.0655532414550812,0.0833529127139889,0.832582000000002,
-0.020638018310547,-0.01149216796875,-0.00569819995117449,0.0242995310055976,0.835563999999977,
-0.0373974299316407,0.0148440502929687,-0.0176692082519558,0.0439444480548242,0.838501999999608,
0.0176692082519531,0.00047884033203123,0.0637336481933577,0.0661393084356735,0.841545999999653,
0.000909796630859272,-0.0162805712890625,0.00627280834960686,0.0174709145724735,0.844485999999961,
-0.00387860668945322,-0.021068974609375,0.0709162531738254,0.0740814433252759,0.847475999999915,
-0.0445800349121095,0.00047884033203123,-0.0128808049316422,0.0464060765042198,0.850408000000243,
0.0176692082519531,0.017238251953125,0.0469742365722627,0.0530654044759598,0.853358999999728,
-0.00387860668945322,-0.0330399829101563,0.00866701000976278,0.0343773344380308,0.856346999999914,
-0.00866701000976572,-0.0521935961914063,0.00148440502929503,0.05292912245817,0.859303000000182,
-0.0158496149902345,0.0244208569335937,0.0421858332519509,0.0512565417861089,0.862387000000126,
-0.0230322199707032,0.0148440502929687,0.0326090266113255,0.0425931637991025,0.865420000000086,
-0.00387860668945322,-0.00670376464843752,-0.0128808049316422,0.0150299429806014,0.868406999999934,
-0.039791631591797,-0.00909796630859377,0.00627280834960686,0.0412976398875348,0.871481000000131,
0.0128808049316406,0.0124498486328125,-0.051188031494144,0.0542321715858068,0.87443600000006,
0.0128808049316406,-0.021068974609375,0.0326090266113255,0.0409043450420074,0.877459999999701,
-0.049368438232422,-0.0354341845703125,0.0421858332519509,0.0739761357251975,0.880376999999498,
-0.00866701000976572,0.00766144531249998,-0.0152750065917999,0.0191609142048426,0.883318000000145,
-0.039791631591797,-0.0258573779296875,0.0254264216308577,0.0538375413172457,0.886327999999594,
0.00569819995117177,-0.0378283862304688,0.0182438166503882,0.0423826985155268,0.88933199999974,
-0.0182438166503907,-0.01149216796875,0.0517626398925763,0.0560738589651504,0.892358000000058,
-0.00387860668945322,-0.0282515795898438,-0.0535822331542999,0.0606980316729835,0.895268000000215,
-0.039791631591797,0.00287304199218748,0.0326090266113255,0.0515264682620913,0.898220999999467,
-0.0278206232910157,-0.0258573779296875,0.0589452448730441,0.0701222715465096,0.90122700000029,
0.00809240161132801,-0.0282515795898438,-0.0080924016113304,0.030481562902833,0.904190999999628,
-0.039791631591797,-0.0186747729492188,0.0230322199707,0.0496246334618291,0.907210999999734,
-0.00148440502929698,-0.0354341845703125,0.0158496149902323,0.0388457872850142,0.910135999999511,
-0.0134554133300782,0.00526724365234373,0.0230322199707,0.0271896149357639,0.913080000000264,
-0.00627280834960947,-0.0426167895507813,0.0182438166503882,0.0467800782617932,0.916113000000223,
-0.0158496149902345,0.0100556469726562,0.0278206232910136,0.0335605931365619,0.91906199999994,
-0.039791631591797,-0.021068974609375,-0.0200634099121118,0.0492931643651451,0.92204799999945,
-0.0350032282714844,-0.0162805712890625,0.00627280834960686,0.0391104987888775,0.924995999999737,
-0.0158496149902345,-0.0378283862304688,0.0206380183105441,0.0459143212944125,0.927958000000217,
-0.039791631591797,0.00526724365234373,0.0350032282714814,0.0532573355497239,0.930983999999626,
-0.0254264216308595,-0.0186747729492188,0.0278206232910136,0.0420623007211398,0.933931999999913,
0.00330399829101552,-0.0378283862304688,-0.0080924016113304,0.038825122966291,0.936987999999474,
-0.011061211669922,-0.00670376464843752,0.00148440502929503,0.013018998515994,0.939943000000312,
-0.0421858332519532,-0.04979939453125,-0.0080924016113304,0.0657655775210692,0.942952000000332,
0.0152750065917968,-0.0234631762695313,0.0924640681152322,0.0966097839737406,0.945910999999796,
-0.0182438166503907,-0.0330399829101563,-0.0224576115722677,0.0439183519067752,0.948820999999953,
-0.0350032282714844,-0.00430956298828127,0.00866701000976278,0.0363168746602036,0.951828000000205,
-0.0350032282714844,-0.00191536132812502,-0.0296402165527372,0.0459068299464914,0.954740999999558,
-0.0182438166503907,-0.0378283862304688,-0.0440054265136745,0.0608301012116945,0.957773000000088,
-0.00148440502929698,-0.00909796630859377,-0.0487938298339863,0.0496569660683304,0.960704999999507,
-0.0230322199707032,-0.00191536132812502,0.0158496149902323,0.028024311965412,0.96362500000032,
-0.039791631591797,-0.0258573779296875,0.0182438166503882,0.0508410737898893,0.966628999999557,
-0.020638018310547,0.00526724365234373,0.0493684382324187,0.0537672237426089,0.969579999999951,
-0.020638018310547,-0.0330399829101563,0.0972524714355441,0.104764552549091,0.972579999999653,
0.0128808049316406,-0.059376201171875,0.0230322199707,0.0649763923134292,0.975556000000324,
-0.0134554133300782,-0.021068974609375,-0.0080924016113304,0.0262761641571368,0.978446999999505,
0.00569819995117177,-0.0474051928710938,-0.000909796630862658,0.0477550994527146,0.981479000000036,
-0.0158496149902345,-0.0138863696289063,-0.0272460148925813,0.0344439673141181,0.984400000000278,
0.0128808049316406,-0.00191536132812502,-0.0583706364746117,0.0598056431046061,0.987401000000318,
0.0200634099121093,-0.021068974609375,0.0373974299316373,0.0473815351575225,0.990359999999782,
-0.011061211669922,-0.0282515795898438,0.00866701000976278,0.0315534342891138,0.993260000000191,
-0.049368438232422,-0.0258573779296875,0.00627280834960686,0.0560820364421448,0.996267999999873,
-0.0182438166503907,-0.0258573779296875,0.0421858332519509,0.0527359968762625,0.999219000000267,
-0.0350032282714844,-0.0521935961914063,-0.0080924016113304,0.0633631157429643,1.00233599999956,
0.0128808049316406,-0.0426167895507813,0.0445800349121068,0.0630038522637086,1.00538700000016,
0.0152750065917968,0.0244208569335937,0.00148440502929503,0.0288428073883505,1.00841299999956,
-0.0326090266113282,0.00047884033203123,0.0230322199707,0.0399256942504524,1.01144300000033,
0.00569819995117177,-0.03064578125,0.0158496149902323,0.0349691819527564,1.01439299999947,
