X,Y,Z,Magnitude,Seconds,
-1.08845195874023,0.318907661132813,-0.0463996281738304,1.1351575610061,0.0,
-1.08126935375977,0.366791694335938,0.00866701000976278,1.14182077379788,0.00405899999987014,
-1.07648095043945,0.328484467773438,-0.0559764348144558,1.12687472395203,0.00800500000059401,
-1.02620271557617,0.304542451171875,0.00387860668945095,1.07044530995821,0.012007000000267,
-1.07648095043945,0.342849677734375,-0.072735846435549,1.13209877728858,0.0159890000004452,
-1.06211574047852,0.342849677734375,-0.0751300480957049,1.11860639718431,0.0200060000006488,
-1.05253893383789,0.306936652832031,-0.0703416447753931,1.09863381664959,0.0239529999998922,
-1.08366355541992,0.338061274414063,-0.0224576115722677,1.13539265054929,0.027791000000434,
-1.05972153881836,0.299754047851563,-0.0583706364746117,1.10284602744055,0.0315950000003795,
-1.06450994213867,0.350032282714844,-0.0416112248535185,1.1213543195121,0.0354850000003353,
-1.06929834545898,0.309330854492188,0.00148440502929503,1.11314272786578,0.0393430000003718,
-1.09324036206055,0.347638081054688,-0.0368228215332049,1.14777290646858,0.0432410000003074,
-1.08845195874023,0.340455476074219,-0.0799184514160185,1.14325174679556,0.0473339999998643,
-1.09084616040039,0.321301862792969,-0.0655532414550812,1.13906868105474,0.0512020000005577,
-1.06450994213867,0.290177241210937,-0.0894952580566439,1.10697499946634,0.055170000000544,
-1.08126935375977,0.340455476074219,0.0134554133300764,1.13368178723876,0.0591080000003785,
-1.09084616040039,0.306936652832031,-0.0679474431152371,1.13524107991999,0.0630019999998694,
-1.04775053051758,0.328484467773438,-0.0799184514160185,1.10094058815406,0.0668519999999262,
-1.06929834545898,0.347638081054688,-0.0320344182128931,1.12484549647983,0.0709190000006856,
-1.06690414379883,0.340455476074219,-0.0535822331542999,1.12118929666396,0.0748990000001868,
-1.08845195874023,0.347638081054688,-0.0224576115722677,1.14284042901989,0.0788750000001528,
-1.06690414379883,0.352426484375,-0.0655532414550812,1.12551592898959,0.0828680000004169,
-1.07648095043945,0.340455476074219,0.00387860668945095,1.12904216548267,0.0868950000003679,
-1.06929834545898,0.326090266113281,-0.0224576115722677,1.11814049098165,0.0909050000000207,
-1.06929834545898,0.335667072753906,0.0230322199707,1.12098252372161,0.0949200000004566,
-1.06690414379883,0.342849677734375,-0.0918894597167998,1.12439940696566,0.0988729999999123,
-1.12197078198242,0.364397492675781,-0.0440054265136745,1.18048314085941,0.102845000000343,
-1.08845195874023,0.338061274414063,-0.0559764348144558,1.14111631878545,0.10679700000037,
-1.09324036206055,0.335667072753906,-0.12301408129883,1.15020838858324,0.110703000000285,
-1.06690414379883,0.362003291015625,-0.072735846435549,1.12899129231272,0.114688000000569,
-1.05972153881836,0.292571442871094,-0.0440054265136745,1.10024736608722,0.118718000000626,
-1.09802876538086,0.33327287109375,-0.0152750065917999,1.14759370076577,0.122852000000421,
-1.07169254711914,0.297359846191406,-0.0966778630371117,1.11637556533593,0.126729999999952,
-1.06929834545898,0.335667072753906,-0.0607648381347676,1.12239195510572,0.130641000000651,
-1.07887515209961,0.359609089355469,0.00866701000976278,1.13726224241708,0.13450499999999,
-1.02141431225586,0.330878669433594,-0.0847068547363303,1.07700656562835,0.138426999999865,
-1.0740867487793,0.3141192578125,-0.12301408129883,1.1258177988599,0.142386000000442,
-1.06450994213867,0.323696064453125,-0.0871010563964862,1.11604083844629,0.146340000000237,
-1.08366355541992,0.326090266113281,-0.00569819995117449,1.13167753025403,0.150339000000713,
-1.04775053051758,0.335667072753906,-0.0751300480957049,1.1027683718977,0.15429100000074,
-1.11718237866211,0.335667072753906,0.00866701000976278,1.16655217113801,0.15815400000065,
-1.09084616040039,0.323696064453125,-0.127802484619144,1.14501439417919,0.162000000000262,
-1.04056792553711,0.33327287109375,-0.0152750065917999,1.09274230269083,0.165855000000192,
-1.06690414379883,0.347638081054688,0.00866701000976278,1.12214607093596,0.169714999999997,
-1.10521137036133,0.326090266113281,-0.0847068547363303,1.15542299010757,0.173744000000625,
-1.05253893383789,0.342849677734375,-0.0368228215332049,1.10758296707418,0.177622000000156,
-1.05493313549805,0.340455476074219,-0.034428619873049,1.10904426486368,0.181577000000289,
-1.08126935375977,0.350032282714844,-0.0392170231933626,1.13719127205179,0.185683000000608,
-1.05493313549805,0.321301862792969,-0.0679474431152371,1.10486907026664,0.189667000000554,
-1.1123939753418,0.347638081054688,-0.0655532414550812,1.16729165988684,0.193530000000464,
-1.09324036206055,0.321301862792969,-0.0703416447753931,1.141646759406,0.197512000000643,
-1.10042296704102,0.366791694335938,-0.0703416447753931,1.1620734918304,0.201364000000467,
-1.06211574047852,0.345243879394531,-0.00330399829101857,1.11682321736088,0.205246999999872,
-1.0573273371582,0.321301862792969,-0.0559764348144558,1.10648513148204,0.209303000000546,
-1.05253893383789,0.350032282714844,0.00387860668945095,1.10922308386412,0.213224000000082,
-1.07887515209961,0.318907661132813,0.0182438166503882,1.12516955477525,0.217250000000604,
-1.06690414379883,0.354820686035156,-0.0392170231933626,1.12504228640603,0.221319000000221,
-1.0740867487793,0.328484467773438,-0.051188031494144,1.12435964176945,0.225314000000253,
-1.06929834545898,0.316513459472656,-0.0248518132324236,1.11543593910615,0.229247000000214,
-1.0740867487793,0.345243879394531,-0.0368228215332049,1.12880981584514,0.233140000000276,
-1.05253893383789,0.345243879394531,-0.0990720646972676,1.11213615061618,0.237012000000504,
-1.08366355541992,0.364397492675781,-0.0559764348144558,1.14465959798897,0.240933000000041,
-1.04535632885742,0.345243879394531,-0.0368228215332049,1.10150765350374,0.244809000000714,
-1.09324036206055,0.335667072753906,-0.034428619873049,1.14412945195717,0.248873999999887,
-1.08366355541992,0.330878669433594,-0.0655532414550812,1.13494696911211,0.252978999999868,
-1.09324036206055,0.302148249511719,-0.0487938298339863,1.13527480891242,0.256898000000547,
-1.06690414379883,0.352426484375,-0.00330399829101857,1.12361016164359,0.260861000000659,
-1.02620271557617,0.309330854492188,-0.0272460148925813,1.0721566752692,0.26476300000013,
-1.0573273371582,0.29496564453125,-0.0272460148925813,1.09803833024322,0.268627000000379,
-1.07887515209961,0.328484467773438,-0.0703416447753931,1.12996530317354,0.272579000000405,
-1.07169254711914,0.335667072753906,-0.0272460148925813,1.12336087016124,0.276579000000311,
-1.07169254711914,0.304542451171875,-0.0272460148925813,1.11445653367191,0.280502999999953,
-1.08366355541992,0.362003291015625,-0.0152750065917999,1.14263135344601,0.284446000000571,
-1.10521137036133,0.338061274414063,-0.0296402165527372,1.15613846094303,0.288394000000153,
-1.07887515209961,0.397916315917969,-0.132590887939456,1.15753588793448,0.29226700000072,
-1.06929834545898,0.203985981445312,0.00627280834960686,1.08859936631991,0.296204000000216,
-1.02380851391602,0.302148249511719,-0.132590887939456,1.075666203529,0.300197999999909,
-1.0956345637207,0.56311623046875,0.0350032282714814,1.2323717832806,0.304061000000729,
-1.12915338696289,0.278206232910156,-0.00569819995117449,1.16293531582909,0.307996000000458,
-1.01183750561523,0.0387860668945312,-0.101466266357424,1.01765165944115,0.311907000000247,
-1.02380851391602,0.536780012207031,-0.0152750065917999,1.15609254841396,0.315623000000414,
-1.10281716870117,0.546356818847656,-0.034428619873049,1.23121761315771,0.318655000000035,
-1.09802876538086,0.3141192578125,-0.0871010563964862,1.1453928023861,0.321656000000075,
-1.02141431225586,0.184832368164063,0.0182438166503882,1.03816330047263,0.324817000000621,
-1.09802876538086,0.1608903515625,-0.0248518132324236,1.1100317506498,0.327814000000217,
-1.17703742016602,0.460165559082031,0.0158496149902323,1.26389107146608,0.330882000000202,
-0.995078093994141,0.622971271972656,-0.0296402165527372,1.17437309288298,0.333875000000262,
-0.930434649169922,0.299754047851563,0.00148440502929503,0.977529196002679,0.336949000000459,
-1.07648095043945,0.0339976635742187,-0.103860468017581,1.08201389760223,0.340001999999913,
-1.27519968823242,0.249475812988281,-0.103860468017581,1.30351809460056,0.342989000000671,
-1.14830700024414,0.627759675292969,-0.0320344182128931,1.3090902874454,0.346078000000489,
-0.892127422607422,0.3907337109375,0.078098858154295,0.97706888328109,0.349087000000509,
-0.961559270751953,0.093852705078125,-0.0775242497558626,0.969234012362195,0.352060000000165,
-1.25604607495117,0.132159931640625,-0.0463996281738304,1.26383183827049,0.355091000000357,
-1.25125767163086,0.484107575683594,0.00866701000976278,1.34167098154199,0.358039000000645,
-1.03817372387695,0.656490095214844,-0.0440054265136745,1.22911366586918,0.361096999999972,
-0.901704229248047,0.165678754882812,-0.0942836613769558,0.921634079049803,0.364065000000664,
-1.01662590893555,0.036391865234375,0.00866701000976278,1.01731397495403,0.36707800000022,
-1.2273156550293,0.338061274414063,-0.0918894597167998,1.276335698453,0.370139000000563,
-1.16985481518555,0.591846650390625,-0.0440054265136745,1.31178474749254,0.373156000000563,
-0.918463640869141,0.407493122558594,0.00148440502929503,1.00480262140852,0.376202000000376,
-0.901704229248047,0.0579396801757812,-0.0128808049316422,0.903655597403332,0.379176000000371,
-1.17943162182617,0.187226569824219,-0.101466266357424,1.19850245816192,0.382212999999865,
-1.25844027661133,0.546356818847656,-0.051188031494144,1.37287942582995,0.385188000000198,
-1.0573273371582,0.493684382324219,-0.0535822331542999,1.16813373505036,0.388176000000385,
-0.923252044189453,0.156101948242188,-0.00569819995117449,0.936373122653408,0.391247999999905,
-0.98310708569336,0.146525141601562,-0.106254669677737,0.99962953832416,0.394219000000703,
-1.21534464672852,0.44819455078125,-0.0990720646972676,1.29913672863369,0.397257999999965,
-1.1890084284668,0.560722028808594,-0.108648871337893,1.31907346793092,0.400214000000233,
-0.995078093994141,0.311725056152344,-0.0224576115722677,1.04300396360595,0.403196000000207,
-0.92564624584961,0.124977326660156,-0.051188031494144,0.935446695008775,0.406278000000384,
-1.05253893383789,0.359609089355469,-0.0248518132324236,1.11255315244379,0.409265000000232,
-1.19858523510742,0.512837995605469,-0.000909796630862658,1.30369099225394,0.412312000000384,
-1.14351859692383,0.306936652832031,-0.051188031494144,1.18510130576699,0.415273000000525,
-0.932828850830078,0.194409174804687,-0.0655532414550812,0.955123981300057,0.418239999999969,
-0.96395347241211,0.323696064453125,-0.0487938298339863,1.0180207644973,0.421280999999908,
-1.16746061352539,0.484107575683594,-0.0440054265136745,1.2646188779747,0.424238000000514,
-1.19858523510742,0.321301862792969,-0.0272460148925813,1.24120256130064,0.427317000000585,
-1.08126935375977,0.225533796386719,-0.0823126530761744,1.10760294399623,0.430378000000019,
-0.978318682373047,0.354820686035156,0.0182438166503882,1.04083524169994,0.433351000000584,
-1.03817372387695,0.378762702636719,-0.051188031494144,1.10629384904078,0.436408999999912,
-1.19379683178711,0.342849677734375,-0.0966778630371117,1.24581033320041,0.439398999999867,
-1.07648095043945,0.29496564453125,-0.0847068547363303,1.11937090338819,0.442426000000523,
-1.00465490063477,0.299754047851563,-0.0296402165527372,1.0488386439344,0.44546100000025,
-1.0740867487793,0.321301862792969,-0.0152750065917999,1.12121833590246,0.448459000000184,
-1.12675918530273,0.345243879394531,-0.0152750065917999,1.17856392433752,0.451549000000341,
-1.11718237866211,0.328484467773438,-0.0463996281738304,1.16539754515624,0.454603000000134,
-1.05014473217773,0.330878669433594,-0.0751300480957049,1.10359828585118,0.457694000000629,
-0.992683892333985,0.323696064453125,-0.000909796630862658,1.04412704206514,0.460723000000144,
-1.08366355541992,0.354820686035156,-0.0248518132324236,1.14054462131244,0.463693000000603,
-1.0956345637207,0.306936652832031,0.0326090266113255,1.13828316103144,0.466856000000007,
-1.03099111889648,0.311725056152344,-0.0775242497558626,1.0798727736066,0.469859000000724,
-1.04296212719727,0.321301862792969,-0.00569819995117449,1.09134657890368,0.472909000000072,
-1.10042296704102,0.323696064453125,-0.00330399829101857,1.14704871951391,0.475903000000471,
-1.10042296704102,0.335667072753906,-0.0080924016113304,1.15050796480788,0.478992000000289,
-1.08366355541992,0.299754047851563,-0.0176692082519558,1.1244960611176,0.481995000000097,
-1.06450994213867,0.330878669433594,-0.101466266357424,1.1193558478012,0.484952000000703,
-1.06929834545898,0.342849677734375,-0.0152750065917999,1.12302189602441,0.487977000000683,
-1.08126935375977,0.304542451171875,-0.034428619873049,1.12386602840917,0.490998000000218,
-1.07648095043945,0.311725056152344,-0.0463996281738304,1.12166691704217,0.494027000000642,
-1.0740867487793,0.328484467773438,-0.034428619873049,1.1237213708647,0.49707699999999,
-1.03817372387695,0.326090266113281,-0.0559764348144558,1.08962053204632,0.500112000000627,
-1.0573273371582,0.33327287109375,-0.0871010563964862,1.11202450446675,0.503193999999894,
-1.06450994213867,0.3141192578125,-0.0176692082519558,1.11002906536766,0.506208000000697,
-1.0740867487793,0.335667072753906,-0.0894952580566439,1.12886851707765,0.509273000000576,
-1.06450994213867,0.340455476074219,-0.0823126530761744,1.12065459484956,0.512277000000722,
-1.06450994213867,0.326090266113281,-0.0679474431152371,1.11540716045389,0.515253000000484,
-1.07169254711914,0.323696064453125,-0.0416112248535185,1.12028369252032,0.518359000000601,
-1.0740867487793,0.321301862792969,-0.0368228215332049,1.1217188378213,0.521340000000237,
-1.07887515209961,0.285388837890625,-0.0655532414550812,1.11790679847462,0.524394000000029,
-1.06450994213867,0.354820686035156,-0.0918894597167998,1.12584315468789,0.527393000000302,
-1.07169254711914,0.302148249511719,-0.0416112248535185,1.11424861420938,0.530381000000489,
-1.07648095043945,0.345243879394531,-0.0152750065917999,1.13059183560859,0.53341300000011,
-1.09324036206055,0.306936652832031,-0.0966778630371117,1.13961888686149,0.536431999999877,
-1.08366355541992,0.373974299316406,-0.101466266357424,1.15086006147709,0.539514000000054,
-1.06690414379883,0.33327287109375,-0.0224576115722677,1.11797119953052,0.542484999999942,
-1.07887515209961,0.29496564453125,-0.051188031494144,1.11964125497408,0.545423999999912,
-1.10042296704102,0.326090266113281,-0.0775242497558626,1.1503371581173,0.548496000000341,
-1.10042296704102,0.330878669433594,-0.0847068547363303,1.15220946512204,0.551484999999957,
-1.09802876538086,0.326090266113281,-0.0631590397949235,1.14716655092687,0.554519000000255,
-1.08126935375977,0.316513459472656,-0.0894952580566439,1.13019183620394,0.557494000000588,
-1.07169254711914,0.347638081054688,-0.051188031494144,1.12782860644618,0.560467000000244,
-1.06690414379883,0.335667072753906,-0.0248518132324236,1.11873788190408,0.56354199999987,
-1.06690414379883,0.362003291015625,-0.0296402165527372,1.12703565924,0.566526999999951,
-1.04775053051758,0.3141192578125,-0.00569819995117449,1.09383936289166,0.56960700000036,
-1.08126935375977,0.302148249511719,-0.0631590397949235,1.12446700457189,0.572559000000183,
-1.09084616040039,0.318907661132813,-0.0200634099121118,1.13668376534847,0.575634000000719,
-1.05493313549805,0.366791694335938,-0.0152750065917999,1.11698406131509,0.578626999999869,
-1.07169254711914,0.318907661132813,-0.0200634099121118,1.11831549765583,0.58169799999996,
-1.10042296704102,0.323696064453125,-0.0368228215332049,1.14763485861988,0.584777000000031,
-1.06690414379883,0.359609089355469,0.00866701000976278,1.12591219296386,0.587844000000587,
-1.08126935375977,0.297359846191406,-0.0847068547363303,1.12460728467602,0.590901999999915,
-1.05972153881836,0.345243879394531,-0.072735846435549,1.11691252094854,0.593940000000657,
-1.07887515209961,0.326090266113281,-0.0416112248535185,1.12784659839253,0.596946000000571,
-1.08366355541992,0.354820686035156,-0.0296402165527372,1.14065900383116,0.600091000000248,
-1.03099111889648,0.323696064453125,-0.0440054265136745,1.08150742343662,0.603094000000056,
-1.08605775708008,0.306936652832031,-0.000909796630862658,1.12859753158309,0.606152000000293,
-1.10281716870117,0.306936652832031,-0.0392170231933626,1.14540551393031,0.609199999999873,
-1.09802876538086,0.309330854492188,-0.0703416447753931,1.14293512245201,0.612239000000045,
-1.0956345637207,0.342849677734375,-0.0296402165527372,1.14840739338412,0.615282000000661,
-1.0740867487793,0.359609089355469,-0.0416112248535185,1.13345160244457,0.618267000000742,
-1.0956345637207,0.350032282714844,-0.0679474431152371,1.15219553513625,0.621339000000262,
-1.05253893383789,0.33327287109375,-0.0607648381347676,1.10571306377614,0.624316000000363,
-1.07169254711914,0.352426484375,-0.120619879638674,1.13458296206301,0.627306000000317,
-1.05493313549805,0.316513459472656,-0.0176692082519558,1.10153388114907,0.630466999999953,
-1.09324036206055,0.292571442871094,-0.0535822331542999,1.13297996192861,0.633453000000372,
-1.1123939753418,0.347638081054688,-0.0703416447753931,1.16757035709452,0.63656600000013,
-1.09084616040039,0.354820686035156,-0.0176692082519558,1.14723810336782,0.639537000000018,
-1.08605775708008,0.316513459472656,-0.0152750065917999,1.13134236531986,0.642531999999846,
-1.03099111889648,0.350032282714844,-0.0440054265136745,1.08967966106955,0.645604000000276,
-1.05014473217773,0.342849677734375,-0.0607648381347676,1.10636441808147,0.648624000000382,
-1.0956345637207,0.345243879394531,-0.0775242497558626,1.15135504636018,0.651727000000392,
-1.10521137036133,0.354820686035156,-0.00330399829101857,1.16077595117194,0.654735000000073,
-1.05014473217773,0.352426484375,-0.0392170231933626,1.10839810551882,0.657697999999982,
-1.07887515209961,0.369185895996094,-0.00569819995117449,1.14030797993484,0.660810000000311,
-1.04056792553711,0.3141192578125,0.00148440502929503,1.0869474316836,0.663782000000538,
-1.08605775708008,0.266235224609375,-0.0463996281738304,1.11917629175715,0.666892000000189,
-1.12675918530273,0.318907661132813,-0.0871010563964862,1.17425506259018,0.669910999999956,
-1.05972153881836,0.366791694335938,-0.0463996281738304,1.12236304837786,0.67298000000028,
-1.08845195874023,0.362003291015625,-0.0679474431152371,1.14908263593942,0.675952999999936,
-1.07648095043945,0.306936652832031,-0.108648871337893,1.12464479848251,0.678944000000229,
-1.08366355541992,0.316513459472656,-0.0894952580566439,1.1324826146954,0.681996000000254,
-1.0740867487793,0.27581203125,-0.0320344182128931,1.1093966037607,0.684979999999996,
-1.10999977368164,0.330878669433594,-0.072735846435549,1.16054758403787,0.688020999999935,
-1.0956345637207,0.328484467773438,-0.0392170231933626,1.14448902034751,0.691045000000486,
-1.08845195874023,0.326090266113281,0.039791631591795,1.13694586594262,0.694073000000571,
-1.0956345637207,0.328484467773438,-0.051188031494144,1.14496172746346,0.697144000000662,
-1.09802876538086,0.340455476074219,0.0134554133300764,1.14967741081602,0.700160000000324,
-1.08605775708008,0.328484467773438,-0.0272460148925813,1.13497393917646,0.703215000000455,
-1.04056792553711,0.316513459472656,0.0254264216308577,1.08793790291583,0.706216999999924,
-1.05014473217773,0.302148249511719,-0.0799184514160185,1.09566622749831,0.709235000000263,
-1.09084616040039,0.304542451171875,0.0158496149902323,1.13267058782392,0.712365000000318,
-1.08126935375977,0.340455476074219,-0.0392170231933626,1.13428008951808,0.715384000000086,
-1.1123939753418,0.304542451171875,-0.0631590397949235,1.15505650305529,0.718513000000712,
-1.0573273371582,0.366791694335938,-0.072735846435549,1.12150245130922,0.721516999999949,
-1.05493313549805,0.342849677734375,-0.0440054265136745,1.11011994822945,0.724506999999903,
-1.09324036206055,0.342849677734375,-0.0535822331542999,1.14699234804363,0.727585000000545,
-1.10042296704102,0.330878669433594,-0.0535822331542999,1.15034014795073,0.730693999999858,
-1.07169254711914,0.354820686035156,-0.0176692082519558,1.12904155623671,0.733780000000479,
-1.05253893383789,0.373974299316406,-0.0751300480957049,1.11952646593132,0.736768000000666,
-1.0740867487793,0.306936652832031,-0.0703416447753931,1.11929459917607,0.739798000000519,
-1.10760557202148,0.359609089355469,-0.111043072998049,1.16980313060829,0.742865000000165,
-1.05253893383789,0.338061274414063,-0.0200634099121118,1.10567905511517,0.745883999999933,
-1.08605775708008,0.347638081054688,-0.103860468017581,1.14505924909152,0.748924000000443,
-1.09084616040039,0.338061274414063,-0.0823126530761744,1.14499176581108,0.751890999999887,
-1.08845195874023,0.316513459472656,-0.0703416447753931,1.13571844376259,0.754870000000665,
-1.08366355541992,0.340455476074219,0.0206380183105441,1.13607330764087,0.75792200000069,
-1.05014473217773,0.323696064453125,-0.111043072998049,1.10449701888413,0.760971000000609,
-1.10521137036133,0.345243879394531,-0.0679474431152371,1.15987170172448,0.764055999999982,
-1.08605775708008,0.338061274414063,-0.0631590397949235,1.13920847138708,0.767092000000048,
-1.10999977368164,0.3141192578125,-0.0272460148925813,1.15391193382749,0.770153000000391,
-1.05972153881836,0.364397492675781,-0.0990720646972676,1.12499357620714,0.773146000000452,
-1.08605775708008,0.318907661132813,-0.0799184514160185,1.13472926591313,0.776120999999875,
-1.02859691723633,0.3141192578125,-0.0631590397949235,1.0773446944152,0.779188000000431,
-1.06690414379883,0.335667072753906,-0.0248518132324236,1.11873788190408,0.78219799999988,
-1.08126935375977,0.318907661132813,-0.072735846435549,1.12966190298954,0.785239000000729,
-1.09324036206055,0.338061274414063,-0.0272460148925813,1.14464066843017,0.788217000000259,
-1.06929834545898,0.338061274414063,-0.0248518132324236,1.12174060703922,0.791205999999875,
-1.05972153881836,0.373974299316406,-0.0487938298339863,1.12483214490635,0.794279000000643,
-1.09802876538086,0.318907661132813,-0.0823126530761744,1.14636147823863,0.797213000000738,
-1.09084616040039,0.366791694335938,-0.051188031494144,1.15199900488774,0.800333000000137,
-1.08126935375977,0.350032282714844,-0.0440054265136745,1.13736647211234,0.803310000000238,
-1.06929834545898,0.381156904296875,-0.0176692082519558,1.13533771989428,0.806279000000359,
-1.06929834545898,0.330878669433594,-0.0104866032714863,1.11937018646007,0.809329000000616,
-1.05972153881836,0.29496564453125,0.00148440502929503,1.10000757940461,0.812308999999914,
-1.06211574047852,0.328484467773438,-0.137379291259768,1.12020755282566,0.815387999999984,
-1.07887515209961,0.33327287109375,-0.0272460148925813,1.12950641687091,0.818337000000611,
-1.0740867487793,0.321301862792969,-0.0152750065917999,1.12121833590246,0.821319000000585,
-1.07169254711914,0.299754047851563,0.0158496149902323,1.11293693219762,0.824456000000282,
-1.08366355541992,0.352426484375,-0.0918894597167998,1.14322998606637,0.827425000000403,
-1.07169254711914,0.318907661132813,-0.0248518132324236,1.11841165252373,0.830502000000706,
-1.07887515209961,0.318907661132813,0.0254264216308577,1.12530893227776,0.833470000000489,
-1.07887515209961,0.342849677734375,-0.0272460148925813,1.13236912739091,0.836409000000458,
-1.10521137036133,0.306936652832031,-0.0080924016113304,1.1470692084576,0.839519000000109,
-1.04775053051758,0.345243879394531,-0.00569819995117449,1.10318039320047,0.842507000000296,
-1.05014473217773,0.318907661132813,-0.0607648381347676,1.09918079513945,0.845656000000417,
-1.10281716870117,0.316513459472656,-0.103860468017581,1.15203015343621,0.848636000000624,
-1.10521137036133,0.328484467773438,-0.0272460148925813,1.1533154659814,0.851645000000644,
-1.06450994213867,0.350032282714844,-0.00569819995117449,1.12059648640237,0.854745999999977,
-1.0573273371582,0.338061274414063,-0.118225677978518,1.11633500083711,0.857732000000397,
-1.06450994213867,0.321301862792969,-0.106254669677737,1.11700777023915,0.860846999999922,
-1.08126935375977,0.373974299316406,-0.0799184514160185,1.14690328746847,0.863859000000048,
-1.06450994213867,0.292571442871094,0.00148440502929503,1.10398445168129,0.866907999999967,
-1.10042296704102,0.352426484375,-0.0799184514160185,1.15824094736674,0.86989100000028,
-1.06929834545898,0.354820686035156,-0.0416112248535185,1.12739884906522,0.872895000000426,
-1.08845195874023,0.354820686035156,-0.0631590397949235,1.14656637401928,0.875997000000098,
-1.03817372387695,0.335667072753906,-0.0751300480957049,1.09367343791764,0.878963000000113,
-1.06211574047852,0.362003291015625,-0.0248518132324236,1.12238756296535,0.881977000000006,
-1.08605775708008,0.342849677734375,-0.0583706364746117,1.14038348130742,0.885001999999986,
-1.0740867487793,0.352426484375,-0.034428619873049,1.13095185603038,0.887924999999996,
-1.06929834545898,0.340455476074219,-0.034428619873049,1.12271733426389,0.891053000000284,
-1.07169254711914,0.3141192578125,-0.0320344182128931,1.11723857238713,0.894092000000455,
-1.06929834545898,0.33327287109375,-0.0128808049316422,1.12010520637308,0.89716800000042,
-1.04056792553711,0.311725056152344,-0.0296402165527372,1.0866612446973,0.900168000000122,
-1.08126935375977,0.3141192578125,-0.0104866032714863,1.12602144400403,0.903142000000116,
-1.08366355541992,0.369185895996094,0.0158496149902323,1.14493499267125,0.906228000000738,
-1.03099111889648,0.352426484375,-0.0416112248535185,1.09035710121325,0.909192000000075,
-1.0573273371582,0.345243879394531,-0.0248518132324236,1.11254305390056,0.912288000000444,
-1.10281716870117,0.328484467773438,-0.0751300480957049,1.15314885304428,0.915278000000399,
-1.10760557202148,0.323696064453125,-0.0440054265136745,1.15477518282917,0.918242000000646,
-1.09324036206055,0.287783039550781,-0.0440054265136745,1.13133993328885,0.921304999999847,
-1.06929834545898,0.359609089355469,-0.0535822331542999,1.12941963169505,0.924324999999953,
-1.06450994213867,0.357214887695313,-0.0823126530761744,1.12585934546003,0.927356000000145,
-1.05253893383789,0.352426484375,-0.0871010563964862,1.113386378648,0.930371000000378,
-1.10760557202148,0.352426484375,-0.106254669677737,1.16716947565051,0.933345000000372,
-1.08126935375977,0.299754047851563,-0.0176692082519558,1.12218897940753,0.936419999999998,
-1.06450994213867,0.340455476074219,-0.0320344182128931,1.11808655838948,0.939389000000119,
-1.05014473217773,0.342849677734375,-0.0368228215332049,1.10530800242687,0.942458000000443,
-1.09084616040039,0.338061274414063,0.0206380183105441,1.14221569710739,0.945418000000245,
-1.06690414379883,0.335667072753906,-0.0272460148925813,1.11879362758009,0.948349000000235,
-1.0357795222168,0.328484467773438,-0.034428619873049,1.08716447425328,0.951404000000366,
-1.0740867487793,0.352426484375,-0.0416112248535185,1.13119329242443,0.954420000000027,
-1.07648095043945,0.3141192578125,-0.0463996281738304,1.12233465164468,0.957546999999977,
-1.05014473217773,0.342849677734375,-0.0200634099121118,1.1048766449068,0.960532000000057,
-1.09802876538086,0.321301862792969,-0.0823126530761744,1.14702982938304,0.963602000000719,
-1.0956345637207,0.309330854492188,0.0278206232910136,1.13880404892177,0.966565000000628,
-1.06690414379883,0.306936652832031,-0.051188031494144,1.11135717727249,0.969560000000456,
-1.06211574047852,0.357214887695313,-0.0200634099121118,1.12075637967433,0.972650000000613,
-1.09324036206055,0.29496564453125,-0.0416112248535185,1.13309783987343,0.975688000000446,
-1.05253893383789,0.338061274414063,-0.0416112248535185,1.10627985904873,0.978778000000602,
-1.09084616040039,0.359609089355469,-0.000909796630862658,1.14859256071823,0.981848000000355,
-1.0740867487793,0.326090266113281,-0.0200634099121118,1.12267526292086,0.984855000000607,
-1.05014473217773,0.326090266113281,-0.0487938298339863,1.10069053689234,0.987976000000344,
-1.04056792553711,0.3141192578125,-0.0176692082519558,1.0870900223558,0.991013000000748,
-1.09802876538086,0.335667072753906,-0.0487938298339863,1.14922599655806,0.994187000000238,
-1.06929834545898,0.347638081054688,-0.0823126530761744,1.12739813724218,0.997172000000319,
-1.08605775708008,0.340455476074219,-0.0799184514160185,1.14097254207955,1.00014499999997,
-1.08126935375977,0.326090266113281,-0.0296402165527372,1.1297596290677,1.00326800000039,
-1.08126935375977,0.326090266113281,-0.0440054265136745,1.13022774457033,1.0063110000001,
-1.07169254711914,0.342849677734375,-0.034428619873049,1.1257247207642,1.00936799999999,
-1.10281716870117,0.330878669433594,-0.0631590397949235,1.15311554745222,1.01235500000075,
-1.07169254711914,0.330878669433594,-0.0559764348144558,1.12300443930173,1.01530100000036,
-1.08605775708008,0.33327287109375,-0.0799184514160185,1.13884995376811,1.01839100000052,
-1.06450994213867,0.335667072753906,-0.0679474431152371,1.11824445255461,1.02137000000039,
-1.09084616040039,0.347638081054688,-0.0248518132324236,1.14517037757733,1.02452799999992,
-1.09324036206055,0.316513459472656,-0.0631590397949235,1.13988785570048,1.02750199999991,
-1.08366355541992,0.357214887695313,-0.00569819995117449,1.14103533986429,1.03053200000068,
-1.07887515209961,0.345243879394531,0.0134554133300764,1.13284861222726,1.03359,
-1.07648095043945,0.318907661132813,-0.0942836613769558,1.12667774531623,1.03659100000004,
