X,Y,Z,Magnitude,Seconds,
0.0150355864257813,0.00699106884765632,-0.00205901342773274,0.0167087832918915,0.0,
0.00306457812499999,0.00459686718750008,0.0625844313964858,0.0628278113596613,0.00395799999932933,
0.0198239897460938,-0.0193451494140624,0.0266714064941418,0.0384524290478687,0.00785699999960343,
-0.0328484467773437,-0.0672291826171875,-0.0140300217285141,0.0761290021001307,0.0117419999996855,
-0.0208774384765625,-0.0241335527343749,0.00272938989257909,0.0320272598595512,0.0157589999998891,
0.000670376464843747,0.0357214887695313,0.0601902297363299,0.0699952706990161,0.0196979999991527,
0.0150355864257813,0.0213562788085938,-0.00924161840820226,0.0277049998108709,0.0236310000000231,
-0.0280600434570312,0.04290409375,-0.0188184250488259,0.0546100761823086,0.0275139999994281,
-0.0472136567382813,0.00938527050781257,-0.0260010300292954,0.0547107507505553,0.031355999999505,
0.0198239897460938,0.0117794721679688,0.0721612380371113,0.0757561272047207,0.0353629999999612,
0.012641384765625,-0.0337103593749999,0.019488801513674,0.0409390561984959,0.0393489999996746,
-0.0184832368164062,-0.0456813676757812,-0.0140300217285141,0.0512372804278666,0.043229999999312,
0.00785298144531249,-0.0337103593749999,0.0506134230957045,0.061317014312806,0.0471919999999955,
-0.0017238251953125,-0.00258573779296867,0.019488801513674,0.0197350195763106,0.0511209999995117,
-0.0328484467773437,-0.0265277543945311,-0.0307894333496073,0.0522564007073818,0.0551649999997608,
-0.0113006318359375,0.0213562788085938,0.000335188232423178,0.0241641733893993,0.0591359999998531,
-0.00890643017578124,0.00699106884765632,0.0362482131347672,0.0379754196497188,0.0630719999999201,
-0.0208774384765625,-0.0121625444335937,-0.0116358200683582,0.0268176664366048,0.0670299999992494,
-0.0232716401367187,-0.00737414111328116,-0.0260010300292954,0.035665119576357,0.0710249999992811,
-0.0376368500976562,0.00459686718750008,0.00991199487304861,0.0391907044536878,0.0750039999993533,
-0.0184832368164062,-0.00497993945312492,0.043430818115235,0.0474622566080329,0.07898699999987,
-0.0232716401367187,0.0165678754882813,-0.00684741674804457,0.0293760250709576,0.0831189999998969,
-0.0520020600585938,-0.0145567460937499,-0.0212126267089836,0.0580180027152795,0.087282999999843,
0.000670376464843747,0.0165678754882813,0.057796028076174,0.0601275707490474,0.0913019999998141,
-0.0136948334960937,0.00220266552734383,0.0147003981933604,0.0202114301066113,0.0951989999994112,
-0.044819455078125,0.0117794721679688,-0.00684741674804457,0.0468447076432057,0.0991119999998773,
0.0581312163085937,-0.0193451494140624,0.0123061965332045,0.0624893237960115,0.103005999999368,
-0.0520020600585938,0.0237504804687501,0.02188300317383,0.0612140947882097,0.106933999999455,
-0.01608903515625,-0.0384987626953125,0.0506134230957045,0.0655952008823346,0.110815000000002,
0.0102471831054687,0.0117794721679688,0.0242772048339859,0.0288642235423762,0.114876999999979,
0.031794998046875,0.00699106884765632,0.0314598098144554,0.0452715868729511,0.119011999999202,
0.00545877978515624,-0.00976834277343741,0.0386424147949231,0.0402300263294109,0.123016999999891,
0.00306457812499999,-0.0145567460937499,-0.0140300217285141,0.0204482763485021,0.126878999999462,
-0.0113006318359375,-0.00497993945312492,0.00991199487304861,0.0158351419068961,0.130785999999716,
-0.0232716401367187,0.0189620771484376,-0.052337248291014,0.0603350409224316,0.134656999999606,
-0.0280600434570312,0.00459686718750008,-0.0212126267089836,0.0354749596003249,0.138611999999739,
-0.0136948334960937,-0.0193451494140624,0.0123061965332045,0.0267062865904638,0.14258399999926,
0.0246123930664063,0.0165678754882813,0.00991199487304861,0.0312811769761596,0.146476999999322,
0.00785298144531249,0.0141736738281251,0.0242772048339859,0.0291880972644297,0.150489999999991,
-0.00411802685546875,0.00459686718750008,-0.0212126267089836,0.0220921901362577,0.154368999999861,
-0.006512228515625,-0.0193451494140624,-0.0355778366699209,0.0410173912895943,0.158293999999842,
-0.025665841796875,0.0141736738281251,0.0601902297363299,0.0669514168680579,0.162237999999888,
0.0246123930664063,-0.0384987626953125,0.0170945998535164,0.0487867806447311,0.166156999999657,
0.000670376464843747,0.0261446821289063,0.019488801513674,0.0326160572826569,0.170062999999573,
0.012641384765625,0.00459686718750008,0.00272938989257909,0.0137253548558062,0.174013999999261,
-0.0304542451171875,-0.00258573779296867,0.000335188232423178,0.0305656577999375,0.177842999999484,
-0.0113006318359375,0.0237504804687501,0.0362482131347672,0.0447852939909006,0.181816999999683,
-0.0472136567382813,-0.0121625444335937,0.0147003981933604,0.0509230652724553,0.185872000000018,
-0.0352426484375,-0.00019153613281242,-0.0140300217285141,0.0379331314905844,0.18994499999917,
-0.00890643017578124,0.0237504804687501,-0.0212126267089836,0.0330663779822833,0.193991999999525,
-0.0232716401367187,0.0476924970703125,-0.0762792648925767,0.0929229237809842,0.19796899999983,
0.00785298144531249,0.00220266552734383,0.00991199487304861,0.0128362259005174,0.201888999999937,
0.0102471831054687,-0.00258573779296867,-0.0212126267089836,0.0236995006999235,0.205799999999726,
-0.00890643017578124,0.00699106884765632,0.019488801513674,0.0225391420987606,0.209866999999576,
0.0102471831054687,0.0261446821289063,-0.0260010300292954,0.0382701284006584,0.213904999999613,
-0.0376368500976562,-0.0121625444335937,0.043430818115235,0.0587426245117735,0.217925999999352,
0.00545877978515624,-0.0145567460937499,-0.0212126267089836,0.026299670444236,0.221916999999848,
0.0294007963867188,0.00938527050781257,0.000335188232423178,0.0308642589710051,0.225873999999749,
0.0198239897460938,-0.0193451494140624,-0.01642422338867,0.032202181435837,0.229801999999836,
-0.0280600434570312,0.0117794721679688,0.00991199487304861,0.0320057751933893,0.23370899999918,
0.02221819140625,0.00459686718750008,0.0266714064941418,0.035016326787372,0.237651999999798,
0.0246123930664063,0.0165678754882813,0.0075177932128927,0.030606888202532,0.241627999999764,
0.0150355864257813,-0.0193451494140624,-0.00924161840820226,0.026186087447772,0.24553399999968,
0.0198239897460938,-0.0121625444335937,-0.05473144995117,0.0594680558813704,0.249429999999847,
0.0102471831054687,0.00938527050781257,0.019488801513674,0.0239353597955244,0.253498000000036,
-0.0304542451171875,0.00459686718750008,0.0506134230957045,0.0592478761734296,0.257370999999694,
-0.01608903515625,-0.00258573779296867,-0.0140300217285141,0.0215031300488001,0.26131499999974,
0.00306457812499999,-0.0265277543945311,0.079343843017579,0.0837171357435204,0.265378000000055,
-0.01608903515625,-0.0145567460937499,-0.0307894333496073,0.0376662330886281,0.84476899999936,
0.0533428129882813,-0.0217393510742186,0.0721612380371113,0.0923325476615885,0.851189999999406,
-0.0352426484375,-0.0241335527343749,0.057796028076174,0.071866915182537,0.854938999999831,
-0.0879150849609375,0.0237504804687501,-0.0595198532714836,0.108792281066463,0.858666999999514,
0.00785298144531249,-0.00019153613281242,-0.0140300217285141,0.0160794127185408,0.862435999999434,
0.0485544096679688,0.0237504804687501,0.0290656081542977,0.0613712114763966,0.866296999999577,
-0.044819455078125,-0.00976834277343741,0.0410366164550791,0.0615484196720005,0.870030000000042,
-0.00890643017578124,-0.0552581743164062,0.0625844313964858,0.0839619043404796,0.873751999999513,
0.0198239897460938,0.0381156904296875,-0.00684741674804457,0.0435049829617988,0.877457999999933,
0.0198239897460938,-0.00976834277343741,-0.102615483154295,0.104968321283052,0.881156999999803,
-0.0591846650390625,0.0476924970703125,0.376224848876955,0.383826179103348,0.884866999999758,
-0.0520020600585938,-0.115113215820312,-0.346824052490232,0.369109997280728,0.888535000000047,
0.1179862578125,0.29190106640625,-0.0690966599121072,0.322337304717765,0.892468000000008,
0.144322476074219,0.131489555175781,0.512694343505862,0.54861094601131,0.89563199999975,
-0.348883065917969,-0.85731573046875,-0.195989347900388,0.946108598356398,0.898661999999604,
0.0198239897460938,-0.289889937011719,-0.404284892333983,0.497870907283818,0.901755999999295,
0.235302139160156,1.57758735791016,0.486358125244141,1.66754106231969,0.904743999999482,
-0.147770126464844,0.33020829296875,-0.00684741674804457,0.36182926102914,0.907770999999229,
0.0557370146484375,-1.79584278125,-0.413861698974609,1.84375687541709,0.91074799999933,
0.469933901855469,-0.373686995117188,0.242149555908204,0.647391882756773,0.91372599999977,
-0.569149618652344,1.57279895458984,-0.227113969482421,1.6879598914385,0.916785999999775,
-0.564361215332031,0.224863419921875,0.211024934326174,0.643116367306396,0.919769999999517,
0.953562637207031,-0.749576655761719,-0.0690966599121072,1.21487497889748,0.922811999999794,
0.563307766601563,-0.174968257324219,-0.164864726318358,0.61246216941844,0.925794999999198,
-0.949827682617188,-0.0887769975585937,0.342706025634767,1.01365743817516,0.928776999999172,
-0.636187265136719,0.323025687988281,-0.365977665771483,0.801884956378397,0.931870999999774,
0.479510708496094,0.528927030761719,0.146381489501955,0.728781080916379,0.934873999999581,
0.881736587402344,-0.292284138671875,0.28285098413086,0.971027345910962,0.937901999999667,
-0.229172982910156,-0.591559346191406,-0.263026994384765,0.686764818505888,0.94083799999953,
-1.21797826855469,0.00938527050781257,-0.0954328781738258,1.22174734712645,0.943770999999288,
0.206571719238281,0.378092326171875,0.139198884521486,0.452771478508911,0.946823999999651,
0.963139443847656,0.392457536132813,-0.0307894333496073,1.04048474047849,0.949785999999222,
-0.0567904633789063,-0.24440010546875,-0.0283952316894514,0.252513083753347,0.952828999999838,
-0.638581466796875,-0.672962202636719,-0.152893718017577,0.940234494646602,0.955789999999979,
-0.178894748046875,0.0859997236328126,-0.0714908615722649,0.210974469147382,0.958831999999347,
0.287974575683594,0.725251566894531,0.0721612380371113,0.783662194952753,0.961812999999893,
0.25206155078125,0.0668461103515625,0.00272938989257909,0.260788951875971,0.964772999999695,
-0.073549875,-0.605924556152344,-0.0738850632324208,0.614827743705332,0.967765999999756,
-0.176500546386719,-0.242005903808594,-0.128951701416014,0.326110167966455,0.970701999999619,
-0.157346933105469,0.4642835859375,0.0530076247558604,0.493079216567621,0.973716999999851,
0.0533428129882813,0.248805436523438,0.0984974562988299,0.27285774652456,0.976702999999361,
0.292762979003906,-0.285101533691406,-0.0379720383300768,0.410408238322983,0.979620999999497,
0.07967903125,-0.277918928710938,-0.0403662399902327,0.291919701780683,0.982661000000007,
-0.365642477539063,0.121912748535156,0.0266714064941418,0.386352822638422,0.98563699999977,
-0.157346933105469,0.255988041503906,0.00512359155273501,0.300523187027394,0.988690999999562,
0.218542727539063,0.00459686718750008,-0.0307894333496073,0.220748825940575,0.991657999999916,
0.206571719238281,-0.189333467285156,-0.0451546433105463,0.283827375064107,0.994601999999759,
-0.200442562988281,-0.0241335527343749,-0.0714908615722649,0.214174211130189,0.99763399999938,
-0.238749789550781,0.131489555175781,-0.0212126267089836,0.273387894140838,1.00070099999994,
0.0485544096679688,0.033327287109375,0.0458250197753927,0.0746201795876342,1.00388499999917,
0.182629702636719,-0.0408929643554687,0.0266714064941418,0.189042870120324,1.00696199999948,
-0.0136948334960937,-0.0241335527343749,0.00272938989257909,0.0278823672103769,1.0099339999997,
-0.123828109863281,0.0213562788085938,-0.0260010300292954,0.128318139791097,1.0129739999993,
-0.0783382783203125,0.0500866987304688,-0.0236068283691395,0.0959314629595395,1.0159479999993,
0.0461602080078125,-0.0265277543945311,-0.00445321508788865,0.0534258147449347,1.01899199999934,
0.106015249511719,-0.0241335527343749,0.0482192214355486,0.118940131210897,1.02201699999932,
-0.0280600434570312,-0.0265277543945311,-0.00205901342773274,0.0386694624778084,1.02495499999986,
-0.0663672700195312,0.00220266552734383,0.02188300317383,0.0699166081355251,1.02803099999983,
-0.0472136567382813,-0.0169509477539062,0.0123061965332045,0.0516517810483798,1.03100899999936,
0.012641384765625,-0.00019153613281242,-0.0236068283691395,0.0267791642986251,1.0340669999996,
-0.0208774384765625,0.0141736738281251,-0.05473144995117,0.0602684999057232,1.03707599999962,
-0.0376368500976562,0.00459686718750008,-0.0451546433105463,0.0589627465923665,1.0400609999997,
-0.0208774384765625,-0.0121625444335937,0.0290656081542977,0.0377968848163571,1.04314499999964,
0.02221819140625,-0.00737414111328116,-0.0595198532714836,0.0639581028485233,1.04610799999955,
0.0294007963867188,0.00459686718750008,0.0147003981933604,0.0331909584549191,1.04920599999969,
-0.0017238251953125,0.0141736738281251,-0.01642422338867,0.0217628058165993,1.05218100000002,
-0.00890643017578124,0.0165678754882813,-0.033183635009765,0.0381441034647894,1.05522699999983,
-0.01608903515625,-0.0456813676757812,-0.0212126267089836,0.052873622316649,1.05818499999987,
-0.00411802685546875,0.0141736738281251,-0.0116358200683582,0.0187947727741424,1.06115699999918,
0.012641384765625,0.0261446821289063,-0.0403662399902327,0.0497270785725764,1.06421399999999,
0.000670376464843747,-0.00019153613281242,-0.00924161840820226,0.00926788009728287,1.06718499999988,
0.000670376464843747,-0.00497993945312492,0.0314598098144554,0.0318585755350598,1.07022499999948,
-0.006512228515625,0.0237504804687501,0.0075177932128927,0.0257490127486087,1.07321599999977,
-0.006512228515625,0.0500866987304688,0.0075177932128927,0.0510647013576725,1.07615799999985,
0.000670376464843747,-0.0480755693359375,0.0266714064941418,0.0549824853562923,1.07921699999952,
0.012641384765625,-0.0337103593749999,0.0170945998535164,0.0398549655894477,1.08217999999943,
-0.0328484467773437,0.00459686718750008,0.00991199487304861,0.0346179041246988,1.08523100000002,
-0.063973068359375,0.0548751020507813,0.0266714064941418,0.0884035871714077,1.08818799999972,
0.00785298144531249,-0.0193451494140624,-0.0834618698730463,0.0860336436874443,1.09114599999975,
0.0964384428710938,-0.0408929643554687,-0.0236068283691395,0.107377326018247,1.09420499999942,
0.0437660063476563,-0.00497993945312492,0.0170945998535164,0.0472492164245262,1.09721499999978,
-0.0567904633789063,0.00459686718750008,-0.0188184250488259,0.0600035085644888,1.1002639999997,
-0.0759440766601562,-0.00737414111328116,0.0170945998535164,0.0781927495428707,1.10323900000003,
0.0294007963867188,-0.00019153613281242,0.0266714064941418,0.0396964411331698,1.10622299999977,
0.0653138212890625,-0.00976834277343741,0.115256867919923,0.132836220115711,1.10928699999931,
0.0198239897460938,-0.0145567460937499,-0.052337248291014,0.0578279948205572,1.11223999999947,
-0.109462899902344,0.0141736738281251,-0.0427604416503886,0.118370075842473,1.11528599999929,
-0.00890643017578124,0.0261446821289063,-0.0355778366699209,0.0450405524412078,1.11823899999945,
0.0270065947265625,-0.00497993945312492,0.0170945998535164,0.0323478175435906,1.12120699999923,
0.02221819140625,0.033327287109375,0.0410366164550791,0.0573442236456013,1.12427399999979,
-0.0615788666992187,-0.043287166015625,0.00272938989257909,0.0753205492200511,1.12721499999952,
-0.0472136567382813,-0.00497993945312492,-0.0188184250488259,0.0510691913082175,1.13023199999952,
-0.025665841796875,-0.0337103593749999,-0.00924161840820226,0.0433650928182643,1.13317899999947,
0.02221819140625,0.0141736738281251,-0.01642422338867,0.0310531185724039,1.1361509999997,
-0.0232716401367187,-0.043287166015625,-0.033183635009765,0.0593000978816942,1.13920899999994,
-0.025665841796875,-0.00737414111328116,0.02188300317383,0.0345250520666754,1.14224399999966,
-0.0615788666992187,0.0500866987304688,0.000335188232423178,0.0793772421089827,1.14540699999998,
0.0102471831054687,0.033327287109375,-0.0260010300292954,0.0434944409120527,1.14849799999956,
0.0174297880859375,-0.0456813676757812,0.0075177932128927,0.0494681926114389,1.15156599999955,
0.02221819140625,0.0357214887695313,-0.0212126267089836,0.0471131438260195,1.15456599999925,
-0.0280600434570312,-0.00976834277343741,0.0075177932128927,0.0306480631385029,1.15753399999994,
-0.0184832368164062,-0.0504697709960937,0.0075177932128927,0.0542710331797849,1.16059299999961,
0.0198239897460938,0.0237504804687501,0.043430818115235,0.0533227142417594,1.16362499999923,
0.0772848295898438,-0.0384987626953125,-0.0188184250488259,0.0883698632743056,1.16664399999991,
0.000670376464843747,-0.0145567460937499,0.0075177932128927,0.0163971179246334,1.16964699999971,
-0.0567904633789063,0.0285388837890626,0.0123061965332045,0.0647384514166841,1.17261899999994,
0.00785298144531249,0.0189620771484376,-0.0116358200683582,0.0235928378120761,1.17571199999929,
0.0198239897460938,-0.00737414111328116,0.0075177932128927,0.0224473994352048,1.17870099999982,
-0.00890643017578124,-0.0241335527343749,0.0170945998535164,0.0308865376857096,1.18178099999932,
-0.0184832368164062,0.0141736738281251,-0.00445321508788865,0.0237140084679168,1.18477299999995,
-0.00890643017578124,-0.0217393510742186,-0.00684741674804457,0.0244706150254872,1.18770599999971,
0.00545877978515624,0.00220266552734383,-0.090644474853514,0.0908354051768225,1.19076299999961,
-0.0472136567382813,0.0357214887695313,-0.0236068283691395,0.0637372456901145,1.19373999999971,
-0.0711556733398437,0.00938527050781257,-0.0499430466308581,0.0874386702650689,1.19677799999954,
-0.0136948334960937,-0.0313161577148436,-0.00684741674804457,0.0348588197538025,1.19972299999972,
-0.0017238251953125,-0.00976834277343741,-0.0116358200683582,0.0152900098922979,1.20264199999929,
0.00545877978515624,0.0117794721679688,0.00991199487304861,0.0163340712518993,1.20571299999938,
-0.00890643017578124,-0.00737414111328116,0.000335188232423178,0.0115678350085833,1.20864999999958,
-0.0184832368164062,0.0357214887695313,-0.0403662399902327,0.0569832267783439,1.21170299999994,
-0.0113006318359375,-0.0193451494140624,-0.00924161840820226,0.0242352346088629,1.21464199999991,
0.0102471831054687,-0.0384987626953125,0.00512359155273501,0.0401672837153105,1.21761100000003,
-0.0424252534179688,0.0165678754882813,0.0170945998535164,0.0486479390100537,1.22066099999938,
0.00785298144531249,-0.0289219560546874,0.0482192214355486,0.0567736045663842,1.22363999999925,
-0.0352426484375,-0.0169509477539062,-0.0307894333496073,0.0497731665120352,1.22665299999971,
-0.01608903515625,-0.0313161577148436,-0.0571256516113259,0.0671036426604293,1.22959999999966,
-0.0328484467773437,0.0141736738281251,-0.0260010300292954,0.0442263162388004,1.23254599999927,
-0.01608903515625,-0.0384987626953125,0.0170945998535164,0.0450914307322453,1.23558999999932,
0.000670376464843747,0.0452982954101563,-0.0499430466308581,0.0674291693441531,1.2385949999998,
-0.025665841796875,0.0117794721679688,0.0170945998535164,0.0330108579690078,1.24166699999932,
0.0246123930664063,-0.0217393510742186,0.000335188232423178,0.032840244041946,1.24464099999932,
-0.0184832368164062,-0.0408929643554687,0.0314598098144554,0.0548049651997946,1.24765299999945,
-0.006512228515625,-0.0121625444335937,0.0123061965332045,0.0184872680635272,1.25060499999927,
-0.025665841796875,0.00938527050781257,-0.0140300217285141,0.0307190534904578,1.2535599999992,
0.000670376464843747,-0.0193451494140624,0.00272938989257909,0.019548242367096,1.2566199999992,
0.00785298144531249,-0.0480755693359375,0.0075177932128927,0.0492894197505588,1.25959899999998,
0.00785298144531249,0.0189620771484376,0.0075177932128927,0.0218574221296917,1.26264899999933,
-0.00411802685546875,0.00699106884765632,0.0386424147949231,0.0394850529947464,1.26562299999932,
-0.0208774384765625,-0.0121625444335937,0.0170945998535164,0.029597639578075,1.26855999999952,
-0.025665841796875,0.00220266552734383,0.0147003981933604,0.0296595495180038,1.27162699999917,
-0.00411802685546875,0.033327287109375,-0.01642422338867,0.0373820989936896,1.27458399999978,
-0.006512228515625,0.00938527050781257,-0.0260010300292954,0.0283997532617602,1.27763199999936,
-0.0280600434570312,0.0165678754882813,-0.0451546433105463,0.0556848484734253,1.28066899999976,
-0.006512228515625,-0.0169509477539062,0.0314598098144554,0.0363244185577289,1.28371100000004,
-0.0184832368164062,-0.0241335527343749,0.00512359155273501,0.0308270920002758,1.28684899999917,
0.000670376464843747,-0.00019153613281242,-0.0307894333496073,0.0307973261288167,1.28988699999991,
0.000670376464843747,0.0309330854492188,0.00991199487304861,0.0324892724199332,1.29295599999932,
-0.0352426484375,-0.0265277543945311,0.0625844313964858,0.076567467473642,1.29589499999929,
-0.0232716401367187,0.00938527050781257,0.02188300317383,0.0332944194282406,1.29885299999933,
0.000670376464843747,0.0357214887695313,0.0386424147949231,0.0526280380187145,1.30195999999978,
0.012641384765625,-0.00497993945312492,0.0123061965332045,0.018331581461053,1.30491499999971,
-0.0591846650390625,-0.0193451494140624,0.0601902297363299,0.0866020966105937,1.30796299999929,
0.00545877978515624,0.0165678754882813,-0.00205901342773274,0.0175650878515767,1.31094799999937,
-0.006512228515625,-0.00497993945312492,0.0123061965332045,0.0147868654660264,1.31390199999987,
-0.0400310517578125,-0.0217393510742186,-0.0283952316894514,0.0536784283736253,1.31694100000004,
-0.0017238251953125,-0.0241335527343749,0.019488801513674,0.0310678825368938,1.31990999999925,
0.0150355864257813,0.0165678754882813,-0.0188184250488259,0.0292351924686774,1.32300999999916,
-0.006512228515625,-0.0217393510742186,-0.0212126267089836,0.0310641922036053,1.32597199999964,
0.000670376464843747,0.00938527050781257,0.0554018264160163,0.0561951517245023,1.32895099999951,
0.00306457812499999,-0.0145567460937499,0.0170945998535164,0.0226608878924453,1.33199799999966,
0.00785298144531249,0.033327287109375,-0.0355778366699209,0.0493777262109416,1.33497699999953,
0.000670376464843747,-0.0480755693359375,-0.0260010300292954,0.0546604366444641,1.33801299999959,
-0.0304542451171875,-0.0193451494140624,-0.0140300217285141,0.0387109462712127,1.34094800000003,
-0.0232716401367187,-0.0193451494140624,0.000335188232423178,0.0302641106206096,1.34395700000005,
-0.00411802685546875,-0.0169509477539062,0.0386424147949231,0.042397275810138,1.34691899999962,
-0.0136948334960937,-0.0145567460937499,0.0554018264160163,0.0588966016978402,1.34986499999923,
0.00306457812499999,-0.0217393510742186,0.0147003981933604,0.0264214445338576,1.35293299999921,
0.0174297880859375,-0.0193451494140624,0.00991199487304861,0.0278618011071867,1.35590199999933,
0.00306457812499999,0.00220266552734383,0.0745554396972672,0.0746509006172224,1.35894599999938,
-0.073549875,0.00938527050781257,0.0170945998535164,0.0760913448374536,1.3619179999996,
-0.0232716401367187,-0.0217393510742186,-0.01642422338867,0.0358318815261215,1.36483599999974,
0.0102471831054687,0.0117794721679688,-0.00445321508788865,0.0162355120267873,1.36790699999983,
-0.0208774384765625,0.0117794721679688,0.0147003981933604,0.02811983479578,1.37088099999983,
0.0294007963867188,-0.0265277543945311,-0.033183635009765,0.0516650966693295,1.37392099999943,
-0.0184832368164062,-0.0121625444335937,-0.0451546433105463,0.0502841858123721,1.37686599999961,
-0.0184832368164062,0.0165678754882813,0.019488801513674,0.0315584842133765,1.37983899999927,
0.00306457812499999,0.0117794721679688,-0.0762792648925767,0.0772442480460006,1.38289499999973,
-0.01608903515625,0.00459686718750008,-0.0427604416503886,0.0459177918712872,1.38586799999939,
0.00785298144531249,0.0165678754882813,0.019488801513674,0.0267577502831422,1.38892299999952,
0.0246123930664063,-0.0193451494140624,0.0386424147949231,0.0497316892885269,1.39188599999943,
0.00306457812499999,0.0189620771484376,0.0386424147949231,0.0431530790332558,1.39485299999978,
-0.0136948334960937,-0.0337103593749999,-0.0595198532714836,0.0697606603117854,1.39787399999932,
-0.0017238251953125,0.00938527050781257,0.00272938989257909,0.00992494055370225,1.40083699999923,
0.0174297880859375,0.0117794721679688,-0.00924161840820226,0.0229774016825111,1.40391099999943,
-0.006512228515625,0.00699106884765632,-0.0307894333496073,0.0322377631026456,1.40686699999969,
-0.0424252534179688,0.0117794721679688,-0.0738850632324208,0.0860096544638661,1.40980799999943,
0.0246123930664063,0.0309330854492188,0.0290656081542977,0.0490656218267244,1.41288099999929,
-0.0136948334960937,-0.0145567460937499,-0.0140300217285141,0.0244190260048637,1.41580599999998,
0.0150355864257813,-0.0145567460937499,-0.0930386765136699,0.0953633212688209,1.41888199999994,
-0.0400310517578125,0.00699106884765632,0.00272938989257909,0.040728487789937,1.42195599999923,
0.012641384765625,-0.0145567460937499,0.0554018264160163,0.0586605986660627,1.42501300000004,
-0.0184832368164062,0.0165678754882813,-0.0260010300292954,0.0359468789186331,1.42815499999961,
-0.0113006318359375,0.0165678754882813,0.0386424147949231,0.0435365937949846,1.43115699999998,
-0.00890643017578124,0.0117794721679688,-0.0451546433105463,0.0475081285206509,1.43420699999933,
0.000670376464843747,-0.0121625444335937,-0.033183635009765,0.0353486990448737,1.43715799999973,
-0.01608903515625,-0.0217393510742186,-0.00445321508788865,0.0274096253532619,1.44017799999983,
-0.006512228515625,-0.0169509477539062,-0.0379720383300768,0.042090609937802,1.44316399999934,
0.000670376464843747,0.00938527050781257,-0.0283952316894514,0.0299135736716136,1.44613299999946,
0.00545877978515624,0.00459686718750008,0.0170945998535164,0.0185244381516468,1.44921199999953,
-0.01608903515625,0.00459686718750008,-0.0499430466308581,0.0526715876632804,1.45218499999919,
-0.0136948334960937,0.0261446821289063,0.00991199487304861,0.0311342337382924,1.45521699999972,
0.0246123930664063,-0.00976834277343741,-0.0595198532714836,0.0651444805524888,1.45821099999921,
0.00785298144531249,-0.00737414111328116,0.0290656081542977,0.0309976910772106,1.46119399999952,
-0.01608903515625,0.0141736738281251,-0.0188184250488259,0.0285286383019485,1.4642589999994,
-0.0472136567382813,0.00220266552734383,0.0338540114746113,0.0581384142452193,1.46722999999929,
-0.025665841796875,0.0117794721679688,0.0290656081542977,0.0405253127943184,1.47028299999965,
-0.006512228515625,0.0357214887695313,0.0290656081542977,0.0465106811123063,1.47324299999946,
-0.01608903515625,0.0309330854492188,0.0290656081542977,0.0453929774860264,1.47621099999924,
-0.0113006318359375,-0.00019153613281242,0.0697670363769554,0.070676589694219,1.47923499999979,
0.00545877978515624,0.00938527050781257,0.0386424147949231,0.0401387319235491,1.48223299999972,
-0.0400310517578125,0.00220266552734383,0.00512359155273501,0.0404176697826739,1.48526700000002,
0.00545877978515624,-0.0217393510742186,0.0530076247558604,0.0575517675152472,1.48823699999957,
-0.00411802685546875,0.00220266552734383,-0.0140300217285141,0.0147868654660238,1.49119900000005,
0.000670376464843747,0.0117794721679688,-0.0140300217285141,0.0183315814610509,1.49426299999959,
-0.0304542451171875,-0.0169509477539062,0.0338540114746113,0.048588988138636,1.49721899999986,
0.0270065947265625,-0.0313161577148436,0.00512359155273501,0.041669042263352,1.50027499999942,
0.0174297880859375,-0.0145567460937499,0.00991199487304861,0.0247778936135002,1.5032429999992,
0.02221819140625,-0.0289219560546874,0.0410366164550791,0.05490110619537,1.50620999999956,
0.00785298144531249,-0.0193451494140624,-0.0403662399902327,0.0454459839191747,1.50924299999951,
-0.0208774384765625,0.0165678754882813,0.00512359155273501,0.0271406176410395,1.51221999999962,
-0.00890643017578124,-0.0313161577148436,-0.0307894333496073,0.0448108852678335,1.51523999999972,
0.0341891997070313,0.00938527050781257,0.000335188232423178,0.0354555641650678,1.51824599999964,
-0.0017238251953125,-0.00019153613281242,-0.0499430466308581,0.0499731544548294,1.52115400000002,
-0.025665841796875,-0.00737414111328116,0.0386424147949231,0.0469717959363243,1.52418499999931,
0.012641384765625,-0.0600465776367187,0.0170945998535164,0.063699461840952,1.52716099999998,
-0.0017238251953125,-0.0217393510742186,0.0290656081542977,0.0363370408235357,1.53020599999945,
0.02221819140625,0.00699106884765632,-0.0260010300292954,0.034908117044346,1.53318499999932,
-0.00890643017578124,0.0165678754882813,0.0290656081542977,0.0346212156639601,1.53623900000002,
-0.0328484467773437,-0.00497993945312492,0.0170945998535164,0.0373636935646439,1.53919299999961,
0.0174297880859375,-0.00497993945312492,0.00512359155273501,0.0188374228618656,1.54216799999995,
0.00785298144531249,0.0117794721679688,0.000335188232423178,0.0141611310737359,1.54523699999936,
0.00545877978515624,0.0165678754882813,-0.00924161840820226,0.0197408278889424,1.54821899999934,
-0.0136948334960937,-0.0289219560546874,-0.0236068283691395,0.0397656931558474,1.55121899999995,
-0.0136948334960937,-0.00737414111328116,-0.00684741674804457,0.0169945149317571,1.55417099999977,
0.00545877978515624,0.00459686718750008,-0.0260010300292954,0.0269626227816707,1.55713999999989,
-0.0232716401367187,0.0500866987304688,0.000335188232423178,0.0552300550019719,1.56027799999993,
0.0198239897460938,0.00459686718750008,-0.0499430466308581,0.0539298587441578,1.56334999999945,
-0.0113006318359375,0.00699106884765632,0.000335188232423178,0.0132925420697183,1.56652899999972,
-0.006512228515625,-0.00497993945312492,0.0242772048339859,0.0256240432357545,1.56955999999991,
-0.0113006318359375,-0.00258573779296867,-0.00205901342773274,0.0117741180612806,1.57248799999979,
0.0365834013671875,-0.0145567460937499,0.0338540114746113,0.0519262766367256,1.57554399999935,
-0.00411802685546875,0.0213562788085938,0.0170945998535164,0.0276635885937562,1.57853299999988,
-0.025665841796875,-0.00019153613281242,-0.0379720383300768,0.0458328246584608,1.58157699999992,
0.0198239897460938,0.00459686718750008,0.043430818115235,0.0479620445722591,1.58457599999929,
-0.0113006318359375,0.00699106884765632,-0.01642422338867,0.0211266286341434,1.58752000000004,
-0.025665841796875,0.0165678754882813,-0.0307894333496073,0.0433730231748643,1.5905929999999,
-0.0136948334960937,0.00459686718750008,-0.0212126267089836,0.0256642783713069,1.59355999999934,
-0.0113006318359375,0.0213562788085938,0.0123061965332045,0.0271152613403532,1.59664799999973,
0.0174297880859375,-0.00497993945312492,-0.00924161840820226,0.0203471084058719,1.59959899999922,
-0.0113006318359375,0.00459686718750008,-0.0427604416503886,0.0444667385577941,1.6026039999997,
-0.0184832368164062,0.0309330854492188,-0.01642422338867,0.0396010218623328,1.60565299999962,
-0.0113006318359375,-0.0265277543945311,0.0147003981933604,0.0323655332128381,1.60861599999953,
