X,Y,Z,Magnitude,Seconds,
0.793151125976562,0.191344596679688,2.39453684838867,2.52972492212248,0.0,
0.32867600390625,0.0405098920898438,0.325946614013674,0.464661341288353,0.0029740000009042,
0.173052895996094,-0.265947920410156,-1.40984958959961,1.4451129597638,0.0060379999995348,
0.249667349121094,-0.445513044921875,-2.93256184545898,2.9766986135406,0.00900900000124238,
0.335858608886719,-0.471849263183594,-3.84235847631836,3.885763939416,0.0120490000008431,
0.29036877734375,-0.493397078125,-4.51752334448242,4.55365478176618,0.0150030000004335,
0.1946007109375,-0.625078169433594,-5.18311140600586,5.22429287096999,0.0179910000006203,
0.220936929199219,-0.699298420898438,-5.62603871313476,5.6736357840318,0.0211049999998068,
0.278397769042969,-0.89562295703125,-5.65476913305664,5.73202056408904,0.024068000000625,
-0.0879150849609375,-0.759153462402344,-4.72342468725586,4.78484940388089,0.0271400000001449,
-0.583514828613281,-0.58916514453125,-3.31323990942383,3.41543025402963,0.0301259999996546,
-1.79498086865234,-0.258765315429688,-1.85038269506836,2.59091333809253,0.0330460000004678,
-2.69759489453125,0.260776444824219,-0.227113969482421,2.71966970867977,0.0361549999997806,
-2.93701506054688,0.423582157714844,1.44403878930664,3.30011020046842,0.0391529999997147,
-2.92743825390625,0.500196610839844,3.43601457055664,4.54161727901052,0.0422520000010991,
-2.77660354931641,0.40682274609375,5.12871514428711,5.84625957754663,0.0452690000001894,
-3.16685841992188,0.172190983398438,5.66262211450196,6.49029515494021,0.0483220000005531,
-3.58823791210938,-0.184545063964844,5.22687741235352,6.34269309349777,0.0514210000001185,
-3.69118858349609,-0.388052205078125,3.11997995141602,4.84868359145405,0.0544280000012805,
-3.43261480419922,-0.979420015136719,2.24370214379883,4.21619582919787,0.0575090000002092,
-1.60823313916016,-1.25714740771484,1.11124475854492,2.32415540530547,0.0605940000004921,
-0.468593148925781,-0.593953547851562,-0.308516825927732,0.817033039788576,0.0636590000012802,
-0.01608903515625,-0.0696233842773437,-1.05311354223633,1.05553512756897,0.0666350000010425,
-0.0974918916015625,0.289506864746094,-0.966922282470701,1.01403037134078,0.0696160000006785,
-0.85884801953125,0.909605094726563,-0.552725395263671,1.36766469266946,0.0727090000000317,
-1.71836641552734,1.53928013134766,0.517482746826174,2.36430853613413,0.0757200000007288,
-1.99848800976563,1.78109449902344,1.86302407983399,3.26145836423981,0.0787419999996928,
-1.90511414501953,1.97741903515625,3.25884364770508,4.26142087411459,0.0817000000006374,
-1.51964767773438,1.71884525585938,4.48467489770508,5.03746632903286,0.0846490000003541,
-1.21318986523438,1.44111786328125,4.80310371850586,5.15930767406835,0.0876740000003338,
-0.851665414550781,1.26394694042969,3.76162599633789,4.05866061440084,0.0906400000003487,
-0.4183149140625,0.935941312988281,2.1575108840332,2.38868723850719,0.09378900000047,
-0.444651132324219,0.825808036621094,0.886189802490236,1.29035107969222,0.0967860000000655,
-0.447045333984375,0.612724088867188,-0.368371867431639,0.84319521608605,0.0998479999998381,
-0.396767099121094,0.497802409179688,-1.81446967016601,1.92289665699497,0.102914999999484,
-0.408738107421875,0.44512997265625,-2.9205908371582,2.98245844415446,0.105924999999843,
-0.784627768066406,0.665396525390625,-3.28929789282226,3.44642915176676,0.108978000000207,
-1.28262171337891,0.837779044921875,-2.83679377905273,3.22403336406644,0.111960000000181,
-2.45578052685547,0.75158778515625,-2.27415638891601,3.43038328414277,0.114978999999948,
-2.99208169873047,0.40682274609375,-2.49681714331055,3.91818242119309,0.118062999999893,
-2.91067884228516,0.0381156904296875,-2.97326327368164,4.16098529478385,0.121012999999948,
-2.10862128613281,-0.275524727050781,-2.7458141159668,3.47299478303543,0.124047999999675,
-1.65851137402344,-0.440724641601563,-1.52477126928711,2.29561007384167,0.127034999999523,
-1.68963599560547,-0.546069514648438,-0.612580436767576,1.87838135211794,0.12996000000021,
-1.68963599560547,-0.445513044921875,0.613250813232423,1.85187154812948,0.133058999999776,
-1.78061565869141,-0.297072541992187,1.08251433862305,2.10491840994069,0.136050000000978,
-1.61062734082031,-0.119901619140625,1.57093147729492,2.25306958073346,0.139108000001215,
-1.45739843457031,0.248805436523438,2.05456021264649,2.53123132283906,0.14207499999975,
-0.154952731445313,0.375698124511719,2.45199768823242,2.48544806681635,0.145010000000184,
0.797939529296875,0.734828373535156,2.92604961694336,3.12064842489205,0.148105000000214,
1.10679154345703,1.01973837109375,3.79514481958008,4.08264351465254,0.151099000000613,
1.20974221484375,1.02931517773438,4.03217078393555,4.33374747675875,0.15417300000081,
1.46352759082031,0.873692069824219,3.48868700708008,3.88280670074308,0.157172999999602,
1.87293607470703,0.720463163574219,2.38496004174805,3.11688804911906,0.160233000000517,
1.80829262988281,0.837779044921875,1.62839231713867,2.57360787648681,0.163266999999905,
1.60957389208984,1.17296727734375,1.51825904077149,2.50433441510929,0.166259999999966,
1.05890751025391,1.33816719189453,0.993928877197266,1.97480914562943,0.16933600000084,
0.527394741699219,1.12268904248047,-0.588638420166014,1.37297891075327,0.172311000000263,
0.247273147460938,0.67497333203125,-2.55667218481445,2.6558060300053,0.175373000000036,
0.165870291015625,0.481042997558594,-3.95967435766601,3.9922345043471,0.178423999999723,
0.127563064453125,0.516956022460938,-4.47203351293945,4.50362072175543,0.181457000000592,
-0.0136948334960937,0.679761735351563,-3.98361637426758,4.04122048181554,0.184584000000541,
-0.1884715546875,0.71328055859375,-4.11769166723633,4.18326132922886,0.18758600000001,
-0.509294577148438,0.200921403320313,-4.44330309301758,4.47690660535202,0.190701999999874,
-0.664917685058594,-0.124690022460937,-5.50872283178711,5.5501072392394,0.19368200000099,
-0.502111972167969,-0.507762288085937,-6.22219492651367,6.26303829441663,0.196673000000374,
-0.619427853515625,-0.577194136230469,-6.49513391577148,6.5500846193324,0.199789000000237,
-0.650552475097656,-0.548463716308594,-6.32035719458008,6.37737767723089,0.202828999999838,
-0.7247727265625,-0.510156489746094,-5.86545887915039,5.93204543241225,0.205874999999651,
-0.997711715820313,-0.929141780273438,-5.19508241430664,5.37099752440577,0.208851999999752,
-1.79498086865234,-1.14701413134766,-3.89742511450195,4.44156732015734,0.211844999999812,
-2.27142699902344,-1.36967488574219,-1.86235370336914,3.24094912347884,0.214950999999928,
-3.07109035351563,-1.61627765673828,1.08490854028321,3.63606600103842,0.217904000000999,
-4.9385676484375,-1.50135597705078,5.19814699243164,7.32558887345896,0.220937000000049,
-6.45170309765625,-0.763941865722656,9.07675368188477,11.1622371161036,0.223880999999892,
-6.96885065625,0.241622831542969,9.38740134729004,11.6938686976099,0.226882000000842,
-5.32403411572266,0.564840055664063,9.38740134729004,10.8068352263262,0.229919999999765,
-1.80216347363281,-0.428753633300781,7.02492285913086,7.26506462741415,0.232911000000968,
-0.808569784667969,-0.737605647460938,3.39531314233399,3.56735175197935,0.236020000000281,
0.218542727539063,-1.51093278369141,-7.9771447434082,8.12191584897792,18.9075279999997,
1.00144667041016,-2.22201067675781,-6.79680332495117,7.22057908476658,18.9112690000002,
1.4587391875,-2.8301378984375,-5.91573711401367,6.71815050020757,18.9142169999996,
1.89687809130859,-3.41192890185547,-5.06340132299805,6.39354661219746,18.9172030000009,
2.45712127978516,-4.14694881152344,-3.90939612280273,6.2062877369611,18.9202690000002,
3.00778766162109,-4.84366149462891,-2.75778512426758,6.33349998686211,18.9233440000007,
2.99102825,-4.88675712451172,-1.58941471411133,5.94582915325505,18.9263960000008,
3.98941034228516,-5.96893627490234,-0.0762792648925767,7.17979203453898,18.9294289999998,
4.82498672167969,-6.84521408251953,0.99153467553711,8.43330265748251,18.9324180000003,
4.77949689013672,-7.38390945605469,1.78162122338867,8.97440157122854,18.9354640000001,
4.43473185107422,-7.541926765625,2.99787566674805,9.24850065914811,18.93851,
4.97582142626953,-8.42538717822266,3.79514481958008,10.4951928124579,18.9415449999997,
4.19291748339844,-8.40623356494141,3.36658272241211,9.97893776901026,18.9444990000011,
3.23044841601563,-8.19793802050781,2.82788734887695,9.25413051639989,18.9474339999997,
2.33741119677734,-7.51559054736328,2.16708769067383,8.16356916045344,18.9505239999999,
1.64309271533203,-7.01759660205078,1.09209114526367,7.28965560296611,18.9535100000012,
1.13791616503906,-6.63931273974609,-0.0762792648925767,6.73655293017613,18.9565170000005,
0.592038186523437,-6.34243173388672,-1.30450471655273,6.50220593866602,18.9594649999999,
-0.0352426484375,-5.81570736865234,-2.55188378149414,6.35104755739704,18.9624120000008,
-0.480564157226563,-5.45897132128906,-3.60054410864258,6.55707462777023,18.9654140000002,
-0.62900466015625,-5.15969611376953,-4.3547176315918,6.78097902222409,18.9684460000008,
-0.566755416992188,-5.09744687060547,-4.90777821508789,7.0986944792565,18.9715639999995,
-0.473381552246094,-5.18842653369141,-4.86947098852539,7.13131177958238,18.9745330000005,
-0.317758444335938,-5.27222359179688,-4.70905947729492,7.07619623749564,18.9775740000005,
-0.102280294921875,-5.62177703417969,-4.08177864233398,6.94807564479355,18.9805140000008,
-0.142981723144531,-6.03118551806641,-3.49280503393555,6.97103504019115,18.983443000001,
0.0102471831054687,-6.59382290820313,-2.81045756079101,7.16779444812093,18.9864900000011,
0.163476089355469,-6.98886618212891,-2.34837664038086,7.37467611414783,18.9895100000012,
0.355012222167969,-7.10139366015625,-2.20472454077148,7.44423507790264,18.9925340000009,
0.0868616362304688,-6.73268660449219,-1.62293353735351,6.92607588211564,18.9954859999998,
0.733296084472656,-6.82845467089844,-1.4266090012207,7.01432317350588,18.9984509999995,
1.55211305224609,-7.4653123125,-0.830452787841796,7.67004528558672,19.0015139999996,
1.78435061328125,-6.92661693896484,-0.267815397705077,7.15776881559609,19.0044390000003,
2.06686640917969,-6.84760828417969,0.311581404052736,7.15952225629009,19.0074970000005,
2.24643153369141,-7.02238500537109,0.986746272216799,7.438683620437,19.0104650000012,
1.71970716845703,-6.56030408496094,0.919708625732424,6.84403728720441,19.0133939999996,
1.99743456103516,-7.14209508837891,1.83189945825196,7.6390524741101,19.0164100000002,
1.83223464648438,-7.47488911914063,2.10483844750977,7.97880918642249,19.0193500000005,
1.75801439501953,-7.67121365527344,2.21736592553711,8.17648122395463,19.0223920000008,
1.45634498583984,-7.48686012744141,2.30595138696289,7.96815079455007,19.0253229999998,
1.12115675341797,-6.80690685595703,1.93963853295899,7.16611268750003,19.0282690000004,
1.04933070361328,-6.26102887744141,1.66430534204102,6.56288730676118,19.0313580000002,
1.28875086962891,-5.70078568896484,1.49431702416992,6.03264615605786,19.0343470000007,
1.53056523730469,-5.43981770800781,1.2932040847168,5.79712199688165,19.0373930000005,
1.66224632861328,-5.25785838183594,1.2165896315918,5.64696626093404,19.0403580000002,
1.37254792773438,-5.16448451708984,0.797604341064455,5.40295852529644,19.0432980000005,
1.25283784472656,-5.21476275195313,0.108074262939455,5.36423650398141,19.0463980000004,
0.924832217285156,-4.99210199755859,-0.799328166259764,5.13958388408374,19.0493870000009,
0.352618020507813,-4.78859485644531,-1.55350168920898,5.04661744794833,19.0525240000006,
0.244878945800781,-4.60663553027344,-2.10895647436523,5.07235192170665,19.0555210000002,
0.0461602080078125,-4.50368485888672,-2.24063756567383,5.03048355266942,19.0585840000003,
0.106015249511719,-4.39115738085938,-2.46569252172851,5.03717599338287,19.061678,
0.108409451171875,-4.22835166796875,-2.7458141159668,5.04283705829963,19.0646809999998,
0.000670376464843747,-3.864433015625,-3.23183705297851,5.03771909882459,19.06783,
-0.384796090820313,-3.59388822802734,-3.84235847631836,5.27520798524567,19.0708930000001,
-0.43746852734375,-3.58191721972656,-4.12726847387695,5.48232202053551,19.0739250000006,
-0.22677878125,-3.44784192675781,-4.45766830297852,5.64002209808735,19.0768900000003,
-0.083126681640625,-3.21081596240234,-4.74497250219726,5.72983535856192,19.0798750000013,
0.230513735839844,-3.10547108935547,-4.74018409887695,5.67154587043774,19.082996000001,
0.766814907714844,-3.31137243212891,-4.36908284155273,5.53552864352697,19.0859440000004,
1.34860591113281,-3.58191721972656,-3.63406293188477,5.27781036656443,19.0889540000007,
1.92560851123047,-3.96020108203125,-2.90383142553711,5.27478887696764,19.0919169999997,
2.36853581835938,-4.48453124560547,-1.93896815649414,5.42960218870235,19.0948820000012,
2.76836749560547,-5.14772510546875,-0.662858671630858,5.88237315806762,19.0979360000001,
2.94314421679688,-5.66726686572266,0.591702998291018,6.41327716899631,19.1010040000001,
2.94553841845703,-6.04315652636719,1.4679808059082,6.88119938842754,19.1040470000007,
2.50021690966797,-5.67923787402344,2.05456021264649,6.5365162810569,19.1070799999998,
3.31663967578125,-6.40707517871094,3.42404356225586,7.98591168250977,19.1100170000009,
3.85294084765625,-6.48847803515625,2.94759743188477,8.10147091636432,19.1130890000004,
3.63267429492188,-6.44777660693359,2.95717423852539,7.96963143331638,19.1160670000008,
3.61352068164063,-6.12695358447266,3.10561474145508,7.76156780974501,19.1191460000009,
3.91279588916016,-5.64332484912109,2.48791071313477,7.30388846707471,19.1221420000002,
3.69492353808594,-5.07589905566406,0.950833247314455,6.34990512053459,19.1250980000004,
3.21129480273438,-4.56114569873047,-0.356400859130858,5.58958728060538,19.1281230000004,
2.6462632109375,-4.24032267626953,-1.49364664770508,5.21670640238144,19.1311270000006,
2.20333590380859,-4.06315175341797,-2.98044587866211,5.4997226213646,19.1341769999999,
1.63351590869141,-3.91231704882813,-4.34035242163086,6.06739301994324,19.1371940000008,
1.10679154345703,-3.66092587451172,-5.57336627661133,6.75942138297397,19.1402020000005,
0.860188772460938,-3.79500116748047,-6.18149349829102,7.30430150355666,19.1432889999996,
0.422049868652344,-3.77824175585938,-6.63878601538086,7.65027559081144,19.1462380000012,
0.161081887695313,-3.87640402392578,-6.8662351730957,7.88654810316326,19.1492930000004,
0.376560037109375,-4.32651393603516,-6.91172500463867,8.16287099248798,19.1522490000007,
0.527394741699219,-4.65930796679688,-6.86862937475586,8.31657173544411,19.1552100000008,
0.357406423828125,-5.12617729052734,-6.59329618383789,8.35924563184521,19.1582780000008,
0.216148525878906,-5.70557409228516,-6.15276307836914,8.39385426406354,19.1612850000001,
0.204177517578125,-6.33285492724609,-5.71941257788086,8.53571439448692,19.164374,
0.340647012207031,-7.05590382861328,-5.27887947241211,8.81863865399978,19.1673540000011,
0.460357095214844,-7.54910937060547,-4.87904779516601,9.00033823431055,19.170408,
0.927226418945313,-8.6695957475586,-3.70828318334961,9.47486165735362,19.1733880000011,
1.09960893847656,-8.95450574511719,-2.31246361547851,9.31342047423106,19.1763609999998,
1.70055355517578,-9.5506619584961,-0.837635392822264,9.73697382613274,19.1794669999999,
2.51218791796875,-10.4389107744141,0.811969551025392,10.7676014433651,19.1825160000008,
3.20171799609375,-10.7836758134766,2.22215432885742,11.4663260043455,19.1855969999997,
3.98222773730469,-11.1188640458984,2.96914524682617,12.1779759779564,19.1886549999999,
4.31502176806641,-11.3750436235352,3.8813360793457,12.7701135491054,19.1916419999998,
4.94948520800781,-11.5857333696289,4.23328372338867,13.290873282788,19.1947400000008,
4.28629134814453,-10.5562266557617,3.29715087426758,11.8607511826476,19.1977070000012,
3.43156135546875,-9.08618683642578,1.93963853295899,9.90437288278884,19.2008650000007,
3.04609488818359,-8.09977575244141,0.974775263916017,8.70834359237154,19.2038329999996,
2.48106329638672,-7.18040231494141,-0.461745732177732,7.61098295926864,19.2068040000013,
1.84659985644531,-6.10301156787109,-1.54631908422851,6.56108100374028,19.2098800000003,
1.4204319609375,-5.37038585986328,-2.72666050268555,6.18816198368931,19.2128830000001,
0.929620620605469,-4.71676880664063,-3.66039915014648,6.0424022054102,19.2159570000003,
0.513029531738281,-4.22835166796875,-4.46485090795898,6.17066047994474,19.2189159999998,
0.208965920898438,-3.96259528369141,-5.14719838110351,6.49919066598795,19.2218720000001,
0.000670376464843747,-3.61543604296875,-5.50872283178711,6.58918852876853,19.2249449999999,
-0.102280294921875,-3.58431142138672,-5.58533728491211,6.63729931602018,19.2278800000004,
-0.1118571015625,-3.5962824296875,-5.35788812719727,6.45389219841875,19.230947,
0.0629196196289062,-3.93625906542969,-4.88144199682617,6.27109003898763,19.2339590000011,
0.548942556640625,-4.38158057421875,-3.73940780493164,5.78642869051766,19.2369269999999,
1.00384087207031,-5.11181208056641,-2.72666050268555,5.87988067399067,19.2400259999995,
1.31987549121094,-5.57389300097656,-1.49125244604492,5.91896852132783,19.2430170000007,
1.76040859667969,-6.62494752978516,0.618039216552736,6.88265505984917,19.246099,
2.01898237597656,-7.48446592578125,2.45678609155274,8.13199347812894,19.2490660000003,
2.56486035449219,-8.18836121386719,4.18061128686524,9.54490852437441,19.2520690000001,
3.36931211230469,-8.71029717578125,5.19814699243164,10.6884177105628,19.2551400000011,
3.63506849658203,-8.8060652421875,5.9283784987793,11.2207922915138,19.2580909999997,
3.93913210742188,-8.78930583056641,6.14385664819336,11.424343887353,19.2611570000008,
3.23284261767578,-7.88429760302734,5.78951480249024,10.3020338638551,19.2641490000005,
3.19932379443359,-7.00801979541016,5.06167749780274,9.21784103173038,19.2671490000012,
2.91201959521484,-6.17004921435547,4.0130171706543,7.91540726952505,19.2701870000001,
2.21291271044922,-5.32968443164063,2.93802062524414,6.47568405647621,19.2731560000011,
2.03813598925781,-4.63776015185547,1.15912879174805,5.19676794678247,19.276194,
1.44676817919922,-3.96498948535156,-0.741867326416015,4.2853992711643,19.2791479999996,
0.8458235625,-3.2898246171875,-2.41302008520508,4.16665686640215,19.2821660000009,
0.5776729765625,-2.87802193164063,-3.7633498215332,4.77278935069305,19.2851709999995,
0.381348440429688,-2.66972638720703,-4.70187687231445,5.42037929834926,19.2881180000004,
0.276003567382813,-2.49734386767578,-5.26690846411133,5.83551447020341,19.2911999999997,
0.276003567382813,-2.48297865771484,-5.63322131811523,6.16234885435281,19.2941920000012,
0.513029531738281,-2.49255546435547,-5.72659518286133,6.26657198408304,19.2973080000011,
0.97989885546875,-2.96181898974609,-4.95805644995117,5.8578918781309,19.3002909999996,
1.43479717089844,-3.19405655078125,-4.14881628881836,5.42893329942184,19.303288000001,
1.72210137011719,-3.53163898486328,-3.29887469946289,5.13036853755381,19.3063180000008,
1.77237960498047,-3.82133738574219,-2.19035933081055,4.74780189960475,19.3093480000007,
1.98785775439453,-4.05118074511719,-1.43618580786133,4.73563866400478,19.312414,
2.0716548125,-4.26187049121094,-0.705954301513671,4.79099835335336,19.3154940000004,
1.97349254443359,-4.26665889453125,-0.0643082565917954,4.70140260954999,19.3184920000003,
1.87293607470703,-4.54199208544922,0.452839302001955,4.93382661609222,19.3216279999997,
1.73407237841797,-4.30975452441406,0.48156972192383,4.67042829635286,19.3246200000012,
1.63830431201172,-4.03920973681641,0.187082917724611,4.36282664506086,19.3277099999996,
1.47310439746094,-3.63937805957031,-0.0595198532714836,3.92665911930664,19.330734000001,
1.47549859912109,-3.34010285205078,-0.629339848388671,3.70532749201146,19.3337790000005,
1.535353640625,-3.15574932421875,-1.41703219458008,3.78471198898463,19.3368470000005,
1.38930733935547,-2.91393495654297,-2.30288680883789,3.96541037831768,19.3398260000013,
1.1139741484375,-2.63381336230469,-3.44731520239258,4.47905049485812,19.3429250000008,
1.03496549365234,-2.45903664111328,-4.2397959519043,5.00937965113174,19.3459500000008,
0.800333730957031,-2.38242218798828,-4.75215510717773,5.37582065599308,19.3489030000001,
0.745267092773438,-2.50213227099609,-5.00115207983398,5.64159649981801,19.3519510000006,
0.661470034667969,-2.65057277392578,-4.83834636694336,5.55631840368731,19.354956000001,
0.759632302734375,-3.00970302294922,-4.7760971237793,5.69617918059817,19.3580290000009,
0.876948184082031,-3.68486789111328,-4.31162200170898,5.7391091449931,19.3610210000006,
0.754843899414062,-3.97696049365234,-4.02671200415039,5.70967719270739,19.3641680000001,
0.556125161621094,-4.47495443896484,-3.81602225805664,5.90732750913499,19.3671720000002,
0.21375432421875,-4.85563250292969,-3.71546578833008,6.11780548390358,19.370191,
-0.138193319824219,-5.20997434863281,-3.62927452856445,6.3509498274465,19.3732510000009,
-0.181288949707031,-5.37038585986328,-3.66758175512695,6.50577173728417,19.3762390000011,
-0.00411802685546875,-5.45657711962891,-3.89263671118164,6.70275103116936,19.3792439999997,
0.141928274414063,-5.56192199267578,-3.83278166967773,6.75613315551924,19.382262000001,
0.412473062011719,-5.78218854541016,-3.83517587133789,6.95071308324909,19.3852850000003,
0.419655666992188,-6.12216518115234,-3.86869469458008,7.25422745880117,19.3883509999996,
0.496270120117188,-6.55790988330078,-3.69870637670898,7.54538898471927,19.3913119999997,
0.690200454589844,-6.97210677050781,-3.75856141821289,7.95068760682719,19.3944250000004,
0.668652639648438,-7.4653123125,-3.45210360571289,8.2519696788251,19.3973750000005,
1.36775952441406,-8.21709163378906,-2.92537924047851,8.82888468241228,19.4003700000012,
1.95194472949219,-8.93774633349609,-2.16881151586914,9.40197538500723,19.4034740000006,
2.22727792041016,-9.52432574023437,-1.05071934057617,9.8375585829767,19.4064689999996,
2.61274438769531,-10.0965399370117,-0.267815397705077,10.4325585079766,19.4095170000001,
2.64865741259766,-10.3215948930664,0.158352497802737,10.6571939430341,19.4124979999997,
2.80428052050781,-10.6136874956055,0.160746699462893,10.9790796970174,19.415484000001,
2.72766606738281,-10.3024412797852,-0.164864726318358,10.6586884219662,19.4185159999997,
2.97666304003906,-10.2641340532227,-0.607792033447264,10.7043160394479,19.4214659999998,
3.05806589648438,-10.1875196000977,-1.56547269750977,10.7511872551948,19.424567,
2.05489540087891,-8.96647675341797,-3.14803999487305,9.72267742380968,19.4275900000011,
1.51380582568359,-7.34560222949219,-3.96446276098633,8.48330390679489,19.4305800000002,
1.11636835009766,-7.20434433154297,-3.91897292944336,8.27690789862041,19.433642,
0.900890200683594,-7.10618206347656,-4.00276998754883,8.20558311433047,19.4366100000007,
0.235302139160156,-7.24504575976563,-3.62448612524414,8.10450213337491,19.4396890000007,
-0.16931794140625,-7.49164853076172,-3.16240520483398,8.13352770655558,19.442672000001,
-0.150164328125,-7.97767146777344,-2.46569252172851,8.35137299998483,19.4456480000008,
0.8075163359375,-8.70311457080078,-0.28457480932617,8.74512828307246,19.4487630000003,
0.280791970703125,-8.25061045703125,0.680288459716799,8.28336944925847,19.4518029999999,
1.32705809619141,-8.64804793261719,2.81352213891602,9.19052354665838,19.4549370000004,
1.21453061816406,-8.60495230273438,3.74007818139649,9.46089179505556,19.4579180000001,
1.25762624804688,-8.41102196826172,4.49904010766602,9.62124088778288,19.4609880000007,
1.44916238085938,-8.05907432421875,4.99463985131836,9.5914116694967,19.4640840000011,
1.89687809130859,-7.80050054492188,4.72409506372071,9.31466743451871,19.4670669999996,
2.47866909472656,-7.36236164111328,3.77599120629883,8.6374926341928,19.4701260000002,
2.25121993701172,-6.53875627001953,2.73690768579102,7.43733745664809,19.4731420000007,
2.16263447558594,-5.80373636035156,1.64275752709961,6.40772938788009,19.4761880000005,
1.74843758837891,-4.95140056933594,0.357071235595704,5.26316458661197,19.4791800000003,
1.67661153857422,-3.9793546953125,-0.986075895751952,4.42929291361148,19.4821250000005,
1.44676817919922,-3.27785360888672,-2.06107244116211,4.13345884863428,19.4851749999998,
1.25523204638672,-2.76310025195313,-3.01875310522461,4.28056080472207,19.488166000001,
1.06848431689453,-2.485372859375,-3.78489763647461,4.65233136224823,19.4912249999998,
0.8458235625,-2.21961647509766,-4.4696393112793,5.0615995859351,19.4943010000006,
0.934409023925781,-2.15976143359375,-4.87186519018555,5.41043067651499,19.4972900000012,
1.03496549365234,-2.178915046875,-4.85031737524414,5.41704744257834,19.5004390000013,
1.08284952685547,-2.38721059130859,-4.44809149633789,5.16302774201926,19.5034130000004,
1.2672030546875,-2.83732050341797,-3.4353441940918,4.63225441365277,19.5064999999995,
1.41324935595703,-3.27785360888672,-2.31485781713867,4.25442883792556,19.5094910000007,
1.82265783984375,-4.11582418994141,-0.971710685791015,4.60503116390445,19.5124790000009,
1.66703473193359,-4.11821839160156,-0.116980693115233,4.4443685716826,19.5155720000002,
1.61436229541016,-4.39355158251953,0.888584004150392,4.76435123196577,19.5185519999995,
2.02616498095703,-4.42228200244141,1.04899551538086,4.97617465835585,19.5215740000003,
2.54331253955078,-4.324119734375,1.69064156030274,5.29383783624607,19.5245680000007,
3.01018186328125,-4.43185880908203,2.30355718530274,5.83171870546113,19.5275160000001,
3.43874396044922,-4.27623570117188,2.44481508325195,6.00735154529841,19.5305600000011,
3.59676127001953,-3.99132570361328,2.34665281518555,5.86294737660631,19.5335890000006,
3.74280757128906,-3.77584755419922,1.88457189477539,5.64067766273063,19.5366410000006,
3.55605984179688,-3.64895486621094,1.62599811547852,5.3482990834119,19.5395960000005,
3.41959034716797,-3.41432310351563,1.00111148217774,4.93491890484464,19.5425329999998,
2.84019354541016,-3.20842176074219,0.641981233154299,4.33276002957882,19.5455620000012,
2.61513858935547,-3.29700722216797,0.292427790771486,4.21837889210765,19.5485619999999,
2.34938220507813,-3.24672898730469,-0.234296574462888,4.01444152371751,19.5515770000002,
2.36614161669922,-3.51487957324219,-0.382737077392576,4.25434980168324,19.5545720000009,
2.02377077929688,-3.42868831347656,-0.210354557861328,3.98695381941147,19.5576550000005,
1.71013036181641,-3.49572595996094,-0.150499516357421,3.8945212730161,19.5606430000007,
2.55767774951172,-4.37918637255859,-0.354006657470702,5.08372987770631,19.5636080000004,
1.19298280322266,-3.53642738818359,-1.14169900366211,3.90294802113006,19.5666849999998,
0.862582974121094,-3.75669394091797,-1.7498262253418,4.23304743321727,19.5696490000009,
0.417261465332031,-3.89795183886719,-2.58779680639648,4.69732136219941,19.5727449999995,
-0.0879150849609375,-3.90752864550781,-3.40421957250976,5.18316699282267,19.5757740000008,
-0.502111972167969,-3.94823007373047,-4.19191191870117,5.78037738230412,19.5787940000009,
-0.810963986328125,-3.85246200732422,-4.88862460180664,6.27676481974487,19.5818630000012,
-0.777445163085938,-4.27862990283203,-5.34591711889648,6.89129339595439,19.5848540000006,
-1.35684196484375,-4.017661921875,-5.53745325170898,6.97466959438996,19.5879139999997,
-1.16051742871094,-4.477348640625,-5.56618367163086,7.23711629161632,19.5908689999997,
-1.00489432080078,-4.87239191455078,-5.82236324926758,7.6583241881876,19.5938860000006,
-0.794204574707031,-5.26982939013672,-5.79123862768555,7.87021648688468,19.5969650000006,
-0.990529110839844,-5.49727854785156,-5.6188561081543,7.92292643637646,19.5999430000011,
-1.04798995068359,-5.87077400683594,-5.34591711889648,8.00893876978622,19.6029849999995,
-0.930674069335938,-6.10061736621094,-5.04185350805664,7.96893802642183,19.6060020000004,
-0.7247727265625,-6.51242005175781,-4.57498418432617,7.99170762243844,19.6089570000004,
-0.384796090820313,-6.97210677050781,-3.99558738256836,8.04506428704028,19.6119890000009,
0.38613684375,-7.76698172167969,-3.13128058325195,8.38331824625895,19.614939000001,
1.26959725634766,-8.74142179736328,-1.97248697973633,9.05069263194662,19.6180080000013,
2.00701136767578,-9.47165330371094,-0.653281864990234,9.70397280142536,19.620973000001,
2.99821085498047,-10.2401920366211,0.591702998291018,10.6864827570154,19.6240140000009,
3.53930043017578,-10.4676411943359,1.7145835769043,11.1820372272047,19.6271300000008,
4.47543327929688,-11.3678610185547,2.83985835717774,12.542829133152,19.6301149999999,
