X,Y,Z,Magnitude,Seconds,
0.0337103593749999,-0.0109654436035155,-0.0465432802734398,0.0585056084595784,0.0,
-0.0117794721679688,-0.025330653564453,-0.0202070620117212,0.0344778672441297,0.00379100000100152,
0.0289219560546874,-0.0205422502441406,0.049224786132811,0.0606757213137442,0.00755500000013853,
0.0169509477539062,-0.00617704028320304,-0.0130244570312517,0.0222514479837805,0.0113369999999122,
-0.0189620771484376,0.0105823713378907,0.0276769711914042,0.0351789949720871,0.0151740000001155,
0.0169509477539062,0.0441011945800782,-0.0489374819335957,0.0680229897251406,0.0189360000003944,
0.0193451494140624,-0.00617704028320304,-0.0202070620117212,0.0286481410855619,0.0226780000011786,
0.0121625444335937,-0.0444842668457031,-0.0369664736328144,0.0591041255475827,0.0264330000009068,
-0.00459686718750008,-0.0756088884277343,-0.0465432802734398,0.0889050737350184,0.0301720000006753,
-0.0237504804687501,0.0177649763183595,0.0420421811523415,0.0514511875677778,0.033887000001414,
0.112719014160156,0.0824084211425782,0.0779552060546855,0.159917910752606,0.0376840000008087,
-0.00220266552734383,-0.0564552751464843,0.0204943662109347,0.0601004897956622,0.041388999999981,
-0.107547538574219,-0.104339308349609,0.0372537778320297,0.154405337611775,0.0450870000004215,
0.0576523759765624,0.0656490095214845,0.0803494077148414,0.118699689245679,0.048850000001039,
0.0169509477539062,0.022553379638672,0.0157059628906229,0.032290352014237,0.0528430000013032,
-0.0764229169921876,-0.0875798967285156,-0.0345722719726584,0.121268060683445,0.0566319999998086,
0.0145567460937499,0.00339976635742195,0.070772601074216,0.0723340744803795,0.0604130000010628,
0.0720175859374999,0.0177649763183595,0.0947146176757787,0.120303723422536,0.0643450000006851,
-0.0572693037109376,-0.0325132585449218,0.0300711728515601,0.0723958601400173,0.0681510000013077,
-0.0261446821289064,-0.054061073486328,-0.00584185205078391,0.0603346608965275,0.0719650000010006,
0.0408929643554687,0.0464953962402345,-0.0178128603515653,0.0644310049527276,0.0757470000007743,
0.0241335527343749,-0.0301190568847655,0.0779552060546855,0.0869862064136555,0.0795550000002549,
-0.0764229169921876,-0.0205422502441406,0.0372537778320297,0.0874659376525852,0.0833550000006653,
0.0265277543945311,-0.025330653564453,0.0181001645507788,0.0409020747638084,0.0872520000011718,
0.0672291826171874,0.041706992919922,0.0228885678710924,0.0823597158384313,0.0910309999999299,
-0.0500866987304688,-0.0373016618652343,0.00852335791015335,0.06302966759939,0.0947690000011789,
0.0121625444335937,-0.00378283862304679,-0.0393606752929703,0.0413702805727227,0.098533000000316,
0.100748005859375,0.0057939680175782,0.013311761230467,0.101788671948731,0.102267000000211,
0.0145567460937499,-0.0492726701660156,0.00852335791015335,0.052080154686708,0.10600500000146,
-0.0644519086914064,0.0177649763183595,-0.024995465332033,0.0713751791922242,0.109663000001092,
0.00497993945312492,0.0488895979003907,0.0204943662109347,0.053244827224873,0.113493000000744,
0.0600465776367187,-0.0516668718261718,0.0779552060546855,0.11113987259851,0.117223000001104,
-0.0381156904296876,0.0153707746582032,0.0372537778320297,0.0554699065555664,0.121070000001055,
-0.0716345136718751,0.0393127912597657,0.00134075292968561,0.0817239054625905,0.124961999999869,
0.0552581743164062,0.022553379638672,0.034859576171872,0.0691180932375231,0.128715000000739,
0.0432871660156249,-0.0205422502441406,-0.0345722719726584,0.0590847254043601,0.13248300000123,
-0.0716345136718751,0.0249475812988282,-0.041754876953128,0.0865872687583952,0.136290000000372,
-0.00699106884765632,0.0441011945800782,-0.0130244570312517,0.0465126529879936,0.140063000000737,
0.0313161577148437,-0.00138863696289054,0.0540131894531228,0.0624504177851086,0.143887000000177,
-0.0117794721679688,-0.0109654436035155,-0.0226012636718771,0.0277455228378119,0.147609000001466,
-0.0381156904296876,0.00818816967773445,-0.0226012636718771,0.0450629459663797,0.151318000000174,
0.0289219560546874,0.032130186279297,-0.099215716796877,0.108224705459935,0.155075000000579,
0.0432871660156249,-0.0373016618652343,-0.0609084902343771,0.0835166863698731,0.158925000001545,
-0.00459686718750008,-0.0373016618652343,0.013311761230467,0.0398716459768687,0.162688000000344,
0.00019153613281242,0.0105823713378907,0.0181001645507788,0.0209675755868067,0.166430000001128,
-0.0141736738281251,0.00339976635742195,0.032465374511716,0.0355872446707682,0.170164000001023,
0.00976834277343741,-0.0325132585449218,0.0420421811523415,0.0540377414201833,0.173923000000286,
-0.0237504804687501,0.00339976635742195,0.0276769711914042,0.0366286563787338,0.177612999999837,
0.0145567460937499,0.0153707746582032,-0.00584185205078391,0.0219610292521642,0.181325999999899,
-0.0213562788085938,-0.0492726701660156,0.0228885678710924,0.0583761356123284,0.185164000000441,
0.00019153613281242,-0.034907460205078,0.0564073911132787,0.0663352186720273,0.188931000000593,
0.0313161577148437,-0.00138863696289054,0.0372537778320297,0.0486875138962126,0.192907000000559,
-0.0141736738281251,-0.0109654436035155,-0.0154186586914093,0.0236404107208426,0.196713000001182,
0.00497993945312492,-0.034907460205078,-0.0106302553710957,0.0368284252199386,0.200499000000491,
0.0121625444335937,-0.00857124194335929,-0.0609084902343771,0.0626995841946496,0.204335000000356,
-0.0333272871093751,0.0273417829589845,-0.0130244570312517,0.0450324065802157,0.208193000000392,
0.0169509477539062,-0.0444842668457031,-0.003447650390628,0.0477291412008573,0.212068000000727,
-0.00220266552734383,-0.0181480485839843,0.0276769711914042,0.0331695362819835,0.215887000000293,
0.0169509477539062,0.032130186279297,0.0157059628906229,0.0395772759348038,0.219678999999815,
0.0145567460937499,0.0010055646972657,-0.0106302553710957,0.0180530425815983,0.223453000000518,
0.0217393510742186,-0.0684262834472655,-0.0273896669921889,0.0768436692869143,0.227257000000463,
-0.00220266552734383,-0.00378283862304679,0.034859576171872,0.0351333410645203,0.231040000000576,
0.00497993945312492,0.0057939680175782,-0.003447650390628,0.00838189450908961,0.234884999999849,
-0.00220266552734383,-0.0373016618652343,0.0181001645507788,0.0415196540219074,0.238640999999916,
0.0432871660156249,-0.0301190568847655,0.0157059628906229,0.055023754866545,0.242392000000109,
0.00737414111328116,-0.0420900651855468,-0.00823605371093983,0.0435176300504939,0.246124000001146,
0.0265277543945311,-0.0133596452636718,-0.0202070620117212,0.0359239088899476,0.249850000000151,
-0.0141736738281251,-0.0109654436035155,0.0181001645507788,0.0254705700755446,0.253545999999915,
0.0193451494140624,-0.0420900651855468,0.0252827695312483,0.0527733533930354,0.257341000000451,
0.0217393510742186,0.0105823713378907,0.0204943662109347,0.031695504644177,0.261169000001246,
0.0432871660156249,-0.0109654436035155,0.0252827695312483,0.0513150867704262,0.265153000000282,
-0.00699106884765632,0.0153707746582032,-0.0297838686523466,0.0342376195014514,0.268856000000596,
-0.0213562788085938,0.00818816967773445,0.0755610043945296,0.0789468311734669,0.2726300000013,
-0.00220266552734383,-0.0301190568847655,-0.00105344873047031,0.0302178602366352,0.276409000000058,
0.0576523759765624,0.00339976635742195,0.0276769711914042,0.0640419362711481,0.280301000000691,
-0.0117794721679688,-0.0109654436035155,-0.00584185205078391,0.0171208689429328,0.284145000001445,
-0.0285388837890626,-0.0133596452636718,0.0564073911132787,0.0646122417325321,0.28792600000088,
0.0169509477539062,0.00818816967773445,0.0731668027343719,0.0755497304746848,0.291692000000694,
0.00737414111328116,0.0393127912597657,-0.379337311035158,0.38144025620951,0.295450000001438,
-0.181767790039063,6.61857895336914,-7.82291027246094,10.248734166835,0.29921000000104,
-1.60392357617188,-14.8861403581543,9.41713733190918,17.6876290420426,0.302784000001338,
-3.38520961132813,0.755179087646485,-29.8088641176758,30.0099703357585,0.305664000001343,
0.862104133789062,6.36479357739258,9.41713733190918,11.3989603187462,0.308555000001434,
4.91548754443359,3.23796620922852,-2.59636804833985,6.43331718587134,0.311588000000484,
-3.39957482128906,-1.02371274584961,-2.11513351464844,4.13266095105158,0.314539000000877,
-1.192120890625,-3.88238952807617,2.2494961118164,4.6426644744863,0.317552000000433,
-0.129095353515625,-1.87844273852539,-3.14942863183594,3.66934782205859,0.320493000001079,
0.651414387695312,0.381683628662109,2.94381459326172,3.0390899059399,0.323417000001427,
1.99456151904297,2.65138680249023,-0.616363275390627,3.37461572877812,0.326442000001407,
-1.31183097363281,1.80144521313477,0.812975115722654,2.37213698974002,0.329381000001376,
-0.926364506347656,-1.82098189868164,-0.470316974121095,2.09650288101241,0.33239599999979,
0.115113215820312,-1.84013551196289,-0.379337311035158,1.88235133553405,0.335334000001239,
0.807037495605469,0.120715647705078,0.219213104003904,0.844947437348046,0.338286000000153,
0.457484053222656,1.49498740063477,0.267097137207029,1.58607057463214,0.34132099999988,
-0.931152909667969,0.968263035400391,0.00373495458984152,1.34335140480505,0.344247000000905,
-0.121912748535156,-1.17694165209961,-0.00105344873047031,1.18323940115962,0.347247000001516,
0.1103248125,-0.750773756591797,-0.477499579101565,0.896570491306897,0.350218999999925,
0.658596992675781,-0.0684262834472655,0.360471001953123,0.753904170486592,0.353199000001041,
-0.121912748535156,0.961080430419922,-0.0800621035156279,0.972084488308957,0.356306000001496,
-0.504985014160156,0.32422278881836,0.18330007910156,0.627478446095263,0.359349000000293,
-0.0620577070312501,-0.523324598876953,-0.357789496093753,0.636971834782922,0.362481000000116,
0.421571028320312,-0.53768980883789,0.195271087402341,0.710607669549426,0.36548700000094,
0.215669685546875,0.127898252685547,0.0228885678710924,0.251784159237815,0.368489000000409,
-0.380486527832031,0.640257407958985,-0.0944273134765652,0.750743673858418,0.371429000000717,
-0.0668461103515626,0.0345243879394532,0.0803494077148414,0.110074352834132,0.37437300000056,
0.0480755693359374,-0.307846449462891,0.0228885678710924,0.312417322427986,0.377437000001009,
0.242005903808594,-0.346153676025391,-0.0321780703125025,0.42358547320835,0.38038300000153,
-0.0333272871093751,0.175782285888672,0.0372537778320297,0.182751098659011,0.383381000001464,
-0.0716345136718751,0.269156150634766,0.0181001645507788,0.279113154348368,0.38635400000021,
-0.0692403120117189,-0.0492726701660156,-0.0537258852539093,0.100540974627688,0.389300000000731,
0.0504697709960937,-0.228837794677734,-0.108792523437502,0.258359724441072,0.392357000000629,
0.153420442382812,-0.113916114990234,-0.0345722719726584,0.194190513117293,0.395328000000518,
-0.0285388837890626,0.125504051025391,0.0659841977539042,0.144636264695047,0.398385000000417,
-0.0788171186523438,0.156628672607422,-0.0178128603515653,0.17624408435271,0.401300999999876,
-0.0716345136718751,0.0105823713378907,-0.0393606752929703,0.0824181587494996,0.404206000001068,
0.143843635742187,-0.164194349853516,0.0372537778320297,0.221446652785966,0.40726100000029,
0.0648349809570312,-0.025330653564453,0.0659841977539042,0.095912101003613,0.410222000000431,
-0.119518546875,0.108744639404297,-0.0752737001953143,0.178258827515992,0.413206000001082,
-0.0764229169921876,0.0273417829589845,0.00134075292968561,0.0811777860956399,0.41613900000084,
0.0863827958984374,0.0010055646972657,0.101897222656248,0.133589081038266,0.419068000001062,
0.0576523759765624,-0.106733510009766,0.0635899960937483,0.136965419788904,0.422115000001213,
-0.0668461103515626,-0.00617704028320304,-0.0369664736328144,0.076636012870185,0.425047000000632,
0.00019153613281242,0.0608606062011719,-0.0345722719726584,0.0699949431217411,0.42807300000095,
0.0289219560546874,0.080014219482422,0.10668562597656,0.136457237446099,0.431016000000454,
0.0313161577148437,-0.0803972917480468,-0.0178128603515653,0.088100648399123,0.433961000000636,
0.00019153613281242,-0.0780030900878905,0.0204943662109347,0.0806507147875184,0.436999000001379,
-0.00459686718750008,-0.025330653564453,-0.0537258852539093,0.0595755314223724,0.439935000000332,
0.0265277543945311,0.0441011945800782,-0.0106302553710957,0.0525513029891857,0.442942000001494,
0.0384987626953124,0.0273417829589845,0.00612915624999744,0.047616114717426,0.445901000000958,
0.0145567460937499,-0.054061073486328,0.00852335791015335,0.056631670939472,0.44884600000114,
-0.0117794721679688,-0.0564552751464843,-0.0680910952148466,0.0892320082928682,0.451858000000357,
0.00497993945312492,-0.00617704028320304,0.049224786132811,0.0498601563719779,0.454815000000963,
0.0241335527343749,-0.0133596452636718,0.00852335791015335,0.0288713719663368,0.457849000000351,
0.0169509477539062,-0.00617704028320304,-0.0130244570312517,0.0222514479837805,0.460798000000068,
0.00976834277343741,-0.0588494768066405,-0.00823605371093983,0.0602205448471215,0.463818000000174,
0.0121625444335937,0.0010055646972657,0.0181001645507788,0.021830130650658,0.466774000000441,
0.0265277543945311,0.0177649763183595,-0.0154186586914093,0.0354549174678296,0.469694999999774,
0.0456813676757812,-0.0229364519042968,0.101897222656248,0.113999614752617,0.47273099999984,
0.00737414111328116,-0.0612436784667968,-0.0489374819335957,0.0787403533602941,0.475678000000698,
0.0121625444335937,0.0105823713378907,0.010917559570311,0.0194706748009267,0.478688000001057,
-0.0189620771484376,0.0177649763183595,-0.0561200869140652,0.0618435033662988,0.481622000001153,
0.0313161577148437,-0.00617704028320304,0.0683783994140601,0.0754616662094736,0.48457800000142,
-0.0261446821289064,-0.0181480485839843,-0.00823605371093983,0.0328744376645091,0.48759500000051,
-0.0500866987304688,0.0057939680175782,-0.003447650390628,0.0505384383249172,0.490510999999969,
0.0241335527343749,-0.0301190568847655,0.0372537778320297,0.0536416807899307,0.493624000000636,
0.00497993945312492,0.0488895979003907,-0.168647564941409,0.175661588688266,0.496659000000363,
0.0983538041992187,0.508576316650391,-0.386519916015628,0.646313380748739,0.499698999999964,
0.0911711992187499,0.120715647705078,1.41870813574219,1.42675058422589,0.502830000001268,
-0.454706779296875,-2.56797281665039,-0.774380584960939,2.72046097795177,0.505796999999802,
-0.375698124511719,1.25317303295898,-0.836629828125002,1.55291377758255,0.508821999999782,
1.27630102099609,1.72722496166992,0.918319988769529,2.33571444448695,0.5117850000006,
0.0576523759765624,-0.0947625017089843,0.00373495458984152,0.11098503535016,0.514758000001166,
-0.933547111328125,-1.08356778735352,-0.120763531738284,1.43534427558589,0.517805999999837,
-0.124306950195313,-0.880060646240234,-0.494258990722658,1.0169812726092,0.520753000000695,
0.601136152832031,0.673776231201172,0.472998479980467,1.01934618557053,0.523785999999745,
0.574799934570312,0.896436985595703,-0.0848505068359398,1.06826674685505,0.526753000000099,
-0.217680814941406,0.336193797119141,0.326952178710936,0.517019277763188,0.529699000000619,
-0.430764762695313,-0.899214259521484,-0.302722857910158,1.04201040974072,0.5327699999998,
0.258765315429688,-0.281510231201172,-0.0178128603515653,0.382785575399945,0.535767999999734,
0.416782625,0.532518333251953,0.257520330566404,0.723602275014637,0.538836000001538,
-0.0668461103515626,0.455903880126953,-0.0848505068359398,0.468525729169979,0.541777000000366,
-0.370909721191406,0.111138841064453,0.0468305844726533,0.390024315792601,0.544723000000886,
-0.124306950195313,-0.542478212158203,-0.0896389101562516,0.563710885780309,0.547746000000188,
0.165391450683594,-0.185742164794922,-0.0202070620117212,0.249525167261888,0.550719000000754,
0.2252464921875,0.233243125732422,0.0516189877929669,0.328333455263052,0.5537860000004,
-0.0883939252929689,0.252396739013672,0.125839239257811,0.295555602265325,0.556735000000117,
-0.232046024902344,-0.0803972917480468,0.0276769711914042,0.247133763229004,0.559766000000309,
0.0265277543945311,-0.267145021240234,-0.173435968261721,0.319609479229798,0.56272700000045,
0.177362458984375,-0.0229364519042968,0.14499285253906,0.2302312966787,0.565700000001016,
0.0839885942382812,0.156628672607422,-0.0489374819335957,0.184340723072485,0.568715000001248,
-0.160219975097656,0.0967736311035157,0.0635899960937483,0.19768475839188,0.571662000000288,
-0.0452982954101563,-0.147434938232422,-0.00584185205078391,0.154347412722232,0.574668000001111,
0.0935654008789062,-0.154617543212891,-0.063302691894533,0.191489685654123,0.577645000001212,
0.124690022460937,0.032130186279297,0.00612915624999744,0.128908948983336,0.580590999999913,
-0.0381156904296876,0.118321446044922,-0.024995465332033,0.126797254458675,0.583603000000949,
-0.129095353515625,0.0441011945800782,-0.0800621035156279,0.158178589202399,0.586513000000195,
-0.00938527050781257,-0.0827914934082031,-0.0154186586914093,0.0847363541763954,0.58955700000115,
0.0768059892578124,-0.0827914934082031,0.032465374511716,0.117505710111542,0.592547000000195,
0.0887769975585937,-0.0875798967285156,0.123445037597653,0.17547156725231,0.595499000000927,
-0.124306950195313,-0.104339308349609,0.0468305844726533,0.168914217210349,0.598528000000442,
-0.0883939252929689,0.106350437744141,-0.0585142885742211,0.150159327397323,0.601464999999735,
0.184545063964844,0.142263462646484,0.0420421811523415,0.236776938137991,0.604503000000477,
0.172574055664062,-0.0492726701660156,0.125839239257811,0.219191958909574,0.607475000000704,
-0.0931823286132813,-0.109127711669922,-0.0441490786132839,0.150136421172576,0.610403000000588,
-0.17697938671875,-0.0923683000488281,-0.0537258852539093,0.206736733367758,0.61343400000078,
0.0480755693359374,0.0824084211425782,0.013311761230467,0.0963307387558303,0.616396999999779,
0.174968257324219,0.0345243879394532,0.00373495458984152,0.178380980823226,0.619442000001072,
0.0361045610351562,-0.0708204851074218,0.0181001645507788,0.0815272739342923,0.622411000000284,
-0.129095353515625,-0.0827914934082031,0.010917559570311,0.153750560282088,0.625348999999915,
-0.0117794721679688,-0.00378283862304679,0.013311761230467,0.01817329963603,0.628378000001248,
0.112719014160156,0.0608606062011719,0.087532012695311,0.155149743109371,0.631353000000672,
0.0863827958984374,0.0177649763183595,0.0564073911132787,0.104687036365681,0.634489000000031,
-0.0357214887695314,-0.0923683000488281,0.0157059628906229,0.100272652723181,0.637556000001496,
-0.0429040937500001,-0.00617704028320304,-0.0154186586914093,0.0460070877475556,0.640595000000758,
0.0839885942382812,0.041706992919922,-0.00105344873047031,0.093779885768606,0.643659000001207,
0.0792001909179687,-0.00857124194335929,-0.0273896669921889,0.0842397191818521,0.646620999999868,
-0.0141736738281251,-0.0396958635253905,-0.00823605371093983,0.0429474934256004,0.649655000001076,
-0.0357214887695314,-0.0205422502441406,0.0564073911132787,0.0698555837224988,0.652606999999989,
0.00976834277343741,0.00818816967773445,0.0300711728515601,0.0326610177410188,0.655650000000605,
0.0648349809570312,0.0273417829589845,0.0204943662109347,0.0732882452884684,0.658599000000322,
0.00737414111328116,0.0177649763183595,-0.0106302553710957,0.0219766846909439,0.661520999999993,
0.00019153613281242,-0.063637880126953,0.0731668027343719,0.0969700855703093,0.664599000001544,
0.0313161577148437,-0.034907460205078,0.109079827636716,0.118733488575236,0.667554000001473,
0.0480755693359374,0.012976572998047,0.0252827695312483,0.0558468463650221,0.670583000000988,
0.0289219560546874,0.012976572998047,0.0276769711914042,0.0420818930554785,0.673577000001387,
-0.0261446821289064,0.0273417829589845,0.00134075292968561,0.0378538652903007,0.676527000001443,
0.0169509477539062,0.012976572998047,0.0564073911132787,0.0603118549601627,0.679583000001003,
0.0241335527343749,0.0010055646972657,-0.0393606752929703,0.0461811897579727,0.682517000001098,
0.0313161577148437,-0.0229364519042968,0.0276769711914042,0.0476738638491669,0.68558800000028,
0.0241335527343749,-0.00138863696289054,-0.0154186586914093,0.0286721418111681,0.688548000000083,
0.0217393510742186,-0.0157538469238281,-0.0202070620117212,0.0336022087543823,0.691505000000689,
0.0169509477539062,-0.0277248552246093,0.0516189877929669,0.0609960828885894,0.694561000000249,
0.0313161577148437,0.012976572998047,-0.003447650390628,0.0340731488713709,0.697493000001487,
0.0289219560546874,0.0153707746582032,0.0228885678710924,0.0399578126880356,0.700537000000622,
0.00737414111328116,0.0201591779785157,0.00134075292968561,0.0215073948293725,0.703502000000299,
-0.00220266552734383,-0.00378283862304679,0.0396479794921856,0.0398888942098691,0.706466999999975,
0.00737414111328116,0.0010055646972657,-0.0130244570312517,0.0150008532583281,0.70949500000097,
-0.00459686718750008,0.0153707746582032,0.00612915624999744,0.0171743546565704,0.712438000000475,
-0.0117794721679688,-0.00617704028320304,0.0396479794921856,0.0418195417123267,0.715479000000414,
-0.0213562788085938,-0.0277248552246093,0.0157059628906229,0.0383592949895793,0.718426999999792,
-0.0261446821289064,0.012976572998047,-0.0489374819335957,0.0569808124581969,0.721351000000141,
-0.00938527050781257,-0.0229364519042968,0.0157059628906229,0.029340098820293,0.724396999999954,
0.0361045610351562,-0.00138863696289054,0.013311761230467,0.0385054623035874,0.727370000000519,
-0.00459686718750008,-0.0373016618652343,0.0564073911132787,0.0677815530808655,0.730411000000458,
0.00497993945312492,-0.00857124194335929,-0.0441490786132839,0.0452482831476545,0.733383000000686,
0.0241335527343749,-0.00857124194335929,0.0204943662109347,0.0328011219689565,0.736339000000953,
0.0169509477539062,0.0010055646972657,-0.024995465332033,0.0302178602366367,0.739355000001524,
0.0121625444335937,-0.0277248552246093,0.0611957944335924,0.0682753274666858,0.742342000001372,
0.0121625444335937,-0.0229364519042968,0.013311761230467,0.0291755257041621,0.745387000000846,
0.00258573779296867,-0.0277248552246093,0.010917559570311,0.029908974307569,0.748347000000649,
0.0289219560546874,-0.0205422502441406,0.0731668027343719,0.0813132499011856,0.751373000000967,
0.00976834277343741,-0.00857124194335929,0.049224786132811,0.0509113570710107,0.754342000000179,
-0.0237504804687501,-0.0277248552246093,0.013311761230467,0.0388581510983087,0.757286000000022,
0.0169509477539062,-0.0157538469238281,0.0731668027343719,0.0767391643492784,0.760342000001401,
0.00258573779296867,-0.025330653564453,-0.0273896669921889,0.0373968168147949,0.763310000000274,
0.0265277543945311,-0.0109654436035155,0.0181001645507788,0.0339349180550612,0.766351000000213,
-0.0405098920898438,0.0105823713378907,0.0252827695312483,0.048910697965108,0.769290000000183,
0.0361045610351562,0.00818816967773445,0.0420421811523415,0.0560190186120659,0.772297000001345,
-0.0237504804687501,-0.00378283862304679,0.00852335791015335,0.025515540766542,0.775429000001168,
-0.0141736738281251,-0.0444842668457031,-0.003447650390628,0.046814840807182,0.778471000001446,
-0.0333272871093751,0.0201591779785157,0.00373495458984152,0.0391286392381382,0.78159500000038,
-0.0117794721679688,-0.0181480485839843,0.00852335791015335,0.023254145050446,0.784560000000056,
0.0193451494140624,0.0249475812988282,0.032465374511716,0.0452837405776071,0.787505000000237,
-0.0141736738281251,-0.0301190568847655,0.0444363828124974,0.0555215519854465,0.790542000000642,
0.0121625444335937,-0.0660320817871093,0.00852335791015335,0.0676816883824806,0.793539000000237,
0.0169509477539062,0.00818816967773445,0.0420421811523415,0.0460643652780902,0.796599000001152,
-0.00220266552734383,-0.0133596452636718,-0.0154186586914093,0.0205199145426746,0.799548000000868,
0.00258573779296867,-0.00378283862304679,-0.0130244570312517,0.0138069688542026,0.802494000001388,
0.0337103593749999,-0.0325132585449218,-0.0202070620117212,0.0510080941179547,0.805550000000949,
-0.00699106884765632,-0.025330653564453,-0.00105344873047031,0.0262987986011289,0.808506999999736,
-0.00938527050781257,-0.00857124194335929,0.0181001645507788,0.0221170849734247,0.811564000001454,
0.0169509477539062,0.0010055646972657,0.123445037597653,0.12460747609033,0.81455300000016,
-0.0213562788085938,-0.0109654436035155,-0.0154186586914093,0.028531852968471,0.817526000000726,
-0.0213562788085938,-0.0325132585449218,0.00612915624999744,0.0393798067808389,0.820578000000751,
-0.00220266552734383,-0.0109654436035155,0.0204943662109347,0.0233476280430182,0.823538000000553,
0.0313161577148437,-0.00617704028320304,-0.0154186586914093,0.0354484498465511,0.826587999999902,
-0.0213562788085938,-0.0205422502441406,0.0181001645507788,0.0347230564093738,0.829563000001144,
-0.0261446821289064,-0.00378283862304679,-0.0226012636718771,0.0347659516083665,0.832492999999886,
0.00019153613281242,-0.0109654436035155,0.0588015927734347,0.0598155912133692,0.835528999999951,
0.0121625444335937,-0.0396958635253905,0.00373495458984152,0.0416849967483956,0.838498000000982,
-0.0189620771484376,-0.0277248552246093,0.00373495458984152,0.0337961218603114,0.841518000001088,
0.00976834277343741,0.0010055646972657,-0.0465432802734398,0.0475679368851722,0.844466000000466,
0.0121625444335937,-0.0229364519042968,0.00134075292968561,0.0259962676451009,0.847515999999814,
0.00976834277343741,-0.054061073486328,-0.0226012636718771,0.0594040175964491,0.850485000000845,
-0.0213562788085938,-0.0109654436035155,-0.00105344873047031,0.0240300094090702,0.853426000001491,
-0.00459686718750008,0.0249475812988282,0.00134075292968561,0.0254029647683025,0.856449000000794,
0.00019153613281242,0.0297359846191407,0.087532012695311,0.0924452200703315,0.859402000000046,
-0.0117794721679688,-0.00138863696289054,-0.0178128603515653,0.021400520345894,0.862417000000278,
0.00258573779296867,-0.0229364519042968,0.00852335791015335,0.0246051721383265,0.865401000000929,
0.0289219560546874,0.0464953962402345,-0.024995465332033,0.060191982030255,0.868335000001025,
0.0241335527343749,-0.0181480485839843,0.013311761230467,0.0329997427572772,0.871406000000206,
0.0169509477539062,-0.0325132585449218,0.0611957944335924,0.0713398336648122,0.874369000001025,
0.00497993945312492,-0.0396958635253905,0.0372537778320297,0.0546663090096766,0.87742100000105,
-0.0237504804687501,-0.0205422502441406,-0.0513316835937516,0.060174837832423,0.880371000001105,
0.0169509477539062,0.00818816967773445,0.00612915624999744,0.0197976591738495,0.883318000000145,
0.0289219560546874,0.012976572998047,-0.0106302553710957,0.0334346125752583,0.886341000001266,
0.00737414111328116,-0.0301190568847655,-0.0130244570312517,0.0336329009415668,0.889321000000564,
0.0384987626953124,-0.0277248552246093,-0.00823605371093983,0.0481524133042676,0.892370999999912,
0.0384987626953124,-0.0181480485839843,-0.0441490786132839,0.0613241187370724,0.895340000000942,
0.0145567460937499,-0.00138863696289054,-0.00584185205078391,0.0157465680335703,0.898314000000028,
0.0408929643554687,-0.0205422502441406,0.0420421811523415,0.0621430895186007,0.901369000001068,
0.0217393510742186,0.0057939680175782,-0.0369664736328144,0.0432745840345394,0.904302000000826,
-0.00938527050781257,0.0010055646972657,-0.0154186586914093,0.0180784263338206,0.907314000000042,
0.0289219560546874,-0.025330653564453,0.032465374511716,0.0503201956893809,0.91029300000082,
0.0193451494140624,0.0249475812988282,0.010917559570311,0.0334037381962758,0.913336999999956,
0.00497993945312492,-0.00378283862304679,0.032465374511716,0.0330622172152865,0.916500000001179,
0.0169509477539062,0.0057939680175782,0.0396479794921856,0.0435070910652177,0.919550000000527,
0.00019153613281242,0.0201591779785157,0.0468305844726533,0.0509856135092044,0.92264200000136,
0.00737414111328116,0.0105823713378907,0.00373495458984152,0.0134281207203306,0.925599000000147,
-0.00699106884765632,-0.00378283862304679,0.0372537778320297,0.0380923729168834,0.928531999999905,
0.0241335527343749,-0.0133596452636718,0.0516189877929669,0.0585271594212847,0.931582000001072,
-0.0261446821289064,0.0010055646972657,0.0372537778320297,0.0455236150447234,0.934540000000197,
0.00737414111328116,-0.00378283862304679,-0.00105344873047031,0.00835449456486313,0.937583000000814,
0.00737414111328116,-0.054061073486328,-0.00584185205078391,0.0548735351425074,0.940553000000364,
-0.0141736738281251,0.0010055646972657,0.0683783994140601,0.0698391702168289,0.943583000000217,
0.0456813676757812,0.0105823713378907,0.0611957944335924,0.0770953902138215,0.946538000000146,
0.0193451494140624,-0.00378283862304679,0.0396479794921856,0.0442776123081765,0.949527000000671,
0.00737414111328116,-0.0133596452636718,-0.0321780703125025,0.0356130072833802,0.952586999999767,
0.0145567460937499,-0.00138863696289054,0.013311761230467,0.0197744824587035,0.955599000000802,
0.0552581743164062,-0.0205422502441406,-0.0489374819335957,0.0766180593063817,0.958624000000782,
-0.0117794721679688,-0.0181480485839843,-0.00584185205078391,0.0224105972108254,0.961584000000585,
0.0169509477539062,-0.00857124194335929,0.032465374511716,0.037613845328459,0.964556000000812,
0.0193451494140624,-0.0109654436035155,-0.0202070620117212,0.0300466489715546,0.967609000001175,
-0.0189620771484376,-0.0133596452636718,0.0204943662109347,0.0309525368547127,0.970581000001403,
0.0528639726562499,-0.00378283862304679,0.0755610043945296,0.0922950424354357,0.973635000000286,
-0.0141736738281251,0.0249475812988282,-0.0321780703125025,0.0431126785468507,0.976549000000887,
0.0289219560546874,0.0153707746582032,0.034859576171872,0.0478323144590044,0.979507000000012,
0.00019153613281242,-0.00857124194335929,0.032465374511716,0.0335783176577945,0.982566000000588,
0.0648349809570312,-0.0301190568847655,-0.0321780703125025,0.0783974524609231,0.985561000001326,
-0.0261446821289064,0.0177649763183595,0.0252827695312483,0.040476625629907,0.988595000000714,
0.0193451494140624,-0.0612436784667968,-0.0513316835937516,0.0822190044853732,0.991563000001406,
0.0121625444335937,-0.0205422502441406,-0.024995465332033,0.0345642129862217,0.994518000001335,
0.00497993945312492,-0.0277248552246093,0.0683783994140601,0.0739531804631219,0.997583000000304,
0.0337103593749999,-0.0133596452636718,0.0300711728515601,0.0471077900928413,1.00053600000138,
0.0217393510742186,-0.0301190568847655,0.0683783994140601,0.0778162096171781,1.00359000000026,
0.0313161577148437,-0.00617704028320304,0.010917559570311,0.0337350065607311,1.00654700000086,
-0.0189620771484376,-0.00857124194335929,-0.0226012636718771,0.0307220389590374,1.0094939999999,
0.0384987626953124,-0.00617704028320304,-0.0345722719726584,0.0521109637704174,1.01254400000107,
-0.0189620771484376,-0.0157538469238281,-0.0273896669921889,0.0368502092344902,1.01549200000045,
