X,Y,Z,Magnitude,Seconds,
0.00258573779296867,0.0105823713378907,0.0204943662109347,0.0232097322142006,0.0,
0.0696233842773437,-0.0109654436035155,0.0588015927734347,0.0917893452659152,0.00374600000031933,
-0.00938527050781257,0.012976572998047,0.00852335791015335,0.0181417303293548,0.00745199999983015,
0.0121625444335937,-0.0109654436035155,0.0396479794921856,0.0428967448454284,0.0112669999998616,
0.00737414111328116,-0.00857124194335929,0.0659841977539042,0.0669459371346501,0.0152030000008381,
-0.0165678754882813,-0.0492726701660156,-0.0345722719726584,0.0624302211499817,0.0191190000005008,
0.00976834277343741,-0.00138863696289054,-0.0321780703125025,0.0336567532924736,0.0228769999994256,
0.0169509477539062,-0.025330653564453,0.049224786132811,0.057896944734407,0.0266850000007253,
0.00737414111328116,0.00339976635742195,0.0396479794921856,0.0404709605304397,0.0304570000007516,
-0.00699106884765632,0.00818816967773445,0.0300711728515601,0.0319405166359664,0.0342500000006112,
0.0265277543945311,0.012976572998047,0.0396479794921856,0.0494375917476061,0.0381760000000213,
-0.0117794721679688,0.0010055646972657,-0.0321780703125025,0.0342811221221344,0.041919000001144,
-0.00220266552734383,-0.0109654436035155,-0.0106302553710957,0.0154303278676099,0.0456759999997303,
0.0169509477539062,-0.0277248552246093,-0.0273896669921889,0.0424993657002573,0.0494790000011562,
-0.00220266552734383,-0.0492726701660156,0.00612915624999744,0.0497012506588234,0.0532569999995758,
0.0121625444335937,0.0201591779785157,0.0372537778320297,0.0440699887295973,0.0570069999994303,
-0.0452982954101563,0.0010055646972657,-0.0513316835937516,0.068468156598489,0.0607959999997547,
-0.0213562788085938,-0.00617704028320304,0.0276769711914042,0.0355001578241636,0.0645850000000792,
0.0169509477539062,-0.0229364519042968,0.0540131894531228,0.0610806032273153,0.0683440000011615,
-0.0285388837890626,-0.034907460205078,0.00852335791015335,0.0458873217344323,0.0720789999995759,
-0.00459686718750008,0.0010055646972657,0.0420421811523415,0.0423046964809606,0.0757880000001023,
0.0361045610351562,-0.0325132585449218,0.0276769711914042,0.055916598994217,0.0795379999999568,
0.00976834277343741,0.022553379638672,0.0300711728515601,0.0388374933580147,0.0833330000004935,
0.0528639726562499,-0.0109654436035155,-0.041754876953128,0.0682518154175658,0.0873439999995753,
0.00737414111328116,-0.0133596452636718,-0.00105344873047031,0.0152960070919656,0.0912090000001626,
0.0217393510742186,-0.0420900651855468,0.00852335791015335,0.0481333626761759,0.0950050000010378,
0.0337103593749999,-0.0133596452636718,0.0252827695312483,0.0442050549816762,0.0988209999995888,
-0.00938527050781257,-0.034907460205078,-0.0321780703125025,0.0483946514556131,0.102601000000504,
-0.0141736738281251,-0.034907460205078,0.049224786132811,0.0619879292893073,0.106449000000794,
-0.00938527050781257,0.041706992919922,-0.00105344873047031,0.0427629081699896,0.110340000001088,
-0.0237504804687501,0.0201591779785157,0.032465374511716,0.0449942031983225,0.114090999999462,
0.0217393510742186,-0.0181480485839843,0.0611957944335924,0.0674305295018012,0.117890999999872,
0.0552581743164062,-0.034907460205078,0.0420421811523415,0.0777144877278216,0.12168500000007,
0.0169509477539062,-0.0109654436035155,-0.0441490786132839,0.0485460268773816,0.125447000000349,
0.00497993945312492,-0.0181480485839843,0.0181001645507788,0.0261106763820609,0.129203000000416,
-0.0117794721679688,-0.0277248552246093,0.0444363828124974,0.0536844081576794,0.133020000001125,
0.00019153613281242,-0.00617704028320304,0.010917559570311,0.0125453425509938,0.136795000000347,
0.0121625444335937,-0.0205422502441406,0.0276769711914042,0.0365503251219719,0.140515999999479,
-0.00699106884765632,-0.0157538469238281,-0.0178128603515653,0.0247862205758854,0.144209000000046,
-0.00699106884765632,-0.025330653564453,-0.0465432802734398,0.0534489849505767,0.147909999999683,
0.0337103593749999,-0.0133596452636718,0.0157059628906229,0.039516398128934,0.151654000001145,
-0.0213562788085938,0.0369185895996095,0.00852335791015335,0.0434939137424923,0.155480999999781,
-0.0141736738281251,-0.0277248552246093,0.00134075292968561,0.0311666206931403,0.159573000000819,
0.00258573779296867,0.00818816967773445,0.0564073911132787,0.0570572163254724,0.163373999999749,
-0.00459686718750008,-0.0396958635253905,-0.0154186586914093,0.0428325554316821,0.167154000000664,
-0.0333272871093751,-0.0205422502441406,-0.0465432802734398,0.0608191503539435,0.170943999999508,
-0.00938527050781257,-0.0157538469238281,-0.0537258852539093,0.0567691618902415,0.174763000000894,
0.0456813676757812,0.0057939680175782,0.0204943662109347,0.0504021474195944,0.178588000000673,
0.0217393510742186,-0.0301190568847655,0.0276769711914042,0.0463224751830652,0.182442999999694,
0.0600465776367187,-0.00617704028320304,0.032465374511716,0.0685401185783099,0.186227000000144,
-0.00699106884765632,-0.0157538469238281,0.0276769711914042,0.0326048074808286,0.189997999999832,
0.00976834277343741,0.00339976635742195,-0.003447650390628,0.0109025329644272,0.193773999999394,
0.0337103593749999,-0.0133596452636718,0.0228885678710924,0.0428807065001546,0.197555000000648,
-0.0237504804687501,-0.025330653564453,0.032465374511716,0.0475365951103442,0.201289000000543,
-0.00938527050781257,0.0273417829589845,0.010917559570311,0.0309006392304806,0.205095999999685,
0.0384987626953124,-0.00617704028320304,-0.0321780703125025,0.0505543149965129,0.208828000000722,
-0.00938527050781257,-0.0301190568847655,-0.0226012636718771,0.0388079632253262,0.212523000000147,
0.0193451494140624,-0.00857124194335929,0.0611957944335924,0.0647504922812367,0.216255000001183,
0.00019153613281242,-0.0277248552246093,-0.0345722719726584,0.0443164334380282,0.219973000001119,
-0.00220266552734383,-0.0564552751464843,0.0372537778320297,0.0676749125603338,0.223706000000675,
-0.0357214887695314,-0.00857124194335929,0.00373495458984152,0.0369247997171486,0.227629999999408,
-0.0165678754882813,-0.0229364519042968,0.00373495458984152,0.0285398880506125,0.231638000001112,
0.0361045610351562,0.0369185895996095,0.00373495458984152,0.0517732698537951,0.235414000000674,
-0.0141736738281251,0.022553379638672,0.0204943662109347,0.0336090316626356,0.239181000000826,
-0.0309330854492189,-0.00138863696289054,0.034859576171872,0.0466258955828832,0.2429000000011,
0.0361045610351562,-0.0277248552246093,0.0276769711914042,0.0532749627789329,0.246709999999439,
-0.0333272871093751,-0.00857124194335929,0.0659841977539042,0.0744183351584047,0.250471000001198,
-0.0309330854492189,-0.0157538469238281,-0.0154186586914093,0.037983871631921,0.254285000000891,
0.0384987626953124,0.0393127912597657,0.0181001645507788,0.0579246600548433,0.258058999999776,
-0.00938527050781257,-0.0109654436035155,0.00373495458984152,0.0149088611810183,0.261843000000226,
-0.0165678754882813,0.0153707746582032,0.013311761230467,0.0262289572580653,0.265580999999656,
0.0121625444335937,0.0177649763183595,0.00852335791015335,0.0231553341749927,0.269333000000188,
0.00019153613281242,-0.0373016618652343,-0.0178128603515653,0.0413370131710409,0.273102999999537,
-0.0237504804687501,0.022553379638672,-0.0513316835937516,0.0608907381807084,0.276828000000023,
-0.0165678754882813,0.0249475812988282,0.0276769711914042,0.0407785610975505,0.28066200000103,
0.0121625444335937,0.012976572998047,-0.0321780703125025,0.0367661140577725,0.284385000000839,
-0.0261446821289064,-0.0301190568847655,-0.003447650390628,0.0400323404819815,0.288118000000395,
0.0169509477539062,-0.0277248552246093,0.0923204160156228,0.0978726797440372,0.29186800000025,
-0.0117794721679688,-0.113916114990234,-0.214137396484377,0.242838344978983,0.295620000000781,
0.277918928710938,0.827005137451172,0.607073772949217,1.0628805173251,0.299621000000116,
-0.186556193359375,-1.45227484301758,0.0276769711914042,1.46446968137849,0.303276000000551,
-0.320631486328125,-0.652611488525391,0.322163775390623,0.795296047490649,0.306273000000147,
0.670568000976563,2.51491730786133,-1.53334251123047,3.02086242090909,0.309214000000793,
0.443118843261719,-0.317423256103516,2.01007594580078,2.08267067503623,0.312246999999843,
-1.52491492138672,-2.43389752368164,-0.575661847167972,2.92926769612071,0.315190999999686,
0.323408760253906,0.853341355712891,-1.01140654931641,1.36225104278874,0.318215000001146,
1.46304875048828,0.920379002197266,1.29660385107422,2.16073846187165,0.321195000000444,
-0.823413834960938,0.170993882568359,-0.558902435546877,1.00976293452528,0.324102000000494,
-0.490619804199219,-0.468257960693359,0.118656634277341,0.68851485596406,0.327172000001156,
0.0911711992187499,-0.757956361572266,0.032465374511716,0.764109962084671,0.330170999999609,
0.289889937011719,0.293098167236328,-0.209348993164065,0.462352367958423,0.333199000000604,
0.498185481445312,0.767150095947266,0.346105791992185,0.978006780592719,0.33617200000117,
-0.787500810058594,-0.113916114990234,-0.127946136718752,0.805918495257841,0.339092000000164,
-0.172190983398438,-0.674159303466797,-0.0896389101562516,0.701552304128893,0.342125000001033,
0.402417415039062,-0.0277248552246093,-0.0776679018554702,0.41078065497608,0.345102999999654,
0.299466743652344,0.376895225341797,0.164146465820311,0.508600436178029,0.348116999999547,
-0.272747453125,0.204512705810547,0.0779552060546855,0.349705067414177,0.351075000000492,
-0.390063334472656,-0.312634852783203,-0.139917145019533,0.519101881662087,0.354010000000926,
0.299466743652344,-0.250385609619141,0.0204943662109347,0.390887839545406,0.357067000000825,
0.273130525390625,0.175782285888672,0.0995030209960923,0.339706560313095,0.360010000000329,
-0.143460563476563,0.132686656005859,0.0252827695312483,0.197042889722518,0.363031000000774,
-0.301477873046875,-0.0396958635253905,-0.0752737001953143,0.313258358961079,0.365986000000703,
0.141449434082031,-0.154617543212891,0.010917559570311,0.209842131561534,0.369017999999414,
0.16778565234375,-0.0181480485839843,0.109079827636716,0.200947220924003,0.371984999999768,
-0.0261446821289064,0.0560722028808595,-0.0321780703125025,0.0697356762967864,0.374895000000834,
-0.117124345214844,0.0584664045410157,0.111474029296872,0.17193862832313,0.377894000001106,
-0.0476924970703126,-0.00857124194335929,-0.00823605371093983,0.0491515314713882,0.38084600000002,
0.119901619140625,-0.0780030900878905,-0.024995465332033,0.145208999800177,0.383875999999873,
0.0289219560546874,-0.0181480485839843,0.0204943662109347,0.0398227354136281,0.386856000000989,
-0.0357214887695314,-0.00617704028320304,0.0803494077148414,0.0881487827862523,0.389784000000873,
-0.0189620771484376,0.0560722028808595,0.00134075292968561,0.0592068401801179,0.392783999999665,
0.0384987626953124,-0.0229364519042968,-0.0513316835937516,0.0681408636252662,0.395759999999427,
0.0432871660156249,-0.0684262834472655,0.00852335791015335,0.0814161079770728,0.398805000000721,
-0.0165678754882813,-0.0205422502441406,0.013311761230467,0.0295581043090562,0.401756999999634,
-0.0572693037109376,0.0201591779785157,0.0300711728515601,0.0677527936027253,0.404676000000109,
0.0121625444335937,0.00818816967773445,-0.0130244570312517,0.0196114785452151,0.407685000000129,
0.0720175859374999,-0.0373016618652343,0.0252827695312483,0.0849538998359915,0.410673000000315,
0.0193451494140624,0.00339976635742195,-0.0226012636718771,0.0299434523177133,0.413684000001012,
-0.0141736738281251,0.0153707746582032,0.00612915624999744,0.0217880770082222,0.4166409999998,
-0.0117794721679688,0.00339976635742195,-0.0106302553710957,0.0162270362388121,0.419551999999385,
-0.00699106884765632,-0.034907460205078,-0.00823605371093983,0.0365409140872429,0.42258000000038,
0.0456813676757812,-0.0301190568847655,-0.0393606752929703,0.0674033211338751,0.425654000000577,
-0.0237504804687501,-0.00378283862304679,0.0396479794921856,0.0463719469976975,0.428798000000825,
-0.0213562788085938,0.0369185895996095,0.00134075292968561,0.0426716594590982,0.43183400000089,
0.0289219560546874,0.0441011945800782,0.0396479794921856,0.0659799756231537,0.434832000000824,
0.0289219560546874,-0.0229364519042968,0.0468305844726533,0.0596293888115391,0.437864999999874,
-0.0285388837890626,-0.00617704028320304,0.032465374511716,0.0436649087571692,0.44081499999993,
-0.00699106884765632,-0.00138863696289054,0.0204943662109347,0.0216984424011328,0.443825000000288,
0.00019153613281242,-0.034907460205078,0.0181001645507788,0.0393215388918662,0.446851000000606,
-0.0117794721679688,-0.0181480485839843,0.00612915624999744,0.0224872005438536,0.449769000000742,
0.0361045610351562,-0.0588494768066405,-0.003447650390628,0.0691280445345638,0.45279599999958,
0.0241335527343749,-0.0229364519042968,-0.0561200869140652,0.0652531481905909,0.455777999999555,
-0.0117794721679688,-0.0109654436035155,-0.0393606752929703,0.0425236366918032,0.458785000000717,
0.0169509477539062,-0.0181480485839843,-0.00823605371093983,0.0261633116766933,0.461792000000059,
-0.0237504804687501,0.00339976635742195,0.0157059628906229,0.0286761399791388,0.464809999999488,
-0.0333272871093751,-0.0181480485839843,0.00134075292968561,0.037971796795725,0.467801000000691,
-0.0189620771484376,0.00818816967773445,0.0228885678710924,0.030830067006808,0.470735000000786,
-0.0213562788085938,-0.0229364519042968,0.032465374511716,0.0451239627326158,0.47377299999971,
0.0193451494140624,-0.0516668718261718,-0.0154186586914093,0.0572838152185819,0.476759000001039,
0.0121625444335937,-0.0396958635253905,-0.00105344873047031,0.0415306973497111,0.479784000001018,
-0.0261446821289064,0.032130186279297,0.0444363828124974,0.0607493653581887,0.482743000000482,
0.00497993945312492,-0.0468784685058593,0.0181001645507788,0.0504975896769034,0.485692000000199,
-0.00938527050781257,-0.034907460205078,0.0611957944335924,0.0710741819286893,0.48871599999984,
-0.0141736738281251,-0.0181480485839843,0.0851378110351533,0.0881968909035358,0.491669999999431,
-0.0189620771484376,0.012976572998047,0.034859576171872,0.0417509504974376,0.494679999999789,
-0.0141736738281251,0.0273417829589845,0.0157059628906229,0.0345708460336728,0.497645999999804,
0.0313161577148437,0.041706992919922,0.140204449218748,0.149590984264346,0.500600999999733,
0.00737414111328116,-0.327000062744141,0.087532012695311,0.3385930776586,0.503643000000011,
-0.0859997236328126,-0.0109654436035155,0.0300711728515601,0.0917631127142624,0.506601000000956,
0.172574055664062,0.616315391357422,-0.250050421386721,0.687132941684556,0.50960699999996,
-0.0357214887695314,-0.396431910888672,0.494546294921873,0.634830940134228,0.512603999999556,
-0.220075016601563,-0.315029054443359,-0.386519916015628,0.545044918839157,0.515532999999778,
0.177362458984375,0.228454722412109,0.121050835937497,0.313531987093095,0.51857100000052,
0.0744117875976562,0.113533042724609,0.0204943662109347,0.137283957439224,0.521525000000111,
-0.109941740234375,0.0345243879394532,-0.063302691894533,0.131477566183174,0.524523000000045,
-0.00938527050781257,-0.195318971435547,0.00612915624999744,0.195640360001411,0.527476999999635,
-0.0596635053710938,-0.063637880126953,-0.12315773339844,0.150921638462018,0.530414000000746,
0.165391450683594,0.209301109130859,0.0995030209960923,0.284714132824453,0.533440000001065,
-0.0237504804687501,0.0943794294433595,0.0516189877929669,0.110163886665826,0.536361000000397,
-0.0596635053710938,-0.130675526611328,-0.0273896669921889,0.146239601292733,0.539377999999488,
0.0241335527343749,-0.154617543212891,-0.0489374819335957,0.163963075644408,0.542349000001195,
0.0504697709960937,0.0824084211425782,0.0611957944335924,0.114382126733022,0.545287000000826,
0.0456813676757812,0.0728316145019532,0.00134075292968561,0.085982725254027,0.548307999999452,
-0.0764229169921876,-0.0468784685058593,-0.00584185205078391,0.089845313102203,0.551249000000098,
0.00258573779296867,-0.0708204851074218,-0.0537258852539093,0.088930860206684,0.554283999999825,
0.0145567460937499,0.0177649763183595,0.0420421811523415,0.0479065573431871,0.55724200000077,
-0.00459686718750008,0.0632548078613282,0.0228885678710924,0.0674254287691422,0.560234000000492,
-0.0261446821289064,0.0105823713378907,-0.0345722719726584,0.0446180790275201,0.563204000000042,
0.0193451494140624,-0.0684262834472655,0.0204943662109347,0.0740027710200492,0.56626900000083,
0.0696233842773437,-0.0516668718261718,0.0444363828124974,0.0974241930938694,0.569412000000739,
0.00497993945312492,0.022553379638672,0.0181001645507788,0.0293440059781912,0.572470000000976,
-0.0237504804687501,0.0010055646972657,0.00612915624999744,0.0245491963044363,0.575474999999642,
0.00019153613281242,-0.0205422502441406,0.032465374511716,0.0384190222854389,0.578455000000758,
0.0241335527343749,-0.0468784685058593,0.0157059628906229,0.055015420087093,0.581395999999586,
0.00737414111328116,0.0201591779785157,-0.0106302553710957,0.0239535538737526,0.584420000001046,
0.00019153613281242,0.0488895979003907,-0.0106302553710957,0.0500323075442935,0.587384000000384,
0.00737414111328116,-0.0181480485839843,-0.0226012636718771,0.0299089743075711,0.590422000001126,
0.0265277543945311,-0.0708204851074218,0.0204943662109347,0.0783535698641422,0.593388000001141,
-0.0117794721679688,0.0297359846191407,0.010917559570311,0.0337961218603113,0.596306999999797,
0.0145567460937499,0.022553379638672,-0.00105344873047031,0.0268637961612222,0.599333000000115,
-0.0237504804687501,-0.0468784685058593,0.0420421811523415,0.0672994883189881,0.602339999999458,
0.00976834277343741,-0.00138863696289054,-0.0393606752929703,0.0405784621772772,0.605411000000458,
0.0145567460937499,0.0249475812988282,0.00373495458984152,0.0291243979386308,0.608414000000266,
-0.0261446821289064,0.0273417829589845,0.0564073911132787,0.0679184162889872,0.611318999999639,
0.00019153613281242,0.0297359846191407,0.00612915624999744,0.0303616867729187,0.614356000000043,
-0.00220266552734383,-0.0301190568847655,0.0252827695312483,0.0393856288285881,0.617313000000649,
0.00019153613281242,-0.00857124194335929,-0.0321780703125025,0.033300616864829,0.620350999999573,
0.0313161577148437,-0.00617704028320304,0.049224786132811,0.0586680247707579,0.623321999999462,
0.00258573779296867,-0.0396958635253905,-0.0130244570312517,0.0418579036971435,0.626259000000573,
0.0384987626953124,-0.0396958635253905,0.0181001645507788,0.0581853269034529,0.629300000000512,
-0.00459686718750008,-0.0301190568847655,0.00852335791015335,0.0316375790102819,0.632251999999426,
-0.0452982954101563,-0.0229364519042968,0.00612915624999744,0.0511427702550497,0.635274000000209,
0.0361045610351562,0.0177649763183595,0.00612915624999744,0.0407025830564852,0.638237000001027,
-0.0381156904296876,-0.0325132585449218,0.0300711728515601,0.0584310985247506,0.641171999999642,
-0.00938527050781257,-0.0420900651855468,-0.0106302553710957,0.0444146284357204,0.644191999999748,
-0.0189620771484376,-0.00617704028320304,0.0204943662109347,0.0285960704089131,0.647152999999889,
0.00019153613281242,-0.0325132585449218,-0.0441490786132839,0.0548296435306762,0.65019299999949,
0.0289219560546874,0.0010055646972657,0.00612915624999744,0.0295813667487921,0.653159999999843,
-0.0141736738281251,-0.00857124194335929,0.0181001645507788,0.0245351823918826,0.656172000000879,
0.0145567460937499,-0.025330653564453,0.00373495458984152,0.0294531959662856,0.659153000000515,
0.0193451494140624,-0.00857124194335929,0.0827436093749974,0.0854061232389467,0.662126000001081,
-0.0141736738281251,-0.0373016618652343,-0.0178128603515653,0.0436990274674245,0.66512800000055,
0.0169509477539062,-0.0444842668457031,-0.0441490786132839,0.0649255401899537,0.668102999999974,
-0.00459686718750008,-0.025330653564453,-0.0369664736328144,0.0450476788612622,0.671113000000332,
-0.0285388837890626,-0.034907460205078,-0.0297838686523466,0.0540377414201867,0.674070000000938,
-0.0141736738281251,0.00818816967773445,0.0516189877929669,0.0541521841962807,0.676989999999932,
-0.0213562788085938,0.022553379638672,0.0420421811523415,0.0522713169312076,0.680002000000968,
0.00258573779296867,0.00818816967773445,0.0540131894531228,0.0546914691474301,0.682956000000559,
0.0432871660156249,-0.0109654436035155,0.0204943662109347,0.0491328682398459,0.686001000000033,
0.0145567460937499,-0.00378283862304679,-0.003447650390628,0.0154303278676091,0.688955999999962,
0.0384987626953124,0.00818816967773445,-0.0297838686523466,0.0493586839739633,0.691887000000861,
-0.0117794721679688,-0.00378283862304679,-0.0226012636718771,0.0257659261849769,0.694902999999613,
-0.0381156904296876,-0.0373016618652343,-0.0369664736328144,0.0648902150380596,0.697849000000133,
0.0169509477539062,-0.0205422502441406,-0.00823605371093983,0.0278774327293249,0.700877999999648,
0.0337103593749999,-0.0181480485839843,-0.024995465332033,0.045722131225077,0.703944000000774,
0.0432871660156249,-0.0133596452636718,0.010917559570311,0.0465988408676301,0.707007000000885,
-0.00220266552734383,-0.0181480485839843,0.0516189877929669,0.0547605999200381,0.710148000000117,
-0.0165678754882813,0.00818816967773445,-0.00584185205078391,0.0193821530344235,0.713148000000729,
-0.0189620771484376,-0.00138863696289054,-0.0154186586914093,0.0244790465141144,0.716186999999991,
0.00976834277343741,-0.054061073486328,-0.024995465332033,0.0603555587680074,0.719161000000895,
0.00497993945312492,-0.00138863696289054,-0.0130244570312517,0.0140130150406833,0.722147000000405,
0.00737414111328116,-0.0660320817871093,0.0540131894531228,0.085627322842636,0.725215000000389,
-0.00220266552734383,-0.0109654436035155,0.0540131894531228,0.055159018516886,0.728171000000657,
0.0145567460937499,-0.00857124194335929,0.0803494077148414,0.0821059825190304,0.731227000000217,
0.0193451494140624,0.022553379638672,0.00612915624999744,0.03033902264931,0.734217999999601,
0.0121625444335937,-0.0109654436035155,0.034859576171872,0.0385143933017718,0.737183000001096,
-0.0213562788085938,-0.0444842668457031,0.0252827695312483,0.0554450996619208,0.740219999999681,
-0.00699106884765632,-0.00617704028320304,-0.0178128603515653,0.0201079303807565,0.74319099999957,
-0.0165678754882813,-0.00857124194335929,0.0228885678710924,0.0295270592141581,0.74627800000053,
0.00737414111328116,-0.0109654436035155,0.0420421811523415,0.0440699887295965,0.749277000000802,
-0.00699106884765632,-0.0444842668457031,0.0444363828124974,0.0632638692927583,0.752300000000105,
-0.00459686718750008,-0.0157538469238281,0.034859576171872,0.0385292736983383,0.755263000000923,
0.00737414111328116,-0.0420900651855468,0.0204943662109347,0.0473916721679038,0.75823599999967,
0.0337103593749999,-0.0109654436035155,-0.00823605371093983,0.0363931568202459,0.761273000000074,
-0.0189620771484376,-0.025330653564453,0.0204943662109347,0.0376990905218354,0.764257000000725,
-0.00220266552734383,-0.00617704028320304,0.010917559570311,0.0127358026467495,0.767277000000831,
0.0241335527343749,0.051283799560547,-0.0656968935546889,0.0867671498188418,0.770231000000422,
0.00976834277343741,-0.0444842668457031,-0.0154186586914093,0.048083318866123,0.773197000000437,
0.0121625444335937,0.0153707746582032,-0.063302691894533,0.0662677825325895,0.776241999999911,
0.0241335527343749,-0.00857124194335929,0.00852335791015335,0.0269915206333217,0.779216000000815,
0.0217393510742186,0.00339976635742195,0.0420421811523415,0.0474521105163879,0.782236999999441,
-0.00938527050781257,-0.00378283862304679,0.00134075292968561,0.010207388939944,0.78519899999992,
0.00737414111328116,-0.0133596452636718,0.0204943662109347,0.0255514603323887,0.7881610000004,
0.00976834277343741,0.0010055646972657,-0.0585142885742211,0.0593325681919044,0.791161999999531,
0.0145567460937499,-0.0133596452636718,-0.0130244570312517,0.0236646457689096,0.794146000000183,
0.00258573779296867,0.00339976635742195,-0.0273896669921889,0.0277207198528835,0.79716499999995,
0.0193451494140624,0.0057939680175782,0.034859576171872,0.0402864111348189,0.800156999999672,
0.00258573779296867,0.022553379638672,-0.0202070620117212,0.0303918793134876,0.80309699999998,
0.00497993945312492,0.041706992919922,0.00612915624999744,0.0424480813667249,0.806144000000131,
0.00258573779296867,0.0010055646972657,-0.00823605371093983,0.00869078713488365,0.809107999999469,
-0.00459686718750008,-0.00378283862304679,-0.0154186586914093,0.0165280395640167,0.812152000000424,
0.00258573779296867,-0.0301190568847655,0.032465374511716,0.0443603896482854,0.815142999999807,
0.0193451494140624,-0.00138863696289054,0.010917559570311,0.0222565995928937,0.818111000000499,
0.0193451494140624,0.0057939680175782,-0.0537258852539093,0.0573957804856537,0.821124000000054,
0.00737414111328116,-0.0133596452636718,0.049224786132811,0.0515357899769734,0.824124000000666,
0.00019153613281242,0.0010055646972657,0.013311761230467,0.0133510611378842,0.827154000000519,
-0.00459686718750008,0.0153707746582032,-0.0441490786132839,0.0469737484552244,0.830100999999559,
0.00976834277343741,-0.0301190568847655,0.0157059628906229,0.0353448069522063,0.833066999999573,
0.00019153613281242,0.0560722028808595,-0.00584185205078391,0.0563760220074606,0.836075000001074,
0.00976834277343741,0.00818816967773445,0.010917559570311,0.016782721775148,0.839052999999694,
0.00737414111328116,0.0153707746582032,0.00373495458984152,0.0174524656292463,0.842131999999765,
0.00019153613281242,-0.0325132585449218,0.0588015927734347,0.0671920827180699,0.845219000000725,
0.0337103593749999,-0.0181480485839843,0.00612915624999744,0.0387724973781053,0.848363999999492,
-0.00938527050781257,-0.0109654436035155,0.00134075292968561,0.0144955812006679,0.851436000000831,
0.0241335527343749,0.00339976635742195,-0.041754876953128,0.0483472494381921,0.854392999999618,
0.0361045610351562,0.0177649763183595,0.0396479794921856,0.0564897865896656,0.857436000000234,
-0.0309330854492189,-0.034907460205078,-0.0321780703125025,0.05666405176489,0.860387000000628,
0.00258573779296867,-0.0325132585449218,0.0372537778320297,0.0495140584470829,0.863443000000188,
-0.00938527050781257,-0.0181480485839843,0.0228885678710924,0.0306809633013873,0.86643499999991,
-0.0141736738281251,-0.034907460205078,-0.0273896669921889,0.0465791548409606,0.869351999999708,
0.0384987626953124,0.00818816967773445,-0.0585142885742211,0.0705203716601705,0.872381000001042,
-0.0237504804687501,-0.00617704028320304,-0.0130244570312517,0.0277826857973759,0.875344000000041,
0.0241335527343749,-0.00857124194335929,-0.0345722719726584,0.0430248363783748,0.878414000000703,
0.00497993945312492,-0.0229364519042968,-0.0178128603515653,0.0294648708943256,0.88140999999996,
0.0145567460937499,-0.0109654436035155,-0.0609084902343771,0.0635765994127634,0.884406999999555,
-0.0405098920898438,-0.0181480485839843,0.049224786132811,0.0662833508081662,0.887459999999919,
0.0169509477539062,0.00339976635742195,-0.00823605371093983,0.0191500815081868,0.890422000000399,
-0.00459686718750008,0.0105823713378907,0.0468305844726533,0.048230917606063,0.893436000000293,
0.00737414111328116,0.0153707746582032,0.0420421811523415,0.0453672091581369,0.896420999999464,
0.00258573779296867,0.0010055646972657,0.0276769711914042,0.0278156778566368,0.899352000000363,
0.0193451494140624,0.0177649763183595,0.034859576171872,0.0436465260968936,0.902389000000767,
-0.0333272871093751,-0.0396958635253905,-0.0226012636718771,0.0565445555881631,0.905332000000271,
-0.0189620771484376,-0.00857124194335929,-0.0273896669921889,0.0343979711055449,0.908351000000039,
0.00019153613281242,-0.0229364519042968,0.034859576171872,0.0417289774968287,0.911318000000392,
-0.00459686718750008,-0.00138863696289054,0.010917559570311,0.0119269697545316,0.9142580000007,
0.00976834277343741,-0.0109654436035155,0.0276769711914042,0.03133171250173,0.917289999999412,
0.0193451494140624,0.0153707746582032,-0.003447650390628,0.0249475812988285,0.920231000000058,
-0.00220266552734383,-0.00857124194335929,0.032465374511716,0.0336499400603171,0.923264999999446,
0.00976834277343741,-0.0157538469238281,0.0731668027343719,0.0754783759484083,0.926242999999886,
0.0289219560546874,-0.0373016618652343,0.0635899960937483,0.079193314889203,0.929184000000532,
0.0121625444335937,-0.0396958635253905,-0.0728794985351584,0.0838755648258879,0.932216000001063,
0.0217393510742186,-0.0133596452636718,-0.00823605371093983,0.0268125360126334,0.935176000000865,
-0.0261446821289064,0.0057939680175782,0.0276769711914042,0.0385114165325049,0.938199000000168,
0.0265277543945311,-0.0277248552246093,-0.0154186586914093,0.0413536502171729,0.941179999999804,
-0.00699106884765632,-0.0396958635253905,0.0420421811523415,0.0582424383135304,0.944213000000673,
-0.0165678754882813,-0.0420900651855468,-0.0154186586914093,0.0477891527583504,0.947156000000177,
-0.0381156904296876,-0.034907460205078,-0.00823605371093983,0.0523370730518088,0.950104999999894,
0.0217393510742186,0.0201591779785157,-0.0106302553710957,0.0314959389628618,0.95310900000004,
0.00497993945312492,-0.0229364519042968,0.0204943662109347,0.031159262977529,0.956094000001031,
0.00258573779296867,-0.0468784685058593,0.013311761230467,0.0488004081585983,0.959114999999656,
0.00497993945312492,0.00818816967773445,0.00852335791015335,0.012825503876758,0.962075999999797,
0.0361045610351562,0.022553379638672,0.0420421811523415,0.059830922245221,0.965014999999767,
-0.00459686718750008,-0.0205422502441406,-0.00105344873047031,0.0210766455409806,0.968041000000085,
0.00497993945312492,-0.0205422502441406,-0.00584185205078391,0.0219296848457275,0.971002000000226,
-0.0165678754882813,-0.0444842668457031,0.0468305844726533,0.0666816926678172,0.974048000000039,
0.0169509477539062,0.0273417829589845,0.00134075292968561,0.0321979089934475,0.977002999999968,
-0.0141736738281251,0.0010055646972657,0.00134075292968561,0.0142724142514476,0.979927000000316,
-0.0285388837890626,-0.00857124194335929,0.00612915624999744,0.0304220418892964,0.983028000000559,
0.0456813676757812,0.0177649763183595,0.0444363828124974,0.0661587020261174,0.986103999999614,
0.0384987626953124,0.0369185895996095,0.0396479794921856,0.0664612613851644,0.989229000000705,
0.0193451494140624,-0.0133596452636718,-0.00823605371093983,0.0249107909981404,0.99227400000018,
-0.0117794721679688,-0.00138863696289054,0.010917559570311,0.0161207128918652,0.995221000001038,
-0.00938527050781257,-0.0205422502441406,0.0252827695312483,0.0339011177215137,0.998247999999876,
-0.0117794721679688,-0.0109654436035155,-0.0273896669921889,0.0317677631557659,1.00120100000095,
-0.00220266552734383,0.0010055646972657,0.0851378110351533,0.0851722358732187,1.00423799999953,
0.0289219560546874,0.00818816967773445,-0.0441490786132839,0.0534103623569674,1.0071769999995,
-0.0189620771484376,0.0177649763183595,-0.0297838686523466,0.0395251006991178,1.01010599999972,
0.00497993945312492,0.0010055646972657,-0.024995465332033,0.0255065529713845,1.01313400000072,
-0.00699106884765632,-0.0396958635253905,-0.0321780703125025,0.0515758163647989,1.01610600000095,
