X,Y,Z,Magnitude,Seconds,
-0.0141736738281251,-0.0157538469238281,-0.0297838686523466,0.0365534615951174,0.0,
-0.0381156904296876,-0.0396958635253905,-0.024995465332033,0.0604428715823717,0.00386500000058732,
-0.0309330854492189,-0.0396958635253905,-0.0896389101562516,0.102799569894215,0.00778499999978521,
-0.0309330854492189,-0.00617704028320304,0.00373495458984152,0.0317641541341363,0.0116780000007566,
-0.0189620771484376,-0.00617704028320304,-0.0465432802734398,0.0506358878173927,0.0155329999997775,
-0.0644519086914064,-0.0301190568847655,-0.0537258852539093,0.0891497440709134,0.0194470000005822,
-0.0429040937500001,-0.00378283862304679,-0.0465432802734398,0.0634140999082127,0.0232580000010785,
-0.0452982954101563,-0.00138863696289054,0.032465374511716,0.0557482234861926,0.0271080000002257,
-0.0117794721679688,0.012976572998047,-0.0345722719726584,0.0387606682176799,0.0309400000005553,
-0.00938527050781257,-0.0181480485839843,-0.0321780703125025,0.0381164423700301,0.0347650000003341,
-0.0141736738281251,-0.0133596452636718,-0.0130244570312517,0.023430954575436,0.0386390000003303,
-0.0381156904296876,-0.0492726701660156,0.00612915624999744,0.0625952748900236,0.0426569999999629,
-0.0213562788085938,-0.0373016618652343,0.034859576171872,0.0553416179140185,0.0466489999998885,
-0.0309330854492189,-0.0373016618652343,-0.0656968935546889,0.0816354798849929,0.0506949999999051,
-0.00938527050781257,-0.00617704028320304,-0.00584185205078391,0.0126635841904406,0.0545930000007502,
-0.0261446821289064,0.032130186279297,-0.0680910952148466,0.0797012579669931,0.0584969999999885,
-0.00220266552734383,-0.00857124194335929,-0.0537258852539093,0.0544498730043806,0.0623379999997269,
-0.0333272871093751,-0.0157538469238281,0.0157059628906229,0.0400695523969478,0.0663210000002437,
-0.0357214887695314,0.00339976635742195,-0.0489374819335957,0.0606832786622297,0.0704349999996339,
-0.0333272871093751,-0.0396958635253905,0.0396479794921856,0.0652566619197605,0.0744369999993069,
-0.0117794721679688,-0.0468784685058593,-0.0513316835937516,0.0705073649669297,0.0784260000000359,
-0.0620577070312501,0.00818816967773445,-0.0130244570312517,0.0639362307741609,0.0823860000000423,
-0.0117794721679688,-0.0205422502441406,-0.0345722719726584,0.0419044388937534,0.086301999999705,
-0.0333272871093751,-0.025330653564453,-0.003447650390628,0.0420028138258505,0.0902249999999185,
-0.0117794721679688,-0.0109654436035155,-0.0202070620117212,0.025832581619408,0.0941770000008546,
-0.0213562788085938,-0.0420900651855468,-0.0178128603515653,0.0504476186333739,0.09808300000077,
-0.0189620771484376,-0.00378283862304679,0.00852335791015335,0.0211309694026537,0.101980999999796,
-0.0261446821289064,-0.0181480485839843,-0.024995465332033,0.0404681276833149,0.105900000000474,
-0.0237504804687501,-0.00857124194335929,-0.041754876953128,0.0487957094458,0.109746000000086,
-0.0165678754882813,0.022553379638672,-0.0178128603515653,0.0331729924068605,0.113671999999497,
-0.0285388837890626,-0.0229364519042968,-0.0321780703125025,0.0487439937112266,0.117685000001075,
-0.0309330854492189,0.0177649763183595,-0.00105344873047031,0.0356869711971789,0.121666000000914,
-0.0500866987304688,-0.00617704028320304,-0.0513316835937516,0.0719845466537512,0.125683000000208,
-0.0333272871093751,-0.00617704028320304,-0.00105344873047031,0.0339112613590052,0.129542000000583,
-0.0237504804687501,-0.034907460205078,-0.0513316835937516,0.0664647112461539,0.13337700000011,
-0.0141736738281251,-0.0325132585449218,0.0157059628906229,0.0387902343550104,0.13719300000048,
-0.00459686718750008,0.0273417829589845,-0.0130244570312517,0.0306323483310478,0.141139999999723,
-0.00459686718750008,-0.00857124194335929,0.0181001645507788,0.0205478303758909,0.145109000000957,
-0.0357214887695314,-0.00378283862304679,-0.0465432802734398,0.0587929550760271,0.148955000000569,
-0.0165678754882813,-0.0229364519042968,-0.0513316835937516,0.0586132840294957,0.152923999999985,
-0.0261446821289064,0.00339976635742195,-0.0609084902343771,0.0663697747286957,0.156782000000021,
-0.0261446821289064,-0.0109654436035155,0.0420421811523415,0.0507082868285819,0.160678000000189,
-0.00459686718750008,-0.00857124194335929,-0.0728794985351584,0.0735256328305121,0.164514000000054,
-0.0237504804687501,-0.0205422502441406,-0.0393606752929703,0.0503520816561541,0.168322999999873,
-0.0165678754882813,-0.0229364519042968,0.00852335791015335,0.0295503460930306,0.172286000000895,
-0.0476924970703126,-0.00378283862304679,0.00612915624999744,0.0482332945296781,0.176225999999588,
-0.0213562788085938,-0.025330653564453,-0.0130244570312517,0.0356001283075167,0.180108000000473,
0.00497993945312492,-0.0205422502441406,-0.0704852968750025,0.0735864180240275,0.183981000000131,
-0.0381156904296876,-0.0277248552246093,-0.0561200869140652,0.0732866809822874,0.187936000000263,
-0.0189620771484376,0.0105823713378907,0.0444363828124974,0.0494584580266624,0.191894999999931,
-0.0309330854492189,0.0105823713378907,0.0228885678710924,0.0399090077267187,0.195964000000458,
-0.0165678754882813,-0.025330653564453,-0.0489374819335957,0.0575414081005891,0.199892000000546,
0.0145567460937499,-0.0229364519042968,-0.0441490786132839,0.0518374461677844,0.203836000000592,
0.00737414111328116,0.0201591779785157,-0.00105344873047031,0.0214913975384521,0.207678000000669,
-0.0405098920898438,0.0010055646972657,-0.0585142885742211,0.0711757296052412,0.211546000000453,
-0.0572693037109376,-0.0109654436035155,0.0204943662109347,0.061806416716595,0.215549000000465,
0.00497993945312492,-0.0181480485839843,0.00852335791015335,0.0206591164967919,0.21954100000039,
0.00019153613281242,-0.00617704028320304,-0.0489374819335957,0.0493261558481045,0.22352200000023,
-0.0405098920898438,-0.00617704028320304,-0.0154186586914093,0.0437828987120917,0.227437999999893,
-0.0452982954101563,0.0105823713378907,-0.00105344873047031,0.0465299033356672,0.231337000001076,
-0.0429040937500001,-0.0277248552246093,-0.041754876953128,0.0659765004157177,0.235232999999425,
-0.0237504804687501,0.0153707746582032,0.00612915624999744,0.0289467198906305,0.23905299999933,
-0.0189620771484376,-0.0301190568847655,0.0300711728515601,0.0465939201407163,0.242873999999574,
-0.0381156904296876,-0.025330653564453,-0.0465432802734398,0.0652742277284541,0.246855999999752,
-0.0285388837890626,-0.0133596452636718,-0.0202070620117212,0.0374335860510627,0.25071299999945,
0.00497993945312492,-0.025330653564453,-0.0226012636718771,0.0343112070106086,0.254542000000583,
-0.0668461103515626,-0.0109654436035155,-0.0656968935546889,0.0943648517473073,0.258428000001004,
-0.0429040937500001,-0.0229364519042968,-0.0106302553710957,0.0497980362637085,0.262391000000207,
-0.0500866987304688,-0.0373016618652343,0.0181001645507788,0.0650208222371133,0.266243000000031,
-0.0333272871093751,-0.0420900651855468,-0.0656968935546889,0.0848431698849732,0.27026400000068,
-0.0237504804687501,-0.0373016618652343,-0.104004120117191,0.113014849916972,0.274131000000125,
-0.0189620771484376,0.0177649763183595,-0.0441490786132839,0.0512278820153351,0.277981999999611,
-0.0309330854492189,-0.00378283862304679,-0.0513316835937516,0.0600508732994427,0.281833999999435,
-0.0117794721679688,-0.0325132585449218,0.010917559570311,0.0362637705256386,0.285734999999477,
-0.0237504804687501,-0.034907460205078,-0.0154186586914093,0.044948316278897,0.289651999999478,
-0.0189620771484376,-0.0229364519042968,-0.0585142885742211,0.065647263180491,0.293541000000914,
-0.0309330854492189,-0.0205422502441406,0.0204943662109347,0.042412956356395,0.297595000000001,
-0.133883756835938,0.0345243879394532,-0.388914117675784,0.412760202338636,0.301438000000417,
0.0432871660156249,0.388866233642578,-0.185406976562502,0.432973986940413,0.30529100000058,
-0.267959049804688,-1.1937010637207,-0.0752737001953143,1.22572036445564,0.309146999999939,
0.421571028320312,0.815034129150391,0.803398309082029,1.21961125225821,0.312781000000541,
-0.337390897949219,1.40640193920898,-0.884513861328127,1.69533589695711,0.315740000000005,
0.191727668945312,-0.592756447021484,0.573554949707029,0.846808706177593,0.318715999999768,
-0.239228629882813,-2.12025710620117,0.441873858398436,2.17898440574688,0.321767999999793,
-0.332602494628906,0.661805222900391,-1.23406730371094,1.43928200245122,0.324755999999979,
0.787883882324219,1.99298134594727,0.518488311523436,2.20489586749726,0.327836000000389,
-0.203315604980469,-0.511353590576172,0.506517303222655,0.747916778985248,0.330836000001,
-0.734828373535156,-1.4618516496582,-0.52538361230469,1.71843269412539,0.333785000000717,
0.337773970214844,-0.0444842668457031,-0.204560589843751,0.397385379535686,0.336875000000873,
0.402417415039062,0.831793540771485,0.109079827636716,0.930440045996054,0.339828000000125,
-0.208104008300781,0.451115476806641,0.0683783994140601,0.501485849443195,0.342873999999938,
-0.435553166015625,-0.475440565673828,0.0947146176757787,0.65170633779023,0.345876999999746,
0.0528639726562499,-0.688524513427734,-0.463134369140628,0.831477028591402,0.348884999999427,
0.383263801757812,0.192541697509766,0.171329070800779,0.461862639232978,0.351989000000685,
0.00497993945312492,0.582796568115235,0.123445037597653,0.595747695682776,0.355062000000544,
-0.459495182617188,0.0608606062011719,-0.12315773339844,0.479591142048535,0.358126000000993,
-0.0381156904296876,-0.525718800537109,-0.113580926757814,0.539197264475881,0.361124999999447,
0.404811616699219,-0.164194349853516,0.0181001645507788,0.437218304163057,0.36413100000027,
-0.0261446821289064,0.360135813720703,0.0468305844726533,0.364107748297046,0.367222999999285,
-0.344573502929688,0.147051865966797,-0.0704852968750025,0.381212968406257,0.370235000000321,
0.0456813676757812,-0.209684181396484,-0.0345722719726584,0.217369467198121,0.373316000001068,
0.182150862304687,-0.111521913330078,0.0731668027343719,0.225764157504049,0.376281000000745,
-0.0572693037109376,0.0488895979003907,-0.0321780703125025,0.0818864710402998,0.379339999999502,
-0.167402580078125,0.127898252685547,0.0635899960937483,0.220057434457534,0.382370999999694,
-0.0476924970703126,-0.0827914934082031,-0.00823605371093983,0.0959001472276857,0.38533599999937,
0.119901619140625,-0.109127711669922,-0.0393606752929703,0.166836801954412,0.388394999999946,
0.0313161577148437,-0.025330653564453,-0.0321780703125025,0.0515535833192966,0.391372000000047,
-0.112335941894531,0.051283799560547,-0.0178128603515653,0.124766541719334,0.394377000000532,
-0.105153336914063,0.0393127912597657,0.034859576171872,0.117549606003928,0.39735599999949,
0.0648349809570312,-0.063637880126953,-0.0680910952148466,0.113533042724611,0.400400000000445,
0.100748005859375,-0.0396958635253905,-0.0656968935546889,0.126657033315972,0.403555000000779,
-0.0883939252929689,0.032130186279297,-0.003447650390628,0.0941154673380379,0.40651699999944,
-0.165008378417969,0.0464953962402345,0.00612915624999744,0.17154344457309,0.409584000000905,
-0.0476924970703126,-0.054061073486328,0.010917559570311,0.0729134216058143,0.412576000000627,
0.0600465776367187,-0.0277248552246093,0.0444363828124974,0.0796796787177687,0.415570999999545,
-0.00459686718750008,-0.0373016618652343,0.0659841977539042,0.0759372077381972,0.41863100000046,
-0.121912748535156,-0.00617704028320304,-0.0656968935546889,0.138625235454418,0.421625000000859,
-0.0764229169921876,-0.025330653564453,-0.0297838686523466,0.0858439461086067,0.424709999999322,
0.0145567460937499,-0.0588494768066405,-0.111186725097658,0.126639834235502,0.427675999999337,
0.0456813676757812,-0.00857124194335929,-0.024995465332033,0.052773353393037,0.430644000000029,
-0.0333272871093751,0.0201591779785157,-0.0656968935546889,0.0763752731293075,0.433696000000054,
-0.0812113203125001,0.0010055646972657,-0.0441490786132839,0.092441499607383,0.436650999999983,
-0.00699106884765632,0.0297359846191407,-0.0202070620117212,0.0366255263449959,0.439652999999453,
-0.00938527050781257,-0.00378283862304679,-0.024995465332033,0.0269660241362663,0.442678999999771,
0.0384987626953124,-0.0133596452636718,-0.0202070620117212,0.0454858242289471,0.445664000000761,
-0.0572693037109376,0.0105823713378907,-0.0273896669921889,0.0643580110678665,0.4487050000007,
-0.0620577070312501,-0.0133596452636718,-0.0106302553710957,0.0643633548908253,0.451653000000078,
-0.00459686718750008,-0.0133596452636718,-0.024995465332033,0.0287120984373404,0.454713999999512,
-0.00220266552734383,-0.054061073486328,0.0444363828124974,0.0700145950454498,0.457714000000124,
-0.0261446821289064,0.0105823713378907,0.0204943662109347,0.034864739109055,0.460648000000219,
-0.0309330854492189,0.00818816967773445,-0.0345722719726584,0.0471077900928446,0.463649999999689,
-0.00699106884765632,0.0153707746582032,-0.0393606752929703,0.0428298787850791,0.466640000000552,
-0.0333272871093751,-0.0277248552246093,-0.024995465332033,0.0500414723050904,0.469769999999698,
-0.00699106884765632,-0.00857124194335929,0.00852335791015335,0.0139638412390304,0.472767999999633,
-0.0452982954101563,0.0057939680175782,-0.0848505068359398,0.0963592971267971,0.475811000000249,
-0.0261446821289064,0.00818816967773445,-0.0848505068359398,0.0891638886355277,0.478784000000815,
-0.0429040937500001,-0.0325132585449218,-0.00105344873047031,0.0538422045977452,0.481717000000572,
-0.0381156904296876,-0.0229364519042968,-0.0130244570312517,0.0463521646080182,0.484828000000562,
-0.0141736738281251,-0.0181480485839843,-0.0297838686523466,0.0376473575313456,0.487847000000329,
-0.0237504804687501,0.0249475812988282,-0.0489374819335957,0.0598443336762899,0.490916000000652,
-0.00938527050781257,0.0297359846191407,0.010917559570311,0.0330379356308151,0.493898000000627,
-0.0141736738281251,-0.0109654436035155,-0.11597512841797,0.117351456721988,0.496932000000015,
-0.0237504804687501,-0.0516668718261718,-0.0800621035156279,0.0982012799618501,0.500028000000384,
-0.0452982954101563,0.0057939680175782,-0.0178128603515653,0.0490184008955706,0.503028999999515,
-0.0261446821289064,-0.0229364519042968,-0.0465432802734398,0.0581025143018066,0.506126000000222,
-0.0141736738281251,-0.0420900651855468,0.101897222656248,0.111155344460654,0.509231,
-0.0261446821289064,-0.133069728271484,-0.024995465332033,0.137898043035545,0.512187000000267,
-0.0692403120117189,-0.0756088884277343,0.00373495458984152,0.102590811979173,0.515264999999999,
-0.0165678754882813,0.173388084228516,-0.104004120117191,0.202866407401475,0.518234999999549,
0.0265277543945311,0.0608606062011719,-0.113580926757814,0.131561248335346,0.521326000000045,
-0.0476924970703126,-0.247991407958984,0.111474029296872,0.276044872993434,0.524352000000363,
-0.124306950195313,-0.111521913330078,-0.178224371582033,0.244240212998335,0.527304999999615,
0.0863827958984374,0.168599680908203,-0.00105344873047031,0.189443790037591,0.530350000000908,
-0.0261446821289064,0.0441011945800782,0.0659841977539042,0.0835606014832218,0.533375999999407,
-0.105153336914063,-0.164194349853516,-0.127946136718752,0.233210683051258,0.536420000000362,
-0.0357214887695314,-0.0947625017089843,0.0276769711914042,0.104985576268299,0.539408000000549,
0.00258573779296867,0.0297359846191407,-0.0704852968750025,0.0765447052170233,0.542446999999811,
0.00497993945312492,0.0441011945800782,0.034859576171872,0.0564349644389828,0.545523000000685,
-0.0836055219726563,-0.113916114990234,-0.135128741699221,0.195516089854527,0.548563000000286,
-0.0189620771484376,-0.0612436784667968,-0.0321780703125025,0.0717340695274152,0.551617999999507,
0.0193451494140624,0.0273417829589845,-0.0106302553710957,0.0351398666827767,0.554614000000583,
-0.0189620771484376,0.0656490095214845,-0.0106302553710957,0.0691545743258533,0.557554999999411,
-0.102759135253906,-0.0373016618652343,-0.024995465332033,0.112141103718502,0.56061100000079,
0.0265277543945311,-0.0492726701660156,-0.0297838686523466,0.0633924018349657,0.563647000000856,
0.0241335527343749,-0.00857124194335929,-0.0202070620117212,0.0326223835913319,0.566765999999916,
-0.0668461103515626,0.0656490095214845,-0.0273896669921889,0.0976134661725945,0.569708000000901,
-0.0716345136718751,-0.00138863696289054,0.0228885678710924,0.0752151474159984,0.57274999999936,
-0.0213562788085938,-0.034907460205078,0.0731668027343719,0.0838331822424152,0.575768000000608,
0.0241335527343749,-0.0516668718261718,-0.0896389101562516,0.106240426514042,0.578724999999395,
-0.0452982954101563,0.032130186279297,-0.0369664736328144,0.0667143508568709,0.581801000000269,
-0.0213562788085938,-0.00138863696289054,0.00612915624999744,0.0222617500098708,0.584790999999313,
-0.0548751020507813,-0.0420900651855468,-0.0202070620117212,0.0720498144865953,0.587849999999889,
-0.0309330854492189,-0.054061073486328,0.00373495458984152,0.0623971580097284,0.590836999999738,
0.00497993945312492,-0.00378283862304679,-0.024995465332033,0.0257659261849767,0.593799000000217,
-0.10036493359375,0.022553379638672,-0.0441490786132839,0.111941573916065,0.596848000001046,
-0.0309330854492189,-0.0133596452636718,-0.00105344873047031,0.0337112095779364,0.59982300000047,
-0.0333272871093751,-0.0205422502441406,-0.0154186586914093,0.0420764440869922,0.602869000000283,
0.0289219560546874,-0.0181480485839843,-0.003447650390628,0.0343178889597237,0.605869000000894,
-0.0237504804687501,0.022553379638672,-0.0297838686523466,0.0442698439970459,0.608804999999847,
-0.0189620771484376,-0.0133596452636718,0.00134075292968561,0.0232344164930584,0.611912000000302,
0.0217393510742186,-0.0325132585449218,-0.0513316835937516,0.0645341235851707,0.614901999999347,
-0.0261446821289064,-0.0229364519042968,0.010917559570311,0.0364529606006284,0.617992999999842,
0.00258573779296867,0.0153707746582032,-0.00105344873047031,0.0156223080162625,0.620944000000236,
-0.0620577070312501,0.0010055646972657,-0.0513316835937516,0.0805426092382528,0.623896000000968,
-0.0141736738281251,-0.0468784685058593,0.00373495458984152,0.0491165320948975,0.626985000000786,
0.0384987626953124,-0.00378283862304679,0.00852335791015335,0.0396120212458613,0.630021000000852,
-0.0165678754882813,-0.073214686767578,-0.0656968935546889,0.0997545321246402,0.633139999999912,
-0.0500866987304688,-0.00617704028320304,-0.0130244570312517,0.0521197630207197,0.636173000000781,
-0.0165678754882813,-0.0157538469238281,-0.0585142885742211,0.062821971940093,0.639180000000124,
-0.0165678754882813,-0.0564552751464843,-0.11597512841797,0.130045849613223,0.64226299999973,
-0.0644519086914064,0.0105823713378907,-0.099215716796877,0.118784652108833,0.645223999999871,
-0.0237504804687501,-0.00138863696289054,0.013311761230467,0.0272619995995919,0.64834300000075,
-0.0476924970703126,-0.00138863696289054,0.0157059628906229,0.0502312637680768,0.651378000000477,
-0.0524809003906251,0.0105823713378907,-0.0537258852539093,0.0758465703592453,0.654319999999643,
-0.0261446821289064,0.00339976635742195,0.00612915624999744,0.027067866026776,0.657366999999795,
-0.0381156904296876,-0.0612436784667968,-0.0202070620117212,0.0749127450052507,0.660384000000704,
-0.0213562788085938,-0.0109654436035155,-0.0154186586914093,0.028531852968471,0.663520000000062,
-0.0524809003906251,0.0201591779785157,-0.0202070620117212,0.0597407960921658,0.666459000000032,
0.0289219560546874,0.0177649763183595,-0.00584185205078391,0.0344412711874053,0.669476000000941,
0.0121625444335937,0.00339976635742195,-0.0273896669921889,0.0301608978037326,0.672452000000703,
-0.0285388837890626,0.012976572998047,-0.00584185205078391,0.0318902268741147,0.675420999999915,
-0.0357214887695314,0.012976572998047,-0.0441490786132839,0.0582542474767919,0.678459000000657,
-0.0189620771484376,0.0010055646972657,-0.0585142885742211,0.0615182371129969,0.681463999999323,
-0.0429040937500001,-0.0229364519042968,-0.0345722719726584,0.0596831976004837,0.684547000000748,
-0.0572693037109376,-0.0109654436035155,0.0372537778320297,0.0691943499406976,0.6875629999995,
0.0456813676757812,0.0369185895996095,0.00373495458984152,0.0588533728561285,0.690567999999985,
0.0121625444335937,-0.0468784685058593,-0.0656968935546889,0.0816186260561283,0.693663000000015,
-0.0213562788085938,0.0057939680175782,-0.00584185205078391,0.0228864139900151,0.696626999999353,
-0.0476924970703126,0.012976572998047,-0.024995465332033,0.0553871737024041,0.699666000000434,
-0.0381156904296876,-0.0468784685058593,-0.0297838686523466,0.0673607860575191,0.702660000000833,
-0.0333272871093751,-0.0133596452636718,-0.00823605371093983,0.0368377628035601,0.70565600000009,
-0.0405098920898438,-0.0205422502441406,-0.0393606752929703,0.0601023973044531,0.708733999999822,
-0.0333272871093751,-0.00617704028320304,-0.024995465332033,0.0421145720611749,0.711682000001019,
-0.0189620771484376,0.00818816967773445,-0.0273896669921889,0.0343045237599602,0.714744999999311,
-0.0452982954101563,-0.0444842668457031,0.00852335791015335,0.0640580455050736,0.71773899999971,
-0.0333272871093751,-0.0157538469238281,0.032465374511716,0.0491212001192571,0.720688999999766,
-0.0261446821289064,-0.0229364519042968,-0.0656968935546889,0.074335099733005,0.723793999999543,
-0.0165678754882813,0.0105823713378907,0.013311761230467,0.0237420316819173,0.726764000000912,
-0.0357214887695314,-0.0181480485839843,0.00852335791015335,0.0409636919403389,0.72984600000018,
-0.0309330854492189,-0.0301190568847655,-0.0896389101562516,0.099494460031888,0.732793000001038,
0.00737414111328116,-0.00857124194335929,-0.024995465332033,0.0274338738200614,0.735764999999446,
-0.0285388837890626,-0.00378283862304679,-0.0178128603515653,0.0338537405596191,0.738851000000068,
-0.0237504804687501,-0.0516668718261718,-0.0489374819335957,0.0750228505510125,0.741787000000841,
0.00497993945312492,-0.00857124194335929,-0.0393606752929703,0.0405897615776076,0.744856999999683,
-0.0572693037109376,-0.025330653564453,0.034859576171872,0.0716701137742957,0.747879000000466,
-0.0165678754882813,0.0010055646972657,0.00373495458984152,0.0170133930873226,0.750896999999895,
-0.0357214887695314,-0.0109654436035155,-0.0369664736328144,0.0525622096774783,0.753951000000598,
-0.00459686718750008,-0.0277248552246093,-0.0393606752929703,0.0483638454290361,0.756949000000532,
-0.0524809003906251,-0.00857124194335929,-0.0561200869140652,0.0773121934076673,0.760027000000264,
-0.0596635053710938,-0.0396958635253905,-0.0393606752929703,0.0817603706798814,0.762955000000147,
-0.0165678754882813,-0.063637880126953,-0.00105344873047031,0.0657676519230797,0.766048999999839,
-0.0476924970703126,-0.0157538469238281,-0.0178128603515653,0.0532921754444829,0.769078999999692,
-0.0405098920898438,-0.0181480485839843,-0.00584185205078391,0.0447719807460056,0.772089000000051,
-0.0429040937500001,0.012976572998047,-0.0441490786132839,0.0629149731755832,0.775148000000627,
-0.0261446821289064,-0.0133596452636718,-0.0800621035156279,0.0852758168799328,0.778188000000227,
-0.0285388837890626,0.0057939680175782,-0.0178128603515653,0.0341370172572049,0.781236000000717,
-0.0309330854492189,0.0105823713378907,-0.0297838686523466,0.044225797793165,0.78424300000006,
-0.0644519086914064,0.00818816967773445,-0.0513316835937516,0.0828011859649714,0.787195999999312,
-0.0237504804687501,-0.0205422502441406,-0.0585142885742211,0.0664077656222267,0.79039499999999,
-0.0213562788085938,-0.0396958635253905,-0.0728794985351584,0.0856929024617149,0.793368000000555,
-0.0117794721679688,-0.00857124194335929,0.00134075292968561,0.0146294145961489,0.796480000000884,
-0.0500866987304688,-0.00857124194335929,-0.0178128603515653,0.0538464629485792,0.799463999999716,
-0.0548751020507813,0.0441011945800782,0.034859576171872,0.0785581455951967,0.802471000000878,
-0.0405098920898438,-0.0181480485839843,0.00852335791015335,0.0452001178604882,0.8055889999996,
-0.0237504804687501,-0.00857124194335929,-0.0178128603515653,0.0309006392304827,0.808553000000757,
-0.0261446821289064,-0.025330653564453,0.0181001645507788,0.0406546721840081,0.811620000000403,
-0.0405098920898438,-0.0205422502441406,-0.0154186586914093,0.0479663469326762,0.81459200000063,
-0.0309330854492189,-0.0181480485839843,-0.00105344873047031,0.0358792028484895,0.817552000000433,
-0.0333272871093751,-0.0205422502441406,-0.0345722719726584,0.0522296285695684,0.820622999999614,
-0.0309330854492189,0.0057939680175782,0.0611957944335924,0.068813887385875,0.823647999999594,
-0.0476924970703126,-0.0420900651855468,-0.0537258852539093,0.0832623480958926,0.826715999999578,
-0.0213562788085938,-0.0157538469238281,0.00134075292968561,0.0265720145240864,0.829766999999265,
-0.0596635053710938,-0.054061073486328,-0.0178128603515653,0.0824598783261597,0.832739999999831,
-0.0572693037109376,-0.0444842668457031,-0.0393606752929703,0.082509913973134,0.835827000000791,
0.00737414111328116,0.00818816967773445,-0.0273896669921889,0.0295231762819138,0.83878999999979,
-0.0405098920898438,-0.0420900651855468,-0.00105344873047031,0.0584271743171112,0.841851999999562,
-0.0596635053710938,0.0249475812988282,0.00134075292968561,0.0646831763617608,0.844865000000937,
-0.0237504804687501,-0.025330653564453,-0.0273896669921889,0.0442257977931639,0.847847999999431,
-0.00459686718750008,-0.00857124194335929,-0.0178128603515653,0.0202952055987487,0.850914000000557,
-0.0452982954101563,0.0057939680175782,-0.0345722719726584,0.0572778109027045,0.85385099999985,
-0.0237504804687501,-0.0157538469238281,0.0228885678710924,0.0365534615951142,0.856961999999839,
0.0121625444335937,-0.00857124194335929,0.0540131894531228,0.0560251578351162,0.859921999999642,
-0.0189620771484376,-0.0109654436035155,-0.0680910952148466,0.0715276070532384,0.862962999999581,
-0.0572693037109376,-0.0109654436035155,-0.003447650390628,0.0584114748501824,0.865981000000829,
-0.0285388837890626,-0.0277248552246093,-0.0202070620117212,0.0446257867190788,0.86895899999945,
-0.0452982954101563,-0.0277248552246093,-0.0273896669921889,0.0597561463134491,0.872027999999773,
-0.0141736738281251,0.0057939680175782,-0.00584185205078391,0.0163887257148945,0.874939999999697,
0.0241335527343749,-0.0229364519042968,-0.0585142885742211,0.0673233329603355,0.87798500000099,
-0.0309330854492189,0.00818816967773445,0.0372537778320297,0.0491095292263963,0.880988000000798,
-0.0285388837890626,-0.0157538469238281,0.010917559570311,0.034377968057992,0.883933999999499,
-0.0213562788085938,-0.025330653564453,-0.0393606752929703,0.0514489593098964,0.887006000000838,
-0.0141736738281251,0.00339976635742195,-0.0896389101562516,0.090816219119008,0.88995900000009,
-0.00699106884765632,-0.00138863696289054,-0.0465432802734398,0.0470858821183096,0.893043000000034,
-0.0309330854492189,-0.0229364519042968,-0.0226012636718771,0.0446514694151548,0.896022000000812,
0.00497993945312492,-0.0205422502441406,-0.0680910952148466,0.0712964311140956,0.898997000000236,
-0.00459686718750008,-0.00857124194335929,-0.063302691894533,0.0640455164510779,0.902062999999544,
-0.0189620771484376,-0.0444842668457031,-0.0728794985351584,0.0874633161577994,0.905028999999558,
-0.0812113203125001,-0.0157538469238281,-0.108792523437502,0.136672145646794,0.908136000000013,
-0.0261446821289064,-0.0325132585449218,-0.0297838686523466,0.0512614398620515,0.911158999999316,
-0.00699106884765632,-0.0325132585449218,-0.0297838686523466,0.0446437661576825,0.914187000000311,
0.0145567460937499,-0.0229364519042968,-0.041754876953128,0.0498141489154124,0.917311000001064,
-0.0165678754882813,-0.063637880126953,-0.0824563051757838,0.105467134921214,0.920308000000659,
-0.0189620771484376,0.022553379638672,0.034859576171872,0.0456443353965408,0.923392000000604,
-0.0333272871093751,-0.0468784685058593,-0.00584185205078391,0.0578137190544667,0.926382999999987,
-0.0596635053710938,-0.0277248552246093,-0.0106302553710957,0.0666438579288954,0.929400999999416,
-0.0500866987304688,-0.0181480485839843,-0.00105344873047031,0.0532835698067531,0.932547000000341,
-0.0429040937500001,-0.0396958635253905,0.0228885678710924,0.062772680209824,0.935523000000103,
-0.00938527050781257,0.00339976635742195,0.0683783994140601,0.0691031636049943,0.938582000000679,
0.0241335527343749,-0.0444842668457031,0.013311761230467,0.0523305011579245,0.941604999999981,
-0.0405098920898438,-0.0133596452636718,-0.0226012636718771,0.048273684324564,0.944611999999324,
-0.0309330854492189,0.0057939680175782,-0.00105344873047031,0.0314886581966448,0.947658000000956,
-0.0213562788085938,-0.00617704028320304,-0.024995465332033,0.0334517526951215,0.950618000000759,
-0.0237504804687501,0.022553379638672,-0.0154186586914093,0.0362004874478883,0.953639999999723,
-0.0165678754882813,0.00339976635742195,-0.0202070620117212,0.0263510581310466,0.956604999999399,
-0.0476924970703126,-0.00857124194335929,-0.0273896669921889,0.0556617851240542,0.959617000000435,
-0.0189620771484376,0.0010055646972657,-0.0345722719726584,0.0394438020415774,0.962639999999737,
-0.00699106884765632,-0.0205422502441406,-0.063302691894533,0.0669185317368794,0.965657000000647,
-0.0381156904296876,0.0201591779785157,-0.00823605371093983,0.0438979600258456,0.968698000000586,
-0.0405098920898438,-0.034907460205078,0.0420421811523415,0.0680229897251378,0.971708999999464,
-0.0261446821289064,-0.0492726701660156,0.0252827695312483,0.0612418065056929,0.974739999999656,
-0.0357214887695314,0.00339976635742195,-0.0465432802734398,0.0587695508729545,0.977732999999716,
-0.0237504804687501,-0.0396958635253905,-0.0226012636718771,0.0514845998633438,0.980708000000959,
-0.0189620771484376,0.0010055646972657,-0.00823605371093983,0.0206979252794373,0.983754999999292,
-0.00938527050781257,-0.00617704028320304,-0.0561200869140652,0.0572337600058511,0.986769000001004,
-0.0476924970703126,-0.0277248552246093,-0.00823605371093983,0.0557770065058785,0.989838999999847,
-0.00938527050781257,-0.00378283862304679,-0.0513316835937516,0.0523195461670097,0.992806000000201,
-0.00699106884765632,0.0010055646972657,-0.0321780703125025,0.0329441104452589,0.995758000000933,
-0.0213562788085938,-0.0229364519042968,-0.0489374819335957,0.0581123791331031,0.998864000001049,
-0.0357214887695314,-0.0396958635253905,-0.024995465332033,0.0589623577217113,1.00179299999945,
-0.0213562788085938,-0.0109654436035155,-0.0489374819335957,0.0545087950332172,1.00492900000063,
-0.0429040937500001,-0.0181480485839843,-0.0369664736328144,0.0594695981217379,1.00789600000098,
-0.0309330854492189,-0.0516668718261718,0.00373495458984152,0.0603346608965271,1.0108880000007,
-0.0117794721679688,-0.0157538469238281,0.00612915624999744,0.0206035485728124,1.01394199999959,
0.00976834277343741,-0.0420900651855468,-0.063302691894533,0.0766434922805395,1.01693700000033,
-0.00220266552734383,-0.00138863696289054,-0.00584185205078391,0.00639588019144378,1.01999500000056,
-0.00459686718750008,-0.063637880126953,-0.00105344873047031,0.0638123869575468,1.02296500000011,
-0.0237504804687501,-0.0229364519042968,-0.063302691894533,0.0713960569607928,1.02590199999941,
-0.0165678754882813,0.0105823713378907,-0.0441490786132839,0.0483282756130417,1.02896999999939,
-0.00699106884765632,-0.0468784685058593,-0.0130244570312517,0.0491538638770792,1.03200800000013,
