X,Y,Z,Magnitude,Seconds,
-0.015322890625,-0.0189141931152341,0.0629196196289055,0.0674641846652891,0.0,
-0.0201112939453125,-0.00694318481445277,-0.0232716401367199,0.0315315904162065,0.00383599999986473,
-0.0368707055664063,0.00742202514648471,-0.020877438476564,0.0430163088093619,0.00768099999913829,
-0.0392649072265625,-0.0380678063964841,-0.0759440766601571,0.0935862896107896,0.0114880000000994,
-0.0272938989257813,-0.0452504113769528,-0.0735498750000012,0.0905656709844852,0.015280999999959,
-0.0368707055664063,-0.0237025964355466,-0.0711556733398453,0.0835726740938554,0.0190989999991871,
-0.00814028564453125,-0.0141257897949216,-0.0376368500976572,0.0410162732702325,0.0229199999994307,
-0.0201112939453125,-0.0189141931152341,-0.056790463378908,0.0631456061507547,0.026679000000513,
0.0205901342773438,-0.0141257897949216,-0.0424252534179708,0.0492279767456311,0.030428000000029,
-0.024899697265625,-0.0237025964355466,0.0198239897460919,0.0396837318199702,0.0341649999991205,
-0.0368707055664063,-0.0141257897949216,-0.0352426484375012,0.0529247686360955,0.0378970000001573,
-0.024899697265625,-0.0213083947753905,-0.0256658417968758,0.0416266506815756,0.0415819999998348,
-0.0177170922851563,-0.00694318481445277,0.000670376464842803,0.0190408135071222,0.0453539999998611,
0.00143652099609375,-0.0524330163574216,-0.0807324799804707,0.096275740042375,0.0490829999998823,
-0.0416591088867188,0.00742202514648471,0.0222181914062478,0.0477934706824604,0.0529819999992469,
-0.005746083984375,0.00981622680664085,-0.0280600434570317,0.030277744775419,0.056894999999713,
-0.0847547387695313,0.00981622680664085,0.017429788085936,0.08708341728097,0.0606489999991027,
-0.0225054956054688,-0.026096798095703,-0.0496078583984385,0.0604026474434291,0.064382000000478,
-0.0296881005859375,0.00981622680664085,-0.056790463378908,0.0648297644289353,0.0681769999991957,
-0.0320823022460938,-0.0380678063964841,-0.0113006318359385,0.0510503308622122,0.0721159999993688,
-0.0608127221679688,0.00502782348632835,-0.020877438476564,0.0644928959175423,0.0758979999991425,
-0.00335188232421875,0.0457292517089847,-0.0160890351562522,0.0485927631364816,0.079635000000053,
-0.0464475122070312,-0.0308852014160154,0.0150355864257801,0.0577696799012878,0.0833750000001601,
-0.0703895288085937,-0.00215478149414028,0.0150355864257801,0.0720097056538245,0.0871389999992971,
-0.015322890625,0.0361524450683597,0.0270065947265614,0.0476565464574513,0.0908990000007179,
0.00143652099609375,-0.026096798095703,-0.0376368500976572,0.0458218173875024,0.0947030000006635,
-0.0560243188476563,-0.0308852014160154,-0.0304542451171894,0.0708525300501651,0.098428999999669,
-0.015322890625,-0.0380678063964841,0.0270065947265614,0.0491254009619326,0.102136999999857,
-0.0201112939453125,-0.0332794030761716,-0.095097689941408,0.102740223113702,0.105831000000762,
0.00143652099609375,-0.0380678063964841,0.0102471831054682,0.0394490334230055,0.109549999999217,
-0.0177170922851563,0.0217872351074222,-0.0543962617187521,0.0612170912543369,0.113260000000082,
-0.000957680664062498,-0.00933738647460913,-0.0232716401367199,0.0250932894034147,0.116960999999719,
0.00143652099609375,-0.0237025964355466,0.0485544096679682,0.0540500450375713,0.120817999999417,
0.0277727392578125,0.0193930334472658,0.000670376464842803,0.0338801445801789,0.124823000000106,
-0.0464475122070312,-0.0189141931152341,-0.0352426484375012,0.0612956960994163,0.128603999999541,
-0.0464475122070312,0.0241814367675783,-0.0448194550781267,0.0689267497265533,0.132379000000583,
-0.0129286889648438,-0.0332794030761716,-0.0759440766601571,0.0839176527747279,0.136114999999336,
-0.000957680664062498,-0.0141257897949216,-0.0376368500976572,0.0402117840297859,0.139891999999236,
0.0349553442382813,-0.0524330163574216,-0.020877438476564,0.0663849736950848,0.143783999999869,
-0.0129286889648438,-0.0213083947753905,-0.0376368500976572,0.0451412358218855,0.147580999999263,
-0.0225054956054688,-0.0356736047363279,-0.0280600434570317,0.0506603340508335,0.151341999999204,
-0.000957680664062498,0.00263362182617222,-0.0280600434570317,0.0281996304051688,0.155133000000205,
-0.0679953271484375,-0.0356736047363279,0.0150355864257801,0.0782434626539106,0.158902999999555,
-0.005746083984375,-0.00454898315429664,0.017429788085936,0.0189078883436041,0.162662999999156,
0.00622492431640626,-0.0189141931152341,0.0485544096679682,0.0524788250835538,0.166479999999865,
-0.0584185205078125,-0.0141257897949216,0.0222181914062478,0.0640773712399056,0.170249999999214,
-0.0416591088867188,-0.0380678063964841,0.0150355864257801,0.05840126793352,0.1739749999997,
-0.0129286889648438,-0.0356736047363279,0.0389776030273428,0.0543967886091683,0.177685000000565,
-0.0512359155273438,-0.00215478149414028,-0.0520020600585944,0.0730340767967273,0.181370000000243,
0.0110133276367188,-0.00933738647460913,-0.020877438476564,0.0253840030167159,0.185074999999415,
-0.0320823022460938,-0.016519991455078,-0.056790463378908,0.0672855182478121,0.188765000000785,
-0.0368707055664063,0.0241814367675783,-0.0113006318359385,0.0455180743551442,0.192725999999311,
-0.03447650390625,0.0122104284667972,-0.0400310517578131,0.0542236939886721,0.196711000000505,
-0.024899697265625,-0.0213083947753905,-0.0520020600585944,0.0614675268915329,0.200469999999768,
-0.005746083984375,0.000239420166015858,0.0653138212890614,0.0655665315122802,0.2042849999998,
-0.0225054956054688,-0.0189141931152341,-0.0591846650390639,0.0660837999015972,0.20804599999974,
-0.0464475122070312,-0.0620098229980467,-0.0424252534179708,0.0883317138181437,0.211830000000191,
-0.0177170922851563,-0.016519991455078,-0.0160890351562522,0.029080277319443,0.215695000000778,
-0.063206923828125,-0.0308852014160154,-0.0232716401367199,0.0740984488432466,0.219442999999956,
-0.0392649072265625,-0.0284909997558591,0.0270065947265614,0.0555232038459927,0.223217000000659,
-0.0512359155273438,-0.00694318481445277,-0.0543962617187521,0.0750485186014203,0.226958999999624,
-0.0320823022460938,-0.0404620080566404,-0.0591846650390639,0.0785447184040502,0.230755000000499,
-0.0272938989257813,0.00502782348632835,-0.0591846650390639,0.0653686507690547,0.234483000000182,
-0.044053310546875,-0.026096798095703,-0.0041180268554708,0.0513682312929857,0.238229000000501,
0.013407529296875,-0.0213083947753905,0.00306457812499872,0.0253614110182117,0.242082999999184,
-0.0368707055664063,-0.0213083947753905,-0.0184832368164081,0.0464233417590756,0.245786999999837,
0.0086191259765625,0.00742202514648471,-0.0113006318359385,0.0160337166547976,0.249490000000151,
-0.0416591088867188,0.0457292517089847,-0.0352426484375012,0.0711947335411017,0.25323600000047,
-0.0129286889648438,-0.0308852014160154,-0.00890643017578263,0.0346463730184503,0.256896999999299,
-0.00335188232421875,-0.0356736047363279,0.000670376464842803,0.0358370003572255,0.260623000000123,
-0.005746083984375,0.00981622680664085,0.0341891997070292,0.0360316134315691,0.264605000000302,
-0.005746083984375,-0.0237025964355466,-0.0663672700195335,0.0707067541949674,0.268475999999282,
-0.00814028564453125,-0.0189141931152341,-0.0041180268554708,0.0209992641956167,0.27219999999943,
0.0205901342773438,0.0217872351074222,-0.0424252534179708,0.0519474674143425,0.275994999999966,
-0.000957680664062498,-0.016519991455078,-0.0256658417968758,0.0305378896630469,0.279715000000579,
-0.0512359155273438,0.00981622680664085,-0.0041180268554708,0.0523300630023211,0.283519000000524,
-0.0201112939453125,-0.0548272180175778,-0.0352426484375012,0.0682094733053341,0.287383999999292,
-0.0201112939453125,-0.00694318481445277,0.0365834013671869,0.0423204113297012,0.291164000000208,
-0.0751779321289062,-0.0644040246582029,-0.195654159667971,0.219271863372236,0.294867999999042,
-0.0392649072265625,0.483868155517578,-0.121433908203127,0.500416145747696,0.29867700000068,
0.31028853515625,-1.42431056762695,0.496270120117186,1.53987778743131,0.302311999999802,
-0.652180532226563,-0.0404620080566404,-0.0280600434570317,0.654036686088868,0.305217999999513,
-0.676122548828125,3.08397115844727,-1.45500423291016,3.47635687537325,0.308151999999609,
2.36690776123047,-2.33171299682617,0.781180117675779,3.41311884146935,0.311166999999841,
-0.817380446777344,-2.32931879516602,1.65745792529297,2.9733825213726,0.314089999999851,
-2.13897976318359,4.44627190307617,-2.66886447460938,5.60958161071087,0.317106000000422,
3.21684935058594,-1.05799771362305,1.59760288378906,3.74430419179424,0.320064999999886,
-1.37283523193359,-2.38917383666992,-0.308181637695315,2.77268896879524,0.322963000000527,
-1.83252195068359,1.74800663208008,-0.274662814453126,2.54737189023834,0.326005999999325,
3.15460010742188,-0.708444271240234,0.599220791503905,3.28823063062337,0.328944000000774,
-1.64577422119141,0.579636221923828,-0.619427853515626,1.85155118822443,0.331963999999061,
-1.75830169921875,0.376129080810547,0.0150355864257801,1.79814460479854,0.334903999999369,
1.42838071044922,-1.24713964477539,0.280791970703124,1.91689146233303,0.337836999999126,
0.051714755859375,0.792720169677735,-0.241143991210938,0.83019883635466,0.340858999999909,
-1.10229044433594,0.862152017822266,-0.0807324799804707,1.40173751424192,0.343804000000091,
1.07164466308594,-1.42431056762695,-0.00172382519531311,1.78243817523854,0.346836999999141,
-0.00814028564453125,0.299514627685547,0.0653138212890614,0.306661330622832,0.349786999999196,
-0.886812294921875,1.02016932739258,-0.0352426484375012,1.35219212660262,0.352718000000095,
0.669418784179688,-0.962229647216797,-0.0543962617187521,1.17344209737189,0.355711000000156,
-0.123061965332031,-0.162566292724609,0.0748906279296868,0.217211079352109,0.358707999999751,
-0.5133168359375,0.661039078369141,-0.123828109863283,0.846049784575543,0.361801999999443,
0.573650717773438,-0.435505281982422,-0.00651222851562672,0.720265510597869,0.364830000000438,
-0.182917006835938,-0.0763750329589842,0.0461602080078105,0.203525285536291,0.367911999999706,
-0.259531459960938,0.198958157958985,0.0653138212890614,0.333476869631565,0.370840999999928,
0.327047946777344,-0.176931502685547,-0.0807324799804707,0.380503415829134,0.373755999999048,
-0.261925661621094,0.110372696533203,0.00306457812499872,0.284247385203,0.376774000000296,
-0.101514150390625,-0.105105452880859,0.0222181914062478,0.147803677167334,0.379714999999123,
0.269587106933594,-0.0548272180175778,-0.0687614716796894,0.283568989926488,0.382711000000199,
-0.254743056640625,0.218111771240235,-0.0280600434570317,0.336532518040934,0.385646999999153,
-0.0225054956054688,-0.234392342529297,-0.0400310517578131,0.238848807143045,0.388542000000598,
0.123540805664063,-0.0883460412597654,-0.0424252534179708,0.157693550273868,0.391562999999223,
-0.180522805175781,0.251630594482422,-0.0113006318359385,0.30989376171198,0.394513999999617,
0.0301669409179688,-0.148201082763672,-0.102280294921876,0.182578377651842,0.397525000000314,
0.0349553442382813,-0.0883460412597654,-0.0136948334960945,0.0959919140426665,0.400492999999187,
-0.142215578613281,0.129526309814453,-0.0448194550781267,0.197512326926601,0.403427999999622,
0.0493205541992188,-0.0859518395996092,-0.00172382519531311,0.09911209497523,0.406447999999727,
-0.015322890625,-0.0907402429199217,0.0102471831054682,0.0925936683789399,0.409397999999783,
-0.101514150390625,0.103190091552735,-0.0376368500976572,0.149565538174627,0.41243299999951,
0.0493205541992188,-0.0237025964355466,0.0150355864257801,0.0567485594836694,0.415376999999353,
-0.07278373046875,-0.0931344445800779,0.0198239897460919,0.11985193681222,0.418284999999742,
-0.0512359155273438,-0.0237025964355466,-0.0041180268554708,0.0566029174415407,0.421285000000353,
-0.0320823022460938,-0.00215478149414028,0.0126413847656242,0.0345502794415582,0.424240000000282,
-0.0225054956054688,0.0193930334472658,-0.056790463378908,0.0640916828420478,0.427245999999286,
0.00622492431640626,-0.0835576379394529,0.0796790312499986,0.115626020262327,0.430213999999978,
-0.015322890625,0.0361524450683597,-0.0615788666992199,0.0730325070464294,0.433141999999862,
-0.063206923828125,0.000239420166015858,-0.0184832368164081,0.0658544044467924,0.436164000000645,
-0.0129286889648438,-0.0739808312988279,0.0509486113281241,0.0907528258198034,0.439092000000528,
0.0158017309570313,-0.0117315881347655,0.0102471831054682,0.0221885020449593,0.442119999999704,
-0.03447650390625,0.0553060583496097,-0.0424252534179708,0.0777643333369942,0.445073000000775,
0.0253785375976563,-0.0548272180175778,0.00785298144531055,0.0609242424960956,0.448012000000745,
-0.0272938989257813,-0.016519991455078,-0.0520020600585944,0.0610088623610068,0.450983000000633,
-0.0368707055664063,0.0122104284667972,-0.0543962617187521,0.0668393355837891,0.453951999999845,
0.0158017309570313,0.0193930334472658,-0.0520020600585944,0.0577061409025316,0.457007999999405,
-0.0201112939453125,-0.0117315881347655,0.0509486113281241,0.0560165627344519,0.459940000000643,
-0.00814028564453125,-0.0452504113769528,0.0461602080078105,0.0651508156777976,0.462928999999349,
-0.0392649072265625,0.0122104284667972,0.017429788085936,0.0446612249672349,0.465890999999829,
-0.0296881005859375,-0.00694318481445277,0.0246123930664055,0.0391836831375464,0.468840999999884,
-0.00814028564453125,0.00263362182617222,-0.0400310517578131,0.0409351355089312,0.471868000000541,
-0.00814028564453125,0.000239420166015858,0.017429788085936,0.0192384792827056,0.474825999999666,
-0.0105344873046875,0.0241814367675783,0.0126413847656242,0.0292493062432182,0.477822000000742,
-0.044053310546875,-0.016519991455078,-0.0424252534179708,0.0633522408079959,0.480760000000373,
0.00622492431640626,0.0241814367675783,-0.0328484467773453,0.0412615077593326,0.483696999999665,
-0.0296881005859375,-0.00454898315429664,0.00785298144531055,0.0310442568234321,0.486756000000241,
-0.0105344873046875,-0.0117315881347655,0.00306457812499872,0.0160622919292551,0.489688999999998,
-0.0679953271484375,-0.0979228479003904,0.0126413847656242,0.119883498713287,0.492693000000145,
-0.0656011254882813,0.0600944616699222,-0.0304542451171894,0.0940335739743249,0.495622000000367,
0.0181959326171875,0.198958157958985,-0.0448194550781267,0.204754057678332,0.498666999999841,
0.106781394042969,-0.267911165771484,0.0988326445312495,0.304871367110517,0.501780000000508,
-0.147003981933594,-0.016519991455078,-0.104674496582033,0.181217634508097,0.504781999999977,
-0.024899697265625,0.232476981201172,0.000670376464842803,0.233807594224256,0.507857999999032,
0.0828393774414063,-0.28945898071289,0.000670376464842803,0.301080244079265,0.5108139999993,
-0.0416591088867188,-0.0763750329589842,-0.0927034882812521,0.127132072083458,0.513726999999562,
0.0229843359375,0.20853496459961,0.0461602080078105,0.214815911799784,0.516771999999037,
-0.0536301171875,-0.0715866296386717,-0.0328484467773453,0.0952882756075133,0.519699000000401,
-0.0512359155273438,-0.19369091430664,-0.0591846650390639,0.208911737106017,0.522689999999784,
0.0158017309570313,0.0696712683105472,-0.0184832368164081,0.0737930238738736,0.525637999999162,
-0.044053310546875,0.0984016882324221,-0.0400310517578131,0.115004658696798,0.528597000000445,
-0.00814028564453125,-0.150595284423828,0.0102471831054682,0.151162854903793,0.531596999999238,
0.0086191259765625,-0.016519991455078,-0.0400310517578131,0.0441552324771642,0.534535999999207,
-0.0488417138671875,0.122343704833985,0.0270065947265614,0.134472492669371,0.537572999999611,
-0.015322890625,-0.0955286462402342,-0.0304542451171894,0.101429651854156,0.540512999999919,
-0.0320823022460938,-0.0859518395996092,0.0317949980468732,0.0970974497541894,0.543455999999424,
-0.0416591088867188,0.115161099853516,-0.00890643017578263,0.122787966719801,0.54649900000004,
-0.0225054956054688,-0.0308852014160154,0.00785298144531055,0.0390136170655324,0.549435000000813,
-0.0225054956054688,-0.109893856201172,-0.0328484467773453,0.116885317379454,0.55243100000007,
-0.00814028564453125,0.0241814367675783,-0.0711556733398453,0.0755919042157672,0.555370000000039,
-0.024899697265625,0.0385466467285158,0.0150355864257801,0.0482898307835084,0.558386999999129,
0.00143652099609375,-0.0476446130371091,-0.0639730683593758,0.0797786075294715,0.5613400000002,
-0.0536301171875,-0.0380678063964841,-0.0280600434570317,0.0715032404314356,0.564243999999235,
-0.0320823022460938,0.0672770666503908,-0.0424252534179708,0.0857635117172208,0.567290999999386,
-0.0368707055664063,-0.00215478149414028,-0.0041180268554708,0.0371624831979039,0.570236999999906,
-0.00335188232421875,-0.0691924279785154,-0.0136948334960945,0.0706142738344253,0.573210000000472,
-0.0320823022460938,-0.0428562097167966,0.0701022246093732,0.0882057295411289,0.576184999999896,
-0.0320823022460938,0.0912190832519533,0.00545877978515463,0.0968503667699783,0.579123999999865,
0.0349553442382813,-0.0620098229980467,0.00306457812499872,0.0712494623007784,0.582151999999041,
0.00383072265625,-0.026096798095703,-0.0400310517578131,0.0479395704168665,0.585080000000744,
-0.0560243188476563,-0.0141257897949216,-0.0184832368164081,0.0606621157138917,0.588066000000254,
-0.005746083984375,0.000239420166015858,0.0294007963867173,0.0299579977859769,0.591022999999041,
-0.024899697265625,-0.0596156213378904,-0.0304542451171894,0.0714246335452998,0.593929999999091,
-0.0296881005859375,-0.0476446130371091,0.0150355864257801,0.0581159300624511,0.597001000000091,
-0.00335188232421875,0.00502782348632835,-0.0232716401367199,0.024043364131878,0.599947999999131,
-0.0560243188476563,-0.0213083947753905,-0.0041180268554708,0.0600810297467522,0.602942999999868,
-0.044053310546875,-0.0428562097167966,-0.020877438476564,0.064909293007798,0.60587200000009,
-0.0416591088867188,-0.00694318481445277,-0.0424252534179708,0.0598631046320033,0.608791999999085,
-0.0320823022460938,-0.00454898315429664,0.017429788085936,0.036793543969947,0.611822000000757,
0.00143652099609375,-0.0332794030761716,-0.0041180268554708,0.0335639748370317,0.614749000000302,
-0.0272938989257813,0.0241814367675783,-0.0520020600585944,0.0635130935559969,0.617766999999731,
-0.015322890625,-0.0141257897949216,-0.0352426484375012,0.040943536526848,0.620681000000332,
-0.0225054956054688,-0.00454898315429664,-0.0256658417968758,0.0344372765376141,0.623583000000508,
-0.0129286889648438,-0.00694318481445277,0.0389776030273428,0.0416486776677776,0.626580000000104,
-0.0464475122070312,-0.00694318481445277,0.0389776030273428,0.0610314078433972,0.62949800000024,
-0.0105344873046875,-0.0308852014160154,-0.0663672700195335,0.073955970814574,0.632493999999497,
-0.024899697265625,-0.0117315881347655,-0.0280600434570317,0.0393063750922678,0.635454999999638,
-0.0488417138671875,0.0122104284667972,0.05334281298828,0.0733489146090766,0.638476000000082,
-0.0201112939453125,0.0217872351074222,0.0150355864257801,0.0332447983442215,0.641583000000537,
-0.0272938989257813,-0.0237025964355466,-0.0352426484375012,0.0504857828031463,0.644577999999456,
-0.0225054956054688,-0.00933738647460913,-0.0472136567382826,0.0531301562318836,0.647570999999516,
-0.0512359155273438,0.0337582434082033,-0.00172382519531311,0.0613816716230228,0.650502000000415,
-0.00335188232421875,-0.00694318481445277,-0.0879150849609385,0.0882525075800801,0.653485999999248,
-0.03447650390625,0.0193930334472658,0.0461602080078105,0.0607904916184166,0.656465000000026,
-0.07278373046875,0.0193930334472658,0.0246123930664055,0.0792422302796285,0.659394000000248,
-0.0703895288085937,0.00981622680664085,-0.0639730683593758,0.095622160349621,0.662394999999378,
-0.0177170922851563,-0.00933738647460913,0.00785298144531055,0.0215116587644316,0.665338000000702,
-0.0416591088867188,-0.0476446130371091,-0.056790463378908,0.0850332125435847,0.668347999999241,
-0.0177170922851563,-0.0117315881347655,-0.0232716401367199,0.0315134059387034,0.671297999999297,
-0.0129286889648438,0.0169988317871097,0.0317949980468732,0.0383018691616584,0.674232999999731,
0.0158017309570313,-0.0189141931152341,-0.0184832368164081,0.0308070031916477,0.677281000000221,
-0.063206923828125,-0.0237025964355466,0.0126413847656242,0.0686784748403263,0.680226000000403,
-0.000957680664062498,0.0241814367675783,0.0341891997070292,0.0418874732229796,0.683264999999665,
-0.0416591088867188,-0.0284909997558591,-0.0232716401367199,0.0555768625866632,0.686196000000564,
-0.0272938989257813,-0.00933738647460913,0.00545877978515463,0.0293588484360301,0.689131999999518,
0.013407529296875,0.0169988317871097,-0.020877438476564,0.0300763954175983,0.692168999999922,
0.00622492431640626,-0.0141257897949216,-0.00651222851562672,0.0167540066943713,0.695107999999891,
-0.00814028564453125,0.000239420166015858,0.0102471831054682,0.0130891685751025,0.698143999999957,
-0.0488417138671875,0.0217872351074222,0.0365834013671869,0.064796156388346,0.701066999999966,
-0.0416591088867188,0.0193930334472658,-0.0615788666992199,0.0768344188725505,0.704001000000062,
-0.024899697265625,-0.00454898315429664,-0.0520020600585944,0.0578351313821929,0.707022000000507,
0.00143652099609375,-0.0476446130371091,-0.020877438476564,0.0520378725676867,0.709976000000097,
-0.00335188232421875,-0.0117315881347655,-0.0184832368164081,0.0221471288994895,0.712971999999354,
-0.0320823022460938,-0.0500388146972653,-0.0424252534179708,0.073027797593081,0.715910000000804,
-0.0177170922851563,-0.0213083947753905,0.0341891997070292,0.0440095946760676,0.718832000000475,
-0.000957680664062498,-0.0117315881347655,-0.00651222851562672,0.0134520047821071,0.721829000000071,
-0.0464475122070312,-0.0141257897949216,-0.0113006318359385,0.049845898602032,0.724740999999995,
-0.0201112939453125,0.00742202514648471,-0.0400310517578131,0.0454096433179839,0.727750000000015,
-0.015322890625,-0.00694318481445277,0.000670376464842803,0.016835919846506,0.730685000000449,
-0.00335188232421875,-0.016519991455078,-0.0256658417968758,0.0307063620107221,0.73359100000016,
-0.024899697265625,0.00263362182617222,0.0150355864257801,0.0292061594019167,0.736617000000479,
0.00143652099609375,0.0313640417480472,-0.00651222851562672,0.0320651809223838,0.739582000000155,
-0.0105344873046875,0.00742202514648471,-0.00172382519531311,0.0130012866037046,0.742592000000514,
-0.0272938989257813,0.00742202514648471,-0.056790463378908,0.0634444647438759,0.745522999999594,
-0.0464475122070312,0.00502782348632835,0.0557370146484359,0.0727273346215297,0.748532999999952,
0.00383072265625,-0.0428562097167966,-0.0496078583984385,0.0656678670449915,0.751464999999371,
-0.0320823022460938,0.0122104284667972,0.0413718046874987,0.0537586728245129,0.754420999999638,
0.0110133276367188,-0.0380678063964841,-0.0496078583984385,0.0634932349495081,0.757432000000335,
-0.044053310546875,-0.0332794030761716,0.0365834013671869,0.0662310961319409,0.760388999999122,
-0.0392649072265625,-0.0189141931152341,-0.056790463378908,0.0715865655797373,0.763391000000411,
-0.00335188232421875,-0.0141257897949216,0.000670376464842803,0.0145334943165894,0.766335000000254,
-0.0105344873046875,0.0169988317871097,0.000670376464842803,0.0200096254213738,0.769281000000774,
-0.044053310546875,0.00263362182617222,0.0270065947265614,0.0517396008178207,0.77231699999902,
-0.000957680664062498,-0.026096798095703,-0.0424252534179708,0.0498182913263918,0.775315999999293,
-0.0129286889648438,0.000239420166015858,-0.0136948334960945,0.0188349883156672,0.778432999999495,
-0.0129286889648438,-0.00933738647460913,0.00306457812499872,0.0162397482619069,0.781442999999854,
-0.0392649072265625,-0.016519991455078,-0.0136948334960945,0.044745854798765,0.784418999999616,
-0.0272938989257813,-0.016519991455078,-0.0543962617187521,0.0630620355302744,0.787411999999676,
-0.015322890625,-0.0332794030761716,0.0509486113281241,0.0627540488134134,0.790345999999772,
-0.0177170922851563,0.0169988317871097,0.0629196196289055,0.0675406113047057,0.793386999999711,
-0.00814028564453125,-0.0213083947753905,0.0629196196289055,0.0669267545345252,0.79634199999964,
-0.03447650390625,-0.00215478149414028,0.0796790312499986,0.0868448065564281,0.799272000000201,
-0.015322890625,0.000239420166015858,-0.0160890351562522,0.0222194813481486,0.802309999999125,
-0.0368707055664063,-0.0189141931152341,-0.0280600434570317,0.0500455958998941,0.805260999999518,
-0.0392649072265625,-0.00694318481445277,-0.0328484467773453,0.0516619899980856,0.808289000000514,
-0.024899697265625,-0.0667982263183592,-0.0376368500976572,0.0806134631961189,0.811224999999467,
-0.0296881005859375,-0.0189141931152341,-0.00890643017578263,0.0363105289974851,0.81418499999927,
-0.0129286889648438,0.00502782348632835,-0.0160890351562522,0.0212435180612455,0.817251000000397,
-0.0584185205078125,-0.00933738647460913,-0.0136948334960945,0.0607244496803691,0.820173000000068,
-0.005746083984375,0.0122104284667972,-0.0256658417968758,0.0289973702193926,0.82320400000026,
-0.0129286889648438,-0.0500388146972653,-0.0304542451171894,0.0599874571916062,0.826119999999719,
-0.0416591088867188,-0.00454898315429664,-0.0400310517578131,0.0579539446958555,0.829037999999855,
-0.005746083984375,-0.0380678063964841,-0.0280600434570317,0.047639704069255,0.832026000000042,
-0.0416591088867188,0.000239420166015858,-0.0184832368164081,0.0455759664567062,0.834983999999167,
-0.0296881005859375,-0.0524330163574216,-0.0280600434570317,0.0664678159679472,0.83802199999991,
-0.0225054956054688,-0.0380678063964841,-0.0376368500976572,0.0580705407376364,0.840959999999541,
-0.0129286889648438,-0.0141257897949216,-0.0041180268554708,0.0195869109576361,0.843944000000192,
-0.0177170922851563,-0.0237025964355466,0.0509486113281241,0.0589191771250362,0.846879000000627,
-0.0272938989257813,-0.0500388146972653,-0.0232716401367199,0.0615662986505687,0.849777999999787,
-0.0368707055664063,-0.0237025964355466,0.00306457812499872,0.0439392039736182,0.852806999999302,
-0.0201112939453125,0.000239420166015858,0.0365834013671869,0.0417476552846186,0.855750000000626,
-0.0272938989257813,0.00502782348632835,-0.0256658417968758,0.0378017375622166,0.858743000000686,
-0.0392649072265625,-0.0117315881347655,0.00545877978515463,0.0413420049878709,0.861698999999135,
0.013407529296875,0.000239420166015858,-0.0591846650390639,0.0606847900189879,0.864633999999569,
-0.0177170922851563,-0.0213083947753905,0.00545877978515463,0.0282443148914511,0.867655000000013,
-0.0320823022460938,-0.026096798095703,0.017429788085936,0.0448788870291837,0.870601000000534,
-0.0272938989257813,-0.016519991455078,0.0102471831054682,0.0335092792796802,0.873618999999962,
-0.00814028564453125,-0.0189141931152341,-0.00890643017578263,0.022435138734829,0.876527000000351,
0.0181959326171875,-0.00933738647460913,-0.0376368500976572,0.0428346966285388,0.879451000000699,
-0.0201112939453125,-0.0476446130371091,-0.0448194550781267,0.0684343250796765,0.882440999999744,
0.00383072265625,0.0122104284667972,-0.0735498750000012,0.0746548934225191,0.885405999999421,
-0.0416591088867188,0.00742202514648471,-0.0496078583984385,0.0652035844520074,0.888445000000502,
-0.0368707055664063,-0.0284909997558591,-0.0041180268554708,0.0467776029872776,0.891385999999329,
-0.0272938989257813,-0.0404620080566404,0.00545877978515463,0.0491113967556331,0.894308999999339,
-0.0177170922851563,-0.0356736047363279,-0.0328484467773453,0.0516286925033802,0.897311000000627,
0.00383072265625,-0.0572214196777341,0.0270065947265614,0.0633902316191479,0.900257999999667,
-0.0105344873046875,-0.0189141931152341,-0.0448194550781267,0.0497745484909025,0.903254000000743,
-0.0105344873046875,0.00742202514648471,-0.0232716401367199,0.0266013367089074,0.906186000000162,
-0.0129286889648438,-0.0332794030761716,-0.0041180268554708,0.0359392238736224,0.909088000000338,
-0.0201112939453125,-0.00454898315429664,0.0126413847656242,0.0241859876929885,0.912140000000363,
-0.0201112939453125,0.00981622680664085,0.00545877978515463,0.0230352063072374,0.915193999999246,
0.0277727392578125,-0.00694318481445277,-0.0328484467773453,0.0435723916825113,0.918294999999489,
-0.024899697265625,-0.00215478149414028,-0.0184832368164081,0.031084852427166,0.921314999999595,
-0.0105344873046875,-0.0189141931152341,-0.00890643017578263,0.0234103956064199,0.924230999999054,
-0.0129286889648438,-0.0380678063964841,-0.0424252534179708,0.0584483619083453,0.927220999999918,
-0.005746083984375,-0.0189141931152341,-0.0496078583984385,0.053401346399088,0.930135999999038,
-0.00335188232421875,-0.00454898315429664,0.0198239897460919,0.0206135618539505,0.933164000000033,
0.0086191259765625,-0.0284909997558591,0.0317949980468732,0.0435539699739173,0.936136000000261,
-0.00814028564453125,-0.0620098229980467,-0.0400310517578131,0.0742560940493125,0.939104999999472,
-0.000957680664062498,-0.0452504113769528,0.0198239897460919,0.0494116125166032,0.942031999999017,
-0.0201112939453125,0.0146046301269533,-0.0687614716796894,0.0731156573714317,0.944976999999199,
-0.0368707055664063,0.00263362182617222,-0.0472136567382826,0.0599626073106256,0.948013999999603,
0.0205901342773438,-0.0213083947753905,0.00306457812499872,0.0297891415879537,0.950990999999703,
-0.0416591088867188,-0.0213083947753905,0.0126413847656242,0.0484699252107112,0.95401800000036,
-0.0296881005859375,-0.0548272180175778,-0.0376368500976572,0.0728281514060413,0.957006999999066,
-0.0320823022460938,-0.026096798095703,-0.0113006318359385,0.0428721502627175,0.959939000000304,
-0.000957680664062498,-0.0404620080566404,-0.0256658417968758,0.0479252197008235,0.962945999999647,
-0.0177170922851563,-0.0308852014160154,0.0246123930664055,0.0432846499119934,0.965885999999955,
-0.005746083984375,-0.0284909997558591,-0.0256658417968758,0.038774862777141,0.968877999999677,
-0.0201112939453125,-0.0572214196777341,0.0844674345703105,0.103987992176885,0.971800999999687,
-0.0392649072265625,-0.0380678063964841,0.0102471831054682,0.0556407726846757,0.974733999999444,
-0.0225054956054688,0.0241814367675783,-0.0280600434570317,0.0433428801004579,0.977747999999337,
-0.00335188232421875,-0.00694318481445277,-0.0280600434570317,0.0290999822902621,0.980654999999388,
-0.0392649072265625,0.0122104284667972,-0.056790463378908,0.0701140801383319,0.983689000000595,
-0.0129286889648438,-0.0284909997558591,-0.00651222851562672,0.0319577406222308,0.986614999999802,
-0.0464475122070312,0.00502782348632835,-0.0232716401367199,0.0521940574575783,0.989524000000529,
-0.0177170922851563,-0.0213083947753905,-0.0280600434570317,0.0394374071885455,0.992533000000549,
-0.00335188232421875,-0.00215478149414028,-0.0232716401367199,0.0236103247130549,0.995434000000387,
-0.0225054956054688,0.00263362182617222,0.00306457812499872,0.0228653654126779,0.998471000000791,
-0.005746083984375,-0.0117315881347655,-0.0520020600585944,0.0536177385914114,1.00137899999936,
-0.00335188232421875,-0.00454898315429664,-0.0232716401367199,0.0239478098686806,1.00428199999988,
-0.063206923828125,-0.00694318481445277,-0.00651222851562672,0.0639197321288332,1.00727200000074,
-0.0177170922851563,-0.0524330163574216,-0.00890643017578263,0.0560574799813056,1.01021600000058,
