X,Y,Z,Magnitude,Seconds,
0.00383072265625,-0.0141257897949216,0.0102471831054682,0.0178666486783731,0.0,
-0.005746083984375,-0.0284909997558591,-0.00651222851562672,0.0297852928218542,0.00370700000166835,
-0.00814028564453125,-0.0189141931152341,0.0150355864257801,0.0254966627373473,0.00750700000025972,
-0.0584185205078125,-0.00215478149414028,-0.00890643017578263,0.0591328260789664,0.0112189999999828,
-0.0536301171875,0.0193930334472658,-0.0472136567382826,0.0740365355647611,0.0151940000014292,
-0.015322890625,0.00981622680664085,-0.00172382519531311,0.0182789731420866,0.019030000001294,
-0.005746083984375,0.00263362182617222,-0.0328484467773453,0.0334510672589511,0.0228500000011991,
-0.03447650390625,0.000239420166015858,-0.0615788666992199,0.0705736740404937,0.026664000000892,
-0.0177170922851563,0.00263362182617222,-0.0400310517578131,0.0438556316543354,0.0304520000008779,
-0.0392649072265625,-0.0141257897949216,-0.0615788666992199,0.0743856686519733,0.0344030000014754,
0.032561142578125,-0.016519991455078,-0.00651222851562672,0.0370883707367765,0.0382150000004913,
-0.0225054956054688,-0.026096798095703,-0.0376368500976572,0.051030115506132,0.0419610000008106,
-0.0416591088867188,-0.00215478149414028,0.00545877978515463,0.0420704494065109,0.0457880000012665,
-0.0512359155273438,-0.0476446130371091,-0.0927034882812521,0.116142433808205,0.0495420000006561,
-0.005746083984375,-0.0213083947753905,-0.0328484467773453,0.0395737997258725,0.0532940000011877,
0.00143652099609375,0.00263362182617222,0.0150355864257801,0.015331941027235,0.0571500000005472,
-0.0368707055664063,-0.016519991455078,0.0724964262695291,0.0829945231234793,0.060949000000619,
-0.0488417138671875,-0.00454898315429664,0.0844674345703105,0.0976778058932118,0.0646930000002612,
-0.0488417138671875,0.0217872351074222,-0.0184832368164081,0.0565846858286032,0.068423000000621,
-0.0225054956054688,-0.026096798095703,-0.0400310517578131,0.0528206901519884,0.0721220000014,
-0.03447650390625,-0.0213083947753905,-0.00890643017578263,0.0414970060122131,0.0758390000009967,
-0.0272938989257813,-0.0308852014160154,-0.0855208833007826,0.09493510449578,0.079529000000548,
-0.024899697265625,-0.0380678063964841,0.00785298144531055,0.0461608289065563,0.0834590000013122,
-0.000957680664062498,-0.0644040246582029,0.0317949980468732,0.0718311732135109,0.0874380000004749,
-0.005746083984375,-0.0189141931152341,0.0222181914062478,0.0297390687769561,0.0912000000007538,
-0.0703895288085937,-0.0380678063964841,0.000670376464842803,0.0800268270915489,0.0949790000013309,
-0.0320823022460938,-0.0452504113769528,-0.0136948334960945,0.057135123275258,0.0987660000009782,
0.0181959326171875,-0.00933738647460913,0.000670376464842803,0.0204628481544006,0.102608000001055,
-0.0296881005859375,-0.0284909997558591,0.0246123930664055,0.0479467441641698,0.106517000000167,
-0.015322890625,-0.0284909997558591,0.0389776030273428,0.0506535446138885,0.110331000001679,
-0.044053310546875,0.0241814367675783,0.0126413847656242,0.0518193078212779,0.114118000001326,
-0.0608127221679688,0.00263362182617222,-0.0520020600585944,0.080058337428025,0.117870000000039,
-0.00814028564453125,-0.0332794030761716,-0.0184832368164081,0.0389283054176814,0.121632000000318,
-0.0129286889648438,-0.0404620080566404,-0.0184832368164081,0.0463244550700461,0.125341000000844,
-0.0416591088867188,-0.0117315881347655,-0.00651222851562672,0.0437666612119202,0.129143000000113,
0.0086191259765625,-0.00933738647460913,0.00306457812499872,0.013071639448068,0.132889000000432,
-0.0105344873046875,-0.00454898315429664,-0.0615788666992199,0.0626388497218059,0.136578999999983,
-0.0464475122070312,0.000239420166015858,-0.056790463378908,0.0733661055462896,0.140299000000596,
-0.005746083984375,-0.0237025964355466,-0.0280600434570317,0.0371779046982531,0.144001000000571,
-0.0105344873046875,-0.0237025964355466,-0.00172382519531311,0.025995385626357,0.14770000000135,
-0.0201112939453125,-0.00933738647460913,-0.0759440766601571,0.0791148134681161,0.151401000000988,
-0.063206923828125,-0.0141257897949216,-0.0448194550781267,0.078761898851189,0.155393000000913,
0.00383072265625,-0.0308852014160154,-0.0663672700195335,0.0733020097434075,0.159273000001122,
-0.0392649072265625,0.000239420166015858,0.0150355864257801,0.0420459168135689,0.163032000000385,
-0.0656011254882813,0.0122104284667972,0.00785298144531055,0.0671883289437413,0.166798000000199,
-0.0201112939453125,0.000239420166015858,-0.0328484467773453,0.0385167745515476,0.170536999999968,
-0.0201112939453125,0.0169988317871097,-0.0615788666992199,0.066972988960039,0.174347000000125,
-0.00814028564453125,0.0169988317871097,0.0150355864257801,0.0241100267869639,0.178230000001349,
0.0086191259765625,0.0217872351074222,-0.0328484467773453,0.0403484002397869,0.182032000000618,
-0.0368707055664063,-0.0237025964355466,0.0222181914062478,0.0491417341586118,0.185803000000305,
-0.0775721337890625,-0.0189141931152341,0.00545877978515463,0.0800311246861582,0.18956900000012,
-0.015322890625,0.0122104284667972,-0.0376368500976572,0.0424313330655778,0.193308000001707,
-0.0296881005859375,-0.0284909997558591,0.00306457812499872,0.0412615077593309,0.197095000001354,
-0.0320823022460938,0.0146046301269533,0.00306457812499872,0.0353830606030491,0.200885000000198,
-0.0129286889648438,-0.0332794030761716,-0.0304542451171894,0.0469268655794719,0.204706000000442,
-0.0368707055664063,0.0313640417480472,0.00785298144531055,0.0490389779799524,0.208467000000383,
-0.024899697265625,-0.0213083947753905,0.0653138212890614,0.0730748784686168,0.212181000000783,
-0.0177170922851563,0.00742202514648471,-0.00890643017578263,0.0211732452588611,0.215902000001734,
-0.0320823022460938,0.0265756384277347,-0.0184832368164081,0.0455759664567064,0.219645000001037,
0.0086191259765625,0.0169988317871097,-0.0520020600585944,0.0553846898074185,0.223426000000472,
-0.0368707055664063,-0.0308852014160154,0.000670376464842803,0.0481019126446867,0.227534000001469,
-0.0775721337890625,-0.0284909997558591,0.05334281298828,0.0983596904487768,0.231351000000359,
-0.0536301171875,0.0217872351074222,-0.0041180268554708,0.058033018432212,0.235153999999966,
-0.000957680664062498,-0.0141257897949216,-0.0041180268554708,0.0147449392934325,0.238928000000669,
-0.0536301171875,-0.0404620080566404,-0.0160890351562522,0.069081260974158,0.24275100000159,
-0.00814028564453125,-0.0141257897949216,-0.0113006318359385,0.0198369974440766,0.246585000000778,
0.00143652099609375,0.00981622680664085,-0.0041180268554708,0.0107415104372714,0.250519000001077,
-0.0512359155273438,-0.026096798095703,0.0126413847656242,0.0588724597716585,0.254335999999967,
-0.0464475122070312,-0.0117315881347655,-0.0448194550781267,0.0656032400410704,0.258130000000165,
-0.024899697265625,0.0169988317871097,-0.0304542451171894,0.0428534275374103,0.261942000001,
-0.0488417138671875,0.00502782348632835,-0.0256658417968758,0.0554033163053995,0.265712000000349,
-0.0129286889648438,0.0265756384277347,-0.095097689941408,0.0995840659361905,0.269462000000203,
-0.0560243188476563,-0.0213083947753905,0.0317949980468732,0.0678505260926429,0.27321800000027,
-0.0488417138671875,-0.0500388146972653,-0.056790463378908,0.090080812166535,0.27702600000157,
0.0253785375976563,0.0696712683105472,-0.0711556733398453,0.102768115906845,0.280778000000282,
-0.0177170922851563,-0.026096798095703,0.0246123930664055,0.0400088505501455,0.284485000000132,
-0.101514150390625,-0.184114107666015,-0.0472136567382826,0.215481453387023,0.288195000000997,
-0.0225054956054688,0.239659586181641,-0.0328484467773453,0.242944921817451,0.291906000000381,
0.0995987890625,-0.0237025964355466,-0.020877438476564,0.104487316444846,0.29577000000063,
-0.0799663354492188,-0.27030536743164,-0.095097689941408,0.297494835416891,0.299754000001485,
-0.230801040039063,0.356975467529297,0.0940442412109359,0.435367573213502,0.303387000001749,
0.00622492431640626,-0.0715866296386717,-0.0687614716796894,0.0994561974606211,0.306350000000748,
0.221703073730469,-0.222421334228515,-0.154952731445315,0.350191164657098,0.309294000000591,
-0.0320823022460938,0.40007109741211,0.12277466113281,0.419713919852816,0.312347000000955,
-0.120667763671875,-0.15538368774414,0.000670376464842803,0.196736496388303,0.315309000001434,
-0.03447650390625,-0.375650240478515,-0.114251303222657,0.394151103995967,0.318339000001288,
-0.0679953271484375,0.325850845947266,0.0581312163085919,0.337907349177387,0.321313000000373,
0.145088620605469,0.0433350500488283,0.00306457812499872,0.151453048932718,0.324321000000054,
0.0876277807617187,-0.246363350830078,-0.0520020600585944,0.26660409382413,0.327363000000332,
-0.147003981933594,0.11276689819336,-0.0496078583984385,0.191800635158916,0.330324000000473,
-0.175734401855469,0.0744596716308596,-0.0160890351562522,0.191535061404261,0.333370000000286,
0.00383072265625,-0.15538368774414,0.0748906279296868,0.17253223178508,0.336347000000387,
0.090021982421875,0.0241814367675783,0.00785298144531055,0.0935434044756184,0.339313000000402,
-0.00335188232421875,0.0624886633300783,-0.0663672700195335,0.0912177761718677,0.342333000000508,
-0.0799663354492188,-0.0691924279785154,0.0605254179687496,0.121842246840047,0.345275000001493,
-0.0799663354492188,-0.121864864501953,-0.00172382519531311,0.145769103648751,0.348292000000583,
-0.015322890625,0.0912190832519533,0.00306457812499872,0.0925478458178078,0.351282000001447,
0.0349553442382813,0.0648828649902347,0.00785298144531055,0.0741170127415977,0.354262000000745,
0.0541089575195313,-0.0763750329589842,0.0198239897460919,0.0956760968726751,0.357309000000896,
-0.063206923828125,0.000239420166015858,-0.0520020600585944,0.0818497818700084,0.360255000001416,
-0.0751779321289062,-0.00933738647460913,0.00306457812499872,0.0758175435136148,0.363283000000592,
-0.0320823022460938,-0.0787692346191404,0.0102471831054682,0.0856672119395273,0.366267000001244,
0.04213794921875,-0.0189141931152341,-0.00651222851562672,0.0466450703269066,0.369293000001562,
-0.0225054956054688,0.0840364782714846,0.00545877978515463,0.0871689468186022,0.372287000000142,
-0.0488417138671875,-0.0452504113769528,-0.0041180268554708,0.0667088516499127,0.37520300000142,
-0.0512359155273438,-0.0428562097167966,0.00545877978515463,0.0670191914898857,0.3782280000014,
-0.0560243188476563,0.0409408483886722,-0.0113006318359385,0.0703034967054948,0.381215000001248,
-0.0177170922851563,0.0265756384277347,0.0102471831054682,0.033543474454496,0.384263000001738,
0.0181959326171875,-0.0859518395996092,-0.0041180268554708,0.0879532196087701,0.387235000000146,
0.00143652099609375,-0.00215478149414028,0.0294007963867173,0.0295146320328226,0.390194000001429,
-0.0703895288085937,0.0553060583496097,-0.0184832368164081,0.0914061042779841,0.393226000000141,
-0.0368707055664063,-0.00454898315429664,-0.0136948334960945,0.0395940733088735,0.396190000001297,
0.0158017309570313,-0.0356736047363279,-0.0472136567382826,0.0612489196535133,0.399234000000433,
0.0229843359375,-0.00694318481445277,0.0294007963867173,0.0379591140838233,0.402212000000873,
-0.0512359155273438,-0.00215478149414028,-0.126222311523438,0.136241821954687,0.405135000000882,
-0.0296881005859375,-0.0596156213378904,-0.0400310517578131,0.0777038655971515,0.408190000000104,
-0.0464475122070312,0.00981622680664085,-0.0711556733398453,0.0855386435910022,0.411175000001094,
0.0110133276367188,-0.0141257897949216,0.0461602080078105,0.0495135953682255,0.414223000001584,
-0.00335188232421875,-0.0141257897949216,-0.0448194550781267,0.0471121704652411,0.417171000000963,
0.0086191259765625,-0.0572214196777341,-0.0615788666992199,0.0845016983645626,0.420115000000806,
-0.063206923828125,0.0122104284667972,0.0150355864257801,0.0661080830331985,0.42325400000118,
-0.0177170922851563,-0.0452504113769528,0.0102471831054682,0.0496638686614444,0.426300000000992,
-0.0296881005859375,-0.0500388146972653,0.017429788085936,0.0607376638127335,0.429458000000523,
-0.0201112939453125,0.00263362182617222,-0.0639730683593758,0.0671115011260471,0.432507000001351,
-0.0201112939453125,-0.0380678063964841,-0.0831266816406266,0.0936144605740857,0.435419000001275,
-0.0225054956054688,-0.0691924279785154,-0.0041180268554708,0.0728769343976007,0.438422000001083,
-0.005746083984375,-0.00215478149414028,0.0844674345703105,0.0846900706537234,0.441381000000547,
-0.0368707055664063,0.0122104284667972,-0.0591846650390639,0.0707910168601468,0.444447000001674,
-0.0320823022460938,-0.00454898315429664,-0.0184832368164081,0.0373041205278882,0.447401000001264,
-0.015322890625,-0.0117315881347655,-0.0400310517578131,0.0444399172153391,0.450338000000556,
-0.0201112939453125,-0.0237025964355466,0.0437660063476546,0.053681845474649,0.453364000000875,
-0.0225054956054688,-0.00454898315429664,-0.0041180268554708,0.0233269956352769,0.456307000000379,
-0.0272938989257813,-0.0213083947753905,0.0102471831054682,0.0361110698826779,0.45934699999998,
0.0158017309570313,-0.00933738647460913,0.0988326445312495,0.100522500528265,0.462335000000166,
-0.0225054956054688,0.00742202514648471,-0.00172382519531311,0.0237603737981291,0.465391000001546,
-0.0201112939453125,-0.00215478149414028,-0.0232716401367199,0.0308330417262917,0.468338000000585,
-0.0488417138671875,-0.0380678063964841,0.0102471831054682,0.0627668356612105,0.471269000001485,
-0.0201112939453125,0.00502782348632835,0.017429788085936,0.0270839558758516,0.474327000001722,
-0.0225054956054688,0.000239420166015858,-0.0424252534179708,0.0480255846611232,0.477293000001737,
-0.024899697265625,-0.016519991455078,-0.0472136567382826,0.0558751682252143,0.48029200000019,
-0.03447650390625,-0.0284909997558591,0.00785298144531055,0.0454096433179829,0.483267999999953,
-0.0272938989257813,-0.0284909997558591,0.0270065947265614,0.0478126567383979,0.486223000001701,
-0.0225054956054688,-0.0141257897949216,-0.0113006318359385,0.0288745484755955,0.489226000001509,
-0.0225054956054688,0.0169988317871097,0.00545877978515463,0.0287272673833944,0.492215000000215,
-0.0129286889648438,0.00981622680664085,-0.0615788666992199,0.0636825418072283,0.495262000000366,
0.0181959326171875,-0.0332794030761716,-0.0160890351562522,0.0412003359837592,0.498226000001523,
-0.0296881005859375,-0.0308852014160154,-0.0520020600585944,0.0673757614669121,0.501197000001412,
-0.0201112939453125,0.0122104284667972,-0.00651222851562672,0.0244124523089606,0.504252000000633,
-0.0177170922851563,-0.0141257897949216,-0.0328484467773453,0.0399055604152497,0.507206000000224,
-0.0177170922851563,-0.0141257897949216,0.017429788085936,0.0285872490647787,0.510235000001558,
-0.03447650390625,0.0122104284667972,0.0509486113281241,0.0627175005975581,0.513216000001194,
-0.0416591088867188,-0.0308852014160154,-0.0831266816406266,0.0979766411974069,0.516152000000147,
-0.0464475122070312,-0.0380678063964841,-0.0136948334960945,0.0615960854157816,0.519180000001143,
0.00383072265625,-0.00694318481445277,0.00545877978515463,0.00962707266927842,0.522162000001117,
-0.0201112939453125,0.00981622680664085,0.000670376464842803,0.0223891013102088,0.525206000000253,
-0.03447650390625,-0.00933738647460913,-0.0663672700195335,0.0753686316554809,0.528165000001536,
-0.0272938989257813,-0.00694318481445277,0.017429788085936,0.0331204203877162,0.531123000000662,
-0.0201112939453125,-0.00215478149414028,0.0294007963867173,0.0356863286934291,0.534143000000768,
-0.00814028564453125,-0.0572214196777341,0.0365834013671869,0.0684024880826906,0.5370950000015,
-0.024899697265625,-0.016519991455078,-0.0113006318359385,0.0319469767190426,0.540113000000929,
-0.0536301171875,0.0289698400878908,-0.00172382519531311,0.0609787887512285,0.543078000000605,
-0.0201112939453125,-0.016519991455078,-0.0639730683593758,0.0690646634476994,0.546013000001039,
-0.0584185205078125,-0.0452504113769528,-0.020877438476564,0.0767866570795206,0.549017000001186,
0.00143652099609375,0.0337582434082033,-0.0376368500976572,0.0505788006565323,0.552005000001373,
-0.024899697265625,-0.0332794030761716,-0.0136948334960945,0.0437614220234195,0.555023000000801,
-0.00814028564453125,-0.00694318481445277,-0.0352426484375012,0.0368309154737093,0.557958000001236,
-0.0584185205078125,-0.0380678063964841,-0.0591846650390639,0.0914587666544225,0.560996000000159,
-0.00814028564453125,-0.00933738647460913,0.0270065947265614,0.029712071541303,0.564063000001624,
0.0181959326171875,-0.0117315881347655,-0.0232716401367199,0.0317850807553794,0.567101000000548,
-0.0272938989257813,-0.0237025964355466,-0.0256658417968758,0.0443340211519258,0.570215000001554,
-0.024899697265625,-0.0356736047363279,0.00306457812499872,0.043611840569824,0.573198000000048,
-0.0296881005859375,0.00502782348632835,-0.0855208833007826,0.0906668837335688,0.576256000000285,
-0.005746083984375,-0.0476446130371091,-0.0184832368164081,0.0514262255646161,0.579236000001401,
-0.015322890625,0.000239420166015858,0.0461602080078105,0.0486375688377405,0.582204000000274,
-0.0177170922851563,0.00502782348632835,-0.0113006318359385,0.0216073748507737,0.585254999999961,
0.0205901342773438,-0.00933738647460913,-0.0591846650390639,0.0633558599619756,0.588215000001583,
-0.0320823022460938,0.00742202514648471,-0.0472136567382826,0.0575629217229732,0.591278000001694,
-0.0512359155273438,-0.00454898315429664,0.0270065947265614,0.0580961999307004,0.594239000000016,
-0.0177170922851563,-0.0308852014160154,-0.00651222851562672,0.036196686944917,0.597196000000622,
0.00622492431640626,-0.00215478149414028,0.00545877978515463,0.0085551763731257,0.600247000000309,
-0.0296881005859375,-0.0428562097167966,-0.0160890351562522,0.0545609299769525,0.60327099999995,
-0.0201112939453125,-0.0213083947753905,-0.104674496582033,0.108698031568013,0.606324000000313,
-0.0392649072265625,-0.00694318481445277,-0.0184832368164081,0.0439496393396991,0.609285000000455,
-0.0201112939453125,0.00263362182617222,-0.0136948334960945,0.0244734258444502,0.612250000000131,
-0.015322890625,-0.026096798095703,-0.0376368500976572,0.0482945787146665,0.615255000000616,
-0.0129286889648438,0.00263362182617222,0.0222181914062478,0.0258405687173798,0.618235000001732,
0.0253785375976563,-0.0476446130371091,-0.0735498750000012,0.0912341133270189,0.62126200000057,
-0.0225054956054688,-0.00215478149414028,-0.0376368500976572,0.043905271904508,0.624211000000287,
-0.00335188232421875,-0.0189141931152341,0.00306457812499872,0.0194518239607498,0.627159000001484,
-0.00814028564453125,-0.0332794030761716,-0.00890643017578263,0.0353992573079853,0.630165000000488,
-0.0201112939453125,0.0193930334472658,-0.00172382519531311,0.0279915248556689,0.633150000001478,
-0.0368707055664063,-0.026096798095703,-0.0160890351562522,0.0479515260661392,0.63618200000019,
-0.0320823022460938,0.00502782348632835,-0.0927034882812521,0.0982267268411792,0.639177000000927,
-0.0201112939453125,-0.00454898315429664,0.0126413847656242,0.0241859876929885,0.642127000000983,
-0.0608127221679688,-0.0476446130371091,-0.00651222851562672,0.0775280945797984,0.64512300000024,
-0.0320823022460938,-0.0117315881347655,-0.056790463378908,0.0662726263880086,0.648081000001184,
-0.0272938989257813,-0.00694318481445277,0.000670376464842803,0.0281711579198127,0.651114000000234,
-0.015322890625,0.00981622680664085,-0.0376368500976572,0.0418052840093049,0.654062999999951,
-0.00814028564453125,0.000239420166015858,0.000670376464842803,0.00817135098958989,0.657100000000355,
-0.015322890625,0.00742202514648471,-0.0759440766601571,0.0778291732844734,0.660079000001133,
-0.0225054956054688,-0.00694318481445277,-0.0400310517578131,0.0464455622492842,0.663004000000001,
-0.03447650390625,-0.0572214196777341,-0.056790463378908,0.0876816795135913,0.666016000001036,
-0.0584185205078125,0.00742202514648471,-0.0543962617187521,0.0801670960218202,0.668985000000248,
-0.0177170922851563,-0.0213083947753905,0.0246123930664055,0.0370636336507887,0.671989000000394,
-0.00814028564453125,0.0193930334472658,0.0198239897460919,0.0289023280397011,0.674958999999944,
-0.0296881005859375,0.00502782348632835,-0.0496078583984385,0.0580310429019671,0.677933000000849,
0.00143652099609375,-0.026096798095703,-0.078338278320313,0.0825832447510446,0.680972000000111,
-0.0368707055664063,-0.00454898315429664,0.0437660063476546,0.0574073644084593,0.683942999999999,
-0.03447650390625,-0.0284909997558591,-0.0304542451171894,0.0541094024578344,0.686964000000444,
-0.024899697265625,0.0169988317871097,-0.0807324799804707,0.086178236985003,0.68992900000012,
-0.0488417138671875,-0.0284909997558591,0.00785298144531055,0.0570869459522313,0.692853000000468,
-0.0608127221679688,-0.0237025964355466,-0.0304542451171894,0.0720240328010228,0.695850000000064,
0.00143652099609375,0.00981622680664085,0.000670376464842803,0.00994340514593707,0.698849000000337,
0.00383072265625,-0.0284909997558591,-0.00890643017578263,0.0300954481879497,0.701944000000367,
-0.00335188232421875,-0.0141257897949216,0.0389776030273428,0.0415935883304487,0.705004000001281,
-0.0177170922851563,-0.00694318481445277,-0.00890643017578263,0.0210101802201809,0.70802200000071,
-0.0392649072265625,-0.0117315881347655,0.00545877978515463,0.0413420049878709,0.711123000000953,
-0.0488417138671875,-0.0308852014160154,-0.0472136567382826,0.0746226377354247,0.714057000001048,
-0.044053310546875,-0.0189141931152341,-0.00890643017578263,0.0487623355656378,0.717085000000225,
-0.0177170922851563,0.0217872351074222,-0.00172382519531311,0.0281345080989668,0.72005000000172,
-0.000957680664062498,0.00263362182617222,0.0294007963867173,0.029534047205739,0.723039000000426,
-0.0129286889648438,0.000239420166015858,0.017429788085936,0.021702668801007,0.726077000001169,
-0.00814028564453125,-0.0380678063964841,-0.00890643017578263,0.0399342789178777,0.729027000001224,
-0.0392649072265625,0.00742202514648471,-0.0232716401367199,0.0462427143606277,0.732089000000997,
-0.0536301171875,-0.0141257897949216,0.0294007963867173,0.0627704885678653,0.735040000001391,
-0.0320823022460938,0.0122104284667972,-0.0352426484375012,0.0491976925235503,0.738027000001239,
-0.03447650390625,-0.0189141931152341,0.0341891997070292,0.0521083237055767,0.741077000000587,
-0.0320823022460938,-0.0284909997558591,-0.00651222851562672,0.0433983905777371,0.744077000001198,
-0.0320823022460938,0.0337582434082033,-0.0807324799804707,0.093202073148693,0.747157000001607,
-0.0368707055664063,-0.0213083947753905,0.05334281298828,0.0682565184753158,0.750143000001117,
-0.03447650390625,-0.0452504113769528,-0.00651222851562672,0.057259393741297,0.753169000001435,
-0.024899697265625,0.0337582434082033,-0.056790463378908,0.0706029082454708,0.756150000001071,
-0.0536301171875,0.000239420166015858,-0.056790463378908,0.0781114813734317,0.759085000001505,
-0.0105344873046875,0.000239420166015858,-0.020877438476564,0.0233858970777525,0.762142000001404,
0.00383072265625,-0.0189141931152341,-0.0591846650390639,0.0622514715734148,0.765104000000065,
-0.0296881005859375,-0.0117315881347655,-0.0543962617187521,0.0630711246573223,0.76814800000102,
-0.015322890625,0.0265756384277347,-0.0352426484375012,0.0467236535797096,0.771138000000064,
-0.0560243188476563,-0.0237025964355466,-0.0855208833007826,0.104949315675122,0.774062000000413,
-0.0272938989257813,0.00742202514648471,-0.0280600434570317,0.0398423068440612,0.77709700000014,
-0.0272938989257813,-0.0332794030761716,-0.0041180268554708,0.0432369486996879,0.780040999999983,
-0.0201112939453125,-0.00215478149414028,0.00785298144531055,0.0216973856725331,0.783061000000089,
-0.005746083984375,-0.0141257897949216,-0.0520020600585944,0.0541919705198424,0.786008000000948,
-0.0129286889648438,-0.0284909997558591,-0.00890643017578263,0.0325301792788501,0.788922000001548,
-0.0512359155273438,-0.016519991455078,-0.0424252534179708,0.0685414566899478,0.79191400000127,
-0.00814028564453125,-0.0380678063964841,0.0653138212890614,0.0760349747523744,0.794873000000734,
-0.015322890625,-0.0548272180175778,-0.020877438476564,0.0606356516415503,0.797880000000077,
-0.024899697265625,-0.0476446130371091,-0.00890643017578263,0.0544915458933928,0.800834000001487,
-0.0296881005859375,0.0313640417480472,-0.0615788666992199,0.0752133183361449,0.803812000000107,
-0.00335188232421875,-0.0117315881347655,0.0246123930664055,0.0274706237230687,0.806870000000345,
0.00383072265625,-0.00454898315429664,-0.0424252534179708,0.0428400491524721,0.809826000000612,
-0.0368707055664063,-0.0284909997558591,-0.0591846650390639,0.0753260285149774,0.812854000001607,
-0.000957680664062498,-0.0332794030761716,0.00306457812499872,0.0334339267876934,0.815816000000268,
-0.024899697265625,-0.0117315881347655,-0.0424252534179708,0.050572000273497,0.818740000000616,
-0.0105344873046875,0.0169988317871097,-0.0280600434570317,0.0344572451555487,0.821778000001359,
-0.0177170922851563,-0.0284909997558591,0.0581312163085919,0.0671183338264993,0.824735000000146,
-0.0225054956054688,0.0193930334472658,0.000670376464842803,0.0297159297909246,0.827778000000762,
-0.0536301171875,-0.0141257897949216,-0.0496078583984385,0.0744087832299039,0.830701000000772,
-0.0272938989257813,-0.0117315881347655,-0.0472136567382826,0.0557827613276262,0.833624000000782,
-0.0225054956054688,0.000239420166015858,0.0222181914062478,0.0316259811520264,0.836643000000549,
-0.03447650390625,0.0217872351074222,0.00306457812499872,0.0408987111570522,0.839645000000019,
-0.0464475122070312,-0.0596156213378904,0.0365834013671869,0.083962723593972,0.842766000001575,
-0.0368707055664063,-0.0308852014160154,0.0150355864257801,0.0503925932517822,0.845843000000968,
-0.0296881005859375,0.0289698400878908,-0.0113006318359385,0.0429923159530879,0.849014000001262,
-0.0201112939453125,-0.00933738647460913,-0.0304542451171894,0.037671102664892,0.85199300000022,
-0.0177170922851563,-0.0237025964355466,-0.0041180268554708,0.0298775263703257,0.854907000000821,
-0.000957680664062498,-0.0237025964355466,-0.0184832368164081,0.0300725834149999,0.857907000001433,
-0.024899697265625,0.0337582434082033,0.0653138212890614,0.0776241532856026,0.860883000001195,
-0.005746083984375,-0.026096798095703,0.0150355864257801,0.0306615265629499,0.863907000000836,
-0.0105344873046875,-0.00933738647460913,-0.0520020600585944,0.0538737084233719,0.866849000000002,
-0.0201112939453125,-0.016519991455078,-0.0304542451171894,0.0400603957480261,0.869756000000052,
-0.0201112939453125,-0.0428562097167966,-0.0448194550781267,0.0651912755585058,0.872777000000497,
-0.024899697265625,-0.0284909997558591,-0.0160890351562522,0.0411167732594285,0.875709000001734,
-0.0129286889648438,-0.0213083947753905,-0.0735498750000012,0.0776581148288404,0.878736000000572,
-0.00335188232421875,0.00263362182617222,0.0102471831054682,0.0110984611832314,0.881742000001395,
-0.0512359155273438,-0.0476446130371091,0.0557370146484359,0.0894524621980912,0.884688000000097,
0.013407529296875,-0.0213083947753905,-0.0304542451171894,0.0395129165641858,0.887722000001304,
0.0181959326171875,-0.026096798095703,0.0126413847656242,0.0342336010879614,0.890707000000475,
-0.0392649072265625,-0.0237025964355466,-0.00172382519531311,0.0458968146018974,0.89372000000003,
0.00383072265625,0.00502782348632835,0.00306457812499872,0.00702460562330745,0.896714000000429,
-0.015322890625,-0.0237025964355466,0.0437660063476546,0.0520775130600055,0.899632000000565,
-0.0105344873046875,0.0217872351074222,-0.0400310517578131,0.0467776029872782,0.902648000001136,
0.0086191259765625,-0.00933738647460913,-0.0232716401367199,0.0265150024218189,0.905603000001065,
0.013407529296875,-0.0141257897949216,0.000670376464842803,0.0194871543274406,0.908640000001469,
-0.0488417138671875,-0.00694318481445277,-0.00651222851562672,0.0497607269751117,0.911571000000549,
-0.0177170922851563,-0.0117315881347655,0.000670376464842803,0.0212597018748883,0.914529000001494,
0.0086191259765625,0.0289698400878908,-0.0376368500976572,0.0482708343888039,0.917581000001519,
0.00622492431640626,-0.0141257897949216,-0.0735498750000012,0.0751523235342135,0.920536999999968,
-0.005746083984375,0.00502782348632835,0.00545877978515463,0.00938588125366919,0.923584000000119,
-0.0320823022460938,-0.026096798095703,0.00306457812499872,0.0414693697485484,0.926541000000725,
-0.0129286889648438,-0.026096798095703,0.00306457812499872,0.0292845609200783,0.929485000000568,
-0.0512359155273438,0.000239420166015858,-0.0639730683593758,0.0819617583831287,0.93249300000025,
-0.0368707055664063,-0.0332794030761716,-0.0520020600585944,0.0719109299648432,0.935465000000477,
-0.0272938989257813,-0.0141257897949216,-0.0639730683593758,0.0709721658906817,0.93849500000033,
-0.000957680664062498,-0.0189141931152341,-0.00172382519531311,0.0190167144049304,0.941442000001189,
-0.0416591088867188,-0.0500388146972653,0.0294007963867173,0.0714406827915016,0.944456000001082,
-0.0296881005859375,-0.0380678063964841,0.0222181914062478,0.0531431014300596,0.947462000000087,
-0.0296881005859375,-0.0141257897949216,-0.0903092866210944,0.0961076922194162,0.950441000000865,
-0.000957680664062498,0.0217872351074222,-0.0520020600585944,0.0563898485209711,0.953485000000001,
-0.0320823022460938,-0.00933738647460913,-0.0041180268554708,0.033666289501047,0.956442000000607,
-0.0225054956054688,-0.00694318481445277,0.0629196196289055,0.0671832098225559,0.959467000000586,
-0.0560243188476563,-0.0356736047363279,0.0437660063476546,0.0795411446287426,0.962417000000642,
0.00383072265625,0.00263362182617222,0.000670376464842803,0.00469678662459909,0.965390000001207,
-0.0105344873046875,-0.0308852014160154,-0.0256658417968758,0.0415163404507516,0.96838900000148,
0.00143652099609375,-0.00454898315429664,-0.0639730683593758,0.0641506844517162,0.97133600000052,
-0.0368707055664063,-0.0500388146972653,-0.0639730683593758,0.0891957699702471,0.974361000000499,
-0.0296881005859375,-0.00215478149414028,-0.0256658417968758,0.0393034583062418,0.977341000001616,
0.00383072265625,-0.0117315881347655,-0.0543962617187521,0.0557786508012506,0.980395000000499,
-0.0225054956054688,-0.0428562097167966,-0.0232716401367199,0.0537096013613099,0.983507000000827,
-0.0368707055664063,0.0193930334472658,-0.0448194550781267,0.0611908672005195,0.986587000001236,
-0.0512359155273438,-0.0356736047363279,0.0126413847656242,0.0636987419310728,0.989679000000251,
-0.0320823022460938,-0.0141257897949216,0.0317949980468732,0.047325827573754,0.992652000000817,
-0.0129286889648438,-0.0380678063964841,0.00785298144531055,0.0409631322016549,0.995583000001716,
-0.0105344873046875,-0.0284909997558591,-0.00651222851562672,0.0310664064561823,0.99858100000165,
-0.0225054956054688,-0.026096798095703,-0.0160890351562522,0.0380315297556485,1.0015370000001,
-0.024899697265625,-0.0500388146972653,0.0150355864257801,0.0578787245833401,1.0045570000002,
-0.015322890625,-0.0117315881347655,0.0102471831054682,0.0218500777771265,1.00752000000102,
-0.005746083984375,-0.0356736047363279,0.0317949980468732,0.0481305044315964,1.01046400000087,
-0.0296881005859375,0.00502782348632835,0.0270065947265614,0.040447725327083,1.01355300000068,
0.0205901342773438,-0.0404620080566404,-0.00651222851562672,0.0458643308658746,1.01654899999994,
