X,Y,Z,Magnitude,Seconds,
-0.616267507324219,0.13192051147461,0.117986257812499,0.641178149162872,0.0,
-0.695276162109375,0.13192051147461,0.23769634082031,0.746532995509663,0.00295700000060606,
-0.836534060058594,-0.0452504113769528,0.110803652832029,0.845052828436672,0.00597600000037346,
-1.16214548583984,-0.186508309326172,0.390925247070312,1.24023789189922,0.00894100000004983,
-1.76309010253906,-0.612676204833984,0.522606338378905,1.93829209010272,0.011980000001131,
-1.87561758056641,-0.603099398193359,0.417261465332031,2.01389605567964,0.0149080000010144,
-1.63380321289063,-0.605493599853515,0.297551382324217,1.76761768011025,0.0178590000014083,
-1.65295682617188,-0.811394942626953,0.553730959960935,1.92282240420899,0.0209160000013071,
-1.68408144775391,-0.895192000732422,0.376560037109373,1.94404128104113,0.0239380000002711,
-2.06236531005859,-1.08672813354492,0.445991885253905,2.3734442209758,0.0269960000005085,
-1.70562926269531,-1.1370063684082,0.982293057128905,2.27307155928867,0.0300480000005336,
-1.60267859130859,-1.04123830200195,-0.32972945263672,1.93945285597019,0.0330290000001696,
-1.547611953125,-1.11785275512695,0.654287429687498,2.01811535355325,0.0360810000001948,
-0.721612380371094,-0.734780489501953,0.295157180664061,1.07132840742469,0.0391030000009778,
-0.223618435058594,-0.593522591552734,-0.0232716401367199,0.634677745329219,0.0422250000010536,
0.04213794921875,-0.306218392333984,0.106015249511717,0.326779044152166,0.0452249999998457,
0.815465085449219,0.0122104284667972,-0.095097689941408,0.821082194900265,0.0481909999998607,
1.2488155859375,0.445560928955078,0.12995726611328,1.33227392082386,0.051288000000568,
1.57442701171875,0.632308658447266,-0.0280600434570317,1.69688597755295,0.0543319999997038,
1.54090818847656,0.622731851806641,-0.0711556733398453,1.66350717894967,0.0574020000003657,
1.09319247802734,1.03692873901367,-0.0759440766601571,1.50866116361091,0.0603850000006787,
1.33500684570313,0.97467949584961,-0.0735498750000012,1.6545854410747,0.063428000001295,
1.31824743408203,1.06326495727539,0.0198239897460919,1.69372419756085,0.0664310000011028,
1.15544172119141,1.0081983190918,0.331070205566405,1.56879472930752,0.0694110000004002,
0.997424411621094,1.20452285522461,0.366983230468749,1.60636467126908,0.0725770000008197,
0.904050546875,0.969891092529297,0.95356263720703,1.63318027962313,0.0755650000010064,
0.494642062988281,0.871728824462891,0.975110452148437,1.39836415420515,0.0786770000013348,
0.281558115234375,0.536540592041016,0.759632302734374,0.971695433003359,0.081648999999743,
0.31028853515625,0.538934793701172,0.903284402343749,1.0966550954738,0.0846480000000156,
0.561679709472656,0.416830509033203,1.0589075102539,1.26906141875257,0.0877160000000003,
0.96151138671875,0.517386978759766,1.74604338671875,2.05933507251352,0.0907349999997678,
0.927992563476563,1.09678378051758,1.75562019335937,2.26854735952447,0.0938420000002225,
1.44274592041016,1.07523596557617,2.22727792041016,2.86328746500858,0.0968400000001566,
1.16980693115234,1.91320654663086,2.84737615039062,3.62441146781882,0.0998080000008486,
1.16262432617188,2.61231343139649,3.93434370410156,4.86363415253087,0.102896000000328,
1.27036340087891,3.51013905395508,5.80182099902344,6.89898733533427,0.105875999999625,
1.14347071289063,5.69365096801758,9.45477418200684,11.095852443575,0.108970999999656,
1.34218945068359,9.38550992797852,9.45477418200684,13.389623742378,0.111978000000818,
3.00855380615234,14.1332118200684,9.45477418200684,17.2682317331039,0.114988000001176,
7.87357157958985,13.192290567627,9.45477418200684,18.039468248049,0.118034000000989,
7.16728208984375,8.97849564575196,9.45477418200684,14.8787120225147,0.121057000000292,
3.39162607177734,-11.3027866174316,2.40684304492187,12.0436292774579,0.124101999999766,
-7.52593349853516,-20.6425672937012,-19.8831744111328,29.6326827027673,0.12700600000062,
-7.28651333251953,-20.6425672937012,-25.6579888154297,33.7274554491246,0.129861999999775,
-13.837049074707,-20.6425672937012,-29.0936681977539,38.2625278931206,0.132875999999669,
-13.1762494165039,-13.5341825646973,-21.1161882661133,28.3316263788441,0.135830999999598,
-7.33918576904297,-3.10982853637695,-5.45571520703125,9.65916713275111,0.138859000000593,
0.123540805664063,4.14460249389649,6.00772234179687,7.29970683652449,0.141848000001119,
4.81617605957031,5.93785953735352,8.9286483671875,11.7547645398365,0.144834000000628,
11.2948857519531,5.31297290405274,7.12581451708984,14.3728688076125,0.147899999999936,
11.3044625585938,3.4215535925293,1.92560851123047,11.9668655404714,0.15093700000034,
9.79372131103516,1.63787335571289,-0.73195533154297,9.95667438731189,0.154044000000795,
6.33409991210938,0.895670841064453,-2.01285321972656,6.70631240222827,0.157063000000562,
3.82497657226563,1.79828486694336,-1.39275498974609,4.45017310927576,0.160158000000592,
2.29747591308594,1.63308495239258,0.0844674345703105,2.82001715960099,0.163180999999895,
0.00143652099609375,0.747230338134766,-1.78779826367188,1.93767331441854,0.16618600000038,
-0.745554396972656,1.20931125854492,-3.10939758007813,3.41857256612822,0.169264000000112,
-0.0368707055664063,-0.157777889404297,-2.84124699414063,2.84586327728986,0.1723290000009,
-0.628238515625,-0.344525618896484,-3.07109035351563,3.15356583791229,0.175381000000925,
1.57203281005859,0.261207401123047,-2.41747330029297,2.89546086485926,0.178375999999844,
2.64942355712891,1.19734025024414,-1.41669700634766,3.23420767232389,0.181384000001344,
3.35092464355469,1.53492268432617,-1.069537765625,3.83778512240319,0.18450699999994,
3.52570136474609,2.35852805541992,-1.37360137646485,4.45869997230151,0.187512000000424,
2.61111633056641,3.02411611694336,-1.56274330761719,4.29014841538256,0.190580000000409,
2.69251918701172,3.35691014770508,-1.96496918652344,4.73070916630669,0.193542000000889,
2.91757414306641,3.4598608190918,-2.41986750195313,5.13211793461385,0.196557000001121,
2.79546985839844,3.34254493774414,-2.57788481152344,5.06287946642387,0.199601000000257,
2.78349885009766,3.29226670288086,-2.45338632519531,4.96044255606779,0.202650999999605,
2.85053649658203,3.05045233520508,-2.47493414013672,4.85346440861768,0.205793000000995,
3.03010162109375,2.76554233764648,-2.08707347119141,4.60278349801738,0.208849000000555,
2.51534826416016,2.4471135168457,-1.92426775830078,4.00226783961024,0.211844000001292,
2.59914532226563,1.98982099975586,-2.13016910107422,3.90545316403821,0.214950999999928,
2.49858885253906,1.92278335327148,-2.1588995209961,3.82111099281447,0.217941000000792,
2.61590473388672,1.78391965698242,-2.26903279736328,3.89536092741731,0.221024000000398,
3.36528985351563,1.69293999389648,-2.57070220654297,4.56067225919977,0.224075000000084,
2.96066977294922,2.04488763793945,-2.17565893261719,4.20483326034811,0.227061999999933,
2.97024657958984,1.96348478149414,-2.15171691601563,4.16023111345897,0.230134000001271,
3.43951010498047,2.10713688110352,-2.24269657910156,4.61518618734751,0.233143999999811,
3.58076800292969,2.2172701574707,-2.21636036083985,4.75924780728188,0.236232999999629,
0.418027609863281,-0.378044442138672,0.0270065947265614,0.564264157109657,19.7684010000012,
0.370143576660156,-0.380438643798828,0.00306457812499872,0.530800546982903,19.7727400000003,
0.413239206542969,-0.349314022216797,0.00785298144531055,0.541154873635191,19.7758700000013,
0.446758029785156,-0.342131417236328,0.0509486113281241,0.565015402297952,19.7789290000001,
0.439575424804688,-0.349314022216797,-0.0184832368164081,0.561772614366978,19.7819870000003,
0.427604416503906,-0.38522704711914,-0.00651222851562672,0.575576080085003,19.7849470000001,
0.439575424804688,-0.358890828857422,0.0437660063476546,0.569161351851838,19.7879960000009,
0.427604416503906,-0.375650240478515,-0.020877438476564,0.569556413029083,19.7909770000006,
0.434787021484375,-0.366073433837891,-0.00651222851562672,0.568411754042225,19.793952,
0.418027609863281,-0.358890828857422,-0.0376368500976572,0.552237487075306,19.7969810000013,
0.422816013183594,-0.378044442138672,-0.00651222851562672,0.567215470836831,19.7999550000004,
0.401268198242188,-0.344525618896484,-0.0328484467773453,0.529899131394099,19.8029970000007,
0.432392819824219,-0.38522704711914,0.0317949980468732,0.579977887827176,19.8059900000007,
0.374931979980469,-0.375650240478515,-0.0304542451171894,0.531615042892222,19.8089360000013,
0.413239206542969,-0.351708223876953,0.0222181914062478,0.543101247095151,19.8120120000003,
0.394085593261719,-0.373256038818359,0.000670376464842803,0.542792754866365,19.8150070000011,
0.441969626464844,-0.354102425537109,-0.0232716401367199,0.566804417522826,19.8180430000011,
0.432392819824219,-0.363679232177734,0.0126413847656242,0.565142406090463,19.8210180000005,
0.362960971679688,-0.382832845458984,-0.0041180268554708,0.527559108223967,19.8239720000001,
0.394085593261719,-0.40438066040039,-0.0376368500976572,0.565900791488729,19.8269920000002,
0.434787021484375,-0.351708223876953,0.0102471831054682,0.559324086335938,19.8299750000006,
0.4060566015625,-0.351708223876953,-0.0663672700195335,0.541281121918189,19.8330100000003,
0.434787021484375,-0.34691982055664,0.0126413847656242,0.556374802228766,19.8359950000013,
0.42521021484375,-0.342131417236328,0.0150355864257801,0.545970422575045,19.839030000001,
0.427604416503906,-0.368467635498047,0.0126413847656242,0.564600513666043,19.8420160000005,
0.403662399902344,-0.342131417236328,-0.0113006318359385,0.529268310061116,19.8449689999998,
0.444363828125,-0.387621248779297,0.0581312163085919,0.592527368617385,19.8480180000006,
0.42521021484375,-0.344525618896484,0.000670376464842803,0.547267830488946,19.8509900000008,
0.408450803222656,-0.351708223876953,-0.0591846650390639,0.542248612696889,19.8539950000013,
0.408450803222656,-0.339737215576172,-0.0113006318359385,0.531395463455019,19.856957,
0.427604416503906,-0.339737215576172,-0.0400310517578131,0.547603321543919,19.8598910000001,
0.441969626464844,-0.354102425537109,-0.0448194550781267,0.568097229391446,19.8629209999999,
0.429998618164063,-0.356496627197265,0.0126413847656242,0.558702480247602,19.8658940000005,
0.403662399902344,-0.363679232177734,-0.0136948334960945,0.54350111819277,19.8689180000001,
0.384508786621094,-0.390015450439453,-0.0879150849609385,0.554696422139177,19.8718740000004,
0.453940634765625,-0.394803853759765,0.0222181914062478,0.602018131674076,19.8748329999999,
0.434787021484375,-0.370861837158203,-0.0448194550781267,0.573225121453266,19.8778540000003,
0.449152231445313,-0.30861259399414,-0.0400310517578131,0.546426523229732,19.8808170000011,
0.401268198242188,-0.366073433837891,0.0198239897460919,0.543524531600782,19.8838620000006,
0.398873996582031,-0.387621248779297,-0.00172382519531311,0.556195711263443,19.8868220000004,
0.429998618164063,-0.375650240478515,-0.0304542451171894,0.571786127708803,19.8897660000002,
0.422816013183594,-0.382832845458984,-0.0160890351562522,0.570607768628285,19.8927930000009,
0.441969626464844,-0.32776620727539,-0.00890643017578263,0.550315511182125,19.8957590000009,
0.389297189941406,-0.339737215576172,-0.0328484467773453,0.517738059446483,19.8987850000012,
0.410845004882813,-0.34691982055664,0.00545877978515463,0.537751595263978,19.9017640000002,
0.441969626464844,-0.382832845458984,-0.0232716401367199,0.585183481921994,19.9046980000003,
0.410845004882813,-0.34691982055664,-0.00890643017578263,0.537797642641436,19.907717,
0.432392819824219,-0.38522704711914,0.0485544096679682,0.581137642186321,19.9107780000013,
0.415633408203125,-0.392409652099609,-0.0184832368164081,0.571907418310598,19.9138860000003,
0.413239206542969,-0.361285030517578,-0.0352426484375012,0.55003232574935,19.9169510000011,
0.453940634765625,-0.354102425537109,0.0509486113281241,0.577967463322069,19.9199700000008,
0.432392819824219,-0.368467635498047,-0.00651222851562672,0.568132342122239,19.9229830000004,
0.434787021484375,-0.375650240478515,0.000670376464842803,0.57458968545165,19.9259510000011,
0.418027609863281,-0.370861837158203,0.0677080229492173,0.562912036858386,19.9289980000012,
0.379720383300781,-0.370861837158203,0.0437660063476546,0.532580073853756,19.9319830000004,
0.410845004882813,-0.349314022216797,0.0796790312499986,0.545126271771388,19.934999000001,
0.410845004882813,-0.354102425537109,0.0126413847656242,0.542532902612565,19.9379750000007,
0.422816013183594,-0.349314022216797,0.00306457812499872,0.54845515656326,19.9409350000005,
0.453940634765625,-0.337343013916015,-0.0591846650390639,0.568652119933748,19.9439600000005,
0.382114584960938,-0.32776620727539,-0.0280600434570317,0.504211868870988,19.9469430000008,
0.444363828125,-0.370861837158203,-0.0280600434570317,0.579469654119241,19.9499640000013,
0.420421811523438,-0.380438643798828,0.0102471831054682,0.567091761588667,19.9529810000004,
0.461123239746094,-0.334948812255859,0.0701022246093732,0.574229632604176,19.955946,
0.42521021484375,-0.406774862060547,0.017429788085936,0.588704775523832,19.9589790000009,
0.401268198242188,-0.375650240478515,0.0365834013671869,0.550878947998279,19.9619590000002,
0.4060566015625,-0.397198055419922,0.0198239897460919,0.568367178390261,19.9649960000006,
0.398873996582031,-0.334948812255859,0.0126413847656242,0.521009574374335,19.967963000001,
0.413239206542969,-0.40438066040039,0.00545877978515463,0.578204253362824,19.9709110000003,
0.42521021484375,-0.370861837158203,0.000670376464842803,0.564218644208458,19.9739460000001,
0.427604416503906,-0.368467635498047,-0.0328484467773453,0.565413968591908,19.9768910000003,
0.432392819824219,-0.315795198974609,0.00545877978515463,0.535462376463272,19.9799230000008,
0.420421811523438,-0.392409652099609,0.0102471831054682,0.575191132952502,19.9829160000008,
0.415633408203125,-0.330160408935547,0.00785298144531055,0.530865985876486,19.9858700000004,
0.42521021484375,-0.378044442138672,-0.0376368500976572,0.570208610531866,19.9888960000008,
0.394085593261719,-0.349314022216797,-0.0543962617187521,0.529417315756382,19.991852000001,
0.394085593261719,-0.344525618896484,0.0820732329101546,0.529846555573187,19.9948949999998,
0.441969626464844,-0.380438643798828,-0.0280600434570317,0.583830522028247,19.9978580000006,
0.434787021484375,-0.382832845458984,-0.00651222851562672,0.579347176340505,20.0007999999998,
0.38690298828125,-0.358890828857422,-0.0184832368164081,0.528051303778468,20.0038249999998,
0.427604416503906,-0.368467635498047,-0.00651222851562672,0.56449654077187,20.0068019999999,
0.398873996582031,-0.366073433837891,0.00545877978515463,0.541424068903415,20.0098500000004,
0.429998618164063,-0.354102425537109,-0.0113006318359385,0.557149031834534,20.0128080000013,
0.42521021484375,-0.375650240478515,-0.0472136567382826,0.569338176624083,20.0157580000014,
0.446758029785156,-0.356496627197265,-0.0735498750000012,0.576274384727498,20.0187810000007,
0.427604416503906,-0.339737215576172,0.00545877978515463,0.546165461135945,20.0217590000011,
0.449152231445313,-0.373256038818359,0.0485544096679682,0.586016491427401,20.0248050000009,
0.420421811523438,-0.34691982055664,0.0270065947265614,0.54574464510284,20.027779,
0.437181223144531,-0.361285030517578,-0.00172382519531311,0.567148363939754,20.0307830000002,
0.449152231445313,-0.337343013916015,-0.0400310517578131,0.563152307244746,20.0337470000013,
0.418027609863281,-0.382832845458984,0.0413718046874987,0.56834821755094,20.0367050000004,
0.451546433105469,-0.378044442138672,0.0389776030273428,0.59019575991358,20.0397380000013,
0.432392819824219,-0.40438066040039,-0.0376368500976572,0.593214802265308,20.0426939999998,
0.439575424804688,-0.363679232177734,0.0294007963867173,0.571273616437676,20.0457200000001,
0.420421811523438,-0.375650240478515,0.00785298144531055,0.563852172199235,20.048718,
0.441969626464844,-0.363679232177734,0.0126413847656242,0.572502872694673,20.0517790000013,
0.427604416503906,-0.313400997314453,-0.00172382519531311,0.530159121118032,20.0548940000008,
0.401268198242188,-0.325372005615234,0.0102471831054682,0.516708925527911,20.0579730000009,
0.415633408203125,-0.34691982055664,0.0317949980468732,0.542324085589417,20.0610410000008,
0.437181223144531,-0.339737215576172,0.00306457812499872,0.553676971849726,20.0640060000005,
0.4060566015625,-0.380438643798828,-0.0113006318359385,0.556545801931764,20.0669429999998,
0.437181223144531,-0.356496627197265,0.0365834013671869,0.565292501567788,20.069993000001,
0.437181223144531,-0.351708223876953,-0.0256658417968758,0.56168036466301,20.0729709999996,
0.415633408203125,-0.354102425537109,0.0222181914062478,0.546473517944991,20.0760100000007,
0.391691391601563,-0.363679232177734,-0.0280600434570317,0.535230881219465,20.0789650000006,
0.451546433105469,-0.387621248779297,0.0294007963867173,0.595826166414053,20.0819220000012,
0.451546433105469,-0.382832845458984,0.0126413847656242,0.592127497606121,20.0849670000007,
0.389297189941406,-0.306218392333984,0.0294007963867173,0.496171757285779,20.0879490000007,
0.398873996582031,-0.38522704711914,0.0150355864257801,0.554730936437316,20.091015,
0.449152231445313,-0.339737215576172,-0.020877438476564,0.563555649512181,20.0939940000007,
0.441969626464844,-0.34691982055664,-0.0184832368164081,0.562167361784493,20.0969400000013,
0.446758029785156,-0.373256038818359,0.0150355864257801,0.582356314081898,20.0999769999999,
0.432392819824219,-0.351708223876953,0.000670376464842803,0.557371218114844,20.1029560000006,
0.401268198242188,-0.334948812255859,0.0270065947265614,0.523389176340959,20.1059870000008,
0.4060566015625,-0.337343013916015,0.0341891997070292,0.52900961625195,20.1089590000011,
0.384508786621094,-0.390015450439453,0.000670376464842803,0.547685592265234,20.1119040000012,
0.429998618164063,-0.361285030517578,0.05334281298828,0.564155245120165,20.1149430000005,
0.444363828125,-0.337343013916015,-0.0280600434570317,0.55861157061294,20.117889000001,
0.410845004882813,-0.34691982055664,0.0341891997070292,0.538809689323435,20.1209450000006,
0.449152231445313,-0.366073433837891,0.00785298144531055,0.579490427264979,20.1239249999999,
0.427604416503906,-0.351708223876953,-0.00172382519531311,0.553667032908436,20.1269339999999,
0.429998618164063,-0.322977803955078,0.0150355864257801,0.537995857167892,20.1299090000011,
0.444363828125,-0.363679232177734,0.0389776030273428,0.575535445651306,20.1328650000014,
0.422816013183594,-0.332554610595703,-0.0280600434570317,0.538658812303056,20.135886,
0.432392819824219,-0.361285030517578,-0.0041180268554708,0.563477933957319,20.1388530000004,
0.437181223144531,-0.401986458740234,-0.0041180268554708,0.593917075883363,20.1418670000003,
0.465911643066406,-0.358890828857422,0.05334281298828,0.590526664834289,20.1448460000011,
0.446758029785156,-0.358890828857422,0.0509486113281241,0.575318281659592,20.1478120000011,
0.441969626464844,-0.40438066040039,-0.0472136567382826,0.600907645654413,20.1508380000014,
0.477882651367188,-0.363679232177734,-0.0041180268554708,0.600542563470985,20.1537930000013,
0.437181223144531,-0.380438643798828,0.0365834013671869,0.580688667722414,20.1568420000003,
0.418027609863281,-0.397198055419922,-0.0184832368164081,0.576935878482684,20.1597970000003,
0.420421811523438,-0.373256038818359,0.0102471831054682,0.562298474905115,20.1627500000013,
0.42521021484375,-0.330160408935547,0.017429788085936,0.538621778197536,20.1657930000001,
0.432392819824219,-0.358890828857422,0.00785298144531055,0.561985628811882,20.1687730000012,
0.379720383300781,-0.370861837158203,-0.0160890351562522,0.531022531355035,20.1717970000009,
0.451546433105469,-0.334948812255859,-0.0448194550781267,0.563997935843193,20.1747660000001,
0.444363828125,-0.366073433837891,0.0461602080078105,0.577580934165155,20.1777160000001,
0.446758029785156,-0.358890828857422,-0.0280600434570317,0.573744481676549,20.1807360000003,
0.434787021484375,-0.363679232177734,-0.0496078583984385,0.569002001387974,20.1836920000005,
0.429998618164063,-0.363679232177734,-0.0328484467773453,0.56412801383735,20.1867160000002,
0.415633408203125,-0.378044442138672,-0.0759440766601571,0.56695346636761,20.1897540000009,
0.391691391601563,-0.32776620727539,0.00545877978515463,0.510766709137553,20.1928110000008,
0.439575424804688,-0.375650240478515,0.0389776030273428,0.579533356073268,20.195952,
0.377326181640625,-0.378044442138672,-0.0256658417968758,0.53474422205254,20.1989830000002,
0.437181223144531,-0.34691982055664,0.0389776030273428,0.559464062566093,20.2020220000013,
0.398873996582031,-0.356496627197265,0.0198239897460919,0.535334755944168,20.2049910000005,
0.422816013183594,-0.358890828857422,0.0198239897460919,0.554949546005661,20.2079480000011,
0.432392819824219,-0.380438643798828,-0.00172382519531311,0.57593409684124,20.2109739999996,
0.410845004882813,-0.366073433837891,0.0198239897460919,0.550632697511214,20.2139450000013,
0.429998618164063,-0.334948812255859,-0.0232716401367199,0.54555576038501,20.216977,
0.439575424804688,-0.382832845458984,0.0222181914062478,0.583336257816886,20.2199469999996,
0.415633408203125,-0.363679232177734,0.0509486113281241,0.554625526754941,20.2229810000008,
0.389297189941406,-0.32776620727539,-0.0280600434570317,0.509676715935484,20.2259560000002,
0.422816013183594,-0.366073433837891,-0.00651222851562672,0.559308098534764,20.2289130000008,
0.401268198242188,-0.358890828857422,-0.0256658417968758,0.538959673253613,20.2319800000005,
0.42521021484375,-0.378044442138672,-0.0400310517578131,0.57037164388164,20.2349590000013,
0.46351744140625,-0.354102425537109,-0.0591846650390639,0.586293246451677,20.2379760000003,
0.38690298828125,-0.373256038818359,0.0677080229492173,0.541847182540451,20.2409770000013,
0.434787021484375,-0.375650240478515,0.000670376464842803,0.57458968545165,20.2439350000004,
0.449152231445313,-0.311006795654297,0.0102471831054682,0.546413724861532,20.2469890000011,
0.441969626464844,-0.361285030517578,-0.0328484467773453,0.571789335725357,20.2499520000001,
0.413239206542969,-0.351708223876953,-0.0759440766601571,0.547935050299492,20.2529910000012,
0.384508786621094,-0.358890828857422,0.0246123930664055,0.52655047613619,20.2559730000012,
0.422816013183594,-0.351708223876953,0.0509486113281241,0.552329445841351,20.2589410000001,
0.42521021484375,-0.366073433837891,0.0461602080078105,0.562978019617691,20.2620050000005,
0.4060566015625,-0.368467635498047,-0.0136948334960945,0.548486928327826,20.2649710000005,
0.429998618164063,-0.351708223876953,-0.00172382519531311,0.555518188666211,20.2680020000007,
0.444363828125,-0.370861837158203,-0.0831266816406266,0.584728791156074,20.2709690000011,
0.439575424804688,-0.34691982055664,0.0317949980468732,0.560883978990373,20.2739300000012,
0.427604416503906,-0.380438643798828,-0.0472136567382826,0.574289324375561,20.2769630000002,
0.42521021484375,-0.334948812255859,-0.0256658417968758,0.541897747803237,20.2799290000003,
0.432392819824219,-0.320583602294922,0.0772848295898427,0.54379255381134,20.2829710000005,
0.429998618164063,-0.382832845458984,-0.0280600434570317,0.576408852485834,20.2859420000004,
0.432392819824219,-0.382832845458984,-0.0663672700195335,0.581316740450168,20.2889000000014,
0.379720383300781,-0.373256038818359,-0.020877438476564,0.532863497948403,20.2919320000001,
0.398873996582031,-0.370861837158203,-0.00890643017578263,0.544718543752786,20.2949019999996,
0.465911643066406,-0.375650240478515,0.000670376464842803,0.59848743656071,20.2979480000013,
0.437181223144531,-0.325372005615234,0.0365834013671869,0.546198415563265,20.300937,
0.453940634765625,-0.349314022216797,-0.0041180268554708,0.572799567173263,20.3038809999998,
0.420421811523438,-0.361285030517578,0.017429788085936,0.554603615561111,20.3069169999999,
0.437181223144531,-0.409169063720703,-0.0256658417968758,0.599337534292128,20.3098829999999,
0.427604416503906,-0.318189400634765,0.00545877978515463,0.533028920384908,20.3129449999997,
0.415633408203125,-0.349314022216797,0.00306457812499872,0.542937204261143,20.3159300000007,
0.429998618164063,-0.378044442138672,-0.00172382519531311,0.572555135710306,20.3189469999998,
0.420421811523438,-0.356496627197265,-0.0232716401367199,0.5517118034285,20.3219140000001,
0.401268198242188,-0.399592257080078,-0.0496078583984385,0.568463788163997,20.3248700000004,
0.437181223144531,-0.375650240478515,-0.0304542451171894,0.577207056512109,20.3279240000011,
0.391691391601563,-0.318189400634765,0.00306457812499872,0.504654369415508,20.3310130000009,
0.420421811523438,-0.373256038818359,0.0677080229492173,0.566267557335499,20.3341440000004,
0.389297189941406,-0.416351668701172,0.0294007963867173,0.57075863633825,20.3372310000013,
0.403662399902344,-0.361285030517578,-0.0184832368164081,0.542044127737049,20.3402070000011,
0.418027609863281,-0.38522704711914,0.0389776030273428,0.569794887637558,20.3432510000002,
0.401268198242188,-0.349314022216797,-0.0113006318359385,0.532131710498162,20.3462070000005,
0.420421811523438,-0.358890828857422,-0.00651222851562672,0.55281057855549,20.3492450000012,
0.394085593261719,-0.375650240478515,0.0724964262695291,0.549247020756472,20.3522540000013,
0.42521021484375,-0.375650240478515,0.0198239897460919,0.567723366216759,20.3552110000001,
0.401268198242188,-0.354102425537109,-0.0232716401367199,0.535673654314311,20.3582349999997,
0.410845004882813,-0.370861837158203,0.0294007963867173,0.554253125499251,20.3612260000009,
0.420421811523438,-0.366073433837891,0.00545877978515463,0.557489064326159,20.3642579999996,
0.418027609863281,-0.373256038818359,-0.00651222851562672,0.560454781621693,20.3672459999998,
0.408450803222656,-0.363679232177734,-0.0280600434570317,0.547614836001938,20.3702110000013,
0.413239206542969,-0.342131417236328,-0.0424252534179708,0.538163962572727,20.3732760000003,
0.427604416503906,-0.378044442138672,-0.00651222851562672,0.570793786201134,20.3762390000011,
0.42521021484375,-0.368467635498047,0.0126413847656242,0.562789418722298,20.3792790000007,
0.401268198242188,-0.354102425537109,0.0126413847656242,0.535317195035418,20.3822540000001,
0.456334836425781,-0.373256038818359,-0.0160890351562522,0.58976301215181,20.3851919999997,
0.434787021484375,-0.378044442138672,-0.0615788666992199,0.579438789784697,20.3882110000013,
0.42521021484375,-0.34691982055664,-0.00890643017578263,0.548850082628213,20.3911690000004,
0.446758029785156,-0.394803853759765,0.000670376464842803,0.596207404789375,20.3942150000003,
0.441969626464844,-0.380438643798828,-0.0232716401367199,0.583619980507537,20.3971650000003,
0.422816013183594,-0.366073433837891,-0.0424252534179708,0.560877029386935,20.4001029999999,
0.449152231445313,-0.387621248779297,-0.0256658417968758,0.593840630937853,20.4031279999999,
0.453940634765625,-0.363679232177734,-0.00651222851562672,0.581693297992202,20.4060900000004,
0.410845004882813,-0.356496627197265,-0.0472136567382826,0.545996879682279,20.4091200000003,
0.413239206542969,-0.351708223876953,0.0629196196289055,0.546282157040837,20.4120870000006,
0.42521021484375,-0.392409652099609,-0.0543962617187521,0.581160920191111,20.4151160000001,
0.422816013183594,-0.339737215576172,-0.0280600434570317,0.543122566913519,20.4180840000008,
0.420421811523438,-0.325372005615234,-0.0304542451171894,0.532493101071166,20.421029000001,
0.449152231445313,-0.392409652099609,0.0246123930664055,0.596932853816654,20.4240790000003,
0.422816013183594,-0.380438643798828,-0.056790463378908,0.571604845527705,20.42706,
0.439575424804688,-0.382832845458984,-0.056790463378908,0.585672859525892,20.430072000001,
0.420421811523438,-0.339737215576172,0.0246123930664055,0.541093009698475,20.4330590000009,
0.441969626464844,-0.38522704711914,-0.0041180268554708,0.58630536983281,20.4360020000004,
0.439575424804688,-0.375650240478515,0.000670376464842803,0.578221503118306,20.4390560000011,
0.434787021484375,-0.373256038818359,0.00785298144531055,0.573080704511334,20.4420310000005,
0.413239206542969,-0.363679232177734,-0.0136948334960945,0.550651227371859,20.4450649999999,
0.422816013183594,-0.339737215576172,0.0102471831054682,0.542494019702997,20.4480480000002,
0.398873996582031,-0.358890828857422,0.00785298144531055,0.536623482066215,20.4510069999997,
0.444363828125,-0.354102425537109,-0.0496078583984385,0.570358377804734,20.4540400000005,
0.432392819824219,-0.392409652099609,-0.00172382519531311,0.583910829895952,20.4570100000001,
0.384508786621094,-0.399592257080078,0.0150355864257801,0.554749536066813,20.4600630000004,
0.446758029785156,-0.375650240478515,0.0413718046874987,0.58516447822145,20.4630460000008,
0.444363828125,-0.361285030517578,0.0222181914062478,0.573131514620647,20.4659960000008,
0.384508786621094,-0.390015450439453,0.0246123930664055,0.548237930521749,20.4691089999997,
0.437181223144531,-0.334948812255859,0.00545877978515463,0.550770303283049,20.472181000001,
0.410845004882813,-0.416351668701172,-0.0639730683593758,0.588417269922223,20.4753149999997,
0.451546433105469,-0.375650240478515,0.0844674345703105,0.593415564275768,20.4783810000008,
0.418027609863281,-0.354102425537109,-0.0136948334960945,0.548017480418059,20.481323,
0.427604416503906,-0.401986458740234,0.0150355864257801,0.587081526607104,20.4843670000009,
0.377326181640625,-0.375650240478515,0.017429788085936,0.53272126673879,20.4873490000009,
