X,Y,Z,Magnitude,Seconds,
-2.76257352758789,-0.808043060302735,3.61692044799805,4.62243005461188,0.0,
-2.9205908371582,-0.752976422119141,3.52594078491211,4.63994426141807,0.00292300000000978,
-3.02114730688477,-0.640448944091797,3.33440465209961,4.54486086517826,0.00592400000005,
-3.18634722143555,-0.499191046142578,3.23863658569336,4.57064188602547,0.00888299999996889,
-3.26296167456055,-0.362721551513672,2.99682221801758,4.44515795219779,0.0118989999999712,
-3.36830654760742,-0.180762225341797,2.73346003540039,4.34165495472598,0.0148649999999861,
-3.42816158911133,0.0538695373535156,2.3719355847168,4.1690852984988,0.0178150000000414,
-3.44970940405273,0.264559283447266,2.06787197387696,4.03070478790171,0.0208380000000261,
-3.4353441940918,0.535104071044922,1.76141416137696,3.89749996108125,0.0237580000000435,
-3.40661377416992,0.822408270263672,1.38791870239258,3.76930910032773,0.0267690000000584,
-3.38506595922852,1.05704003295898,1.25863181274414,3.76299870045914,0.0296799999999848,
-3.32521091772461,1.2150573425293,0.997663831787111,3.67814152993675,0.0325960000000123,
-3.28690369116211,1.53588036499023,0.751061060791018,3.70496384430053,0.0355799999999817,
-3.17916461645508,1.75854111938477,0.480516273193361,3.66475789321623,0.0385089999999764,
-3.04987772680664,2.0027496887207,0.16208745239258,3.65226406580428,0.0414799999999786,
-2.99002268530273,2.2709002746582,0.011252747802736,3.75464383669088,0.0444180000000642,
-2.47526932836914,2.72819279174805,0.130962830810549,3.68607452718538,0.0473289999999906,
-2.9205908371582,2.53426245727539,-0.359848509521482,3.8835329263768,0.0503019999999879,
-2.61892142797852,2.83832606811523,-0.41252094604492,3.88394359456897,0.0532309999999825,
-2.30288680883789,3.23336934204102,-0.544202037353513,4.00675939055866,0.056222000000048,
-2.4393563034668,3.25252295532227,-0.905726488037107,4.16529773501169,0.0591570000000274,
-2.36034764868164,3.3985692565918,-1.0158597644043,4.26069068056148,0.0621390000000019,
-2.30288680883789,3.55658656616211,-1.12120463745117,4.38288666245961,0.0650719999999865,
-2.21669554907227,3.64277782592773,-1.29837556030273,4.45750474390539,0.0679850000000215,
-1.99164059301758,3.77445891723633,-1.18584808227539,4.42938009702221,0.0709809999999607,
-1.97727538305664,4.06894572143555,-1.06853220092773,4.64840814568277,0.0739200000000437,
-1.95572756811523,4.0330326965332,-1.27443354370117,4.65987166232103,0.0769139999999879,
-1.80249866186523,3.8965632019043,-1.32231757690429,4.49229673849031,0.0798519999999598,
-1.72109580541992,3.80558353881836,-1.46118127319336,4.42489407279884,0.08275900000001,
-1.67081757055664,3.77206471557617,-1.47554648315429,4.38147703366394,0.0857489999999643,
-1.61575093237305,3.73375748901367,-1.55216093627929,4.35440003150164,0.088675999999964,
-1.45533942114258,3.80079513549805,-1.37738421508789,4.2966549510905,0.0916720000000169,
-1.22789026342773,3.8031893371582,-1.11162783081054,4.1482140816895,0.0945940000000292,
-1.10818018041992,3.69784446411133,-1.08529161254883,4.00998439863588,0.0975039999999581,
-1.0052295090332,3.52306774291992,-0.991917747802733,3.79557551702506,0.100498000000016,
-0.938191862548828,3.32913740844727,-0.910514891357419,3.57664608574282,0.103431,
-0.852000602783203,3.0370448059082,-0.941639512939451,3.29184312393009,0.106421000000068,
-0.854394804443359,2.8455086730957,-0.893755479736326,3.10253266672269,0.109339999999975,
-0.765809343017578,2.66594354858398,-0.934456907958982,2.92693161295611,0.112236000000053,
-0.772991947998047,2.40976397094727,-0.754891783447263,2.6408976792109,0.115333999999962,
-0.770597746337891,2.25174666137695,-0.762074388427733,2.49898805262866,0.118363000000045,
-0.852000602783203,2.09133515014648,-0.654335313720701,2.35111514821438,0.121457999999961,
-0.976499089111328,1.92852943725586,-0.69982514526367,2.27212048433638,0.124431999999956,
-1.01959471899414,1.72741649780273,-0.666306322021482,2.11364738370609,0.127331000000027,
-1.0818439621582,1.60052380981445,-0.594480272216794,2.0212544664876,0.130325999999968,
-1.19915984350586,1.49278473510742,-0.474770189208982,1.97276388050072,0.133240000000001,
-1.24464967504883,1.49996734008789,-0.465193382568357,2.00386120230791,0.136261999999988,
-1.35717715307617,1.35631524047852,-0.429280357666013,1.96616440865562,0.13918799999999,
-1.45055101782227,1.39701666870117,-0.350271702880857,2.04412428530488,0.142111,
-1.56547269750977,1.35392103881836,-0.288022459716794,2.08968033041056,0.145098999999959,
-1.67081757055664,1.35631524047852,-0.225773216552732,2.16383824047632,0.148041000000035,
-1.81446967016602,1.42574708862305,-0.230561619873045,2.31909758424003,0.151064000000019,
-1.90784353491211,1.54785137329102,-0.316752879638669,2.47710379561782,0.154008999999974,
-1.8862957199707,1.49757313842773,-0.156341368408201,2.41356157402206,0.157036000000062,
-1.96769857641602,1.58615859985352,-0.264080443115231,2.54115628640877,0.159981000000016,
-2.07304344946289,1.6579846496582,-0.295205064697264,2.67087406518655,0.162896000000046,
-2.15684050756836,1.79205994262695,-0.362242711181638,2.82748290796957,0.165894999999978,
-2.14486949926758,1.91895263061523,-0.357454307861326,2.90010654108467,0.168833000000063,
-2.1544463059082,2.00035548706055,-0.388578929443357,2.96547711912638,0.171805000000063,
-2.18557092749023,2.07218153686523,-0.40533834106445,3.03890700278119,0.174717999999984,
-2.1712057175293,2.18710321655273,-0.398155736083982,3.10742381046806,0.177633000000014,
-2.18557092749023,2.29963069458008,-0.491529600830075,3.21039296022116,0.180647000000022,
-2.10895647436523,2.33314951782227,-0.498712205810545,3.18433634333839,0.183575000000019,
-2.1712057175293,2.45764800415039,-0.522654222412108,3.32074320240839,0.186584000000039,
-2.12571588598633,2.49116682739258,-0.58490346557617,3.32666383241212,0.189514000000031,
-2.1161390793457,2.60369430541992,-0.592086070556638,3.4070272312028,0.192416999999978,
-2.04670723120117,2.68030875854492,-0.551384642333982,3.4171758156679,0.195412000000033,
-2.08501445776367,2.70425077514648,-0.627999095458982,3.471979321347,0.198342000000025,
-2.08262025610352,2.73776959838867,-0.678277330322263,3.50610177288439,0.201334999999972,
-2.0562840378418,2.72579859008789,-0.675883128662107,3.48067522208237,0.204259999999977,
-2.01079420629883,2.73298119506836,-0.73813237182617,3.47236503712094,0.207176000000004,
-1.98206378637695,2.69467396850586,-0.740526573486326,3.42610920080628,0.210191000000009,
-1.94854496313477,2.66594354858398,-0.821929429931638,3.40288854730539,0.213133999999968,
-1.91502613989258,2.61327111206055,-0.8841786730957,3.35831549255863,0.216125000000034,
-1.85277689672852,2.57975228881836,-0.900938084716795,3.30145324564921,0.219062000000008,
-1.81925807348633,2.52947405395508,-0.991917747802733,3.26983787762989,0.221976000000041,
-1.7881334519043,2.52707985229492,-0.903332286376951,3.22483535103811,0.224972999999977,
-1.74743202368164,2.5390508605957,-0.979946739501951,3.23428408806963,0.227901999999972,
-1.74503782202148,2.54862766723633,-0.920091697998044,3.22292238802192,0.230902000000015,
-0.852000602783203,3.3435026184082,-0.522654222412108,3.48971090817716,14.646443,
-0.873548417724609,3.38899244995117,-0.551384642333982,3.54293405071799,14.650655,
-0.871154216064453,3.37223303833008,-0.503500609130857,3.51914452621187,14.653575,
-0.91185564428711,3.36265623168945,-0.465193382568357,3.51501671855534,14.656479,
-0.871154216064453,3.35786782836914,-0.48195279418945,3.50235128403625,14.659464,
-0.923826652587891,3.39138665161133,-0.577720860595701,3.56212303233994,14.66242,
-0.883125224365234,3.34589682006836,-0.477164390869138,3.49322509271407,14.665514,
-0.907067240966797,3.41293446655274,-0.513077415771482,3.56849283132157,14.668529,
-0.885519426025391,3.38659824829102,-0.419703551025389,3.52552739599899,14.671515,
-0.866365812744141,3.40335765991211,-0.424491954345701,3.53746045943675,14.6745080000001,
-0.902278837646485,3.39138665161133,-0.390973131103513,3.53107214749813,14.677418,
-0.878336821044922,3.3985692565918,-0.419703551025389,3.53523685681703,14.680384,
-0.856789006103516,3.37702144165039,-0.46998178588867,3.51557166011638,14.683307,
-0.897490434326172,3.40096345825195,-0.426886156005857,3.54320099828693,14.6862140000001,
-0.863971611083984,3.39617505493164,-0.369425316162108,3.52376602695475,14.689201,
-0.887913627685547,3.33632001342773,-0.458010777587889,3.48269948669345,14.692119,
-0.892702031005859,3.34589682006836,-0.446039769287108,3.49154606478151,14.695107,
-0.875942619384766,3.28843598022461,-0.474770189208982,3.43605782853723,14.698054,
-0.91185564428711,3.29083018188477,-0.46998178588867,3.44701709904217,14.7009830000001,
-0.859183207763672,3.29322438354492,-0.501106407470701,3.44014974332312,14.7040000000001,
-0.895096232666016,3.28125337524414,-0.48195279418945,3.43512728644966,14.706961,
-0.892702031005859,3.2836475769043,-0.414915147705075,3.42803338742005,14.709965,
-0.878336821044922,3.2836475769043,-0.548990440673826,3.44313919039937,14.712898,
-0.863971611083984,3.30040698852539,-0.498712205810545,3.44787573715914,14.7158870000001,
-0.878336821044922,3.26449396362305,-0.460404979248045,3.41179852198969,14.718821,
-0.847212199462891,3.27167656860352,-0.44364556762695,3.40858584608677,14.721722,
-0.856789006103516,3.27167656860352,-0.458010777587889,3.41287691587549,14.724707,
-0.847212199462891,3.25252295532227,-0.436462962646482,3.38927337398139,14.7276420000001,
-0.806510771240234,3.3051953918457,-0.395761534423826,3.42511363235354,14.730622,
-0.81608757788086,3.2668881652832,-0.448433970947264,3.39700607087159,14.733552,
-0.842423796142578,3.2285809387207,-0.460404979248045,3.36829118027143,14.736461,
-0.840029594482422,3.26928236694336,-0.501106407470701,3.41247191138935,14.739448,
-0.844817997802734,3.26928236694336,-0.388578929443357,3.39895840348562,14.7423700000001,
-0.837635392822266,3.25012875366211,-0.410126744384764,3.38129766704284,14.745354,
-0.852000602783203,3.22139833374023,-0.44364556762695,3.36156714070124,14.7482690000001,
-0.818481779541016,3.25731135864258,-0.417309349365231,3.38439607665093,14.751168,
-0.856789006103516,3.27167656860352,-0.472375987548826,3.41483440947608,14.7541670000001,
-0.804116569580078,3.2453403503418,-0.455616575927731,3.37437755908997,14.757084,
-0.83524119116211,3.25970556030273,-0.426886156005857,3.39198171832808,14.760089,
-0.823270182861328,3.24773455200195,-0.501106407470701,3.38772211756868,14.76301,
-0.823270182861328,3.23576354370117,-0.46998178588867,3.37176843567307,14.765923,
-0.856789006103516,3.24773455200195,-0.419703551025389,3.38496945215027,14.7689300000001,
-0.825664384521484,3.25731135864258,-0.474770189208982,3.39370088481156,14.771847,
-0.863971611083984,3.23576354370117,-0.434068760986326,3.37713315472885,14.77485,
-0.902278837646485,3.19985051879883,-0.393367332763669,3.34781843922388,14.77778,
-0.887913627685547,3.23097514038086,-0.369425316162108,3.37106304186236,14.7806840000001,
-0.938191862548828,3.23576354370117,-0.357454307861326,3.38794085897423,14.7836600000001,
-0.914249845947266,3.25731135864258,-0.424491954345701,3.40971017643154,14.786567,
-0.902278837646485,3.28843598022461,-0.417309349365231,3.43541342344238,14.789538,
-0.916644047607422,3.27407077026367,-0.355060106201169,3.41845628869592,14.792443,
-0.907067240966797,3.25731135864258,-0.347877501220701,3.39909797190852,14.795332,
-0.904673039306641,3.27646497192383,-0.450828172607419,3.42883392154077,14.798309,
-0.923826652587891,3.26209976196289,-0.477164390869138,3.42380437480642,14.8013120000001,
-0.907067240966797,3.29322438354492,-0.429280357666013,3.44272848849395,14.80441,
-0.921432450927735,3.25252295532227,-0.458010777587889,3.41140985648275,14.807438,
-0.909461442626953,3.24773455200195,-0.479558592529294,3.40659306045807,14.8104510000001,
-0.914249845947266,3.23097514038086,-0.489135399169919,3.39327372566594,14.8133740000001,
-0.854394804443359,3.2836475769043,-0.398155736083982,3.41626402395158,14.816285,
-0.852000602783203,3.32434900512695,-0.434068760986326,3.45913530008523,14.819283,
-0.868760014404297,3.3435026184082,-0.362242711181638,3.47346707249896,14.822239,
-0.828058586181641,3.35068522338867,-0.458010777587889,3.48174472940952,14.8252200000001,
-0.852000602783203,3.38899244995117,-0.472375987548826,3.52623225647173,14.828154,
-0.830452787841797,3.39378085327149,-0.441251365966794,3.52166197708325,14.831081,
-0.837635392822266,3.40575186157227,-0.429280357666013,3.53342049852396,14.834097,
-0.840029594482422,3.39378085327149,-0.46998178588867,3.52764525975976,14.8370620000001,
-0.825664384521484,3.42969387817383,-0.410126744384764,3.55143995026101,14.840073,
-0.856789006103516,3.36265623168945,-0.477164390869138,3.50274609262694,14.8430510000001,
-0.875942619384766,3.33632001342773,-0.544202037353513,3.49205706739062,14.845984,
-0.892702031005859,3.33871421508789,-0.548990440673826,3.49933136901083,14.848989,
-0.904673039306641,3.31237799682617,-0.556173045654294,3.47844933247832,14.851947,
-0.940586064208984,3.28604177856445,-0.529836827392575,3.45882924966189,14.854956,
-0.91185564428711,3.23097514038086,-0.539413634033201,3.40024236523785,14.857898,
-0.904673039306641,3.25731135864258,-0.58490346557617,3.43083410546667,14.860827,
-0.931009257568359,3.2070331237793,-0.58490346557617,3.39027310975659,14.863832,
-0.899884635986328,3.16393749389648,-0.589691868896482,3.3418601591944,14.866776,
-0.849606401123047,3.19985051879883,-0.496318004150389,3.34771652634004,14.86977,
-0.866365812744141,3.15914909057617,-0.611239683837889,3.33233051318118,14.8727240000001,
-0.825664384521484,3.1304186706543,-0.551384642333982,3.28409314016062,14.875625,
-0.813693376220703,3.14238967895508,-0.563355650634763,3.29455298849646,14.878607,
-0.794539762939453,3.14478388061523,-0.544202037353513,3.28893827064738,14.881532,
-0.818481779541016,3.14478388061523,-0.563355650634763,3.29802178105606,14.884529,
-0.878336821044922,3.10168825073242,-0.532231029052731,3.26729482052376,14.887461,
-0.83524119116211,3.11605346069336,-0.560961448974608,3.27446098839926,14.890372,
-0.772991947998047,3.16633169555664,-0.534625230712889,3.30287709357633,14.893354,
-0.768203544677734,3.19745631713867,-0.592086070556638,3.34132152014927,14.8963,
-0.763415141357422,3.19506211547852,-0.496318004150389,3.32228177026929,14.899299,
-0.804116569580078,3.19985051879883,-0.570538255615231,3.34830713962307,14.902234,
-0.765809343017578,3.20942732543945,-0.520260020751952,3.34029313029909,14.905214,
-0.765809343017578,3.2285809387207,-0.505894810791013,3.3565053831789,14.908136,
-0.832846989501953,3.23815774536133,-0.527442625732419,3.38489223095884,14.911049,
-0.825664384521484,3.25970556030273,-0.556173045654294,3.40833250614552,14.914033,
-0.849606401123047,3.28604177856445,-0.541807835693357,3.43707104059823,14.916964,
-0.868760014404297,3.32674320678711,-0.592086070556638,3.48891533882368,14.919942,
-0.895096232666016,3.30280119018555,-0.505894810791013,3.45913609550264,14.9228870000001,
-0.926220854248047,3.26928236694336,-0.572932457275389,3.44591698481701,14.9258100000001,
-0.904673039306641,3.31477219848633,-0.563355650634763,3.48188420614591,14.928818,
-0.91185564428711,3.34589682006836,-0.534625230712889,3.50889304252447,14.9317540000001,
-0.919038249267578,3.30758959350586,-0.496318004150389,3.46858930747486,14.934756,
-0.933403459228516,3.34589682006836,-0.43167455932617,3.50037290490781,14.937719,
-0.964528080810547,3.32913740844727,-0.529836827392575,3.50630822470822,14.940731,
-0.964528080810547,3.31956060180664,-0.436462962646482,3.48429288744518,14.943843,
-0.947768669189453,3.29083018188477,-0.417309349365231,3.44992403240542,14.946875,
-0.978893290771484,3.29561858520508,-0.513077415771482,3.47600091605875,14.949891,
-1.01720051733398,3.24773455200195,-0.446039769287108,3.43240849674358,14.9528290000001,
-1.05550774389648,3.25012875366211,-0.441251365966794,3.44559665091174,14.955746,
-1.07466135717773,3.2453403503418,-0.460404979248045,3.44950775721466,14.958747,
-1.05311354223633,3.2453403503418,-0.441251365966794,3.44034662357817,14.961733,
-1.00283530737305,3.23815774536133,-0.395761534423826,3.41291245561427,14.964731,
-1.04114253393555,3.20942732543945,-0.379002122802731,3.39529735698306,14.967671,
-0.998046904052735,3.19266791381836,-0.393367332763669,3.36808014885337,14.9706160000001,
-1.0219889206543,3.20463892211914,-0.314358677978513,3.37831220486228,14.973614,
-1.03635413061523,3.17112009887695,-0.398155736083982,3.35984531723132,14.976575,
-1.00044110571289,3.16393749389648,-0.398155736083982,3.34214165789851,14.979609,
-0.981287492431641,3.17590850219727,-0.410126744384764,3.34925721669616,14.982571,
-0.995652702392578,3.17590850219727,-0.44364556762695,3.35775825630517,14.985496,
-0.95016287084961,3.17112009887695,-0.379002122802731,3.33203462943162,14.988484,
-0.919038249267578,3.19506211547852,-0.462799180908201,3.3566704198107,14.991427,
-0.878336821044922,3.17351430053711,-0.517865819091794,3.33329470546792,14.994423,
-0.849606401123047,3.18309110717773,-0.44364556762695,3.32426253823284,14.997348,
-0.83524119116211,3.17351430053711,-0.539413634033201,3.32562594584964,15.000332,
-0.83524119116211,3.16633169555664,-0.541807835693357,3.31916254264825,15.003246,
-0.842423796142578,3.18309110717773,-0.565749852294919,3.34093096969587,15.006153,
-0.840029594482422,3.18309110717773,-0.599268675537107,3.34616820582592,15.0091610000001,
-0.825664384521484,3.22618673706055,-0.58490346557617,3.38114102076439,15.012083,
-0.840029594482422,3.17590850219727,-0.601662877197263,3.33976687086576,15.015072,
-0.806510771240234,3.23336934204102,-0.587297667236326,3.38379306047496,15.018,
-0.765809343017578,3.25012875366211,-0.563355650634763,3.3863210796285,15.0209180000001,
-0.787357157958984,3.24294614868164,-0.604057078857419,3.39138850206757,15.02391,
-0.741867326416016,3.25252295532227,-0.572932457275389,3.38489649849173,15.026844,
-0.710742704833985,3.25252295532227,-0.568144053955075,3.3774026164225,15.029843,
-0.744261528076172,3.23815774536133,-0.577720860595701,3.37244009565556,15.032772,
-0.768203544677734,3.23097514038086,-0.613633885498045,3.37725977520918,15.035694,
-0.825664384521484,3.21900413208008,-0.560961448974608,3.37022061970007,15.038691,
-0.705954301513672,3.19745631713867,-0.458010777587889,3.30633819326189,15.041622,
-0.734684721435547,3.18548530883789,-0.50828901245117,3.30838873364534,15.044622,
-0.772991947998047,3.18309110717773,-0.517865819091794,3.31628867182087,15.047545,
-0.739473124755859,3.1519664855957,-0.525048424072263,3.27984589213815,15.0504530000001,
-0.753838334716797,3.15436068725586,-0.592086070556638,3.29679078728709,15.053445,
-0.792145561279297,3.17590850219727,-0.541807835693357,3.31774699689444,15.05637,
-0.832846989501953,3.13999547729492,-0.510683214111326,3.28846515118073,15.0593660000001,
-0.813693376220703,3.18069690551758,-0.556173045654294,3.32990362803294,15.062282,
-0.823270182861328,3.18309110717773,-0.458010777587889,3.31958079627069,15.065192,
-0.823270182861328,3.13520707397461,-0.534625230712889,3.28528862172013,15.068184,
-0.801722367919922,3.16633169555664,-0.48195279418945,3.30161985354716,15.071112,
-0.852000602783203,3.1519664855957,-0.434068760986326,3.29381442141564,15.074112,
-0.854394804443359,3.17112009887695,-0.517865819091794,3.32478242445198,15.0771080000001,
-0.849606401123047,3.22379253540039,-0.48195279418945,3.3685230953579,15.080108,
-0.859183207763672,3.20463892211914,-0.407732542724608,3.34277612652428,15.0831870000001,
-0.885519426025391,3.2070331237793,-0.407732542724608,3.35193256753214,15.086171,
-0.947768669189453,3.15914909057617,-0.429280357666013,3.32607427040697,15.089161,
-0.945374467529297,3.1902737121582,-0.434068760986326,3.35559159189675,15.092088,
-0.95016287084961,3.19506211547852,-0.417309349365231,3.35937174125979,15.095083,
-0.909461442626953,3.14957228393555,-0.460404979248045,3.310422696919,15.098045,
-0.928615055908203,3.20942732543945,-0.434068760986326,3.36914905704705,15.100956,
-0.897490434326172,3.17830270385742,-0.402944139404294,3.32707997146667,15.103953,
-0.919038249267578,3.18787951049805,-0.32872388793945,3.33395657913718,15.106881,
-0.899884635986328,3.15914909057617,-0.376607921142575,3.30633465651011,15.109873,
-0.928615055908203,3.19745631713867,-0.441251365966794,3.35868360969547,15.112813,
-0.907067240966797,3.19745631713867,-0.40533834106445,3.34825283549227,15.115726,
-0.892702031005859,3.18787951049805,-0.37421371948242,3.33159550327829,15.118749,
-0.91185564428711,3.20942732543945,-0.276051451416013,3.34785138217403,15.121695,
-0.935797660888672,3.22379253540039,-0.398155736083982,3.3803969535551,15.124691,
-0.926220854248047,3.21182152709961,-0.316752879638669,3.35767999957468,15.127641,
-0.883125224365234,3.26209976196289,-0.331118089599608,3.39570967666092,15.130552,
-0.861577409423828,3.2836475769043,-0.304781871337889,3.40845258597434,15.133544,
-0.880731022705078,3.27646497192383,-0.266474644775387,3.40322179455103,15.136471,
-0.878336821044922,3.25731135864258,-0.32872388793945,3.3896330557816,15.13946,
-0.904673039306641,3.26209976196289,-0.280839854736326,3.3968513639921,15.142398,
-0.895096232666016,3.29801278686523,-0.256897838134764,3.426963978115,15.145291,
-0.935797660888672,3.32913740844727,-0.242532628173826,3.46665475958835,15.148311,
-0.990864299072266,3.29083018188477,-0.25929203979492,3.44653560943169,15.1512310000001,
-0.974104887451172,3.33632001342773,-0.333512291259764,3.49158159179705,15.154224,
-1.00044110571289,3.33153161010742,-0.29759926635742,3.49121047753948,15.157143,
-1.00044110571289,3.36983883666992,-0.314358677978513,3.5292375337386,15.1600550000001,
-1.04832513891602,3.3602620300293,-0.29041666137695,3.53195248333627,15.163052,
-1.05790194555664,3.36505043334961,-0.309570274658201,3.54098216605942,15.165983,
-1.00044110571289,3.36265623168945,-0.319147081298826,3.52281055380807,15.1689720000001,
-1.0435367355957,3.35307942504883,-0.278445653076169,3.5227322536549,15.171919,
-1.04114253393555,3.3435026184082,-0.326329686279294,3.51702695460518,15.174839,
-1.10099757543945,3.3435026184082,-0.364636912841794,3.53894977339787,15.177835,
-1.06747875219727,3.34829102172852,-0.364636912841794,3.53320304126259,15.180762,
-1.0435367355957,3.35307942504883,-0.295205064697264,3.52409656216263,15.183753,
-1.07226715551758,3.37462723999024,-0.299993468017576,3.55357030921566,15.186679,
-1.05790194555664,3.36505043334961,-0.316752879638669,3.54161733282385,15.189665,
-1.06508455053711,3.35547362670898,-0.268868846435545,3.53070797658429,15.192593,
-1.06747875219727,3.30758959350586,-0.266474644775387,3.48578090845783,15.195502,
-1.06269034887695,3.33632001342773,-0.244926829833982,3.51003292884371,15.198504,
-1.0818439621582,3.30040698852539,-0.304781871337889,3.48654049703451,15.20143,
-1.05550774389648,3.3219548034668,-0.316752879638669,3.49997324282072,15.204415,
-1.12493959204102,3.29801278686523,-0.302387669677731,3.49768719739789,15.2073330000001,
-1.10099757543945,3.27646497192383,-0.323935484619138,3.47164983423772,15.210231,
-1.11057438208008,3.2836475769043,-0.33590649291992,3.48260678794316,15.213239,
-1.13212219702148,3.31477219848633,-0.33590649291992,3.51884193575563,15.216264,
-1.10818018041992,3.27646497192383,-0.316752879638669,3.47327200364134,15.219352,
-1.12254539038086,3.27885917358398,-0.323935484619138,3.48079873475279,15.2223710000001,
-1.12493959204102,3.29561858520508,-0.295205064697264,3.4948157283487,15.225291,
-1.0986033737793,3.27885917358398,-0.37421371948242,3.47820108115157,15.228282,
-1.10099757543945,3.35068522338867,-0.398155736083982,3.54934009606509,15.231211,
-1.11057438208008,3.3051953918457,-0.43167455932617,3.51340788431689,15.2342200000001,
-1.11536278540039,3.28125337524414,-0.44364556762695,3.49392032612111,15.237175,
-1.12972799536133,3.27885917358398,-0.390973131103513,3.48999467233746,15.240078,
-1.10099757543945,3.27407077026367,-0.429280357666013,3.48080690290288,15.243094,
-1.14169900366211,3.30040698852539,-0.496318004150389,3.52739202047548,15.246037,
-1.14169900366211,3.32674320678711,-0.465193382568357,3.54783058530881,15.249049,
-1.10099757543945,3.30998379516602,-0.410126744384764,3.51232007821679,15.2520010000001,
-1.09620917211914,3.31477219848633,-0.496318004150389,3.52643174301444,15.2549310000001,
-1.10339177709961,3.33153161010742,-0.587297667236326,3.55829942990429,15.257962,
-1.11296858374023,3.35547362670898,-0.513077415771482,3.57227529209425,15.260898,
-1.09381497045898,3.37702144165039,-0.594480272216794,3.59918210167555,15.2638870000001,
-1.0986033737793,3.35307942504883,-0.627999095458982,3.58391599615035,15.266829,
-1.0986033737793,3.40335765991211,-0.613633885498045,3.62854230781358,15.269733,
-1.09620917211914,3.39617505493164,-0.659123717041012,3.62906649527727,15.2727150000001,
-1.06987295385742,3.45363589477539,-0.649546910400389,3.67343711255376,15.2756420000001,
-1.03156572729492,3.39378085327149,-0.608845482177733,3.59896778964884,15.278645,
-1.02438312231445,3.42490547485352,-0.687854136962889,3.64039580357703,15.281573,
-1.05550774389648,3.41772286987305,-0.759680186767575,3.6567800315094,15.284567,
-1.01720051733398,3.42251127319336,-0.726161363525389,3.64356839286395,15.287496,
-0.966922282470703,3.38659824829102,-0.769256993408201,3.60496084827194,15.2904110000001,
-0.964528080810547,3.37941564331055,-0.764468590087889,3.59655067170686,15.293407,
-0.909461442626953,3.3602620300293,-0.836294639892575,3.58020526657268,15.296333,
-0.940586064208984,3.29801278686523,-0.809958421630856,3.52386480036926,15.299306,
-0.887913627685547,3.35786782836914,-0.886572874755856,3.58464481159278,15.302238,
-0.895096232666016,3.32674320678711,-0.958398924560544,3.57588396459335,15.305147,
-0.909461442626953,3.33871421508789,-0.917697496337889,3.57998623187854,15.308139,
-0.854394804443359,3.32674320678711,-0.8841786730957,3.54668616763892,15.311085,
-0.873548417724609,3.29322438354492,-0.879390269775389,3.51876980279467,15.314089,
-0.820875981201172,3.25252295532227,-0.881784471435545,3.46847038411403,15.317017,
-0.799328166259766,3.24773455200195,-0.867419261474607,3.45530337493261,15.319939,
-0.794539762939453,3.21900413208008,-0.826717833251951,3.41712502157257,15.322939,
-0.813693376220703,3.18069690551758,-0.881784471435545,3.39948136769999,15.325865,
-0.789751359619141,3.18309110717773,-0.809958421630856,3.37813689056335,15.3288660000001,
-0.794539762939453,3.21421572875977,-0.8075642199707,3.40802525742921,15.3317940000001,
-0.775386149658203,3.19506211547852,-0.788410606689451,3.38101122263566,15.334699,
-0.787357157958984,3.19985051879883,-0.793199010009763,3.38941577655012,15.3376950000001,
-0.756232536376953,3.16393749389648,-0.687854136962889,3.32498592900723,15.340632,
-0.796933964599609,3.21182152709961,-0.781228001708982,3.400179180062,15.343628,
-0.81608757788086,3.17112009887695,-0.692642540283201,3.34690234468871,15.346558,
-0.866365812744141,3.14238967895508,-0.77643959838867,3.35082990702918,15.349471,
-0.873548417724609,3.15675488891602,-0.692642540283201,3.34782645240375,15.352522,
-0.880731022705078,3.18787951049805,-0.788410606689451,3.39997855766016,15.355545,
