X,Y,Z,Magnitude,Seconds,
0.628717355957031,-1.18728460327148,-6.32002200634766,6.46123892172127,0.0,
0.6742071875,-1.10348754516602,-6.2577727631836,6.38998904925945,0.00299500000073749,
0.750821640625,-1.01729628540039,-6.05187142041016,6.18253771177318,0.00604500000008557,
0.738850632324219,-0.804212337646484,-5.84597007763672,5.9471021421809,0.00900700000056531,
0.829830295410156,-0.746751497802734,-5.3767065522461,5.49137773856591,0.0121060000001307,
0.839407102050781,-0.627041414794922,-4.55788958447266,4.67676626346514,0.0151060000007419,
0.906444748535156,-0.46184150024414,-3.46613362744141,3.61234300375461,0.018130000000383,
1.00700121826172,-0.315795198974609,-1.99369960644531,2.25579613041964,0.0211990000007063,
1.09319247802734,0.0122104284667972,-0.128616513183594,1.10080020714134,0.0242220000000088,
1.09079827636719,0.577242020263672,1.96630993945312,2.32151330120589,0.0273329999999987,
1.0955866796875,1.07284176391602,4.09475521533203,4.37245010224245,0.0303290000010747,
0.817859287109375,1.57083570922852,5.79224419238281,6.05693911337162,0.0333750000008877,
0.73166802734375,1.86053411010742,6.80020309130859,7.08799600452436,0.036536999999953,
0.597592734375,2.03770503295898,7.051594265625,7.3643968228579,0.0395150000003923,
0.686178195800781,1.96827318481445,6.63260897509766,6.95244141744453,0.0426010000010137,
0.650265170898438,1.83659209350586,5.70605293261719,6.02950705947352,0.0456229999999778,
0.638294162597656,1.53971108764648,4.27192613818359,4.58557331219597,0.0486540000001696,
0.434787021484375,1.18776344360352,1.75322599169922,2.16185640827087,0.0517309999995632,
0.422816013183594,0.924401260986329,0.19938911425781,1.03587986330563,0.0546869999998307,
0.3294421484375,0.809479581298828,-0.921097262695314,1.26972811619324,0.0577320000011241,
0.46351744140625,0.732865128173828,-1.53880129101563,1.76630946547099,0.0607440000003407,
0.54013189453125,0.766383951416016,-1.78300986035156,2.01450018282175,0.0637559999995574,
0.499430466308594,0.735259329833985,-2.00088221142578,2.18942154387529,0.0667979999998352,
0.398873996582031,0.740047733154297,-2.25227338574219,2.40406042283024,0.0698580000007496,
0.255221896972656,0.754412943115235,-2.27142699902344,2.40700181082747,0.072928999999931,
0.159453830566406,0.984256302490235,-1.80216347363281,2.05960655921716,0.0759500000003754,
0.123540805664063,1.21649386352539,-0.80856978466797,1.46591430422691,0.0789970000005269,
0.264798703613281,1.47985604614258,0.326281802246092,1.53836019358828,0.0820189999994909,
0.379720383300781,1.65702696899414,1.40846095263672,2.20764313252172,0.0849900000011985,
0.429998618164063,1.6809689855957,2.04292439257812,2.68031632759052,0.0880740000011428,
0.4826710546875,1.41760680297852,2.09080842578125,2.57178153586225,0.0910949999997683,
0.461123239746094,1.10875478881836,1.81068683154297,2.17268465863887,0.0941780000011931,
0.480276853027344,0.833421597900391,1.71252456347656,1.96417865682103,0.0971399999998539,
0.413239206542969,0.605972440185547,1.70773616015625,1.85858334028741,0.100115999999616,
0.556891306152344,0.452743533935547,1.65266952197265,1.8017827791512,0.103196000000025,
0.791523068847656,0.383311685791016,1.58802607714844,1.81528604872219,0.10613800000101,
0.956722983398438,0.26599580444336,1.3653653227539,1.68828170028676,0.109254000000874,
0.99981861328125,0.206140762939453,0.917649612304686,1.37266604990866,0.11223500000051,
0.987847604980469,0.256418997802735,0.319099197265624,1.06930720132026,0.115211000000272,
0.750821640625,0.345004459228516,-0.0663672700195335,0.828954659464692,0.118259000000762,
0.734062229003906,0.522175382080079,-0.0184832368164081,0.901030585354277,0.121243999999933,
0.781946262207031,0.84060420288086,0.355012222167968,1.20170256751376,0.124309000000721,
0.916021555175781,1.08960117553711,0.929620620605467,1.70015314296489,0.127285000000484,
0.963905588378906,1.13030260375977,1.47310439746094,2.09206465607374,0.130221000001256,
0.971088193359375,1.23564747680664,2.0333475859375,2.56989092598469,0.133319000000483,
0.882502731933594,1.22846487182617,2.44036186816406,2.87111529910771,0.13637000000017,
0.762792648925781,1.32183873657227,2.80667472216797,3.19476654339794,0.139451000000918,
0.784340463867188,1.29071411499023,2.89526018359375,3.26552666818045,0.142416000000594,
0.875320126953125,1.18058083862305,2.82582833544922,3.18516282513168,0.145398000000569,
0.911233151855469,0.97467949584961,2.06447220751953,2.45812763547597,0.148450000000594,
0.80828248046875,0.804691177978516,0.817093142578123,1.40302874660406,0.151472999999896,
0.755610043945313,0.455137735595703,-0.80856978466797,1.19661271660978,0.154577000001154,
0.611957944335938,0.263601602783203,-2.43183851025391,2.52147117187163,0.157618999999613,
0.597592734375,0.105584293212891,-3.55232488720703,3.60378651190959,0.160740000001169,
0.683783994140625,-0.21284452758789,-4.3041042084961,4.36327587726937,0.163754999999583,
0.702937607421875,-0.258334359130859,-4.57464899609375,4.63554434327805,0.166739000000234,
0.913627353515625,-0.421140072021484,-4.41184328320313,4.52508950816432,0.169807000000219,
0.822647690429688,-0.236786544189453,-3.60739152539063,3.70757207718725,0.172861000000921,
0.880108530273438,0.206140762939453,-1.8907489350586,2.09571385800413,0.175933000000441,
0.793917270507813,0.95552588256836,0.558519363281249,1.36208598253881,0.17893499999991,
0.736456430664063,1.75279503540039,3.23763102099609,3.75458561475257,0.1819200000009,
0.758004245605469,2.31782662719727,5.49536318652344,6.01214664341262,0.185035000000425,
0.92320416015625,2.38007587036133,6.68767561328125,7.15835680715084,0.188020999999935,
1.44753432373047,2.18853973754883,7.20242897021484,7.66551008558453,0.191086000000723,
2.02932532714844,1.84616890014648,7.06117107226563,7.57539687429478,0.194032999999763,
2.42915700439453,1.70012259887695,6.3453047758789,7.00386416929989,0.19702099999995,
2.15861221679688,1.64745016235352,4.60950857226563,5.34988486023144,0.200066999999763,
1.81145297607422,1.42718360961914,2.48106329638672,3.38731309754073,0.203084000000672,
1.48105314697266,1.12790840209961,0.352618020507812,1.89473883584819,0.206207000001086,
1.14347071289063,0.761595548095704,-1.50288826611328,2.03622842297685,0.209217999999964,
0.930386765136719,0.503021768798829,-3.07348455517578,3.25037809239651,0.212226999999984,
0.832224497070312,0.287543619384766,-4.20833614208985,4.29946183043791,0.215317000000141,
0.813070883789063,0.222900174560547,-4.63929244091797,4.71527338573738,0.2183270000005,
0.856166513671875,0.354581265869141,-4.43339109814453,4.52920584676228,0.221396000000823,
0.796311472167969,0.498233365478516,-4.23946076367188,4.34227774490482,0.224425000000338,
0.707726010742188,0.594001431884766,-4.11975068066406,4.22209183677881,0.227429000000484,
0.621534750976562,0.598789835205078,-4.09820286572266,4.18809281678831,0.230516999999963,
0.621534750976562,0.383311685791016,-4.16045210888672,4.22404960262962,0.233511000000362,
0.638294162597656,0.141497318115235,-3.98567538769531,4.03894159714154,0.236636999999973,
-4.13574394775391,3.39761157592774,8.86639912402344,10.3566971496102,19.9514120000003,
-5.55550553222656,3.45028401245117,9.45477418200684,11.4961235343884,19.9557299999997,
-5.71352284179688,2.64104385131836,9.45477418200684,11.3583542259019,19.9586630000013,
-6.28094863525391,3.1366435949707,7.82013299853515,10.509202106504,19.9615940000003,
-6.17081535888672,2.4088062902832,5.75872536914062,8.77748413924878,19.9646169999996,
-5.51719830566406,1.25719529174805,3.87927706591797,6.86067108231935,19.9675700000007,
-5.00005074707031,0.847786807861328,1.96630993945312,5.43926692881074,19.970593,
-4.82527402587891,0.941160672607422,0.0365834013671869,4.91633920531731,19.9735460000011,
-4.25305982910156,0.366552274169922,-1.22516087353516,4.4411594933821,19.9764859999996,
-3.91787159667969,0.203746561279297,-1.91469095166016,4.36546354350507,19.9795169999998,
-3.84843974853516,0.433589920654297,-2.5802790131836,4.65363605187106,19.9824860000008,
-3.71197025390625,0.383311685791016,-2.71435430615235,4.61447400184209,19.9855930000012,
-3.64253840576172,0.66822168334961,-2.97053388378906,4.7474917388329,19.9886530000003,
-3.46776168457031,0.950737479248047,-2.65449926464844,4.46941150504627,19.9916950000006,
-3.42945445800781,1.47506764282227,-1.86920112011719,4.1750323660899,19.9947960000009,
-3.43903126464844,2.19093393920899,-0.746320541503907,4.14537355564947,19.9977520000011,
-3.25946614013672,2.77990754760742,0.469933901855468,4.30962218344666,20.0007679999999,
-3.43663706298828,4.16854451049805,1.21453061816406,5.53735697433045,20.0037179999999,
-3.27383135009766,4.2475531652832,2.20094170214844,5.79688053844873,20.0066660000011,
-2.93624891601563,4.29064879516602,3.29988026416016,6.1579570100851,20.0096869999998,
-2.78302000976563,4.98017887329102,3.89603647753906,6.90843558405555,20.0126309999996,
-2.48853320556641,5.42310618041992,4.53049991748047,7.49188278482825,20.0156550000011,
-2.14616236816406,5.53084525512695,5.00215764453125,7.76001567314309,20.0186040000008,
-1.67211043945313,5.53802786010742,5.29664444873047,7.84347807527511,20.0216290000008,
-1.21721212402344,5.45901920532227,5.36128789355469,7.74763860260164,20.0245759999998,
-0.716823977050781,5.28903088745117,5.33495167529297,7.54648220830068,20.0275529999999,
-0.137427175292969,4.85568038696289,5.1745401640625,7.09735050271163,20.0305650000009,
0.671812985839844,4.25234156860352,4.79625630175781,6.44498378711444,20.0335630000009,
1.53851398681641,3.58196510375977,4.28629134814453,5.7939444951916,20.0365970000003,
2.30944692138672,2.89722342895508,3.76914378955078,5.2852524619263,20.0395870000011,
2.96066977294922,2.35613385375977,3.36931211230469,5.06647770659371,20.0425470000009,
3.57119119628906,1.95869637817383,3.09637312304687,5.11638784490101,20.0455990000009,
3.95665766357422,1.75040083374024,2.71090665576172,5.10568877250977,20.0485819999994,
4.13861698974609,1.66181537231445,2.3398053984375,5.03631514324043,20.051633000001,
3.95426346191406,1.76476604370117,1.82505204150391,4.69908647179714,20.054610000001,
3.74596791748047,1.93236015991211,1.29593347460937,4.40973185092038,20.0575870000011,
3.56879699462891,2.03770503295898,0.898495999023437,4.20664341850837,20.060633000001,
3.48499993652344,2.21008755249024,0.644710623046874,4.17676469707238,20.0636180000001,
3.42993329833984,2.30106721557617,0.53218314501953,4.1644413384634,20.0666590000001,
3.35092464355469,2.35134545043945,0.388531045410154,4.11199194640893,20.0696289999996,
3.35810724853516,2.28670200561523,0.187418105957031,4.06706477715682,20.0725810000004,
3.39641447509766,2.04488763793945,-0.135799118164064,3.9668171295063,20.0756170000004,
3.44669270996094,1.89165873168945,-0.569149618652345,3.97265587264829,20.078590000001,
3.48499993652344,1.6809689855957,-0.708013314941407,3.93346719094457,20.0816290000002,
3.50654775146484,1.53971108764648,-0.679282895019533,3.88947459410533,20.0845939999999,
3.60471001953125,1.58520091918945,-0.470987350585938,3.96593310124112,20.0875530000012,
3.46345212158203,1.66660377563477,-0.34888306591797,3.85937665136942,20.0905910000001,
3.25515657714844,1.91560074829102,-0.00651222851562672,3.77698464091742,20.0935700000009,
3.01573641113281,2.3106440222168,0.469933901855468,3.82813006191685,20.0966129999997,
2.91039153808594,2.56682359985352,0.912861208984374,3.98651199478888,20.0995910000001,
2.77392204345703,2.74399452270508,1.16425238330078,4.07180955544754,20.1025389999995,
2.59196271728516,3.05045233520508,1.51620002734375,4.28046641151073,20.1055639999995,
2.35493675292969,3.48380283569336,2.05728960253906,4.68135128109389,20.108529000001,
2.13467020019531,3.82138526977539,2.71330085742187,5.14993240601705,20.1115600000012,
2.12748759521484,4.05362283081055,3.40522513720703,5.70557795120952,20.1145240000005,
2.05087314208984,4.34810963500977,3.86970025927734,6.17144376460333,20.1175550000007,
2.0149601171875,4.42711828979492,4.19052328173828,6.42027460475668,20.1205210000007,
1.72526171630859,4.44866610473633,3.95828572070312,6.19961159653669,20.1234899999999,
1.38049667724609,4.18290972045899,3.12989194628906,5.40358477317076,20.1266230000001,
1.12431709960938,3.84532728637695,2.10277943408203,4.52463393306326,20.1296940000011,
0.995030209960938,3.51253325561524,1.07087851855469,3.80457038205889,20.132810000001,
0.899262143554688,3.13903779663086,0.0437660063476546,3.26560042791817,20.1358180000007,
0.832224497070312,2.83497418579102,-1.0096827241211,3.12236055749716,20.1387489999997,
0.7125144140625,2.47344973510742,-2.08707347119141,3.31383555061212,20.1417930000007,
0.604775339355469,2.18614553588867,-3.04235993359375,3.79485697763632,20.1447669999998,
0.549708701171875,1.89644713500977,-3.81329286816406,4.29416975565961,20.1478310000002,
0.477882651367188,1.67139217895508,-4.43339109814453,4.76202480815221,20.1507880000008,
0.465911643066406,1.53252848266602,-4.91462563183594,5.16906783766921,20.1537580000004,
0.432392819824219,1.36014596313477,-5.20432403271485,5.39647563036846,20.1567919999998,
0.528160886230469,1.28113730834961,-5.53711806347656,5.70788429923623,20.1597739999997,
0.437181223144531,1.17818663696289,-5.72865419628906,5.86487255394765,20.162819000001,
0.379720383300781,1.18536924194336,-5.70710638134766,5.8412627964558,20.1658179999995,
0.367749375,1.18776344360352,-5.50359924023438,5.64230681529126,20.1687910000001,
0.360566770019531,1.2595894934082,-5.16122840283203,5.32492748436509,20.1718540000002,
0.260010300292969,1.44154881958008,-4.60337941601563,4.83081467283599,20.1748019999995,
0.137906015625,1.64505596069336,-3.91863774121094,4.25216990838808,20.1778630000008,
0.0541089575195313,1.93954276489258,-2.85321800244141,3.45045024389379,20.180835000001,
-0.0177170922851563,2.25318318237305,-1.55316650097656,2.73669043343297,20.1837730000007,
-0.063206923828125,2.55245838989258,-0.226778781250001,2.56329232881817,20.1867739999998,
-0.163763393554687,2.77751334594727,1.08763793017578,2.98736591383459,20.1897509999999,
-0.276290871582031,2.9235596472168,2.21051850878906,3.67558563146786,20.1927290000003,
-0.228406838378906,2.81821477416992,2.81625152880859,3.99071132389761,20.1956860000009,
-0.151792385253906,2.6171018347168,3.02215287158203,4.00070880228874,20.1985980000009,
0.08044517578125,2.30106721557617,3.15862236621094,3.90874366123361,20.2016370000001,
0.286346518554688,1.85574570678711,2.93835581347656,3.48707919949328,20.2046000000009,
0.453940634765625,1.44873142456055,2.35177640673828,2.79923866572528,20.2076350000007,
0.609563742675781,0.996227310791016,1.71491876513672,2.07484533933709,20.2105970000011,
0.772369455566406,0.488656558837891,1.19298280322266,1.50284655809308,20.213627000001,
0.837012900390625,0.0385466467285158,0.462751296874998,0.957191309067227,20.2165850000001,
0.662236179199219,-0.0404620080566404,-0.569149618652345,0.874142562485356,20.219516000001,
0.643082565917969,-0.50014872680664,-1.43585061962891,1.65086975179832,20.2225419999995,
0.626323154296875,-0.931105025634766,-2.43183851025391,2.67825984593068,20.2255010000008,
0.580833322753906,-1.39797434936523,-3.02799472363281,3.38532888751635,20.228513,
0.568862314453125,-1.65894233032227,-3.60020892041016,4.00464708292016,20.2314870000009,
0.568862314453125,-1.81456543823242,-3.91145513623047,4.34922215403816,20.234418,
0.604775339355469,-1.9797653527832,-3.98806958935547,4.49331983200787,20.2374529999997,
0.813070883789063,-2.21918551879883,-3.89948412792969,4.55980757191436,20.2403859999995,
0.937569370117188,-2.44902887817383,-3.9210319428711,4.71712521213151,20.2434069999999,
0.983059201660156,-2.68366064086914,-3.70315959179688,4.67780191881145,20.2463509999998,
0.971088193359375,-2.92068660522461,-3.47810463574219,4.64441970351429,20.2492839999995,
0.963905588378906,-3.21277920776367,-3.14531060498047,4.59826521885692,20.2522989999998,
0.944751975097656,-3.48571819702148,-2.72393111279297,4.52355925690591,20.2552489999998,
0.925598361816406,-3.7586571862793,-2.13256330273438,4.41950929533309,20.2582490000004,
0.966299790039063,-4.11060483032227,-1.27304490673828,4.41037988044914,20.2611890000007,
0.963905588378906,-4.35002499633789,-0.561967013671877,4.49083938440553,20.2641830000011,
0.973482395019531,-4.64211759887695,0.00545877978515463,4.74309535783257,20.2673030000005,
0.796311472167969,-4.69000163208008,0.232907937499998,4.76282199719564,20.2703440000005,
0.576044919433594,-4.68760743041992,0.467539700195312,4.74595454489316,20.2734400000008,
0.152271225585938,-4.59183936401367,0.424444070312498,4.61392761536962,20.276382,
-0.0799663354492188,-4.46015827270508,0.290368777343749,4.47031547647823,20.2792800000007,
-0.2834734765625,-4.23510331665039,-0.0998860932617198,4.24575488532306,20.28226,
-0.565989272460938,-4.03159617553711,-0.61703365185547,4.11762578516655,20.285213000001,
-0.668939943847656,-3.94301071411133,-1.15572902539063,4.16299456163493,20.2882210000007,
-0.599508095703125,-4.01244256225586,-1.73991423046875,4.41434103820759,20.2911430000004,
-0.618661708984375,-4.04596138549805,-2.30015741894531,4.69502609098543,20.2940429999999,
-0.688093557128906,-3.96695273071289,-2.86279480908203,4.94022072684812,20.2970450000012,
-0.807803640136719,-3.94540491577148,-3.10700337841797,5.08647585897275,20.2999799999998,
-0.984974562988281,-3.85203105102539,-3.36078875439453,5.20607521646225,20.3029829999996,
-1.28185556884766,-3.73950357299805,-3.26262648632813,5.12559969770765,20.3059420000009,
-1.52606413818359,-3.58148626342773,-3.24826127636719,5.07021862728997,20.308943,
-1.72478287597656,-3.5671210534668,-3.01362951367188,4.97807105463775,20.3118640000012,
-1.96659724365234,-3.45459357543945,-2.92743825390625,4.93676171398238,20.3147690000005,
-2.19644060302734,-3.5886688684082,-2.76463254101563,5.03448991026418,20.3177599999999,
-2.31615068603516,-3.70598474975586,-2.60900943310547,5.08977476789273,20.3206890000001,
-2.84287505126953,-3.44980517211914,-2.43662691357422,5.09119288562759,20.323663000001,
-2.62260849853516,-4.21594970336914,-2.23551397412109,5.4451657427867,20.326586000001,
-2.75668379150391,-3.91906869750977,-2.10143868115235,5.23205977725643,20.3294970000006,
-2.83329824462891,-3.82330063110352,-1.74230843212891,5.06762718947253,20.3324890000004,
-2.32572749267578,-4.33565978637695,-1.40233179638672,5.11600318809043,20.3354149999996,
-2.52923463378906,-4.02920197387695,-1.14375801708985,4.89281910361596,20.338412000001,
-2.54359984375,-3.92864550415039,-1.24431448681641,4.84277546501046,20.3413490000003,
-2.33051589599609,-3.83766584106445,-1.48852305615235,4.7301886154635,20.3442630000009,
-2.05278850341797,-3.91906869750977,-1.81652868359375,4.78255335086653,20.3472490000004,
-1.82773354736328,-3.77781079956055,-2.22593716748047,4.75050109262217,20.3501780000006,
-1.62901480957031,-3.69640794311523,-2.45817472851563,4.72860909016993,20.3531750000002,
-1.38720044189453,-3.61739928833008,-2.71196010449219,4.72912574220232,20.3561010000012,
-0.791044228515625,-3.93103970581055,-2.73111371777344,4.85157771034714,20.3590000000004,
-0.640209523925781,-3.34685450073242,-3.02081211865235,4.55374671449731,20.3620009999995,
-0.132638771972656,-3.54557323852539,-3.16207001660156,4.75261711307238,20.3649120000009,
0.137906015625,-3.59824567504883,-3.43740320751953,4.97816540687618,20.3679380000012,
0.264798703613281,-3.54317903686523,-3.56908429882813,5.0361293443336,20.370887000001,
0.461123239746094,-3.58627466674805,-4.05271303417969,5.43125064464923,20.3738009999997,
0.532949289550781,-3.60063987670898,-4.22270135205078,5.57493041890131,20.3768180000006,
0.662236179199219,-3.47135298706055,-4.51000555126953,5.72965953528624,20.3797740000009,
0.65505357421875,-3.24150962768555,-4.40944908154297,5.51178020735542,20.3827860000001,
1.04052004150391,-3.2822110559082,-4.79970395214844,5.90700849843359,20.3857370000005,
1.08840407470703,-3.24629803100586,-4.65605185253906,5.77943709970823,20.3886620000012,
1.39725608886719,-3.50966021362305,-4.57943739941406,5.93643717124314,20.3916700000009,
1.53133138183594,-3.42825735717773,-4.52437076123047,5.87944343395836,20.3946230000001,
1.71329070800781,-3.56472685180664,-3.83962908642578,5.51229481245915,20.3976409999996,
1.92637465576172,-3.52641962524414,-3.26741488964844,5.17904959898671,20.4005980000002,
2.00538331054688,-3.44980517211914,-2.5036645600586,4.71073817751457,20.4037040000003,
2.08199776367188,-3.4138921472168,-1.99369960644531,4.46813298834126,20.4067539999996,
2.29747591308594,-3.45938197875977,-1.67048238232422,4.47618483039223,20.4097880000008,
2.10354557861328,-3.53120802856445,-0.971375497558595,4.22349434704946,20.4128479999999,
2.14185280517578,-3.63894710327148,-0.626610458496096,4.26873636175203,20.4157930000001,
2.06523835205078,-3.59106307006836,-0.58590903027344,4.1838060203296,20.4187880000009,
1.99101810058594,-3.57909206176758,-0.605062643554689,4.14006689149993,20.421749000001,
1.90482684082031,-3.57909206176758,-0.820540792968751,4.13661123058996,20.4246930000008,
1.71568490966797,-3.54078483520508,-1.38317818310547,4.17060113709038,20.4277000000002,
1.56724440673828,-3.46895878540039,-1.98651700146485,4.29373728613755,20.4306610000003,
1.50978356689453,-3.44980517211914,-2.55633699658203,4.55142406116358,20.4336770000009,
1.516966171875,-3.3372776940918,-3.03278312695313,4.75777072474361,20.436635,
1.36852566894531,-3.15531836791992,-3.39909598095703,4.8355713206666,20.4395949999998,
1.18656634277344,-2.97335904174805,-3.55232488720703,4.78203050818562,20.4426070000009,
1.08840407470703,-2.69323744750977,-3.78216824658203,4.76895670183335,20.4455900000012,
0.772369455566406,-2.34607820678711,-3.92582034619141,4.63817883644257,20.4486190000007,
0.638294162597656,-2.03243778930664,-4.06228984082031,4.58698392805554,20.4515819999997,
0.418027609863281,-1.6733075402832,-4.00004059765625,4.35603374526355,20.4545560000006,
0.21452046875,-1.39797434936523,-3.83962908642578,4.091833676278,20.4576059999999,
0.0948103857421875,-1.21122661987305,-3.62654513867188,3.82464228088828,20.4605850000007,
-0.0392649072265625,-0.967018050537109,-3.24586707470703,3.38708114896459,20.463608,
-0.166157595214844,-0.567186373291015,-2.22114876416016,2.29843654709561,20.466563,
-0.297838686523438,-0.0284909997558591,-1.069537765625,1.11059923120594,20.4694930000005,
-0.429519777832031,0.505415970458985,0.443597683593749,0.797942007688287,20.4725230000004,
-0.652180532226563,1.08002436889648,2.08362582080078,2.43583428113107,20.4755020000011,
-0.719218178710938,1.76955444702149,3.74520177294922,4.20418054437054,20.4785090000005,
-0.822168850097656,2.37289326538086,5.11707932421875,5.70009516388172,20.4814600000009,
-0.793438430175781,2.94989586547852,6.15137444140625,6.86810291696573,20.4843849999997,
-0.599508095703125,3.42634199584961,6.92709577929687,7.75137957817116,20.4874010000003,
-0.527682045898438,4.09671846069336,7.13299712207031,8.24264511132274,20.4903360000008,
-0.460644399414063,4.65456744750977,6.73077124316406,8.19636949593742,20.4933660000006,
-0.293050283203125,4.92750643676758,5.93350209033203,7.71833176333111,20.4963060000009,
-0.154186586914063,4.91074702514649,4.56401874072266,6.70592849009269,20.4993109999996,
-0.0392649072265625,4.71681669067383,3.09637312304687,5.64246647694834,20.5022850000005,
0.032561142578125,4.43669509643555,1.68618834521484,4.74642547000157,20.5052520000008,
0.0493205541992188,4.21642854370117,0.431626675292968,4.23875026016265,20.5082890000012,
0.137906015625,4.07995904907227,-0.315364242675782,4.09445216320947,20.5112669999999,
0.109175595703125,4.08474745239258,-0.842088607910158,4.17207313983071,20.5143029999999,
0.0086191259765625,4.17333291381836,-1.26346810009766,4.36040520351683,20.517283000001,
-0.0129286889648438,4.14220829223633,-1.62978095410156,4.4513192028456,20.5202160000008,
-0.0488417138671875,4.24276476196289,-1.76864465039063,4.59690572425875,20.5232360000009,
-0.0895431420898438,4.30022560180664,-1.83328809521485,4.67556450503948,20.5261960000007,
-0.1302445703125,4.45106030639649,-1.78779826367188,4.79845018009591,20.5292239999999,
-0.202070620117188,4.73836450561523,-1.48852305615235,4.97077776734044,20.5321980000008,
-0.261925661621094,4.93947744506836,-1.18924784863281,5.0873719077764,20.5351289999999,
-0.451067592773438,5.48774962524414,-0.380007687500001,5.51935356406679,20.5381630000011,
-0.489374819335938,5.79899584106445,0.529788943359375,5.84367322862844,20.5411789999998,
-0.649786330566406,6.18685651000977,1.39888414599609,6.37622871333521,20.5442910000002,
-0.841322463378906,6.39036365112305,2.15545187060547,6.79636254532358,20.5473450000009,
-0.994551369628906,6.30417239135742,2.85216455371094,6.99046240303379,20.550373,
-1.17172229248047,6.11263625854492,3.35255270068359,7.06943171484346,20.5534000000007,
-1.42550766845703,5.91391752075195,3.80505681445312,7.175301381566,20.5563440000005,
-1.49254531494141,5.58112348999023,4.23361891162109,7.16241300236939,20.5593630000003,
-1.59310178466797,5.24832945922852,4.63584479052734,7.18150348679005,20.5623200000009,
-1.62422640625,4.8604687902832,4.83935193164062,7.04851724821261,20.5652730000002,
-1.5859191796875,4.43190669311524,4.84653453662109,6.75617003898224,20.5682830000005,
-1.35128741699219,3.90997073120117,4.52092311083984,6.12801718146229,20.5712249999997,
-1.1645396875,3.37366955932617,4.04926538378906,5.39762439668036,20.5742389999996,
-1.06158901611328,3.10073057006836,3.82660462939453,5.03829378827719,20.5772030000007,
-0.963426748046875,2.77751334594727,3.58957866503906,4.63981103906948,20.58014,
-0.867658681640625,2.41838309692383,2.94793262011719,3.9104622647539,20.5831830000006,
-0.702458767089844,2.13586730102539,2.33022859179687,3.23810789460118,20.5861440000008,
-0.613873305664063,1.84377469848633,1.71491876513672,2.59177389932134,20.589159000001,
-0.350511123046875,1.49661545776367,1.09242633349609,1.88576540691372,20.5920910000004,
-0.173340200195313,1.20931125854492,0.659075833007812,1.38811436801951,20.5950919999996,
-0.03447650390625,1.06565915893555,0.457962893554686,1.16040858503279,20.5980369999997,
-0.0464475122070312,1.07044756225586,0.256849954101561,1.10181089750089,20.6009580000009,
-0.132638771972656,0.933978067626954,0.158687686035154,0.956603290992554,20.6039519999995,
-0.216435830078125,0.869334622802735,-0.078338278320313,0.899290854393266,20.6069090000001,
-0.369664736328125,0.723288321533204,-0.250720797851564,0.850093484168762,20.6099050000012,
-0.393606752929688,0.517386978759766,-0.274662814453126,0.705730276653427,20.6128680000002,
-0.328963308105469,0.34261025756836,-0.0974918916015639,0.48487453593564,20.615788000001,
-0.281079274902344,0.28514941772461,0.223331130859373,0.458467603238481,20.6188000000002,
-0.204464821777344,0.275572611083985,0.814698940917967,0.884013852638602,20.6217350000006,
-0.101514150390625,0.232476981201172,1.42282616259766,1.4452629374928,20.6247490000005,
-0.0105344873046875,0.273178409423828,2.00461716601562,2.02317260783222,20.6276990000006,
-0.0201112939453125,0.222900174560547,2.3398053984375,2.35048468502148,20.630650000001,
0.0373495458984375,0.0936132849121096,2.6678110258789,2.66971423667252,20.6336950000004,
0.133117612304688,-0.0931344445800779,2.85455875537109,2.85917820559312,20.636665,
0.231279880371094,-0.129047469482422,2.73724287402344,2.7500258514851,20.6397140000008,
0.331836350097656,-0.0476446130371091,2.44993867480469,2.47276866744573,20.6426950000005,
0.276769711914063,0.0217872351074222,1.99025195605469,2.00952208388615,20.645665,
0.240856687011719,0.0792480749511721,1.42282616259766,1.44524270973221,20.6487140000008,
0.200155258789063,0.115161099853516,0.568096169921875,0.613235244274407,20.6516979999997,
0.173819040527344,0.0648828649902347,-0.260297604492189,0.319652448643147,20.6547389999996,
0.238462485351562,0.0481234533691408,-0.92349146435547,0.954995658849623,20.6577290000005,
0.202549460449219,0.110372696533203,-1.56274330761719,1.57967561909735,20.6607070000009,
0.288740720214844,0.15107412475586,-1.7207606171875,1.7513456815673,20.6637650000012,
0.169030637207031,0.519781180419922,-1.88117212841797,1.95896717904357,20.6667529999995,
