X,Y,Z,Magnitude,Seconds,
0.480276853027344,0.469502945556641,-0.0400310517578131,0.672830852848654,0.0,
0.513795676269531,0.474291348876953,-0.0711556733398453,0.702852338988234,0.00382800000079442,
0.537737692871094,0.469502945556641,-0.0376368500976572,0.714850596073027,0.00761400000010326,
0.485065256347656,0.510204373779297,-0.0879150849609385,0.709454627233364,0.0113670000009733,
0.511401474609375,0.443166727294922,-0.0472136567382826,0.678348985255035,0.0151110000006156,
0.50182466796875,0.481473953857422,-0.0855208833007826,0.700684655965572,0.0188520000010612,
0.494642062988281,0.459926138916016,-0.0735498750000012,0.679420641317301,0.0225870000012947,
0.50182466796875,0.452743533935547,-0.0472136567382826,0.677520357100061,0.0263310000009369,
0.537737692871094,0.541328995361329,-0.0903092866210944,0.768345413732159,0.030389000001378,
0.50182466796875,0.507810172119141,-0.0520020600585944,0.715823569421932,0.0343160000011267,
0.480276853027344,0.486262357177735,-0.104674496582033,0.691428727922552,0.0381150000011985,
0.52097828125,0.517386978759766,0.017429788085936,0.734446358039226,0.0419160000001284,
0.487459458007813,0.498233365478516,-0.056790463378908,0.699341380448855,0.0456740000008722,
0.489853659667969,0.49583916381836,-0.114251303222657,0.706304781630613,0.0495010000013281,
0.465911643066406,0.507810172119141,-0.152558529785157,0.705846254550323,0.0534320000006119,
0.511401474609375,0.452743533935547,-0.0735498750000012,0.686962706313528,0.0572430000011082,
0.506613071289062,0.512598575439454,-0.0352426484375012,0.721565068314967,0.0610370000013063,
0.54013189453125,0.507810172119141,-0.020877438476564,0.741653222088957,0.064857999999731,
0.489853659667969,0.467108743896485,-0.0520020600585944,0.678860369122393,0.0686619999996765,
0.497036264648438,0.522175382080079,-0.0591846650390639,0.723336023298946,0.0724370000007184,
0.465911643066406,0.464714542236328,-0.0855208833007826,0.663586532707909,0.0763040000001638,
0.504218869628906,0.503021768798829,-0.0711556733398453,0.71577279790713,0.0801090000004478,
0.46351744140625,0.486262357177735,-0.109462899902345,0.680647944939874,0.0838620000013179,
0.511401474609375,0.455137735595703,0.000670376464842803,0.684603736478579,0.0876060000009602,
0.489853659667969,0.488656558837891,-0.0352426484375012,0.692808692680945,0.091351000000941,
0.494642062988281,0.498233365478516,-0.107068698242189,0.710190793446823,0.0950990000001184,
0.530555087890625,0.471897147216797,-0.0400310517578131,0.711180781477408,0.0989509999999427,
0.554497104492188,0.531752188720704,0.00545877978515463,0.768281997300615,0.102973000000929,
0.509007272949219,0.47668555053711,-0.0687614716796894,0.700746500521854,0.106813000000329,
0.50182466796875,0.486262357177735,-0.0376368500976572,0.699782544706044,0.110631999999896,
0.494642062988281,0.546117398681641,-0.0136948334960945,0.736954905054978,0.11448399999972,
0.494642062988281,0.529357987060547,-0.0113006318359385,0.724581502125185,0.118360000000393,
0.549708701171875,0.531752188720704,-0.0520020600585944,0.766579585303226,0.122328999999809,
0.46351744140625,0.469502945556641,-0.0831266816406266,0.664974796195119,0.126218999999764,
0.511401474609375,0.503021768798829,-0.056790463378908,0.71957454433084,0.130065000001196,
0.516189877929687,0.498233365478516,-0.0879150849609385,0.722784572827065,0.133914000000004,
0.537737692871094,0.507810172119141,-0.116645504882813,0.74875841968646,0.137774000000718,
0.552102902832031,0.486262357177735,-0.0496078583984385,0.737380251253369,0.14160400000037,
0.492247861328125,0.503021768798829,-0.0687614716796894,0.707154153530312,0.145391000000018,
0.473094248046875,0.452743533935547,-0.0711556733398453,0.658678984714051,0.1492760000001,
0.489853659667969,0.469502945556641,-0.00651222851562672,0.678551422441,0.153050000000803,
0.542526096191406,0.51499277709961,-0.0711556733398453,0.751408847008007,0.156804000000193,
0.489853659667969,0.459926138916016,-0.116645504882813,0.681978617668958,0.160549000000174,
0.530555087890625,0.469502945556641,-0.123828109863283,0.719204503576906,0.164284000000407,
0.485065256347656,0.493444962158203,-0.0974918916015639,0.698770994334324,0.168026000001191,
0.523372482910156,0.486262357177735,-0.0711556733398453,0.717936602858522,0.171973000000435,
0.497036264648438,0.474291348876953,-0.0280600434570317,0.68759341040618,0.175968999999895,
0.537737692871094,0.512598575439454,-0.0807324799804707,0.747286330131016,0.179760000000897,
0.492247861328125,0.498233365478516,-0.0424252534179708,0.70167253443878,0.183579000000464,
0.473094248046875,0.498233365478516,-0.0328484467773453,0.687847130158127,0.187386999999944,
0.509007272949219,0.483868155517578,-0.0520020600585944,0.704216593165428,0.191222000001289,
0.497036264648438,0.512598575439454,-0.0615788666992199,0.716654941197079,0.195153000000573,
0.477882651367188,0.479079752197266,-0.104674496582033,0.684723292781711,0.198951000000307,
0.475488449707031,0.538934793701172,-0.0974918916015639,0.725289353702763,0.202720000001136,
0.513795676269531,0.503021768798829,-0.0448194550781267,0.720434369246961,0.206519999999728,
0.537737692871094,0.510204373779297,-0.0735498750000012,0.744902620125857,0.210305000000517,
0.525766684570312,0.538934793701172,-0.078338278320313,0.756979659116395,0.214052999999694,
0.494642062988281,0.459926138916016,0.0150355864257801,0.675595213567018,0.217806000000564,
0.52097828125,0.498233365478516,-0.0615788666992199,0.723496242446505,0.221661999999924,
0.485065256347656,0.522175382080079,-0.0663672700195335,0.715793299141546,0.225416999999652,
0.54013189453125,0.503021768798829,-0.0328484467773453,0.738818234636303,0.229178999999931,
0.497036264648438,0.483868155517578,0.000670376464842803,0.69366698761312,0.232946000000084,
0.4060566015625,0.529357987060547,-0.109462899902345,0.676079853709835,0.236682000000656,
0.4060566015625,0.615549246826172,-0.248326596191408,0.778105993626039,0.240453000000343,
0.358172568359375,0.615549246826172,-0.126222311523438,0.72327072104416,0.24453800000083,
0.50182466796875,0.570059415283203,-0.0855208833007826,0.764270603788684,0.248471000000791,
0.5592855078125,0.505415970458985,-0.0543962617187521,0.755780745807313,0.252276000001075,
0.556891306152344,0.510204373779297,-0.116645504882813,0.764226801218692,0.256118999999671,
0.592804331054688,0.483868155517578,0.00306457812499872,0.765215498065913,0.259923999999955,
0.609563742675781,0.483868155517578,0.0677080229492173,0.781204662480058,0.263751000000411,
0.645476767578125,0.512598575439454,0.0844674345703105,0.828572449776452,0.267585000001418,
0.317471140136719,0.596395633544922,-0.0831266816406266,0.680724409531302,0.271511000000828,
0.181001645507813,0.435984122314453,-0.286633822753908,0.552270494353409,0.275347000000693,
0.451546433105469,0.330639249267578,-0.114251303222657,0.571200363002839,0.279177000000345,
0.358172568359375,0.412042105712891,-0.221990377929689,0.589360682009608,0.282982000000629,
0.473094248046875,0.414436307373047,-0.0759440766601571,0.633516474279721,0.286747000000105,
0.444363828125,0.512598575439454,0.05334281298828,0.680486566352316,0.290555999999924,
0.441969626464844,0.524569583740235,-0.0304542451171894,0.686613326369751,0.294391000001269,
0.571256516113281,0.412042105712891,0.103621047851561,0.711934003711055,0.298209000000497,
0.750821640625,0.301908829345704,0.273609365722654,0.85425064370995,0.301958000000013,
0.753215842285156,0.294726224365235,0.139534072753905,0.820772447062654,0.305350000000544,
0.6742071875,0.395282694091797,0.0102471831054682,0.781606515253504,0.308310000000347,
0.571256516113281,0.45753193725586,-0.0136948334960945,0.732022560632846,0.311255000000529,
0.497036264648438,0.519781180419922,-0.0352426484375012,0.720041365591789,0.314303000001019,
0.453940634765625,0.53414639038086,-0.0663672700195335,0.70411581488997,0.317302999999811,
0.465911643066406,0.536540592041016,-0.190865756347657,0.735784753170875,0.320451000001412,
0.652659372558594,0.316274039306641,-0.506900375488282,0.884839824599954,0.32351700000072,
0.734062229003906,0.182198746337891,-0.791810373046877,1.09499196621798,0.32657300000028,
0.781946262207031,0.160650931396485,-0.851665414550782,1.1672971588589,0.329643000000942,
0.834618698730469,0.122343704833985,-0.743926339843751,1.12471452088802,0.332615000001169,
0.872925925292969,0.13192051147461,-0.526053988769533,1.02768452917062,0.335656999999628,
0.966299790039063,0.203746561279297,-0.504506173828126,1.10895194886585,0.338649000001169,
0.925598361816406,0.177410343017578,-0.298604831054689,0.988621061042111,0.341630000000805,
0.951934580078125,0.191775552978516,-0.274662814453126,1.00915656323092,0.344673000001421,
0.908838950195313,0.186987149658203,-0.174106344726564,0.944068562554363,0.347648000000845,
0.925598361816406,0.139103116455078,-0.164529538085938,0.950343081895955,0.350696000001335,
0.906444748535156,0.107978494873047,-0.00890643017578263,0.912896906556533,0.353683999999703,
0.84658970703125,0.117555301513672,0.113197854492187,0.862175814568504,0.356660000001284,
0.837012900390625,0.0265756384277347,0.28318617236328,0.884019947849557,0.359714000000167,
0.908838950195313,-0.0620098229980467,0.319099197265624,0.965224198430568,0.362691000000268,
0.937569370117188,-0.0213083947753905,0.319099197265624,0.990613279320144,0.365744000000632,
0.911233151855469,-0.0644040246582029,0.364589028808593,0.983574549975862,0.368700000000899,
0.935175168457031,-0.0691924279785154,0.577672976562498,1.10138379125479,0.371737000001303,
0.837012900390625,-0.00933738647460913,0.733296084472656,1.11283463718085,0.374698999999964,
0.7125144140625,0.0193930334472658,0.769209109374998,1.04868276134329,0.377660000000105,
0.499430466308594,0.165439334716797,0.764420706054686,0.927976282021206,0.380698000000848,
0.286346518554688,0.299514627685547,0.802727932617186,0.903368958227957,0.383663000000524,
-0.0392649072265625,0.615549246826172,0.580067178222656,0.846711603474863,0.386663999999655,
-0.218830031738281,0.663433280029297,0.426838271972654,0.818670391709393,0.389640999999756,
-0.460644399414063,0.732865128173828,0.115592056152343,0.873296102275918,0.392571000000316,
-0.673728347167969,0.864546219482422,-0.0903092866210944,1.0997753491732,0.395582000001014,
-0.824563051757813,1.0680533605957,-0.277057016113282,1.37746244870106,0.398540000000139,
-0.733583388671875,1.10875478881836,-0.332123654296876,1.37032400971685,0.401558000001387,
-0.726400783691406,1.21409966186523,-0.478169955566408,1.49343315682194,0.404517000000851,
-0.601902297363281,1.30029092163086,-0.590697433593752,1.54982783382577,0.407460000000356,
-0.652180532226563,1.44154881958008,-0.600274240234377,1.69225636631599,0.410488000001351,
-0.673728347167969,1.67618058227539,-0.504506173828126,1.87563794736763,0.413438999999926,
-0.503740029296875,1.81504427856445,-0.456622140625001,1.93820626600332,0.416465000000244,
-0.424731374511719,1.86771671508789,-0.437468527343752,1.96472419966,0.419437000000471,
-0.216435830078125,1.77673705200195,-0.475775753906252,1.85202634660073,0.42237600000044,
-0.0679953271484375,1.72406461547852,-0.408738107421877,1.7731579183248,0.425386000000799,
0.070868369140625,1.79110226196289,-0.358459872558596,1.82799428849982,0.428364000001238,
0.0684741674804688,1.91320654663086,-0.107068698242189,1.91742319476599,0.431409000000713,
0.142694418945313,2.01376301635742,0.0796790312499986,2.02038410488402,0.434395000000222,
0.31028853515625,2.04488763793945,0.113197854492187,2.07139039804394,0.437353000001167,
0.530555087890625,1.9108123449707,-0.00651222851562672,1.98311243455819,0.440391000000091,
0.779552060546875,1.7360356237793,-0.365642477539064,1.93783784758028,0.443368000000191,
1.16980693115234,1.47027923950195,-0.710407516601563,2.00869314180302,0.446422000000894,
1.56006180175781,1.13269680541992,-0.945039279296877,2.14706639807117,0.449392000000444,
2.02693112548828,0.795114371337891,-1.36163036816406,2.56801361181904,0.452350999999908,
2.35014834960938,0.385705887451172,-1.52443608105469,2.82769723662339,0.455390000000989,
2.70927859863281,-0.00454898315429664,-1.46936944287109,3.08208659480892,0.45841400000063,
2.81222927001953,-0.102711251220703,-0.868424826171877,2.94505428591623,0.461529000000155,
2.98700599121094,-0.138624276123047,0.146716677734373,2.9938181750043,0.464586000000054,
3.21924355224609,-0.409169063720703,1.68618834521484,3.65707253235734,0.467688000000635,
2.83617128662109,0.249236392822266,2.66541682421875,3.90005553721859,0.470656999999846,
2.60153952392578,0.335427652587891,3.07961371142578,4.04531089241238,0.473611000001256,
2.19452524169922,0.0337582434082033,2.82582833544922,3.57804226314904,0.476651000000857,
1.61512843994141,-0.0117315881347655,2.20094170214844,2.73000400804171,0.47962600000028,
1.13389390625,0.0624886633300783,1.40127834765625,1.80366328101614,0.482659000001149,
0.667024582519531,0.244447989501953,0.618374404785156,0.941840494855842,0.485630000001038,
0.142694418945313,0.435984122314453,-0.0448194550781267,0.460925846163941,0.488586000001305,
-0.295444484863281,0.526963785400391,-0.664917685058596,0.898383995106391,0.491627000001245,
-0.649786330566406,0.68737529663086,-0.968981295898439,1.35411662186473,0.494599999999991,
-1.00891657958984,0.835815799560547,-1.10545079052735,1.71421182052973,0.497616000000562,
-1.26749035888672,1.02735193237305,-1.19643045361328,2.02322258616167,0.500609000000622,
-1.46620909667969,1.21409966186523,-1.03362474072266,2.16614570349308,0.503571999999622,
-1.64098581787109,1.37211697143555,-0.894761044433595,2.31864977182657,0.506595000000743,
-1.68647564941406,1.37929957641602,-0.787021969726563,2.31647814977829,0.509568000001309,
-1.68886985107422,1.44394302124023,-0.779839364746095,2.35486777914672,0.512591000000612,
-1.65295682617188,1.37690537475586,-0.796598776367189,2.29405847587403,0.515545000000202,
-1.57634237304688,1.37211697143555,-0.751108944824221,2.22074872674949,0.518481000000975,
-1.56197716308594,1.47506764282227,-0.758291549804689,2.27828955214398,0.521512999999686,
-1.43029607177734,1.53013428100586,-0.672100290039063,2.19972193031792,0.524457000001348,
-1.23157733398438,1.61632554077148,-0.526053988769533,2.09905306803678,0.527493999999933,
-1.12383825927734,1.59238352416992,-0.346488864257815,1.97958385882438,0.530459999999948,
-1.01370498291016,1.52534587768555,-0.0687614716796894,1.83275911645168,0.533394000000044,
-1.80139732910156,0.70652890991211,0.256849954101561,1.95197011676865,0.53644499999973,
-1.65774522949219,0.716105716552735,0.60879759814453,1.90566554218996,0.539388000001054,
-1.55000615478516,1.27874310668945,0.797939529296874,2.16203850687081,0.54240800000116,
-1.75590749755859,1.9275717565918,0.618374404785156,2.67976322112351,0.5453550000002,
-2.01448127685547,2.3321918371582,0.0677080229492173,3.0825051429771,0.548263000000588,
-1.86125237060547,2.32740343383789,-0.605062643554689,3.04091564065008,0.551284000001033,
-2.85963446289063,1.84377469848633,-0.0543962617187521,3.40293599020303,0.554234000001088,
-1.30819178710938,1.1614272253418,-0.0520020600585944,1.75013804194866,0.557272000000012,
-0.831745656738281,1.63308495239258,-0.470987350585938,1.89224638555502,0.56021900000087,
-1.18608750244141,2.26515419067383,-0.245932394531252,2.5686980775589,0.563231000000087,
-1.02328178955078,2.73920611938477,-0.430285922363282,2.95558822576576,0.566166000000521,
-0.712035573730469,2.41120049194336,-0.389584494140626,2.54414200639044,0.569118000001254,
-0.127850368652344,2.33937444213867,0.0485544096679682,2.3433685215933,0.572132999999667,
0.418027609863281,1.99939780639648,0.604009194824217,2.13006238834999,0.575109999999768,
1.35655466064453,1.55407629760742,1.23129002978516,2.40238815006025,0.578145000001314,
2.23043826660156,1.15903302368164,1.79871582324219,3.09088838748458,0.581120000000737,
3.09474506591797,0.579636221923828,1.91842590625,3.68697479386026,0.584065000000919,
3.20727254394531,0.625126053466797,2.301498171875,3.99678290491395,0.587110000000393,
4.19607782958984,-0.179325704345703,1.81547523486328,4.57549747990493,0.590063999999984,
3.87286060546875,-0.0811634362792967,1.58323767382812,4.18476741344237,0.593098000001191,
4.32297051757813,-0.373256038818359,0.941591628906249,4.44004380180989,0.59607700000015,
4.36606614746094,-0.48099511352539,0.23769634082031,4.39890775689592,0.599120000000767,
4.02848371337891,-0.703655867919922,-0.447045333984377,4.11383788451301,0.602224000000206,
3.34134783691406,-0.665348641357422,-0.715195919921877,3.4812065991089,0.60526899999968,
2.76913364013672,-0.51930234008789,-1.21797826855469,3.06940500749397,0.608326999999917,
2.14664120849609,-0.380438643798828,-1.42866801464844,2.60650999149986,0.611280000000988,
1.67498348144531,-0.418745870361328,-1.24192028515625,2.1268012981334,0.614208000000872,
8.90068409179688,-11.1782881311035,2.5145821196289,14.5085983499542,0.617239000001064,
3.63822884277344,-4.91266238647461,0.627951211425779,6.14534649631752,0.62021199999981,
3.64780564941406,-5.81288221069336,1.13073356005859,6.95518828178902,0.623244000000341,
2.74519162353516,-5.01561305786133,0.833852554199218,5.77821438493426,0.62615900000128,
1.75878053955078,-3.93582810913086,0.632739614746093,4.35711043135197,0.62912200000028,
0.918415756835938,-3.29178786254883,0.216148525878905,3.42433570487298,0.632133000000977,
-0.0967257470703125,-2.32213619018555,-0.401555502441408,2.35858414678313,0.635081000000355,
-0.927513723144531,-1.68767275024414,-0.937856674316407,2.14198416429671,0.638136000001396,
-1.71041766601563,-0.962229647216797,-0.921097262695314,2.16791020421652,0.641090000000986,
-1.00412817626953,-1.55359745727539,-0.0998860932617198,1.85254303195851,0.64401800000087,
-1.62662060791016,-1.5583858605957,1.07327272021484,2.49527061148485,0.647037000000637,
-0.702458767089844,-2.8775909753418,2.36614161669922,3.79112177212839,0.649971000000733,
0.303105930175781,-3.83287743774414,1.91363750292969,4.29474459663142,0.653007000000798,
12.2382012060547,-15.4016598596191,0.833852554199218,19.6895912926964,0.655953000001318,
-3.95857302490234,-0.217632930908203,-0.928279867675784,4.07177700750328,0.658937000000151,
1.03333743652344,-3.15531836791992,-1.94820977490235,3.84958979472862,0.661896000001434,
0.449152231445313,-2.10426383911133,-3.07109035351563,3.74983466182985,0.66481500000009,
0.240856687011719,-1.50092502075195,-3.42543219921875,3.74758236908038,0.667887999999948,
-0.132638771972656,-1.23516863647461,-2.78378615429688,3.04839301226334,0.670844000000216,
-0.0895431420898438,-1.49134821411133,-2.34325304882813,2.77902362726024,0.673859000000448,
-0.870052883300781,-0.969412252197266,-1.80455767529297,2.22557420408958,0.676803000000291,
-0.458250197753906,-1.13940057006836,-1.09826818554688,1.64754966850715,0.679715000000215,
-1.94983783203125,0.347398660888672,-0.320152645996096,2.00625300437055,0.682746000000407,
-2.56514765869141,0.76398974975586,0.196994912597654,2.68374176183391,0.685712000000422,
-2.3903709375,0.948343277587891,1.08524372851562,2.79123308615982,0.688732000000527,
-1.73196548095703,0.809479581298828,1.8035042265625,2.62822927367367,0.691679000001386,
-0.7431601953125,0.536540592041016,1.88490708300781,2.0959574409748,0.6946310000003,
-0.0320823022460938,0.345004459228516,1.765197,1.79888237520244,0.697659999999814,
0.667024582519531,0.0768538732910158,1.57844927050781,1.71532224701128,0.700646999999663,
1.33261264404297,-0.291853182373047,1.09242633349609,1.74769277427132,0.703686000000744,
1.77553995117188,-0.469024105224609,0.793151125976561,2.00040356881482,0.706657000000632,
1.8617312109375,-0.421140072021484,0.467539700195312,1.9651960292296,0.709611000000223,
2.13227599853516,-0.639012423095703,0.515423733398436,2.28486311094344,0.712655000001178,
1.44274592041016,-0.0380678063964841,0.228119534179687,1.46116510724091,0.715623000000051,
1.15783592285156,0.184592947998047,0.170658694335936,1.18481347504516,0.718684000001304,
1.02854903320313,0.0864306799316408,0.175447097656249,1.04697901612808,0.721652000000176,
0.954328781738281,0.0600944616699222,0.144322476074217,0.967048987940974,0.724614000000656,
0.738850632324219,0.127132108154297,-0.0304542451171894,0.75032678937601,0.727652000001399,
0.762792648925781,0.186987149658203,-0.217201974609376,0.814857973616704,0.730639000001247,
0.681389792480469,0.239659586181641,-0.29142222607422,0.77888104380283,0.733690000000934,
0.781946262207031,0.186987149658203,-0.257903402832033,0.844344903643759,0.736740000000282,
0.76997525390625,0.0217872351074222,-0.245932394531252,0.808590945980411,0.739795999999842,
0.65505357421875,-0.157777889404297,-0.399161300781252,0.783146724134766,0.742915000000721,
0.571256516113281,-0.241574947509765,-0.459016342285159,0.771614194368582,0.745945000000575,
0.281558115234375,-0.294247384033203,-0.40634390576172,0.57530154268384,0.748976000000766,
0.08044517578125,-0.167354696044922,-0.231567184570315,0.296820453413484,0.751922999999806,
-0.618661708984375,0.20853496459961,0.182629702636717,0.677925327679387,0.754963000001226,
-0.151792385253906,0.213323367919922,-0.0615788666992199,0.268960488447149,0.757908000001407,
-0.0608127221679688,0.565271011962891,0.304733987304687,0.645052173984122,0.760860000000321,
-0.237983645019531,0.807085379638672,0.814698940917967,1.17122047013196,0.763898000001063,
0.109175595703125,0.799902774658204,1.12594515673828,1.38546607882886,0.766874000000826,
0.276769711914063,0.76398974975586,1.04214809863281,1.32149705661761,0.76991100000123,
0.11875240234375,0.78314336303711,1.13791616503906,1.38645910822811,0.772901000000275,
0.181001645507813,0.943554874267578,1.35578851611328,1.66169187783274,0.775872000000163,
0.453940634765625,0.579636221923828,1.66942893359375,1.82456384212159,0.778959000001123,
0.0684741674804688,1.13748520874023,1.3270580961914,1.74918395327139,0.781951000000845,
0.0924161840820313,1.10396638549805,1.37973053271484,1.76944592296444,0.784999999999854,
-0.178128603515625,1.2978967199707,1.27917406298828,1.83099753646013,0.78794900000139,
-0.211647426757813,1.12551420043945,1.23607843310547,1.68507173183593,0.790874000000258,
-0.233195241699219,1.10875478881836,1.17622339160156,1.63316216874794,0.79388199999994,
-2.18207539306641,0.876517227783203,6.29023813769531,6.71541743308212,0.796820000001389,
3.45866371826172,3.97461417602539,-1.19164205029297,5.4018444387365,0.79983700000048,
-4.13334974609375,0.345004459228516,2.98863404833984,5.11229319144716,0.802813000000242,
-0.941878933105469,0.833421597900391,1.93518531787109,2.3079579066739,0.805728000001181,
-0.826957253417969,0.737653531494141,0.618374404785156,1.26900667295321,0.808758000001035,
-1.15496288085938,0.258813199462891,0.807516335937498,1.43283151877153,0.811697000001004,
-1.38720044189453,0.325850845947266,0.8841307890625,1.67695888201387,0.814714000000095,
-1.18369330078125,0.139103116455078,0.979898855468749,1.54294564851484,0.817650000000867,
-1.30340338378906,0.388100089111328,1.24565523974609,1.8442177301902,0.820583000000624,
-0.882023891601563,0.479079752197266,1.04214809863281,1.44691264898934,0.823605000001407,
-0.769496413574219,0.730470926513672,1.34860591113281,1.71594009467921,0.826554999999644,
-0.668939943847656,0.869334622802735,2.29910397021484,2.54737166521419,0.82957400000123,
-0.278685073242188,0.835815799560547,1.72928397509765,1.9407927471455,0.8325130000012,
-0.803015236816406,0.337821854248047,1.75801439501953,1.96203254021506,0.835487000000285,
-0.949061538085938,0.316274039306641,1.68379414355469,1.95854787760791,0.838509000001068,
-0.606690700683594,0.210929166259766,2.00940556933594,2.10956760061233,0.841460999999981,
-0.556412465820313,0.0696712683105472,1.80829262988281,1.89324355354422,0.844485999999961,
-0.343328518066406,0.0648828649902347,2.15305766894531,2.1812247897205,0.847436000000016,
-0.252348854980469,0.0936132849121096,2.05250119921875,2.07007356500111,0.850440000000162,
-0.175734401855469,0.0672770666503908,1.95912733447265,1.96814346437715,0.853414000001067,
-0.431913979492188,0.160650931396485,2.01898237597656,2.07090517454163,0.856354000001375,
-0.53247044921875,0.270784207763672,1.95433893115234,2.04359720206383,0.859382000000551,
-0.659363137207031,0.340216055908203,1.89448388964844,2.03459478018172,0.862336000000141,
-0.927513723144531,0.117555301513672,1.99264615771484,2.20107693309233,0.865351000000373,
-0.949061538085938,0.15107412475586,1.96870414111328,2.19073895968492,0.868309000001318,
-0.982580361328125,0.210929166259766,1.75801439501953,2.02498639322407,0.871240000000398,
-0.982580361328125,0.234871182861328,1.70294775683594,1.9800655801056,0.874276000000464,
-1.03525279785156,0.275572611083985,1.43000876757812,1.78678865420324,0.877328000000489,
-0.814986245117188,0.206140762939453,1.54732464892578,1.76094013613432,0.880451000000903,
-0.795832631835938,0.0840364782714846,1.48028700244141,1.68275408695749,0.883501000000251,
-1.24833674560547,-0.0715866296386717,1.27917406298828,1.78878605746853,0.886463000000731,
-1.13102086425781,-0.102711251220703,1.44676817919922,1.83926505997837,0.889489000001049,
-0.788650026855469,-0.0644040246582029,1.24086683642578,1.47168857065367,0.892448000000513,
-0.843716665039063,-0.0213083947753905,1.30551028125,1.55456391087726,0.895492999999988,
-0.194888015136719,0.182198746337891,0.718930874511717,0.7668372212779,0.898473000001104,
-0.700064565429688,-0.260728560791015,1.01820608203125,1.26285921767545,0.90139900000031,
-0.781467421875,-0.27030536743164,1.13312776171875,1.40275972550257,0.904437000001053,
-0.853293471679688,-0.205661922607422,1.04214809863281,1.36252678311501,0.907398999999714,
-0.83892826171875,-0.181719906005859,1.17143498828125,1.4522681172286,0.910440999999992,
-0.893994899902344,-0.220027132568359,1.29114507128906,1.58577880400505,0.913413000000219,
-0.824563051757813,-0.224815535888672,1.27917406298828,1.53841884248829,0.916361999999936,
-1.07116582275391,-0.169748897705078,1.24326103808594,1.64982087419534,0.919416000000638,
-1.03764699951172,0.0361524450683597,1.03975389697266,1.4693898261353,0.922389999999723,
-1.37522943359375,-0.0596156213378904,1.01820608203125,1.71217804062998,0.925402000000759,
-1.4709975,-0.162566292724609,1.28156826464844,1.95772282550173,0.928373000000647,
-1.32016279541016,0.0337582434082033,1.23607843310547,1.80882816159292,0.931322000000364,
-1.59310178466797,-0.186508309326172,1.67661153857422,2.32029844999306,0.934333000001061,
-1.43747867675781,-0.109893856201172,0.967927847167967,1.73646362561597,0.937289000001329,
-0.199676418457031,0.0577002600097658,1.08524372851562,1.10496784676094,0.940325000001394,
0.0277727392578125,0.0672770666503908,1.19298280322266,1.19520102808187,0.943300000000818,
0.856166513671875,0.124737906494141,1.32466389453125,1.58218680247444,0.946350000000166,
1.08840407470703,0.632308658447266,1.14270456835937,1.70006217531467,0.949345000000903,
1.19853735107422,0.704134708251953,1.228895828125,1.85539279552016,0.952312000001257,
0.434787021484375,0.546117398681641,1.41324935595703,1.57624798471148,0.955362000000605,
0.418027609863281,0.376129080810547,1.63591011035156,1.72986186072468,0.958348000000115,
0.621534750976562,-0.248757552490234,2.17939388720703,2.27989988424663,0.961375000000771,
1.13868230957031,0.43837832397461,2.16742287890625,2.48726655046568,0.964373000000705,
0.801099875488281,-0.902374605712891,3.77872059619141,3.96670773861952,0.967327000000296,
0.80828248046875,-1.07954552856445,2.35177640673828,2.71101298111371,0.97038700000121,
-0.0656011254882813,-0.677319649658203,2.33501699511719,2.43215332225675,0.973331000001053,
-1.16214548583984,0.20853496459961,3.18017018115234,3.39227819360515,0.976394000001164,
0.619140549316406,0.280361014404297,2.60077337939453,2.68811448587535,0.979366999999911,
0.667024582519531,0.220505972900391,2.32544018847656,2.42924201098861,0.98234500000035,
0.710120212402344,-0.255940157470703,2.14587506396484,2.27476501432886,0.985387000000628,
0.149877023925781,-0.119470662841797,1.97828094775391,1.98754418059745,0.988366999999926,
0.279163913574219,-0.25115175415039,1.69576515185547,1.73684459422894,0.991421000000628,
-0.338540114746094,0.32345664428711,1.64069851367187,1.70620198768811,0.994387000000643,
-1.37044103027344,0.127132108154297,1.41085515429687,1.97098540247936,0.997326000000612,
-1.35847002197266,0.158256729736328,1.03257129199219,1.71367717676103,1.00035300000127,
-1.24594254394531,-0.167354696044922,0.8841307890625,1.53690197126215,1.00328900000022,
-1.55718875976563,-0.114682259521484,0.577672976562498,1.66484080981935,1.00632700000097,
-1.43029607177734,-0.449870491943359,0.204177517578124,1.51321471415904,1.00927100000081,
-1.37283523193359,-0.492966121826172,0.0605254179687496,1.45991626387502,1.01220300000023,
-1.32973960205078,-0.531273348388672,-0.0831266816406266,1.43435310337827,1.01525600000059,
-1.43508447509766,-0.366073433837891,-0.303393234375001,1.51179517934564,1.01829700000053,
