X,Y,Z,Magnitude,Seconds,
0.0307415493164064,-0.0253306535644531,-0.0286346518554677,0.0490573964989911,0.0,
0.0163763393554689,0.0153707746582031,0.00488417138672048,0.0229847848459279,0.00390599999991537,
0.0283473476562501,0.0632548078613281,-0.0429998618164049,0.0815704048840495,0.00774699999965378,
-0.0171424838867186,-0.0301190568847656,0.00488417138672048,0.0349982495500706,0.0115279999990889,
0.0403183559570314,0.00339976635742184,-0.0214520468749981,0.045796490624174,0.0153839999984484,
0.00919373437500015,-0.0037828386230469,-0.0669418784179676,0.0676760644979599,0.0191949999989447,
-0.00756567724609364,0.0225533796386719,-0.0214520468749981,0.0320325571949109,0.0229849999996077,
-0.00277727392578114,0.0249475812988281,-0.0549708701171863,0.0604308830364163,0.0267509999994218,
0.0211647426757814,-0.0301190568847656,-0.0286346518554677,0.0466374013753299,0.0306719999989582,
0.0187705410156251,0.00818816967773439,-0.0286346518554677,0.0352040142536966,0.0344759999989037,
0.0522893642578126,0.0632548078613281,-0.00708683691406087,0.0823745809671056,0.0382589999990159,
0.0187705410156251,0.0177649763183594,-0.00469263525390495,0.02626686923174,0.0420799999992596,
0.00440533105468766,-0.0253306535644531,-0.00469263525390495,0.0261356036343133,0.0458679999992455,
0.0163763393554689,-0.0157538469238281,-0.0190578452148422,0.029657539476797,0.0496489999986807,
0.0115879360351564,0.0441011945800781,0.0910754311523441,0.101852490320709,0.0535099999997328,
-0.000383072265624895,0.0345243879394531,0.0384029946289068,0.0516417476797832,0.057264999999461,
-0.00277727392578114,0.0225533796386719,-0.0382114584960931,0.0444576623765075,0.0610249999990629,
-0.0123540805664061,0.0488895979003906,-0.0262404501953117,0.0568452048633459,0.0648349999992206,
0.0139821376953126,0.0177649763183594,0.0455855996093764,0.0508836068873751,0.0688589999990654,
-0.0171424838867186,0.0129765729980469,-0.00229843359374904,0.0216226501050385,0.0726609999983339,
0.0115879360351564,0.0201591779785156,0.0551624062500018,0.0598628748191613,0.0765339999998105,
0.00919373437500015,0.0536780012207031,-0.0142694418945304,0.0562980420511161,0.0804329999991751,
0.0115879360351564,0.0393127912597656,-0.00948103857421678,0.0420673972410294,0.0842819999998028,
-0.0291134921874999,-0.0827914934082031,-0.00708683691406087,0.088046862894476,0.0881129999997938,
0.00919373437500015,-0.0157538469238281,-0.0669418784179676,0.0693824439666363,0.0919399999984307,
0.00440533105468766,0.0536780012207031,-0.0860954916992185,0.101553771213488,0.095776999998634,
-0.0315076938476561,0.0824084211425782,0.0144609780273441,0.0894035935089719,0.099633999998332,
0.0067995327148439,-0.0181480485839844,-0.0118752402343745,0.022728982449089,0.10352899999998,
-0.0362960971679686,-0.0181480485839844,0.0144609780273441,0.0430799050897354,0.107308999999077,
0.0187705410156251,-0.0133596452636719,0.0144609780273441,0.0272017134956191,0.111084999998639,
0.00440533105468766,0.0345243879394531,-0.00229843359374904,0.0348801247314301,0.11487599999964,
0.00919373437500015,0.0369185895996094,-0.00229843359374904,0.0381154798837338,0.118670999998358,
-0.00277727392578114,0.0488895979003906,-0.00948103857421678,0.04987781195849,0.122441999999864,
0.0427125576171876,0.0201591779785156,-0.0669418784179676,0.0819266142416309,0.126284999998461,
-0.0147482822265624,-0.0205422502441406,-0.0932780966796862,0.0966452233372769,0.130055999999968,
-0.0267192905273436,0.0417069929199219,-0.0286346518554677,0.0572130844439525,0.133810999999696,
-0.000383072265624895,0.0225533796386719,0.0144609780273441,0.0267940583524422,0.137750999998389,
-0.0195366855468749,0.0129765729980469,0.0168551796875018,0.0288820118971841,0.141710999998395,
0.0211647426757814,-0.0085712419433594,0.0192493813476577,0.0298655521169658,0.145518999999695,
0.00919373437500015,0.0417069929199219,0.033614591308595,0.054350149576835,0.149335000000065,
0.0211647426757814,0.0249475812988281,-0.0142694418945304,0.035692367772047,0.153275999999096,
0.0427125576171876,0.0297359846191406,-0.0214520468749981,0.0562919325889461,0.157142999998541,
-0.0123540805664061,-0.0181480485839844,0.0240377846679696,0.0325544169935753,0.161004999999932,
-0.0243250888671874,-0.00138863696289065,-0.0525766684570304,0.0579477724080206,0.164781999999832,
0.0139821376953126,0.0680432111816406,0.0264319863281255,0.0743238095342955,0.168584999999439,
-0.0123540805664061,0.0345243879394531,0.0838928261718763,0.091556337586973,0.172387999999046,
0.0115879360351564,-0.00617704028320315,0.00488417138672048,0.0140103967948824,0.176268999999593,
-0.000383072265624895,0.0201591779785156,0.0527682045898441,0.0564891371572075,0.180053000000044,
-0.000383072265624895,0.00579396801757814,0.0479798012695323,0.0483298886778484,0.183828999999605,
0.0163763393554689,0.0393127912597656,0.0240377846679696,0.0489029154454318,0.187617999999929,
-0.00756567724609364,0.0752258161621093,0.0120667763671882,0.0765621968163353,0.19136299999991,
0.00201112939453141,-0.0157538469238281,0.0455855996093764,0.0482729243581465,0.195103000000017,
0.0355299526367189,0.0225533796386719,-0.0382114584960931,0.056843188051799,0.198862999999619,
-0.00517147558593739,-0.0396958635253906,-0.040605660156249,0.0570203943996108,0.202681999999186,
0.0067995327148439,0.0967736311035157,0.00248996972656279,0.0970441614489958,0.206436999998914,
-0.00995987890624989,0.0369185895996094,0.0503740029296882,0.0632433523543129,0.210400999998456,
0.0427125576171876,-0.0109654436035156,-0.0166636435546863,0.0471410707148352,0.214224999999715,
0.0403183559570314,0.00818816967773439,9.57680664068761e-05,0.041141525509779,0.218023999999787,
-0.0315076938476561,0.0105823713378906,-0.0310288535156236,0.0454698922939637,0.221791999998459,
-0.00756567724609364,0.0512837995605468,0.071921817871095,0.0886567282017635,0.225640999999086,
-0.0315076938476561,0.0201591779785156,-0.0501824667968744,0.0625891939729735,0.229494999999588,
0.0666545742187501,0.0345243879394531,-0.0334230551757795,0.0821697404411133,0.233296999998856,
-0.0195366855468749,0.0153707746582031,-0.0118752402343745,0.0275493035551688,0.237086999999519,
0.0163763393554689,0.0249475812988281,-0.0334230551757795,0.0448069963357322,0.240877999998702,
-0.00995987890624989,0.0560722028808593,0.0599508095703136,0.082688516082195,0.244697000000087,
0.0451067592773439,-0.0564552751464844,9.57680664068761e-05,0.0722622100125097,0.248553999999785,
-0.0123540805664061,-0.0085712419433594,0.0312203896484391,0.0346525933357551,0.252302999999301,
0.00201112939453141,0.0201591779785156,-0.0334230551757795,0.0390837269908362,0.256092999999964,
0.0187705410156251,0.118321446044922,-0.0286346518554677,0.123175651372601,0.259883999999147,
0.0067995327148439,0.0536780012207031,0.0168551796875018,0.0566714967376724,0.263667999999598,
0.0187705410156251,-0.0253306535644531,9.57680664068761e-05,0.0315275180048185,0.26741199999924,
0.128903817382813,-0.259962416259766,-0.0118752402343745,0.290409492499989,0.271186999998463,
-0.00277727392578114,0.0656490095214843,-0.0382114584960931,0.0760106654490632,0.274934999999459,
-0.0410845004882811,0.113533042724609,-0.0238462485351558,0.12307043324812,0.278773999998521,
-0.0291134921874999,0.111138841064453,-0.078912886718749,0.13937962946854,0.282776999998532,
-0.0195366855468749,-0.00617704028320315,-0.0884896933593744,0.0908309624503335,0.286543999998685,
0.171999447265625,-0.188136366455078,0.0384029946289068,0.25778652454903,0.29036300000007,
0.0882023891601564,-0.125887123291016,0.0479798012695323,0.161025745127637,0.294272999999521,
-0.153611978515625,0.144657664306641,-0.00708683691406087,0.211122483510364,0.298134999999093,
-0.0985453403320311,0.269156150634766,-0.0214520468749981,0.28743070093643,0.302012999998624,
0.150451632324219,0.139869260986328,9.57680664068761e-05,0.20542422692907,0.305679999999484,
0.205518270507813,-0.192924769775391,0.0910754311523441,0.296230417859131,0.308658999998443,
0.0882023891601564,-0.267145021240234,-0.040605660156249,0.284244513515617,0.311607999999978,
-0.0865743320312499,-0.116310316650391,-0.0286346518554677,0.147794275981362,0.314620999999534,
-0.177553995117187,0.137475059326172,-0.119614314941405,0.254425622643849,0.317586999999548,
-0.0339018955078124,0.264367747314453,-0.0118752402343745,0.266797049589693,0.320639999999912,
0.0977791958007814,0.139869260986328,0.0216435830078137,0.172025073712309,0.323635999999169,
0.14326902734375,-0.0803972917480469,0.0791044228515645,0.182338280213245,0.326587999999902,
0.0546835659179689,-0.212078383056641,-0.0453940634765608,0.22366974301487,0.329624999998487,
-0.0793917270507811,-0.0923683000488281,-0.0142694418945304,0.122631831715903,0.332563999998456,
-0.0841801303710936,0.0608606062011718,-0.0621534750976558,0.121051072705628,0.335597999999663,
-0.0458729038085936,0.125504051025391,0.0767102211914068,0.154078058667842,0.33858599999985,
0.0858081875000001,0.0608606062011718,0.0264319863281255,0.108469849868337,0.341556999999739,
0.0929907924804689,-0.0396958635253906,-0.0908838950195303,0.135951945337656,0.344573999998829,
0.0259531459960939,-0.0588494768066407,-0.040605660156249,0.0760634363162399,0.347558999999819,
-0.0482671054687498,-0.0157538469238281,0.0479798012695323,0.0698566997008493,0.350586999998995,
-0.0698149204101561,0.0464953962402344,0.0168551796875018,0.0855572443789,0.353569999999308,
-0.0746033237304686,0.0512837995605468,0.00248996972656279,0.090564253203119,0.35651499999949,
0.0307415493164064,0.0369185895996094,-0.0238462485351558,0.0536345847527307,0.359574000000066,
0.102567599121094,0.0297359846191406,-0.0142694418945304,0.107740234558481,0.362557999998899,
0.0738371791992189,-0.0612436784667969,-0.0477882651367167,0.107174789335082,0.365602999998373,
0.00201112939453141,-0.00138863696289065,0.0216435830078137,0.0217811303534131,0.3685749999986,
-0.0722091220703124,0.0608606062011718,9.57680664068761e-05,0.0944361152783295,0.371613999999681,
-0.0434787021484374,0.0345243879394531,-0.0142694418945304,0.0573231879354923,0.374570999998468,
-0.0147482822265624,-0.0037828386230469,-0.0238462485351558,0.0282924948684766,0.377501999999367,
0.0834139858398439,-0.0420900651855469,-0.0453940634765608,0.103875346545402,0.38052499999867,
0.0522893642578126,-0.0037828386230469,0.0407971962890645,0.0664296523217056,0.383510999999999,
-0.0195366855468749,-0.00138863696289065,-0.0310288535156236,0.0366933256228732,0.386505999998917,
-0.0722091220703124,0.0345243879394531,-0.00948103857421678,0.0805976473924948,0.389564999999493,
-0.0171424838867186,0.0441011945800781,0.0072783730468764,0.0478722762296281,0.392602999998417,
0.0355299526367189,0.0129765729980469,-0.0166636435546863,0.041333352122212,0.395758999999089,
0.0810197841796876,-0.0516668718261719,9.57680664068761e-05,0.0960920404838392,0.398769999999786,
0.0379241542968751,0.00818816967773439,0.00967257470703231,0.0399855761902674,0.40183099999922,
0.0115879360351564,-0.0109654436035156,0.033614591308595,0.0372083587896675,0.404794000000038,
-0.0554497104492186,0.0536780012207031,-0.0118752402343745,0.0780834139531315,0.407736999999543,
-0.0386902988281249,0.0704374128417968,0.0120667763671882,0.0812648475243205,0.410831999999573,
0.00919373437500015,-0.0349074602050781,-0.00708683691406087,0.0367869377248728,0.413784999998825,
0.0307415493164064,-0.0660320817871094,-0.0166636435546863,0.0747191789036134,0.416815999999017,
0.0498951625976564,-0.0420900651855469,0.0072783730468764,0.0656816226366223,0.419809999999416,
-0.0434787021484374,0.0225533796386719,0.0431913979492204,0.0653035169837469,0.422751000000062,
-0.0410845004882811,0.101562034423828,0.0120667763671882,0.110219735567521,0.425828999999794,
-0.0362960971679686,0.0871968244628907,-0.0166636435546863,0.095908132515217,0.428796999998667,
0.0115879360351564,0.0321301862792969,0.0240377846679696,0.0417665443104989,0.43189799999891,
0.0403183559570314,-0.0636378801269531,0.0312203896484391,0.0815479144057695,0.434869999999137,
0.0067995327148439,-0.0516668718261719,-0.0142694418945304,0.0540306973990128,0.437817999998515,
0.0379241542968751,-0.0325132585449219,-0.00469263525390495,0.0501734420382768,0.440855999999258,
-0.0578439121093749,0.0704374128417968,0.0120667763671882,0.0919399499013272,0.44385499999953,
-0.00756567724609364,0.101562034423828,0.0240377846679696,0.104641776553356,0.446896999999808,
0.00919373437500015,0.0249475812988281,-0.0262404501953117,0.0373559605802385,0.44988899999953,
0.0211647426757814,0.0225533796386719,-0.0166636435546863,0.0351322968531199,0.452849999999671,
0.00440533105468766,-0.0109654436035156,-0.00708683691406087,0.0137793741719199,0.45588399999906,
-0.0147482822265624,-0.0037828386230469,-0.00229843359374904,0.0153981977408795,0.458822999999029,
-0.0362960971679686,0.0369185895996094,-0.0693360800781235,0.0865325425967073,0.461878999998589,
-0.0267192905273436,0.0632548078613281,-0.0166636435546863,0.0706595232107871,0.464844000000085,
-0.00517147558593739,-0.0109654436035156,0.0120667763671882,0.0171053268034715,0.467870999998922,
0.0259531459960939,0.00818816967773439,-0.078912886718749,0.0834736820803542,0.4708499999997,
0.0331357509765626,-0.0540610734863282,-0.078912886718749,0.101231523497185,0.473803999999291,
-0.00995987890624989,0.0129765729980469,-0.0358172568359372,0.0393759637577582,0.476843999998891,
0.0115879360351564,-0.0325132585449219,0.0216435830078137,0.0407410963055725,0.479825999998866,
0.0067995327148439,0.0153707746582031,9.57680664068761e-05,0.0168078413324268,0.482872999999017,
-0.00995987890624989,0.0129765729980469,9.57680664068761e-05,0.016358478111467,0.485849999999118,
-0.0219308872070311,-0.0157538469238281,-0.0334230551757795,0.0429679895255774,0.488775999998325,
0.0259531459960939,0.00339976635742184,0.033614591308595,0.0426035790424172,0.491838999998436,
0.0163763393554689,0.0201591779785156,0.00488417138672048,0.0264278655511528,0.494817999999213,
-0.0291134921874999,0.0369185895996094,-0.00229843359374904,0.0470729272763111,0.497851999998602,
0.0115879360351564,0.00818816967773439,-0.0190578452148422,0.0237597947899204,0.500831999999718,
-0.00277727392578114,0.0321301862792969,0.0144609780273441,0.0353437689884436,0.503805999998804,
0.0475009609375001,-0.0037828386230469,0.0168551796875018,0.0505445174112079,0.506855999999971,
-0.0123540805664061,0.0321301862792969,-0.0621534750976558,0.0710494661746201,0.509819999999308,
-0.000383072265624895,-0.00617704028320315,-0.0549708701171863,0.0553181627719284,0.512842999998611,
-0.0602381137695311,0.0105823713378906,-0.0358172568359372,0.0708766027747907,0.515808999998626,
0.0283473476562501,0.0177649763183594,-0.00469263525390495,0.033781464272029,0.518769999998767,
0.0115879360351564,0.0297359846191406,-0.0429998618164049,0.0535490164153793,0.521826999998666,
-0.00995987890624989,0.0321301862792969,-0.0238462485351558,0.0412333800138904,0.524786999998469,
0.0331357509765626,0.0225533796386719,0.00488417138672048,0.0403793023223741,0.527890999999727,
-0.0123540805664061,0.0153707746582031,-0.0262404501953117,0.0328244611027683,0.53093699999954,
-0.0123540805664061,-0.0229364519042969,-0.00469263525390495,0.0264712099879391,0.53396999999859,
-0.0123540805664061,0.0201591779785156,0.0168551796875018,0.0290364055232168,0.537100999999893,
0.0427125576171876,-0.0181480485839844,-0.0262404501953117,0.0533129953394186,0.540080999999191,
-0.0123540805664061,0.0632548078613281,0.0312203896484391,0.0716135933605845,0.543133999999554,
-0.0171424838867186,-0.0109654436035156,0.0360087929687509,0.0413610792689777,0.546104999999443,
0.0139821376953126,0.0177649763183594,0.0479798012695323,0.0530391919997502,0.5491009999987,
-0.000383072265624895,0.0369185895996094,0.00488417138672048,0.0372422358689692,0.552152999998725,
0.00201112939453141,-0.00617704028320315,-0.00948103857421678,0.0114930657593024,0.555101999998442,
-0.0243250888671874,0.00339976635742184,-0.00948103857421678,0.026327902539462,0.558146999999735,
0.00201112939453141,0.00818816967773439,0.0407971962890645,0.0416593565620183,0.561150999999882,
0.0259531459960939,-0.0109654436035156,-0.0118752402343745,0.0305749582361212,0.564188999998805,
-0.00756567724609364,0.00818816967773439,0.0455855996093764,0.0469290154020922,0.567171999999118,
-0.0123540805664061,-0.0205422502441406,-0.0621534750976558,0.0666157775489341,0.570132999999259,
0.0067995327148439,0.0153707746582031,0.0072783730468764,0.0183158148315326,0.573217999999542,
0.0139821376953126,-0.0037828386230469,-0.0166636435546863,0.0220791091101144,0.576170999998794,
0.0331357509765626,0.0129765729980469,-0.0334230551757795,0.048820795331883,0.579222999998819,
0.0187705410156251,0.0249475812988281,9.57680664068761e-05,0.0312205732523195,0.582225999998627,
0.0355299526367189,-0.0325132585449219,-0.040605660156249,0.0629945168431444,0.585153999998511,
0.0211647426757814,0.00818816967773439,-0.0142694418945304,0.0268068914121871,0.588222999998834,
0.0067995327148439,0.00579396801757814,0.0072783730468764,0.0115229520843596,0.591209999998682,
-0.0123540805664061,0.0345243879394531,-0.0142694418945304,0.0393468377537063,0.594240999998874,
0.0451067592773439,-0.00617704028320315,-0.00948103857421678,0.0465044691573869,0.597196999999142,
0.00919373437500015,0.00579396801757814,-0.00948103857421678,0.0144216819266188,0.600182999998651,
0.0259531459960939,0.0105823713378906,0.0312203896484391,0.0419555133448268,0.603252999999313,
-0.000383072265624895,0.0369185895996094,-0.0238462485351558,0.0439519347877371,0.606216999998651,
0.00919373437500015,0.00579396801757814,0.0072783730468764,0.0130793551582742,0.609283999998297,
-0.0219308872070311,0.0225533796386719,-0.0477882651367167,0.0572130844439514,0.612240999998903,
0.0235589443359376,0.00818816967773439,0.0862870278320322,0.0898193807203161,0.61520599999858,
-0.00995987890624989,0.00818816967773439,-0.0190578452148422,0.0230097104443193,0.618244999999661,
-0.0291134921874999,0.0321301862792969,-0.00948103857421678,0.0443828163835929,0.621200999999928,
-0.00756567724609364,0.0321301862792969,0.0551624062500018,0.0642843636184151,0.624254999998811,
0.0187705410156251,0.0488895979003906,-0.0382114584960931,0.0648277838066348,0.627249999999549,
0.0163763393554689,0.0201591779785156,-0.0837012900390608,0.0876383643255505,0.630217999998422,
0.0403183559570314,0.0464953962402344,-0.0717302817382794,0.0945125653914189,0.633275999998659,
-0.0315076938476561,0.0249475812988281,-0.0166636435546863,0.0435062478361086,0.636255999999776,
-0.0171424838867186,-0.0229364519042969,-0.0166636435546863,0.033130387807603,0.639262999999119,
-0.00756567724609364,-0.00138863696289065,0.0288261879882832,0.0298348269433997,0.642233999999007,
-0.0147482822265624,0.0345243879394531,0.0168551796875018,0.0411526703085737,0.645188999998936,
0.0307415493164064,0.0919852277832032,-0.0621534750976558,0.115192792532414,0.648240999998961,
0.0642603725585939,-0.0349074602050781,0.0216435830078137,0.0762651358403991,0.651216999998724,
-0.00517147558593739,-0.0660320817871094,-0.100460701660156,0.120330098325092,0.654239999999845,
-0.129669961914062,0.0704374128417968,-0.12919112158203,0.196127698314805,0.657194999999774,
0.0451067592773439,0.0105823713378906,0.0168551796875018,0.0493021642317579,0.660248999998657,
0.0355299526367189,0.0776200178222656,-0.0334230551757795,0.0916752164894063,0.663220999998885,
0.0451067592773439,0.113533042724609,-0.0860954916992185,0.149455027395342,0.666195999998308,
0.0810197841796876,-0.0780030900878906,-0.0118752402343745,0.113091594835367,0.669299999999566,
-0.0291134921874999,0.0249475812988281,-0.0549708701171863,0.067020696814147,0.672365999998874,
-0.0602381137695311,-0.0301190568847656,-0.0549708701171863,0.0869343689203487,0.675459000000046,
-0.00995987890624989,-0.0181480485839844,0.0144609780273441,0.0252521432900487,0.678470999999263,
0.0522893642578126,0.0776200178222656,-0.00469263525390495,0.0937073401972398,0.681437999999616,
0.0570777675781252,0.0728316145019531,0.0144609780273441,0.0936559421935998,0.684505999999601,
0.0379241542968751,0.0177649763183594,0.0216435830078137,0.0471410707148361,0.687480999999025,
0.00440533105468766,-0.0277248552246094,-0.00469263525390495,0.0284621742766279,0.690520999998625,
-0.0267192905273436,-0.0349074602050781,0.0216435830078137,0.0489989382504338,0.69347899999957,
-0.0195366855468749,0.0105823713378906,-0.0190578452148422,0.0292723441070811,0.696427999999287,
-0.0291134921874999,-0.0109654436035156,-0.0645476767578117,0.0716536039261421,0.699447999999393,
0.0307415493164064,0.0273417829589844,0.0192493813476577,0.0454219620009617,0.702433999998902,
0.0522893642578126,0.0608606062011718,-0.0477882651367167,0.093391162785552,0.705498999999691,
0.0139821376953126,-0.0468784685058594,0.0503740029296882,0.0702184530956484,0.708479999999327,
-0.00517147558593739,-0.0037828386230469,-0.0166636435546863,0.0178530401977254,0.711432999998578,
-0.000383072265624895,0.00579396801757814,9.57680664068761e-05,0.00580740744841902,0.71450299999924,
-0.000383072265624895,0.0273417829589844,0.0288261879882832,0.0397324672487468,0.717467999998917,
0.0331357509765626,0.0345243879394531,0.0647392128906255,0.0805051367371819,0.720534999998563,
0.0666545742187501,-0.00138863696289065,-0.0166636435546863,0.0687199941313677,0.72349099999883,
0.0475009609375001,0.0105823713378906,0.0455855996093764,0.0666811424982003,0.726473999999143,
0.0307415493164064,0.0177649763183594,0.0192493813476577,0.0403878189585978,0.729522999999972,
-0.00995987890624989,-0.0133596452636719,-0.100460701660156,0.10183335351175,0.732450999999855,
-0.0458729038085936,0.0512837995605468,0.0455855996093764,0.0825372539702237,0.735510999998951,
0.0163763393554689,0.0321301862792969,-0.0334230551757795,0.0491694415090409,0.738494999999602,
0.00201112939453141,0.0393127912597656,0.00488417138672048,0.0396660475496401,0.741483999998309,
0.00919373437500015,-0.0157538469238281,0.0384029946289068,0.0425146850055991,0.74452299999939,
0.0451067592773439,-0.0253306535644531,-0.040605660156249,0.0657653509017581,0.747471999999107,
-0.0195366855468749,0.0129765729980469,-0.040605660156249,0.0468923572200833,0.750520999999935,
-0.0602381137695311,0.0177649763183594,-0.0429998618164049,0.076113158194446,0.753478999999061,
-0.00517147558593739,0.0321301862792969,0.0407971962890645,0.0521872039404941,0.756534000000102,
0.0211647426757814,0.0153707746582031,0.0072783730468764,0.0271510913286151,0.759514999999737,
0.0259531459960939,0.0129765729980469,9.57680664068761e-05,0.0290166573779742,0.762483999998949,
0.0331357509765626,0.0321301862792969,-0.0382114584960931,0.0599203005960562,0.7655309999991,
0.0115879360351564,0.0393127912597656,-0.0669418784179676,0.0784919798725624,0.768522999998822,
-0.0267192905273436,0.0464953962402344,0.00248996972656279,0.0536837247875014,0.771569999998974,
0.0187705410156251,0.0393127912597656,-0.00948103857421678,0.0445838407845147,0.774562999999034,
0.0403183559570314,0.0153707746582031,-0.040605660156249,0.0592507398890169,0.777522999998837,
0.0307415493164064,0.0177649763183594,0.107834842773439,0.113529690186916,0.780592999999499,
0.0307415493164064,-0.0037828386230469,0.0360087929687509,0.0474972198500862,0.78356199999871,
0.00201112939453141,0.00818816967773439,0.0407971962890645,0.0416593565620183,0.78662599999916,
0.0187705410156251,0.0369185895996094,0.0240377846679696,0.0478866428118251,0.789602999999261,
-0.0123540805664061,-0.0133596452636719,-0.0214520468749981,0.0281299438915104,0.792523000000074,
0.0115879360351564,0.00579396801757814,0.0360087929687509,0.0382685706293031,0.79558999999972,
0.0139821376953126,0.0536780012207031,-0.0190578452148422,0.0586517642855982,0.7985839999983,
0.0379241542968751,0.0177649763183594,-0.0358172568359372,0.0551063675991854,0.801652000000104,
0.0139821376953126,-0.00617704028320315,9.57680664068761e-05,0.0152861104507831,0.804645999998684,
0.00201112939453141,0.0249475812988281,0.0264319863281255,0.0364015982527334,0.807652999999846,
0.00440533105468766,0.0273417829589844,0.0814986245117204,0.0860755821030564,0.810804999999164,
-0.0123540805664061,-0.0085712419433594,0.0791044228515645,0.0805207998579993,0.81383299999834,
-0.00517147558593739,0.0512837995605468,-0.0693360800781235,0.0863959736197368,0.816961999998966,
-0.0147482822265624,0.00818816967773439,-0.0214520468749981,0.0272900763361487,0.819940999999744,
0.0379241542968751,0.0249475812988281,0.0407971962890645,0.0610330608510117,0.822920999999042,
0.00440533105468766,-0.0301190568847656,-0.0621534750976558,0.0692070733093378,0.825944999998683,
0.0139821376953126,-0.0085712419433594,0.00488417138672048,0.0171120277324794,0.828927999998996,
0.0211647426757814,0.0225533796386719,-0.0693360800781235,0.0759216258141121,0.832012999999279,
-0.00517147558593739,0.0297359846191406,-0.0142694418945304,0.0333854745808277,0.834988999999041,
0.0331357509765626,0.0393127912597656,0.0479798012695323,0.0703244970069355,0.837974000000031,
0.00919373437500015,0.00100556469726559,-0.0118752402343745,0.0150518185858903,0.841032999998788,
0.0235589443359376,0.0608606062011718,-0.0286346518554677,0.0712669666274759,0.844051000000036,
0.0115879360351564,-0.0205422502441406,0.0216435830078137,0.032011076084129,0.847126999999091,
0.00919373437500015,0.00579396801757814,-0.0262404501953117,0.0284016908581059,0.850139999998646,
-0.00277727392578114,0.0441011945800781,0.0312203896484391,0.0541049105317539,0.853230999999141,
-0.0267192905273436,0.0225533796386719,0.0216435830078137,0.0411220148439589,0.856205000000045,
0.0379241542968751,0.0177649763183594,0.0072783730468764,0.042506594511141,0.859187999998539,
0.0259531459960939,-0.0109654436035156,-0.0190578452148422,0.0340148233091006,0.862237999999707,
0.0546835659179689,-0.0109654436035156,0.0192493813476577,0.0590006103120492,0.865238999998837,
0.0235589443359376,-0.0133596452636719,-0.0765186850585931,0.0811702725318272,0.868275999999241,
0.0331357509765626,-0.00138863696289065,-0.00948103857421678,0.0344934254292215,0.871247999999468,
-0.000383072265624895,0.0225533796386719,-0.0190578452148422,0.0295296993164447,0.874209999999948,
0.0211647426757814,0.0441011945800781,-0.0214520468749981,0.0534139683140007,0.877283999998326,
0.0546835659179689,-0.00138863696289065,0.0288261879882832,0.0618317863890038,0.880282000000079,
-0.0243250888671874,0.00100556469726559,-0.0621534750976558,0.0667515960518688,0.883334000000104,
0.00440533105468766,0.0153707746582031,-0.107643306640623,0.108824395793507,0.886312999999063,
0.00919373437500015,0.0464953962402344,-0.0262404501953117,0.054174789798827,0.889289999999164,
-0.0123540805664061,0.0441011945800781,-0.0118752402343745,0.0473134230494399,0.892323999998553,
-0.000383072265624895,-0.0085712419433594,0.0072783730468764,0.0112511175899015,0.89527999999882,
-0.00277727392578114,0.00818816967773439,-0.0190578452148422,0.0209275138839538,0.898329999999987,
-0.0171424838867186,0.0441011945800781,-0.0525766684570304,0.0707324973632121,0.901299999999537,
0.0235589443359376,0.0488895979003906,0.0144609780273441,0.0561634803639608,0.904289000000063,
0.0522893642578126,0.0608606062011718,-0.00469263525390495,0.0803754429367983,0.907379999998739,
0.0403183559570314,-0.0085712419433594,-0.0597592734374981,0.0725961898263756,0.910350999998627,
0.00919373437500015,0.0129765729980469,9.57680664068761e-05,0.0159036275753126,0.913431999999375,
0.0235589443359376,0.00339976635742184,-0.0358172568359372,0.0430053270742167,0.916419999999562,
0.0115879360351564,0.0273417829589844,0.0384029946289068,0.0485452711744299,0.919403999998394,
0.0187705410156251,-0.0133596452636719,-0.0214520468749981,0.0314802103982412,0.922421999999642,
0.00440533105468766,0.0488895979003906,-0.00469263525390495,0.0493114646932076,0.925410999998348,
-0.000383072265624895,0.0321301862792969,-0.0310288535156236,0.0446686172295162,0.928445999999894,
0.00440533105468766,-0.0277248552246094,0.00488417138672048,0.0284943796047888,0.931429999998727,
0.0067995327148439,0.00579396801757814,-0.0334230551757795,0.034596305117919,0.934391999999207,
0.0283473476562501,0.0249475812988281,-0.0573650717773422,0.0686782745256866,0.937453999998979,
-0.00756567724609364,0.0345243879394531,0.00488417138672048,0.0356795174423755,0.940435999998954,
0.0139821376953126,0.00579396801757814,-0.0717302817382794,0.0733096416453685,0.943497999998726,
0.0331357509765626,0.0393127912597656,-0.00469263525390495,0.0516284260368343,0.946475999999166,
-0.0195366855468749,0.0177649763183594,0.0072783730468764,0.027390713389009,0.949597999999241,
0.0355299526367189,-0.0301190568847656,-0.0477882651367167,0.066732701179949,0.952644999999393,
-0.00995987890624989,0.0584664045410156,-0.00708683691406087,0.0597305860110827,0.95570299999963,
0.0211647426757814,0.0105823713378906,9.57680664068761e-05,0.0236630954692659,0.95882199999869,
0.0498951625976564,0.0393127912597656,0.0312203896484391,0.0707794852840908,0.961805999999342,
0.0235589443359376,0.0129765729980469,0.0312203896484391,0.041208349090904,0.964842999999746,
-0.0362960971679686,-0.0037828386230469,0.0216435830078137,0.042428306860995,0.967781999999715,
0.0451067592773439,-0.0085712419433594,-0.0214520468749981,0.0506781633061318,0.970767999999225,
-0.00995987890624989,0.0464953962402344,-0.0645476767578117,0.0801712144986871,0.973810999999841,
0.0115879360351564,0.00579396801757814,0.0072783730468764,0.0148601830793935,0.976801999999225,
-0.0362960971679686,0.0153707746582031,-0.0118752402343745,0.0411665970641731,0.979845999998361,
0.0139821376953126,-0.0037828386230469,-0.0118752402343745,0.0187304931382707,0.982797999999093,
0.0259531459960939,-0.0181480485839844,-0.0693360800781235,0.0762260418433305,0.98577799999839,
0.0498951625976564,0.0393127912597656,0.00248996972656279,0.0635706123654607,0.988839999999982,
0.0115879360351564,0.0560722028808593,0.0240377846679696,0.0620982068115562,0.991858999999749,
0.0067995327148439,0.00818816967773439,-0.0932780966796862,0.0938833482998795,0.994918999998845,
0.0283473476562501,0.0345243879394531,-0.0262404501953117,0.05180797919424,0.99791599999844,
0.0307415493164064,0.0393127912597656,-0.0573650717773422,0.0760347938185313,1.00089399999888,
-0.00517147558593739,0.00100556469726559,9.57680664068761e-05,0.00526920218048963,1.0039629999992,
0.0307415493164064,0.00339976635742184,0.0120667763671882,0.033199523453716,1.00695099999939,
0.0187705410156251,0.0201591779785156,0.0144609780273441,0.0311102162045857,1.01001999999971,
0.0235589443359376,0.0560722028808593,-0.0837012900390608,0.103465075017317,1.01300099999935,
-0.00995987890624989,0.00339976635742184,0.00967257470703231,0.0142939253032657,1.01597799999945,
0.0307415493164064,0.0297359846191406,-0.0286346518554677,0.0514705247935811,1.01903299999867,
0.0187705410156251,-0.0420900651855469,-0.0286346518554677,0.0542572583552347,1.02202399999987,
