X,Y,Z,Magnitude,Seconds,
0.0355299526367189,-0.0540610734863282,0.0623450112304695,0.0898436287456659,0.0,
0.0163763393554689,-0.0181480485839844,-0.00948103857421678,0.026218814819475,0.00378400000045076,
-0.0267192905273436,0.0321301862792969,0.0360087929687509,0.0551625101649053,0.0076020000014978,
-0.0386902988281249,-0.0277248552246094,0.0192493813476577,0.0513434075895115,0.0114270000012766,
-0.00277727392578114,0.0393127912597656,0.0599508095703136,0.0717447445826434,0.0153520000003482,
-0.00756567724609364,0.00818816967773439,-0.0358172568359372,0.0375121511262006,0.0191650000015215,
-0.00995987890624989,-0.00617704028320315,-0.0884896933593744,0.0892624268397604,0.0229460000009567,
0.0427125576171876,0.0249475812988281,-0.0118752402343745,0.0508700867061116,0.0267710000007355,
0.00201112939453141,0.0369185895996094,0.0862870278320322,0.0938747999814212,0.0306049999999232,
0.0283473476562501,0.0632548078613281,0.0288261879882832,0.0750712458312348,0.0343600000014703,
-0.000383072265624895,-0.0253306535644531,-0.0501824667968744,0.0562144885966459,0.0380519999998796,
-0.0506613071289062,0.0321301862792969,0.0575566079101577,0.0831365143873334,0.0419360000014422,
-0.0267192905273436,0.0393127912597656,0.0862870278320322,0.0985132844595307,0.04566800000066,
0.140874825683594,0.0895910261230469,0.0599508095703136,0.177387620879529,0.0494150000013178,
0.0307415493164064,-0.00617704028320315,0.0958638344726577,0.10086165495784,0.0531430000010005,
-0.0410845004882811,-0.00617704028320315,-0.078912886718749,0.0891814762005989,0.0568390000007639,
-0.0530555087890624,0.00339976635742184,-0.0765186850585931,0.0931748602749019,0.0605630000009114,
-0.120093155273437,0.0848026228027344,0.0527682045898441,0.156199661310095,0.0645460000014282,
-0.0171424838867186,-0.0037828386230469,0.0910754311523441,0.0927518667275208,0.0684500000006665,
0.0690487758789064,0.0249475812988281,-0.0429998618164049,0.0850829206084688,0.0722400000013295,
0.0570777675781252,0.00100556469726559,-0.0190578452148422,0.0601837534247885,0.076059000000896,
-0.000383072265624895,-0.0349074602050781,0.0216435830078137,0.0410745932146129,0.0798100000010891,
-0.0506613071289062,0.00339976635742184,0.00248996972656279,0.0508362705214851,0.0836400000007416,
-0.0698149204101561,0.00818816967773439,-0.0597592734374981,0.0922623433277384,0.0874410000014905,
-0.0243250888671874,0.0129765729980469,-0.00948103857421678,0.0291546134876796,0.0913280000004306,
-0.0195366855468749,0.0512837995605468,0.0455855996093764,0.071342533395375,0.095076000001427,
-0.00995987890624989,0.0321301862792969,0.071921817871095,0.0793995966239907,0.0988860000015848,
-0.0219308872070311,0.0273417829589844,-0.0597592734374981,0.0692799225666527,0.102648000000045,
0.0307415493164064,-0.0540610734863282,0.00248996972656279,0.0622401997916653,0.106393000000025,
0.00919373437500015,-0.00617704028320315,-0.0166636435546863,0.0200089378762595,0.110124000000724,
-0.00756567724609364,0.00100556469726559,0.0240377846679696,0.0252203434611053,0.113986000000295,
-0.0291134921874999,-0.0133596452636719,0.0575566079101577,0.0658698615684472,0.117729000001418,
-0.0123540805664061,0.0297359846191406,0.0216435830078137,0.038798154251551,0.121481000000131,
0.0067995327148439,0.00818816967773439,-0.00229843359374904,0.010888643845607,0.125224000001253,
-0.00277727392578114,0.0201591779785156,0.0671334145507831,0.0701498471593174,0.128974000001108,
0.0163763393554689,0.0632548078613281,-0.00708683691406087,0.0657235001023645,0.132747999999992,
-0.0195366855468749,-0.0229364519042969,0.0360087929687509,0.0469509965728307,0.136820000001535,
-0.00995987890624989,0.0393127912597656,0.0838928261718763,0.093181012162166,0.140659000000596,
0.00201112939453141,-0.0181480485839844,0.0264319863281255,0.0321254760291333,0.144494000000122,
-0.0243250888671874,0.0369185895996094,-0.00708683691406087,0.044776282381049,0.148288000000321,
-0.0626323154296874,0.0225533796386719,0.0072783730468764,0.0669659359930063,0.15212000000065,
-0.00756567724609364,0.0512837995605468,0.0647392128906255,0.0829363204829834,0.155959000001531,
0.0211647426757814,0.0536780012207031,-0.0717302817382794,0.092057088080358,0.159771000000546,
-0.00277727392578114,0.0345243879394531,-0.0597592734374981,0.0690711037614887,0.163669999999911,
0.0235589443359376,0.00818816967773439,-0.0765186850585931,0.0804809241000085,0.167508000000453,
0.0475009609375001,-0.0420900651855469,0.0455855996093764,0.0781406537537015,0.171315999999933,
-0.0578439121093749,0.00579396801757814,-0.0477882651367167,0.0752542790695848,0.175078000000212,
-0.0339018955078124,-0.0492726701660157,0.0431913979492204,0.0737741919719865,0.178820000000997,
-0.0315076938476561,-0.0133596452636719,-0.040605660156249,0.0531039973061686,0.182559000000765,
-0.00756567724609364,0.0129765729980469,-0.0477882651367167,0.050093404792875,0.186381999999867,
-0.00277727392578114,0.0464953962402344,9.57680664068761e-05,0.0465783672268336,0.190155000000232,
-0.0219308872070311,0.0249475812988281,-0.0262404501953117,0.0423309207648711,0.193866999999955,
-0.0386902988281249,0.0345243879394531,-0.0190578452148422,0.0552455794633049,0.19760099999985,
-0.0339018955078124,0.0225533796386719,0.0455855996093764,0.0611231571819966,0.201324000001478,
0.0379241542968751,-0.00138863696289065,0.0479798012695323,0.06117377805573,0.2051930000016,
-0.0195366855468749,0.0273417829589844,0.0264319863281255,0.0427540065816514,0.209130000001096,
0.00440533105468766,0.0321301862792969,-0.00229843359374904,0.0325121301828808,0.213040000000547,
-0.0195366855468749,0.00100556469726559,0.00248996972656279,0.0197203750409838,0.216817000000447,
-0.0339018955078124,0.0129765729980469,-0.0334230551757795,0.0493440025036424,0.220597999999882,
-0.0267192905273436,0.0345243879394531,0.0168551796875018,0.0467969115559609,0.224403000000166,
0.00201112939453141,-0.0133596452636719,0.0120667763671882,0.0181144101451974,0.228232000001299,
0.00919373437500015,0.0297359846191406,-0.0214520468749981,0.0378013736278848,0.23200800000086,
-0.0267192905273436,-0.0349074602050781,0.0312203896484391,0.053918123057596,0.235844000000725,
-0.00995987890624989,0.0321301862792969,0.00967257470703231,0.0350015251043808,0.239637000000585,
-0.0291134921874999,0.0129765729980469,-0.0118752402343745,0.034014823309101,0.243375000000015,
0.0259531459960939,0.00579396801757814,-0.0142694418945304,0.0301786816223748,0.247112000000925,
-0.00277727392578114,0.0345243879394531,-0.0382114584960931,0.0515728821518763,0.250855000000229,
-0.0362960971679686,0.0273417829589844,0.0264319863281255,0.0525702355544755,0.254612000000634,
-0.00995987890624989,-0.0157538469238281,0.0288261879882832,0.0343268407323251,0.258407000001171,
0.0115879360351564,0.00100556469726559,0.0838928261718763,0.0846953228048628,0.262174000001323,
0.0163763393554689,-0.00617704028320315,0.00248996972656279,0.0176788084039902,0.265912000000753,
0.00201112939453141,0.0105823713378906,0.0384029946289068,0.0398851002385904,0.269674000001032,
-0.0195366855468749,0.00818816967773439,0.0838928261718763,0.0865259180126596,0.273414000001139,
-0.0171424838867186,0.00339976635742184,0.071921817871095,0.0740146678096607,0.277351000000635,
-0.0243250888671874,0.00339976635742184,-0.00229843359374904,0.0246688296574137,0.281243000001268,
0.0259531459960939,0.0201591779785156,-0.00469263525390495,0.0331960700910548,0.285022000000026,
-0.0123540805664061,-0.0085712419433594,0.0120667763671882,0.0192794343015709,0.288814999999886,
-0.0219308872070311,0.00100556469726559,0.0623450112304695,0.0660974689331996,0.292586999999912,
-0.0482671054687498,0.00579396801757814,0.0072783730468764,0.0491554498497332,0.296444000001429,
0.251008102050781,-0.0037828386230469,0.538791141601564,0.594403290226005,0.300242000001163,
0.188758858886719,-0.116310316650391,-0.16749834814453,0.277873520146625,0.304058000001532,
-0.00277727392578114,0.178176487548828,-0.122008516601561,0.215964469506004,0.307043000000704,
-0.199101810058594,-0.0253306535644531,-0.150738936523437,0.251008764314769,0.309965000000375,
-0.31641769140625,0.0752258161621093,0.0216435830078137,0.325956321517979,0.313029000000824,
-0.223043826660156,0.132686656005859,0.177266690917969,0.314289320534806,0.316017000001011,
-0.160794583496094,0.0943794294433594,0.0958638344726577,0.209647918051998,0.319054999999935,
0.0834139858398439,0.0895910261230469,-0.0501824667968744,0.132297864568139,0.322041000001263,
0.301286336914063,-0.0205422502441406,-0.00948103857421678,0.302134623882522,0.324985000001107,
0.272555916992188,-0.0851856950683594,0.0072783730468764,0.285650669955352,0.328045000000202,
0.203124068847656,-0.0875798967285156,0.0575566079101577,0.228565939654903,0.331017000000429,
0.0762313808593751,-0.164194349853516,0.126988456054688,0.221126832208801,0.334064000000581,
-0.0267192905273436,-0.0732146867675781,-0.0382114584960931,0.0868010737557884,0.336998000000676,
-0.172765591796875,0.00339976635742184,-0.0837012900390608,0.192003682450135,0.339962000000014,
-0.225438028320312,0.0728316145019531,-0.0501824667968744,0.242167356713762,0.34299800000008,
-0.108122146972656,0.135080857666016,-0.0262404501953117,0.175002279985764,0.345960000000559,
-0.0961511386718749,-0.0085712419433594,0.165295682617188,0.191418834883697,0.348989000000074,
-0.0674207187499999,0.0680432111816406,-0.0334230551757795,0.101452119356666,0.351948999999877,
0.0427125576171876,0.0249475812988281,0.033614591308595,0.0598053939014457,0.354925000001458,
0.102567599121094,-0.0109654436035156,-0.0693360800781235,0.124289361344756,0.357946000000084,
0.0953849941406251,-0.0157538469238281,-0.0142694418945304,0.0977246016727,0.360905999999886,
0.0642603725585939,-0.0468784685058594,0.00488417138672048,0.0796921666223161,0.363968999999997,
0.0115879360351564,-0.0109654436035156,-0.00229843359374904,0.0161184370198116,0.36692100000073,
-0.0171424838867186,-0.0301190568847656,0.0479798012695323,0.0591868538722744,0.369940000000497,
-0.0746033237304686,-0.0133596452636719,-0.0286346518554677,0.0810190059189083,0.372885000000679,
-0.0650265170898436,-0.0205422502441406,0.110229044433595,0.129618186249739,0.375826999999845,
-0.0578439121093749,0.0201591779785156,-0.0884896933593744,0.107623122309858,0.37886299999991,
-0.00277727392578114,0.0273417829589844,0.0288261879882832,0.0398275716027336,0.381910000000062,
0.0594719692382814,0.0656490095214843,0.0120667763671882,0.0893997464656738,0.3850450000009,
0.0235589443359376,0.0991678327636719,0.0479798012695323,0.112655866439042,0.388122000000294,
0.0355299526367189,-0.00138863696289065,0.0527682045898441,0.0636300971444947,0.391125000000102,
-0.0219308872070311,0.0249475812988281,-0.0453940634765608,0.0562491477736614,0.394159999999829,
-0.0339018955078124,-0.0301190568847656,0.00488417138672048,0.0456108675294083,0.397108000001026,
0.0307415493164064,-0.0133596452636719,-0.0286346518554677,0.0440847622521437,0.400149000000965,
0.0115879360351564,-0.0349074602050781,-0.00469263525390495,0.0370787252363155,0.403126000001066,
-0.0315076938476561,0.0321301862792969,0.0288261879882832,0.0534418633271313,0.40609300000142,
-0.0123540805664061,0.0249475812988281,0.0216435830078137,0.0352625836364696,0.409138000000894,
-0.0291134921874999,0.0105823713378906,-0.00708683691406087,0.0317774333125116,0.412107000000105,
-0.00277727392578114,0.0919852277832032,-0.00708683691406087,0.0922996134240718,0.415146000001187,
-0.000383072265624895,0.0417069929199219,-0.0358172568359372,0.0549772306508303,0.418118000001414,
0.0379241542968751,0.0560722028808593,0.0168551796875018,0.0697598057433033,0.421089999999822,
-0.00517147558593739,0.0153707746582031,0.00967257470703231,0.0188828910602251,0.424162000001161,
0.00919373437500015,0.0321301862792969,-0.0142694418945304,0.0363385552008023,0.427138000000923,
0.00201112939453141,-0.0373016618652344,0.00967257470703231,0.0385877871976737,0.430202000001373,
-0.0243250888671874,-0.0133596452636719,9.57680664068761e-05,0.0277524637012691,0.433145000000877,
0.0235589443359376,0.00579396801757814,0.0814986245117204,0.0850330507562496,0.436123000001317,
-0.00995987890624989,-0.0349074602050781,-0.0717302817382794,0.0803925573921443,0.439125000000786,
-0.0267192905273436,0.0105823713378906,9.57680664068761e-05,0.028738758514246,0.442097000001013,
-0.0769975253906249,0.0441011945800781,0.0647392128906255,0.109839428100148,0.445144000001164,
-0.000383072265624895,0.0369185895996094,0.0527682045898441,0.0644019597374235,0.448098000000755,
0.0738371791992189,0.0464953962402344,0.0503740029296882,0.100753615690923,0.451053000000684,
0.0211647426757814,0.0512837995605468,0.00488417138672048,0.0556940711389753,0.454109000000244,
0.0139821376953126,-0.0157538469238281,-0.0980664999999981,0.100303151942896,0.457052000001568,
0.00440533105468766,-0.0253306535644531,-0.0741244833984371,0.0784569180556369,0.460086000000956,
-0.00995987890624989,-0.0253306535644531,-0.0238462485351558,0.0361868037691908,0.463030000000799,
-0.0434787021484374,-0.0301190568847656,-0.0166636435546863,0.0554547756704318,0.466022000000521,
-0.0650265170898436,0.0824084211425782,-0.00948103857421678,0.105401545968235,0.46899300000041,
-0.0626323154296874,-0.0181480485839844,-0.078912886718749,0.102368951805597,0.471914000001561,
-0.0267192905273436,0.0369185895996094,0.00248996972656279,0.045641019856574,0.474978000000192,
-0.0147482822265624,-0.00617704028320315,0.0240377846679696,0.0288701012647743,0.477929000000586,
0.0522893642578126,0.0608606062011718,0.0814986245117204,0.114368775454504,0.480980000000272,
0.0235589443359376,-0.0133596452636719,-0.0741244833984371,0.0789173176107763,0.483939000001556,
-0.0147482822265624,-0.0373016618652344,-0.0142694418945304,0.0425739683201366,0.486867999999959,
-0.00995987890624989,-0.0181480485839844,0.0312203896484391,0.03746015997075,0.489905000000363,
-0.0171424838867186,-0.0037828386230469,0.00248996972656279,0.0177306111314196,0.492846000001009,
-0.0434787021484374,0.0393127912597656,-0.0645476767578117,0.0871911444584677,0.495892000000822,
0.0475009609375001,-0.0109654436035156,0.10065223779297,0.111836734645376,0.49885600000016,
-0.0386902988281249,0.0177649763183594,-0.0190578452148422,0.0466447753905446,0.501809000001231,
0.0115879360351564,0.0249475812988281,-0.00229843359374904,0.027603348912793,0.504864000000453,
-0.000383072265624895,-0.0037828386230469,-0.00708683691406087,0.00804237961397012,0.50780400000076,
0.0163763393554689,-0.0157538469238281,0.0455855996093764,0.0509354010029494,0.51085200000125,
-0.0123540805664061,0.0105823713378906,0.00248996972656279,0.0164563008909494,0.513827000000674,
0.0307415493164064,0.0632548078613281,0.0575566079101577,0.0908789122187882,0.516795000001366,
-0.0219308872070311,-0.0205422502441406,0.131776859375002,0.135159492916774,0.519822000000204,
-0.0219308872070311,0.0201591779785156,0.0144609780273441,0.0331130813420364,0.522886000000653,
-0.0195366855468749,0.00579396801757814,-0.0573650717773422,0.0608769546508842,0.526017000000138,
0.0115879360351564,0.00818816967773439,0.0503740029296882,0.0523341815201736,0.529080000000249,
-0.000383072265624895,0.0153707746582031,0.105440641113283,0.106555789407869,0.532054000001153,
0.0187705410156251,-0.0133596452636719,-0.00469263525390495,0.023512425591942,0.535078000000794,
0.0067995327148439,0.00339976635742184,-0.040605660156249,0.0413111570057058,0.53806700000132,
0.00440533105468766,0.0608606062011718,-0.0166636435546863,0.0632542278855188,0.541141000001517,
0.0762313808593751,-0.147434938232422,0.148536270996095,0.222735960816278,0.544134000001577,
-0.00277727392578114,-0.0037828386230469,-0.0118752402343745,0.0127688859784613,0.547043000000485,
-0.0865743320312499,0.0105823713378906,-0.0501824667968744,0.100624954775689,0.550083000000086,
-0.136852566894531,0.0967736311035157,-0.0956722983398421,0.192994687523282,0.55303400000048,
-0.120093155273437,0.115927244384766,0.0455855996093764,0.173030456353561,0.556101000000126,
-0.0410845004882811,0.0656490095214843,0.117411649414064,0.140652849418896,0.559065999999802,
0.0738371791992189,-0.0229364519042969,0.0886812294921882,0.11765360309953,0.56212300000152,
0.1241154140625,-0.118704518310547,0.107834842773439,0.202789920832415,0.565114000000904,
0.136086422363281,-0.0708204851074219,-0.126796919921874,0.199028928460569,0.568076999999903,
0.0498951625976564,-0.0373016618652344,-0.0573650717773422,0.0846858470381826,0.571115000000646,
-0.0362960971679686,0.0153707746582031,-0.0860954916992185,0.0946894982252524,0.574091000000408,
-0.103333743652344,0.0488895979003906,0.0910754311523441,0.14616015024505,0.577118000001065,
-0.156006180175781,0.0536780012207031,0.122200052734376,0.205309787775382,0.580094000000827,
-0.0769975253906249,0.0752258161621093,0.0431913979492204,0.115987237187301,0.583048000000417,
0.0355299526367189,0.0225533796386719,-0.145950533203123,0.151896644498059,0.586107000000993,
0.0235589443359376,0.0177649763183594,-0.0525766684570304,0.0602903334528527,0.589080000001559,
0.0882023891601564,-0.0085712419433594,0.0503740029296882,0.101934625192677,0.592134000000442,
0.0594719692382814,-0.0947625017089844,0.0982580361328136,0.148900935255295,0.595112000000881,
0.0235589443359376,-0.0468784685058594,-0.0597592734374981,0.0795222322967378,0.598058000001402,
-0.00995987890624989,0.00339976635742184,-0.0142694418945304,0.017730611131419,0.60109999999986,
-0.0171424838867186,0.0273417829589844,-0.177075154785156,0.17999180062261,0.604064000001017,
-0.0937569370117186,-0.0301190568847656,0.0503740029296882,0.110612209979764,0.607096000001548,
-0.0746033237304686,0.0249475812988281,0.0503740029296882,0.0934108018135749,0.610074000000168,
-0.0434787021484374,-0.0037828386230469,0.0455855996093764,0.0631090667044516,0.61300300000039,
-0.0267192905273436,0.0201591779785156,-0.0334230551757795,0.0473013061166102,0.616038000000117,
0.00440533105468766,0.0369185895996094,-0.040605660156249,0.055056415034495,0.619039000001067,
0.00201112939453141,0.0321301862792969,9.57680664068761e-05,0.0321932086519255,0.622108999999909,
-0.0195366855468749,0.0321301862792969,0.0527682045898441,0.0647959440716426,0.625063999999838,
-0.0195366855468749,0.0488895979003906,0.0431913979492204,0.0680982505048938,0.62802499999998,
0.0283473476562501,0.0321301862792969,0.0264319863281255,0.0503445219536033,0.631088000000091,
0.0283473476562501,-0.0923683000488281,0.0072783730468764,0.0968940126492042,0.634054000000106,
0.0283473476562501,-0.0780030900878906,-0.0717302817382794,0.109696342239187,0.637086000000636,
-0.000383072265624895,-0.0109654436035156,0.0767102211914068,0.0774909396834051,0.640038000001368,
-0.0243250888671874,0.0225533796386719,0.0671334145507831,0.0748816414802048,0.642988999999943,
-0.00517147558593739,0.0297359846191406,0.0934696328125018,0.0982219181196825,0.646037000000433,
0.00440533105468766,0.0441011945800781,-0.00469263525390495,0.0445684095601077,0.649013000000195,
0.0115879360351564,0.0225533796386719,-0.0573650717773422,0.062719109166988,0.652074000001448,
-0.0171424838867186,-0.00138863696289065,-0.0118752402343745,0.0209001051922047,0.655012000001079,
0.0187705410156251,0.00579396801757814,0.0264319863281255,0.0329325549670565,0.658064000001104,
0.0331357509765626,-0.0181480485839844,-0.00229843359374904,0.0378498673336156,0.661078000000998,
0.0163763393554689,0.0417069929199219,-0.0190578452148422,0.0486914696157425,0.664134000000558,
-0.0530555087890624,0.0105823713378906,0.00248996972656279,0.0541578576500076,0.667290000001231,
-0.0195366855468749,-0.00617704028320315,-0.0860954916992185,0.0885001220323903,0.670288000001165,
-0.0578439121093749,0.0273417829589844,0.0288261879882832,0.0701743569790927,0.673316000000341,
-0.00756567724609364,0.0512837995605468,0.0216435830078137,0.0561757265638329,0.676285999999891,
-0.000383072265624895,-0.0205422502441406,0.0743160195312509,0.0771038361459587,0.679204000000027,
-0.0123540805664061,0.0105823713378906,0.0671334145507831,0.0690760829739322,0.682285000000775,
0.0259531459960939,-0.0325132585449219,-0.0214520468749981,0.0468067098120624,0.685237000001507,
0.0259531459960939,0.00100556469726559,-0.0693360800781235,0.0740409950504105,0.688305000001492,
-0.0315076938476561,0.0393127912597656,0.0264319863281255,0.0568935868923884,0.691285000000789,
-0.0410845004882811,0.00818816967773439,0.0216435830078137,0.0471532288232636,0.694226999999955,
-0.0506613071289062,0.0536780012207031,0.00248996972656279,0.0738518503782969,0.697290000000066,
-0.0458729038085936,0.0105823713378906,0.0072783730468764,0.0476370087345436,0.700249999999869,
-0.0362960971679686,0.0824084211425782,9.57680664068761e-05,0.0900475636336802,0.70332800000142,
0.0451067592773439,-0.0181480485839844,-0.0190578452148422,0.0522223406612897,0.706286000000546,
-0.0482671054687498,-0.0037828386230469,-0.0621534750976558,0.0787850100278876,0.709217000001445,
-0.0315076938476561,0.0153707746582031,0.0791044228515645,0.0865245930349863,0.712290999999823,
0.0139821376953126,-0.0037828386230469,-0.00948103857421678,0.0173118495552753,0.715243000000555,
0.0403183559570314,-0.0157538469238281,0.033614591308595,0.0548059692809202,0.718298000001596,
0.00440533105468766,-0.0349074602050781,-0.0525766684570304,0.0632632894000225,0.721242000001439,
-0.0602381137695311,0.0369185895996094,0.0288261879882832,0.07630571225322,0.72420300000158,
-0.00517147558593739,0.0105823713378906,-0.0645476767578117,0.0656135147488679,0.727249000001393,
-0.0769975253906249,0.0632548078613281,0.071921817871095,0.122892381862085,0.73022200000014,
-0.0554497104492186,0.0608606062011718,-0.0142694418945304,0.0835601624463337,0.733267999999953,
0.0139821376953126,0.0369185895996094,0.071921817871095,0.0820440754621443,0.736242000000857,
0.0427125576171876,-0.0301190568847656,0.00488417138672048,0.0524916688243399,0.739182000001165,
0.0475009609375001,-0.0229364519042969,-0.00229843359374904,0.0527987207508753,0.742216000000553,
0.107356002441406,-0.0540610734863282,-0.0501824667968744,0.130254331599808,0.745166000000609,
0.0139821376953126,-0.0037828386230469,0.0168551796875018,0.022224021348007,0.748228000000381,
-0.0817859287109374,0.0417069929199219,0.00488417138672048,0.0919362089911684,0.751188000000184,
-0.139246768554687,0.0824084211425782,-0.00469263525390495,0.161872886098202,0.75420800000029,
-0.0674207187499999,0.0895910261230469,0.0216435830078137,0.114195227413247,0.757184000000052,
-0.0506613071289062,0.130292454345703,0.0767102211914068,0.159458928049423,0.760141000000658,
-0.00756567724609364,0.0249475812988281,0.0407971962890645,0.0484152094893966,0.763182000000597,
0.0762313808593751,-0.0396958635253906,0.115017447753907,0.143582722834526,0.766156000001502,
0.116932809082031,-0.0947625017089844,-0.0286346518554677,0.153209519472009,0.769165000001522,
0.0977791958007814,-0.0588494768066407,-0.0453940634765608,0.122819595548825,0.772123000000647,
0.0163763393554689,-0.0516668718261719,0.0599508095703136,0.0808192409214759,0.77508300000045,
-0.0841801303710936,-0.00138863696289065,0.0360087929687509,0.0915688584234585,0.778110000001107,
-0.0554497104492186,0.0584664045410156,0.0216435830078137,0.0834352175898882,0.78107700000146,
-0.127275760253906,0.0919852277832032,0.0120667763671882,0.157499232920143,0.784127000000808,
-0.00277727392578114,0.0680432111816406,0.0934696328125018,0.11564672107964,0.787089999999807,
-0.00517147558593739,0.0536780012207031,-0.0142694418945304,0.055782514704584,0.790037000000666,
0.0570777675781252,0.0153707746582031,-0.00469263525390495,0.0592971592146026,0.793086000001495,
0.0786255825195314,-0.0253306535644531,0.00488417138672048,0.0827494976822992,0.796054000000368,
0.0905965908203126,-0.0133596452636719,0.0527682045898441,0.105691559764581,0.799106000000393,
0.0163763393554689,-0.0492726701660157,0.0431913979492204,0.0675387101800321,0.802168000000165,
-0.0458729038085936,-0.0253306535644531,-0.0501824667968744,0.0725551189624428,0.805175000001327,
-0.0458729038085936,-0.0205422502441406,0.0360087929687509,0.0618299322334397,0.808295000000726,
-0.0530555087890624,0.0273417829589844,9.57680664068761e-05,0.0596864245852022,0.811290000001463,
-0.0698149204101561,0.0345243879394531,0.0264319863281255,0.0822478350822713,0.814331999999922,
-0.00517147558593739,0.0608606062011718,0.0407971962890645,0.0734518125845681,0.81728800000019,
0.0139821376953126,0.0728316145019531,-0.0501824667968744,0.0895445376296689,0.820261000000755,
0.0187705410156251,-0.0157538469238281,0.00488417138672048,0.0249874375047449,0.823343000000023,
0.0546835659179689,0.0129765729980469,0.0072783730468764,0.0566714967376722,0.826317000000927,
0.0115879360351564,-0.0205422502441406,0.0623450112304695,0.0666570681321579,0.829365000001417,
-0.0243250888671874,0.00339976635742184,-0.0142694418945304,0.0284057270926656,0.832320000001346,
-0.0530555087890624,0.0369185895996094,0.033614591308595,0.0728547185824949,0.835265000001527,
-0.0554497104492186,0.0512837995605468,0.0431913979492204,0.0870068695165874,0.838322000001426,
-0.00756567724609364,0.0105823713378906,-0.0358172568359372,0.038106455392447,0.841295000000173,
-0.0339018955078124,0.0488895979003906,-0.0166636435546863,0.0617835602600088,0.844358000000284,
0.0115879360351564,0.0297359846191406,-0.0286346518554677,0.0428771772591023,0.847336000000723,
0.0498951625976564,0.00579396801757814,-0.00948103857421678,0.0511173885139007,0.850377000000663,
0.0187705410156251,0.0225533796386719,-0.0310288535156236,0.0427057126581369,0.853365000000849,
0.0355299526367189,-0.00138863696289065,0.0312203896484391,0.0473182689537831,0.856320000000778,
0.00440533105468766,-0.0085712419433594,-0.0262404501953117,0.0279541473954337,0.859350000000632,
-0.0362960971679686,-0.0109654436035156,-0.00948103857421678,0.0390837269908371,0.862283000000389,
0.0067995327148439,0.0105823713378906,-0.0118752402343745,0.0172985999114769,0.865324000000328,
-0.0219308872070311,0.0560722028808593,-0.00469263525390495,0.0603910305858905,0.868288000001485,
-0.0171424838867186,0.00339976635742184,0.0120667763671882,0.0212374729425889,0.871234000000186,
-0.0362960971679686,-0.00617704028320315,0.00248996972656279,0.0369020655997213,0.874270000000251,
-0.00277727392578114,0.0273417829589844,0.00248996972656279,0.027595041131954,0.877238000000943,
-0.0291134921874999,0.00100556469726559,-0.0142694418945304,0.0324379956176916,0.880285000001095,
-0.0243250888671874,-0.0109654436035156,0.00248996972656279,0.0267983367218498,0.88323500000115,
-0.0147482822265624,0.0656490095214843,0.0647392128906255,0.0933727474453012,0.886191000001418,
-0.0554497104492186,0.0824084211425782,-0.0166636435546863,0.100714920844095,0.889224000000468,
-0.0339018955078124,0.0728316145019531,-0.0238462485351558,0.0837999174175259,0.892182000001412,
-0.0674207187499999,0.0345243879394531,0.0384029946289068,0.0849251239376681,0.89522500000021,
0.00440533105468766,-0.0396958635253906,0.0360087929687509,0.0537754748355995,0.8982100000012,
0.0929907924804689,-0.0875798967285156,0.0575566079101577,0.140108132923277,0.901169000000664,
0.10496180078125,-0.0803972917480469,-0.00229843359374904,0.132234590560293,0.904204000000391,
0.0977791958007814,-0.0971567033691406,0.0168551796875018,0.138867898462188,0.907178000001295,
-0.00517147558593739,-0.0516668718261719,-0.0501824667968744,0.072211424150597,0.910192000001189,
-0.0315076938476561,0.00100556469726559,0.0168551796875018,0.0357469301375095,0.913164000001416,
-0.0985453403320311,0.0536780012207031,-0.0166636435546863,0.113446855102833,0.916110000000117,
-0.0817859287109374,0.0848026228027344,0.0623450112304695,0.133294123631392,0.919160000001284,
-0.0602381137695311,0.118321446044922,0.0743160195312509,0.152156057071816,0.92211800000041,
0.0427125576171876,0.0345243879394531,0.0599508095703136,0.0813043388075411,0.925184000001536,
0.0355299526367189,0.00579396801757814,0.00248996972656279,0.036085281611696,0.928157000000283,
0.102567599121094,-0.0349074602050781,-0.0190578452148422,0.110008384369863,0.931086000000505,
0.0498951625976564,-0.0660320817871094,-0.0334230551757795,0.0892572892993579,0.9341140000015,
0.0211647426757814,-0.0684262834472657,-0.0429998618164049,0.0835409523238005,0.937069999999949,
-0.0219308872070311,-0.0540610734863282,0.0192493813476577,0.061433721704364,0.94015600000057,
-0.0722091220703124,0.0464953962402344,-0.0717302817382794,0.111898223846291,0.943202000000383,
-0.0961511386718749,0.0656490095214843,0.0168551796875018,0.117638985890512,0.94633100000101,
-0.0554497104492186,0.0680432111816406,0.0072783730468764,0.0880768056358825,0.949365000000398,
-0.00517147558593739,0.0441011945800781,-0.00948103857421678,0.0454042907176364,0.952312000001257,
0.0403183559570314,0.0417069929199219,0.033614591308595,0.0670446406086584,0.955369000001156,
0.0259531459960939,-0.00617704028320315,0.0144609780273441,0.0303453703101842,0.958325000001423,
0.0594719692382814,-0.0109654436035156,-0.0166636435546863,0.0627282479830149,0.961346000000049,
0.0283473476562501,-0.0612436784667969,-0.0286346518554677,0.0733096416453699,0.964309000000867,
-0.00517147558593739,-0.0516668718261719,0.00488417138672048,0.0521542417658706,0.967246000000159,
-0.0698149204101561,-0.0277248552246094,-0.0214520468749981,0.0781215784801427,0.970259000001533,
-0.0123540805664061,-0.0229364519042969,-0.00229843359374904,0.0261531437801319,0.973191000000952,
-0.0243250888671874,0.0249475812988281,-0.00469263525390495,0.0351583928342066,0.976231000000553,
-0.0195366855468749,0.0584664045410156,-0.0214520468749981,0.0652701528819895,0.979190000000017,
0.0187705410156251,0.0704374128417968,-0.00469263525390495,0.0730464452488359,0.982192000001305,
0.0427125576171876,-0.0109654436035156,0.0288261879882832,0.0526835139826426,0.98526000000129,
0.00919373437500015,-0.0133596452636719,0.0216435830078137,0.0270453241567804,0.988234000000375,
-0.00517147558593739,0.0321301862792969,0.0216435830078137,0.0390837269908383,0.991289000001416,
0.00919373437500015,-0.0253306535644531,0.0192493813476577,0.0331165433586894,0.994247000000541,
-0.0267192905273436,-0.0133596452636719,0.00967257470703231,0.0313999890018908,0.997174000000086,
0.0235589443359376,0.00579396801757814,0.0958638344726577,0.0988861399965316,1.00024000000121,
0.0163763393554689,-0.0253306535644531,-0.0573650717773422,0.0648118658943518,1.00317900000118,
0.00440533105468766,-0.00617704028320315,0.0072783730468764,0.0105136807337491,1.00623600000108,
-0.00277727392578114,0.0153707746582031,0.0072783730468764,0.0172321988806298,1.00920300000143,
0.00440533105468766,0.0225533796386719,0.0144609780273441,0.0271510913286149,1.01218300000073,
-0.0219308872070311,0.0536780012207031,0.0527682045898441,0.078401371444465,1.0152160000016,
-0.0219308872070311,-0.0181480485839844,0.0431913979492204,0.0517282547347395,1.01816099999996,
