X,Y,Z,Magnitude,Seconds,
-0.187130801757812,-0.135463929931641,0.0240377846679696,0.232263273831206,0.0,
-0.165582986816406,-0.0708204851074219,-0.00469263525390495,0.180153510816523,0.00398999999924854,
-0.206284415039062,-0.0899740983886719,0.0072783730468764,0.225170097888401,0.00796300000001793,
-0.220649625,-0.0875798967285156,0.0072783730468764,0.23750677893026,0.0118839999995544,
-0.16318878515625,-0.0780030900878906,-0.0118752402343745,0.181262469901125,0.0157239999989542,
-0.196707608398437,-0.0516668718261719,0.0120667763671882,0.203737468174194,0.0201299999989715,
-0.1823423984375,-0.0684262834472657,-0.0214520468749981,0.195936461255869,0.024370999999519,
-0.225438028320312,-0.109127711669922,-0.00708683691406087,0.250562138649697,0.0286329999998998,
-0.208678616699219,-0.0684262834472657,0.0312203896484391,0.22181892178916,0.0328580000004877,
-0.225438028320312,-0.111521913330078,-0.0118752402343745,0.251794485833935,0.0371909999994386,
-0.213467020019531,-0.0684262834472657,-0.0358172568359372,0.227009252652124,0.0413389999994251,
-0.179948196777344,-0.104339308349609,-0.0669418784179676,0.218516040318368,0.0455129999991186,
-0.189525003417969,-0.0899740983886719,-0.00229843359374904,0.209810266904221,0.0497119999999995,
-0.194313406738281,-0.0636378801269531,0.0240377846679696,0.20587689262526,0.0538739999992686,
-0.20149601171875,-0.0660320817871094,0.0168551796875018,0.212708663777478,0.0581069999989268,
-0.179948196777344,-0.0540610734863282,-0.0118752402343745,0.188268357725179,0.0623689999993076,
-0.167977188476562,-0.0923683000488281,-0.0382114584960931,0.195469573752028,0.0665840000001481,
-0.184736600097656,-0.101945106689453,-0.00948103857421678,0.211211520249278,0.0707800000000134,
-0.223043826660156,-0.0971567033691406,-0.0382114584960931,0.246268327604594,0.0748739999999088,
-0.194313406738281,-0.0803972917480469,0.0072783730468764,0.210414826646952,0.0790199999992183,
-0.189525003417969,-0.0780030900878906,-0.0286346518554677,0.206939972626664,0.0831189999989874,
-0.227832229980469,-0.0708204851074219,0.0264319863281255,0.24004523746572,0.0872319999998581,
-0.203890213378906,-0.0923683000488281,0.00967257470703231,0.224046157447677,0.0913820000005217,
-0.167977188476562,-0.0684262834472657,-0.0765186850585931,0.196859343893025,0.0953879999997298,
-0.172765591796875,-0.0899740983886719,-0.0262404501953117,0.196549864706724,0.0993980000002921,
-0.160794583496094,-0.0756088884277344,0.0144609780273441,0.178271483912787,0.103413999999248,
-0.1823423984375,-0.0708204851074219,-0.0166636435546863,0.196321084948378,0.107474000000366,
-0.184736600097656,-0.106733510009766,0.0479798012695323,0.218681766282674,0.111414999999397,
-0.146429373535156,-0.0803972917480469,-0.0214520468749981,0.168420533989909,0.115470999999161,
-0.203890213378906,-0.0827914934082031,-0.0334230551757795,0.222582009851964,0.119461000000229,
-0.179948196777344,-0.0827914934082031,0.033614591308595,0.200912233706716,0.123297000000093,
-0.20149601171875,-0.0636378801269531,-0.0118752402343745,0.211639891930229,0.127128000000084,
-0.175159793457031,-0.0803972917480469,-0.00948103857421678,0.192962607405622,0.131003000000419,
-0.194313406738281,-0.0612436784667969,-0.00229843359374904,0.203749284630317,0.134845999999015,
-0.165582986816406,-0.0780030900878906,0.0360087929687509,0.186544473939509,0.138753999999608,
-0.208678616699219,-0.0564552751464844,-0.0286346518554677,0.218068581978809,0.142734999999448,
-0.175159793457031,-0.0899740983886719,-0.040605660156249,0.201059969316344,0.146690999999919,
-0.211072818359375,-0.0995509050292969,0.0623450112304695,0.241555413451343,0.150751999999557,
-0.170371390136719,-0.0708204851074219,-0.0358172568359372,0.187949002591714,0.154650999998921,
-0.194313406738281,-0.101945106689453,-0.0310288535156236,0.221615194800931,0.158613999999943,
-0.203890213378906,-0.0708204851074219,0.0144609780273441,0.216323554214639,0.162549999999101,
-0.215861221679687,-0.0396958635253906,-0.0286346518554677,0.221340850032156,0.166611000000557,
-0.194313406738281,-0.0803972917480469,-0.00708683691406087,0.210408288373115,0.170695000000705,
-0.206284415039062,-0.0803972917480469,-0.040605660156249,0.225090657391979,0.17467299999953,
-0.237409036621094,-0.0732146867675781,-0.0190578452148422,0.249171913529722,0.178743999998915,
-0.20149601171875,-0.104339308349609,-0.0549708701171863,0.233471905305281,0.182784999999058,
-0.199101810058594,-0.111521913330078,0.0216435830078137,0.229231569830218,0.186658999999054,
-0.215861221679687,-0.101945106689453,-0.00948103857421678,0.238911619423202,0.190607000000455,
-0.213467020019531,-0.0756088884277344,-0.00469263525390495,0.22651025025575,0.194472999999562,
-0.20149601171875,-0.0947625017089844,-0.0717302817382794,0.23393547782874,0.198328000000402,
-0.20149601171875,-0.0636378801269531,0.0168551796875018,0.211977639405464,0.202202000000398,
-0.20149601171875,-0.109127711669922,-0.00469263525390495,0.229197558927887,0.206060999998954,
-0.172765591796875,-0.111521913330078,0.0192493813476577,0.206532383765824,0.209891000000425,
-0.203890213378906,-0.0684262834472657,-0.00948103857421678,0.215274860284584,0.21377399999983,
-0.20149601171875,-0.0732146867675781,-0.00229843359374904,0.21439756503753,0.217907000000196,
-0.213467020019531,-0.106733510009766,0.00967257470703231,0.238859309001108,0.22179800000049,
-0.191919205078125,-0.0780030900878906,0.0599508095703136,0.215665395715713,0.225807999999233,
-0.23980323828125,-0.0875798967285156,-0.0118752402343745,0.255571619574192,0.229773999999452,
-0.225438028320312,-0.0923683000488281,0.00967257470703231,0.243819125928061,0.233691999999792,
-0.194313406738281,-0.0851856950683594,0.00248996972656279,0.2121803540193,0.237621000000217,
-0.196707608398437,-0.0708204851074219,0.00967257470703231,0.209291621939691,0.241695000000618,
-0.211072818359375,-0.111521913330078,0.0431913979492204,0.242599193444206,0.245754999999917,
-0.218255423339844,-0.0325132585449219,0.0431913979492204,0.224851147773969,0.249657000000298,
-0.187130801757812,-0.0875798967285156,0.00248996972656279,0.206626172656656,0.253636999999799,
-0.203890213378906,-0.0971567033691406,0.0455855996093764,0.230409832717706,0.257550000000265,
-0.203890213378906,-0.0732146867675781,-0.0453940634765608,0.221341885934598,0.261454999999842,
-0.206284415039062,-0.0971567033691406,0.0312203896484391,0.230146469943312,0.26541399999951,
-0.20149601171875,-0.0636378801269531,0.0264319863281255,0.212953216521529,0.269264000000476,
-0.208678616699219,-0.0684262834472657,-0.0238462485351558,0.220901708692136,0.273058999999193,
-0.220649625,-0.0612436784667969,-0.0501824667968744,0.234425521517185,0.276969999998983,
-0.196707608398437,-0.0947625017089844,0.0288261879882832,0.220237971398926,0.280838000000585,
-0.223043826660156,-0.0947625017089844,0.0407971962890645,0.245749652220302,0.284673000000112,
-0.196707608398437,-0.0684262834472657,-0.0382114584960931,0.211745495887486,0.288613000000623,
-0.211072818359375,-0.0803972917480469,0.0503740029296882,0.23141520983235,0.292711000000054,
-0.156006180175781,-0.0780030900878906,0.0288261879882832,0.176786196944879,0.296723999999813,
-0.196707608398437,-0.0803972917480469,0.0144609780273441,0.212994665679122,0.300621000000319,
-0.189525003417969,-0.0349074602050781,0.0384029946289068,0.196502029747832,0.304582000000664,
-0.215861221679687,-0.106733510009766,0.0360087929687509,0.243484583403382,0.308429999999134,
-0.172765591796875,-0.0277248552246094,-0.363822884277342,0.403712408070441,0.312244999999166,
-0.275716263183594,-0.0444842668457031,0.730327274414064,0.781905515733071,0.316235000000233,
-0.0889685336914061,-0.195318971435547,-0.507474983886718,0.550995244862116,0.320197999999436,
-0.23980323828125,0.161417075927734,-0.0765186850585931,0.299025374599431,0.323210999998992,
-0.172765591796875,-0.0803972917480469,-0.0358172568359372,0.193893140973569,0.32615799999985,
-0.0841801303710936,-0.288692836181641,-0.00948103857421678,0.300864983180728,0.32922999999937,
-0.31641769140625,0.0345243879394531,0.160507279296876,0.356475350486875,0.332252000000153,
-0.237409036621094,0.0321301862792969,0.0288261879882832,0.241301364798531,0.335317999999461,
-0.0554497104492186,-0.154617543212891,-0.179469356445312,0.243290988244502,0.338259000000107,
-0.206284415039062,-0.0827914934082031,-0.102854903320312,0.244922074149717,0.341223999999784,
-0.273322061523437,0.0393127912597656,0.0862870278320322,0.289302430069541,0.344278999999005,
-0.120093155273437,-0.128281324951172,0.131776859375002,0.219644269084119,0.347245999999359,
-0.12488155859375,-0.128281324951172,-0.00229843359374904,0.179044086205094,0.350336999999854,
-0.230226431640625,-0.0396958635253906,-0.0573650717773422,0.240563344811759,0.353304000000207,
-0.16318878515625,-0.0373016618652344,-0.0382114584960931,0.171703550164461,0.356244999999035,
-0.122487356933594,-0.111521913330078,0.0384029946289068,0.170044346444823,0.35927300000003,
-0.27811046484375,-0.0899740983886719,0.0264319863281255,0.293495177026321,0.362251999998989,
-0.235014834960937,-0.0564552751464844,-0.0358172568359372,0.244340022572712,0.365303000000495,
-0.213467020019531,-0.0947625017089844,-0.0645476767578117,0.24231075696509,0.368239999999787,
-0.215861221679687,-0.0923683000488281,-0.0573650717773422,0.241699651094033,0.37116799999967,
-0.287687271484375,-0.0516668718261719,0.0216435830078137,0.293090219051818,0.374256999999488,
-0.136852566894531,-0.0947625017089844,0.0695276162109391,0.180395804307481,0.377261999999973,
-0.194313406738281,-0.118704518310547,-0.040605660156249,0.231294795320389,0.380320000000211,
-0.191919205078125,-0.0827914934082031,-0.0525766684570304,0.215526607927236,0.38328200000069,
-0.134458365234375,-0.0492726701660157,0.00967257470703231,0.143528417772414,0.38630700000067,
-0.0889685336914061,-0.0995509050292969,0.0240377846679696,0.135659860574507,0.38927700000022,
-0.158400381835937,-0.0588494768066407,0.0791044228515645,0.1865782720492,0.392267999999603,
-0.273322061523437,-0.0636378801269531,-0.0166636435546863,0.281127028439088,0.395329999999376,
-0.225438028320312,-0.0923683000488281,-0.00948103857421678,0.243811602593695,0.398375999999189,
-0.261351053222656,-0.0756088884277344,0.0072783730468764,0.272165485953085,0.401413999999932,
-0.275716263183594,-0.0684262834472657,-0.0214520468749981,0.284889108892315,0.404442999999446,
-0.199101810058594,-0.0708204851074219,-0.040605660156249,0.215188037576868,0.407422000000224,
-0.179948196777344,-0.0971567033691406,-0.0382114584960931,0.208040606837645,0.410501000000295,
-0.158400381835937,-0.0444842668457031,-0.0884896933593744,0.186815301282862,0.413516999999047,
-0.23980323828125,-0.0827914934082031,-0.0214520468749981,0.254598143720769,0.416656999999759,
-0.141640970214844,-0.0827914934082031,0.0527682045898441,0.172340010559935,0.419631000000663,
-0.158400381835937,-0.0564552751464844,0.0312203896484391,0.17103389075688,0.422602999999071,
-0.175159793457031,-0.0995509050292969,-0.0214520468749981,0.202611762371263,0.425690000000031,
-0.227832229980469,-0.0684262834472657,0.0264319863281255,0.239349809244814,0.428690000000643,
-0.251774246582031,-0.0947625017089844,0.00248996972656279,0.269028628441907,0.431780999999319,
-0.213467020019531,-0.135463929931641,-0.0621534750976558,0.26034918746802,0.434747999999672,
-0.187130801757812,-0.0851856950683594,-0.0334230551757795,0.208306601499051,0.437683000000106,
-0.175159793457031,-0.0947625017089844,-0.0286346518554677,0.201198479767962,0.440773000000263,
-0.196707608398437,-0.113916114990234,0.00967257470703231,0.227517742512017,0.443734999998924,
-0.203890213378906,-0.106733510009766,-0.0286346518554677,0.231912062121797,0.446803999999247,
-0.158400381835937,-0.113916114990234,-0.0477882651367167,0.200876281588983,0.44984199999999,
-0.156006180175781,-0.0396958635253906,-0.00469263525390495,0.161045678798566,0.452799999999115,
-0.230226431640625,-0.0468784685058594,-0.0429998618164049,0.238853069378771,0.455888000000414,
-0.206284415039062,-0.101945106689453,0.0144609780273441,0.230554081619562,0.458844000000681,
-0.263745254882812,-0.0420900651855469,-0.0286346518554677,0.26861324678319,0.46190899999965,
-0.156006180175781,-0.0851856950683594,0.0455855996093764,0.183500893156039,0.464896999999837,
-0.189525003417969,-0.0971567033691406,0.0575566079101577,0.220617123189166,0.467891000000236,
-0.227832229980469,-0.0349074602050781,-0.0166636435546863,0.231092476754134,0.470956999999544,
-0.1823423984375,-0.0780030900878906,-0.00469263525390495,0.198381584722034,0.473917999999685,
-0.12488155859375,-0.0995509050292969,0.0695276162109391,0.174183454394876,0.476967000000514,
-0.244591641601562,-0.0564552751464844,0.0407971962890645,0.254316103419073,0.479938999998922,
-0.235014834960937,-0.111521913330078,0.0120667763671882,0.260412589742535,0.482995000000301,
-0.211072818359375,-0.111521913330078,-0.0118752402343745,0.239018604157909,0.485951000000568,
-0.20149601171875,-0.0660320817871094,0.0264319863281255,0.213680903369843,0.488980000000083,
-0.1823423984375,-0.0660320817871094,0.0958638344726577,0.216330443657107,0.492071999999098,
-0.194313406738281,-0.0947625017089844,-0.00708683691406087,0.216305004625017,0.49503999999979,
-0.191919205078125,-0.0923683000488281,-0.0118752402343745,0.213321132245152,0.498034000000189,
-0.261351053222656,-0.0636378801269531,-0.040605660156249,0.272034873581254,0.501044000000547,
-0.191919205078125,-0.0564552751464844,0.0216435830078137,0.201217852227631,0.504005999999208,
-0.184736600097656,-0.104339308349609,-0.0262404501953117,0.213782281559929,0.507062000000587,
-0.196707608398437,-0.0588494768066407,-0.00708683691406087,0.205444316980769,0.509994000000006,
-0.165582986816406,-0.121098719970703,-0.0190578452148422,0.206023850478089,0.513087999999698,
-0.225438028320312,-0.0468784685058594,-0.00229843359374904,0.230271965769587,0.516067999998995,
-0.122487356933594,-0.0612436784667969,0.0647392128906255,0.151476422080863,0.519060000000536,
-0.232620633300781,-0.0373016618652344,-0.0214520468749981,0.236567037708747,0.522130999999717,
-0.199101810058594,-0.0899740983886719,0.0120667763671882,0.218820648571743,0.525121000000581,
-0.23980323828125,-0.0588494768066407,-0.0358172568359372,0.24950296570951,0.528153999999631,
-0.215861221679687,-0.0732146867675781,0.0072783730468764,0.228055765324473,0.531175000000076,
-0.179948196777344,-0.109127711669922,-0.0525766684570304,0.216920531632604,0.534147000000303,
-0.100939541992187,-0.0732146867675781,-0.0501824667968744,0.13441525757847,0.537237999998979,
-0.148823575195312,-0.0947625017089844,0.0240377846679696,0.178062358054148,0.540236999999252,
-0.177553995117187,-0.0492726701660157,0.0264319863281255,0.186150119818961,0.54339599999912,
-0.177553995117187,-0.113916114990234,-0.040605660156249,0.214828122165761,0.546356999999261,
-0.20149601171875,-0.0923683000488281,9.57680664068761e-05,0.221658644685912,0.549364999998943,
-0.290081473144531,-0.0588494768066407,-0.0837012900390608,0.307597834739323,0.552424999999857,
-0.242197439941406,-0.0947625017089844,0.0072783730468764,0.260177836024758,0.555496999999377,
-0.184736600097656,-0.109127711669922,-0.0142694418945304,0.215035080491385,0.558589000000211,
-0.225438028320312,-0.0684262834472657,0.0216435830078137,0.236585936954781,0.561558999999761,
-0.160794583496094,-0.0684262834472657,-0.0525766684570304,0.182486603382627,0.564495999999053,
-0.16318878515625,-0.113916114990234,0.0168551796875018,0.199728710849339,0.56762499999968,
-0.232620633300781,-0.106733510009766,0.0503740029296882,0.260848502712631,0.5706339999997,
-0.208678616699219,-0.0827914934082031,9.57680664068761e-05,0.224502128319048,0.573691999999937,
-0.179948196777344,-0.0636378801269531,-0.0597592734374981,0.200005760097672,0.576622000000498,
-0.12488155859375,-0.0684262834472657,-0.0310288535156236,0.145740693334785,0.579625000000306,
-0.179948196777344,-0.0995509050292969,0.00488417138672048,0.205707538378409,0.582637999999861,
-0.179948196777344,-0.104339308349609,-0.0262404501953117,0.20965830776944,0.585585999999239,
-0.223043826660156,-0.109127711669922,-0.0142694418945304,0.248718762938184,0.588723999999274,
-0.242197439941406,-0.0971567033691406,-0.0525766684570304,0.266201673529245,0.591707999999926,
-0.232620633300781,-0.0732146867675781,0.0144609780273441,0.244298729593992,0.594775999999911,
-0.148823575195312,-0.0780030900878906,0.0791044228515645,0.185716042149981,0.597778999999719,
-0.187130801757812,-0.0636378801269531,0.0527682045898441,0.204578102858565,0.600754999999481,
-0.187130801757812,-0.0923683000488281,0.0240377846679696,0.210065834709445,0.60384299999896,
-0.179948196777344,-0.101945106689453,-0.00229843359374904,0.206831915086445,0.606783999999607,
-0.167977188476562,-0.0636378801269531,-0.00708683691406087,0.179767457825351,0.609864000000016,
-0.160794583496094,-0.0899740983886719,-0.00469263525390495,0.184315645804047,0.612847000000329,
-0.218255423339844,-0.130675526611328,-0.0813070883789049,0.267062475261983,0.615800999999919,
-0.218255423339844,-0.0612436784667969,0.00967257470703231,0.226891552665281,0.618859000000157,
-0.179948196777344,-0.0803972917480469,-0.00708683691406087,0.197218917199351,0.621831000000384,
-0.196707608398437,-0.101945106689453,-0.0166636435546863,0.222180928516096,0.624878000000535,
-0.220649625,-0.0540610734863282,-0.0286346518554677,0.228973360821775,0.627813999999489,
-0.223043826660156,-0.0851856950683594,-0.138767928222656,0.276155190352623,0.630821000000651,
-0.179948196777344,-0.0109654436035156,0.105440641113283,0.208852395904906,0.633904000000257,
-0.1823423984375,-0.159405946533203,0.10065223779297,0.262278247345865,0.636867999999595,
-0.170371390136719,-0.0612436784667969,-0.189046163085937,0.261754943614781,0.639892999999574,
-0.218255423339844,-0.0468784685058594,-0.0262404501953117,0.224770064406188,0.642864999999802,
-0.20149601171875,-0.133069728271484,0.033614591308595,0.243799376680198,0.645833999999013,
-0.211072818359375,-0.104339308349609,0.0695276162109391,0.24550461366952,0.648876999999629,
-0.218255423339844,-0.0468784685058594,0.0886812294921882,0.240202791596924,0.651821999999811,
-0.191919205078125,-0.0636378801269531,0.0216435830078137,0.203349958815555,0.654914000000645,
-0.208678616699219,-0.125887123291016,-0.0837012900390608,0.25768243795841,0.65791899999931,
-0.227832229980469,-0.121098719970703,-0.0238462485351558,0.259115936533468,0.660885999999664,
-0.177553995117187,-0.0492726701660157,0.00488417138672048,0.184328707307077,0.663957999999184,
-0.199101810058594,-0.109127711669922,0.0910754311523441,0.244632627387492,0.666930999999749,
-0.187130801757812,-0.0947625017089844,-0.00469263525390495,0.209809174066086,0.669975000000704,
-0.167977188476562,-0.0444842668457031,-0.0310288535156236,0.176516219072878,0.6729720000003,
-0.189525003417969,-0.0875798967285156,-0.0717302817382794,0.220760500429337,0.676020999999309,
-0.1823423984375,-0.0684262834472657,0.0072783730468764,0.194894538785865,0.67911599999934,
-0.23980323828125,-0.0780030900878906,0.0216435830078137,0.253097846373393,0.682097999999314,
-0.158400381835937,-0.0947625017089844,-0.0214520468749981,0.185824656628347,0.685191999999006,
-0.1823423984375,-0.0780030900878906,-0.0358172568359372,0.20153438470507,0.688195000000633,
-0.189525003417969,-0.0325132585449219,-0.0573650717773422,0.200667860809372,0.691243999999642,
-0.1823423984375,-0.0803972917480469,-0.0142694418945304,0.199790119276059,0.69426299999941,
-0.199101810058594,-0.0875798967285156,0.0288261879882832,0.219414489479436,0.697320999999647,
-0.191919205078125,-0.0444842668457031,-0.0214520468749981,0.198171697246974,0.70035900000039,
-0.191919205078125,-0.0732146867675781,-0.0477882651367167,0.210895922011477,0.703344999999899,
-0.227832229980469,-0.0684262834472657,0.0072783730468764,0.237997176450663,0.706453000000693,
-0.213467020019531,-0.0516668718261719,-0.0645476767578117,0.22891928021718,0.709437999999864,
-0.211072818359375,-0.0708204851074219,-0.0765186850585931,0.235419593330964,0.712419999999838,
-0.208678616699219,-0.133069728271484,-0.0190578452148422,0.248228763671697,0.715447000000495,
-0.189525003417969,-0.0923683000488281,-0.0693360800781235,0.221943960888985,0.718387999999322,
-0.208678616699219,-0.0636378801269531,-0.00229843359374904,0.218178430766052,0.721467999999732,
-0.20149601171875,-0.0971567033691406,0.0503740029296882,0.229298076571266,0.724426000000676,
-0.179948196777344,-0.0827914934082031,0.0072783730468764,0.198213923876169,0.727397000000565,
-0.175159793457031,-0.0732146867675781,-0.0142694418945304,0.190381093006542,0.730531999999585,
-0.189525003417969,-0.106733510009766,-0.0286346518554677,0.219389408054422,0.733494000000064,
-0.20149601171875,-0.0899740983886719,0.0216435830078137,0.221730525198569,0.736603999999716,
-0.175159793457031,-0.0708204851074219,0.0192493813476577,0.189913225018765,0.739553999999771,
-0.213467020019531,-0.0851856950683594,0.0527682045898441,0.235816145961073,0.742533000000549,
-0.196707608398437,-0.123492921630859,-0.0382114584960931,0.235381606025529,0.745581999999558,
-0.189525003417969,-0.0899740983886719,-0.0166636435546863,0.210458409948268,0.748572000000422,
-0.1823423984375,-0.0827914934082031,0.0575566079101577,0.208364931701148,0.751658999999563,
-0.179948196777344,-0.125887123291016,0.0599508095703136,0.227646701935348,0.754652999999962,
-0.175159793457031,-0.0636378801269531,-0.0382114584960931,0.190238925016309,0.757583999999042,
-0.211072818359375,-0.104339308349609,-0.00708683691406087,0.235560287770437,0.760620999999446,
-0.20149601171875,-0.0636378801269531,0.0120667763671882,0.21165072553032,0.763624999999593,
-0.213467020019531,-0.0732146867675781,-0.0429998618164049,0.229733643837213,0.766638999999486,
-0.196707608398437,-0.0636378801269531,-0.0334230551757795,0.209429614921502,0.769657999999254,
-0.203890213378906,-0.0780030900878906,0.0360087929687509,0.221251744277919,0.772714999999152,
-0.213467020019531,-0.0947625017089844,0.00248996972656279,0.233568620142782,0.77569399999993,
-0.191919205078125,-0.104339308349609,-0.0166636435546863,0.219082974147267,0.77862499999901,
-0.1823423984375,-0.0660320817871094,-0.0813070883789049,0.210285112915143,0.781694999999672,
-0.213467020019531,-0.0660320817871094,-0.0262404501953117,0.224982145264043,0.784659999999349,
-0.167977188476562,-0.0708204851074219,-0.0142694418945304,0.182853750115557,0.787688000000344,
-0.167977188476562,-0.0875798967285156,-0.0382114584960931,0.19325291645889,0.790624999999636,
-0.218255423339844,-0.0540610734863282,-0.00229843359374904,0.224862874394004,0.793604000000414,
-0.242197439941406,-0.0660320817871094,0.0120667763671882,0.251327361883274,0.796678000000611,
-0.215861221679687,-0.0851856950683594,-0.0429998618164049,0.236011986529406,0.799661999999444,
-0.211072818359375,-0.0732146867675781,0.0216435830078137,0.224456164303991,0.802740999999514,
-0.179948196777344,-0.0899740983886719,-0.0765186850585931,0.215248231275818,0.80572199999915,
-0.187130801757812,-0.0540610734863282,-0.0429998618164049,0.199473117861144,0.808653000000049,
-0.211072818359375,-0.0971567033691406,0.00248996972656279,0.232373319486055,0.81173200000012,
-0.189525003417969,-0.0947625017089844,0.0360087929687509,0.214933226425773,0.814733999999589,
-0.206284415039062,-0.0947625017089844,0.0288261879882832,0.228832123470655,0.817837999999028,
-0.230226431640625,-0.0756088884277344,-0.0214520468749981,0.243271667381099,0.820843999999852,
-0.179948196777344,-0.0827914934082031,-0.0429998618164049,0.202693791272471,0.8238939999992,
-0.172765591796875,-0.0851856950683594,0.0288261879882832,0.194770381390857,0.826982000000498,
-0.189525003417969,-0.0827914934082031,-0.00948103857421678,0.207036345586439,0.829971999999543,
-0.215861221679687,-0.0612436784667969,0.0168551796875018,0.225013226854533,0.833053000000291,
-0.170371390136719,-0.104339308349609,-0.040605660156249,0.203867411522091,0.836106999999174,
-0.177553995117187,-0.106733510009766,-0.0142694418945304,0.207656158861374,0.839135000000169,
-0.177553995117187,-0.0468784685058594,0.0072783730468764,0.183782443954091,0.842193000000407,
-0.194313406738281,-0.0660320817871094,0.0407971962890645,0.209242316677159,0.84516099999928,
-0.223043826660156,-0.0732146867675781,0.0216435830078137,0.235748560239711,0.848269000000073,
-0.199101810058594,-0.0971567033691406,0.0216435830078137,0.222596946213518,0.851306999998997,
-0.196707608398437,-0.0827914934082031,-0.0118752402343745,0.213750639562125,0.854246999999305,
-0.196707608398437,-0.0851856950683594,0.00248996972656279,0.214375105353564,0.857285000000047,
-0.211072818359375,-0.0588494768066407,-0.00469263525390495,0.219173484701529,0.860230000000229,
-0.230226431640625,-0.0660320817871094,-0.0262404501953117,0.240941915983018,0.863317999999708,
-0.175159793457031,-0.0564552751464844,-0.0190578452148422,0.185017168933069,0.866269000000102,
-0.208678616699219,-0.101945106689453,-0.0142694418945304,0.232686885787327,0.869353000000046,
-0.235014834960937,-0.0684262834472657,-0.0214520468749981,0.245711862215175,0.872386999999435,
-0.1823423984375,-0.0851856950683594,-0.0669418784179676,0.212100372461591,0.875366000000213,
-0.220649625,-0.0612436784667969,-0.00469263525390495,0.229039441997249,0.878429000000324,
-0.177553995117187,-0.0636378801269531,-0.00948103857421678,0.188852034835668,0.881414999999834,
-0.206284415039062,-0.109127711669922,0.00967257470703231,0.233571565143929,0.884466999999859,
-0.194313406738281,-0.0851856950683594,0.0120667763671882,0.212508611059439,0.887448999999833,
-0.225438028320312,-0.0756088884277344,-0.00469263525390495,0.237825628240217,0.890429999999469,
-0.1823423984375,-0.101945106689453,9.57680664068761e-05,0.208905634719092,0.893529999999373,
-0.213467020019531,-0.0756088884277344,0.0144609780273441,0.226922877936104,0.896509000000151,
-0.208678616699219,-0.0851856950683594,-0.0238462485351558,0.2266539460962,0.899537999999666,
-0.244591641601562,-0.0947625017089844,-0.0382114584960931,0.265075684346737,0.902517000000444,
-0.196707608398437,-0.109127711669922,-0.00948103857421678,0.225150240392038,0.905474999999569,
-0.179948196777344,-0.0803972917480469,0.0072783730468764,0.197225892717076,0.908503000000564,
-0.194313406738281,-0.0780030900878906,9.57680664068761e-05,0.209385269952351,0.911527000000206,
-0.235014834960937,-0.0636378801269531,-0.078912886718749,0.255947252630411,0.914596999999048,
-0.177553995117187,-0.0684262834472657,-0.0429998618164049,0.195080920555316,0.917556000000332,
-0.199101810058594,-0.0612436784667969,0.0192493813476577,0.209195739925602,0.920489000000089,
-0.1823423984375,-0.0803972917480469,0.0144609780273441,0.199803890537366,0.923561999999947,
-0.177553995117187,-0.0612436784667969,-0.0453940634765608,0.193227405750666,0.926530000000639,
-0.177553995117187,-0.0468784685058594,0.0144609780273441,0.184206763928571,0.929572999999436,
-0.213467020019531,-0.0612436784667969,-0.0190578452148422,0.222894948916292,0.93249300000025,
-0.179948196777344,-0.0995509050292969,0.0384029946289068,0.209204508106392,0.935500999999931,
-0.177553995117187,-0.0971567033691406,-0.00948103857421678,0.202619683851493,0.938611999999921,
-0.20149601171875,-0.111521913330078,-0.040605660156249,0.233851661375516,0.941591000000699,
-0.191919205078125,-0.0612436784667969,0.0216435830078137,0.202613459857384,0.944644999999582,
-0.218255423339844,-0.0636378801269531,0.0647392128906255,0.236381842132607,0.947629000000234,
-0.177553995117187,-0.0923683000488281,-0.0334230551757795,0.202914821176936,0.950539999999819,
-0.165582986816406,-0.0732146867675781,-0.0262404501953117,0.182938998324494,0.953638999999384,
-0.218255423339844,-0.0325132585449219,-0.0669418784179676,0.230594355708437,0.956625000000713,
-0.208678616699219,-0.0612436784667969,-0.0382114584960931,0.220811387342325,0.959740000000238,
-0.187130801757812,-0.101945106689453,0.0551624062500018,0.22012185899573,0.962734000000637,
-0.1823423984375,-0.0492726701660157,-0.0549708701171863,0.196718943812408,0.965819999999439,
-0.275716263183594,-0.0349074602050781,0.0431913979492204,0.281253418501361,0.968855999999505,
-0.211072818359375,-0.140252333251953,-0.00229843359374904,0.253431912808493,0.971846000000369,
-0.177553995117187,-0.0780030900878906,0.0479798012695323,0.199779790207112,0.974944999999934,
-0.153611978515625,-0.121098719970703,0.00488417138672048,0.195666540451255,0.978036000000429,
-0.2589568515625,-0.0756088884277344,-0.0669418784179676,0.277950661209083,0.981045000000449,
-0.1823423984375,-0.137858131591797,0.0192493813476577,0.229399549686107,0.984089999999924,
-0.167977188476562,-0.106733510009766,-0.0166636435546863,0.199714934404047,0.987058999999135,
-0.235014834960937,-0.0708204851074219,-0.0166636435546863,0.246018679736082,0.990139999999883,
-0.213467020019531,-0.101945106689453,-0.0597592734374981,0.243992098592804,0.993140999999014,
-0.167977188476562,-0.104339308349609,0.0551624062500018,0.205294710547193,0.996202000000267,
-0.211072818359375,-0.0995509050292969,0.00967257470703231,0.233571565143929,0.999166999999943,
-0.211072818359375,-0.0827914934082031,0.0120667763671882,0.227050155522576,1.00215799999933,
-0.146429373535156,-0.0564552751464844,9.57680664068761e-05,0.156935555873378,1.00519799999893,
-0.170371390136719,-0.0899740983886719,-0.0358172568359372,0.195970979599592,1.00816599999962,
-0.220649625,-0.0349074602050781,-0.0190578452148422,0.22420523913335,1.01129600000058,
-0.194313406738281,-0.0588494768066407,-0.0501824667968744,0.209139285961465,1.01425600000039,
-0.194313406738281,-0.0947625017089844,0.0599508095703136,0.224347345285203,1.01727199999914,
-0.208678616699219,-0.0899740983886719,0.0288261879882832,0.229069973069998,1.02033400000073,
-0.249380044921875,-0.0612436784667969,-0.0525766684570304,0.262117342088274,1.02330400000028,
-0.175159793457031,-0.0971567033691406,-0.0238462485351558,0.201715199780952,1.02636100000018,
-0.179948196777344,-0.0708204851074219,0.0072783730468764,0.193519687237443,1.02933999999914,
-0.187130801757812,-0.0444842668457031,-0.0310288535156236,0.194832175766262,1.03234899999916,
-0.208678616699219,-0.0780030900878906,-0.0118752402343745,0.223096993393867,1.0354210000005,
-0.223043826660156,-0.125887123291016,0.0455855996093764,0.260142582660816,1.03837600000043,
