X,Y,Z,Magnitude,Seconds,
-0.302052481445312,0.182964890869141,-0.0884896933593744,0.364063564050103,0.0,
-0.287687271484375,0.180570689208984,-0.0190578452148422,0.34019544594213,0.00379099999918253,
-0.294869876464844,0.120715647705078,-0.0190578452148422,0.319192282349498,0.00765200000023469,
-0.254168448242187,0.154234470947266,-0.0118752402343745,0.297541414664998,0.0116969999999128,
-0.297264078125,0.149446067626953,0.0240377846679696,0.333583384424958,0.0155739999991056,
-0.287687271484375,0.130292454345703,-0.0142694418945304,0.316138746131399,0.0195260000000417,
-0.330782901367187,0.0800142194824218,9.57680664068761e-05,0.340322806064769,0.0234029999992345,
-0.302052481445312,0.178176487548828,0.0144609780273441,0.350986726455597,0.0272779999995691,
-0.292475674804687,0.115927244384766,0.0264319863281255,0.315721073487901,0.031182999999146,
-0.251774246582031,0.0991678327636719,0.0216435830078137,0.271464500409186,0.0350239999988844,
-0.31641769140625,0.120715647705078,-0.0310288535156236,0.340081185581048,0.0388279999988299,
-0.294869876464844,0.209301109130859,0.0455855996093764,0.364462954525623,0.0427149999995891,
-0.273322061523437,0.0800142194824218,0.0168551796875018,0.28529164326545,0.0465370000001712,
-0.290081473144531,0.149446067626953,-0.00708683691406087,0.326391806650087,0.0502939999987575,
-0.280504666503906,0.135080857666016,-0.00469263525390495,0.311370722554129,0.0540369999998802,
-0.280504666503906,0.0991678327636719,-0.0334230551757795,0.299389758680544,0.0577789999988454,
-0.266139456542969,0.120715647705078,-0.0501824667968744,0.29651434687661,0.0615170000000944,
-0.2589568515625,0.218877915771484,-0.0286346518554677,0.340273619709956,0.0653369999999995,
-0.299658279785156,0.0728316145019531,-0.0358172568359372,0.310455157151579,0.0691219999989698,
-0.270927859863281,0.269156150634766,0.0455855996093764,0.384610173508669,0.0728820000003907,
-0.280504666503906,0.00339976635742184,-0.0166636435546863,0.281019756170754,0.0766239999993559,
-0.287687271484375,0.321828587158203,-0.0166636435546863,0.431989910417925,0.0805330000002868,
-0.273322061523437,0.0919852277832032,-0.0884896933593744,0.301656522018977,0.0844679999991058,
-0.299658279785156,0.199724302490234,0.0455855996093764,0.362991637012144,0.0882590000001073,
-0.304446683105469,0.106350437744141,-0.0382114584960931,0.324743458783531,0.0921770000004472,
-0.299658279785156,0.199724302490234,-0.0334230551757795,0.361665566879531,0.0959849999999278,
-0.297264078125,0.106350437744141,-0.0717302817382794,0.323761611483093,0.0998419999996258,
-0.311629288085937,0.149446067626953,0.0527682045898441,0.349616109093594,0.103681999999026,
-0.285293069824219,0.154234470947266,-0.0358172568359372,0.326287118356458,0.107488999999987,
-0.275716263183594,0.120715647705078,0.0144609780273441,0.301331786027111,0.111307999999553,
-0.347542312988281,0.0919852277832032,0.0527682045898441,0.363361286962725,0.11520500000006,
-0.282898868164062,0.137475059326172,-0.0765186850585931,0.323707075468452,0.119048000000475,
-0.328388699707031,0.182964890869141,-0.0262404501953117,0.376833982825971,0.122835000000123,
-0.270927859863281,0.0967736311035157,-0.0118752402343745,0.287937601326539,0.126641999999265,
-0.290081473144531,0.101562034423828,0.00488417138672048,0.307385690994462,0.130460000000312,
-0.280504666503906,0.173388084228516,-0.040605660156249,0.332257603855242,0.134235999999873,
-0.254168448242187,0.111138841064453,-0.0262404501953117,0.278643146876868,0.138020000000324,
-0.266139456542969,0.123109849365234,-0.0310288535156236,0.294871217805691,0.141906999999264,
-0.287687271484375,0.170993882568359,-0.0693360800781235,0.341775315156795,0.145679999999629,
-0.302052481445312,0.130292454345703,0.0216435830078137,0.329666907487109,0.149516999999832,
-0.31641769140625,0.130292454345703,0.0695276162109391,0.349185292517116,0.153581999999005,
-0.294869876464844,0.103956236083984,0.0384029946289068,0.315007830162377,0.157463999999891,
-0.294869876464844,0.125504051025391,0.0312203896484391,0.321984818896755,0.161285000000134,
-0.297264078125,0.125504051025391,-0.0262404501953117,0.323737177651475,0.165173999999752,
-0.287687271484375,0.127898252685547,0.00488417138672048,0.314874235758144,0.16910900000039,
-0.299658279785156,0.108744639404297,-0.0669418784179676,0.325732553376379,0.172983999998905,
-0.304446683105469,0.175782285888672,-0.0238462485351558,0.352357543491506,0.176825000000463,
-0.328388699707031,0.127898252685547,-0.0573650717773422,0.357054411253117,0.180632999999943,
-0.273322061523437,0.156628672607422,9.57680664068761e-05,0.315019839962037,0.184482999999091,
-0.292475674804687,0.125504051025391,-0.0382114584960931,0.320551716165488,0.188374999999724,
-0.285293069824219,0.151840269287109,-0.0669418784179676,0.330043660979929,0.19220999999925,
-0.270927859863281,0.118321446044922,-0.00948103857421678,0.295790060577946,0.196002999999109,
-0.302052481445312,0.151840269287109,-0.00948103857421678,0.338202689251429,0.199811999998929,
-0.292475674804687,0.144657664306641,-0.00948103857421678,0.32643184631337,0.203574999999546,
-0.275716263183594,0.0943794294433594,0.00967257470703231,0.291582738150669,0.207371999998941,
-0.309235086425781,0.111138841064453,-0.0166636435546863,0.329022579295749,0.211131000000023,
-0.256562649902344,0.180570689208984,-0.0286346518554677,0.315039855277398,0.215002999999342,
-0.321206094726562,0.113533042724609,-0.0166636435546863,0.341087648700909,0.218758999999409,
-0.287687271484375,0.144657664306641,0.0192493813476577,0.322583856848176,0.222671999999875,
-0.294869876464844,0.125504051025391,9.57680664068761e-05,0.32046765833965,0.226670000000013,
-0.285293069824219,0.123109849365234,-0.0118752402343745,0.310948857581245,0.230475999998816,
-0.282898868164062,0.168599680908203,0.0144609780273441,0.329646389175375,0.234274999998888,
-0.314023489746094,0.142263462646484,-0.0262404501953117,0.345742976997271,0.238139999999476,
-0.2589568515625,0.147051865966797,-0.0190578452148422,0.298405937809073,0.241995999998835,
-0.314023489746094,0.163811277587891,-0.0310288535156236,0.35553857248938,0.245849999999336,
-0.318811893066406,0.154234470947266,-0.0429998618164049,0.356760820866303,0.249630000000252,
-0.282898868164062,0.137475059326172,0.0168551796875018,0.314984537124507,0.253456000000369,
-0.294869876464844,0.0967736311035157,-0.00469263525390495,0.310379446080081,0.25726399999985,
-0.275716263183594,0.135080857666016,-0.0166636435546863,0.307480036601124,0.261069000000134,
-0.299658279785156,0.142263462646484,-0.0597592734374981,0.33705362809165,0.264965999998822,
-0.273322061523437,0.103956236083984,0.0120667763671882,0.292672949600858,0.268780000000334,
-0.27811046484375,0.118321446044922,0.0288261879882832,0.303605573670353,0.272594000000026,
-0.282898868164062,0.163811277587891,-0.0429998618164049,0.329719414638742,0.276382000000012,
-0.302052481445312,0.123109849365234,-0.040605660156249,0.328695232996656,0.280158999999912,
-0.235014834960937,0.144657664306641,-0.0286346518554677,0.277448654315088,0.283944999999221,
-0.268533658203125,0.132686656005859,0.0072783730468764,0.299614834386049,0.287798999999723,
-0.31641769140625,0.151840269287109,-0.0453940634765608,0.353887332086014,0.291615000000093,
-0.251774246582031,0.106350437744141,0.0264319863281255,0.274589396648104,0.295618000000104,
-0.263745254882812,-0.262356617919922,0.00488417138672048,0.372043558699401,0.29953199999909,
-0.220649625,1.11670353833008,-0.521840193847655,1.25221014108915,0.303336999999374,
-0.328388699707031,0.556460349853516,0.222756522460939,0.68345279818965,0.307026999998925,
-0.306840884765625,-1.60071534594727,0.859614164062501,1.8426550025362,0.31002400000034,
-0.270927859863281,-0.130675526611328,-0.150738936523437,0.336452411923978,0.312982999999804,
-0.184736600097656,1.59554387036133,-0.926460274414062,1.85424283569618,0.31604999999945,
-0.325994498046875,0.427173460205078,-0.107643306640623,0.548029797844005,0.319050000000061,
-0.433733572753906,-0.276721827880859,0.727933072753908,0.891395726133202,0.322135000000344,
-0.263745254882812,-0.829782411376953,0.107834842773439,0.877341873513241,0.325061999999889,
-0.191919205078125,0.135080857666016,-0.557753218749999,0.605118560623941,0.328032999999778,
-0.273322061523437,1.25077883129883,-0.0956722983398421,1.28386363092437,0.33107899999959,
-0.254168448242187,0.312251780517578,0.19642030419922,0.447977354807086,0.334048999999141,
-0.484011807617187,-0.827388209716797,0.0455855996093764,0.959644062339246,0.337083000000348,
-0.263745254882812,-0.154617543212891,-0.114825911621093,0.326577914320618,0.340000000000146,
-0.117698953613281,0.776726902587891,-0.114825911621093,0.793941254039022,0.342956000000413,
-0.249380044921875,0.534912534912109,-0.0238462485351558,0.590669510285181,0.345986999998786,
-0.369090127929687,-0.315029054443359,0.0407971962890645,0.486965336449812,0.348953999999139,
-0.340359708007812,-0.327000062744141,-0.00708683691406087,0.472042365818241,0.351966999998695,
-0.218255423339844,0.489422703369141,0.0072783730468764,0.535931886627976,0.354930999999851,
-0.268533658203125,0.455903880126953,-0.00948103857421678,0.529196148507536,0.357872999999017,
-0.299658279785156,-0.0684262834472657,-0.0573650717773422,0.312678736677479,0.3608949999998,
-0.35472491796875,-0.147434938232422,0.0312203896484391,0.385410873185144,0.36384199999884,
-0.273322061523437,0.161417075927734,-0.0262404501953117,0.318510569593749,0.366896999999881,
-0.275716263183594,0.374501023681641,-0.00708683691406087,0.465102889455621,0.369849999999133,
-0.270927859863281,0.182964890869141,-0.0597592734374981,0.332339024645966,0.372873999998774,
-0.352330716308594,-0.0636378801269531,-0.00948103857421678,0.358157232977396,0.375837999999931,
-0.266139456542969,0.163811277587891,0.0312203896484391,0.314068555770494,0.378810999998677,
-0.261351053222656,0.290703965576172,-0.0262404501953117,0.391792968095085,0.381857999998829,
-0.290081473144531,0.187753294189453,-0.0262404501953117,0.346535888137355,0.384823999998844,
-0.378666934570312,0.0129765729980469,0.00488417138672048,0.378920696074767,0.387835999999879,
-0.261351053222656,0.0728316145019531,0.00488417138672048,0.271353408347284,0.390827999999601,
-0.254168448242187,0.216483714111328,0.0072783730468764,0.333945763966975,0.393791000000419,
-0.287687271484375,0.180570689208984,0.0144609780273441,0.339968910138912,0.396858000000066,
-0.357119119628906,0.111138841064453,-0.00708683691406087,0.374080380206075,0.399825000000419,
-0.287687271484375,0.0943794294433594,-0.040605660156249,0.305483653429939,0.402884999999515,
-0.287687271484375,0.173388084228516,0.0264319863281255,0.336936260779112,0.405853999998726,
-0.294869876464844,0.214089512451172,0.00248996972656279,0.364401925539934,0.408815999999206,
-0.292475674804687,0.115927244384766,0.0360087929687509,0.316666669408337,0.411866000000373,
-0.330782901367187,0.0560722028808593,-0.0214520468749981,0.336186867810053,0.414849999999205,
-0.261351053222656,0.123109849365234,-0.0669418784179676,0.296549528944911,0.418007999998736,
-0.246985843261719,0.175782285888672,-0.0358172568359372,0.305261027141036,0.42107599999872,
-0.297264078125,0.170993882568359,0.0240377846679696,0.34377704273417,0.42413999999917,
-0.294869876464844,0.101562034423828,-0.00469263525390495,0.311905613460747,0.427212999999028,
-0.27811046484375,0.161417075927734,0.0072783730468764,0.32164246885459,0.430177000000185,
-0.275716263183594,0.156628672607422,-0.0334230551757795,0.318855922767589,0.433225999999195,
-0.268533658203125,0.194935899169922,-0.0501824667968744,0.335601862847866,0.43617599999925,
-0.294869876464844,0.106350437744141,-0.0166636435546863,0.313904980322518,0.43916899999931,
-0.290081473144531,0.118321446044922,-0.00229843359374904,0.313293007347511,0.442213999998785,
-0.2589568515625,0.161417075927734,0.0072783730468764,0.305232858792156,0.44517900000028,
-0.290081473144531,0.226060520751953,-0.0190578452148422,0.368257819426253,0.448259999999209,
-0.275716263183594,0.0824084211425782,0.0216435830078137,0.288581098384065,0.451235999998971,
-0.275716263183594,0.0943794294433594,0.0503740029296882,0.295743934269393,0.454217000000426,
-0.270927859863281,0.147051865966797,0.0192493813476577,0.308863554367753,0.457300000000032,
-0.306840884765625,0.127898252685547,-0.0262404501953117,0.33346342052798,0.460294000000431,
-0.297264078125,0.127898252685547,-0.0118752402343745,0.323828529493845,0.463368999999147,
-0.294869876464844,0.0871968244628907,-0.00708683691406087,0.307573980531921,0.466330999999627,
-0.337965506347656,0.137475059326172,-0.0166636435546863,0.365236570504762,0.469359999999142,
-0.282898868164062,0.151840269287109,0.00488417138672048,0.32110915919018,0.472348999999667,
-0.330782901367187,0.144657664306641,0.00967257470703231,0.361160250278198,0.475312999999005,
-0.280504666503906,0.137475059326172,-0.00229843359374904,0.312390048919915,0.478363000000172,
-0.275716263183594,0.132686656005859,-0.0358172568359372,0.308071553950042,0.481330999999045,
-0.27811046484375,0.111138841064453,-0.0549708701171863,0.304498061094315,0.484329999999318,
-0.314023489746094,0.115927244384766,0.0312203896484391,0.336191300947482,0.487347999998747,
-0.287687271484375,0.120715647705078,0.00488417138672048,0.312025782436509,0.490308999998888,
-0.314023489746094,0.106350437744141,-0.0525766684570304,0.335686570757196,0.493365000000267,
-0.2589568515625,0.120715647705078,0.0192493813476577,0.286358965730579,0.496347999998761,
-0.287687271484375,0.120715647705078,-0.00948103857421678,0.312131581015806,0.499411999999211,
-0.302052481445312,0.127898252685547,-0.00469263525390495,0.32804829737847,0.502390999999989,
-0.292475674804687,0.130292454345703,-0.0621534750976558,0.326161307451695,0.505353000000468,
-0.275716263183594,0.115927244384766,0.0264319863281255,0.300261941770548,0.50842399999965,
-0.254168448242187,0.173388084228516,0.0168551796875018,0.308138158812852,0.511408999998821,
-0.321206094726562,0.166205479248047,-0.0238462485351558,0.362444837445318,0.514478999999483,
-0.266139456542969,0.125504051025391,-0.0142694418945304,0.294593099248356,0.517458000000261,
-0.311629288085937,0.211695310791016,-0.0334230551757795,0.378212662957147,0.520413999998709,
-0.304446683105469,0.149446067626953,0.00967257470703231,0.339286705729159,0.523498000000473,
-0.282898868164062,0.113533042724609,0.0216435830078137,0.305597719370141,0.526475999999093,
-0.297264078125,0.144657664306641,0.0264319863281255,0.331648039173171,0.529540999999881,
-0.330782901367187,0.127898252685547,-0.0453940634765608,0.357541482734276,0.532502000000022,
-0.285293069824219,0.125504051025391,0.0168551796875018,0.312133784771544,0.535479000000123,
-0.290081473144531,0.161417075927734,-0.0717302817382794,0.339629160675308,0.53852199999892,
-0.261351053222656,0.154234470947266,-0.0382114584960931,0.30586395768278,0.541497000000163,
-0.292475674804687,0.149446067626953,-0.0238462485351558,0.329309567202074,0.544549000000188,
-0.297264078125,0.111138841064453,-0.0358172568359372,0.319375406103706,0.547516999999061,
-0.273322061523437,0.115927244384766,-0.0334230551757795,0.298766088978234,0.550470000000132,
-0.287687271484375,0.120715647705078,-0.0238462485351558,0.312897550875972,0.553522000000157,
-0.268533658203125,0.142263462646484,-0.0908838950195303,0.317189376817764,0.556548999998995,
-0.285293069824219,0.108744639404297,0.0120667763671882,0.305553824032351,0.559717000000092,
-0.31641769140625,0.135080857666016,-0.0956722983398421,0.35709968105877,0.562781999999061,
-0.27811046484375,0.115927244384766,-0.0214520468749981,0.302067454323333,0.565865999999005,
-0.321206094726562,0.137475059326172,-0.0621534750976558,0.354874346343799,0.568841999998767,
-0.266139456542969,0.137475059326172,-0.0118752402343745,0.299784295112912,0.571791000000303,
-0.323600296386719,0.113533042724609,-0.0118752402343745,0.343144175154561,0.574824999999691,
-0.287687271484375,0.168599680908203,9.57680664068761e-05,0.333451387383521,0.577815999999075,
-0.287687271484375,0.168599680908203,-0.0190578452148422,0.3339955389533,0.58082099999956,
-0.299658279785156,0.108744639404297,9.57680664068761e-05,0.318779689463573,0.583819999999832,
-0.314023489746094,0.118321446044922,0.0360087929687509,0.337501629444278,0.586762999999337,
-0.246985843261719,0.151840269287109,-0.00948103857421678,0.290081650990424,0.589828000000125,
-0.287687271484375,0.159022874267578,-0.040605660156249,0.331211503953548,0.592795000000478,
-0.297264078125,0.125504051025391,-0.0477882651367167,0.326191534611288,0.595847999999023,
-0.302052481445312,0.103956236083984,0.0791044228515645,0.32908982099527,0.598857999999382,
-0.311629288085937,0.163811277587891,0.0407971962890645,0.3544169283245,0.601832999998805,
-0.254168448242187,0.118321446044922,0.00967257470703231,0.280526511006475,0.604879999998957,
-0.27811046484375,0.0919852277832032,-0.0813070883789049,0.304002558223758,0.607850000000326,
-0.273322061523437,0.168599680908203,-0.0549708701171863,0.32581067858376,0.610899999999674,
-0.309235086425781,0.276338755615234,-0.100460701660156,0.42671043941974,0.613853999999264,
-0.304446683105469,0.113533042724609,-0.0621534750976558,0.330818060436465,0.616794999999911,
-0.309235086425781,0.0105823713378906,0.189237699218751,0.362697163023782,0.619846999999936,
-0.230226431640625,-0.259962416259766,0.0312203896484391,0.348653668306231,0.622790999999779,
-0.309235086425781,0.434356065185547,-0.265660616210937,0.595707220911251,0.625839000000269,
-0.314023489746094,0.487028501708984,-0.148344734863279,0.598175286977713,0.628803999999946,
-0.290081473144531,0.00579396801757814,0.033614591308595,0.292080077848411,0.631763999999748,
-0.273322061523437,-0.0492726701660157,0.194026102539064,0.338790309494251,0.634787999999389,
-0.20149601171875,-0.0157538469238281,-0.0908838950195303,0.221604848334559,0.637715999999273,
-0.290081473144531,0.348164805419922,-0.0645476767578117,0.457747086686114,0.640755999998873,
-0.268533658203125,0.336193797119141,0.00248996972656279,0.430282226868108,0.643724999999904,
-0.306840884765625,-0.109127711669922,0.0647392128906255,0.332041189769828,0.646656999999323,
-0.282898868164062,0.0105823713378906,0.00488417138672048,0.283138855196131,0.649706999998671,
-0.242197439941406,0.264367747314453,-0.0382114584960931,0.360569024313914,0.652665999999954,
-0.27811046484375,0.295492368896484,0.0288261879882832,0.406807226884674,0.655730999998923,
-0.325994498046875,0.0512837995605468,0.0240377846679696,0.33087800764926,0.65868699999919,
-0.285293069824219,-0.0037828386230469,9.57680664068761e-05,0.285318164036742,0.661689000000479,
-0.256562649902344,0.108744639404297,-0.0166636435546863,0.279154915666196,0.664660000000367,
-0.280504666503906,0.247608335693359,-0.00948103857421678,0.374276162649652,0.667610999998942,
-0.328388699707031,0.180570689208984,0.0240377846679696,0.375529928219344,0.670669999999518,
-0.292475674804687,0.0848026228027344,-0.0190578452148422,0.305117529242279,0.6736149999997,
-0.249380044921875,0.108744639404297,0.00488417138672048,0.272102294247112,0.67663100000027,
-0.314023489746094,0.214089512451172,-0.0477882651367167,0.383051941306493,0.679613999998764,
-0.342753909667969,0.159022874267578,-0.114825911621093,0.394909492305028,0.682552999998734,
-0.323600296386719,0.0991678327636719,-0.0382114584960931,0.340604648290381,0.685599999998885,
-0.256562649902344,0.101562034423828,0.00967257470703231,0.276102877316921,0.6885659999989,
-0.237409036621094,0.113533042724609,-0.0932780966796862,0.279201729543083,0.691609999999855,
-0.314023489746094,0.130292454345703,0.0575566079101577,0.344818269362088,0.694586999999956,
-0.342753909667969,0.127898252685547,-0.00708683691406087,0.36590767809673,0.697636999999304,
-0.2589568515625,0.130292454345703,0.0503740029296882,0.294231736564481,0.70079799999985,
-0.242197439941406,0.156628672607422,9.57680664068761e-05,0.288430494518968,0.703857999998945,
-0.275716263183594,0.173388084228516,0.00248996972656279,0.325713195135841,0.70694199999889,
-0.314023489746094,0.115927244384766,-0.00948103857421678,0.334872764188738,0.709891999998945,
-0.297264078125,0.127898252685547,0.00488417138672048,0.32364757115365,0.712843999999677,
-0.261351053222656,0.111138841064453,-0.0166636435546863,0.284488825844283,0.71588200000042,
-0.268533658203125,0.154234470947266,-0.00229843359374904,0.309683516534737,0.718858000000182,
-0.292475674804687,0.111138841064453,-0.0142694418945304,0.313205171281683,0.721895999999106,
-0.292475674804687,0.142263462646484,-0.0190578452148422,0.325797659016847,0.724841999999626,
-0.254168448242187,0.132686656005859,-0.0286346518554677,0.288144567970216,0.727815999998711,
-0.256562649902344,0.185359092529297,-0.0525766684570304,0.320853070071392,0.730846000000383,
-0.309235086425781,0.149446067626953,-0.0190578452148422,0.343982074053508,0.733828000000358,
-0.325994498046875,0.0871968244628907,0.0264319863281255,0.338488328978262,0.736897999999201,
-0.282898868164062,0.137475059326172,-0.0813070883789049,0.324872289008923,0.739885999999387,
-0.290081473144531,0.120715647705078,-0.0525766684570304,0.318565275459518,0.742844000000332,
-0.2589568515625,0.115927244384766,-0.00469263525390495,0.283760106053395,0.74587799999972,
-0.290081473144531,0.163811277587891,0.0312203896484391,0.334598428652136,0.748849999999948,
-0.299658279785156,0.0656490095214843,0.0216435830078137,0.307527757739634,0.751908999998705,
-0.268533658203125,0.127898252685547,-0.0262404501953117,0.298591443036168,0.75485800000024,
-0.304446683105469,0.173388084228516,-0.0382114584960931,0.352436272490155,0.757873999998992,
-0.27811046484375,0.0991678327636719,-0.0549708701171863,0.300335622715806,0.760845999999219,
-0.297264078125,0.166205479248047,-0.0286346518554677,0.34177497971979,0.763794999998936,
-0.292475674804687,0.127898252685547,-0.0286346518554677,0.320499495599224,0.766835000000356,
-0.261351053222656,0.123109849365234,0.00248996972656279,0.288905880834159,0.769812000000456,
-0.256562649902344,0.156628672607422,-0.0238462485351558,0.301538684047132,0.772812999999587,
-0.256562649902344,0.168599680908203,-0.0477882651367167,0.310699153542519,0.775803000000451,
-0.282898868164062,0.0776200178222656,0.0120667763671882,0.293602186414087,0.778743999999278,
-0.287687271484375,0.137475059326172,9.57680664068761e-05,0.318846933939126,0.781802999999854,
-0.292475674804687,0.185359092529297,0.0072783730468764,0.346342299250252,0.784754000000248,
-0.235014834960937,0.118321446044922,0.033614591308595,0.265258134643826,0.787806999998793,
-0.325994498046875,0.0560722028808593,-0.0214520468749981,0.331476537643124,0.790745999998762,
-0.280504666503906,0.235637327392578,0.00967257470703231,0.366471522348801,0.793725999999879,
-0.294869876464844,0.156628672607422,-0.0166636435546863,0.334302949651469,0.796763999998802,
-0.27811046484375,0.151840269287109,-0.0860954916992185,0.328349404938883,0.799718999998731,
-0.275716263183594,0.118321446044922,-0.00708683691406087,0.30011605361182,0.802755999999135,
-0.227832229980469,0.108744639404297,0.0216435830078137,0.253379885354895,0.805720999998812,
-0.299658279785156,0.221272117431641,-0.107643306640623,0.38774155833623,0.808664000000135,
-0.246985843261719,0.178176487548828,-0.00948103857421678,0.304694531587598,0.811717999999019,
-0.261351053222656,0.103956236083984,0.0144609780273441,0.281638761406963,0.814675999999963,
-0.268533658203125,0.0704374128417968,0.0360087929687509,0.279943544106423,0.817720999999437,
-0.309235086425781,0.173388084228516,0.0288261879882832,0.355697505674598,0.820685999999114,
-0.270927859863281,0.161417075927734,-0.0573650717773422,0.320543490202464,0.823632999999973,
-0.309235086425781,0.125504051025391,-0.00469263525390495,0.333765825581605,0.826682999999321,
-0.266139456542969,0.103956236083984,-0.0286346518554677,0.287153360831141,0.829636999998911,
-0.282898868164062,0.147051865966797,-0.00948103857421678,0.31897634862991,0.832683999999063,
-0.302052481445312,0.156628672607422,-0.0382114584960931,0.342386270446746,0.835697999998956,
-0.325994498046875,0.103956236083984,-0.0382114584960931,0.344295552306418,0.838745999999446,
-0.304446683105469,0.118321446044922,-0.0453940634765608,0.329770175193266,0.841892000000371,
-0.282898868164062,0.154234470947266,-0.00229843359374904,0.322219373151081,0.844918999999209,
-0.261351053222656,0.161417075927734,0.0168551796875018,0.307642556392885,0.847977999999785,
-0.292475674804687,0.149446067626953,0.00488417138672048,0.328481358088632,0.850926999999501,
-0.27811046484375,0.118321446044922,-0.0429998618164049,0.305277551362687,0.853934999999183,
-0.287687271484375,0.137475059326172,-0.0118752402343745,0.319067985610407,0.856922999999369,
-0.275716263183594,0.168599680908203,-0.0358172568359372,0.325158709053785,0.859883999999511,
-0.311629288085937,0.120715647705078,0.00967257470703231,0.334333126529915,0.862938000000213,
-0.311629288085937,0.159022874267578,9.57680664068761e-05,0.349858681334039,0.865888999998788,
-0.273322061523437,0.106350437744141,-0.0262404501953117,0.294455304163883,0.868897999998808,
-0.304446683105469,0.113533042724609,-0.00469263525390495,0.324960852211241,0.871887999999672,
-0.261351053222656,0.151840269287109,-0.0190578452148422,0.302858121670868,0.87483599999905,
-0.299658279785156,0.154234470947266,0.0479798012695323,0.340419473594043,0.877932999999757,
-0.287687271484375,0.151840269287109,0.00248996972656279,0.325308520485624,0.880914999999732,
-0.254168448242187,0.125504051025391,0.0216435830078137,0.284290892557327,0.883977999999843,
-0.254168448242187,0.135080857666016,0.00248996972656279,0.28784481607086,0.886948999999731,
-0.290081473144531,0.175782285888672,0.0431913979492204,0.341924216677842,0.889911000000211,
-0.297264078125,0.137475059326172,-0.0286346518554677,0.328763239075059,0.8929449999996,
-0.325994498046875,0.137475059326172,-0.0142694418945304,0.354083918959263,0.895902999998725,
-0.297264078125,0.130292454345703,-0.0214520468749981,0.325272572034686,0.898932000000059,
-0.273322061523437,0.161417075927734,-0.00229843359374904,0.317436142418387,0.901895999999397,
-0.27811046484375,0.0848026228027344,0.0240377846679696,0.291744289715451,0.90483999999924,
-0.321206094726562,0.0991678327636719,-0.040605660156249,0.338609559790118,0.907895000000281,
-0.280504666503906,0.137475059326172,-0.0142694418945304,0.312707334162765,0.910845999998855,
-0.294869876464844,0.147051865966797,0.0192493813476577,0.330065196609664,0.913896000000022,
-0.294869876464844,0.115927244384766,-0.0429998618164049,0.319744207380317,0.916846000000078,
-0.268533658203125,0.135080857666016,-0.0166636435546863,0.301056208559559,0.919794999999795,
-0.314023489746094,0.125504051025391,-0.0310288535156236,0.339595065757135,0.922827999998844,
-0.285293069824219,0.127898252685547,-0.0166636435546863,0.313093876890399,0.925790999999663,
-0.306840884765625,0.144657664306641,-0.0334230551757795,0.340872804758149,0.928819999999178,
-0.297264078125,0.132686656005859,-0.00948103857421678,0.325670954980589,0.931790999999066,
-0.290081473144531,0.142263462646484,-0.0956722983398421,0.336955994954084,0.934739000000263,
-0.290081473144531,0.139869260986328,-0.0286346518554677,0.323311946140947,0.937782999999399,
-0.309235086425781,0.159022874267578,0.0288261879882832,0.34892056736601,0.940742999999202,
-0.294869876464844,0.156628672607422,-0.0453940634765608,0.336959057050065,0.943794999999227,
-0.2589568515625,0.0919852277832032,9.57680664068761e-05,0.274808919565965,0.94675499999903,
-0.285293069824219,0.137475059326172,0.00967257470703231,0.316836055915238,0.949779999999009,
-0.294869876464844,0.125504051025391,0.0072783730468764,0.320550285578387,0.952761000000464,
-0.318811893066406,0.132686656005859,-0.0166636435546863,0.345723081177871,0.955703999999969,
-0.2589568515625,0.123109849365234,0.0072783730468764,0.286823396354103,0.958759999999529,
-0.292475674804687,0.0848026228027344,-0.0286346518554677,0.305865082141725,0.961710999999923,
-0.285293069824219,0.154234470947266,-0.00948103857421678,0.324453845424207,0.964711999999054,
-0.280504666503906,0.142263462646484,0.033614591308595,0.316309502676539,0.967697000000044,
-0.292475674804687,0.139869260986328,0.0192493813476577,0.324770640919998,0.970643999999083,
-0.270927859863281,0.130292454345703,-0.0334230551757795,0.302481618494096,0.973692999999912,
-0.299658279785156,0.149446067626953,-0.0477882651367167,0.338249804224239,0.976741000000402,
-0.290081473144531,0.106350437744141,-0.0214520468749981,0.30970609775269,0.979895000000397,
-0.261351053222656,0.111138841064453,-0.0573650717773422,0.28973602895353,0.98294899999928,
-0.268533658203125,0.108744639404297,-0.0238462485351558,0.290696346307145,0.985930999999255,
-0.282898868164062,0.139869260986328,0.0120667763671882,0.315817648128259,0.988981999998941,
-0.285293069824219,0.118321446044922,0.0288261879882832,0.310198403280584,0.991938999999547,
-0.290081473144531,0.135080857666016,-0.0597592734374981,0.325523071273397,0.994966000000204,
-0.280504666503906,0.125504051025391,-0.040605660156249,0.309972505862982,0.997957999999926,
-0.27811046484375,0.144657664306641,-0.0166636435546863,0.313925066719396,1.00088799999867,
-0.304446683105469,0.111138841064453,0.00248996972656279,0.324107736403053,1.00394799999958,
-0.261351053222656,0.127898252685547,-0.0525766684570304,0.295679965717409,1.0069110000004,
-0.273322061523437,0.127898252685547,-0.0358172568359372,0.303884498194115,1.00995700000021,
-0.275716263183594,0.170993882568359,0.0288261879882832,0.325713547114121,1.01292499999909,
-0.285293069824219,0.137475059326172,0.0264319863281255,0.3177895176492,1.01588999999876,
-0.261351053222656,0.120715647705078,-0.0382114584960931,0.290407913428417,1.01896599999964,
-0.31641769140625,0.144657664306641,-0.0573650717773422,0.352614161283311,1.02192699999978,
