X,Y,Z,Magnitude,Seconds,
-0.266139456542969,0.154234470947266,-0.0190578452148422,0.308190985951248,0.0,
-0.270927859863281,0.144657664306641,-0.00708683691406087,0.307209974366388,0.00404499999967811,
-0.287687271484375,0.127898252685547,0.00967257470703231,0.314984901091471,0.00799100000040198,
-0.31641769140625,0.123109849365234,-0.0142694418945304,0.339823200234435,0.0118820000006963,
-0.273322061523437,0.173388084228516,0.0360087929687509,0.325676235299604,0.015917000000627,
-0.282898868164062,0.0871968244628907,-0.040605660156249,0.298804075343099,0.0199310000007245,
-0.282898868164062,0.132686656005859,-0.0286346518554677,0.313779319868931,0.023841000000175,
-0.282898868164062,0.166205479248047,-0.0669418784179676,0.334868998306362,0.0279300000001967,
-0.261351053222656,0.118321446044922,-0.0501824667968744,0.291243227541127,0.0319039999994857,
-0.306840884765625,0.154234470947266,0.0312203896484391,0.344839547212808,0.0358649999998306,
-0.263745254882812,0.130292454345703,-0.0310288535156236,0.295804788472264,0.0398040000000037,
-0.294869876464844,0.132686656005859,-0.0118752402343745,0.323566089167319,0.043666999999914,
-0.261351053222656,0.135080857666016,-0.0118752402343745,0.294435447015135,0.0475230000010924,
-0.287687271484375,0.144657664306641,-0.0501824667968744,0.325895820762704,0.051487000000634,
-0.275716263183594,0.156628672607422,0.0479798012695323,0.320708684317328,0.0555320000003121,
-0.275716263183594,0.127898252685547,0.0192493813476577,0.304545496611275,0.0594280000004801,
-0.256562649902344,0.132686656005859,-0.00469263525390495,0.288880880005161,0.0634289999998146,
-0.285293069824219,0.159022874267578,-0.0310288535156236,0.328090231461625,0.0674550000003364,
-0.273322061523437,0.130292454345703,-0.00469263525390495,0.302825186866078,0.0714870000010706,
-0.275716263183594,0.149446067626953,-0.0166636435546863,0.314056144549987,0.0754319999996369,
-0.299658279785156,0.156628672607422,-0.0453940634765608,0.341157217020945,0.0794239999995625,
-0.299658279785156,0.0704374128417968,-0.0286346518554677,0.309154422673408,0.0833249999996042,
-0.270927859863281,0.135080857666016,-0.0214520468749981,0.303494536479672,0.0872140000010404,
-0.280504666503906,0.106350437744141,-0.0813070883789049,0.310812043137799,0.091190999999526,
-0.270927859863281,0.0848026228027344,0.0288261879882832,0.285349503588593,0.0951330000007147,
-0.304446683105469,0.159022874267578,0.0288261879882832,0.344683922613428,0.0990259999998671,
-0.285293069824219,0.115927244384766,0.00967257470703231,0.308098718565714,0.103053000000727,
-0.263745254882812,0.147051865966797,0.00967257470703231,0.302124758103303,0.107022000000143,
-0.294869876464844,0.123109849365234,0.0551624062500018,0.324264043829119,0.110929000000397,
-0.285293069824219,0.139869260986328,-0.0525766684570304,0.322055665878786,0.114800999999716,
-0.246985843261719,0.163811277587891,-0.0214520468749981,0.297146986778945,0.118669999999838,
-0.285293069824219,0.159022874267578,9.57680664068761e-05,0.326619686181913,0.12256300000081,
-0.292475674804687,0.127898252685547,-0.040605660156249,0.321789998336179,0.126465999999709,
-0.285293069824219,0.142263462646484,-0.0477882651367167,0.322358103324038,0.130482000000484,
-0.270927859863281,0.120715647705078,-0.0190578452148422,0.297216039801332,0.134400000000824,
-0.249380044921875,0.190147495849609,-0.0310288535156236,0.315133728333874,0.13844699999936,
-0.275716263183594,0.118321446044922,-0.00948103857421678,0.300182132164011,0.142357000000629,
-0.249380044921875,0.108744639404297,-0.0573650717773422,0.2780405633436,0.146398000000772,
-0.290081473144531,0.111138841064453,0.0120667763671882,0.310877323307357,0.150359999999637,
-0.282898868164062,0.130292454345703,-0.0477882651367167,0.315105714884246,0.154367000001002,
-0.290081473144531,0.0824084211425782,-0.0166636435546863,0.302020009193814,0.158265000000029,
-0.297264078125,0.111138841064453,-0.0382114584960931,0.319652764256864,0.162264000000505,
-0.292475674804687,0.180570689208984,-0.040605660156249,0.346116474312607,0.166326000000481,
-0.292475674804687,0.149446067626953,0.00248996972656279,0.328454483042714,0.170324000000619,
-0.299658279785156,0.170993882568359,-0.0358172568359372,0.346867220138848,0.174322000000757,
-0.261351053222656,0.120715647705078,-0.00948103857421678,0.288039113166761,0.178309999999328,
-0.309235086425781,0.106350437744141,-0.0286346518554677,0.328263152930716,0.182355000000825,
-0.275716263183594,0.0991678327636719,-0.00229843359374904,0.293017063728298,0.186304000000746,
-0.306840884765625,0.139869260986328,-0.0549708701171863,0.341667287421628,0.190198000000237,
-0.314023489746094,0.127898252685547,-0.00229843359374904,0.339078159056752,0.194069000001036,
-0.294869876464844,0.156628672607422,-0.0980664999999981,0.347991125679096,0.197975000000952,
-0.309235086425781,0.142263462646484,0.00488417138672048,0.340424861916786,0.201901000000362,
-0.31641769140625,0.137475059326172,-0.0142694418945304,0.345287075262855,0.205836999999519,
-0.285293069824219,0.111138841064453,-0.0429998618164049,0.309181121349778,0.209812999999485,
-0.328388699707031,0.154234470947266,-0.0190578452148422,0.363305121885022,0.213846000000558,
-0.282898868164062,0.118321446044922,-0.0597592734374981,0.312414636283972,0.217768000000433,
-0.287687271484375,0.156628672607422,0.0072783730468764,0.327642307968762,0.221827999999732,
-0.266139456542969,0.161417075927734,-0.00469263525390495,0.311300021772683,0.225722000001042,
-0.282898868164062,0.161417075927734,-0.0525766684570304,0.329926579825888,0.229670000000624,
-0.275716263183594,0.123109849365234,0.0144609780273441,0.302298879720324,0.233565000000453,
-0.242197439941406,0.151840269287109,0.103046439453125,0.303864502657549,0.237586999999621,
-0.31641769140625,0.199724302490234,0.0264319863281255,0.375111453226,0.241578999999547,
-0.266139456542969,0.113533042724609,-0.0142694418945304,0.289695666331542,0.245479000001069,
-0.275716263183594,0.149446067626953,0.0120667763671882,0.313845809283763,0.249517000000196,
-0.280504666503906,0.0848026228027344,-0.0214520468749981,0.293827403554906,0.253493000000162,
-0.285293069824219,0.127898252685547,0.00488417138672048,0.312688269463179,0.257590000001073,
-0.304446683105469,0.142263462646484,-0.00469263525390495,0.336078408237892,0.261512000000948,
-0.290081473144531,0.147051865966797,0.0216435830078137,0.325944714685534,0.265427000000273,
-0.254168448242187,0.101562034423828,-0.0166636435546863,0.27421546990399,0.269323000000441,
-0.282898868164062,0.127898252685547,-0.0286346518554677,0.311784662764876,0.273298000000068,
-0.273322061523437,0.156628672607422,-0.0286346518554677,0.316318563611225,0.277286000000458,
-0.309235086425781,0.130292454345703,0.0288261879882832,0.336798769965277,0.281332000000475,
-0.270927859863281,0.108744639404297,0.00248996972656279,0.291947772381478,0.285391999999774,
-0.304446683105469,0.144657664306641,-0.0932780966796862,0.349734793832068,0.289479000000938,
-0.292475674804687,0.159022874267578,-0.040605660156249,0.335379060958647,0.293561000000409,
-0.31641769140625,0.118321446044922,0.00967257470703231,0.33795514307447,0.29755699999987,
-0.309235086425781,0.132686656005859,0.0743160195312509,0.344608412720506,0.301574999999502,
-0.294869876464844,0.0441011945800781,9.57680664068761e-05,0.298149574175957,0.305517000000691,
-0.268533658203125,0.403231443603516,-0.078912886718749,0.490849433521945,0.309548999999606,
-0.357119119628906,-0.159405946533203,0.0120667763671882,0.391267080760147,0.313555000000633,
-0.23980323828125,0.125504051025391,0.198814505859376,0.335833392702491,0.317355000001044,
-0.179948196777344,0.659411021240235,-0.0549708701171863,0.685730300495718,0.320341000000553,
-0.254168448242187,0.0129765729980469,-0.311150447753905,0.401975860800211,0.323291000000609,
-0.440916177734375,-0.178559559814453,0.10065223779297,0.486231904713949,0.326392999999371,
-0.249380044921875,0.290703965576172,0.268246354003907,0.467605933285002,0.32939400000032,
-0.179948196777344,0.242819932373047,-0.126796919921874,0.327750411109953,0.332460999999967,
-0.309235086425781,0.0943794294433594,-0.189046163085937,0.374529394248741,0.335438000000067,
-0.349936514648437,0.182964890869141,-0.0334230551757795,0.396293850813176,0.338450000001103,
-0.266139456542969,0.0584664045410156,0.110229044433595,0.293937022210003,0.341511000000537,
-0.254168448242187,0.0464953962402344,0.0407971962890645,0.261587142609163,0.344481000000087,
-0.251774246582031,0.182964890869141,0.0240377846679696,0.312160595886876,0.347614000000249,
-0.318811893066406,0.204512705810547,0.0144609780273441,0.379045630345535,0.350603000000774,
-0.352330716308594,0.0464953962402344,-0.0501824667968744,0.358910901896115,0.353554999999687,
-0.325994498046875,0.132686656005859,0.00967257470703231,0.352096180241016,0.356621999999334,
-0.220649625,0.206906907470703,0.00967257470703231,0.30263886741989,0.359594999999899,
-0.266139456542969,0.132686656005859,-0.0238462485351558,0.298336391645747,0.362685000000056,
-0.318811893066406,0.161417075927734,0.0120667763671882,0.357550140055267,0.365658000000622,
-0.309235086425781,0.0943794294433594,-0.0286346518554677,0.324582437395646,0.368615999999747,
-0.244591641601562,0.130292454345703,-0.0453940634765608,0.280823460201758,0.37171699999999,
-0.273322061523437,0.106350437744141,-0.0238462485351558,0.294251607460337,0.374740999999631,
-0.292475674804687,0.147051865966797,-0.0166636435546863,0.327786437567651,0.377832000000126,
-0.318811893066406,0.135080857666016,-0.00469263525390495,0.346280063090554,0.380801999999676,
-0.263745254882812,0.142263462646484,-0.00948103857421678,0.29981718157873,0.383852000000843,
-0.282898868164062,0.130292454345703,-0.0238462485351558,0.312372432902033,0.38684000000103,
-0.294869876464844,0.144657664306641,-0.0813070883789049,0.338356212459148,0.389850999999908,
-0.318811893066406,0.0991678327636719,0.0192493813476577,0.334433582192185,0.392945999999938,
-0.251774246582031,0.120715647705078,0.0575566079101577,0.285088235388501,0.396006000000853,
-0.263745254882812,0.149446067626953,-0.0190578452148422,0.303741482294718,0.399058999999397,
-0.261351053222656,0.106350437744141,-0.00469263525390495,0.282199945879846,0.402116000001115,
-0.340359708007812,0.0895910261230469,-0.0645476767578117,0.357823539432183,0.405091000000539,
-0.318811893066406,0.161417075927734,-0.0190578452148422,0.357854295804701,0.40821700000015,
-0.256562649902344,0.120715647705078,-0.00469263525390495,0.283581878390343,0.411239999999452,
-0.282898868164062,0.118321446044922,-0.0118752402343745,0.306875798220213,0.4144150000011,
-0.318811893066406,0.115927244384766,-0.0142694418945304,0.339534631699348,0.417390000000523,
-0.369090127929687,0.161417075927734,0.00967257470703231,0.402959741956534,0.420373999999356,
-0.268533658203125,0.166205479248047,0.0120667763671882,0.316038279345907,0.423495999999432,
-0.290081473144531,0.111138841064453,-0.00469263525390495,0.31067848956836,0.426510999999664,
-0.285293069824219,0.130292454345703,-0.0310288535156236,0.315168286951031,0.429592000000412,
-0.309235086425781,0.125504051025391,-0.00708683691406087,0.333808071738822,0.432560000001104,
-0.299658279785156,0.132686656005859,-0.040605660156249,0.330226669066175,0.435524000000441,
-0.273322061523437,0.103956236083984,-0.0190578452148422,0.293044450212598,0.43864399999984,
-0.2589568515625,0.194935899169922,-0.0142694418945304,0.324441478125609,0.441602999999304,
-0.311629288085937,0.144657664306641,-0.0477882651367167,0.346875152353665,0.444697000000815,
-0.232620633300781,0.144657664306641,-0.0549708701171863,0.27939218929911,0.44777299999987,
-0.27811046484375,0.130292454345703,-0.0310288535156236,0.308681622493999,0.45074299999942,
-0.311629288085937,0.120715647705078,-0.0525766684570304,0.338303690284107,0.453880000000936,
-0.290081473144531,0.151840269287109,-0.00708683691406087,0.327494964383164,0.456841000001077,
-0.297264078125,0.168599680908203,-0.00948103857421678,0.341879620097922,0.459942999999839,
-0.270927859863281,0.127898252685547,9.57680664068761e-05,0.299599528473655,0.462932000000364,
-0.235014834960937,0.142263462646484,0.0264319863281255,0.275988252208558,0.465942000000723,
-0.275716263183594,0.132686656005859,0.0479798012695323,0.309721274367464,0.469046000000162,
-0.275716263183594,0.137475059326172,0.0312203896484391,0.309666857203769,0.472040000000561,
-0.290081473144531,0.127898252685547,-0.0477882651367167,0.320607146499411,0.475114000000758,
-0.244591641601562,0.113533042724609,0.0192493813476577,0.270343044323176,0.478081999999631,
-0.294869876464844,0.120715647705078,0.0072783730468764,0.31870595595542,0.481169000000591,
-0.287687271484375,0.132686656005859,-0.00229843359374904,0.316820134545023,0.484137999999803,
-0.275716263183594,0.120715647705078,0.0192493813476577,0.301599509394576,0.48718000000008,
-0.31641769140625,0.144657664306641,-0.0166636435546863,0.348315478114354,0.490259000000151,
-0.27811046484375,0.166205479248047,0.0312203896484391,0.325491020947552,0.493263000000297,
-0.31641769140625,0.125504051025391,-0.0501824667968744,0.344078046716823,0.496273000000656,
-0.321206094726562,0.115927244384766,9.57680664068761e-05,0.341485710464812,0.49928700000055,
-0.282898868164062,0.135080857666016,-0.00708683691406087,0.313574283023561,0.502270999999382,
-0.282898868164062,0.142263462646484,-0.0358172568359372,0.318674659017511,0.505347000000256,
-0.246985843261719,0.0752258161621093,-0.0118752402343745,0.258460734966807,0.508304000000862,
-0.306840884765625,0.115927244384766,-0.0597592734374981,0.333409096030949,0.511415999999372,
-0.266139456542969,0.156628672607422,-0.0214520468749981,0.309552809269883,0.51441800000066,
-0.302052481445312,0.149446067626953,0.0120667763671882,0.337217193761419,0.517439999999624,
-0.309235086425781,0.120715647705078,-0.00708683691406087,0.332037391772468,0.52054599999974,
-0.323600296386719,0.115927244384766,0.00488417138672048,0.343773374394167,0.523559999999634,
-0.297264078125,0.103956236083984,-0.0214520468749981,0.315646988706343,0.526616000001013,
-0.306840884765625,0.142263462646484,-0.0142694418945304,0.338517116760586,0.529619999999341,
-0.285293069824219,0.154234470947266,-0.00948103857421678,0.324453845424207,0.532628000000841,
-0.314023489746094,0.0871968244628907,-0.00469263525390495,0.325938735246907,0.535753000000113,
-0.263745254882812,0.149446067626953,-0.0166636435546863,0.303600664720743,0.538779000000432,
-0.27811046484375,0.154234470947266,0.0312203896484391,0.319544074289901,0.541986000000179,
-0.290081473144531,0.142263462646484,-0.0597592734374981,0.328568599576476,0.54498699999931,
-0.292475674804687,0.130292454345703,-0.0214520468749981,0.320902375072251,0.547974000000977,
-0.27811046484375,0.139869260986328,-0.040605660156249,0.313938943842896,0.551065999999992,
-0.311629288085937,0.130292454345703,-0.0190578452148422,0.338307756808218,0.554130000000441,
-0.292475674804687,0.178176487548828,0.0120667763671882,0.342687157856245,0.55727300000035,
-0.268533658203125,0.142263462646484,-0.0501824667968744,0.308005679113129,0.560256000000663,
-0.27811046484375,0.130292454345703,0.0192493813476577,0.307720803647237,0.563226000000213,
-0.297264078125,0.139869260986328,0.0288261879882832,0.329788252407971,0.566366000000926,
-0.251774246582031,0.108744639404297,9.57680664068761e-05,0.274254766617907,0.569419999999809,
-0.244591641601562,0.142263462646484,0.0168551796875018,0.283457335463051,0.572514999999839,
-0.27811046484375,0.139869260986328,-0.00469263525390495,0.311337215331053,0.575480999999854,
-0.280504666503906,0.127898252685547,-0.0142694418945304,0.308616992309991,0.578504999999495,
-0.309235086425781,0.142263462646484,-0.0501824667968744,0.344069050416842,0.581554000000324,
-0.297264078125,0.127898252685547,-0.0214520468749981,0.324320960621803,0.584537000000637,
-0.294869876464844,0.127898252685547,0.0216435830078137,0.322140732866591,0.587682999999743,
-0.297264078125,0.175782285888672,0.0551624062500018,0.34972594304547,0.590738000000783,
-0.270927859863281,0.120715647705078,0.0360087929687509,0.29878220499558,0.593807999999626,
-0.280504666503906,0.103956236083984,-0.00229843359374904,0.299157232485196,0.596840000000157,
-0.306840884765625,0.139869260986328,0.00967257470703231,0.337354853876561,0.599858999999924,
-0.275716263183594,0.147051865966797,-0.0286346518554677,0.313789184573218,0.602962000000844,
-0.27811046484375,0.161417075927734,0.0240377846679696,0.322457312133576,0.605947000000015,
-0.263745254882812,0.166205479248047,-0.040605660156249,0.314379771044508,0.609050999999454,
-0.280504666503906,0.166205479248047,-0.0262404501953117,0.32710195732981,0.612068000000363,
-0.328388699707031,0.0273417829589844,-0.00948103857421678,0.329661343325384,0.615031999999701,
-0.321206094726562,0.125504051025391,0.0192493813476577,0.345391315460509,0.618119000000661,
-0.292475674804687,0.180570689208984,-0.0214520468749981,0.344395099368432,0.621124999999665,
-0.306840884765625,0.159022874267578,-0.112431709960937,0.363428799779013,0.624200000000201,
-0.342753909667969,0.106350437744141,-0.00469263525390495,0.358904832827136,0.627147000001059,
-0.31641769140625,0.130292454345703,0.0384029946289068,0.344341500680292,0.630184999999983,
-0.199101810058594,0.166205479248047,0.0384029946289068,0.262184252191372,0.633280000000013,
-0.273322061523437,0.115927244384766,-0.0908838950195303,0.31048986727426,0.636249000001044,
-0.37387853125,0.118321446044922,-0.100460701660156,0.404817827302442,0.639301999999589,
-0.314023489746094,0.178176487548828,0.0144609780273441,0.361340189728544,0.642280000000028,
-0.261351053222656,0.135080857666016,0.0168551796875018,0.294678313098667,0.64527199999975,
-0.230226431640625,0.106350437744141,-0.0597592734374981,0.260549028392207,0.648333000001003,
-0.292475674804687,0.142263462646484,-0.0118752402343745,0.325456501682251,0.651283999999578,
-0.321206094726562,0.154234470947266,-0.00229843359374904,0.356324164371233,0.654388999999355,
-0.270927859863281,0.130292454345703,0.033614591308595,0.302502842397173,0.657463999999891,
-0.263745254882812,0.0967736311035157,-0.0549708701171863,0.286266469764797,0.660455000001093,
-0.302052481445312,0.149446067626953,-0.0190578452148422,0.337539671950815,0.663523000001078,
-0.314023489746094,0.147051865966797,-0.0358172568359372,0.348594146944385,0.666517999999996,
-0.268533658203125,0.149446067626953,0.00488417138672048,0.307356971365947,0.669573999999557,
-0.2589568515625,0.0943794294433594,-0.0118752402343745,0.275875241737712,0.672612000000299,
-0.270927859863281,0.144657664306641,-0.0286346518554677,0.308460189294558,0.675701000000117,
-0.256562649902344,0.144657664306641,-0.0477882651367167,0.298385575141196,0.678761999999551,
-0.282898868164062,0.120715647705078,-0.0214520468749981,0.308324873347077,0.681758000000627,
-0.244591641601562,0.144657664306641,0.0144609780273441,0.284534762146046,0.684921000000031,
-0.292475674804687,0.113533042724609,0.00488417138672048,0.313776396934027,0.687949000001026,
-0.297264078125,0.123109849365234,0.0360087929687509,0.323757008148554,0.691038999999364,
-0.280504666503906,0.132686656005859,-0.0669418784179676,0.317442643163471,0.69407499999943,
-0.287687271484375,0.139869260986328,-0.0358172568359372,0.32188546445939,0.69716999999946,
-0.266139456542969,0.123109849365234,-0.0142694418945304,0.293581100058738,0.700232999999571,
-0.292475674804687,0.156628672607422,-0.00469263525390495,0.331808050325555,0.703225999999631,
-0.2589568515625,0.163811277587891,0.0192493813476577,0.307023328622447,0.706325999999535,
-0.309235086425781,0.151840269287109,-0.0118752402343745,0.344706871681674,0.709345999999641,
-0.282898868164062,0.147051865966797,-0.0166636435546863,0.319270571630619,0.712354999999661,
-0.306840884765625,0.142263462646484,0.0192493813476577,0.338763575447814,0.715436000000409,
-0.299658279785156,0.139869260986328,0.0264319863281255,0.331748616747547,0.71841300000051,
-0.273322061523437,0.0895910261230469,-0.0118752402343745,0.287875880559359,0.721520000000965,
-0.244591641601562,0.135080857666016,0.0312203896484391,0.281152310996965,0.724496000000727,
-0.280504666503906,0.118321446044922,0.0479798012695323,0.308196193770288,0.727479999999559,
-0.309235086425781,0.137475059326172,-0.078912886718749,0.347495286736066,0.730641000000105,
-0.282898868164062,0.137475059326172,-0.0310288535156236,0.316060043814045,0.733645000000251,
-0.294869876464844,0.159022874267578,-0.0429998618164049,0.337765461086453,0.736769000001004,
-0.299658279785156,0.168599680908203,-0.0358172568359372,0.34569323530176,0.739754000000175,
-0.256562649902344,0.113533042724609,0.0264319863281255,0.281802759064688,0.742772999999943,
-0.282898868164062,0.0895910261230469,0.0360087929687509,0.298922991322773,0.745883999999933,
-0.282898868164062,0.113533042724609,-0.0501824667968744,0.308933328361695,0.748872000000119,
-0.287687271484375,0.151840269287109,-0.0358172568359372,0.327264891851475,0.751984000000448,
-0.306840884765625,0.132686656005859,-0.0118752402343745,0.334511731597552,0.754998000000342,
-0.294869876464844,0.130292454345703,-0.105249104980468,0.339119067297916,0.7579769999993,
-0.304446683105469,0.142263462646484,-0.0190578452148422,0.336585616333084,0.761023999999452,
-0.280504666503906,0.125504051025391,0.0288261879882832,0.308650423405165,0.76407300000028,
-0.275716263183594,0.127898252685547,-0.0358172568359372,0.306039697933442,0.767110000000685,
-0.285293069824219,0.118321446044922,-0.0693360800781235,0.316543191815095,0.770158999999694,
-0.285293069824219,0.135080857666016,0.0072783730468764,0.315740318159912,0.77322599999934,
-0.299658279785156,0.173388084228516,-0.040605660156249,0.348579018348722,0.776252999999997,
-0.297264078125,0.170993882568359,-0.0573650717773422,0.347700433533419,0.779216000000815,
-0.302052481445312,0.127898252685547,0.0240377846679696,0.328894329046626,0.782275999999911,
-0.285293069824219,0.132686656005859,-0.00229843359374904,0.314647687372287,0.785275000000183,
-0.251774246582031,0.147051865966797,0.0120667763671882,0.291822085555843,0.788355000000593,
-0.31641769140625,0.147051865966797,-0.0142694418945304,0.349210572135437,0.791328999999678,
-0.31641769140625,0.0991678327636719,-0.0908838950195303,0.343823060401459,0.794323000000077,
-0.270927859863281,0.154234470947266,9.57680664068761e-05,0.311753406476983,0.797393000000739,
-0.275716263183594,0.149446067626953,-0.0358172568359372,0.315652436709011,0.800406000000294,
-0.294869876464844,0.130292454345703,0.00967257470703231,0.322518102448967,0.80349600000045,
-0.314023489746094,0.137475059326172,-0.0190578452148422,0.343326878518537,0.806512000001021,
-0.244591641601562,0.151840269287109,-0.0214520468749981,0.288687943692937,0.809478999999556,
-0.299658279785156,0.130292454345703,-0.0238462485351558,0.32762761158429,0.812549000000217,
-0.302052481445312,0.163811277587891,-0.0214520468749981,0.344281899796337,0.815569000000323,
-0.266139456542969,0.130292454345703,-0.0549708701171863,0.301377057105969,0.818720999999641,
-0.285293069824219,0.154234470947266,-0.00948103857421678,0.324453845424207,0.821776000000682,
-0.290081473144531,0.127898252685547,-0.0166636435546863,0.317463227978037,0.824832000000242,
-0.309235086425781,0.123109849365234,-0.0717302817382794,0.3404814341572,0.82793700000002,
-0.292475674804687,0.156628672607422,-0.00229843359374904,0.33178282690972,0.830962,
-0.280504666503906,0.125504051025391,-0.0765186850585931,0.316684770580064,0.834049000000959,
-0.309235086425781,0.149446067626953,0.00488417138672048,0.343488458228301,0.837094000000434,
-0.251774246582031,0.161417075927734,0.071921817871095,0.307601189088879,0.840154999999868,
-0.275716263183594,0.173388084228516,0.0288261879882832,0.326976810569642,0.84323200000108,
-0.306840884765625,0.106350437744141,0.0503740029296882,0.328632445664274,0.846219999999448,
-0.297264078125,0.123109849365234,0.0431913979492204,0.324634354329675,0.849342999999863,
-0.27811046484375,0.135080857666016,0.0072783730468764,0.309265651952496,0.852410999999847,
-0.294869876464844,0.151840269287109,-0.0262404501953117,0.332704482461578,0.855376999999862,
-0.256562649902344,0.115927244384766,-0.0262404501953117,0.282757989351336,0.858417999999801,
-0.251774246582031,0.142263462646484,-0.0118752402343745,0.28943079548787,0.861410999999862,
-0.290081473144531,0.139869260986328,-0.0741244833984371,0.330461964936433,0.864521999999852,
-0.280504666503906,0.161417075927734,-0.0262404501953117,0.324695090135315,0.867503999999826,
-0.280504666503906,0.147051865966797,-0.0358172568359372,0.318731854545535,0.87061999999969,
-0.297264078125,0.149446067626953,-0.00708683691406087,0.332791650331123,0.873676999999589,
-0.297264078125,0.108744639404297,-0.0118752402343745,0.316752821729027,0.876670999999988,
-0.282898868164062,0.113533042724609,-0.0501824667968744,0.308933328361695,0.879779000000781,
-0.292475674804687,0.111138841064453,0.0479798012695323,0.316537396961987,0.882798000000548,
-0.292475674804687,0.147051865966797,-0.0358172568359372,0.329316181691738,0.885888000000705,
-0.306840884765625,0.132686656005859,-0.0525766684570304,0.338410081575312,0.888882000001104,
-0.294869876464844,0.175782285888672,0.0455855996093764,0.346302906384548,0.891907000001083,
-0.285293069824219,0.132686656005859,0.00967257470703231,0.314787933493657,0.895016000000396,
-0.268533658203125,0.0967736311035157,-0.0693360800781235,0.293739601118937,0.897995999999694,
-0.256562649902344,0.135080857666016,-0.0334230551757795,0.291870402833145,0.901050000000396,
-0.287687271484375,0.144657664306641,-0.0453940634765608,0.325192907388355,0.904070000000502,
-0.294869876464844,0.154234470947266,0.033614591308595,0.334464432823012,0.907044999999925,
-0.299658279785156,0.147051865966797,-0.0166636435546863,0.334211030554997,0.910084999999526,
-0.282898868164062,0.113533042724609,-0.0501824667968744,0.308933328361695,0.913123000000269,
-0.302052481445312,0.0871968244628907,0.0216435830078137,0.315130817961524,0.916225999999369,
-0.282898868164062,0.106350437744141,-0.112431709960937,0.322464067178993,0.919213999999556,
-0.325994498046875,0.147051865966797,-0.0501824667968744,0.361130092923548,0.922173000000839,
-0.304446683105469,0.159022874267578,-0.0525766684570304,0.347477140917621,0.925231000001077,
-0.306840884765625,0.127898252685547,-0.0645476767578117,0.338637998722232,0.928250999999364,
-0.287687271484375,0.127898252685547,-0.0310288535156236,0.316361690102696,0.931308999999601,
-0.280504666503906,0.130292454345703,-0.0190578452148422,0.309874479514089,0.934274000001096,
-0.254168448242187,0.149446067626953,-0.0310288535156236,0.296476840514559,0.937276000000566,
-0.280504666503906,0.149446067626953,-0.0597592734374981,0.323400936642746,0.94042300000001,
-0.309235086425781,0.144657664306641,0.0240377846679696,0.342242594676871,0.943429000000833,
-0.340359708007812,0.139869260986328,-0.0262404501953117,0.368912865363188,0.946497000000818,
-0.27811046484375,0.147051865966797,0.0168551796875018,0.315045677675828,0.949509000000035,
-0.302052481445312,0.168599680908203,0.0431913979492204,0.34860730171129,0.952456999999413,
-0.263745254882812,0.151840269287109,-0.0765186850585931,0.313802702368029,0.955589000001055,
-0.266139456542969,0.142263462646484,-0.0597592734374981,0.307636593881372,0.958603999999468,
-0.256562649902344,0.120715647705078,9.57680664068761e-05,0.283543065683666,0.961726999999883,
-0.299658279785156,0.180570689208984,-0.0501824667968744,0.353439016548861,0.964744999999311,
-0.299658279785156,0.0824084211425782,0.071921817871095,0.318996834474724,0.967898999999306,
-0.280504666503906,0.120715647705078,-0.0573650717773422,0.310718340288023,0.970949000000473,
-0.270927859863281,0.147051865966797,0.00488417138672048,0.308301819106779,0.973986000000878,
-0.299658279785156,0.127898252685547,-0.00229843359374904,0.325819475293911,0.977084000000104,
-0.31641769140625,0.125504051025391,0.0144609780273441,0.340705946740223,0.980234000000564,
-0.290081473144531,0.132686656005859,-0.0310288535156236,0.320493056858043,0.983298000001014,
-0.256562649902344,0.151840269287109,-0.0717302817382794,0.306635115439095,0.986333000000741,
-0.263745254882812,0.144657664306641,-0.0358172568359372,0.302936090955013,0.989332999999533,
-0.251774246582031,0.132686656005859,-0.0358172568359372,0.286842981108512,0.992447000000539,
-0.270927859863281,0.137475059326172,-0.0358172568359372,0.3059153037592,0.995476000000053,
-0.294869876464844,0.156628672607422,0.0192493813476577,0.33444180930533,0.998552000000927,
-0.268533658203125,0.173388084228516,-0.0525766684570304,0.323941444409986,1.00152399999934,
-0.27811046484375,0.142263462646484,-0.040605660156249,0.315012925284819,1.0045140000002,
-0.280504666503906,0.130292454345703,0.0144609780273441,0.309625760354984,1.00757800000065,
-0.314023489746094,0.127898252685547,-0.0262404501953117,0.340084219538019,1.01059499999974,
-0.299658279785156,0.118321446044922,-0.0190578452148422,0.322735573964497,1.01375899999948,
-0.282898868164062,0.149446067626953,-0.0214520468749981,0.320665069898164,1.01677600000039,
-0.275716263183594,0.175782285888672,0.00967257470703231,0.327127541667825,1.01983500000097,
-0.215861221679687,0.142263462646484,0.0455855996093764,0.262512869629207,1.02292900000066,
-0.280504666503906,0.0991678327636719,0.0192493813476577,0.298140345588749,1.0259500000011,
-0.311629288085937,0.120715647705078,-0.0573650717773422,0.339080863886219,1.02905099999953,
-0.268533658203125,0.147051865966797,-0.0238462485351558,0.307088294211079,1.03205100000014,
-0.282898868164062,0.149446067626953,0.0551624062500018,0.324667195449367,1.0351040000005,
-0.323600296386719,0.132686656005859,-0.0262404501953117,0.350729898540233,1.03821400000015,
-0.2589568515625,0.118321446044922,-0.0908838950195303,0.298862004843782,1.04119999999966,
