X,Y,Z,Magnitude,Seconds,
-0.282898868164062,0.139869260986328,-0.0669418784179676,0.322608733396192,0.0,
-0.294869876464844,0.151840269287109,-0.0118752402343745,0.3318806001474,0.00393700000131503,
-0.304446683105469,0.120715647705078,0.0240377846679696,0.328386762136542,0.00777999999991152,
-0.292475674804687,0.144657664306641,-0.0262404501953117,0.327347554476221,0.0116320000015548,
-0.275716263183594,0.137475059326172,-0.0262404501953117,0.309204480800508,0.0154689999999391,
-0.321206094726562,0.147051865966797,0.0312203896484391,0.354643933126744,0.0192930000011984,
-0.304446683105469,0.151840269287109,-0.040605660156249,0.342625261572798,0.0230929999997898,
-0.297264078125,0.108744639404297,-0.0382114584960931,0.318828236364151,0.0269630000002508,
-0.321206094726562,0.173388084228516,-0.0286346518554677,0.366137578416649,0.0307659999998577,
-0.306840884765625,0.144657664306641,-0.0166636435546863,0.339639287219429,0.0345610000003944,
-0.314023489746094,0.123109849365234,0.033614591308595,0.338964198510535,0.0383529999999155,
-0.280504666503906,0.120715647705078,0.0527682045898441,0.309902595902261,0.0421160000005329,
-0.321206094726562,0.149446067626953,0.0144609780273441,0.354565370988421,0.0459300000002258,
-0.292475674804687,0.130292454345703,-0.00948103857421678,0.320324888362316,0.0499369999997725,
-0.297264078125,0.151840269287109,-0.0118752402343745,0.334009611914556,0.0539000000007945,
-0.292475674804687,0.0895910261230469,0.0168551796875018,0.306353830393119,0.0577360000006593,
-0.270927859863281,0.142263462646484,0.0384029946289068,0.308408151725491,0.0615750000015396,
-0.292475674804687,0.111138841064453,0.0384029946289068,0.315227937121815,0.065416000001278,
-0.270927859863281,0.106350437744141,-0.0525766684570304,0.2957644788079,0.0692940000008093,
-0.304446683105469,0.127898252685547,-0.0118752402343745,0.330434210130491,0.0731320000013511,
-0.270927859863281,0.125504051025391,0.00488417138672048,0.298625228679722,0.0770560000000842,
-0.261351053222656,0.149446067626953,-0.00708683691406087,0.30114568468965,0.0809060000010504,
-0.273322061523437,0.170993882568359,-0.00229843359374904,0.32241144518799,0.0847400000002381,
-0.275716263183594,0.123109849365234,-0.0166636435546863,0.302412251423736,0.0885360000011133,
-0.275716263183594,0.139869260986328,0.0503740029296882,0.313241772635685,0.0923380000003817,
-0.275716263183594,0.139869260986328,-0.0142694418945304,0.309493917427738,0.0961380000007921,
-0.27811046484375,0.190147495849609,-0.0190578452148422,0.337438442234605,0.100000000000364,
-0.287687271484375,0.142263462646484,0.0288261879882832,0.322232537296015,0.10381899999993,
-0.323600296386719,0.127898252685547,0.033614591308595,0.349578396944708,0.107595000001311,
-0.251774246582031,0.118321446044922,-0.00708683691406087,0.278281258969334,0.111347000000023,
-0.287687271484375,0.173388084228516,9.57680664068761e-05,0.335897905766145,0.115131000000474,
-0.275716263183594,0.137475059326172,-0.0597592734374981,0.313831197433329,0.118992000001526,
-0.299658279785156,0.161417075927734,0.033614591308595,0.342024118730979,0.123005000001285,
-0.292475674804687,0.142263462646484,-0.0501824667968744,0.329088427524342,0.12690400000065,
-0.282898868164062,0.0919852277832032,-0.00708683691406087,0.297562220377994,0.130737000001318,
-0.328388699707031,0.118321446044922,-0.0813070883789049,0.358399142451668,0.134556000000885,
-0.333177103027344,0.199724302490234,0.0384029946289068,0.390348010092753,0.138429000000542,
-0.254168448242187,0.0991678327636719,0.00967257470703231,0.273000765270627,0.142323000000033,
-0.273322061523437,0.168599680908203,0.0312203896484391,0.322653861665361,0.146172000000661,
-0.280504666503906,0.0943794294433594,-0.0214520468749981,0.296733103895822,0.150046000000657,
-0.294869876464844,0.123109849365234,-0.0262404501953117,0.320613225372216,0.15389900000082,
-0.282898868164062,0.144657664306641,0.0072783730468764,0.317821623187237,0.157736000001023,
-0.292475674804687,0.144657664306641,0.0431913979492204,0.329140330333306,0.161546000001181,
-0.323600296386719,0.0967736311035157,0.0144609780273441,0.338070121992522,0.165337000000363,
-0.302052481445312,0.182964890869141,-0.0166636435546863,0.353538583261495,0.169119000000137,
-0.263745254882812,0.113533042724609,-0.0214520468749981,0.287943573601903,0.172884999999951,
-0.294869876464844,0.125504051025391,-0.0382114584960931,0.322737705312805,0.176761000000624,
-0.285293069824219,0.115927244384766,-0.0166636435546863,0.308397371416958,0.180539000000863,
-0.256562649902344,0.166205479248047,-0.0549708701171863,0.310596927252067,0.184315000000424,
-0.297264078125,0.106350437744141,0.0168551796875018,0.316165217622328,0.188084999999774,
-0.299658279785156,0.135080857666016,-0.00708683691406087,0.328773700300118,0.192036000000371,
-0.268533658203125,0.0824084211425782,-0.0166636435546863,0.281387900378966,0.195955000001049,
-0.299658279785156,0.175782285888672,-0.0118752402343745,0.347614035974772,0.199835999999777,
-0.340359708007812,0.132686656005859,0.033614591308595,0.366852041381842,0.203752000001259,
-0.285293069824219,0.118321446044922,0.0168551796875018,0.309315692078798,0.207539000000907,
-0.314023489746094,0.139869260986328,-0.0669418784179676,0.35022189732697,0.211392000001069,
-0.304446683105469,0.137475059326172,-0.0166636435546863,0.33446203343156,0.215276000000813,
-0.282898868164062,0.123109849365234,-0.0166636435546863,0.308974888357866,0.219085000000632,
-0.2589568515625,0.111138841064453,-0.0142694418945304,0.282159724156893,0.222963000000163,
-0.333177103027344,0.137475059326172,-0.0429998618164049,0.362981214437686,0.226814000001468,
-0.285293069824219,0.161417075927734,0.0192493813476577,0.328356737060554,0.230630000000019,
-0.294869876464844,0.125504051025391,0.00967257470703231,0.32061358294938,0.234418000000005,
-0.299658279785156,0.111138841064453,-0.0190578452148422,0.320172028917552,0.238216000001557,
-0.280504666503906,0.127898252685547,-0.0477882651367167,0.311968827377449,0.242004000001543,
-0.282898868164062,0.108744639404297,-0.00229843359374904,0.303088186844461,0.245785000000978,
-0.273322061523437,0.135080857666016,-0.0453940634765608,0.308240828609907,0.249668000000383,
-0.325994498046875,0.161417075927734,-0.0166636435546863,0.364150466393236,0.253457000000708,
-0.299658279785156,0.135080857666016,-0.0549708701171863,0.333262238054397,0.257236999999805,
-0.290081473144531,0.113533042724609,0.0623450112304695,0.317685242460736,0.261089000001448,
-0.270927859863281,0.151840269287109,0.0240377846679696,0.311504715404154,0.26512300000104,
-0.266139456542969,0.137475059326172,0.0240377846679696,0.300511925482941,0.268990000000485,
-0.280504666503906,0.142263462646484,0.0144609780273441,0.314850568714974,0.272899000001416,
-0.294869876464844,0.149446067626953,-0.0693360800781235,0.337771909986831,0.276752000001579,
-0.282898868164062,0.139869260986328,0.0479798012695323,0.319213472628009,0.28064600000107,
-0.282898868164062,0.161417075927734,-0.00708683691406087,0.325787454127709,0.284528000000137,
-0.280504666503906,0.108744639404297,-0.0118752402343745,0.301080198386181,0.288384999999835,
-0.235014834960937,0.369712620361328,-0.0813070883789049,0.445567320308403,0.292219000000841,
-0.328388699707031,-0.109127711669922,-0.0334230551757795,0.347656577913998,0.296022000000448,
-0.309235086425781,0.0417069929199219,0.189237699218751,0.364933855295434,0.299988000000667,
-0.139246768554687,0.601950181396484,-0.107643306640623,0.627152903924322,0.303759000000355,
-0.378666934570312,-0.224049391357422,-0.315938851074218,0.541667919229675,0.307346000001417,
-0.464858194335937,-0.118704518310547,0.0886812294921882,0.487901899947985,0.310310000000754,
-0.179948196777344,0.388866233642578,0.27303475732422,0.508080977697333,0.313289000001532,
-0.160794583496094,0.175782285888672,-0.122008516601561,0.267657221530155,0.316314000001512,
-0.35472491796875,0.0848026228027344,-0.28242002783203,0.461283345009121,0.319298000000344,
-0.337965506347656,0.161417075927734,0.0910754311523441,0.385448946089457,0.322335000000749,
-0.314023489746094,0.120715647705078,0.0886812294921882,0.347918640169534,0.325314000001526,
-0.246985843261719,0.0991678327636719,0.00248996972656279,0.266162480030498,0.328267000000778,
-0.230226431640625,0.192541697509766,-0.0286346518554677,0.301490395191623,0.331305000001521,
-0.280504666503906,0.161417075927734,-0.0238462485351558,0.324510375644182,0.334276999999929,
-0.352330716308594,0.0824084211425782,-0.0573650717773422,0.366358885506765,0.337317999999868,
-0.285293069824219,0.0919852277832032,-0.0286346518554677,0.30112017718336,0.340282000001025,
-0.246985843261719,0.154234470947266,9.57680664068761e-05,0.291187719472521,0.343249000001379,
-0.297264078125,0.106350437744141,0.0192493813476577,0.316301891290811,0.346289000000979,
-0.359513321289062,0.156628672607422,0.0264319863281255,0.393040734744258,0.349279000000024,
-0.266139456542969,0.123109849365234,-0.0334230551757795,0.29513275988443,0.352306000000681,
-0.242197439941406,0.113533042724609,-0.0525766684570304,0.272605315007832,0.355374000000666,
-0.263745254882812,0.127898252685547,-0.0118752402343745,0.293360774207868,0.358406000001196,
-0.314023489746094,0.163811277587891,0.0144609780273441,0.354477089052028,0.361538000001019,
-0.306840884765625,0.156628672607422,0.0072783730468764,0.344582130065858,0.364550000000236,
-0.218255423339844,0.0871968244628907,-0.040605660156249,0.238511080770666,0.367604000000938,
-0.225438028320312,0.151840269287109,-0.0382114584960931,0.274477480953412,0.370575000000827,
-0.304446683105469,0.147051865966797,0.0240377846679696,0.338954051797559,0.373639999999796,
-0.309235086425781,0.151840269287109,-0.00948103857421678,0.344632697442347,0.376635000000533,
-0.27811046484375,0.0871968244628907,-0.0238462485351558,0.292433514531456,0.379598999999871,
-0.223043826660156,0.125504051025391,0.0168551796875018,0.256483747082125,0.3826480000007,
-0.285293069824219,0.132686656005859,-0.00229843359374904,0.314647687372287,0.385640000000421,
-0.309235086425781,0.113533042724609,0.00967257470703231,0.329559780872198,0.38868900000125,
-0.302052481445312,0.103956236083984,-0.00469263525390495,0.319475541150878,0.391697000000931,
-0.275716263183594,0.144657664306641,-0.0310288535156236,0.312902680360957,0.394666000000143,
-0.290081473144531,0.156628672607422,-0.0501824667968744,0.333463764325727,0.397732999999789,
-0.318811893066406,0.111138841064453,0.0264319863281255,0.338661357487071,0.400722000000314,
-0.297264078125,0.159022874267578,-0.0358172568359372,0.339023719776477,0.403766999999789,
-0.270927859863281,0.166205479248047,-0.0142694418945304,0.318166282868176,0.406737000001158,
-0.225438028320312,0.142263462646484,9.57680664068761e-05,0.266573079264655,0.409696000000622,
-0.290081473144531,0.125504051025391,0.0647392128906255,0.322629343940044,0.412727000000814,
-0.306840884765625,0.144657664306641,-0.00708683691406087,0.339304275929218,0.415697000000364,
-0.297264078125,0.123109849365234,-0.0118752402343745,0.321967371770589,0.418738000000303,
-0.254168448242187,0.151840269287109,0.0144609780273441,0.296422312494405,0.421717000001081,
-0.268533658203125,0.135080857666016,9.57680664068761e-05,0.300594698667927,0.424686000000293,
-0.292475674804687,0.151840269287109,0.0168551796875018,0.329972097020244,0.427732000000105,
-0.297264078125,0.142263462646484,-0.00708683691406087,0.329628651978435,0.430696000001262,
-0.266139456542969,0.123109849365234,0.00248996972656279,0.293244685013994,0.4337540000015,
-0.302052481445312,0.111138841064453,-0.0645476767578117,0.328258961972482,0.436719000001176,
-0.347542312988281,0.137475059326172,0.0575566079101577,0.378150518138085,0.439695000000938,
-0.27811046484375,0.147051865966797,-0.00229843359374904,0.314602868290975,0.442727999999988,
-0.268533658203125,0.108744639404297,9.57680664068761e-05,0.289716639768319,0.445720000001529,
-0.318811893066406,0.137475059326172,-0.0621534750976558,0.352708760259842,0.448750000001382,
-0.323600296386719,0.159022874267578,9.57680664068761e-05,0.360562665196241,0.451757000000725,
-0.261351053222656,0.154234470947266,0.00967257470703231,0.303621810399776,0.45471600000019,
-0.306840884765625,0.149446067626953,-0.078912886718749,0.350303724478056,0.457753000000594,
-0.244591641601562,0.130292454345703,-0.040605660156249,0.280089297256248,0.460732000001371,
-0.31641769140625,0.103956236083984,-0.0453940634765608,0.33613639412376,0.463768999999957,
-0.304446683105469,0.147051865966797,-0.0693360800781235,0.345136967215681,0.466741000000184,
-0.285293069824219,0.118321446044922,0.0312203896484391,0.310430045281845,0.469789000000674,
-0.292475674804687,0.130292454345703,0.0288261879882832,0.321479537647142,0.472757999999885,
-0.246985843261719,0.149446067626953,0.0120667763671882,0.28893206985857,0.475719000000026,
-0.261351053222656,0.115927244384766,-0.00948103857421678,0.286065358097905,0.478750000000218,
-0.280504666503906,0.120715647705078,-0.00708683691406087,0.305459258803479,0.481729000000996,
-0.285293069824219,0.111138841064453,-0.0621534750976558,0.312421241514707,0.484744000001228,
-0.294869876464844,0.135080857666016,-0.0238462485351558,0.325213354159049,0.487721000001329,
-0.304446683105469,0.125504051025391,0.00248996972656279,0.329310263470401,0.490679000000455,
-0.290081473144531,0.123109849365234,-0.0597592734374981,0.320740497652245,0.493766999999934,
-0.304446683105469,0.137475059326172,0.00488417138672048,0.334082369964042,0.49684200000047,
-0.314023489746094,0.168599680908203,-0.00229843359374904,0.356429358094487,0.499975000000632,
-0.292475674804687,0.144657664306641,-0.0286346518554677,0.327548169712477,0.503013000001374,
-0.292475674804687,0.139869260986328,0.00488417138672048,0.324236465641133,0.505975000000035,
-0.27811046484375,0.175782285888672,-0.0932780966796862,0.341973165625665,0.508999000001495,
-0.302052481445312,0.182964890869141,-0.0453940634765608,0.35605122361388,0.511969000001045,
-0.314023489746094,0.154234470947266,-0.0310288535156236,0.351229004911599,0.515020000000732,
-0.340359708007812,0.0584664045410156,-0.00469263525390495,0.345376710449247,0.518008000000918,
-0.282898868164062,0.175782285888672,0.0527682045898441,0.337217533732144,0.520951000000423,
-0.299658279785156,0.161417075927734,-0.0166636435546863,0.340775929404318,0.524000000001251,
-0.27811046484375,0.132686656005859,0.0647392128906255,0.31486877429069,0.526988999999958,
-0.285293069824219,0.139869260986328,-0.0310288535156236,0.319246512289613,0.530045999999857,
-0.235014834960937,0.108744639404297,0.0264319863281255,0.2602998639111,0.533027999999831,
-0.321206094726562,0.135080857666016,-0.0118752402343745,0.348656298850171,0.536009000001286,
-0.347542312988281,0.125504051025391,0.0312203896484391,0.370825617872914,0.539072000001397,
-0.268533658203125,0.144657664306641,0.0120667763671882,0.305256895945859,0.542052000000695,
-0.297264078125,0.115927244384766,0.00488417138672048,0.319106429368457,0.545089000001099,
-0.273322061523437,0.101562034423828,-0.0549708701171863,0.296718035705902,0.548069000000396,
-0.27811046484375,0.111138841064453,-0.00229843359374904,0.299503848799546,0.551011999999901,
-0.266139456542969,0.130292454345703,-0.0118752402343745,0.29655919361746,0.554041000001234,
-0.287687271484375,0.142263462646484,-0.0310288535156236,0.322437046148215,0.557002000001376,
-0.27811046484375,0.120715647705078,0.00967257470703231,0.303333573740076,0.560054000001401,
-0.311629288085937,0.137475059326172,0.0240377846679696,0.341452808190863,0.563009999999849,
-0.292475674804687,0.137475059326172,-0.0573650717773422,0.328225781664408,0.566050999999788,
-0.256562649902344,0.182964890869141,0.033614591308595,0.316907692182618,0.569032000001243,
-0.27811046484375,0.0919852277832032,0.0264319863281255,0.29411794009748,0.572003000001132,
-0.242197439941406,0.0967736311035157,9.57680664068761e-05,0.260815537809105,0.575040000001536,
-0.275716263183594,0.149446067626953,-0.00469263525390495,0.313648857384673,0.578005000001212,
-0.256562649902344,0.125504051025391,-0.0214520468749981,0.286419012050219,0.581029000000854,
-0.297264078125,0.147051865966797,0.00967257470703231,0.331788701027154,0.584020000000237,
-0.321206094726562,0.135080857666016,-0.0214520468749981,0.349113711722131,0.586954000000333,
-0.328388699707031,0.113533042724609,-0.0214520468749981,0.348122220205361,0.5900040000015,
-0.306840884765625,0.115927244384766,-0.0765186850585931,0.336816810324979,0.59298200000012,
-0.285293069824219,0.163811277587891,-0.0310288535156236,0.330437679608724,0.596031000000949,
-0.294869876464844,0.166205479248047,-0.0166636435546863,0.338895533158793,0.598997000000963,
-0.263745254882812,0.156628672607422,-0.00229843359374904,0.306756227895943,0.601956000000428,
-0.309235086425781,0.0393127912597656,-0.040605660156249,0.314357525550318,0.604981000000407,
-0.342753909667969,0.0656490095214843,0.0743160195312509,0.356809340969094,0.607975000000806,
-0.244591641601562,0.226060520751953,-0.0118752402343745,0.333270838080105,0.611000000000786,
-0.242197439941406,0.166205479248047,-0.0262404501953117,0.2949108720829,0.613967000001139,
-0.292475674804687,0.0967736311035157,-0.0501824667968744,0.312130479132103,0.616906000001109,
-0.321206094726562,0.108744639404297,0.0216435830078137,0.339804644721163,0.619962000000669,
-0.2589568515625,0.175782285888672,0.0599508095703136,0.318672500494701,0.622935000001235,
-0.235014834960937,0.192541697509766,0.00488417138672048,0.303855447642121,0.625982999999906,
-0.280504666503906,0.0848026228027344,-0.0741244833984371,0.302272710980954,0.628945000000385,
-0.342753909667969,0.127898252685547,-0.0573650717773422,0.37030927222082,0.631898000001456,
-0.285293069824219,0.135080857666016,0.0312203896484391,0.317196605478863,0.635020000001532,
-0.230226431640625,0.139869260986328,-0.0214520468749981,0.270236582109018,0.638081000000966,
-0.302052481445312,0.130292454345703,0.0407971962890645,0.331475845925079,0.641223000000537,
-0.290081473144531,0.113533042724609,-0.0382114584960931,0.313842521676729,0.64424500000132,
-0.294869876464844,0.0991678327636719,0.0120667763671882,0.311332796527015,0.647203000000445,
-0.266139456542969,0.108744639404297,0.033614591308595,0.289457333085554,0.650245000000723,
-0.244591641601562,0.156628672607422,-0.0262404501953117,0.291626770805704,0.653197000001455,
-0.287687271484375,0.156628672607422,0.0360087929687509,0.329534733264877,0.656261000000086,
-0.263745254882812,0.154234470947266,-0.0477882651367167,0.309246745797526,0.659215000001495,
-0.275716263183594,0.111138841064453,0.0264319863281255,0.29844589070437,0.662256999999954,
-0.285293069824219,0.154234470947266,0.0120667763671882,0.3245396968169,0.665238000001409,
-0.309235086425781,0.139869260986328,-0.0429998618164049,0.34210924711538,0.668186000000787,
-0.249380044921875,0.139869260986328,0.0455855996093764,0.28953732724097,0.671260000000984,
-0.266139456542969,0.108744639404297,0.0072783730468764,0.287590997151105,0.674246000000494,
-0.270927859863281,0.125504051025391,-0.0238462485351558,0.299536000579366,0.677294000000984,
-0.273322061523437,0.118321446044922,-0.0262404501953117,0.298987416350648,0.680283000001509,
-0.292475674804687,0.144657664306641,-0.0477882651367167,0.329775042233167,0.683234000000084,
-0.314023489746094,0.115927244384766,0.0144609780273441,0.335050739423848,0.686300000001211,
-0.2589568515625,0.163811277587891,-0.0142694418945304,0.306751369366334,0.689277000001312,
-0.270927859863281,0.144657664306641,-0.0358172568359372,0.309209671549908,0.692323000001124,
-0.321206094726562,0.125504051025391,-0.0597592734374981,0.349993989769897,0.695284000001266,
-0.330782901367187,0.130292454345703,0.0407971962890645,0.357851732874622,0.698249000000942,
-0.287687271484375,0.0967736311035157,0.0120667763671882,0.303767524503492,0.701295000000755,
-0.304446683105469,0.125504051025391,-0.0358172568359372,0.331243000778819,0.704286000000138,
-0.256562649902344,0.144657664306641,-0.0166636435546863,0.295004932474159,0.707327000000078,
-0.282898868164062,0.113533042724609,0.00488417138672048,0.30486944177623,0.710313000001406,
-0.261351053222656,0.132686656005859,-0.0190578452148422,0.29372320842392,0.713259000000107,
-0.31641769140625,0.137475059326172,0.0168551796875018,0.345403596469251,0.71631300000081,
-0.299658279785156,0.127898252685547,0.0072783730468764,0.32589265471628,0.719294000000446,
-0.280504666503906,0.142263462646484,-0.0190578452148422,0.315095163718627,0.72233899999992,
-0.273322061523437,0.118321446044922,-0.0980664999999981,0.313563314709857,0.725302000000738,
-0.299658279785156,0.156628672607422,0.0288261879882832,0.339350224459183,0.728267000000415,
-0.311629288085937,0.108744639404297,0.0120667763671882,0.330278393002047,0.731327999999849,
-0.306840884765625,0.137475059326172,-0.0142694418945304,0.33653281782386,0.734306000000288,
-0.314023489746094,0.135080857666016,-0.0262404501953117,0.342850042214601,0.737339000001157,
-0.273322061523437,0.120715647705078,0.0216435830078137,0.299575802763999,0.740322999999989,
-0.304446683105469,0.144657664306641,0.0072783730468764,0.337144772183678,0.743282000001273,
-0.275716263183594,0.106350437744141,0.0312203896484391,0.297160875826707,0.746327000000747,
-0.294869876464844,0.192541697509766,-0.0477882651367167,0.355393117000191,0.749292000000423,
-0.275716263183594,0.135080857666016,-0.0501824667968744,0.311102195211687,0.752331000001504,
-0.292475674804687,0.161417075927734,-0.00229843359374904,0.334070015940524,0.755290000000969,
-0.297264078125,0.118321446044922,-0.00469263525390495,0.319981120635724,0.758320000000822,
-0.299658279785156,0.0943794294433594,0.0240377846679696,0.315087886846823,0.761290000000372,
-0.31641769140625,0.123109849365234,-0.00229843359374904,0.339531255177747,0.764255000000048,
-0.302052481445312,0.113533042724609,0.00248996972656279,0.322694365130254,0.767303000000538,
-0.306840884765625,0.173388084228516,0.0599508095703136,0.35750364457488,0.77029500000026,
-0.294869876464844,0.127898252685547,-0.00708683691406087,0.321490949085436,0.773348000000624,
-0.263745254882812,0.163811277587891,0.00967257470703231,0.310627192691882,0.776429999999891,
-0.273322061523437,0.149446067626953,0.0455855996093764,0.314828720634455,0.779475000001185,
-0.285293069824219,0.166205479248047,0.0527682045898441,0.334366386524476,0.78261300000122,
-0.285293069824219,0.127898252685547,-0.0382114584960931,0.314976529744902,0.78558300000077,
-0.31641769140625,0.166205479248047,0.0312203896484391,0.358774482783732,0.788644000000204,
-0.27811046484375,0.0656490095214843,0.033614591308595,0.287724110660894,0.791622000000643,
-0.292475674804687,0.120715647705078,0.00967257470703231,0.316556229846732,0.794595000001209,
-0.280504666503906,0.173388084228516,0.0168551796875018,0.330197505691973,0.797649000000092,
-0.244591641601562,0.156628672607422,0.00248996972656279,0.290454492430999,0.800634000001082,
-0.292475674804687,0.120715647705078,-0.00948103857421678,0.316550435232302,0.803669000000809,
-0.282898868164062,0.123109849365234,-0.0166636435546863,0.308974888357866,0.80666999999994,
-0.266139456542969,0.0752258161621093,-0.0358172568359372,0.278876333943011,0.809635999999955,
-0.275716263183594,0.120715647705078,-0.0118752402343745,0.301218768863106,0.812681000001248,
-0.304446683105469,0.156628672607422,-0.0645476767578117,0.348405979442827,0.815684000001056,
-0.27811046484375,0.173388084228516,-0.0310288535156236,0.329198493554475,0.818757000000915,
-0.299658279785156,0.125504051025391,-0.00229843359374904,0.324887110031419,0.821724999999788,
-0.292475674804687,0.120715647705078,-0.0142694418945304,0.316730018983511,0.824692000000141,
-0.294869876464844,0.154234470947266,-0.0142694418945304,0.333076767497759,0.827728000000207,
-0.27811046484375,0.154234470947266,-0.00469263525390495,0.318049875820783,0.83071100000052,
-0.263745254882812,0.127898252685547,0.00248996972656279,0.293130896465137,0.833744999999908,
-0.27811046484375,0.132686656005859,0.00488417138672048,0.308180198046141,0.836726999999883,
-0.280504666503906,0.149446067626953,-0.00469263525390495,0.317866349092278,0.839676000001418,
-0.294869876464844,0.130292454345703,0.0288261879882832,0.323659260364593,0.842728999999963,
-0.290081473144531,0.149446067626953,0.0072783730468764,0.326396021582786,0.845713000000615,
-0.290081473144531,0.113533042724609,-0.0142694418945304,0.311834298665158,0.848762999999963,
-0.31641769140625,0.101562034423828,0.033614591308595,0.334013387486208,0.851741000000402,
-0.225438028320312,0.125504051025391,-0.0717302817382794,0.267803668300094,0.854773000000932,
-0.27811046484375,0.108744639404297,0.0072783730468764,0.298703535246884,0.857747000000018,
-0.268533658203125,0.120715647705078,0.00248996972656279,0.294429606422398,0.860719000000245,
-0.325994498046875,0.111138841064453,-0.0741244833984371,0.352304830777367,0.863750000000437,
-0.311629288085937,0.147051865966797,-0.0525766684570304,0.3485704671129,0.866722000000664,
-0.251774246582031,0.173388084228516,-0.0214520468749981,0.306453731107179,0.869752000000517,
-0.23980323828125,0.166205479248047,-0.0597592734374981,0.29782717334727,0.872763000001214,
-0.304446683105469,0.106350437744141,-0.00708683691406087,0.322565375884856,0.875717000000805,
-0.251774246582031,0.149446067626953,-0.0262404501953117,0.293960813030516,0.878773000000365,
-0.273322061523437,0.154234470947266,-0.0262404501953117,0.314931393433962,0.881745000000592,
-0.285293069824219,0.147051865966797,-0.0382114584960931,0.32322825144848,0.88478700000087,
-0.294869876464844,0.115927244384766,0.0072783730468764,0.316923247413702,0.887758000000758,
-0.249380044921875,0.139869260986328,-0.00469263525390495,0.285964749225712,0.890715000001364,
-0.292475674804687,0.130292454345703,0.0575566079101577,0.325316625960015,0.893756000001304,
-0.287687271484375,0.159022874267578,0.0264319863281255,0.329773999302093,0.896742000000813,
-0.290081473144531,0.101562034423828,-0.00469263525390495,0.307382707261867,0.89976900000147,
-0.270927859863281,0.194935899169922,0.0240377846679696,0.334633717857342,0.902759000000515,
-0.2589568515625,0.159022874267578,-0.00469263525390495,0.303922599253676,0.905711999999767,
-0.321206094726562,0.178176487548828,0.0144609780273441,0.367599423136428,0.908774000001358,
-0.275716263183594,0.0895910261230469,0.0288261879882832,0.291336504509203,0.911745000001247,
-0.290081473144531,0.147051865966797,0.0407971962890645,0.327774196011624,0.914872000001196,
-0.246985843261719,0.151840269287109,0.0479798012695323,0.293869929524523,0.917937000000165,
-0.285293069824219,0.147051865966797,-0.0453940634765608,0.324155839023389,0.920982000001459,
-0.302052481445312,0.120715647705078,-0.00229843359374904,0.325289489447649,0.924065000001065,
-0.27811046484375,0.139869260986328,-0.0765186850585931,0.320568167458287,0.927041000000827,
-0.287687271484375,0.137475059326172,0.0120667763671882,0.319075171711549,0.930081000000428,
-0.297264078125,0.120715647705078,0.00967257470703231,0.320985604733025,0.933052000000316,
-0.294869876464844,0.101562034423828,0.0575566079101577,0.317136964097253,0.936029000000417,
-0.299658279785156,0.106350437744141,0.00488417138672048,0.318008420300948,0.939066000000821,
-0.299658279785156,0.170993882568359,-0.0166636435546863,0.345415213237805,0.94204400000126,
-0.290081473144531,0.139869260986328,-0.0453940634765608,0.325224987092746,0.945103000000017,
-0.280504666503906,0.111138841064453,-0.0525766684570304,0.306266250164229,0.948054000000411,
-0.275716263183594,0.139869260986328,-0.0190578452148422,0.309751625366227,0.95111100000031,
-0.299658279785156,0.149446067626953,-0.00229843359374904,0.334864890022743,0.95407300000079,
-0.285293069824219,0.144657664306641,0.00967257470703231,0.320018021732905,0.957089000001361,
-0.282898868164062,0.0848026228027344,-0.0262404501953117,0.296499267569387,0.960127000000284,
-0.294869876464844,0.154234470947266,-0.0166636435546863,0.333187924588051,0.96310799999992,
-0.287687271484375,0.130292454345703,-0.00469263525390495,0.315851405979422,0.966120000000956,
-0.268533658203125,0.161417075927734,-0.0142694418945304,0.313638988266756,0.969098000001395,
-0.304446683105469,0.130292454345703,-0.0214520468749981,0.331849509308777,0.972042000001238,
-0.273322061523437,0.139869260986328,0.0312203896484391,0.30861476344155,0.975100999999995,
-0.2589568515625,0.163811277587891,9.57680664068761e-05,0.306419312067079,0.978069000000687,
-0.285293069824219,0.139869260986328,0.00488417138672048,0.317772561730435,0.981123000001389,
-0.256562649902344,0.108744639404297,-0.0621534750976558,0.285504543555436,0.984089000001404,
-0.282898868164062,0.135080857666016,-0.0238462485351558,0.314399827107927,0.987063000000489,
-0.27811046484375,0.132686656005859,-0.0238462485351558,0.309062813853146,0.990085000001272,
-0.299658279785156,0.125504051025391,0.00967257470703231,0.325022937912151,0.993077000000994,
-0.287687271484375,0.175782285888672,-0.0525766684570304,0.341215011792289,0.996116000000256,
-0.263745254882812,0.163811277587891,0.0814986245117204,0.320994890824572,0.999101000001247,
-0.268533658203125,0.144657664306641,0.00488417138672048,0.305057405353059,1.0020510000013,
-0.321206094726562,0.139869260986328,-0.0717302817382794,0.357605926651956,1.00508500000069,
-0.309235086425781,0.147051865966797,-0.0573650717773422,0.347190641321302,1.00804800000151,
-0.266139456542969,0.161417075927734,-0.0214520468749981,0.312003001660519,1.01111200000014,
-0.280504666503906,0.101562034423828,0.0072783730468764,0.298413621473592,1.01409700000113,
-0.292475674804687,0.125504051025391,-0.0358172568359372,0.320275136505306,1.01704700000118,
-0.287687271484375,0.0967736311035157,-0.0429998618164049,0.306558460929255,1.02008100000057,
-0.309235086425781,0.0943794294433594,-0.0286346518554677,0.324582437395646,1.02305800000067,
