X,Y,Z,Magnitude,Seconds,
-0.0135032973632815,-0.0103429511718751,-0.0174297880859342,0.0243539153186006,0.0,
0.00804451757812485,0.00641646044921873,0.00172382519531666,0.0104334462698169,0.00390500000000316,
0.0248039291992186,0.0159932670898437,-0.0174297880859342,0.0342756036948658,0.00773999999998409,
-0.0422337172851565,0.0255700737304687,-0.0294007963867156,0.05746235615146,0.0115209999999877,
-0.018291700683594,0.0495120903320312,-0.00785298144530877,0.0533638709289888,0.0154499999999871,
0.0176213242187498,-0.0127371528320313,-0.0365834013671833,0.0425569193560959,0.0193819999999789,
-0.0206859023437502,0.0327526787109375,-0.00306457812499694,0.0388591836970526,0.0233460000000036,
-0.00392649072265649,0.00881066210937498,-0.077284829589841,0.0778844655944396,0.027197000000001,
-0.027868507324219,0.0303584770507812,-0.0270065947265596,0.0492711577705202,0.0310340000000053,
-0.00632069238281274,0.0351468803710937,0.0328484467773471,0.0485208698160114,0.0348180000000013,
-0.0111090957031252,0.00162805712890618,-0.060525417968746,0.0615580116446883,0.038708999999983,
0.0056503159179685,0.01838746875,-0.0461602080078087,0.05000789817948,0.0426219999999944,
-0.0398395156250002,0.0566946953124999,-0.0413718046874969,0.080703789904268,0.0465649999999869,
-0.00871489404296899,-0.0103429511718751,0.0113006318359403,0.0176247070050948,0.0504949999999837,
-0.0230801040039065,-0.029496564453125,0.035242648437503,0.0514274516601585,0.0544339999999863,
0.0343807358398436,0.0112048637695312,0.0304542451171912,0.0472762626974766,0.0583330000000046,
-0.00871489404296899,0.0255700737304687,-0.0270065947265596,0.0381986152561375,0.0621569999999849,
-0.0350511123046877,0.0519062919921874,-0.00306457812499694,0.0627075375155034,0.066018999999983,
-0.018291700683594,0.0159932670898437,-0.0270065947265596,0.0363280479083299,0.0699390000000051,
-0.0254743056640627,0.00402225878906243,-0.00306457812499694,0.0259713390859327,0.073853999999983,
-0.0158974990234377,0.0135990654296875,-0.00785298144530877,0.0223457909535887,0.0777070000000037,
0.0056503159179685,0.0159932670898437,0.0256658417968776,0.0307643640812268,0.08167499999999,
0.000861912597656,0.00641646044921873,-0.0677080229492155,0.0680168378397135,0.0857129999999984,
0.000861912597656,0.00162805712890618,-0.0102471831054647,0.0104114468225075,0.0896919999999852,
0.000861912597656,-0.0199197578125001,-0.0509486113281223,0.0547110650682175,0.0935429999999826,
0.00325611425781225,-0.000766144531250068,-0.00306457812499694,0.00453661730663965,0.0975259999999878,
-0.0158974990234377,0.0135990654296875,0.00890643017578441,0.0227374042985836,0.101393000000002,
0.00325611425781225,-0.00794874951171881,0.0663672700195352,0.066920844500842,0.105255999999997,
-0.0326569106445315,0.0327526787109375,-0.0724964262695273,0.0859938579053168,0.109215000000006,
-0.00392649072265649,0.00402225878906243,0.035242648437503,0.0356880955509079,0.11310499999999,
0.0319865341796873,0.0135990654296875,0.00651222851562849,0.035362155896226,0.117051000000004,
-0.0230801040039065,0.00402225878906243,-0.0102471831054647,0.0255709704194864,0.12097799999998,
-0.0398395156250002,0.0159932670898437,-0.0413718046874969,0.0596204480068886,0.124908000000005,
-0.0470221206054689,0.027964275390625,-0.038977603027341,0.0671739090876433,0.128748000000002,
-0.00632069238281274,0.0112048637695312,0.0280600434570353,0.0308685303035731,0.132578999999993,
-0.0254743056640627,0.0351468803710937,0.00651222851562849,0.0438936506698387,0.136396999999988,
-0.0111090957031252,0.0351468803710937,0.0328484467773471,0.0493734307380536,0.140267999999992,
-0.0494163222656252,0.0255700737304687,-0.0174297880859342,0.0583060810684641,0.144130999999987,
-0.00153228906250025,0.0495120903320312,0.0184832368164098,0.052871779259164,0.148089999999996,
-0.00632069238281274,0.00162805712890618,-0.0485544096679646,0.04899114634725,0.152118999999999,
-0.027868507324219,-0.0175255561523438,-0.0341891997070274,0.0474626189283314,0.155912000000001,
-0.00153228906250025,0.0135990654296875,-0.0270065947265596,0.0302760408418376,0.159858999999983,
0.0152271225585936,0.0351468803710937,-0.022218191406246,0.0442811076035705,0.163730999999984,
0.0271981308593748,0.0135990654296875,-0.0294007963867156,0.04229751447754,0.167570999999981,
0.0271981308593748,0.0255700737304687,-0.0174297880859342,0.0411990837949809,0.171514999999999,
-0.0302627089843752,0.0447236870117187,-0.0270065947265596,0.060377113989655,0.175427999999982,
-0.0111090957031252,-0.00316034619140632,-0.00785298144530877,0.0139667144658683,0.179253999999986,
0.0176213242187498,0.0231758720703125,0.0448194550781285,0.053445445708144,0.183154000000002,
-0.0254743056640627,0.01838746875,-0.0748906279296833,0.0812135789618988,0.187063999999992,
-0.0254743056640627,0.0207816704101562,-0.0844674345703087,0.0906397571543075,0.190927999999985,
-0.0350511123046877,-0.0175255561523438,0.0208774384765658,0.0444026241295216,0.194846999999982,
-0.00153228906250025,0.0255700737304687,-0.038977603027341,0.0466415063876548,0.198712999999998,
0.00804451757812485,0.0255700737304687,-0.0126413847656224,0.0296369286944325,0.202550000000002,
-0.0446279189453127,-0.000766144531250068,-0.060525417968746,0.0752034862697439,0.206430999999981,
-0.00153228906250025,0.0231758720703125,-0.0437660063476528,0.049547273059305,0.210329999999999,
-0.00153228906250025,-0.00316034619140632,-0.0317949980468715,0.0319883978751852,0.214157,
0.0176213242187498,0.0135990654296875,-0.0341891997070274,0.0407964094546349,0.218137999999982,
-0.0206859023437502,-0.00316034619140632,-0.0461602080078087,0.0506819410357267,0.222188999999986,
0.0128329208984373,0.0231758720703125,-0.0102471831054647,0.0284043951986653,0.226238999999993,
0.000861912597656,0.0207816704101562,-0.0126413847656224,0.0243397889710422,0.230188999999996,
-0.0230801040039065,0.01838746875,0.0160890351562539,0.0336102255291829,0.234125000000006,
0.000861912597656,0.0112048637695312,0.013694833496098,0.017715539221418,0.238028999999983,
-0.027868507324219,0.0590888969726562,0.0184832368164098,0.0678953716326578,0.241990999999985,
-0.0158974990234377,0.0207816704101562,-0.0341891997070274,0.0430524061678737,0.245983999999993,
0.0056503159179685,-0.0271023627929688,0.00651222851562849,0.028440697234321,0.249897000000004,
-0.0518105239257815,0.0495120903320312,0.0160890351562539,0.0734481758164923,0.253899999999987,
-0.0326569106445315,0.0495120903320312,-0.00545877978515286,0.0595627331360384,0.257870999999994,
-0.00632069238281274,-0.00794874951171881,-0.00306457812499694,0.0106077994929395,0.261739000000006,
-0.0302627089843752,-0.0103429511718751,0.0184832368164098,0.0369383031178784,0.265550999999988,
0.0128329208984373,0.0327526787109375,-0.0533428129882783,0.0638973983745025,0.269511999999992,
-0.0470221206054689,0.00641646044921873,-0.0294007963867156,0.0558270330494534,0.273398999999984,
-0.0111090957031252,0.01838746875,0.00172382519531666,0.0215518581026655,0.277302999999989,
0.0128329208984373,0.0112048637695312,-0.108409451171871,0.109739883061108,0.281193999999999,
0.0200155258789061,0.0159932670898437,-0.0820732329101528,0.0859791918358182,0.285174999999981,
-0.00871489404296899,0.00162805712890618,-0.0317949980468715,0.033007905855957,0.289234999999991,
-0.0326569106445315,0.0135990654296875,-0.0126413847656224,0.0375661150799273,0.293129999999991,
0.0104387192382811,-0.029496564453125,0.00890643017578441,0.0325321175509548,0.297139999999985,
0.0056503159179685,0.0135990654296875,-0.0294007963867156,0.0328826318701359,0.301021999999989,
-0.00632069238281274,0.00881066210937498,-0.0246123930664037,0.0268951447562359,0.882109999999983,
-0.382210353027344,0.320056877929688,1.3161405366211,1.4073901631064,0.886494999999996,
-0.00153228906250025,-1.82275360791016,-0.371771633789059,1.86028148696627,0.890244999999993,
-0.243346656738281,-1.22420319287109,-1.45155658251953,1.91439482997559,0.893133000000006,
-0.0733583388671877,-0.290464545410156,-2.10756783740234,2.12875392830512,0.89602499999998,
-0.1547611953125,1.11014342578125,-0.647104824707029,1.29426199339199,0.899030999999979,
-0.161943800292969,0.528352422363281,0.42070911572266,0.694534546817233,0.901963999999992,
0.996849803222656,-0.371867401855469,2.24987918408203,2.48876500250896,0.904955000000001,
0.6496905625,-0.106111017578125,1.46458103955078,1.60572569153784,0.907880000000006,
-0.0829351455078127,0.858752251464844,-0.51781793505859,1.0062152262934,0.910764999999998,
-0.037445313964844,0.935366704589844,-1.66464053027343,1.90980132962102,0.913752999999986,
0.367174766601562,0.559477043945313,-1.41324935595703,1.56368334839367,0.916683000000006,
0.3815399765625,0.604966875488281,0.332123654296879,0.788583410868425,0.919696999999985,
-0.147578590332031,0.923395696289063,1.44303322460938,1.71953015081914,0.922605000000004,
-0.169126405273438,0.657639312011719,1.17727684033203,1.35907099315898,0.925502999999992,
0.130148802246094,0.188375786621094,0.073549875000003,0.240486448316167,0.928507999999994,
-0.161943800292969,0.0519062919921874,-0.939197427246091,0.954469415407002,0.931405999999981,
-0.418123377929688,0.0231758720703125,-0.963139443847654,1.05023895781518,0.934382999999997,
-0.3079901015625,-0.328771771972656,-0.223331130859371,0.502817635646807,0.937275999999997,
-0.140395985351563,-0.616075971191406,0.298604831054691,0.698874438015493,0.940190999999999,
-0.0254743056640627,-0.699873029296875,0.753503146484379,1.02870704729194,0.943174999999997,
-0.161943800292969,-0.584951349609375,0.320152645996098,0.686215412681369,0.946110000000004,
-0.171520606933594,-0.53706731640625,-0.321493398925778,0.64901357960179,0.949108999999993,
-0.0254743056640627,-0.5562209296875,-0.836246755859372,1.00465879758096,0.952033,
0.0224097275390623,-0.513125299804688,-0.577672976562496,0.772985017344191,0.955049000000002,
0.00804451757812485,-0.276099335449219,0.0759440766601589,0.286466507777662,0.958001999999993,
0.0248039291992186,-0.127658832519531,0.518871383789065,0.534920111174696,0.961018999999993,
0.173244432128906,-0.029496564453125,0.456622140625003,0.489272378013683,0.964125999999993,
0.13254300390625,0.174010576660156,0.0280600434570353,0.220532752018613,0.967166999999989,
0.0463517441406248,0.423007549316406,-0.355012222167966,0.554181873442453,0.970196999999985,
0.0535343491210936,0.470891582519531,-0.256849954101559,0.539051674652385,0.973144999999988,
0.137331407226562,0.45892057421875,0.0400310517578166,0.480697923811755,0.976080999999994,
0.0439575424804686,0.475679985839844,0.437468527343754,0.647751825073329,0.97912599999998,
-0.0398395156250002,0.449343767578125,0.298604831054691,0.540982304327729,0.982058999999992,
-0.0757525405273439,0.303297466308594,-0.00785298144530877,0.312713079008761,0.985043999999988,
-0.0733583388671877,0.157251165039062,-0.273609365722653,0.323992993440673,0.987961999999982,
-0.152366993652344,0.0447236870117187,-0.252061550781246,0.297910950313717,0.990871999999996,
-0.197856825195313,-0.0510443793945313,0.0304542451171912,0.206592141645803,0.993855999999994,
-0.133213380371094,-0.211455890625,0.116645504882817,0.275799877083499,0.996791000000002,
-0.0757525405273439,-0.338348578613281,0.0903092866210979,0.358293141569841,0.999808000000002,
-0.0565989272460939,-0.292858747070313,-0.077284829589841,0.308127618343005,1.00270499999999,
0.00325611425781225,-0.292858747070313,-0.237696340820309,0.377195438009287,1.005596,
0.0990241806640623,-0.256945722167969,-0.199389114257809,0.339974868749326,1.00858099999999,
0.125360398925781,-0.235397907226563,-0.0557370146484342,0.272459206391335,1.011492,
0.108600987304687,-0.11568782421875,0.109462899902347,0.192769223609612,1.014488,
0.161273423828125,-0.0151313544921876,0.157346933105472,0.225823232816538,1.017403,
0.103812583984375,0.0543004936523437,-0.0174297880859342,0.118445741658878,1.02033799999998,
0.087053172363281,0.145280156738281,-0.077284829589841,0.186165312679729,1.02336399999999,
0.0295923325195311,0.195558391601563,-0.113197854492183,0.227887132000405,1.02631499999998,
-0.0350511123046877,0.257807634765625,-0.038977603027341,0.263082896735988,1.02929899999998,
-0.0326569106445315,0.262596038085937,0.123828109863284,0.292158439589873,1.032228,
-0.0470221206054689,0.245836626464844,0.128616513183598,0.281405284600977,1.035135,
-0.118848170410156,0.207529399902344,-0.038977603027341,0.242306815775837,1.03811099999999,
-0.157155396972656,0.116549736816406,-0.156293484374997,0.250418276504899,1.04102699999999,
-0.159549598632813,0.0782425102539062,-0.10362104785156,0.205706797147249,1.044017,
-0.1547611953125,0.00641646044921873,-0.0413718046874969,0.160324124081033,1.046931,
-0.149972791992188,0.241048223144531,0.782233566406253,0.832157098528705,1.04991200000001,
-0.425305982910156,-0.719026642578125,1.08390297558594,1.36847731158408,1.05282299999999,
-0.195462623535156,-1.99992453076172,-0.69738305957031,2.12702771437454,1.05571599999999,
-0.353479933105469,-0.934504791992188,-0.790756924316403,1.27418357496828,1.05870099999999,
-0.48037262109375,-0.496365888183594,-2.17221128222656,2.27939439428132,1.061623,
0.252253086914062,-0.266522528808594,-0.778785916015622,0.86091427053133,1.06462299999998,
0.601806529296875,0.214712004882812,0.98813490917969,1.17672551705345,1.06769199999999,
0.685603587402344,0.102184526855469,1.5459838959961,1.69427275350426,1.07072199999999,
0.726305015625,0.291326458007813,1.07672037060547,1.3310585401605,1.07383099999998,
0.424635606445312,0.719888555175781,-0.189812307617185,0.857078550809208,1.076784,
0.297742918457031,0.882694268066406,-1.25283784472656,1.56121833244031,1.079802,
0.283377708496094,0.959308721191406,-0.872159780761715,1.32711673616329,1.082762,
0.00804451757812485,1.0526825859375,0.131010714843754,1.06083417573295,1.08569900000001,
-0.0589931289062502,0.8228392265625,0.978558102539067,1.27989083209193,1.08876599999999,
-0.140395985351563,0.619332085449219,1.00489432080079,1.18873708646924,1.091702,
-0.415729176269531,0.3631525078125,0.114251303222659,0.56370546584216,1.094719,
-0.530650855957032,0.0686657036132812,-0.584855581542966,0.792692475707066,1.097678,
-0.525862452636719,-0.266522528808594,-0.752449697753903,0.95590068788843,1.100583,
-0.511497242675782,-0.448481854980469,-0.355012222167966,0.767332445163299,1.10363599999999,
-0.310384303222656,-0.592133954589844,0.272268612792972,0.721866492765408,1.106618,
-0.181097413574219,-0.666354206054688,0.403949704101565,0.799999727858571,1.10966099999999,
-0.0230801040039065,-0.719026642578125,0.138193319824222,0.732549928388531,1.112596,
0.110995188964844,-0.568191937988281,-0.278397769042966,0.642391880534243,1.115555,
0.19000384375,-0.448481854980469,-0.54415415332031,0.730302113828407,1.11861399999998,
0.314502330078125,-0.26891673046875,-0.297551382324215,0.509671216249872,1.12156099999999,
0.331261741699219,-0.0462559760742188,0.073549875000003,0.342466846495678,1.12458899999999,
0.352809556640625,0.169222173339844,0.34409466259766,0.521068003273097,1.127555,
0.32407913671875,0.377517717773437,0.320152645996098,0.591645697041344,1.13047799999998,
0.178032835449219,0.463708977539063,0.111857101562503,0.509149995107901,1.13348199999999,
0.130148802246094,0.542717632324219,-0.213754324218746,0.597638728902262,1.13642999999999,
-0.0853293471679689,0.533140825683594,-0.199389114257809,0.5755660312972,1.13944699999999,
-0.0996945571289065,0.511593010742188,-0.0509486113281223,0.523700462437879,1.14235199999999,
-0.185885816894531,0.49722780078125,0.131010714843754,0.54676579098932,1.145354,
-0.245740858398438,0.334422087890625,0.193259958007816,0.457794838027592,1.14827099999999,
-0.317566908203125,0.178798979980469,0.0807324799804725,0.373276773656687,1.151184,
-0.298413294921875,0.0135990654296875,-0.122774661132809,0.322969110880541,1.154167,
-0.219404640136719,-0.156389252441406,-0.216148525878904,0.345421741690253,1.157083,
-0.142790187011719,-0.271310932128906,-0.122774661132809,0.330260922326232,1.160065,
-0.0111090957031252,-0.321589166992188,-0.060525417968746,0.327423778236037,1.16298799999998,
0.0726879624023435,-0.331165973632813,0.073549875000003,0.346935190032503,1.16591699999998,
0.161273423828125,-0.340742780273438,-0.000670376464841027,0.376981709034169,1.16892300000001,
0.225916868652344,-0.278493537109375,-0.0509486113281223,0.362205525564748,1.171853,
0.245070481933594,-0.180331269042969,-0.144322476074215,0.336760871851235,1.17486099999999,
0.261829893554687,-0.106111017578125,-0.0796790312499969,0.293535669436036,1.17777799999999,
0.230705271972656,-0.0151313544921876,-0.000670376464841027,0.231201924320171,1.18068700000001,
0.149302415527344,0.0686657036132812,0.0615788666992216,0.175494008327826,1.183705,
0.0726879624023435,0.15246276171875,0.0232716401367217,0.170499275141468,1.18663599999999,
0.0176213242187498,0.221894609863281,0.013694833496098,0.223014074484293,1.18965,
-0.0494163222656252,0.221894609863281,-0.0317949980468715,0.229543269762889,1.19255899999999,
-0.114059767089844,0.255413433105469,-0.0294007963867156,0.28126510467437,1.19546399999999,
-0.178703211914063,0.231471416503906,-0.000670376464841027,0.292428288664643,1.198453,
-0.209827833496094,0.169222173339844,-0.0461602080078087,0.273486066304755,1.20137599999998,
-0.217010438476563,0.106972930175781,-0.0150355864257783,0.242410410373296,1.20440399999998,
-0.183491615234375,0.0973961235351562,-0.0724964262695273,0.220024793063983,1.20742300000001,
-0.118848170410156,0.0566946953124999,-0.0892558378906223,0.159077907592399,1.210407,
-0.0925119521484377,-0.0223139594726563,-0.0150355864257783,0.0963454354748019,1.21347499999999,
-0.0446279189453127,-0.0558327827148438,-0.0198239897460901,0.0741750722583096,1.216374,
0.0726879624023435,-0.0462559760742188,0.013694833496098,0.08723934700162,1.21937299999999,
0.0798705673828123,-0.0462559760742188,0.00411802685547258,0.0923898317014024,1.22230299999998,
0.163667625488281,-0.0701979926757813,-0.0365834013671833,0.181805376884936,1.22521399999999,
0.197186448730469,-0.000766144531250068,-0.0485544096679646,0.203077850191942,1.228219,
0.130148802246094,-0.00555454785156256,-0.0485544096679646,0.139021920667687,1.23113899999998,
0.144514012207031,0.0399352836914062,0.013694833496098,0.150554558456969,1.234173,
0.0631111557617186,0.027964275390625,0.0160890351562539,0.0708793039748684,1.237123,
0.0128329208984373,0.01838746875,-0.0174297880859342,0.0284003587748174,1.24013199999999,
-0.00871489404296899,0.03754108203125,-0.038977603027341,0.0548136457099343,1.24305799999999,
-0.0805409438476564,0.0495120903320312,0.0543962617187539,0.109074488373284,1.246005,
-0.0781467421875002,-0.029496564453125,-0.0701022246093714,0.109047157341399,1.24900399999999,
-0.126030775390625,-0.0318907661132813,-0.0581312163085901,0.142407919788087,1.251912,
-0.145184388671875,-0.0630153876953126,-0.0198239897460901,0.159506853676793,1.25486899999999,
-0.037445313964844,-0.0558327827148438,-0.0653138212890596,0.0937301787845725,1.257769,
-0.0901177504882814,0.0782425102539062,-0.0844674345703087,0.14621165092697,1.260671,
-0.0565989272460939,0.123732341796875,0.119039706542972,0.180786013578994,1.263677,
0.0104387192382811,0.0471178886718749,0.0567904633789098,0.074526632977897,1.266616,
-0.0565989272460939,0.0566946953124999,-0.00785298144530877,0.0804946977108816,1.26961,
-0.0422337172851565,0.0806367119140625,-0.0437660063476528,0.101002126193743,1.27252999999999,
-0.0925119521484377,0.0566946953124999,-0.127563064453122,0.167466668861489,1.27544699999999,
-0.0206859023437502,0.0207816704101562,-0.0892558378906223,0.0939488636353233,1.278435,
-0.0302627089843752,-0.0701979926757813,-0.0413718046874969,0.0869207452446332,1.28132399999998,
-0.0589931289062502,-0.0438617744140625,0.035242648437503,0.0815235474068014,1.28431,
-0.018291700683594,-0.0582269843750001,0.0232716401367217,0.0653187358876285,1.28722299999998,
0.0463517441406248,-0.0941400092773438,-0.038977603027341,0.111937835736507,1.290122,
0.0176213242187498,-0.086957404296875,-0.156293484374997,0.179721324520352,1.29312199999998,
0.0128329208984373,0.0327526787109375,-0.220936929199215,0.223719799091423,1.29605899999999,
0.0511401474609373,0.0519062919921874,0.142981723144535,0.160478506299396,1.29909799999999,
0.13254300390625,-0.106111017578125,0.0232716401367217,0.171373175178061,1.30204899999998,
-0.0494163222656252,0.0950019218749999,0.0256658417968776,0.11011845213835,1.30496199999999,
-0.2313756484375,0.219500408203125,-0.0748906279296833,0.327603000662257,1.307954,
-0.128424977050781,0.150068560058594,-0.0796790312499969,0.212984261083986,1.31088,
0.0128329208984373,-0.03907337109375,-0.00785298144530877,0.0418698161566995,1.31386799999999,
-0.0853293471679689,0.111761333496094,0.0472136567382844,0.148326742482728,1.31680900000001,
-0.178703211914063,0.193164189941406,-0.120380459472653,0.289376393727908,1.31971199999998,
-0.00392649072265649,0.027964275390625,-0.139534072753904,0.142362830425675,1.3227,
0.00804451757812485,0.11415553515625,-0.0317949980468715,0.118773407674762,1.32564299999999,
-0.197856825195313,0.150068560058594,-0.110803652832027,0.271928934604887,1.32863899999998,
-0.245740858398438,0.181193181640625,-0.175447097656246,0.352138073254588,1.33155499999998,
0.101418382324219,0.0207816704101562,0.17171214306641,0.200505925535274,1.334563,
0.156485020507812,-0.182725470703125,0.0160890351562539,0.241112041049941,1.337479,
0.0559285507812498,-0.0749863959960938,0.0424252534179725,0.102717401176982,1.34039099999998,
0.110995188964844,-0.182725470703125,-0.00306457812499694,0.213817495205851,1.34346499999998,
0.0607169541015623,0.0135990654296875,0.0687614716796912,0.0927341527350583,1.34650600000001,
0.0224097275390623,-0.125264630859375,0.0113006318359403,0.127754169844283,1.34957900000001,
-0.126030775390625,0.0830309135742187,0.135799118164066,0.203025341887828,1.35255899999999,
-0.121242372070313,0.214712004882812,0.0615788666992216,0.254151361692188,1.355468,
-0.0542047255859377,0.0399352836914062,-0.264032559082027,0.272481506555517,1.35845599999999,
-0.202645228515625,0.171616375,-0.17305289599609,0.31696147024666,1.36137199999999,
-0.0158974990234377,0.0950019218749999,0.358459872558598,0.371175936544747,1.364408,
-0.0326569106445315,0.0566946953124999,0.140587521484379,0.155066480860768,1.36732899999998,
-0.159549598632813,0.154856963378906,-0.0294007963867156,0.224279201797671,1.37024599999998,
-0.0829351455078127,0.169222173339844,-0.0557370146484342,0.196522256022523,1.37324799999999,
-0.166732203613281,0.178798979980469,-0.285580374023434,0.37593197920789,1.376182,
-0.219404640136719,0.233865618164062,-0.0413718046874969,0.323331331138637,1.379199,
0.0487459458007811,-0.0103429511718751,0.24832659619141,0.253277006944902,1.38213299999998,
-0.240952455078125,0.183587383300781,-0.158687686035153,0.341971043532336,1.38507899999999,
-0.0733583388671877,0.166827971679687,-0.0509486113281223,0.18923207712324,1.38809000000001,
0.269012498535156,-0.221032697265625,0.0687614716796912,0.354896206821377,1.39102599999998,
-0.00153228906250025,-0.0821690009765625,0.0208774384765658,0.0847936322408716,1.394025,
-0.219404640136719,0.102184526855469,-0.000670376464841027,0.242034136118862,1.39694599999999,
0.0607169541015623,-0.163571857421875,0.0591846650390657,0.184242030035494,1.39986399999998,
0.175638633789062,-0.177937067382813,0.0448194550781285,0.254006521927261,1.402863,
-0.0733583388671877,0.0614830986328125,-0.194600710937497,0.216866442761955,1.40578199999999,
0.0176213242187498,-0.199484882324219,-0.14192827441406,0.245455422472762,1.40876799999998,
-0.00632069238281274,-0.0606211860351563,0.0184832368164098,0.0636907323848507,1.41168099999999,
-0.0589931289062502,0.116549736816406,-0.0916500395507782,0.159573682541271,1.41460999999998,
-0.0350511123046877,0.027964275390625,-0.0198239897460901,0.0490262352355515,1.417598,
-0.0135032973632815,-0.029496564453125,0.0472136567382844,0.057284515681108,1.42050399999999,
-0.0637815322265627,0.0973961235351562,-0.0796790312499969,0.141077414045557,1.423498,
-0.209827833496094,0.183587383300781,-0.450780288574215,0.530032938206622,1.426423,
-0.451642201171875,0.602572673828125,-0.388531045410152,0.847367026955415,1.42940099999998,
0.144514012207031,-0.271310932128906,0.712801718261723,0.776260401652496,1.432334,
0.333655943359375,0.0471178886718749,1.26825650341797,1.31225795575181,1.43526,
0.252253086914062,-0.400597821777344,-0.161081887695309,0.500057605895471,1.43827199999998,
0.266618296875,-0.482000678222656,-0.680623647949215,0.875590383788746,1.44122299999998,
0.283377708496094,-0.163571857421875,-0.785968520996091,0.851354916712015,1.44419399999998,
0.235493675292969,-0.130053034179688,-0.0150355864257783,0.269438548952261,1.447126,
0.0176213242187498,-0.086957404296875,0.384796090820316,0.394892558476188,1.450042,
0.0343807358398436,0.0997903251953124,0.526053988769535,0.53653792326341,1.45306600000001,
-0.123636573730469,-0.505942694824219,-0.886524990722654,1.02819773000411,1.455985,
0.19000384375,0.281749651367187,-0.0916500395507782,0.351971669932347,1.45900399999999,
-0.238558253417969,-0.120476227539063,-0.168264492675778,0.315812446194435,1.46191099999999,
-0.111665565429688,-0.132447235839844,-0.280791970703122,0.329932719801614,1.46478999999999,
0.0702937607421873,-0.086957404296875,0.0113006318359403,0.112385529501006,1.46779699999999,
0.175638633789062,-0.283281940429688,-0.194600710937497,0.385962464690903,1.470707,
0.0104387192382811,0.0255700737304687,0.0232716401367217,0.0361159904276532,1.473727,
-0.138001783691406,0.0543004936523437,-0.00545877978515286,0.148400923816669,1.476643,
-0.197856825195313,0.262596038085937,-0.0820732329101528,0.338880536553995,1.47957700000001,
-0.00871489404296899,0.157251165039062,0.119039706542972,0.197419173380297,1.48267300000001,
-0.140395985351563,0.734253765136719,0.351277267578128,0.825975388881194,1.48568499999999,
-0.114059767089844,0.0806367119140625,-0.098832644531246,0.171113416779458,1.488775,
0.0535343491210936,0.147674358398437,-0.113197854492183,0.193616623578253,1.491726,
-0.0637815322265627,0.291326458007813,-0.161081887695309,0.338949204943794,1.49463799999998,
0.223522666992187,-0.132447235839844,0.229172982910161,0.346446112746061,1.497637,
0.077476365722656,0.0207816704101562,0.116645504882817,0.141564963461989,1.50060099999999,
0.199580650390625,-0.34553118359375,-0.132351467773434,0.42040592986758,1.503603,
0.333655943359375,-0.316800763671875,-0.17305289599609,0.491565170872338,1.50651199999999,
0.20915745703125,-0.328771771972656,-0.0365834013671833,0.391377139257535,1.50942799999999,
0.0631111557617186,-0.338348578613281,-0.106015249511715,0.360141655130643,1.512417,
0.134937205566406,-0.321589166992188,0.0615788666992216,0.354146295472309,1.515355,
0.0439575424804686,-0.252157318847656,0.0304542451171912,0.257765474870121,1.518373,
-0.118848170410156,-0.0486501777343751,-0.0557370146484342,0.139994079179613,1.521297,
-0.147578590332031,-0.0701979926757813,-0.0653138212890596,0.175991743418485,1.52428899999998,
-0.171520606933594,0.111761333496094,0.0184832368164098,0.205551804445753,1.527218,
-0.252923463378906,0.279355449707031,-0.17305289599609,0.414677043518486,1.530125,
-0.205039430175782,0.346393096191406,0.0160890351562539,0.402850098756519,1.533141,
-0.0733583388671877,0.348787297851562,0.226778781250003,0.422448388148404,1.53607099999999,
-0.159549598632813,0.49722780078125,0.27945121777344,0.592270667354638,1.53906499999999,
0.0583227524414061,0.221894609863281,-0.0533428129882783,0.235550879930901,1.54200399999999,
0.106206785644531,0.145280156738281,-0.180235500976559,0.254697940845846,1.54493099999999,
0.101418382324219,0.193164189941406,-0.098832644531246,0.239511970836576,1.54795899999999,
0.13254300390625,0.0159932670898437,-0.0581312163085901,0.145611369014289,1.55091299999998,
0.113389390625,0.0399352836914062,0.0424252534179725,0.127482873035561,1.55393899999999,
0.142119810546875,-0.11568782421875,0.142981723144535,0.232433832252812,1.556859,
-0.0685699355468752,-0.0342849677734375,-0.0748906279296833,0.107172296923368,1.55974699999999,
-0.0996945571289065,-0.297647150390625,-0.254455752441404,0.40407989408941,1.56272799999999,
-0.0853293471679689,-0.086957404296875,-0.165870291015622,0.205804861681568,1.56563499999999,
-0.197856825195313,0.0423294853515625,0.0639730683593775,0.212206649475954,1.56864299999998,
-0.00871489404296899,-0.369473200195313,0.0974918916015657,0.38221860756483,1.57154699999998,
-0.13560758203125,-0.161177655761719,-0.0461602080078087,0.215634917915744,1.574422,
-0.159549598632813,-0.0725921943359376,-0.24966734912109,0.30505652971138,1.577416,
0.0271981308593748,-0.00316034619140632,-0.144322476074215,0.146896913549896,1.58032599999999,
-0.142790187011719,0.0159932670898437,-0.108409451171871,0.17999286430977,1.583326,
-0.109271363769532,0.188375786621094,0.107068698242191,0.24267132930869,1.58625499999999,
-0.0422337172851565,0.375123516113281,0.401555502441409,0.551133523529359,1.58916499999998,
0.108600987304687,0.0782425102539062,0.128616513183598,0.185629395080338,1.592185,
0.0631111557617186,0.185981584960938,-0.0174297880859342,0.197169889787672,1.59512599999999,
