X,Y,Z,Magnitude,Seconds,
-0.939245311279297,0.156245600341797,0.000670376464846356,0.95215276704472,0.0,
-0.900938084716797,0.180187616943359,0.0294007963867209,0.919250464574846,0.00375599999999565,
-0.88657287475586,0.156245600341797,0.0317949980468768,0.900796909286349,0.00751900000000205,
-0.946427916259766,0.146668793701172,0.0365834013671886,0.958423643790757,0.011573999999996,
-0.912909093017578,0.161034003662109,0.0126413847656277,0.927089406183901,0.015513999999996,
-0.92488010131836,0.129909382080078,-0.0328484467773418,0.934536606999839,0.0192890000000006,
-0.922485899658203,0.168216608642578,0.0174297880859395,0.937859722988537,0.023099000000002,
-0.915303294677735,0.170610810302734,0.0437660063476581,0.932096364734728,0.0268899999999945,
-0.939245311279297,0.180187616943359,0.027006594726565,0.956754246511922,0.0307479999999885,
-0.929668504638672,0.204129633544922,0.0150355864257836,0.951934086304013,0.0346490000000017,
-0.936851109619141,0.103573163818359,0.0701022246093768,0.945162273767391,0.0384759999999886,
-0.908120689697266,0.165822406982422,0.0294007963867209,0.92360417092056,0.0422760000000011,
-0.946427916259766,0.173005011962891,-0.00172382519531133,0.962112003050261,0.0460750000000019,
-0.934456907958985,0.137091987060547,0.00306457812500227,0.944464566507161,0.0498849999999891,
-0.915303294677735,0.163428205322266,0.0389776030273463,0.930595590512082,0.0536619999999886,
-0.903332286376953,0.204129633544922,0.0461602080078141,0.927258805137769,0.0575259999999957,
-0.975158336181641,0.206523835205078,0.00545877978515819,0.996802725422189,0.061323999999999,
-0.898543883056641,0.165822406982422,0.0078529814453141,0.913750430781584,0.0651049999999884,
-0.898543883056641,0.163428205322266,0.0581312163085954,0.915133392671735,0.0688710000000015,
-0.88657287475586,0.168216608642578,0.062919619628909,0.904581211506367,0.0726389999999952,
-0.946427916259766,0.173005011962891,0.0126413847656277,0.962193504160611,0.0763939999999934,
-0.896149681396485,0.177793415283203,0.000670376464846356,0.913616549428529,0.0802089999999964,
-0.90572648803711,0.165822406982422,0.0940442412109395,0.925571099967162,0.0843359999999933,
-0.910514891357422,0.146668793701172,0.0174297880859395,0.922416879692743,0.08817599999999,
-0.900938084716797,0.120332575439453,0.0868616362304699,0.913079572136896,0.0919799999999924,
-0.948822117919922,0.168216608642578,0.0078529814453141,0.963650303893916,0.0958289999999948,
-0.939245311279297,0.161034003662109,0.0701022246093768,0.955525000714673,0.0996849999999938,
-0.939245311279297,0.156245600341797,0.0246123930664091,0.952470583419125,0.103567999999996,
-0.915303294677735,0.175399213623047,-0.0232716401367163,0.932248129320811,0.107458999999992,
-0.948822117919922,0.149062995361328,0.0246123930664091,0.960775185947573,0.111328,
-0.912909093017578,0.151457197021484,0.0317949980468768,0.925933699864403,0.115184999999997,
-0.922485899658203,0.161034003662109,0.0461602080078141,0.937572903942396,0.119036999999992,
-0.939245311279297,0.158639802001953,-0.0184832368164045,0.952727648167394,0.122845999999996,
-0.939245311279297,0.156245600341797,-0.0543962617187486,0.953705088418473,0.126627999999997,
-0.946427916259766,0.153851398681641,-0.011300631835935,0.958918014134676,0.130407999999989,
-0.927274302978516,0.208918036865234,-0.0232716401367163,0.95080279150125,0.134293,
-0.915303294677735,0.161034003662109,0.00545877978515819,0.929377140809966,0.138059999999996,
-0.893755479736328,0.175399213623047,-0.0136948334960927,0.910906850431362,0.141813999999997,
-0.912909093017578,0.194552826904297,-0.011300631835935,0.933478183382195,0.145548999999988,
-0.939245311279297,0.153851398681641,-0.0184832368164045,0.951942034831771,0.149299999999997,
-0.927274302978516,0.156245600341797,0.027006594726565,0.940733584363387,0.153199999999998,
-0.932062706298828,0.170610810302734,0.0389776030273463,0.948350246798623,0.157246999999998,
-0.94403371459961,0.156245600341797,-0.00411802685546725,0.956885207364022,0.161045000000001,
-0.917697496337891,0.158639802001953,0.0222181914062514,0.931573362432298,0.164857999999995,
-0.932062706298828,0.156245600341797,-0.0376368500976536,0.945817164458617,0.168632000000002,
-0.932062706298828,0.156245600341797,0.0653138212890649,0.947322263725837,0.172483,
-0.932062706298828,0.151457197021484,0.0246123930664091,0.944608882498548,0.176332000000002,
-0.934456907958985,0.144274592041016,-0.00411802685546725,0.945537851641091,0.180183999999997,
-0.932062706298828,0.144274592041016,0.0461602080078141,0.944291698144711,0.18398599999999,
-0.881784471435547,0.173005011962891,-0.0448194550781231,0.899712938543537,0.187775000000002,
-0.912909093017578,0.163428205322266,0.0701022246093768,0.930067799842688,0.191569999999999,
-0.946427916259766,0.151457197021484,0.0341891997070327,0.95907975923904,0.195331999999993,
-0.934456907958985,0.158639802001953,0.0222181914062514,0.948087521086977,0.199091999999993,
-0.932062706298828,0.184976020263672,-0.0136948334960927,0.950339184191712,0.202862999999994,
-0.920091697998047,0.194552826904297,0.0581312163085954,0.942230743231667,0.206738999999999,
-0.903332286376953,0.122726777099609,-0.00172382519531133,0.91163263050506,0.210500999999994,
-0.941639512939453,0.180187616943359,0.0437660063476581,0.959722883409686,0.214275000000001,
-0.939245311279297,0.141880390380859,0.0150355864257836,0.950019930735106,0.218023000000002,
-0.929668504638672,0.144274592041016,0.0341891997070327,0.941417860358679,0.221792999999991,
-0.908120689697266,0.146668793701172,0.0246123930664091,0.920217741621216,0.225763999999998,
-0.927274302978516,0.161034003662109,-0.0376368500976536,0.941905576894528,0.229709,
-0.908120689697266,0.144274592041016,0.0533428129882836,0.921055807572127,0.233538999999993,
-0.941639512939453,0.153851398681641,0.0724964262695327,0.956875622548198,0.237347999999997,
-0.92488010131836,0.192158625244141,0.0078529814453141,0.944663859998866,0.241130999999996,
-0.915303294677735,0.182581818603516,-0.0136948334960927,0.933436548565016,0.244970999999993,
-0.879390269775391,0.153851398681641,0.0317949980468768,0.893313170927605,0.248780999999994,
-0.948822117919922,0.225677448486328,0.0461602080078141,0.976383370921827,0.25258199999999,
-0.891361278076172,0.151457197021484,0.0246123930664091,0.904472211002443,0.256509999999992,
-0.898543883056641,0.163428205322266,-0.011300631835935,0.913355129373703,0.260323999999997,
-0.917697496337891,0.158639802001953,0.0437660063476581,0.932336175891333,0.264129999999994,
-0.932062706298828,0.151457197021484,-0.0280600434570299,0.944705000008739,0.267893999999998,
-0.891361278076172,0.161034003662109,0.027006594726565,0.906193265560808,0.271716999999995,
-0.956004722900391,0.194552826904297,0.0246123930664091,0.975910652957924,0.275498999999996,
-0.92488010131836,0.122726777099609,-0.0759440766601536,0.936072949300256,0.279347999999999,
-0.967975731201172,0.192158625244141,-0.00172382519531133,0.986866214348969,0.283113,
-0.922485899658203,0.158639802001953,0.000670376464846356,0.936027388088633,0.286903999999993,
-0.910514891357422,0.184976020263672,0.0389776030273463,0.929931582964017,0.290667999999997,
-0.903332286376953,0.168216608642578,-0.00172382519531133,0.918862894346882,0.294522999999998,
-0.927274302978516,0.213706440185547,0.0222181914062514,0.951841228131266,0.298563000000001,
-0.587297667236328,0.67818156225586,9.29196846911621,9.33517684955004,0.302465999999995,
-1.43484505493164,0.970274164794922,-2.10143868115234,2.72328052487686,0.306173999999999,
-0.991917747802735,1.41320147192383,0.400502053710939,1.77241110177081,0.309156000000002,
-0.888967076416016,0.790709040283203,0.0198239897460954,1.18990597943984,0.312103999999991,
-1.67426522094727,0.0221703073730468,-0.370430880859374,1.71489783663543,0.31513799999999,
-1.29358715698242,0.259196271728516,0.156293484375002,1.3285247808174,0.318120999999991,
-0.762074388427735,0.953514753173828,-0.470987350585936,1.30834889934972,0.321148999999991,
-0.697430943603516,-0.700878593994141,1.65506372363281,1.92792029241362,0.324148999999991,
-0.996706151123047,-0.305835320068359,5.75872536914063,5.85233938454288,0.327091999999993,
-1.00628295776367,0.687758368896485,0.896101797363283,1.51281703993261,0.330119999999994,
-0.936851109619141,0.426790387939453,-0.131010714843748,1.03778795726102,0.333089000000001,
-1.3055581652832,0.220889045166016,0.462751296875002,1.40264495007521,0.336140999999998,
-0.999100352783204,0.161034003662109,0.261638357421877,1.04526938888565,0.339083000000002,
-0.817141026611328,0.580019294189453,-0.0424252534179672,1.00296647059163,0.342016000000001,
-1.06374379760742,0.091602155517578,-0.0615788666992163,1.06945489791187,0.345039999999997,
-1.04459018432617,-0.138241203857422,0.101226846191409,1.05854908153774,0.347969999999989,
-0.702219346923828,0.309474506591797,0.898495999023439,1.18160126171458,0.351003999999989,
-0.994311949462891,0.280744086669922,-0.0950976899414044,1.03755340377111,0.353961999999996,
-1.15951186401367,-0.0783861623535157,0.04855440966797,1.16317225032889,0.356906999999993,
-0.778833800048828,0.244831061767578,-0.0424252534179672,0.817511002392211,0.359922999999995,
-0.704613548583985,0.342993329833984,-0.0208774384765604,0.783939120465398,0.362876999999997,
-1.14993505737305,-0.0640209523925782,0.0126413847656277,1.15178518966411,0.365902999999989,
-0.96318732788086,0.206523835205078,-0.00651222851562316,0.985101178670661,0.368854999999996,
-0.745314976806641,0.369329548095703,-0.133404916503904,0.842434330672886,0.371867999999992,
-0.977552537841797,-0.0664151540527344,0.161081887695314,0.992958866958885,0.374815999999996,
-1.02783077270508,0.113149970458984,-0.111857101562498,1.04007260530424,0.37776199999999,
-0.824323631591797,0.388483161376953,-0.011300631835935,0.911348627339731,0.380799999999994,
-0.922485899658203,0.0580833322753906,0.01024718310547,0.924369467971555,0.383775,
-0.934456907958985,-0.0089543142089844,0.01024718310547,0.934555989407171,0.386772999999991,
-0.869813463134766,0.364541144775391,0.0533428129882836,0.94462223273759,0.389749999999992,
-0.967975731201172,0.211312238525391,0.00545877978515819,0.990787402333012,0.39268899999999,
-0.972764134521485,-0.0137427175292969,0.0341891997070327,0.97346177381191,0.395709999999994,
-0.762074388427735,0.194552826904297,0.0365834013671886,0.787366827602962,0.398676999999992,
-0.874601866455078,0.261590473388672,0.0365834013671886,0.913617176847069,0.401715999999993,
-1.09008001586914,0.0676601389160156,-0.0328484467773418,1.09267165967233,0.404668999999998,
-0.831506236572266,0.201735431884766,0.0126413847656277,0.855721689888189,0.407617999999999,
-0.805170018310547,0.208918036865234,0.0126413847656277,0.83192866828991,0.410645000000002,
-1.01825396606445,0.0652659372558593,0.0533428129882836,1.02173687301055,0.413598999999991,
-0.946427916259766,0.216100641845703,0.0365834013671886,0.971474978235425,0.416623999999999,
-0.793199010009766,0.244831061767578,0.0677080229492208,0.83288132087255,0.419663,
-0.96318732788086,0.00780509741210933,-0.00411802685546725,0.963227754106507,0.422687999999994,
-0.910514891357422,0.161034003662109,0.0605254179687513,0.9266243272974,0.425822999999994,
-0.910514891357422,0.285532489990234,-0.0184832368164045,0.954414899436745,0.428832999999997,
-0.929668504638672,0.0748427438964843,0.0677080229492208,0.935130654616109,0.431871000000001,
-0.939245311279297,0.0963905588378906,0.153899282714846,0.956638847117014,0.434833999999995,
-0.970369932861328,0.295109296630859,0.04855440966797,1.01541362717735,0.437795999999992,
-1.04459018432617,0.204129633544922,-0.760685751464841,1.30823559535865,0.440838999999997,
-1.02783077270508,-0.150212212158203,0.240090542480472,1.06613473566409,0.443795999999992,
-0.876996068115235,0.247225263427734,0.208965920898439,0.934831102640165,0.446830999999989,
-0.853054051513672,0.410030976318359,-0.0998860932617163,0.951737278859857,0.449798999999999,
-1.12120463745117,0.0293529123535156,0.0653138212890649,1.12348890860437,0.452766999999994,
-0.932062706298828,0.137091987060547,0.0461602080078141,0.943221006017482,0.455794999999995,
-0.817141026611328,0.350175934814453,-0.0759440766601536,0.892250046497256,0.458748999999997,
-1.05177278930664,0.0269587106933593,-0.0328484467773418,1.05263089108377,0.461826000000002,
-0.96318732788086,0.0844195505371093,-0.0328484467773418,0.967437599826905,0.464787000000001,
-0.766862791748047,0.398059968017578,0.0365834013671886,0.864793978217562,0.467821999999998,
-1.00628295776367,0.0772369455566406,-0.0520020600585926,1.01058159051848,0.470779999999991,
-1.04698438598633,0.0389297189941406,-0.0304542451171859,1.04815041314011,0.473725000000002,
-0.865025059814453,0.345387531494141,-0.0184832368164045,0.931612865444561,0.476737999999997,
-0.903332286376953,0.132303583740234,0.0772848295898463,0.91623490588727,0.479718999999989,
-1.02543657104492,0.00301669409179683,-0.0543962617187486,1.02688276593221,0.482715999999996,
-0.896149681396485,0.273561481689453,0.062919619628909,0.939084135882082,0.485690999999989,
-0.896149681396485,0.161034003662109,-0.011300631835935,0.910573394121726,0.488607999999999,
-0.96318732788086,0.0197761057128906,-0.116645504882811,0.970426244882528,0.491645999999989,
-0.805170018310547,0.273561481689453,0.0341891997070327,0.851060247001905,0.494597999999996,
-0.876996068115235,0.211312238525391,0.362194827148439,0.972090560829227,0.497624000000002,
-1.04219598266602,0.0125935007324218,-0.0615788666992163,1.04408956482183,0.500565999999992,
-0.857842454833985,0.161034003662109,0.0724964262695327,0.875831810037121,0.503526999999991,
-0.793199010009766,0.211312238525391,0.0150355864257836,0.821001583731878,0.506551000000002,
-0.929668504638672,0.0532949289550781,0.0341891997070327,0.931822289573521,0.509523000000002,
-0.951216319580078,0.156245600341797,-0.0543962617187486,0.965496829384029,0.512526999999992,
-0.833900438232422,0.297503498291016,0.0317949980468768,0.885951011219254,0.515524999999997,
-0.98234094116211,0.091602155517578,-0.0304542451171859,0.987072510317446,0.518475999999993,
-0.975158336181641,0.110755768798828,0.0246123930664091,0.981736416172498,0.521514999999994,
-0.90572648803711,0.256802070068359,0.0294007963867209,0.941887562903134,0.524471999999989,
-0.912909093017578,0.168216608642578,0.0605254179687513,0.93024898051956,0.527499999999989,
-0.953610521240235,0.103573163818359,-0.0136948334960927,0.959316410235905,0.530446999999995,
-0.853054051513672,0.287926691650391,0.0389776030273463,0.901178255455816,0.533408999999992,
-0.965581529541016,0.180187616943359,0.0317949980468768,0.982764564578565,0.536436999999992,
-0.94403371459961,0.091602155517578,0.0126413847656277,0.948551745454615,0.53940399999999,
-0.80995842163086,0.228071650146484,0.0078529814453141,0.841493310543152,0.542435999999995,
-0.888967076416016,0.177793415283203,-0.0184832368164045,0.906760492915806,0.545390999999995,
-0.96318732788086,0.141880390380859,-0.0232716401367163,0.973859046782207,0.548316,
-0.932062706298828,0.163428205322266,-0.011300631835935,0.946349497304164,0.551332000000002,
-0.872207664794922,0.196947028564453,0.0413718046875022,0.895123437750615,0.554300999999995,
-0.932062706298828,0.0963905588378906,0.0174297880859395,0.937195724392135,0.557344000000001,
-0.908120689697266,0.192158625244141,-0.0160890351562486,0.928367912717913,0.560387999999989,
-0.888967076416016,0.235254255126953,0.00306457812500227,0.919574042231543,0.563499999999991,
-0.953610521240235,0.0844195505371093,0.062919619628909,0.959405318552699,0.566547,
-0.910514891357422,0.158639802001953,0.0988326445312513,0.929500858411587,0.569515999999993,
-0.88657287475586,0.230465851806641,0.0150355864257836,0.916161579614097,0.572531999999995,
-0.939245311279297,0.134697785400391,-0.00411802685546725,0.94886363946412,0.575487999999993,
-0.92488010131836,0.156245600341797,0.0078529814453141,0.938017888293399,0.578513000000001,
-0.860236656494141,0.235254255126953,-0.00890643017577908,0.891869381821146,0.581514999999996,
-0.96318732788086,0.120332575439453,0.0078529814453141,0.970706663529072,0.58444999999999,
-0.922485899658203,0.134697785400391,-0.00411802685546725,0.932277151176171,0.587479999999999,
-0.86741926147461,0.230465851806641,0.0557370146484395,0.899242625117403,0.59044999999999,
-0.958398924560547,0.144274592041016,0.0078529814453141,0.969229243174697,0.593474000000001,
-0.929668504638672,0.139486188720703,0.0437660063476581,0.941092656794513,0.596458999999996,
-0.862630858154297,0.242436860107422,0.0389776030273463,0.896898479269824,0.599420999999992,
-0.912909093017578,0.129909382080078,0.0150355864257836,0.922228566314107,0.602465999999993,
-0.946427916259766,0.153851398681641,0.0150355864257836,0.958969302121432,0.605448999999993,
-0.903332286376953,0.189764423583984,0.0294007963867209,0.92351727807191,0.608468999999999,
-0.90572648803711,0.144274592041016,-0.00890643017577908,0.917188613938875,0.61143899999999,
-0.934456907958985,0.120332575439453,0.0246123930664091,0.94249425008146,0.614382999999989,
-0.912909093017578,0.165822406982422,0.0174297880859395,0.928010711298282,0.617420999999993,
-0.920091697998047,0.259196271728516,-0.0232716401367163,0.956186702081526,0.620362999999998,
-0.922485899658203,0.105967365478516,0.0126413847656277,0.928638316150833,0.623396999999997,
-0.934456907958985,0.168216608642578,-0.011300631835935,0.949544229899465,0.626347999999993,
-0.893755479736328,0.165822406982422,-0.0136948334960927,0.909111366489631,0.629300000000001,
-0.948822117919922,0.139486188720703,-0.0160890351562486,0.959155183143027,0.632319999999993,
-0.910514891357422,0.165822406982422,-0.0328484467773418,0.926074218676206,0.635284999999996,
-0.893755479736328,0.196947028564453,0.00545877978515819,0.915214066705612,0.638303999999991,
-0.948822117919922,0.170610810302734,0.0653138212890649,0.96624911658308,0.641262999999995,
-0.946427916259766,0.194552826904297,0.0222181914062514,0.966473099036709,0.644208999999989,
-0.908120689697266,0.177793415283203,-0.0256658417968723,0.925717246792694,0.647225999999989,
-0.88657287475586,0.125120978759766,-0.0208774384765604,0.895601802709225,0.650169999999989,
-0.951216319580078,0.137091987060547,0.0150355864257836,0.961162196723761,0.653199999999998,
-0.922485899658203,0.204129633544922,0.0126413847656277,0.94488567931162,0.656171000000001,
-0.934456907958985,0.156245600341797,0.01024718310547,0.94748477835796,0.659188999999998,
-0.934456907958985,0.192158625244141,-0.00651222851562316,0.954032001144733,0.662140999999991,
-0.922485899658203,0.173005011962891,-0.00411802685546725,0.938577608606591,0.66509099999999,
-0.917697496337891,0.170610810302734,0.0198239897460954,0.933632547604486,0.668109999999999,
-0.915303294677735,0.129909382080078,0.0365834013671886,0.925199931936842,0.67107,
-0.917697496337891,0.141880390380859,0.01024718310547,0.928656957504253,0.674081999999999,
-0.92488010131836,0.139486188720703,-0.0448194550781231,0.936412506437193,0.677037999999996,
-0.908120689697266,0.161034003662109,0.0413718046875022,0.923215448102331,0.67998,
-0.898543883056641,0.182581818603516,-0.0304542451171859,0.917411952891792,0.683005999999992,
-0.936851109619141,0.204129633544922,0.0701022246093768,0.961391299513878,0.685966999999991,
-0.927274302978516,0.165822406982422,0.0868616362304699,0.945980785994288,0.689003999999997,
-0.874601866455078,0.196947028564453,0.0533428129882836,0.898087975960361,0.691958,
-0.90572648803711,0.194552826904297,0.000670376464846356,0.926386378890091,0.694907000000001,
-0.934456907958985,0.146668793701172,-0.0328484467773418,0.946467362529584,0.697980999999999,
-0.917697496337891,0.153851398681641,0.0437660063476581,0.931533365464036,0.701049999999995,
-0.910514891357422,0.158639802001953,0.0198239897460954,0.924444127425931,0.704169999999991,
-0.927274302978516,0.180187616943359,0.0222181914062514,0.944880340727536,0.707188000000002,
-0.920091697998047,0.163428205322266,0.0078529814453141,0.934526179589083,0.710112999999993,
-0.927274302978516,0.194552826904297,0.0198239897460954,0.947671581292907,0.713133999999997,
-0.958398924560547,0.187370221923828,-0.00411802685546725,0.97655161502492,0.716074999999989,
-0.910514891357422,0.180187616943359,-0.011300631835935,0.928241697492219,0.719110999999998,
-0.960793126220704,0.182581818603516,-0.00172382519531133,0.977989020107498,0.722059000000002,
-0.915303294677735,0.158639802001953,0.027006594726565,0.929341737029958,0.72501299999999,
-0.932062706298828,0.129909382080078,0.101226846191409,0.94650103561242,0.728037,
-0.929668504638672,0.204129633544922,0.0317949980468768,0.95234623835509,0.731020999999998,
-0.922485899658203,0.177793415283203,0.0940442412109395,0.944158383371779,0.734048999999999,
-0.953610521240235,0.151457197021484,0.0533428129882836,0.967035554903324,0.737020000000001,
-0.884178673095703,0.187370221923828,0.0461602080078141,0.904991873347152,0.739995999999991,
-0.908120689697266,0.141880390380859,-0.0424252534179672,0.920115826599261,0.743023999999991,
-0.975158336181641,0.175399213623047,-0.0160890351562486,0.990937698251706,0.745978999999991,
-0.939245311279297,0.204129633544922,0.0174297880859395,0.961329527042652,0.749020000000002,
-0.90572648803711,0.144274592041016,-0.0376368500976536,0.91791729558055,0.751975999999999,
-0.922485899658203,0.158639802001953,0.0246123930664091,0.936350677759075,0.754998999999998,
-0.965581529541016,0.199341230224609,0.0533428129882836,0.987385472830005,0.757954999999995,
-0.874601866455078,0.175399213623047,0.0174297880859395,0.892186699328684,0.760905999999991,
-0.896149681396485,0.161034003662109,-0.00172382519531133,0.910504900248084,0.763919000000001,
-0.912909093017578,0.173005011962891,-0.0376368500976536,0.929919501227784,0.76688399999999,
-0.915303294677735,0.206523835205078,0.0413718046875022,0.939225128485621,0.769905999999992,
-0.922485899658203,0.156245600341797,-0.0639730683593722,0.937808869743556,0.772869999999998,
-0.915303294677735,0.170610810302734,0.01024718310547,0.931124682629383,0.775818000000001,
-0.903332286376953,0.161034003662109,0.00545877978515819,0.917589760308606,0.77885599999999,
-0.884178673095703,0.173005011962891,-0.00172382519531133,0.90094707485782,0.781807000000001,
-0.920091697998047,0.165822406982422,-0.00172382519531133,0.934916453462916,0.784833999999989,
-0.941639512939453,0.134697785400391,-0.0232716401367163,0.951509345700437,0.787792999999994,
-0.967975731201172,0.141880390380859,0.0365834013671886,0.979002250571806,0.790742999999992,
-0.946427916259766,0.187370221923828,0.0126413847656277,0.964879891669621,0.793777999999989,
-0.917697496337891,0.146668793701172,0.00306457812500227,0.929349138628575,0.796763999999996,
-0.908120689697266,0.173005011962891,-0.0232716401367163,0.924746176231711,0.799773000000002,
-0.881784471435547,0.146668793701172,-0.00172382519531133,0.893900755500256,0.802739000000003,
-0.953610521240235,0.153851398681641,0.0916500395507835,0.970279861094741,0.805676999999989,
-0.948822117919922,0.173005011962891,0.01024718310547,0.9645201658752,0.808725999999993,
-0.946427916259766,0.177793415283203,0.0413718046875022,0.963871322022275,0.81169899999999,
-0.922485899658203,0.213706440185547,0.04855440966797,0.948160433862956,0.814738999999989,
-0.941639512939453,0.156245600341797,0.000670376464846356,0.954514593581274,0.817700000000002,
-0.917697496337891,0.156245600341797,-0.0160890351562486,0.93104255513014,0.820648999999989,
-0.881784471435547,0.182581818603516,-0.0448194550781231,0.901603437273247,0.823664999999991,
-0.920091697998047,0.192158625244141,0.0126413847656277,0.940028443500217,0.826622999999998,
-0.932062706298828,0.165822406982422,0.0294007963867209,0.947154879604552,0.829640999999995,
-0.958398924560547,0.144274592041016,0.0198239897460954,0.969400148069345,0.832613999999992,
-0.910514891357422,0.161034003662109,0.00545877978515819,0.924661622430503,0.83555299999999,
-0.96318732788086,0.182581818603516,0.0174297880859395,0.980494643834202,0.838668999999996,
-0.941639512939453,0.153851398681641,0.0557370146484395,0.955751976198359,0.841713999999996,
-0.891361278076172,0.194552826904297,-0.0376368500976536,0.913122260705166,0.844837999999996,
-0.94403371459961,0.182581818603516,-0.0256658417968723,0.961870318816651,0.84781799999999,
-0.927274302978516,0.146668793701172,0.0078529814453141,0.938834936145662,0.85084599999999,
-0.910514891357422,0.113149970458984,0.0389776030273463,0.918346087668611,0.853806999999989,
-0.927274302978516,0.137091987060547,0.04855440966797,0.938610343315429,0.856752,
-0.946427916259766,0.189764423583984,0.00545877978515819,0.965280340321249,0.859814,
-0.903332286376953,0.139486188720703,0.0246123930664091,0.914369392722272,0.862778999999989,
-0.967975731201172,0.156245600341797,0.0461602080078141,0.981590784708137,0.865803,
-0.927274302978516,0.158639802001953,0.0557370146484395,0.94239632562178,0.868774000000002,
-0.939245311279297,0.163428205322266,0.027006594726565,0.953739948420808,0.871707000000001,
-0.927274302978516,0.175399213623047,0.01024718310547,0.943773024548526,0.874775,
-0.922485899658203,0.156245600341797,-0.00411802685546725,0.935633411566494,0.877732999999992,
-0.936851109619141,0.187370221923828,-0.0232716401367163,0.955687799908031,0.880799999999994,
-0.941639512939453,0.182581818603516,0.0126413847656277,0.959260599327529,0.883776999999995,
-0.927274302978516,0.158639802001953,0.00545877978515819,0.940762466311371,0.886725999999996,
-0.920091697998047,0.139486188720703,0.027006594726565,0.93099650145824,0.889755999999991,
-0.917697496337891,0.180187616943359,-0.011300631835935,0.935288178244786,0.892713000000001,
-0.936851109619141,0.182581818603516,0.0365834013671886,0.955177715053474,0.895742999999996,
-0.898543883056641,0.146668793701172,0.01024718310547,0.910493190301751,0.898719,
-0.908120689697266,0.184976020263672,0.0198239897460954,0.926980207824459,0.901649999999989,
-0.915303294677735,0.144274592041016,0.0246123930664091,0.926930983972902,0.904685000000001,
-0.927274302978516,0.204129633544922,0.01024718310547,0.949532276974866,0.907638999999989,
-0.910514891357422,0.125120978759766,0.00545877978515819,0.919087822237985,0.910676999999993,
-0.898543883056641,0.153851398681641,0.04855440966797,0.912912314164405,0.913624999999996,
-0.94403371459961,0.163428205322266,-0.107068698242186,0.964039490238273,0.916565999999989,
-0.915303294677735,0.151457197021484,0.00545877978515819,0.927765704288676,0.919591999999994,
-0.898543883056641,0.139486188720703,0.04855440966797,0.910601470084767,0.92255999999999,
-0.92488010131836,0.149062995361328,0.0222181914062514,0.937078772798806,0.925578000000002,
-0.927274302978516,0.158639802001953,0.0365834013671886,0.941457680939034,0.928537999999989,
-0.917697496337891,0.170610810302734,0.0916500395507835,0.937910695709698,0.931471999999999,
-0.934456907958985,0.137091987060547,0.0222181914062514,0.94472089729075,0.934507999999994,
-0.951216319580078,0.173005011962891,0.0653138212890649,0.969024827365703,0.937468999999993,
-0.932062706298828,0.180187616943359,0.0389776030273463,0.950119844709382,0.940507999999994,
-0.903332286376953,0.170610810302734,0.0677080229492208,0.921792625580647,0.943471000000002,
-0.881784471435547,0.201735431884766,0.062919619628909,0.906752401197177,0.946490999999995,
-0.965581529541016,0.153851398681641,-0.00651222851562316,0.977783387150398,0.949433999999997,
-0.915303294677735,0.180187616943359,0.0246123930664091,0.933195300266829,0.952393000000001,
-0.910514891357422,0.165822406982422,0.0198239897460954,0.925703747756546,0.955412999999993,
-0.927274302978516,0.146668793701172,-0.00411802685546725,0.938811123791805,0.958367999999993,
-0.929668504638672,0.139486188720703,0.0294007963867209,0.940534067532434,0.961387999999999,
-0.908120689697266,0.199341230224609,0.0389776030273463,0.930558631501238,0.964350999999994,
-0.920091697998047,0.204129633544922,0.0150355864257836,0.942583528858467,0.967281,
-0.977552537841797,0.132303583740234,0.0557370146484395,0.988038368340708,0.970307999999989,
-0.915303294677735,0.141880390380859,-0.0567904633789045,0.927973772880102,0.973247999999998,
-0.934456907958985,0.168216608642578,0.000670376464846356,0.949477219136974,0.976331999999999,
-0.88657287475586,0.132303583740234,0.01024718310547,0.896448941817087,0.979388,
-0.903332286376953,0.184976020263672,0.00306457812500227,0.922081742213067,0.982423999999995,
-0.915303294677735,0.120332575439453,-0.0232716401367163,0.923472587137518,0.985501999999997,
-0.927274302978516,0.137091987060547,0.0198239897460954,0.937563243973416,0.988478999999998,
-0.908120689697266,0.137091987060547,0.0389776030273463,0.919236995290227,0.991492999999991,
-0.888967076416016,0.187370221923828,0.0772848295898463,0.911780131336582,0.994456,
-0.908120689697266,0.146668793701172,0.00306457812500227,0.919893642624558,0.997407999999993,
-0.915303294677735,0.161034003662109,0.0437660063476581,0.930391065571347,1.00044799999999,
-0.920091697998047,0.182581818603516,0.0246123930664091,0.938355275523057,1.003401,
-0.953610521240235,0.168216608642578,-0.00411802685546725,0.968342300939324,1.00642099999999,
-0.903332286376953,0.165822406982422,0.0222181914062514,0.918694692647031,1.009405,
-0.927274302978516,0.189764423583984,-0.0184832368164045,0.946673016128413,1.012351,
-0.927274302978516,0.189764423583984,0.0198239897460954,0.946700142596328,1.015383,
-0.922485899658203,0.165822406982422,0.00545877978515819,0.93728709796006,1.01837999999999,
