X,Y,Z,Magnitude,Seconds,
-1.03635413061523,1.84712658081055,-1.55934354125976,2.63010622774987,0.0,
-1.18718883520508,1.94768305053711,-1.83228253051758,2.9257726957891,0.00294199999996181,
-1.27816849829102,1.98599027709961,-2.0333954699707,3.11649951517003,0.00597999999990861,
-1.44576261450195,2.10330615844727,-2.26084462768554,3.40962531140715,0.00894799999991847,
-1.53434807592773,2.24216985473633,-2.40689092895508,3.62969332306156,0.0119819999999891,
-1.55589589086914,2.43849439086914,-2.58166765014648,3.87712197039719,0.0149579999999787,
-1.58223210913086,2.59172329711914,-2.72531974975586,4.08017840717831,0.0179069999999228,
-1.62532773901367,2.8838158996582,-2.8378472277832,4.36021344552827,0.0209340000000111,
-1.55110748754883,3.1136592590332,-2.90488487426758,4.53201550659768,0.0239019999999073,
-1.57265530249023,3.33153161010742,-2.90727907592773,4.69303944101505,0.0269379999999728,
-1.52477126928711,3.54700975952148,-2.88573126098633,4.82012972526859,0.0299069999999801,
-1.48406984106445,3.76727631225586,-2.82587621948242,4.93765232816947,0.0328499999999394,
-1.39787858129883,4.0114848815918,-2.75165596801758,5.06139171074719,0.0358739999999216,
-1.25901488500977,4.12161815795898,-2.70616613647461,5.08882991255311,0.0388369999999441,
-1.18958303686523,4.31554849243164,-2.57927344848633,5.16640282151838,0.0418789999999944,
-1.03874833227539,4.40173975219727,-2.45238076049804,5.14475289380739,0.0448420000000169,
-0.91185564428711,4.45920059204102,-2.41167933227539,5.15093659811509,0.0477899999999636,
-0.792145561279297,4.56215126342773,-2.30394025756836,5.17192995419446,0.0507979999999861,
-0.617368840087891,4.55018025512695,-2.17704756958008,5.08181274340891,0.0537549999999101,
-0.509629765380859,4.57412227172852,-2.06691429321289,5.04524050467098,0.0568700000000035,
-0.373160270751953,4.59088168334961,-2.00945345336914,5.02527077871827,0.0599539999999479,
-0.296545817626953,4.55975706176758,-1.96396362182617,4.97357788640611,0.0630509999999731,
-0.215142961181641,4.52623823852539,-2.00227084838867,4.95400924867349,0.066063999999983,
-0.138528508056641,4.44962378540039,-1.97593463012695,4.87059130308428,0.06899999999996,
-0.0738850632324219,4.3562499206543,-2.01903026000976,4.80196371962602,0.0720169999999598,
-0.0595198532714844,4.34427891235352,-2.06212588989258,4.80922707584266,0.074991999999952,
-0.0283952316894531,4.22217462768555,-2.11958672973633,4.72442724366972,0.0780229999999165,
-0.0283952316894531,4.12880076293945,-2.22253740112304,4.68908034998579,0.0810849999999164,
0.0338540114746094,4.1096471496582,-2.33267067749023,4.72564263126291,0.0840599999999085,
0.0218830031738281,4.09528193969727,-2.42125613891601,4.75755129469741,0.0871399999999767,
0.0649786330566406,3.98754286499024,-2.49068798706054,4.7019407665108,0.090155999999979,
0.0793438430175781,3.98036026000977,-2.5313894152832,4.71778503290449,0.0932099999999991,
0.122439472900391,3.94444723510742,-2.56011983520508,4.70402689040796,0.0961999999999534,
0.175111909423828,4.02824429321289,-2.58645605346679,4.79032057206397,0.0991749999999456,
0.134410481201172,4.05697471313477,-2.56730244018554,4.80293158600602,0.102256000000011,
0.206236531005859,4.07852252807617,-2.5696966418457,4.82495806716071,0.105234999999993,
0.302004597412109,4.14316597290039,-2.46195756713867,4.82889905861047,0.108291000000008,
0.299610395751953,4.1862616027832,-2.3781605090332,4.82391956845309,0.111278999999968,
0.297216194091797,4.2628760559082,-2.27760403930664,4.84230625775898,0.114250999999967,
0.294821992431641,4.29878908081055,-2.13874034301758,4.81047999926913,0.117288999999914,
0.373830647216797,4.34188471069336,-2.08127950317383,4.82943439380667,0.12028399999997,
0.376224848876953,4.38737454223633,-1.93762740356445,4.81092511538268,0.12337500000001,
0.460021906982422,4.3777977355957,-1.8418593371582,4.77170608761347,0.126339999999914,
0.500723335205078,4.4161049621582,-1.75566807739258,4.77860620821517,0.129287999999974,
0.543818965087891,4.41371076049805,-1.6886304309082,4.75689546619586,0.132327999999916,
0.562972578369141,4.41849916381836,-1.58328555786133,4.72724720555117,0.135286999999948,
0.625221821533203,4.48314260864258,-1.4970942980957,4.76767881813976,0.138341999999966,
0.531847956787109,4.4544121887207,-1.42526824829101,4.70702026506672,0.141300000000001,
0.474387116943359,4.50469042358398,-1.39414362670898,4.73929482106192,0.144274999999993,
0.345100227294922,4.51666143188477,-1.31992337524414,4.71821177711114,0.147356999999943,
0.261303169189453,4.50708462524414,-1.33428858520508,4.70769765320046,0.150399999999991,
0.222995942626953,4.51666143188477,-1.30076976196289,4.7055243761286,0.153458000000001,
0.105680061279297,4.55496865844727,-1.21218430053711,4.71468965397061,0.156429000000003,
0.00272938989257815,4.59567008666992,-1.15472346069336,4.73852057774972,0.159456999999975,
-0.105009684814453,4.55496865844727,-1.17866547729492,4.70616816749132,0.162413000000015,
-0.224719767822266,4.55975706176758,-1.14275245239258,4.70614137100009,0.165384000000017,
-0.296545817626953,4.61242949829102,-1.13317564575195,4.75883728895856,0.168483999999921,
-0.456957328857422,4.6244005065918,-1.0757148059082,4.76980632619534,0.171534999999949,
-0.538360185302734,4.64355411987305,-1.03261917602539,4.78735092885455,0.174602999999934,
-0.655676066650391,4.62200630493164,-0.994311949462888,4.77299797193029,0.177623999999923,
-0.686800688232422,4.63158311157227,-1.0158597644043,4.79116148399253,0.180584999999951,
-0.670041276611328,4.64355411987305,-0.833900438232419,4.76517996695163,0.183666000000017,
-0.763415141357422,4.64834252319336,-0.718978758544919,4.76516750452911,0.186673999999925,
-0.710742704833985,4.71059176635742,-0.726161363525389,4.81893559903285,0.18978699999991,
-0.780174552978516,4.72016857299805,-0.639970103759763,4.82682353358189,0.192727999999988,
-0.787357157958984,4.7776294128418,-0.632787498779294,4.88324626854428,0.195668999999953,
-0.794539762939453,4.82790764770508,-0.515471617431638,4.91992852367173,0.198751000000016,
-0.820875981201172,4.88776268920898,-0.479558592529294,4.97936119659993,0.201749999999947,
-0.904673039306641,4.95958873901367,-0.407732542724608,5.05788489337156,0.204788000000008,
-0.871154216064453,5.01465537719727,-0.264080443115231,5.09660835268478,0.207739999999944,
-0.940586064208984,5.09605823364258,-0.244926829833982,5.18791873652942,0.210648999999989,
-0.940586064208984,5.1822494934082,-0.254503636474608,5.27306211390427,0.213751000000002,
-0.914249845947266,5.24689293823242,-0.115639940185545,5.32720479068094,0.216690999999969,
-0.945374467529297,5.34984360961914,-0.0414196887207012,5.4328882854199,0.219787999999994,
-0.844817997802734,5.40730444946289,-0.00311246215820127,5.47290311863944,0.222822999999948,
-0.81608757788086,5.4120928527832,0.04716577270508,5.47347902088181,0.225773000000004,
-0.775386149658203,5.4288522644043,0.107020814208987,5.48498988554067,0.228872999999908,
-0.693983293212891,5.4120928527832,0.08547299926758,5.45707499417128,0.231825999999955,
-0.665252873291016,5.42645806274414,0.128568629150394,5.46859565012302,0.234913000000006,
-0.519206572021484,4.34188471069336,-1.0924742175293,4.50722067590986,15.1202619999999,
-0.603003630126953,4.4544121887207,-1.11641623413086,4.63160733793364,15.1244379999999,
-0.574273210205078,4.40413395385742,-1.18584808227539,4.59700133540499,15.127437,
-0.507235563720703,4.3945571472168,-1.19542488891601,4.58240778437462,15.130376,
-0.519206572021484,4.36582672729492,-1.16669446899414,4.54875746343708,15.1333989999999,
-0.478505143798828,4.38737454223633,-1.19542488891601,4.57242421605271,15.136364,
-0.514418168701172,4.34906731567383,-1.17148287231445,4.5333635072293,15.139384,
-0.526389177001953,4.34188471069336,-1.13556984741211,4.51869088176754,15.1423169999999,
-0.543148588623047,4.33709630737305,-1.20500169555664,4.534031743939,15.145281,
-0.538360185302734,4.32991370239258,-1.22654951049804,4.5323733364529,15.1483489999999,
-0.600609428466797,4.25569345092773,-1.2289437121582,4.47011868762851,15.15127,
-0.588638420166016,4.22935723266602,-1.24809732543945,4.44878688239491,15.154266,
-0.591032621826172,4.23893403930664,-1.26006833374023,4.46157523251039,15.157152,
-0.574273210205078,4.25090504760742,-1.17627127563476,4.44787562299318,15.160077,
-0.497658757080078,4.23653983764648,-1.25049152709961,4.445184258702,15.16311,
-0.461745732177734,4.21499202270508,-1.28161614868164,4.42966215700626,15.16603,
-0.468928337158203,4.25090504760742,-1.23612631713867,4.45175199006942,15.1690729999999,
-0.471322538818359,4.2030210144043,-1.27443354370117,4.41720629362418,15.1720429999999,
-0.464139933837891,4.16950219116211,-1.30076976196289,4.3922860077556,15.174978,
-0.468928337158203,4.16231958618164,-1.26006833374023,4.37407936926116,15.1779899999999,
-0.430621110595703,4.06415731811523,-1.25527993041992,4.2753405654983,15.1809099999999,
-0.389919682373047,4.10485874633789,-1.30316396362304,4.3243657340903,15.1839339999999,
-0.416255900634766,4.07852252807617,-1.22654951049804,4.27925679161009,15.186864,
-0.327670439208984,4.09288773803711,-1.14275245239258,4.26203954936544,15.189882,
-0.351612455810547,4.05697471313477,-1.20500169555664,4.2467286501954,15.19291,
-0.289363212646484,4.04021530151367,-1.21457850219726,4.22874351189784,15.19593,
-0.253450187744141,3.94923563842774,-1.1690886706543,4.12643519824891,15.1990059999999,
-0.219931364501953,3.91092841186524,-1.12359883911133,4.07507118944918,15.201996,
-0.184018339599609,3.91332261352539,-1.06853220092773,4.06075334036157,15.205023,
-0.193595146240234,3.87501538696289,-1.09486841918945,4.0313719978669,15.207999,
-0.138528508056641,3.93726463012695,-1.0374075793457,4.07399771733822,15.210972,
-0.246267582763672,3.89416900024414,-1.07810900756836,4.04815006601568,15.2140449999999,
-0.284574809326172,3.89895740356445,-1.08050320922851,4.05590172983348,15.216965,
-0.131345903076172,3.96360084838867,-0.994311949462888,4.08852536795933,15.219975,
-0.152893718017578,4.01387908325195,-1.02304236938476,4.14502321749024,15.222943,
-0.0547314499511719,4.09528193969727,-0.972764134521482,4.20958427384887,15.2258989999999,
-0.0714908615722656,4.1862616027832,-0.924880101318356,4.2878083390049,15.228929,
0.0530076247558594,4.2628760559082,-0.898543883056638,4.35686850686318,15.231866,
0.0051235915527344,4.35864412231445,-0.917697496337889,4.45420851902575,15.234889,
-0.0307894333496094,4.36343252563477,-0.841083043212889,4.44386229315824,15.23784,
-0.0260010300292969,4.47356580200195,-0.766862791748045,4.53889254992576,15.2407529999999,
-0.0451546433105469,4.55496865844727,-0.66151791870117,4.6029756004146,15.2438109999999,
-0.162470524658203,4.57172807006836,-0.73813237182617,4.63378178342177,15.246801,
-0.298940019287109,4.71538016967773,-0.709401951904294,4.77780560603788,15.249822,
-0.356400859130859,4.80396563110352,-0.716584556884763,4.87017461538893,15.2528129999999,
-0.509629765380859,4.84945546264648,-0.618422288818357,4.91521992481123,15.2557519999999,
-0.550331193603516,4.84945546264648,-0.601662877197263,4.91752792820155,15.258819,
-0.674829679931641,4.80157142944336,-0.678277330322263,4.89597216350262,15.261765,
-0.739473124755859,4.80396563110352,-0.522654222412108,4.88856560999903,15.264822,
-0.734684721435547,4.77523521118164,-0.498712205810545,4.85709242512887,15.267795,
-0.701165898193359,4.6842555480957,-0.496318004150389,4.7623749556181,15.2707489999999,
-0.715531108154297,4.67707294311523,-0.474770189208982,4.75525002649899,15.273774,
-0.749049931396485,4.59567008666992,-0.388578929443357,4.67249964469182,15.2767369999999,
-0.720319511474609,4.53820924682617,-0.307176072998045,4.60527529105613,15.279802,
-0.727502116455078,4.43525857543945,-0.357454307861326,4.5087195014399,15.282739,
-0.701165898193359,4.36343252563477,-0.383790526123045,4.43604240179222,15.2857789999999,
-0.686800688232422,4.21978042602539,-0.343089097900389,4.2890502629745,15.288773,
-0.646099260009766,4.16231958618164,-0.311964476318357,4.22370340172947,15.2917189999999,
-0.610186235107422,4.04260950317383,-0.326329686279294,4.1014034062517,15.294728,
-0.528783378662109,3.98275446166992,-0.383790526123045,4.03599307871592,15.2977079999999,
-0.555119596923828,3.87262118530274,-0.386184727783201,3.93122007215539,15.3007339999999,
-0.523994975341797,3.80797774047852,-0.319147081298826,3.85708699223454,15.3037109999999,
-0.502447160400391,3.7265748840332,-0.343089097900389,3.77591361717924,15.306662,
-0.461745732177734,3.70023866577148,-0.395761534423826,3.7498803310218,15.30975,
-0.370766069091797,3.5901053894043,-0.426886156005857,3.63435771150956,15.312781,
-0.289363212646484,3.56855757446289,-0.381396324462889,3.60052737628856,15.315846,
-0.301334220947266,3.56616337280273,-0.417309349365231,3.6031195660568,15.3188309999999,
-0.308516825927734,3.48954891967773,-0.379002122802731,3.52360283002973,15.321776,
-0.265421196044922,3.52067354125977,-0.268868846435545,3.54088704310376,15.324789,
-0.277392204345703,3.4751837097168,-0.302387669677731,3.49932658579989,15.327809,
-0.195989347900391,3.49194312133789,-0.40533834106445,3.52084901094698,15.3308599999999,
-0.186412541259766,3.45603009643555,-0.376607921142575,3.48148347537003,15.3338699999999,
-0.160076322998047,3.45363589477539,-0.314358677978513,3.47160578137639,15.3368429999999,
-0.172047331298828,3.47997211303711,-0.352665904541013,3.50202504730459,15.339973,
-0.133740104736328,3.50151992797852,-0.390973131103513,3.52581738195421,15.342982,
-0.150499516357422,3.44166488647461,-0.371819517822264,3.46496133442347,15.346056,
-0.205566154541016,3.52785614624023,-0.419703551025389,3.55867636955106,15.349028,
-0.234296574462891,3.52067354125977,-0.422097752685545,3.55361837874494,15.352087,
-0.239084977783203,3.52785614624023,-0.393367332763669,3.55776172243901,15.3551669999999,
-0.267815397705078,3.57813438110352,-0.417309349365231,3.61232858825863,15.358159,
-0.265421196044922,3.59728799438477,-0.434068760986326,3.63309028447118,15.3612109999999,
-0.253450187744141,3.65235463256836,-0.48195279418945,3.69272390729907,15.36421,
-0.301334220947266,3.7050270690918,-0.503500609130857,3.75120524082754,15.367184,
-0.286969010986328,3.7265748840332,-0.556173045654294,3.77876170673488,15.370191,
-0.279786406005859,3.73854589233398,-0.575326658935545,3.7928889499371,15.3730949999999,
-0.330064640869141,3.87262118530274,-0.544202037353513,3.92457556551882,15.3761989999999,
-0.325276237548828,3.8965632019043,-0.659123717041012,3.96528101040955,15.379161,
-0.351612455810547,3.98993706665039,-0.62321069213867,4.05359355161662,15.382169,
-0.373160270751953,4.06894572143555,-0.616028087158201,4.13219777791723,15.3852559999999,
-0.375554472412109,4.05936891479492,-0.635181700439452,4.12589056334814,15.388207,
-0.406679093994141,4.12401235961914,-0.639970103759763,4.19314053681601,15.391345,
-0.382737077392578,4.21499202270508,-0.644758507080075,4.28116327116014,15.394312,
-0.334853044189453,4.2245688293457,-0.635181700439452,4.28515625708742,15.3973609999999,
-0.296545817626953,4.27245286254883,-0.58490346557617,4.32248828207743,15.4003299999999,
-0.303728422607422,4.3179426940918,-0.592086070556638,4.36891817033777,15.403278,
-0.332458842529297,4.37540353393555,-0.539413634033201,4.42104648644781,15.4063699999999,
-0.387525480712891,4.38019193725586,-0.625604893798826,4.44158067455135,15.4093329999999,
-0.423438505615234,4.40173975219727,-0.544202037353513,4.45542016779237,15.412372,
-0.468928337158203,4.38976874389648,-0.537019432373045,4.44728605792642,15.4153329999999,
-0.500052958740234,4.32512529907227,-0.517865819091794,4.38462618940354,15.4183079999999,
-0.581455815185547,4.24372244262695,-0.594480272216794,4.32442803491094,15.421308,
-0.605397831787109,4.1862616027832,-0.572932457275389,4.26843581915778,15.4242879999999,
-0.631734050048828,4.12401235961914,-0.568144053955075,4.21062388706555,15.427336,
-0.650887663330078,4.0497921081543,-0.599268675537107,4.1453098575407,15.4302799999999,
-0.693983293212891,4.00669647827148,-0.592086070556638,4.10923294486926,15.433182,
-0.691589091552735,3.99711967163086,-0.62321069213867,4.10410193680531,15.436188,
-0.648493461669922,3.9564182434082,-0.627999095458982,4.05809954911153,15.439125,
-0.617368840087891,3.86065017700195,-0.704613548583982,3.97268729284659,15.4421619999999,
-0.617368840087891,3.88459219360352,-0.750103380126951,4.00422974817813,15.4450979999999,
-0.564696403564453,3.9181110168457,-0.802775816650389,4.03917379922243,15.4480639999999,
-0.509629765380859,3.87740958862305,-0.718978758544919,3.976299544922,15.451138,
-0.459351530517578,3.87740958862305,-0.841083043212889,3.99408683332186,15.4541849999999,
-0.442592118896484,3.87022698364258,-0.788410606689451,3.97443530245051,15.457238,
-0.377948674072266,3.8199487487793,-0.85305405151367,3.93224552365915,15.460201,
-0.303728422607422,3.81516034545898,-0.862630858154295,3.92324246175308,15.4631499999999,
-0.265421196044922,3.79840093383789,-0.910514891357419,3.91501410378993,15.4661689999999,
-0.246267582763672,3.85107337036133,-0.886572874755856,3.9594728548734,15.469165,
-0.241479179443359,3.84628496704102,-0.953610521240233,3.97008731239131,15.472266,
-0.169653129638672,3.8031893371582,-1.00867715942383,3.93833225244054,15.4753039999999,
-0.179229936279297,3.88459219360352,-1.10683942749023,4.04317615234743,15.478348,
-0.102615483154297,3.8582559753418,-1.06853220092773,4.00480089056412,15.4813499999999,
-0.107403886474609,3.88698639526367,-1.08529161254883,4.03708517572562,15.484304,
-0.0882502731933594,3.92768782348633,-1.04698438598633,4.06579586968906,15.487365,
-0.0930386765136719,3.91332261352539,-1.15472346069336,4.08119300493523,15.490383,
-0.0954328781738282,3.95402404174805,-1.15951186401367,4.12163575777222,15.493491,
-0.0834618698730469,3.98036026000977,-1.20021329223633,4.15821423570846,15.496443,
-0.00924161840820314,4.0114848815918,-1.19781909057617,4.18651011422391,15.499379,
-0.0068474167480469,4.0497921081543,-1.18824228393554,4.22051924906371,15.5024679999999,
-0.0451546433105469,4.08331093139648,-1.16190606567383,4.24564398056692,15.505455,
-0.0762792648925781,4.07373412475586,-1.20021329223633,4.24754519602955,15.5085009999999,
-0.164864726318359,4.14316597290039,-1.12120463745117,4.2953584828307,15.511455,
-0.112192289794922,4.13837756958008,-1.14993505737304,4.29663899512962,15.514374,
-0.114586491455078,4.19583840942383,-1.10683942749023,4.34088511023583,15.517434,
-0.186412541259766,4.25569345092773,-1.1523292590332,4.41288330970037,15.520365,
-0.179229936279297,4.23175143432617,-1.14514665405273,4.38761944923081,15.5234349999999,
-0.172047331298828,4.21259782104492,-1.08289741088867,4.3529584754037,15.5264689999999,
-0.203171952880859,4.28202966918945,-1.08529161254883,4.42209394003847,15.529421,
-0.184018339599609,4.29400067749023,-1.08289741088867,4.43226481272328,15.5324949999999,
-0.193595146240234,4.28442387084961,-1.03261917602539,4.41135686024709,15.53545,
-0.210354557861328,4.30357748413086,-1.09965682250976,4.44682733296711,15.538497,
-0.198383549560547,4.30357748413086,-1.06374379760742,4.4375315279559,15.541469,
-0.193595146240234,4.27484706420898,-1.0924742175293,4.41648009380663,15.54445,
-0.215142961181641,4.24851084594727,-1.03261917602539,4.37749166356407,15.547543,
-0.193595146240234,4.27005866088867,-1.08050320922851,4.40889637360998,15.550526,
-0.121769096435547,4.23175143432617,-1.04937858764648,4.36162164051162,15.553552,
-0.138528508056641,4.24611664428711,-1.0924742175293,4.38659282591884,15.55651,
-0.0906444748535156,4.20780941772461,-1.0541669909668,4.33879528919692,15.55949,
-0.0379720383300781,4.17668479614258,-1.0924742175293,4.31736466817314,15.562502,
-0.0379720383300781,4.16231958618164,-0.977552537841795,4.27574030753122,15.565512,
0.0242772048339844,4.10246454467773,-1.0924742175293,4.24550405004856,15.568577,
0.0266714064941406,4.0497921081543,-1.01346556274414,4.17476226030435,15.5715809999999,
0.0577960280761719,4.05458051147461,-1.0374075793457,4.18559171331545,15.574605,
0.0961032546386719,4.03542689819336,-0.9607931262207,4.14934085338956,15.5776069999999,
0.0817380446777344,4.05218630981445,-0.970369932861326,4.16755477516453,15.5805819999999,
0.141593086181641,4.0114848815918,-0.905726488037107,4.11489975921966,15.5836429999999,
0.163140901123047,3.9731776550293,-0.800381614990233,4.05627493664541,15.5866119999999,
0.189477119384766,3.92050521850586,-0.802775816650389,4.00633395498936,15.5896849999999,
0.172717707763672,3.93247622680664,-0.81474682495117,4.01970310716383,15.5927349999999,
0.237361152587891,3.8798037902832,-0.790804808349607,3.9666850155719,15.5957129999999,
0.187082917724609,3.85107337036133,-0.742920775146482,3.9265375842025,15.598806,
0.201448127685547,3.82952555541992,-0.716584556884763,3.90119734888252,15.601816,
0.170323506103516,3.81276614379883,-0.613633885498045,3.86558434256212,15.6048569999999,
0.189477119384766,3.80558353881836,-0.683065733642575,3.87103945293409,15.607907,
0.122439472900391,3.72178648071289,-0.596874473876952,3.7713320153637,15.6108949999999,
0.127227876220703,3.7648821105957,-0.632787498779294,3.81980945307257,15.6139929999999,
0.0817380446777344,3.69784446411133,-0.575326658935545,3.74322528752792,15.617005,
0.136804682861328,3.72896908569336,-0.527442625732419,3.76857024436975,15.62013,
0.117651069580078,3.71460387573242,-0.570538255615231,3.76000500383977,15.623162,
0.0961032546386719,3.69784446411133,-0.534625230712889,3.73752774620146,15.626167,
0.0577960280761719,3.74094009399414,-0.486741197509764,3.77291533976944,15.6292539999999,
0.0625844313964844,3.77685311889648,-0.462799180908201,3.80561681920561,15.6323179999999,
0.0530076247558594,3.77206471557617,-0.450828172607419,3.79927994072476,15.635414,
0.0338540114746094,3.79840093383789,-0.426886156005857,3.82246354311757,15.6383949999999,
-0.0140300217285156,3.8965632019043,-0.40533834106445,3.91761417174806,15.641347,
-0.0403662399902344,3.92050521850586,-0.379002122802731,3.93898885638835,15.644426,
-0.0475488449707031,3.97078345336914,-0.33590649291992,3.98524971591417,15.6474499999999,
-0.0499430466308594,4.0713399230957,-0.357454307861326,4.08730677335435,15.6504619999999,
-0.0690966599121094,4.14556017456055,-0.319147081298826,4.15840093892052,15.653421,
-0.126557499755859,4.14077177124023,-0.343089097900389,4.15688799360081,15.656333,
-0.112192289794922,4.13358916625977,-0.371819517822264,4.15179434210597,15.659369,
-0.169653129638672,4.15992538452148,-0.390973131103513,4.18170077581207,15.662301,
-0.124163298095703,4.20541521606445,-0.314358677978513,4.2189755916005,15.665432,
-0.152893718017578,4.18386740112305,-0.386184727783201,4.20443356032205,15.6683879999999,
-0.193595146240234,4.15034857788086,-0.355060106201169,4.17000480546258,15.6714519999999,
-0.210354557861328,4.12880076293945,-0.434068760986326,4.15688109877185,15.6744259999999,
-0.236690776123047,4.1479543762207,-0.32872388793945,4.16768609964957,15.6774049999999,
-0.260632792724609,4.09528193969727,-0.381396324462889,4.1212530587878,15.680433,
-0.253450187744141,4.0713399230957,-0.383790526123045,4.09723576756357,15.6833849999999,
-0.217537162841797,4.06176311645508,-0.424491954345701,4.08967424750632,15.686434,
-0.167258927978516,4.0497921081543,-0.434068760986326,4.07642090043724,15.689409,
-0.229508171142578,4.05936891479492,-0.41252094604492,4.08672528045993,15.692329,
-0.169653129638672,4.02585009155273,-0.498712205810545,4.06016810098742,15.6953589999999,
-0.138528508056641,4.03063849487305,-0.501106407470701,4.06403056773753,15.6983309999999,
-0.112192289794922,4.04739790649414,-0.460404979248045,4.07504474433091,15.701337,
-0.0930386765136719,4.01866748657227,-0.393367332763669,4.03894570667223,15.7043,
-0.0355778366699219,4.04739790649414,-0.419703551025389,4.06925627930935,15.707279,
-0.0212126267089844,3.99951387329102,-0.383790526123045,4.01794180720938,15.710333,
0.0194888015136719,3.95162984008789,-0.436462962646482,3.97570850594201,15.7132919999999,
0.0577960280761719,3.86543858032227,-0.417309349365231,3.88832906171441,15.716318,
0.0961032546386719,3.79840093383789,-0.414915147705075,3.82220356202124,15.7192789999999,
0.115256867919922,3.80797774047852,-0.414915147705075,3.83224910429603,15.7222429999999,
0.182294514404297,3.79361253051758,-0.407732542724608,3.81981323471169,15.725276,
0.208630732666016,3.77445891723633,-0.462799180908201,3.80844456207083,15.7282279999999,
0.191871321044922,3.73615169067383,-0.46998178588867,3.77048099565978,15.731315,
0.141593086181641,3.70263286743164,-0.491529600830075,3.73779883106778,15.73433,
0.132016279541016,3.70023866577148,-0.541807835693357,3.74202488133803,15.737297,
0.134410481201172,3.69784446411133,-0.467587584228513,3.72971285853753,15.740322,
0.179900312744141,3.62362421264648,-0.484346995849608,3.66027438444058,15.743289,
0.203842329345703,3.68347925415039,-0.491529600830075,3.72171633248446,15.746322,
0.213419135986328,3.58771118774414,-0.448433970947264,3.62192108149379,15.749331,
0.201448127685547,3.56137496948242,-0.520260020751952,3.60480838750089,15.752335,
0.215813337646484,3.53264454956055,-0.539413634033201,3.5801005542899,15.755462,
0.213419135986328,3.53264454956055,-0.580115062255857,3.58631548062926,15.758429,
0.261303169189453,3.54222135620117,-0.632787498779294,3.60777375969828,15.761547,
0.285245185791016,3.5901053894043,-0.625604893798826,3.65535265141296,15.764519,
0.275668379150391,3.61404740600586,-0.620816490478513,3.67732848994636,15.7675879999999,
0.323552412353516,3.62601841430664,-0.666306322021482,3.70089986614018,15.7706139999999,
0.340311823974609,3.63798942260742,-0.716584556884763,3.72347587661128,15.7736689999999,
0.333129218994141,3.70742127075195,-0.613633885498045,3.7725977920795,15.776706,
0.330735017333984,3.69784446411133,-0.685459935302733,3.77535358017695,15.779684,
0.304398799072266,3.73136328735352,-0.678277330322263,3.80470639444299,15.782756,
0.230178547607422,3.7265748840332,-0.714190355224607,3.80136954183378,15.785765,
0.191871321044922,3.75051690063477,-0.642364305419919,3.80996371723723,15.78873,
0.0984974562988281,3.79121832885742,-0.589691868896482,3.83806913254626,15.791783,
0.0601902297363281,3.85107337036133,-0.649546910400389,3.9059314070363,15.794729,
0.0123061965332031,3.8798037902832,-0.611239683837889,3.92767651986098,15.7978059999999,
-0.0403662399902344,3.87740958862305,-0.625604893798826,3.92776221714374,15.8007229999999,
-0.0307894333496094,3.89416900024414,-0.649546910400389,3.94808958617698,15.803691,
-0.0690966599121094,3.88459219360352,-0.683065733642575,3.94479526154312,15.806784,
-0.0068474167480469,3.9348704284668,-0.692642540283201,3.99537305699337,15.809751,
0.0530076247558594,3.93965883178711,-0.714190355224607,4.00422144525703,15.8128499999999,
0.0051235915527344,3.96838925170898,-0.613633885498045,4.01555550947826,15.815806,
0.0170945998535156,3.98514866333008,-0.616028087158201,4.03251691854522,15.818777,
0.0147003981933594,4.00669647827148,-0.639970103759763,4.05751087545141,15.82183,
0.0218830031738281,4.00669647827148,-0.625604893798826,4.05530233373124,15.824845,
0.0242772048339844,4.02824429321289,-0.601662877197263,4.07300131184291,15.8279349999999,
-0.0116358200683594,3.99711967163086,-0.565749852294919,4.03697584300659,15.830927,
-0.00445321508789065,4.01387908325195,-0.544202037353513,4.05060501450732,15.833838,
-0.0283952316894531,4.01627328491211,-0.548990440673826,4.05372025332689,15.836867,
-0.0475488449707031,3.94205303344727,-0.453222374267575,3.96830612877908,15.839876,
