X,Y,Z,Magnitude,Seconds,
0.134937205566406,0.0112048637695312,-0.0270065947265596,0.138068658923338,0.0,
0.175638633789062,0.0447236870117187,0.0208774384765658,0.182441786048463,0.00377199999991262,
0.158879222167969,0.0327526787109375,-0.0653138212890596,0.174874928022344,0.00746699999990597,
0.19000384375,0.0231758720703125,-0.0796790312499969,0.207333860493002,0.0112009999999145,
0.187609642089844,0.03754108203125,-0.00545877978515286,0.191406658509831,0.014917999999966,
0.166061827148437,0.0399352836914062,0.0472136567382844,0.177201824770489,0.0186659999999392,
0.206763255371094,0.03754108203125,-0.0533428129882783,0.21680828468772,0.0223679999999149,
0.17085023046875,0.0351468803710937,0.0232716401367217,0.175973502794307,0.0264039999999568,
0.182821238769531,0.027964275390625,-0.0701022246093714,0.197787582872463,0.030296999999905,
0.168456028808594,0.01838746875,-0.0246123930664037,0.171234641768099,0.0340729999999212,
0.158879222167969,-0.00316034619140632,-0.0341891997070274,0.162546905234628,0.0378139999999121,
0.178032835449219,0.0255700737304687,-0.0844674345703087,0.198706483717969,0.0416010000000142,
0.187609642089844,0.07584830859375,-0.0533428129882783,0.209274459548016,0.0453999999999724,
0.173244432128906,0.0471178886718749,-0.0461602080078087,0.185376626088314,0.0493089999999938,
0.158879222167969,-0.00316034619140632,-0.0892558378906223,0.182261349776373,0.0530659999999443,
0.166061827148437,0.00402225878906243,-0.0557370146484342,0.175212225040273,0.0568549999999277,
0.137331407226562,0.0447236870117187,-0.0174297880859342,0.14547824958897,0.0606389999999237,
0.161273423828125,0.0351468803710937,-0.0102471831054647,0.165376616226911,0.0644320000000107,
0.166061827148437,0.0159932670898437,-0.022218191406246,0.168303187900435,0.0681680000000142,
0.144514012207031,0.0255700737304687,-0.0485544096679646,0.154582208203144,0.0720239999999421,
0.178032835449219,0.0303584770507812,-0.0270065947265596,0.182610743894372,0.075766999999928,
0.19000384375,0.0255700737304687,-0.0150355864257783,0.192305377380673,0.0795249999999896,
0.149302415527344,0.0112048637695312,-0.0796790312499969,0.169603974821734,0.0832359999999426,
0.17085023046875,0.0112048637695312,-0.0246123930664037,0.172977224268901,0.0869849999999133,
0.175638633789062,-0.0127371528320313,-0.0270065947265596,0.178158695831215,0.0906840000000102,
0.187609642089844,-0.00316034619140632,-0.077284829589841,0.202929323849116,0.0944149999999127,
0.1516966171875,0.0447236870117187,-0.0413718046874969,0.163473845214314,0.0982439999999087,
0.134937205566406,0.0231758720703125,0.0256658417968776,0.13929790352849,0.102039999999988,
0.163667625488281,0.0447236870117187,-0.0294007963867156,0.172196709147032,0.105793999999946,
0.110995188964844,0.0159932670898437,-0.0461602080078087,0.121270282298973,0.109609999999975,
0.144514012207031,0.03754108203125,-0.0677080229492155,0.163945140019283,0.113342999999986,
0.194792247070312,0.0495120903320312,-0.0437660063476528,0.205696207839064,0.117083999999977,
0.180427037109375,0.00402225878906243,-0.0341891997070274,0.183681778253699,0.120905999999991,
0.180427037109375,0.0399352836914062,-0.0341891997070274,0.187929891130144,0.124677999999903,
0.178032835449219,0.0207816704101562,-0.0365834013671833,0.182936911471461,0.128394999999955,
0.187609642089844,0.0543004936523437,-0.0317949980468715,0.197880881635311,0.132121999999981,
0.199580650390625,0.0207816704101562,-0.0413718046874969,0.204880306663382,0.135844999999904,
0.173244432128906,0.0351468803710937,0.0160890351562539,0.177504347878429,0.139600999999971,
0.154090818847656,0.0519062919921874,-0.00545877978515286,0.162690017758503,0.143292999999971,
0.139725608886719,0.00162805712890618,-0.0533428129882783,0.149570558754996,0.147134999999935,
0.161273423828125,0.0207816704101562,-0.0270065947265596,0.16483431444031,0.150853999999981,
0.139725608886719,0.0112048637695312,0.0113006318359403,0.140628940942999,0.154616999999917,
0.161273423828125,0.0327526787109375,0.0256658417968776,0.166555067863846,0.158529999999928,
0.1516966171875,0.0255700737304687,-0.0294007963867156,0.156620877168038,0.162423999999987,
0.180427037109375,0.0423294853515625,-0.060525417968746,0.194959039981446,0.166182999999933,
0.149302415527344,-0.00555454785156256,-0.0748906279296833,0.167124715215426,0.170053999999936,
0.154090818847656,-0.0175255561523438,-0.0341891997070274,0.158808145094001,0.173791999999935,
0.146908213867187,0.0159932670898437,-0.0174297880859342,0.148800555800625,0.177661999999941,
0.178032835449219,-0.0247081611328125,-0.022218191406246,0.181107238270639,0.181445999999937,
0.182821238769531,-0.0271023627929688,-0.0724964262695273,0.198529280550856,0.185242000000017,
0.19000384375,0.0112048637695312,-0.0533428129882783,0.197667562613016,0.189021999999909,
0.168456028808594,0.0112048637695312,-0.00306457812499694,0.168856075558861,0.192951999999991,
0.185215440429687,0.01838746875,-0.060525417968746,0.195719658187129,0.196744999999964,
0.201974852050781,0.0112048637695312,0.013694833496098,0.202748460653872,0.200507000000016,
0.168456028808594,-0.0175255561523438,-0.0796790312499969,0.187171917715636,0.204225999999949,
0.187609642089844,0.0566946953124999,-0.0341891997070274,0.198948655834271,0.207998999999973,
0.178032835449219,0.0112048637695312,-0.0677080229492155,0.190802557220478,0.211736999999971,
0.180427037109375,0.03754108203125,0.00651222851562849,0.184406230047644,0.215508999999997,
0.166061827148437,0.027964275390625,-0.0365834013671833,0.172327816644884,0.219320999999923,
0.127754600585937,0.027964275390625,0.0208774384765658,0.13243529026033,0.223071000000004,
0.201974852050781,0.027964275390625,-0.0677080229492155,0.214849291203739,0.226847999999904,
0.144514012207031,0.0231758720703125,-0.0461602080078087,0.153467213350988,0.230887999999936,
0.17085023046875,0.0207816704101562,-0.0533428129882783,0.18018638898031,0.234719999999925,
0.173244432128906,0.0471178886718749,0.00651222851562849,0.179655608921075,0.238602000000014,
0.130148802246094,0.01838746875,0.0831266816406284,0.155521236278868,0.242460999999935,
0.144514012207031,0.0423294853515625,-0.0533428129882783,0.159754626699212,0.246297999999911,
0.161273423828125,0.0327526787109375,-0.0198239897460901,0.165755379295638,0.25014299999998,
0.120571995605469,0.0231758720703125,-0.0198239897460901,0.124369279727583,0.254009999999994,
0.1516966171875,0.0686657036132812,-0.0365834013671833,0.17048515411739,0.257814999999937,
0.156485020507812,0.0255700737304687,-0.0916500395507782,0.183142349181098,0.261663999999996,
0.1516966171875,-0.00794874951171881,-0.0198239897460901,0.153192809408223,0.265449999999987,
0.146908213867187,0.0207816704101562,0.0256658417968776,0.150574355591601,0.269346999999925,
0.182821238769531,0.00162805712890618,-0.000670376464841027,0.182829716730748,0.273102999999992,
0.158879222167969,-0.000766144531250068,-0.0198239897460901,0.160113037519106,0.276847999999973,
0.163667625488281,0.0590888969726562,-0.0126413847656224,0.174466025309256,0.280609999999911,
0.194792247070312,0.00881066210937498,-0.0198239897460901,0.195996525109401,0.284351000000015,
0.187609642089844,0.0351468803710937,0.0256658417968776,0.192591319742198,0.288092000000006,
0.180427037109375,0.0112048637695312,-0.0820732329101528,0.198533322776016,0.291878999999994,
0.168456028808594,-0.000766144531250068,-0.0413718046874969,0.173463675858967,0.295613000000003,
-0.0518105239257815,0.150068560058594,-0.706959866210934,0.724566874443281,0.299483000000009,
-0.389392958007813,0.80368561328125,-0.702171462890622,1.1360379412851,0.303443000000016,
-0.341508924804688,0.877905864746094,0.114251303222659,0.948894310956134,0.30639999999994,
-0.200251026855469,0.686369731933594,0.904337851074223,1.15283599508204,0.309352999999987,
0.101418382324219,0.372729314453125,0.866030624511723,0.948273100281835,0.312401999999906,
0.259435691894531,0.403853936035156,0.245932394531254,0.539339987910926,0.315358999999944,
0.259435691894531,0.351181499511719,-0.733296084472652,0.853439201894907,0.318366999999967,
0.436606614746094,0.0830309135742187,-0.802727932617184,0.917546512419328,0.321325000000002,
0.520403672851562,-0.247368915527344,-0.271215164062497,0.636843017001849,0.324243999999908,
0.4581544296875,-0.580162946289063,0.291422226074221,0.794620311557123,0.327297999999928,
0.34323275,-0.647200592773438,0.638581466796879,0.971835180313671,0.330255999999963,
0.237887876953125,-1.02787865673828,0.13340491650391,1.06344818713785,0.333301000000006,
0.218734263671875,-1.23138579785156,-0.09643844287109,1.25437475840277,0.336225000000013,
0.216340062011719,-1.0925221015625,-0.630345413085934,1.27974329638106,0.339151000000015,
0.139725608886719,-0.975206220214844,-0.572884573242185,1.13962588246467,0.342180999999982,
0.139725608886719,-0.546644123046875,-0.268820962402341,0.624986202141593,0.345136999999909,
0.127754600585937,-0.139629840820313,-0.000670376464841027,0.189256914861737,0.348149999999919,
0.108600987304687,0.236259819824219,0.317758444335942,0.410588974345053,0.351105999999959,
0.178032835449219,0.636091497070312,0.372825082519535,0.758489700193047,0.354029999999966,
0.271406700195312,0.796503008300781,0.372825082519535,0.920367959730672,0.357041999999979,
0.352809556640625,0.815656621582031,0.152558529785159,0.901689754071641,0.360006999999996,
0.453366026367187,0.782137798339844,0.0663672700195352,0.90646836899349,0.363029999999981,
0.410270396484375,0.588207463867187,0.00172382519531666,0.717156043238721,0.365970999999945,
0.314502330078125,0.315268474609375,-0.0677080229492155,0.450433461322295,0.36896999999999,
0.201974852050781,0.1333091484375,0.0232716401367217,0.24311877581281,0.371921999999927,
0.158879222167969,-0.204273285644531,0.154952731445317,0.301629792041627,0.374833999999964,
0.0726879624023435,-0.379050006835938,0.0711556733398471,0.392460924690568,0.377856999999949,
0.077476365722656,-0.53706731640625,-0.113197854492183,0.554308257072755,0.380787999999939,
0.096629979003906,-0.628046979492188,-0.0533428129882783,0.637672186149794,0.383798999999954,
0.13254300390625,-0.640017987792969,-0.0317949980468715,0.6543711442934,0.386759999999981,
0.312108128417969,-0.453270258300781,-0.000670376464841027,0.5503324997574,0.38970699999993,
0.369568968261719,-0.244974713867188,-0.0317949980468715,0.444527563416648,0.392707999999971,
0.338444346679687,-0.00794874951171881,0.00651222851562849,0.338600306465426,0.395657999999912,
0.371963169921875,0.226683013183594,0.073549875000003,0.441759405510329,0.398689999999988,
0.453366026367187,0.401459734375,0.104674496582035,0.614546517704821,0.401634999999942,
0.417453001464844,0.521169817382813,0.107068698242191,0.676275604414442,0.404575999999906,
0.350415354980469,0.502016204101563,0.135799118164066,0.62709854941689,0.407596000000012,
0.204369053710937,0.332027886230469,-0.0294007963867156,0.390990580676249,0.410541999999964,
0.182821238769531,0.219500408203125,0.00890643017578441,0.28580300741077,0.413575999999921,
0.108600987304687,0.00162805712890618,-0.139534072753904,0.176823591392267,0.416518999999994,
0.077476365722656,-0.132447235839844,-0.0437660063476528,0.159562905585317,0.419426999999928,
-0.0111090957031252,-0.225821100585938,-0.0413718046874969,0.229848227533487,0.422411000000011,
-0.0206859023437502,-0.3263775703125,-0.10362104785156,0.343056185655821,0.425313999999958,
0.257041490234375,-0.216244293945313,-0.237696340820309,0.41149905565527,0.428418999999963,
0.874745518554687,0.394277129394531,-0.232907937499997,0.987360260667606,0.431475999999975,
1.28415400244141,1.24421871875,-0.414867263671871,1.83555075346359,0.434527000000003,
0.848409300292969,1.56025333789063,-0.113197854492183,1.77960742117021,0.437625999999909,
0.221128465332031,0.633697295410156,0.439862729003909,0.802464504359547,0.440586999999937,
-0.176309010253906,-0.2497631171875,0.724772726562504,0.786614255510778,0.443581999999992,
-0.331932118164063,-0.4796064765625,0.447045333984379,0.734881510222418,0.446538999999916,
-0.798801441894532,-0.515519501464844,-0.311916592285153,1.00056786901545,0.449507999999923,
-1.09568244775391,-0.707055634277344,-0.726113479492184,1.49254429796223,0.452494999999999,
-1.11962446435547,-1.06379168164063,-0.407684658691403,1.59731601884016,0.455428999999981,
-1.1890563125,-1.25532781445313,0.238749789550784,1.74548110790301,0.458464999999933,
-1.19623891748047,-1.22659739453125,0.516477182128909,1.7894908202127,0.461386999999945,
-1.15314328759766,-1.14519453808594,0.269874411132816,1.64743502742223,0.464399999999955,
-0.798801441894532,-1.130829328125,0.00172382519531666,1.38450774085728,0.467342999999914,
-0.339114723144532,-0.915351178710938,0.0687614716796912,0.978567685859518,0.470294999999965,
-0.102088758789063,-0.458058661621094,0.470987350585942,0.664882648720181,0.473312999999962,
-0.0685699355468752,-0.144418244140625,0.65055247509766,0.669908193827524,0.476223000000005,
0.0463517441406248,-0.261734125488281,0.748714743164067,0.794497956738233,0.479238000000009,
-0.102088758789063,-0.539461518066406,1.06474936230469,1.19796996985477,0.482180999999969,
-0.44206539453125,-0.781275885742188,1.21558406689453,1.51111165913448,0.485089000000016,
-0.935270936523438,-0.979994623535156,0.983346505859378,1.67394490275191,0.488093999999933,
-1.13638387597656,-1.04224386669922,1.27304490673828,1.99957093543189,0.491010999999958,
-1.08610564111328,-0.783670087402344,2.29776321728516,2.65960148748942,0.49399799999992,
-0.789224635253906,-0.666354206054688,3.36318295605469,3.51822441704835,0.496918999999934,
-0.688668165527344,-1.08773369824219,3.66485236523438,3.88440102196805,0.499824999999987,
-1.28243017724609,-1.3606726875,3.34881774609375,3.83544490490639,0.502796999999987,
-1.74451109765625,-1.21223218457031,3.00884111035157,3.68319842887884,0.505688999999961,
-1.90731681054688,-1.01351344677734,2.66647027294922,3.43149102273561,0.508669999999938,
-1.70380966943359,-1.04942647167969,2.53478918164063,3.22946117866121,0.511566000000016,
-1.62480101464844,-0.953658405273438,2.02961263134766,2.7692544347671,0.514459999999985,
-1.56494597314453,-0.987177228515625,1.45500423291016,2.35385048317593,0.517443999999955,
-1.37819824365234,-1.02548445507813,0.708013314941409,1.85804510724245,0.520330999999942,
-1.05019261621094,-1.16195394970703,0.346488864257816,1.60408729358424,0.52332100000001,
-0.583323292480469,-1.27926983105469,0.0831266816406284,1.40844148241861,0.526232999999934,
-0.0230801040039065,-1.44446974560547,0.0711556733398471,1.44640542968381,0.529146999999966,
0.587441319335937,-1.54502621533203,0.20283676464844,1.66533361907439,0.532157999999981,
1.16204971777344,-1.53066100537109,0.468593148925784,1.97809559909554,0.535086999999976,
1.57385240332031,-1.47798856884766,0.674494491699223,2.26194704102772,0.538096999999993,
1.9138290390625,-1.36306688916016,0.942645077636723,2.53165413859721,0.541022999999996,
2.01917391210938,-1.30321184765625,0.99531751416016,2.60116922963668,0.543937999999912,
1.86594500585937,-1.19068436962891,0.901943649414067,2.39018459113276,0.546936999999957,
1.63610164648437,-1.09970470654297,0.80378138134766,2.12890665559174,0.549884999999904,
1.39668148046875,-0.979994623535156,0.748714743164067,1.86324512254116,0.552913999999987,
1.10698307958984,-0.872255548828125,0.588303231933597,1.52720069855379,0.555836999999997,
0.869957115234375,-0.72860344921875,0.605062643554691,1.28599734493729,0.558833999999933,
0.778977452148438,-0.515519501464844,0.648158273437504,1.13695882721043,0.561782999999991,
0.676026780761719,-0.434116645019531,0.712801718261723,1.07403713127011,0.564792000000011,
0.589835520996094,-0.242580512207031,0.777445163085941,1.00557059838536,0.567894999999908,
0.558710899414062,-0.122870429199219,0.820540792968753,1.00027106547249,0.570936999999958,
0.546739891113281,-0.0534385810546876,0.784627768066409,0.957820925278089,0.57400999999993,
0.525192076171875,0.0997903251953124,0.746320541503909,0.918030052093611,0.576971999999955,
0.541951487792969,0.145280156738281,0.741532138183597,0.929885826874488,0.579909999999927,
0.541951487792969,0.126126543457031,0.643369870117191,0.850613960536765,0.582947999999988,
0.520403672851562,0.0255700737304687,0.626610458496097,0.814932192323182,0.585915999999997,
0.486884849609375,-0.108505219238281,0.45901634228516,0.677883649209758,0.588934999999992,
0.427029808105469,-0.2497631171875,0.475775753906253,0.686366257710032,0.591888999999924,
0.36238636328125,-0.465241266601563,0.578726425292972,0.826255158999699,0.594832999999994,
0.257041490234375,-0.800429499023438,0.708013314941409,1.09910898674478,0.597836999999913,
0.24746468359375,-1.13561773144531,0.710407516601567,1.36218399683859,0.600774999999999,
0.115783592285156,-1.50911319042969,0.763079953125004,1.69502786898404,0.603799999999978,
0.0607169541015623,-1.81796520458984,0.672100290039065,1.93917581293841,0.606776999999965,
-0.0206859023437502,-1.99753032910156,0.669706088378909,2.10690805851802,0.609690999999998,
-0.018291700683594,-2.16273024365234,0.564361215332035,2.23522711921932,0.612684999999942,
-0.126030775390625,-2.33271856152344,0.530842392089847,2.39567386946997,0.615601999999967,
-0.21222203515625,-2.35187217480469,0.332123654296879,2.3846691679497,0.618606,
-0.315172706542969,-2.28483452832031,0.334517855957035,2.33060182199972,0.621517999999924,
-0.44206539453125,-2.25610410839844,0.162135336425784,2.30471591053915,0.624430999999959,
-0.607265309082031,-2.20103747021484,0.0304542451171912,2.28347642027456,0.627417999999921,
-0.724581190429688,-2.04541436230469,-0.323887600585934,2.19400113784385,0.630334999999945,
-0.777253626953125,-1.9352810859375,-0.448386086914059,2.13318685659211,0.633338999999978,
-0.750917408691407,-1.78923478466797,-0.536971548339841,2.01334957547569,0.636253000000011,
-0.743734803710938,-1.73895654980469,-0.467539700195308,1.94825683923303,0.639139,
-0.777253626953125,-1.60727545849609,-0.448386086914059,1.84078996168322,0.642125999999962,
-0.78683043359375,-1.44925814892578,-0.534577346679685,1.73355826352627,0.645055999999954,
-0.624024720703125,-1.23617420117188,-0.390925247070308,1.43887318985674,0.648037999999929,
-0.341508924804688,-1.01351344677734,-0.125168862792965,1.07680318384217,0.650965999999926,
-0.11645396875,-0.800429499023438,0.121433908203128,0.817921208800715,0.653973999999948,
0.0559285507812498,-0.618470172851563,0.0687614716796912,0.624789162427686,0.656938999999966,
0.283377708496094,-0.38383841015625,0.298604831054691,0.562849621047199,0.659884999999917,
0.551528294433594,-0.139629840820313,0.312970041015628,0.649330577272978,0.66290499999991,
0.597018125976562,0.130914946777344,0.332123654296879,0.695611592613144,0.66586499999994,
0.733487620605469,0.557082842285156,0.514082980468753,1.05481121228285,0.668872999999962,
0.891504930175781,0.839598638183594,0.590697433593753,1.35964347231975,0.671821999999906,
0.843620896972656,1.0526825859375,0.626610458496097,1.48743991853174,0.674751000000015,
0.956148375,1.39984182666016,0.75829154980469,1.85708990875175,0.677774999999997,
1.14529030615234,1.60813737109375,0.698436508300786,2.09418462552905,0.680721999999946,
1.21951055761719,1.84995173876953,0.76547415478516,2.34424361310002,0.683754999999906,
1.17402072607422,1.93853720019531,0.57393802197266,2.33787424701561,0.686713999999938,
1.08064686132813,1.96966182177734,0.190865756347661,2.25472727131503,0.689661000000001,
1.11416568457031,1.85952854541016,-0.0126413847656224,2.16780335558326,0.692687999999976,
1.185991734375,1.83558652880859,-0.431626675292966,2.22761214882076,0.695652999999993,
1.54991038671875,1.92656619189453,-0.477116506835934,2.51823741130676,0.698691999999937,
1.8755218125,2.00078644335938,-0.390925247070308,2.77011750831818,0.701675999999907,
1.96171307226563,1.85952854541016,-0.625557009765622,2.77443438588119,0.704730999999924,
1.78214794775391,1.69911703417969,-1.23607843310547,2.75516603788438,0.707878999999934,
1.86833920751953,1.73981846240234,-1.152281375,2.80096626963672,0.710958000000005,
1.93298265234375,1.66080980761719,-1.14031036669922,2.79195610347674,0.71403799999996,
1.79411895605469,1.52673451464844,-1.23129002978515,2.65816783596181,0.717009999999959,
1.46132492529297,1.29210275195313,-1.49225801074218,2.455979240448,0.719965999999999,
1.01839761816406,0.997615947753906,-1.8250520415039,2.31585540181004,0.723032999999987,
0.484490647949219,0.909030486328125,-2.301498171875,2.52149984100102,0.726017999999954,
0.580258714355469,0.947337712890625,-2.08841422412109,2.36550689903065,0.729044999999928,
0.984878794921875,0.997615947753906,-1.58084347216796,2.11288662814543,0.732025999999905,
1.25302938085937,0.887482671386719,-1.53774784228515,2.17310297679636,0.73497999999995,
1.46850753027344,0.736647966796875,-1.32226969287109,2.10892430735225,0.738031999999976,
1.64089004980469,0.722282756835938,-1.20974221484375,2.16279651441036,0.74101799999994,
1.81566677099609,0.693552336914063,-1.11876255175781,2.24260792706928,0.744078999999942,
1.69356248632812,0.770166790039062,-1.12355095507812,2.1734022932338,0.747078999999985,
1.51639156347656,0.851569646484375,-1.152281375,2.08623263414421,0.75010199999997,
1.30570181738281,1.00001014941406,-1.31987549121093,2.10877899438211,0.753062,
1.03036862646484,1.17957527392578,-1.4036725493164,2.10317711069813,0.756017999999926,
0.695180394042969,1.43814905322266,-1.38691313769531,2.11543766891365,0.75904700000001,
0.417453001464844,1.56025333789063,-1.46352759082031,2.17958034858161,0.761993999999959,
0.199580650390625,1.59377216113281,-1.54014204394531,2.2253043956143,0.765002999999979,
0.139725608886719,1.55785913623047,-1.31748128955078,2.04504407835917,0.767957999999908,
0.20915745703125,1.5889837578125,-1.24086683642578,2.02691063694605,0.770890000000009,
0.405481993164062,1.63686779101563,-1.06130171191406,1.9925142749191,0.773915999999986,
0.6113833359375,1.74460686572266,-0.757238101074215,1.99771175125622,0.77687299999991,
0.920235350097656,1.99839224169922,-0.393319448730466,2.23497311840716,0.779889999999909,
1.12374249121094,2.11570812304688,0.0304542451171912,2.39581833817282,0.782847999999944,
1.25781778417969,2.18035156787109,0.195654159667972,2.52474139030357,0.785788999999909,
1.62173643652344,2.01994005664063,0.53563079541016,2.64520079596253,0.788828999999964,
1.81327256933594,1.91459518359375,0.619427853515628,2.70874934120112,0.791796999999974,
1.97368408056641,1.73742426074219,0.600274240234379,2.69710976328101,0.794825999999944,
1.75341752783203,1.52673451464844,0.320152645996098,2.3468892223251,0.797795999999948,
1.11655988623047,1.19154628222656,-0.55612516162109,1.72504020753576,0.800738999999908,
0.376751573242187,1.16999846728516,-1.31269288623047,1.79833277647663,0.803778999999963,
0.364780564941406,1.33280418017578,-1.55450725390625,2.07988572900055,0.806731000000013,
0.759823838867187,1.61771417773438,-1.13073356005859,2.11492075756905,0.809762999999975,
1.15726131445312,1.69193442919922,-0.81230473925781,2.20493420583476,0.812717999999904,
1.36076845556641,1.71587644580078,-0.601614993164059,2.27109298949169,0.81566799999996,
1.34879744726562,1.54588812792969,-0.589643984863278,2.13464392503988,0.818702999999914,
1.18838593603516,1.41660123828125,-0.836246755859372,2.02936661004153,0.821657999999957,
0.927417955078125,1.27294913867188,-1.01102347705078,1.87154269098907,0.824677999999949,
0.714334007324219,1.11253762744141,-1.14749297167968,1.75064364350575,0.827625000000012,
0.556316697753906,0.992827544433594,-1.27917406298828,1.71215685163708,0.830553000000009,
0.371963169921875,0.921001494628906,-1.34142330615234,1.66913655498155,0.833560999999918,
0.276195103515625,0.913818889648438,-1.39409574267578,1.68963062177242,0.836502999999993,
0.309713926757812,0.839598638183594,-1.27199145800781,1.55525266722559,0.839558000000011,
0.448577623046875,0.72707116015625,-1.14031036669922,1.42483756556003,0.842509999999947,
0.484490647949219,0.61214948046875,-0.939197427246091,1.22129029380164,0.845510999999988,
0.417453001464844,0.406248137695313,-0.946380032226559,1.1112784184038,0.848450999999955,
0.192398045410156,0.188375786621094,-1.10679154345703,1.1390741703378,0.851376999999957,
-0.102088758789063,0.0878193168945312,-1.28396246630859,1.29100502012198,0.85437300000001,
-0.348691529785156,0.0159932670898437,-1.39648994433593,1.43945327543741,0.857289999999921,
-0.612053712402344,-0.201879083984375,-1.55929565722656,1.6872367522258,0.860254999999938,
-0.719792787109375,-0.276099335449219,-1.64788111865234,1.81929785373948,0.863168999999971,
-0.535439259277344,-0.242580512207031,-1.41564355761718,1.53283632117103,0.866049999999973,
-0.190674220214844,-0.151600849121094,-1.08763793017578,1.11458321486815,0.869019999999978,
0.0942357773437498,-0.0797747993164063,-0.85061196582031,0.859526100089023,0.87194599999998,
0.47730804296875,0.164433770019531,-0.548942556640622,0.745787746679064,0.87496299999998,
0.826861485351562,0.339210491210937,-0.311916592285153,0.946602151829447,0.877913999999919,
0.927417955078125,0.391882927734375,-0.208965920898434,1.028271874821,0.880840999999918,
0.891504930175781,0.492439397460938,-0.285580374023434,1.05774937992266,0.883853999999928,
0.790948460449219,0.468497380859375,-0.472328103515622,1.03352943854045,0.886815999999953,
0.580258714355469,0.518775615722656,-0.630345413085934,1.00158057831228,0.889833999999951,
0.410270396484375,0.513987212402344,-0.821881545898433,1.05261290521871,0.892778999999905,
0.367174766601562,0.588207463867187,-0.809910537597652,1.06618966825312,0.895702999999912,
0.446183421386718,0.739042168457031,-0.647104824707029,1.07889185113112,0.898719999999912,
0.558710899414062,0.80368561328125,-0.481904910156247,1.09100906346008,0.901657999999998,
0.781371653808594,0.863540654785156,-0.170658694335934,1.17701678568948,0.90467799999999,
0.9178411484375,0.904242083007813,-0.0557370146484342,1.28964829827721,0.907617999999957,
1.06867585302734,0.916213091308594,0.135799118164066,1.41419797341925,0.910553999999934,
1.18359753271484,0.88030006640625,0.238749789550784,1.49426663898183,0.913578999999913,
1.25781778417969,0.887482671386719,0.183683151367191,1.55031305558155,0.916526999999974,
1.25542358251953,0.844387041503906,0.174106344726566,1.52295465023747,0.919545999999968,
1.31527862402344,0.853963848144531,0.114251303222659,1.57234394234814,0.922492999999918,
1.3009134140625,0.832416033203125,-0.00785298144530877,1.54445907441374,0.925415999999927,
1.24584677587891,0.868329058105469,0.0184832368164098,1.51870707253289,0.92849799999999,
1.24105837255859,0.861146453125,-0.022218191406246,1.51072590030651,0.931545999999912,
1.15247291113281,0.810868218261719,-0.10362104785156,1.41295378545787,0.934677999999963,
1.00403240820313,0.868329058105469,-0.146716677734371,1.33551571065185,0.93773299999998,
0.879533921875,1.00958695605469,-0.149110879394527,1.34724897324823,0.940747999999985,
0.719122410644531,1.04549998095703,-0.137139871093746,1.27632856111425,0.943690999999944,
0.525192076171875,1.13169124072266,-0.0940442412109341,1.25115790390624,0.946619999999939,
0.355203758300781,1.22027670214844,0.0232716401367217,1.27113591285587,0.949649999999906,
0.283377708496094,1.34477518847656,0.0400310517578166,1.37489116599079,0.952620999999908,
0.252253086914062,1.44533165820313,0.205230966308598,1.48146379354807,0.955621999999948,
0.321684935058594,1.54828232958984,0.36324827587891,1.62253156502202,0.958557999999925,
0.374357371582031,1.41899543994141,0.502111972167972,1.55106670805182,0.96148299999993,
0.20915745703125,1.31125636523438,0.411132309082035,1.3900251338629,0.964501999999925,
0.108600987304687,1.14126804736328,0.312970041015628,1.18837585676808,0.967444,
0.149302415527344,1.00958695605469,0.073549875000003,1.02321386680918,0.97048899999993,
0.264224095214844,1.02395216601562,-0.0437660063476528,1.05839873114617,0.973446999999965,
0.460548631347656,1.01198115771484,-0.0365834013671833,1.11245190937032,0.976372999999967,
0.632931150878906,0.944943511230469,0.00890643017578441,1.13736511537322,0.979401999999936,
0.747852830566406,0.853963848144531,-0.122774661132809,1.1417581738443,0.982343000000014,
0.759823838867187,0.801291411621094,-0.216148525878904,1.1252201463217,0.985354999999913,
0.733487620605469,0.741436370117188,-0.299945583984371,1.08521856502077,0.988297999999986,
0.793342662109375,0.640879900390625,-0.395713650390622,1.09394191772368,0.991208999999913,
0.640113755859375,0.655245110351563,-0.498664321777341,1.04295631782625,0.994230000000016,
0.819678880371094,0.693552336914063,-0.335858608886715,1.12502858458294,0.99717099999998,
0.80291946875,0.652850908691406,-0.256849954101559,1.06623912946344,1.00019699999996,
0.89868753515625,0.537929229003906,-0.13474566943359,1.05601303812645,1.00314099999991,
0.829255687011719,0.262596038085937,-0.424444070312497,0.967871087740071,1.0060719999999,
0.652084764160156,0.142885955078125,-0.520212136718747,0.846316491035049,1.00908699999991,
0.467731236328125,0.217106206542969,-0.778785916015622,0.93403164686257,1.01203699999996,
