X,Y,Z,Magnitude,Seconds,
-0.444459596191407,0.308085869628906,-0.127563064453122,0.555637985674395,0.0,
-0.449247999511719,0.269778643066406,-0.273609365722653,0.591156803505792,0.00290499999994154,
-0.451642201171875,0.322451079589844,-0.14192827441406,0.57279927696025,0.00589899999999943,
-0.552198670898438,0.463708977539063,-0.0533428129882783,0.72304553362138,0.00884299999995619,
-0.240952455078125,0.329633684570313,0.152558529785159,0.435879061921751,0.0118489999999838,
-0.262500270019531,0.339210491210937,-0.000670376464841027,0.428917939135794,0.0148110000000088,
-0.0494163222656252,0.202740996582031,0.123828109863284,0.242650541713075,0.0177569999999605,
-0.1547611953125,0.255413433105469,-0.0413718046874969,0.301494072260759,0.020766999999978,
0.0152271225585936,0.183587383300781,0.0376368500976589,0.188023203498707,0.0237179999999171,
0.0607169541015623,0.0351468803710937,-0.125168862792965,0.143489009781499,0.026732999999922,
0.158879222167969,-0.03907337109375,-0.0557370146484342,0.17284660936,0.0296589999999242,
0.0200155258789061,0.00881066210937498,0.013694833496098,0.0258030522903897,0.0325990000000047,
0.0224097275390623,0.0303584770507812,0.013694833496098,0.0401420164130262,0.0356039999999211,
-0.00392649072265649,-0.0151313544921876,0.0424252534179725,0.045213685381116,0.0385159999999587,
-0.0733583388671877,-0.0749863959960938,-0.0413718046874969,0.112765383380435,0.0414789999999812,
-0.0973003554687503,-0.00794874951171881,0.00890643017578441,0.0980299254902366,0.0444159999999556,
-0.217010438476563,0.118943938476562,-0.0246123930664037,0.248690491978607,0.0473279999999932,
-0.276865479980469,0.154856963378906,-0.110803652832027,0.336024735090546,0.0503189999999449,
-0.293624891601563,0.219500408203125,-0.0868616362304646,0.376750514290295,0.0532519999999295,
-0.324749513183594,0.224288811523437,-0.120380459472653,0.412624735456352,0.056261999999947,
-0.336720521484375,0.355969902832031,-0.0509486113281223,0.492636825975504,0.0591909999999416,
-0.391787159667969,0.358364104492187,-0.0461602080078087,0.532966016433043,0.0621909999999843,
-0.240952455078125,0.351181499511719,-0.0437660063476528,0.428137821874099,0.0651209999999764,
-0.185885816894531,0.346393096191406,-0.0174297880859342,0.393504144227652,0.0680380000000014,
-0.214616236816406,0.284143853027344,-0.0748906279296833,0.363876990850154,0.0710480000000189,
-0.178703211914063,0.264990239746094,-0.0940442412109341,0.333165100834459,0.0739800000000059,
-0.123636573730469,0.202740996582031,-0.0198239897460901,0.238291637764186,0.0769679999999653,
-0.018291700683594,0.0519062919921874,-0.146716677734371,0.156699179920278,0.0798979999999574,
-0.109271363769532,0.109367131835937,0.123828109863284,0.198077765684052,0.0828109999999924,
0.0367749374999998,-0.0199197578125001,0.0974918916015657,0.106084219879721,0.0858210000000099,
-0.0733583388671877,0.0447236870117187,-0.187418105957027,0.206172744323285,0.088752999999997,
-0.0350511123046877,0.0327526787109375,-0.144322476074215,0.152086473878285,0.0917509999999311,
-0.0877235488281252,0.085425115234375,-0.0413718046874969,0.129245880224118,0.0946789999999282,
0.000861912597656,0.066271501953125,0.052002060058598,0.0842429172974623,0.0976170000000138,
-0.126030775390625,0.111761333496094,-0.0437660063476528,0.174039694673399,0.100594999999998,
-0.185885816894531,0.169222173339844,0.0496078583984403,0.256223770340082,0.10354099999995,
-0.185885816894531,0.140491753417969,-0.153899282714841,0.279242652403148,0.10652499999992,
-0.224193043457031,0.2865380546875,0.128616513183598,0.385887010641884,0.109475999999972,
-0.339114723144532,-0.237792108886719,-0.541759951660152,0.681944079617234,0.11244899999997,
0.283377708496094,0.432584355957031,1.81892288525391,1.89100835883707,0.115560999999957,
0.606594932617187,-0.659171601074219,2.37198346875,2.53550195976318,0.118561999999997,
-0.286442286621094,0.00881066210937498,-1.4587391875,1.48662262477055,0.121608999999921,
-0.597688502441406,-0.194696479003906,-3.1274977446289,3.19004395072326,0.124512999999979,
0.0439575424804686,0.195558391601563,-2.75400228564453,2.76128664564221,0.127452999999946,
-0.513891444335938,0.547506035644531,-2.77555010058593,2.87533052647717,0.130450999999994,
-0.133213380371094,0.971279729492188,0.224384579589847,1.00572290278686,0.133436999999958,
-0.700639173828125,1.41420703662109,2.26903279736329,2.76394403522239,0.136430000000018,
-0.664726148925782,1.32322737353516,3.56190169384766,3.85745190660535,0.139381999999955,
-0.794013038574219,1.16521006396484,2.54676018994141,2.91104082136634,0.142308999999955,
-0.415729176269531,0.375123516113281,0.346488864257816,0.658485332712587,0.145307000000003,
-0.470795814453125,0.01838746875,-1.60717969042968,1.67481740952358,0.148251999999957,
-0.3846045546875,-0.0366791694335938,-2.301498171875,2.33370089345243,0.151239999999916,
-0.264894471679688,-0.338348578613281,-2.44754447314453,2.48497943448158,0.154183999999987,
0.225916868652344,-0.472423871582031,-0.752449697753903,0.916735127303506,0.157186000000024,
0.242676280273437,-0.580162946289063,0.849271212890628,1.05676033910195,0.160133999999971,
0.20915745703125,-0.57537454296875,1.92187355664063,2.01702768306307,0.163077999999928,
0.340838548339844,-0.4796064765625,1.89793154003907,1.98704237978715,0.166091999999935,
0.300137120117187,-0.484394879882813,0.578726425292972,0.812185302662702,0.169033000000013,
0.185215440429687,-0.23060950390625,-0.637528018066403,0.702799741380947,0.171996999999919,
0.156485020507812,-0.142024042480469,-1.34142330615234,1.35796718538207,0.174922999999922,
0.077476365722656,0.027964275390625,-1.48268120410156,1.48496738716369,0.177858000000015,
0.000861912597656,0.315268474609375,-0.764420706054684,0.826882077336902,0.180880999999999,
-0.130819178710938,0.57384225390625,0.360854074218754,0.690379788788087,0.183849000000009,
-0.252923463378906,0.712705950195313,1.28501591503907,1.49103519464668,0.186850999999933,
-0.430094386230469,0.798897209960938,1.28980431835938,1.57696325664514,0.18978299999992,
-0.545016065917969,0.741436370117188,0.49732356884766,1.04599289441785,0.192706999999928,
-0.590505897460938,0.660033513671875,-0.32628180224609,0.943822689165261,0.195701999999983,
-0.609659510742188,0.466103179199219,-0.960745242187496,1.22962120715444,0.198642999999947,
-0.545016065917969,0.348787297851562,-1.05172490527343,1.23483617035772,0.201639999999998,
-0.5378334609375,0.320056877929688,-0.752449697753903,0.978714352844612,0.204567999999995,
-0.494737831054688,0.183587383300781,-0.038977603027341,0.529139964774616,0.207482000000027,
-0.394181361328125,0.11415553515625,0.559572812011723,0.693925186002073,0.21050200000002,
-0.181097413574219,-0.0438617744140625,0.787021969726567,0.808779147413128,0.213412999999946,
-0.037445313964844,-0.101322614257813,0.559572812011723,0.569903637153397,0.216407000000004,
0.0822647690429685,-0.185119672363281,-0.14192827441406,0.24734676144986,0.219323999999915,
0.17085023046875,-0.209061688964844,-0.630345413085934,0.685734592129152,0.222233999999958,
0.249858885253906,-0.201879083984375,-0.692594656249996,0.763460532677849,0.225233000000003,
0.297742918457031,-0.125264630859375,-0.453174490234371,0.556515221566156,0.22817299999997,
0.242676280273437,-0.00794874951171881,0.0184832368164098,0.243508910862341,0.231183999999985,
-0.181097413574219,0.178798979980469,-0.022218191406246,0.25545840458809,19.7608299999999,
-0.185885816894531,0.214712004882812,-0.0701022246093714,0.292521971582524,19.765132,
-0.193068421875,0.171616375,0.00172382519531666,0.258322603089137,19.768093,
-0.1547611953125,0.205135198242187,-0.0724964262695273,0.266996645960709,19.771029,
-0.157155396972656,0.145280156738281,0.0304542451171912,0.216174937921098,19.77406,
-0.17391480859375,0.164433770019531,-0.0150355864257783,0.239814291130041,19.77701,
-0.159549598632813,0.193164189941406,-0.00545877978515286,0.250595843892819,19.780032,
-0.149972791992188,0.176404778320312,-0.0246123930664037,0.232843840469585,19.782979,
-0.159549598632813,0.135703350097656,-0.0461602080078087,0.214481324256782,19.7859129999999,
-0.183491615234375,0.169222173339844,0.0208774384765658,0.25048190403405,19.7889369999999,
-0.161943800292969,0.181193181640625,-0.022218191406246,0.24402953008959,19.791884,
-0.126030775390625,0.176404778320312,0.00890643017578441,0.216983240500913,19.794908,
-0.104482960449219,0.142885955078125,-0.0150355864257783,0.177648962963447,19.797855,
-0.1547611953125,0.135703350097656,-0.060525417968746,0.214545456774485,19.800785,
-0.164338001953125,0.183587383300781,-0.0461602080078087,0.250683208445435,19.803806,
-0.17391480859375,0.205135198242187,0.0160890351562539,0.269417273496562,19.80678,
-0.164338001953125,0.159645366699219,-0.0437660063476528,0.233257551444956,19.809799,
-0.152366993652344,0.202740996582031,-0.09643844287109,0.271330030982804,19.8127499999999,
-0.183491615234375,0.166827971679687,-0.0653138212890596,0.256450073596125,19.8156839999999,
-0.176309010253906,0.169222173339844,0.00172382519531666,0.244384906694084,19.818713,
-0.147578590332031,0.183587383300781,-0.09643844287109,0.254527289096902,19.8217509999999,
-0.121242372070313,0.169222173339844,-0.077284829589841,0.222055852478216,19.824872,
-0.130819178710938,0.176404778320312,-0.0748906279296833,0.232036439992828,19.827903,
-0.190674220214844,0.164433770019531,-0.0533428129882783,0.257372451274174,19.830954,
-0.169126405273438,0.157251165039062,-0.0581312163085901,0.238140521911693,19.833889,
-0.126030775390625,0.183587383300781,-0.0341891997070274,0.225293109147611,19.8368459999999,
-0.176309010253906,0.1333091484375,-0.0341891997070274,0.223662910493561,19.8398559999999,
-0.157155396972656,0.171616375,0.00890643017578441,0.232871903552683,19.842856,
-0.183491615234375,0.169222173339844,-0.0629196196289037,0.257418327524335,19.845966,
-0.157155396972656,0.219500408203125,-0.0270065947265596,0.271307213611611,19.8489129999999,
-0.17391480859375,0.169222173339844,-0.0102471831054647,0.242873443092607,19.851896,
-0.147578590332031,0.176404778320312,0.0543962617187539,0.236340938958115,19.854922,
-0.164338001953125,0.142885955078125,-0.0485544096679646,0.223116350236234,19.857885,
-0.133213380371094,0.174010576660156,-0.0437660063476528,0.22347471626812,19.860908,
-0.157155396972656,0.164433770019531,-0.0102471831054647,0.227686820615657,19.8639009999999,
-0.0996945571289065,0.174010576660156,-0.0653138212890596,0.210913680832013,19.866862,
-0.183491615234375,0.174010576660156,-0.00785298144530877,0.253003009801268,19.8698969999999,
-0.138001783691406,0.193164189941406,-0.0270065947265596,0.238927295921697,19.872832,
-0.169126405273438,0.183587383300781,-0.0198239897460901,0.250401794796675,19.875876,
-0.145184388671875,0.174010576660156,-0.0437660063476528,0.230810855063727,19.878828,
-0.142790187011719,0.176404778320312,-0.0270065947265596,0.228554237501309,19.8817429999999,
-0.188280018554688,0.159645366699219,-0.0677080229492155,0.255969499876788,19.884827,
-0.176309010253906,0.200346794921875,-0.0940442412109341,0.282962938628224,19.887783,
-0.176309010253906,0.162039568359375,-0.0294007963867156,0.241259394923758,19.89081,
-0.138001783691406,0.15246276171875,-0.00306457812499694,0.205666666360892,19.893744,
-0.133213380371094,0.193164189941406,0.013694833496098,0.235044160638165,19.896679,
-0.140395985351563,0.231471416503906,-0.0653138212890596,0.278488679505183,19.8996989999999,
-0.140395985351563,0.197952593261719,-0.0317949980468715,0.244759440640553,19.90264,
-0.178703211914063,0.176404778320312,-0.0341891997070274,0.253421358885253,19.905657,
-0.149972791992188,0.188375786621094,-0.0317949980468715,0.242874859184413,19.908632,
-0.149972791992188,0.145280156738281,-0.0126413847656224,0.209184050273017,19.911616,
-0.152366993652344,0.185981584960938,-0.0413718046874969,0.243959990413052,19.914675,
-0.149972791992188,0.178798979980469,-0.0341891997070274,0.235859735768094,19.917604,
-0.152366993652344,0.147674358398437,-0.0437660063476528,0.21665382570974,19.920628,
-0.128424977050781,0.159645366699219,-0.0509486113281223,0.211128820475287,19.923557,
-0.1547611953125,0.214712004882812,-0.0294007963867156,0.266301857754549,19.926594,
-0.13560758203125,0.174010576660156,-0.0126413847656224,0.220972626591519,19.929568,
-0.176309010253906,0.162039568359375,-0.0844674345703087,0.253922106784136,19.93256,
-0.176309010253906,0.193164189941406,-0.0724964262695273,0.271390867927211,19.9356409999999,
-0.147578590332031,0.150068560058594,-0.0150355864257783,0.211012042077262,19.9386989999999,
-0.169126405273438,0.200346794921875,0.0208774384765658,0.263017958766176,19.941772,
-0.121242372070313,0.164433770019531,-0.0892558378906223,0.222945693175781,19.944762,
-0.181097413574219,0.200346794921875,-0.0150355864257783,0.270483234781579,19.947732,
-0.104482960449219,0.174010576660156,-0.0509486113281223,0.209265694298175,19.950847,
-0.166732203613281,0.164433770019531,-0.098832644531246,0.254177072273674,19.953837,
-0.183491615234375,0.142885955078125,-0.0437660063476528,0.236645372512396,19.956857,
-0.161943800292969,0.188375786621094,-0.060525417968746,0.255684488498494,19.959807,
-0.138001783691406,0.164433770019531,-0.0724964262695273,0.226580424676755,19.96281,
-0.13560758203125,0.1333091484375,-0.0150355864257783,0.190753281022007,19.965888,
-0.157155396972656,0.200346794921875,0.00651222851562849,0.254713694475466,19.968836,
-0.185885816894531,0.1333091484375,-0.0341891997070274,0.231287196697711,19.971848,
-0.149972791992188,0.181193181640625,-0.0126413847656224,0.235547472964108,19.974802,
-0.183491615234375,0.142885955078125,-0.0509486113281223,0.238078411486997,19.977799,
-0.161943800292969,0.174010576660156,-0.0198239897460901,0.238533992991318,19.980861,
-0.126030775390625,0.154856963378906,-0.0317949980468715,0.202176549958937,19.983894,
-0.147578590332031,0.174010576660156,-0.0485544096679646,0.233273770090412,19.9870159999999,
-0.164338001953125,0.188375786621094,-0.0317949980468715,0.251998686051856,19.990008,
-0.193068421875,0.15246276171875,-0.060525417968746,0.25334489427755,19.992988,
-0.11645396875,0.169222173339844,-0.0437660063476528,0.210031269336518,19.9960649999999,
-0.147578590332031,0.178798979980469,-0.0557370146484342,0.238443138648117,19.9990399999999,
-0.147578590332031,0.195558391601563,-0.0317949980468715,0.24704948239367,20.0020969999999,
-0.197856825195313,0.181193181640625,-0.0461602080078087,0.272229787408992,20.0051159999999,
-0.140395985351563,0.164433770019531,-0.0533428129882783,0.222699243652004,20.008102,
-0.140395985351563,0.188375786621094,-0.0701022246093714,0.245175022347577,20.011167,
-0.142790187011719,0.176404778320312,-0.10362104785156,0.249489488513916,20.014097,
-0.17391480859375,0.197952593261719,0.0232716401367217,0.264524401637908,20.01721,
-0.147578590332031,0.195558391601563,0.0496078583984403,0.249966926742438,20.020184,
-0.157155396972656,0.135703350097656,-0.0485544096679646,0.213238713003912,20.023197,
-0.152366993652344,0.178798979980469,-0.0509486113281223,0.24037582447695,20.0262309999999,
-0.1547611953125,0.176404778320312,0.00890643017578441,0.234838237702612,20.0292079999999,
-0.185885816894531,0.176404778320312,-0.0677080229492155,0.265059538799262,20.0322649999999,
-0.128424977050781,0.140491753417969,-0.00785298144530877,0.190506107058355,20.035223,
-0.142790187011719,0.171616375,-0.0748906279296833,0.235477862710456,20.0382609999999,
-0.142790187011719,0.171616375,-0.0246123930664037,0.224604068457002,20.04126,
-0.138001783691406,0.183587383300781,-0.0724964262695273,0.240841340784946,20.044192,
-0.149972791992188,0.200346794921875,-0.0294007963867156,0.251982307715389,20.047247,
-0.176309010253906,0.197952593261719,-0.0126413847656224,0.265386323846094,20.050245,
-0.190674220214844,0.164433770019531,-0.0317949980468715,0.253783460608006,20.053396,
-0.166732203613281,0.166827971679687,-0.0533428129882783,0.241819468930857,20.05637,
-0.159549598632813,0.164433770019531,-0.0126413847656224,0.229465343255839,20.059365,
-0.152366993652344,0.193164189941406,-0.0844674345703087,0.260120842173907,20.062422,
-0.166732203613281,0.171616375,-0.0413718046874969,0.242823874676651,20.0653629999999,
-0.166732203613281,0.135703350097656,-0.0485544096679646,0.220391827542839,20.068483,
-0.147578590332031,0.157251165039062,0.00172382519531666,0.21566256236036,20.0714839999999,
-0.169126405273438,0.202740996582031,-0.0748906279296833,0.274438078275396,20.074484,
-0.185885816894531,0.197952593261719,-0.0150355864257783,0.271964767866637,20.07753,
-0.147578590332031,0.200346794921875,-0.0437660063476528,0.252653402651696,20.080552,
-0.102088758789063,0.178798979980469,0.00890643017578441,0.206083755816958,20.083678,
-0.169126405273438,0.174010576660156,-0.0317949980468715,0.244733209130097,20.0866639999999,
-0.142790187011719,0.174010576660156,-0.0198239897460901,0.225968380234702,20.089652,
-0.13560758203125,0.138097551757812,-0.09643844287109,0.216242279328684,20.0928269999999,
-0.118848170410156,0.169222173339844,-0.0581312163085901,0.214802862804986,20.095781,
-0.185885816894531,0.157251165039062,0.0208774384765658,0.24437130205086,20.0988619999999,
-0.128424977050781,0.174010576660156,-0.00545877978515286,0.216338747793447,20.1018369999999,
-0.171520606933594,0.183587383300781,-0.0533428129882783,0.256844508618734,20.1048519999999,
-0.145184388671875,0.15246276171875,-0.0581312163085901,0.21840933756241,20.107897,
-0.140395985351563,0.176404778320312,0.0208774384765658,0.226418961119465,20.110836,
-0.138001783691406,0.193164189941406,0.0208774384765658,0.238312324513593,20.1138649999999,
-0.195462623535156,0.193164189941406,-0.0701022246093714,0.283606000236505,20.1168359999999,
-0.145184388671875,0.195558391601563,-0.077284829589841,0.255527955661503,20.119839,
-0.176309010253906,0.171616375,-0.0246123930664037,0.24727073655673,20.1228229999999,
-0.166732203613281,0.162039568359375,-0.000670376464841027,0.232501395351593,20.125848,
-0.128424977050781,0.142885955078125,0.013694833496098,0.192605605716883,20.1289029999999,
-0.17391480859375,0.19076998828125,-0.0485544096679646,0.262672952119615,20.131901,
-0.147578590332031,0.121338140136719,-0.0940442412109341,0.212947655261024,20.134919,
-0.205039430175782,0.2099236015625,-0.0341891997070274,0.295428481694618,20.1379069999999,
-0.181097413574219,0.185981584960938,-0.022218191406246,0.260536122595733,20.140848,
-0.142790187011719,0.15246276171875,-0.0724964262695273,0.221110069964267,20.1439009999999,
-0.159549598632813,0.157251165039062,-0.00306457812499694,0.224038824691432,20.146895,
-0.147578590332031,0.150068560058594,-0.00785298144530877,0.210622131695674,20.149953,
-0.142790187011719,0.171616375,-0.0341891997070274,0.225854198658314,20.152889,
-0.140395985351563,0.142885955078125,-0.0246123930664037,0.201824673303041,20.1558329999999,
-0.159549598632813,0.138097551757812,-0.00785298144530877,0.211160312423935,20.158907,
-0.171520606933594,0.183587383300781,-0.0629196196289037,0.259002942926026,20.161828,
-0.157155396972656,0.195558391601563,-0.0365834013671833,0.253533525552373,20.16491,
-0.169126405273438,0.169222173339844,-0.000670376464841027,0.239249523124247,20.167883,
-0.147578590332031,0.19076998828125,-0.077284829589841,0.253269764555402,20.170855,
-0.152366993652344,0.138097551757812,-0.00306457812499694,0.205659977135172,20.1738819999999,
-0.185885816894531,0.176404778320312,-0.0701022246093714,0.265681208654223,20.176823,
-0.1547611953125,0.162039568359375,-0.0533428129882783,0.230333030601668,20.179865,
-0.149972791992188,0.178798979980469,-0.0748906279296833,0.245090839754754,20.182829,
-0.138001783691406,0.154856963378906,-0.113197854492183,0.236302614608005,20.18576,
-0.169126405273438,0.171616375,-0.0724964262695273,0.251618069602937,20.188822,
-0.145184388671875,0.159645366699219,-0.0270065947265596,0.217473000580023,20.191777,
-0.17391480859375,0.154856963378906,-0.0892558378906223,0.249386536029301,20.1948609999999,
-0.159549598632813,0.147674358398437,-0.0413718046874969,0.221303901401178,20.197802,
-0.190674220214844,0.164433770019531,0.0184832368164098,0.252461389167901,20.2007579999999,
-0.128424977050781,0.150068560058594,-0.0701022246093714,0.209589764405937,20.2037849999999,
-0.140395985351563,0.159645366699219,-0.0485544096679646,0.218071562817275,20.206735,
-0.200251026855469,0.164433770019531,-0.0413718046874969,0.262393911329143,20.209795,
-0.145184388671875,0.140491753417969,-0.0437660063476528,0.206716963029414,20.212824,
-0.178703211914063,0.169222173339844,-0.0724964262695273,0.256567171945507,20.2159019999999,
-0.200251026855469,0.176404778320312,-0.0533428129882783,0.272148075996158,20.218941,
-0.13560758203125,0.174010576660156,-0.060525417968746,0.22876281016427,20.2219279999999,
-0.149972791992188,0.183587383300781,-0.022218191406246,0.238096227762064,20.225,
-0.164338001953125,0.176404778320312,-0.022218191406246,0.242114172921679,20.2279689999999,
-0.181097413574219,0.178798979980469,0.0160890351562539,0.254998442147373,20.231036,
-0.128424977050781,0.197952593261719,0.00172382519531666,0.235968590034431,20.234072,
-0.126030775390625,0.214712004882812,0.00890643017578441,0.249127127958469,20.2370199999999,
-0.1547611953125,0.178798979980469,-0.00545877978515286,0.236537314378414,20.240063,
-0.128424977050781,0.185981584960938,-0.022218191406246,0.227103000210127,20.24306,
-0.17391480859375,0.147674358398437,-0.0317949980468715,0.230358413515529,20.2461569999999,
-0.1547611953125,0.154856963378906,-0.129957266113278,0.254598895710738,20.249101,
-0.181097413574219,0.19076998828125,-0.113197854492183,0.286362036404502,20.252031,
-0.164338001953125,0.150068560058594,-0.0940442412109341,0.241602712958579,20.2550679999999,
-0.17391480859375,0.169222173339844,-0.0748906279296833,0.253951000686674,20.258051,
-0.166732203613281,0.195558391601563,-0.0341891997070274,0.259252027232455,20.261089,
-0.161943800292969,0.145280156738281,-0.0485544096679646,0.222911751806479,20.264095,
-0.145184388671875,0.183587383300781,-0.0102471831054647,0.23428153743488,20.2670969999999,
-0.164338001953125,0.140491753417969,-0.0341891997070274,0.218892240705347,20.2701569999999,
-0.161943800292969,0.166827971679687,0.0113006318359403,0.232776869271797,20.27316,
-0.166732203613281,0.176404778320312,-0.0102471831054647,0.242947068921558,20.276221,
-0.166732203613281,0.195558391601563,-0.0437660063476528,0.260687889168549,20.279216,
-0.109271363769532,0.169222173339844,-0.0365834013671833,0.204730848055455,20.282161,
-0.1547611953125,0.19076998828125,-0.038977603027341,0.248723681102422,20.2852449999999,
-0.142790187011719,0.200346794921875,-0.0724964262695273,0.256483152593231,20.288243,
-0.121242372070313,0.207529399902344,-0.0677080229492155,0.249704907802699,20.2913149999999,
-0.106877162109375,0.178798979980469,-0.00306457812499694,0.208329533820085,20.2942469999999,
-0.178703211914063,0.169222173339844,-0.0317949980468715,0.248157014406329,20.297225,
-0.166732203613281,0.181193181640625,-0.0533428129882783,0.251944542493573,20.300295,
-0.157155396972656,0.193164189941406,0.0232716401367217,0.250103563165354,20.3032469999999,
-0.193068421875,0.176404778320312,-0.038977603027341,0.264411260874605,20.306334,
-0.118848170410156,0.164433770019531,-0.0820732329101528,0.218859242192332,20.309309,
-0.152366993652344,0.162039568359375,-0.108409451171871,0.247437126503143,20.312331,
-0.142790187011719,0.15246276171875,-0.0844674345703087,0.225319059825483,20.315293,
-0.171520606933594,0.169222173339844,-0.060525417968746,0.248432664464679,20.3182509999999,
-0.13560758203125,0.174010576660156,-0.0653138212890596,0.230076057740352,20.321326,
-0.142790187011719,0.19076998828125,-0.09643844287109,0.257065359780486,20.324261,
-0.13560758203125,0.185981584960938,-0.00545877978515286,0.230235454536628,20.327261,
-0.178703211914063,0.181193181640625,-0.0629196196289037,0.262153934846877,20.330276,
-0.147578590332031,0.19076998828125,-0.0317949980468715,0.243276695665693,20.3333,
-0.1547611953125,0.171616375,-0.0509486113281223,0.236641012377311,20.3363539999999,
-0.161943800292969,0.178798979980469,-0.0653138212890596,0.249921517574546,20.339348,
-0.176309010253906,0.178798979980469,0.00651222851562849,0.25118987133045,20.342416,
-0.138001783691406,0.19076998828125,-0.0174297880859342,0.236096332549997,20.345325,
-0.128424977050781,0.185981584960938,-0.00545877978515286,0.226079461587777,20.34835,
-0.13560758203125,0.176404778320312,-0.0102471831054647,0.222739908593404,20.351423,
-0.1547611953125,0.157251165039062,-0.0341891997070274,0.223266338388265,20.354423,
-0.181097413574219,0.197952593261719,-0.022218191406246,0.26921209187493,20.357477,
-0.161943800292969,0.1333091484375,-0.0485544096679646,0.215301310280883,20.360505,
-0.128424977050781,0.176404778320312,-0.0174297880859342,0.218895906899725,20.3635029999999,
-0.183491615234375,0.19076998828125,0.00172382519531666,0.264698569817542,20.3666129999999,
-0.185885816894531,0.159645366699219,-0.0294007963867156,0.246788546855903,20.3695839999999,
-0.152366993652344,0.195558391601563,-0.0102471831054647,0.248120515157535,20.372768,
-0.169126405273438,0.162039568359375,-0.0677080229492155,0.243813328279032,20.37573,
-0.133213380371094,0.241048223144531,-0.0270065947265596,0.276729844342373,20.3787,
-0.161943800292969,0.176404778320312,-0.0150355864257783,0.239938552814538,20.381759,
-0.169126405273438,0.157251165039062,-0.00785298144530877,0.231069987632401,20.384766,
-0.217010438476563,0.188375786621094,-0.0317949980468715,0.289119161062885,20.387848,
-0.159549598632813,0.178798979980469,-0.0653138212890596,0.248376820410695,20.3907929999999,
-0.140395985351563,0.145280156738281,-0.000670376464841027,0.2020341704993,20.393722,
-0.140395985351563,0.188375786621094,-0.0294007963867156,0.236771781503044,20.396769,
-0.152366993652344,0.193164189941406,-0.0294007963867156,0.247775123566806,20.3996999999999,
-0.123636573730469,0.19076998828125,0.0376368500976589,0.230425092552681,20.402783,
-0.17391480859375,0.140491753417969,-0.0174297880859342,0.224250063409972,20.405796,
-0.111665565429688,0.178798979980469,-0.0270065947265596,0.21252677455679,20.408816,
-0.147578590332031,0.224288811523437,-0.022218191406246,0.269404081870246,20.411843,
-0.128424977050781,0.130914946777344,-0.00545877978515286,0.18347069601697,20.414807,
-0.209827833496094,0.197952593261719,-0.00545877978515286,0.288518192087513,20.417864,
-0.128424977050781,0.174010576660156,-0.0892558378906223,0.2339642282864,20.4208189999999,
-0.161943800292969,0.19076998828125,-0.0509486113281223,0.255371775806218,20.4238319999999,
-0.133213380371094,0.183587383300781,-0.0461602080078087,0.231475477795048,20.426829,
-0.13560758203125,0.176404778320312,-0.0653138212890596,0.231892124424225,20.4297809999999,
-0.185885816894531,0.178798979980469,0.0280600434570353,0.25944166628245,20.4328439999999,
-0.142790187011719,0.205135198242187,-0.00306457812499694,0.249957753838099,20.435801,
-0.159549598632813,0.145280156738281,-0.0198239897460901,0.216691921712011,20.4388789999999,
-0.195462623535156,0.154856963378906,-0.0629196196289037,0.257187081402679,20.4418039999999,
-0.171520606933594,0.126126543457031,-0.0174297880859342,0.213614187450196,20.444785,
-0.197856825195313,0.157251165039062,-0.0509486113281223,0.257819730002913,20.447862,
-0.128424977050781,0.145280156738281,-0.0581312163085901,0.202431561229739,20.450827,
-0.147578590332031,0.181193181640625,-0.0557370146484342,0.240243676710464,20.4538659999999,
-0.128424977050781,0.181193181640625,0.00890643017578441,0.222268459980318,20.456811,
-0.195462623535156,0.159645366699219,0.00890643017578441,0.252530403726463,20.459758,
-0.133213380371094,0.197952593261719,-0.0557370146484342,0.245025812295058,20.4628279999999,
-0.159549598632813,0.195558391601563,-0.0246123930664037,0.253584165203857,20.4657609999999,
-0.157155396972656,0.157251165039062,0.0448194550781285,0.226791823612043,20.4688269999999,
-0.1547611953125,0.171616375,-0.0533428129882783,0.237168006780419,20.4717939999999,
-0.152366993652344,0.150068560058594,0.0280600434570353,0.215693392368714,20.4747629999999,
-0.178703211914063,0.181193181640625,-0.060525417968746,0.261589627549997,20.477816,
-0.164338001953125,0.185981584960938,-0.0581312163085901,0.254902662088971,20.480768,
