X,Y,Z,Magnitude,Seconds,
-0.166732203613281,0.154856963378906,-0.0629196196289037,0.236091476684192,0.0,
-0.226587245117188,0.181193181640625,-0.0246123930664037,0.291167509546145,0.00377600000001621,
-0.133213380371094,0.150068560058594,-0.0485544096679646,0.206455583906462,0.00763399999993908,
-0.185885816894531,0.145280156738281,-0.038977603027341,0.239121547339849,0.0113810000000285,
-0.188280018554688,0.166827971679687,-0.0102471831054647,0.251765649530092,0.0150800000000118,
-0.1547611953125,0.169222173339844,-0.077284829589841,0.241991975918923,0.0188120000000254,
-0.207433631835938,0.185981584960938,-0.0102471831054647,0.278788210516203,0.0225080000000162,
-0.161943800292969,0.126126543457031,-0.0557370146484342,0.212697706192773,0.0262219999999616,
-0.138001783691406,0.188375786621094,-0.0557370146484342,0.240076121447022,0.0299929999999904,
-0.214616236816406,0.181193181640625,-0.0724964262695273,0.290080730142734,0.0337190000000192,
-0.181097413574219,0.174010576660156,0.00411802685547258,0.25118302517896,0.037433999999962,
-0.188280018554688,0.176404778320312,-0.0509486113281223,0.262990061024093,0.0413399999999911,
-0.183491615234375,0.159645366699219,-0.0294007963867156,0.244990250414218,0.0452539999999999,
-0.207433631835938,0.2099236015625,-0.0509486113281223,0.299486879689049,0.0490270000000237,
-0.202645228515625,0.140491753417969,-0.00545877978515286,0.246643101860458,0.0528639999999996,
-0.159549598632813,0.176404778320312,0.00411802685547258,0.237890055242569,0.0566689999999426,
-0.169126405273438,0.176404778320312,-0.0509486113281223,0.24963603059498,0.0604660000000194,
-0.1547611953125,0.197952593261719,-0.0246123930664037,0.252471833371662,0.0642779999999448,
-0.195462623535156,0.183587383300781,-0.0653138212890596,0.275999745938023,0.0680419999999913,
-0.161943800292969,0.183587383300781,-0.0341891997070274,0.247182165896255,0.0718060000000378,
-0.185885816894531,0.150068560058594,-0.0844674345703087,0.253394666762141,0.0755849999999327,
-0.171520606933594,0.188375786621094,-0.13474566943359,0.288203315420018,0.0794730000000072,
-0.185885816894531,0.169222173339844,-0.0796790312499969,0.263701401007551,0.0832299999999577,
-0.171520606933594,0.164433770019531,-0.060525417968746,0.245196063479812,0.0869950000000017,
-0.147578590332031,0.205135198242187,0.0543962617187539,0.258493410305227,0.090769000000023,
-0.1547611953125,0.171616375,-0.0701022246093714,0.24149022679578,0.0945279999999684,
-0.128424977050781,0.193164189941406,-0.0724964262695273,0.243024918121715,0.098261999999977,
-0.17391480859375,0.19076998828125,-0.0724964262695273,0.268132953772717,0.102078000000006,
-0.197856825195313,0.178798979980469,-0.0294007963867156,0.268292387791003,0.105820999999992,
-0.147578590332031,0.169222173339844,-0.0868616362304646,0.240749928604108,0.109575999999947,
-0.164338001953125,0.162039568359375,-0.0341891997070274,0.233308169545442,0.113557000000014,
-0.178703211914063,0.164433770019531,-0.0413718046874969,0.246343112130903,0.117420000000038,
-0.164338001953125,0.197952593261719,-0.060525417968746,0.264301975560676,0.121225999999979,
-0.164338001953125,0.118943938476562,-0.0126413847656224,0.203259548349036,0.125062999999955,
-0.188280018554688,0.183587383300781,0.013694833496098,0.263327251074907,0.129031999999938,
-0.176309010253906,0.138097551757812,-0.0126413847656224,0.224311402980335,0.132904999999937,
-0.193068421875,0.140491753417969,0.00890643017578441,0.238940730730938,0.136745000000019,
-0.214616236816406,0.169222173339844,0.035242648437503,0.275569079041872,0.14056400000004,
-0.17391480859375,0.200346794921875,-0.00306457812499694,0.265319789165363,0.14438599999994,
-0.138001783691406,0.188375786621094,-0.0150355864257783,0.233999996039087,0.148200999999972,
-0.193068421875,0.147674358398437,-0.0437660063476528,0.246978936278615,0.152054000000021,
-0.166732203613281,0.193164189941406,-0.0341891997070274,0.257450836809802,0.155824999999936,
-0.164338001953125,0.195558391601563,-0.0198239897460901,0.256209004488891,0.159571000000028,
-0.183491615234375,0.212317803222656,0.00172382519531666,0.280626075053475,0.163327999999979,
-0.197856825195313,0.142885955078125,-0.0294007963867156,0.245821329959647,0.167062999999985,
-0.181097413574219,0.200346794921875,-0.0413718046874969,0.27321555164712,0.170784000000026,
-0.178703211914063,0.188375786621094,-0.0341891997070274,0.261895353739094,0.174571000000014,
-0.149972791992188,0.147674358398437,-0.0413718046874969,0.214502169428243,0.178319999999985,
-0.147578590332031,0.178798979980469,-0.0533428129882783,0.237894874396125,0.182155999999964,
-0.166732203613281,0.166827971679687,-0.0796790312499969,0.248957723072487,0.186151999999993,
-0.17391480859375,0.145280156738281,0.013694833496098,0.2270247410627,0.189943999999969,
-0.140395985351563,0.150068560058594,-0.0413718046874969,0.209626409700678,0.193741999999929,
-0.166732203613281,0.159645366699219,-0.0126413847656224,0.231184072632743,0.197541000000001,
-0.142790187011719,0.174010576660156,-0.0557370146484342,0.231895090716387,0.201484999999934,
-0.176309010253906,0.169222173339844,-0.0461602080078087,0.248700172597239,0.205320000000029,
-0.149972791992188,0.200346794921875,-0.0246123930664037,0.25146857948033,0.20910200000003,
-0.157155396972656,0.207529399902344,-0.0270065947265596,0.261716691825693,0.212863999999968,
-0.147578590332031,0.166827971679687,-0.0317949980468715,0.224993187363415,0.216657999999939,
-0.178703211914063,0.19076998828125,-0.10362104785156,0.281185611180739,0.220430999999962,
-0.149972791992188,0.19076998828125,-0.022218191406246,0.243677399026099,0.224257999999963,
-0.171520606933594,0.212317803222656,-0.0437660063476528,0.27643015660341,0.228001999999947,
-0.205039430175782,0.169222173339844,-0.0102471831054647,0.266049462766355,0.23172999999997,
-0.181097413574219,0.219500408203125,-0.0557370146484342,0.289971235136401,0.235430999999949,
-0.193068421875,0.159645366699219,-0.0317949980468715,0.252533127598404,0.23914400000001,
-0.195462623535156,0.19076998828125,-0.0724964262695273,0.282585486976822,0.242843999999991,
-0.1547611953125,0.183587383300781,0.0160890351562539,0.240653717889504,0.246564000000035,
-0.17391480859375,0.171616375,-0.0868616362304646,0.259313487240781,0.250399000000016,
-0.169126405273438,0.123732341796875,-0.0365834013671833,0.212724654478145,0.254351000000042,
-0.169126405273438,0.19076998828125,0.00651222851562849,0.255028113175358,0.25825199999997,
-0.181097413574219,0.212317803222656,0.0304542451171912,0.280717979143168,0.262031999999977,
-0.138001783691406,0.116549736816406,-0.0509486113281223,0.187680831334069,0.265807999999993,
-0.207433631835938,0.193164189941406,-0.0653138212890596,0.29087284359965,0.269560999999953,
-0.183491615234375,0.157251165039062,-0.0796790312499969,0.254452057937051,0.273440999999934,
-0.185885816894531,0.181193181640625,-0.0365834013671833,0.262150436297925,0.277287999999999,
-0.130819178710938,0.164433770019531,0.013694833496098,0.210569871315737,0.281072999999992,
-0.207433631835938,0.178798979980469,-0.0198239897460901,0.274573810528529,0.284850000000006,
-0.267288673339844,0.274567046386719,0.102280294921879,0.39659999569668,0.288665000000037,
0.0990241806640623,-0.175542865722656,-0.158687686035153,0.256520696555858,0.292417,
-0.00632069238281274,0.0112048637695312,0.217201974609379,0.217582623153839,0.296246999999994,
-0.2313756484375,-0.0725921943359376,-0.390925247070308,0.460029201426781,0.299987999999985,
0.0271981308593748,0.123732341796875,-0.0294007963867156,0.130053210483077,0.303795000000036,
-0.331932118164063,0.619332085449219,0.0256658417968776,0.703142872089949,0.306740999999988,
-0.272077076660156,0.681581328613281,0.24114399121094,0.772482664954576,0.30964599999993,
-0.549804469238282,0.8228392265625,0.238749789550784,1.01801316748601,0.31265499999995,
-0.351085731445313,0.34399889453125,-0.261638357421871,0.556822287931821,0.315578999999957,
-0.272077076660156,0.0543004936523437,-0.424444070312497,0.507077161858296,0.318579,
-0.224193043457031,0.03754108203125,-0.216148525878904,0.313675052903839,0.321508999999992,
-0.382210353027344,0.130914946777344,0.0591846650390657,0.408321321788109,0.324453999999946,
-0.13560758203125,-0.00316034619140632,0.147770126464847,0.200587672522138,0.327444000000014,
0.00325611425781225,-0.185119672363281,0.0639730683593775,0.195888868625203,0.330407000000037,
-0.0111090957031252,-0.161177655761719,-0.0748906279296833,0.178073734379573,0.333393999999998,
0.096629979003906,-0.113293622558594,-0.122774661132809,0.19299330343569,0.336396000000036,
-0.228981446777344,0.130914946777344,-0.381348440429685,0.463678616367105,0.33943499999998,
0.664055772460937,-0.187513874023438,0.300999032714847,0.7528160064619,0.342555999999945,
-0.181097413574219,0.552294438964844,0.30578743603516,0.656758232953132,0.345590000000016,
-0.0996945571289065,0.0997903251953124,-0.331070205566403,0.359867468295615,0.348599000000036,
-0.542621864257813,0.549900237304688,0.166923739746098,0.790374780372703,0.351544999999987,
-0.506708839355469,0.142885955078125,-0.462751296874996,0.700934381236251,0.354482999999959,
-0.185885816894531,0.284143853027344,-0.0150355864257783,0.339878412075464,0.35752500000001,
-0.298413294921875,0.442161162597656,0.0879150849609402,0.540634858716611,0.360488000000032,
-0.272077076660156,0.308085869628906,0.0280600434570353,0.411983257848844,0.363505000000032,
-0.322355311523438,0.34399889453125,0.281845419433598,0.549258615555364,0.366443000000004,
-0.343903126464844,0.0447236870117187,-0.357406423828122,0.498004940101827,0.369461000000001,
-0.219404640136719,0.226683013183594,-0.0341891997070274,0.317320793450608,0.372425000000021,
-0.114059767089844,0.197952593261719,-0.132351467773434,0.264029867002601,0.375366999999983,
0.0463517441406248,0.066271501953125,0.116645504882817,0.141938613369894,0.37843399999997,
-0.106877162109375,-0.0701979926757813,0.0496078583984403,0.137154750450513,0.381394999999998,
-0.11645396875,-0.168360260742188,-0.0892558378906223,0.223323328007534,0.384370999999987,
-0.185885816894531,-0.0247081611328125,-0.194600710937497,0.270247047803471,0.387303999999972,
0.000861912597656,0.07584830859375,-0.0270065947265596,0.0805174823785702,0.390255000000025,
0.0607169541015623,0.0830309135742187,0.0950976899414098,0.14008658664031,0.393305999999939,
0.0319865341796873,0.291326458007813,0.152558529785159,0.330406338490071,0.396261999999979,
-0.126030775390625,0.200346794921875,-0.182629702636715,0.298958530345272,0.399263000000019,
-0.312778504882813,0.241048223144531,-0.060525417968746,0.39949714043802,0.402219999999943,
-0.200251026855469,0.260201836425781,-0.0485544096679646,0.331908120018513,0.40513999999996,
-0.245740858398438,0.245836626464844,0.00651222851562849,0.347658777421563,0.408167999999932,
-0.104482960449219,0.8228392265625,0.899549447753909,1.22358910208802,0.411125999999967,
-0.36545094140625,0.279355449707031,-0.405290457031247,0.613069500477988,0.41412600000001,
-0.224193043457031,-0.223426898925781,-0.584855581542966,0.665009888016771,0.417056000000002,
-0.497132032714844,-0.158783454101563,-0.321493398925778,0.612952240227952,0.419946999999979,
-0.341508924804688,0.0231758720703125,-0.060525417968746,0.347604362728325,0.422959999999989,
-0.183491615234375,0.0997903251953124,0.0496078583984403,0.214681674762393,0.425906999999938,
0.154090818847656,0.0997903251953124,0.530842392089847,0.561690069963319,0.428939000000014,
-0.145184388671875,0.5929958671875,0.837300204589848,1.03624043436921,0.431873999999993,
-0.128424977050781,-0.122870429199219,-1.11157994677734,1.12569982463337,0.434793000000013,
-0.324749513183594,0.298509062988281,-0.994264065429684,1.08771822583052,0.437799000000041,
0.3049255234375,0.00162805712890618,-0.196994912597653,0.363027851552749,0.44076199999995,
-0.0350511123046877,0.736647966796875,1.23473768017579,1.4382127611399,0.443795000000023,
-0.209827833496094,-0.161177655761719,-0.122774661132809,0.291684030832652,0.446712999999932,
-0.272077076660156,0.281749651367187,0.571543820312504,0.692871662161818,0.44964200000004,
-0.612053712402344,-0.0366791694335938,-0.891313394042966,1.08184780571771,0.452626000000009,
-0.018291700683594,0.212317803222656,-0.278397769042966,0.350597709187173,0.455573999999956,
-0.0733583388671877,0.276961248046875,-0.630345413085934,0.692404736118632,0.458586999999966,
0.101418382324219,0.197952593261719,0.0927034882812539,0.240966500144342,0.461551999999983,
-0.346297328125,0.463708977539063,0.652946676757816,0.872517746527778,0.464552000000026,
-0.190674220214844,0.154856963378906,0.566755416992191,0.617696559850763,0.467495999999983,
-0.257711866699219,0.358364104492187,0.34409466259766,0.559679707023831,0.470434999999952,
-0.2313756484375,-0.139629840820313,-0.704565664550778,0.754615106396141,0.473431000000005,
-0.200251026855469,-0.0510443793945313,-0.754843899414059,0.782620798923121,0.476456999999982,
-0.114059767089844,0.183587383300781,-0.0844674345703087,0.232053238026766,0.479556000000002,
-0.42291178125,0.430190154296875,0.229172982910161,0.645320230327516,0.482627999999977,
-0.142790187011719,0.372729314453125,0.617033651855472,0.734878702155422,0.485598999999979,
-0.202645228515625,-0.0127371528320313,-0.144322476074215,0.249111021038028,0.488599000000022,
0.110995188964844,-0.0678037910156251,-0.146716677734371,0.196069042877358,0.491536999999994,
-0.178703211914063,0.236259819824219,-0.244878945800778,0.384342605637568,0.494583000000034,
-0.140395985351563,0.142885955078125,-0.328676003906248,0.384909527558365,0.497563000000014,
-0.037445313964844,0.174010576660156,-0.0341891997070274,0.181247713652153,0.500497999999993,
0.0176213242187498,0.0686657036132812,0.159741134765628,0.17476475633302,0.503546000000028,
-0.2313756484375,0.401459734375,0.274662814453128,0.538650416000612,0.50651199999993,
-0.324749513183594,0.418219145996094,0.123828109863284,0.543785712558722,0.509543000000008,
-0.25052926171875,0.2865380546875,-0.0533428129882783,0.384336341579795,0.51252199999999,
-0.027868507324219,0.00641646044921873,-0.273609365722653,0.27509981765957,0.515481000000023,
-0.267288673339844,0.07584830859375,-0.264032559082027,0.383287611419559,0.518533999999931,
-0.269682875,0.162039568359375,0.0974918916015657,0.329378723827769,0.521504999999934,
-0.432488587890625,0.303297466308594,0.224384579589847,0.573920004253687,0.524535000000014,
-0.205039430175782,0.145280156738281,0.0807324799804725,0.263941707944209,0.527509000000009,
-0.157155396972656,0.0830309135742187,-0.129957266113278,0.220183656119704,0.530450999999971,
-0.128424977050781,0.0926077202148437,-0.13474566943359,0.207907575631555,0.533478999999943,
-0.171520606933594,0.027964275390625,-0.338252810546871,0.3802844766012,0.536438999999973,
-0.0326569106445315,0.221894609863281,-0.00785298144530877,0.224422282799198,0.539458999999965,
-0.109271363769532,0.138097551757812,0.00651222851562849,0.176220242485915,0.542417999999998,
-0.027868507324219,0.174010576660156,0.150164328125003,0.231528961323014,0.545357999999965,
-0.140395985351563,0.135703350097656,-0.0701022246093714,0.207462656460738,0.54839800000002,
-0.145184388671875,0.135703350097656,-0.127563064453122,0.23614876953824,0.551357999999937,
-0.157155396972656,0.245836626464844,-0.077284829589841,0.301838384891616,0.554380000000037,
-0.528256654296875,-0.960841010253906,-0.129957266113278,1.10415552836107,0.557317000000012,
1.41104669042969,0.731859563476563,7.82597485058594,7.98577194422858,0.560365999999931,
0.757429637207031,-1.24335680615234,-2.26797934863281,2.69506328841269,0.563315999999986,
-1.76605891259766,-0.338348578613281,-2.6845704375,3.23115494480134,0.566253999999958,
0.922629551757812,-0.125264630859375,-3.13946875292968,3.27462983681256,0.569261999999981,
-1.00470278466797,0.4780741875,-5.27030823046875,5.38647672030799,0.572255000000041,
0.352809556640625,0.169222173339844,-0.876948184082028,0.960285814105145,0.575286000000006,
-0.846685475097657,1.86431694873047,4.82604017041016,5.24244386765157,0.57827599999996,
-1.44523589013672,1.16042166064453,5.3767065522461,5.68720129392291,0.581188999999995,
-1.44284168847656,1.49800409472656,3.31529892285157,3.91369586882836,0.584212999999977,
-0.592900099121094,0.61214948046875,-0.278397769042966,0.896528210255575,0.587166000000025,
-0.72936959375,-0.23060950390625,-3.64703950488281,3.72640012582583,0.590173999999934,
-0.0135032973632815,-0.0845632026367188,-3.02694127490234,3.02815236670602,0.593103000000042,
-0.51867984765625,-0.280887738769531,-3.47465698535156,3.52436772655865,0.596018999999956,
0.0726879624023435,0.00881066210937498,-0.0557370146484342,0.0920205544806694,0.599065999999993,
0.43900081640625,-0.285676142089844,2.65449926464844,2.70567901292519,0.602049999999963,
0.539557286132812,-0.0797747993164063,3.82047547314454,3.85921221553362,0.605077999999935,
0.618565940917969,-0.398203620117188,1.59865633251954,1.75979885664327,0.608058000000028,
0.467731236328125,-0.424539838378906,-0.88173658740234,1.08465017096378,0.610985000000028,
0.577864512695312,-0.549038324707031,-2.1865764921875,2.32733479182018,0.614066999999977,
0.3815399765625,-0.424539838378906,-2.50261111132812,2.56687927309195,0.617129999999975,
0.367174766601562,-0.221032697265625,-1.12115675341797,1.2002771464225,0.620249999999942,
-0.240952455078125,0.276961248046875,0.698436508300786,0.789036865206723,0.623323000000028,
-0.138001783691406,0.353575701171875,2.33128204052735,2.36197718474302,0.626277999999957,
-0.600082704101563,0.662427715332031,1.92666195996094,2.12389642820981,0.629301999999939,
-0.540227662597657,0.30569166796875,-0.00306457812499694,0.620727569019073,0.632273999999938,
-0.846685475097657,0.502016204101563,-1.12833935839843,1.49734640969713,0.635329999999954,
-0.724581190429688,0.38230612109375,-1.68618834521484,1.87467517380708,0.638301999999953,
-0.688668165527344,0.557082842285156,-1.04454230029297,1.36955239128725,0.641234999999938,
-0.679091358886719,0.693552336914063,-0.0102471831054647,0.970713615086945,0.644247999999948,
-0.559381275878907,0.604966875488281,1.00010591748047,1.29580252292601,0.64721899999995,
-0.523468250976563,0.554688640625,1.25389129345703,1.46763138206643,0.650258000000008,
-0.228981446777344,0.185981584960938,0.449439535644535,0.537603524089271,0.653238999999985,
-0.161943800292969,0.303297466308594,-0.0461602080078087,0.346909083660065,0.656290000000013,
0.115783592285156,-0.187513874023438,-1.13312776171875,1.15435948368412,0.65925900000002,
0.204369053710937,-0.163571857421875,-0.991869863769528,1.02583053635058,0.662202999999977,
0.336050145019531,-0.462847064941406,-0.484299111816403,0.749468301663706,0.665241000000037,
0.321684935058594,-0.0151313544921876,0.791810373046879,0.854794608193721,0.668214000000035,
0.271406700195312,-0.0127371528320313,0.901943649414067,0.941979924781595,0.671244999999999,
0.206763255371094,0.085425115234375,0.703224911621097,0.737952417442316,0.674228999999968,
0.142119810546875,-0.419751435058594,-0.81230473925781,0.925326049133129,0.677161999999953,
0.0128329208984373,-0.0678037910156251,-0.623162808105466,0.62697202755846,0.680189000000041,
-0.159549598632813,0.205135198242187,-0.376560037109371,0.45753031105006,0.683141999999975,
-0.434882789550782,0.308085869628906,0.0567904633789098,0.535971175011549,0.686189000000013,
-0.391787159667969,0.217106206542969,0.224384579589847,0.500979763022305,0.689156000000025,
-0.44206539453125,0.310480071289063,0.358459872558598,0.648315639133021,0.692095999999992,
-0.600082704101563,0.561871245605469,0.260297604492191,0.862295419971867,0.695121999999969,
-0.612053712402344,0.724676958496094,-0.0653138212890596,0.950806150743683,0.698086999999987,
-0.406152369628906,0.394277129394531,-0.369377432128903,0.675909675537279,0.701110999999969,
-0.339114723144532,0.145280156738281,-0.661470034667966,0.757395356573389,0.704070999999999,
-0.331932118164063,0.269778643066406,-0.00545877978515286,0.427772422673991,0.707011999999963,
-0.427700184570313,0.269778643066406,0.212413571289066,0.548477428345056,0.710047000000031,
-0.111665565429688,0.157251165039062,0.303393234375003,0.359506025086367,0.713028000000008,
0.134937205566406,0.01838746875,0.16452953808594,0.213579299923648,0.716081000000031,
0.182821238769531,-0.07738059765625,-0.0868616362304646,0.216694037960203,0.719025999999985,
0.0655053574218748,0.01838746875,-0.333464407226559,0.34033448509512,0.721993999999995,
0.0655053574218748,-0.0534385810546876,-0.242484744140622,0.256798529857647,0.725004000000013,
0.0990241806640623,-0.110899420898438,-0.117986257812497,0.189803126803524,0.727962999999932,
0.142119810546875,-0.0630153876953126,0.260297604492191,0.303189416933776,0.73099000000002,
-0.0709641372070314,0.109367131835937,0.073549875000003,0.149688551359394,0.733953000000042,
-0.149972791992188,0.169222173339844,-0.0198239897460901,0.226982318380188,0.736883000000034,
-0.185885816894531,0.212317803222656,-0.0294007963867156,0.283719568087954,0.739911000000006,
-0.255317665039063,0.241048223144531,-0.196994912597653,0.402614395608865,0.742855999999961,
-0.312778504882813,0.34399889453125,-0.127563064453122,0.482118209537994,0.745878999999945,
-0.456430604492188,0.391882927734375,-0.000670376464841027,0.601582558898921,0.748828000000003,
-0.463613209472657,0.348787297851562,0.138193319824222,0.596395154896627,0.751855999999975,
-0.394181361328125,0.291326458007813,0.0424252534179725,0.491985724265909,0.754900000000021,
-0.360662538085938,0.322451079589844,-0.0509486113281223,0.486464722362794,0.75794499999995,
-0.348691529785156,0.269778643066406,-0.0533428129882783,0.444085301373696,0.761057999999935,
-0.260106068359375,0.22907721484375,-0.137139871093746,0.372745062209482,0.764069999999947,
-0.106877162109375,0.147674358398437,-0.0365834013671833,0.185926838204,0.767065000000002,
-0.0685699355468752,0.0830309135742187,-0.0102471831054647,0.108171037858888,0.770045999999979,
-0.0470221206054689,0.0614830986328125,0.035242648437503,0.085048783134251,0.772990999999934,
0.0176213242187498,0.0519062919921874,0.00651222851562849,0.0552012983166183,0.776066000000014,
0.0248039291992186,0.01838746875,-0.0246123930664037,0.039485488514228,0.779147999999964,
0.0319865341796873,0.0159932670898437,-0.117986257812497,0.123286982255356,0.782189000000017,
-0.0158974990234377,0.0878193168945312,-0.0533428129882783,0.103973162847558,0.785194999999931,
-0.106877162109375,0.150068560058594,0.0160890351562539,0.18493825334655,0.788135000000011,
-0.114059767089844,0.0902135185546875,0.0304542451171912,0.148578499266429,0.791172999999958,
-0.190674220214844,0.2099236015625,0.0232716401367217,0.284545507752562,0.794138999999973,
-0.272077076660156,0.22907721484375,-0.0629196196289037,0.361194109224877,0.797192999999993,
-0.317566908203125,0.238654021484375,-0.0246123930664037,0.398007855511436,0.80018599999994,
-0.32714371484375,0.293720659667969,-0.00306457812499694,0.43966376666339,0.803112999999939,
-0.324749513183594,0.281749651367187,-0.0485544096679646,0.432669207428397,0.806142000000023,
-0.360662538085938,0.293720659667969,-0.09643844287109,0.475025963035472,0.809087999999974,
-0.300807496582031,0.250625029785156,-0.0629196196289037,0.396556344154277,0.81213200000002,
-0.255317665039063,0.207529399902344,-0.00545877978515286,0.329067409783419,0.815061000000014,
-0.209827833496094,0.212317803222656,-0.000670376464841027,0.298507987631091,0.818040999999994,
-0.183491615234375,0.150068560058594,-0.0844674345703087,0.251643583431545,0.821103999999991,
-0.0901177504882814,0.128520745117187,-0.0748906279296833,0.173917788136371,0.82405099999994,
-0.0661757338867189,0.0997903251953124,-0.0701022246093714,0.138750346497639,0.82707199999993,
-0.00871489404296899,0.085425115234375,-0.00785298144530877,0.0862268462172123,0.830004000000031,
0.0128329208984373,0.0566946953124999,-0.0294007963867156,0.0651412247623259,0.83295499999997,
-0.00153228906250025,0.00641646044921873,-0.137139871093746,0.13729844543212,0.835982999999942,
-0.0398395156250002,0.104578728515625,0.0855208833007843,0.14084643745486,0.838927000000012,
-0.102088758789063,0.0327526787109375,-0.0748906279296833,0.130780192634571,0.841998999999987,
-0.169126405273438,0.154856963378906,-0.122774661132809,0.260111586600688,0.844975999999974,
-0.178703211914063,0.205135198242187,0.0448194550781285,0.275724629040941,0.848027000000002,
-0.200251026855469,0.262596038085937,-0.0270065947265596,0.331340473129718,0.850976999999943,
-0.233769850097656,0.269778643066406,-0.113197854492183,0.374489804041533,0.853912000000037,
-0.264894471679688,0.264990239746094,-0.0126413847656224,0.374898270062621,0.856930000000034,
-0.324749513183594,0.284143853027344,0.0496078583984403,0.434351142672706,0.859900000000039,
-0.329537916503907,0.195558391601563,-0.180235500976559,0.423465652387295,0.862926000000016,
-0.310384303222656,0.260201836425781,-0.108409451171871,0.419280360224217,0.865939000000026,
-0.248135060058594,0.205135198242187,-0.0102471831054647,0.32211249952422,0.86892899999998,
-0.202645228515625,0.15246276171875,-0.0653138212890596,0.261869963154306,0.87204799999995,
-0.164338001953125,0.219500408203125,0.0424252534179725,0.277465872162439,0.875065999999947,
-0.446853797851563,-0.532278913085938,0.219596176269535,0.728849530837822,0.878165999999965,
0.49646165625,-0.292858747070313,0.913914657714848,1.0805000802629,0.881163000000015,
0.352809556640625,-0.130053034179688,0.542813400390628,0.660329283463889,0.884185000000002,
-0.197856825195313,-0.314406562011719,-1.62154490039062,1.66355242583311,0.88724400000001,
-0.528256654296875,0.264990239746094,-1.24326103808593,1.37658015705303,0.890182999999979,
0.0271981308593748,0.296114861328125,-1.03496549365234,1.07683672043288,0.893233000000009,
-0.738946400390625,0.798897209960938,-0.345435415527341,1.14175486030679,0.896238000000039,
-0.0326569106445315,0.49722780078125,1.29698692333985,1.38941607842905,0.899236999999971,
-0.262500270019531,1.15802745898438,2.26185019238282,2.55458416974355,0.902279000000021,
-0.32714371484375,1.02395216601562,1.18924784863282,1.60306315968138,0.905213000000003,
-0.494737831054688,0.731859563476563,-0.532183145019529,1.03131122459308,0.90825499999994,
-0.310384303222656,0.217106206542969,-1.47071019580078,1.51870405301324,0.911266999999953,
-0.269682875,-0.0965342109375001,-1.52338263232422,1.5500781759049,0.914210000000026,
-0.331932118164063,-0.101322614257813,-0.472328103515622,0.586122035586091,0.917302999999947,
-0.25052926171875,-0.312012360351563,0.600274240234379,0.721419286877233,0.920326999999929,
-0.0901177504882814,-0.400597821777344,1.42866801464844,1.48650331982318,0.923412999999982,
-0.166732203613281,-0.42214563671875,0.660129281738286,0.801110001766751,0.926396999999952,
0.134937205566406,-0.470029669921875,-0.264032559082027,0.555741965581457,0.92939100000001,
-0.0853293471679689,-0.26891673046875,-1.04454230029297,1.08197316164285,0.932431999999949,
0.237887876953125,-0.273705133789063,-0.860188772460933,0.93350407954738,0.935395999999969,
-0.00871489404296899,0.0950019218749999,-0.350223818847653,0.362984900273217,0.938499999999976,
0.139725608886719,0.279355449707031,0.49732356884766,0.587276293741843,0.941527999999948,
-0.00153228906250025,0.4780741875,0.830117599609379,0.957941807128592,0.944555000000037,
-0.0589931289062502,0.609755278808594,0.605062643554691,0.861035708852128,0.947517999999945,
-0.185885816894531,0.712705950195313,-0.0341891997070274,0.737341311566738,0.950507000000016,
-0.121242372070313,0.466103179199219,-0.608797598144529,0.776264389207313,0.953572000000008,
-0.363056739746094,0.636091497070312,-0.632739614746091,0.967874996571999,0.956518999999957,
-0.449247999511719,0.415824944335938,-0.0653138212890596,0.615629795127434,0.959586999999942,
-0.554592872558594,0.406248137695313,0.214807772949221,0.72024522420708,0.962599999999952,
-0.44206539453125,0.128520745117187,0.334517855957035,0.569070813626598,0.965546000000018,
-0.506708839355469,-0.0151313544921876,0.162135336425784,0.532231785115881,0.968581999999969,
-0.439671192871094,-0.0941400092773438,-0.187418105957027,0.487133088208909,0.971544999999992,
-0.298413294921875,-0.108505219238281,-0.362194827148434,0.481673094537324,0.974584999999934,
-0.133213380371094,-0.197090680664063,-0.36458902880859,0.435334010895207,0.977486999999996,
-0.0398395156250002,-0.189908075683594,-0.101226846191404,0.218858718366298,0.980415999999991,
0.077476365722656,-0.0247081611328125,0.102280294921879,0.130668814953922,0.983530999999971,
0.103812583984375,0.0423294853515625,0.24114399121094,0.265930935433964,0.986603999999943,
0.180427037109375,0.123732341796875,0.109462899902347,0.244633878646515,0.989694999999983,
0.175638633789062,0.171616375,-0.0844674345703087,0.259684149208839,0.992694000000029,
0.0750821640624998,0.296114861328125,-0.21136012255859,0.371476034042124,0.99565999999993,
0.0176213242187498,0.332027886230469,-0.240090542480466,0.410117662251286,0.99871799999994,
-0.0661757338867189,0.351181499511719,0.0304542451171912,0.358657405333283,1.00175300000001,
-0.157155396972656,0.389488726074219,0.0974918916015657,0.431165809711998,1.00484499999993,
-0.310384303222656,0.348787297851562,0.0831266816406284,0.474237324585688,1.00784599999997,
-0.406152369628906,0.298509062988281,0.0376368500976589,0.505454192312806,1.01082299999996,
-0.446853797851563,0.224288811523437,-0.180235500976559,0.531477773233494,1.01396899999997,
-0.477978419433594,0.164433770019531,-0.208965920898434,0.546963061151302,1.01698199999998,
