X,Y,Z,Magnitude,Seconds,
-9.38732952124024,4.71777437133789,-2.76362697631836,10.8635622437318,0.0,
-9.64829750219727,4.77044680786133,-2.84502983276367,11.1328793304722,0.00293499999997948,
-9.87814086157227,4.91888731079102,-2.8929138659668,11.4079827267238,0.00592400000005,
-9.9475727097168,5.02662638549805,-2.8546066394043,11.5052142396488,0.00886300000001938,
-9.93560170141602,5.06253941040039,-2.8546066394043,11.510615340492,0.0118580000000748,
-9.80631481176758,5.2205567199707,-2.89051966430664,11.4792476488517,0.0147830000000795,
-9.66984531713867,5.24928713989258,-2.85939504272461,11.3682480596083,0.0176770000000488,
-9.52858741918945,5.41927545776367,-2.8546066394043,11.3274579565755,0.0206740000000991,
-9.41845414282227,5.4671594909668,-2.78038638793945,11.2395578118693,0.0236019999999826,
-9.24846582495117,5.57489856567383,-2.80432840454101,11.1569651757706,0.026597000000038,
-9.0497470871582,5.62278259887695,-2.70377193481445,10.9919965962173,0.0295349999998962,
-8.97073843237305,5.68503184204102,-2.70856033813476,10.9603847638845,0.032455999999911,
-8.79596171118164,5.62278259887695,-2.72531974975586,10.7894390177254,0.0354549999999563,
-8.70977045141602,5.53659133911133,-2.73250235473633,10.6761657017546,0.0383970000000318,
-8.6451270065918,5.51264932250977,-2.73250235473633,10.6110363599278,0.0414020000000619,
-8.56372415014649,5.40491024780273,-2.76362697631836,10.4970500699406,0.0443410000000313,
-8.53499373022461,5.3905450378418,-2.88094285766601,10.4978057483034,0.0472620000000461,
-8.48710969702149,5.38575663452148,-2.84502983276367,10.4466071183367,0.0502670000000762,
-8.40331263891602,5.3522378112793,-2.97192252075195,10.3968474243497,0.0531989999999496,
-8.43443726049805,5.42645806274414,-3.03896016723633,10.4795733646961,0.0562179999999444,
-8.38655322729492,5.47673629760742,-3.17782386352539,10.508448030769,0.0591480000000502,
-8.42964885717774,5.59884058227539,-3.12515142700195,10.5911551382625,0.0621479999999792,
-8.44880247045899,5.70657965698242,-3.11078621704101,10.6594702239113,0.0650849999999537,
-8.54696473852539,5.79277091674805,-3.07966159545898,10.7745587695304,0.0680099999999584,
-8.59724297338867,5.8334723449707,-3.10360361206055,10.8431702801263,0.0710099999998874,
-8.58766616674805,5.70657965698242,-3.29992814819336,10.8260143800123,0.0739419999999882,
-8.48710969702149,5.46476528930664,-3.37893680297851,10.6448064611344,0.0769179999999778,
-8.32909238745117,5.1056350402832,-3.51780049926758,10.3834584564061,0.0798449999999775,
-8.25008373266602,4.71777437133789,-3.53216570922851,10.1389087781823,0.0827409999999418,
-8.23332432104492,4.51666143188477,-3.41724402954101,9.99326856555046,0.0857370000001083,
-8.33388079077149,4.44962378540039,-3.30711075317383,10.0094806258941,0.0886689999999817,
-8.41767784887695,4.4927194152832,-3.08684420043945,10.0284812025412,0.0916669999999158,
-8.29557356420898,4.56693966674805,-2.92164428588867,9.9100698288249,0.0945919999999205,
-8.05136499487305,4.70340916137695,-2.75165596801758,9.72204436249488,0.0975949999999557,
-7.70181155249024,4.80396563110352,-2.65588790161133,9.45778660791315,0.100684000000001,
-7.34028710180664,4.90212789916992,-2.38534311401367,9.14333278669991,0.103716000000077,
-7.02664668432617,4.99789596557617,-2.17944177124023,8.89396953802414,0.106729000000087,
-6.83989895483399,5.12000025024414,-1.88256076538086,8.74886594423474,0.10966099999996,
-6.72737147680664,5.18943209838867,-1.66229421264648,8.65742193381703,0.112564999999904,
-6.6363918137207,5.20140310668945,-1.49470009643554,8.56331822144794,0.115583000000015,
-6.66991063696289,5.2971711730957,-1.16190606567383,8.59638040384419,0.118535999999949,
-6.64596862036133,5.27322915649414,-0.900938084716795,8.53156105717005,0.12152900000001,
-6.57893097387695,5.1439422668457,-0.675883128662107,8.3785018235535,0.12447300000008,
-6.45682668920899,5.0074727722168,-0.496318004150389,8.18606902122245,0.127394999999979,
-6.27965576635742,4.80875403442383,-0.414915147705075,7.92024914300861,0.130396000000019,
-6.03544719702149,4.5860932800293,-0.36703111450195,7.58904383174698,0.133346000000074,
-5.92052551733399,4.34427891235352,-0.326329686279294,7.35063757329046,0.136346999999887,
-5.67631694799805,4.09049353637695,-0.402944139404294,7.00821485435141,0.139300000000048,
-5.48956921850586,3.7648821105957,-0.462799180908201,6.67262246746359,0.142229000000043,
-5.36267653051758,3.42490547485352,-0.517865819091794,6.38407879722903,0.145236000000068,
-5.14480417944336,3.00352598266602,-0.668700523681638,5.99477595609209,0.148169999999936,
-4.86947098852539,2.49834943237305,-0.608845482177733,5.50674045289021,0.151166000000103,
-4.5678015793457,2.04584531860352,-0.711796153564451,5.05538802666563,0.154080999999906,
-4.31401620336914,1.52390935668945,-0.793199010009763,4.64351162374098,0.157063999999991,
-4.03628881079102,0.958877764892578,-0.824323631591795,4.22972615918842,0.159983999999895,
-3.78489763647461,0.451307012939453,-0.81474682495117,3.89781227450572,0.162914000000001,
-3.61490931860352,-0.0442927307128907,-0.800381614990233,3.70272088569135,0.165931,
-3.5335064621582,-0.432153399658203,-0.726161363525389,3.63314392844916,0.168903999999884,
-3.48562242895508,-0.776918438720703,-0.620816490478513,3.62471779487852,0.17191600000001,
-3.49759343725586,-1.05225162963867,-0.58490346557617,3.69898707870892,0.174874000000045,
-3.40421957250977,-1.22463414916992,-0.611239683837889,3.66906713597202,0.177797999999939,
-3.28929789282227,-1.39701666870117,-0.702219346923826,3.6420115611497,0.180820999999924,
-3.06184873510742,-1.5598223815918,-0.805170018310545,3.52934304045099,0.183770000000095,
-2.78651554418945,-1.66037885131836,-0.977552537841795,3.38779216779242,0.186787999999979,
-2.52075915991211,-1.63164843139648,-1.15951186401367,3.2188462387551,0.189732000000049,
-2.25979117895508,-1.61249481811523,-1.27443354370117,3.05466472272202,0.192675999999892,
-2.09937966772461,-1.48081372680664,-1.38456682006836,2.91842929706866,0.195694000000003,
-1.89587252661133,-1.3682862487793,-1.51385370971679,2.78537124099849,0.198656999999912,
-1.6947595871582,-1.20787473754883,-1.48512328979492,2.55670933540842,0.201675999999907,
-1.57265530249023,-1.05943423461914,-1.51864211303711,2.42938664387197,0.204633000000058,
-1.41224379125977,-0.877474908447266,-1.50188270141601,2.24054600258931,0.207564000000048,
-1.30689891821289,-0.731428607177735,-1.50427690307617,2.12269206220601,0.210575999999946,
-1.21831345678711,-0.547075079345703,-1.45160446655273,1.97249444834339,0.213529999999992,
-1.12493959204102,-0.264559283447266,-1.44202765991211,1.84795142580944,0.216552999999976,
-1.09381497045898,-0.0179565124511719,-1.46118127319336,1.82532307799758,0.21951399999989,
-1.06269034887695,0.274136090087891,-1.41090303833008,1.78748671521048,0.222418000000062,
-1.06508455053711,0.530315667724609,-1.48272908813476,1.90108531003424,0.225398000000041,
-1.12733379370117,0.776918438720703,-1.41090303833008,1.96599367405237,0.228333999999904,
-1.24225547338867,0.934935748291016,-1.57849715454101,2.2156165691497,0.23132499999997,
-2.27894479223633,1.76572372436523,-0.273657249755857,2.89590364604751,14.826384,
-2.37710706030273,1.78487733764648,-0.414915147705075,3.00142960376888,14.8306620000001,
-2.42738529516602,1.84473237915039,-0.484346995849608,3.08704210114838,14.8336220000001,
-2.47526932836914,1.87585700073242,-0.450828172607419,3.13831862250766,14.8365389999999,
-2.45372151342773,1.78008893432617,-0.54659623901367,3.08029760381566,14.8395430000001,
-2.52315336157227,1.84473237915039,-0.541807835693357,3.17220682924648,14.8424749999999,
-2.52794176489258,1.79684834594727,-0.599268675537107,3.15884100430864,14.8454830000001,
-2.53273016821289,1.82318456420898,-0.685459935302733,3.19508675673304,14.8484089999999,
-2.53991277319336,1.72502229614258,-0.742920775146482,3.15892229973516,14.85132,
-2.56624899145508,1.68671506958008,-0.805170018310545,3.17473469292773,14.854306,
-2.5375185715332,1.66756145629883,-0.726161363525389,3.12203011473087,14.8572380000001,
-2.49442294165039,1.62686002807617,-0.848265648193356,3.09650996650886,14.860212,
-2.5542779831543,1.63883103637695,-0.786016405029294,3.13495214795925,14.8631399999999,
-2.55188378149414,1.60052380981445,-0.869813463134763,3.13534093212944,14.866047,
-2.53991277319336,1.58376439819336,-0.759680186767575,3.08813544887247,14.8690389999999,
-2.53512436987305,1.5430629699707,-0.647152708740233,3.03754926354271,14.8719590000001,
-2.49442294165039,1.54785137329102,-0.711796153564451,3.02070247622301,14.8749499999999,
-2.45132731176758,1.54785137329102,-0.613633885498045,2.96334203369236,14.8778729999999,
-2.46569252172852,1.55024557495117,-0.639970103759763,2.98202325411287,14.8807790000001,
-2.40823168188477,1.53109196166992,-0.560961448974608,2.9083500779582,14.883746,
-2.40823168188477,1.49039053344727,-0.649546910400389,2.9056419195478,14.886669,
-2.44414470678711,1.55024557495117,-0.596874473876952,2.95522652734727,14.8896549999999,
-2.33161722875977,1.49996734008789,-0.647152708740233,2.84695408308767,14.8925750000001,
-2.37231865698242,1.5047557434082,-0.484346995849608,2.85075036963523,14.8955599999999,
-2.35077084204102,1.50714994506836,-0.627999095458982,2.8621682991409,14.89849,
-2.36992445532227,1.56700498657227,-0.534625230712889,2.89099821673963,14.901402,
-2.37231865698242,1.5813701965332,-0.534625230712889,2.90076742364243,14.9043959999999,
-2.29809840551758,1.62207162475586,-0.534625230712889,2.8632493385305,14.9073169999999,
-2.33401143041992,1.76332952270508,-0.446039769287108,2.95903562647696,14.9103009999999,
-2.29570420385742,1.78248313598633,-0.453222374267575,2.94158366228483,14.9132179999999,
-2.31485781713867,1.86867439575195,-0.414915147705075,3.00377517312832,14.9161260000001,
-2.33640563208008,1.9261352355957,-0.343089097900389,3.04737565004988,14.919126,
-2.35077084204102,1.95725985717773,-0.32872388793945,3.07653199151442,14.9220519999999,
-2.35795344702148,1.97401926879883,-0.381396324462889,3.09873517555524,14.9250440000001,
-2.38907806860352,1.97641347045898,-0.355060106201169,3.12089280545001,14.927974,
-2.42738529516602,1.98838447875977,-0.350271702880857,3.15730303778399,14.9309760000001,
-2.45850991674805,1.97401926879883,-0.36703111450195,3.17422981577423,14.9340560000001,
-2.48724033666992,1.90937582397461,-0.350271702880857,3.15511819039726,14.9370779999999,
-2.45372151342773,1.87585700073242,-0.333512291259764,3.10657676568217,14.940096,
-2.48005773168945,1.85670338745117,-0.364636912841794,3.11945410283468,14.943021,
-2.43456790014648,1.80642515258789,-0.422097752685545,3.06079388478676,14.9459300000001,
-2.4776635300293,1.80881935424805,-0.41252094604492,3.09528957534919,14.948918,
-2.45850991674805,1.80163674926758,-0.515471617431638,3.0912581541239,14.9518740000001,
-2.48963453833008,1.7513585144043,-0.438857164306638,3.07540767884287,14.954866,
-2.48963453833008,1.77530053100586,-0.477164390869138,3.09477914652229,14.9577830000001,
-2.50639394995117,1.74896431274414,-0.426886156005857,3.08595505310655,14.9606960000001,
-2.49442294165039,1.76572372436523,-0.364636912841794,3.07780541308654,14.9636780000001,
-2.43696210180664,1.74178170776367,-0.331118089599608,3.0136733387018,14.9666319999999,
-2.48005773168945,1.74178170776367,-0.43167455932617,3.06118160114395,14.9696329999999,
-2.42020269018555,1.62686002807617,-0.331118089599608,2.93490950487293,14.9725900000001,
-2.40823168188477,1.62686002807617,-0.311964476318357,2.92293948262192,14.9755070000001,
-2.38189546362305,1.57179338989258,-0.343089097900389,2.87431219411465,14.9784979999999,
-2.32922302709961,1.49757313842773,-0.338300694580076,2.78970474689791,14.981405,
-2.30288680883789,1.47123692016602,-0.383790526123045,2.75955085068584,14.9843800000001,
-2.32204042211914,1.44968910522461,-0.417309349365231,2.76904628289774,14.987298,
-2.26218538061523,1.3898340637207,-0.462799180908201,2.69505185530761,14.9902569999999,
-2.2478201706543,1.41856448364258,-0.48195279418945,2.7013513673122,14.9931590000001,
-2.2478201706543,1.39462246704102,-0.448433970947264,2.6830505719191,14.996065,
-2.25739697729492,1.38743986206055,-0.429280357666013,2.6842339893185,14.9990519999999,
-2.29331000219727,1.46166011352539,-0.288022459716794,2.73471716836502,15.0019749999999,
-2.25021437231445,1.52390935668945,-0.17549498168945,2.72333672860599,15.0049329999999,
-2.24303176733398,1.6364368347168,-0.0916979235839825,2.77804347202792,15.007838,
-2.25260857397461,1.72981069946289,-0.000718260498045353,2.84015685472094,15.010722,
-2.24303176733398,1.81600195922852,0.025617957763675,2.886123854749,15.013704,
-2.24063756567383,1.88064540405273,0.16208745239258,2.92977066998708,15.0165999999999,
-2.27176218725586,1.93331784057617,0.243490308837893,2.992976585046,15.0195739999999,
-2.24303176733398,2.0410569152832,0.188423670654299,3.03852074542163,15.0224639999999,
-2.22387815405273,2.05302792358398,0.154904847412112,3.03060278011493,15.0253740000001,
-2.28852159887695,2.10809456176758,0.145328040771487,3.11488587741427,15.0283460000001,
-2.30528101049805,2.10091195678711,0.111809217529299,3.12100190462269,15.0312449999999,
-2.36034764868164,2.05063372192383,0.0304063610839869,3.12686172238596,15.0342129999999,
-2.35077084204102,2.0578163269043,0.0232237561035173,3.12430327111689,15.037118,
-2.34837664038086,2.07457573852539,-0.0677559069824198,3.1342189143223,15.039988,
-2.36513605200195,2.06260473022461,-0.0821211169433571,3.1392595775871,15.0429690000001,
-2.40583748022461,2.06021052856445,-0.110851536865232,3.1693547397675,15.045867,
-2.4393563034668,2.05302792358398,-0.130005150146483,3.19096915831905,15.0488620000001,
-2.48245193334961,2.05542212524414,-0.151552965087888,3.22649903386957,15.051776,
-2.50878815161133,2.04584531860352,-0.25210943481445,3.24700788795466,15.0546770000001,
-2.5542779831543,2.06260473022461,-0.206619603271482,3.2895844644617,15.057656,
-2.59497941137695,2.07696994018555,-0.261686241455076,3.33409687424819,15.060583,
-2.68595907446289,2.06739313354492,-0.261686241455076,3.39955441304962,15.0635689999999,
-2.73384310766602,2.01232649536133,-0.237744224853513,3.40292203520994,15.066548,
-2.77933293920898,2.03866271362305,-0.288022459716794,3.45887180800189,15.0695430000001,
-2.82482277075195,2.0578163269043,-0.393367332763669,3.51695458883367,15.072633,
-2.87270680395508,2.01472069702148,-0.424491954345701,3.53436518879993,15.0756289999999,
-2.88707201391602,1.99556708374023,-0.472375987548826,3.54127263464101,15.0786410000001,
-2.8990430222168,1.95965405883789,-0.537019432373045,3.54020964714379,15.0815600000001,
-2.96608066870117,1.93571204223633,-0.556173045654294,3.58523975494163,15.0845569999999,
-3.00678209692383,1.91655842895508,-0.630393297119138,3.62095712471622,15.0875040000001,
-3.04508932348633,1.87825120239258,-0.630393297119138,3.63287658424455,15.090436,
-3.1504341965332,1.80881935424805,-0.740526573486326,3.70748468493499,15.0934219999999,
-3.15761680151367,1.78248313598633,-0.620816490478513,3.67875021034687,15.0963839999999,
-3.21507764135742,1.71783969116211,-0.707007750244138,3.71316002932726,15.0993779999999,
-3.20071243139648,1.62446582641602,-0.697430943603512,3.65648180780175,15.102316,
-3.24141385961914,1.56461078491211,-0.711796153564451,3.66898139567694,15.1052299999999,
-3.23662545629883,1.5047557434082,-0.687854136962889,3.63499346703932,15.108268,
-3.28690369116211,1.52630355834961,-0.690248338623045,3.68914369416233,15.111212,
-3.29408629614258,1.45926591186523,-0.66151791870117,3.66306804260158,15.1142139999999,
-3.22944285131836,1.45208330688477,-0.639970103759763,3.5982507963969,15.117133,
-3.2438080612793,1.32519061889648,-0.582509263916013,3.55214554282053,15.1200590000001,
-3.2270486496582,1.3299790222168,-0.587297667236326,3.53943579356072,15.1230479999999,
-3.23901965795898,1.28927759399414,-0.580115062255857,3.53412203304812,15.125984,
-3.2821152878418,1.25815297241211,-0.525048424072263,3.55399852452066,15.1289670000001,
-3.24859646459961,1.16477910766602,-0.565749852294919,3.49716488813954,15.131903,
-3.25577906958008,1.0618284362793,-0.479558592529294,3.45796955187227,15.134798,
-3.31563411108398,1.06422263793945,-0.414915147705075,3.5068723902477,15.1378050000001,
-3.31084570776367,0.987608184814453,-0.458010777587889,3.48523214430779,15.140729,
-3.35633553930664,1.07858784790039,-0.424491954345701,3.55084967540945,15.1437229999999,
-3.35633553930664,1.07858784790039,-0.43167455932617,3.55171549018508,15.1466499999999,
-3.35154713598633,1.15041389770508,-0.390973131103513,3.56499373491961,15.149574,
-3.45449780737305,1.16238490600586,-0.46998178588867,3.67499342175228,15.1525630000001,
-3.44731520239258,1.22223994750977,-0.436462962646482,3.68352446872527,15.1555060000001,
-3.46407461401367,1.34195003051758,-0.513077415771482,3.75018549547017,15.15849,
-3.62927452856445,1.51193834838867,-0.513077415771482,3.96495140040704,15.1614400000001,
-3.3802775559082,1.34434423217773,-0.620816490478513,3.6903862784831,15.1643670000001,
-3.68194696508789,1.62207162475586,-0.647152708740233,4.07512655484316,15.167359,
-3.71307158666992,1.71065708618164,-0.62321069213867,4.13541289849453,15.1702809999999,
-3.4568920090332,1.59094700317383,-0.793199010009763,3.88720714633345,15.1732979999999,
-3.55266007543945,1.77051212768555,-0.872207664794919,4.06409313579673,15.1762200000001,
-3.67955276342773,1.87585700073242,-0.958398924560544,4.23986751262871,15.1792109999999,
-3.77532082983398,1.80163674926758,-1.03501337768554,4.30931491498102,15.1821339999999,
-3.77053242651367,1.82557876586914,-1.11641623413086,4.33543974904672,15.1850480000001,
-3.89263671118164,1.89501061401367,-1.14993505737304,4.47951296779449,15.18804,
-4.0865670456543,1.97162506713867,-1.18105967895508,4.68852189813066,15.190967,
-4.23740175024414,2.04823952026367,-1.17866547729492,4.85181523068521,15.193927,
-4.34992922827149,2.06021052856445,-1.20500169555664,4.96169132446515,15.196866,
-4.37387124487305,2.01472069702148,-1.1523292590332,4.9515363146157,15.1997679999999,
-4.34035242163086,1.97641347045898,-1.16669446899414,4.90979076276679,15.2027760000001,
-4.30683359838867,1.96923086547852,-1.17148287231445,4.87842781702147,15.2057749999999,
-4.39541905981445,1.89740481567383,-1.15472346069336,4.92475786375311,15.2088699999999,
-4.40499586645508,1.85670338745117,-1.27443354370117,4.9472736845428,15.2118800000001,
-4.46006250463867,1.74178170776367,-1.28640455200195,4.9579025539229,15.214833,
-4.43612048803711,1.70826288452148,-1.37020161010742,4.94719915905528,15.217813,
-4.47442771459961,1.56700498657227,-1.48272908813476,4.96734270510103,15.2207450000001,
-4.47921611791992,1.49039053344727,-1.5354015246582,4.96408086307481,15.2237290000001,
-4.51752334448242,1.44729490356445,-1.62159278442383,5.01320684435848,15.226688,
-4.53907115942383,1.30124860229492,-1.62159278442383,4.99259232000602,15.229585,
-4.59892620092774,1.26294137573242,-1.70778404418945,5.06573483926119,15.2325880000001,
-4.59892620092774,1.22702835083008,-1.71257244750976,5.05852005662624,15.2355230000001,
-4.63483922583008,1.17914431762695,-1.79876370727539,5.10956620915085,15.238531,
-4.6061088059082,1.17435591430664,-1.78679269897461,5.07818651631082,15.241481,
-4.60850300756836,1.18632692260742,-1.78439849731445,5.08229766299534,15.244402,
-4.65878124243164,1.2150573425293,-1.83707093383789,5.15319673857105,15.2474259999999,
-4.7593377121582,1.26294137573242,-1.83707093383789,5.25558236476798,15.2503790000001,
-4.7976449387207,1.29406599731445,-1.80834051391601,5.28792011831759,15.2533820000001,
-4.80722174536133,1.38504566040039,-1.83946513549805,5.33023117464727,15.2563230000001,
-4.74497250219727,1.31800801391602,-1.88256076538086,5.2721859040351,15.259229,
-4.83834636694336,1.38743986206055,-1.94241580688476,5.39514263983673,15.2622200000001,
-4.8359521652832,1.4281412902832,-1.92326219360351,5.39675442791903,15.265138,
-4.80482754370117,1.39222826538086,-1.92326219360351,5.35944071083723,15.268135,
-4.80482754370117,1.44011229858398,-1.93283900024414,5.37551465053413,15.27107,
-4.7593377121582,1.39701666870117,-1.92565639526367,5.32081794310048,15.274064,
-4.74976090551758,1.4065934753418,-1.9950882434082,5.340328731777,15.2770029999999,
-4.77370292211914,1.43053549194336,-1.99269404174805,5.3670756400834,15.2799150000001,
-4.82158695532227,1.43053549194336,-2.06691429321289,5.43748721901314,15.2828950000001,
-4.85510577856445,1.43771809692383,-2.09085630981445,5.4782082431725,15.2858329999999,
-4.89580720678711,1.46166011352539,-2.11719252807617,5.53063131065896,15.2888049999999,
-4.93172023168945,1.43771809692383,-2.13395193969726,5.56261167535674,15.291739,
-4.9676332565918,1.38743986206055,-2.11958672973633,5.57629065308703,15.294635,
-5.0059404831543,1.37786305541992,-2.15549975463867,5.62175470050247,15.2976349999999,
-5.01072888647461,1.30364280395508,-2.06452009155273,5.57396911926141,15.300561,
-5.06818972631836,1.32758482055664,-2.08606790649414,5.63921163534729,15.3035669999999,
-5.06818972631836,1.34195003051758,-2.06691429321289,5.63555779686917,15.3064899999999,
-5.05143031469727,1.37068045043945,-1.99987664672851,5.60314373576027,15.3094189999999,
-5.03227670141602,1.2916717956543,-1.94241580688476,5.54663898177437,15.312406,
-4.96284485327149,1.28448919067383,-1.95438681518555,5.48628921421139,15.3153420000001,
-4.94129703833008,1.28209498901367,-1.94959841186523,5.46453272928354,15.3183300000001,
-4.9293260300293,1.27012398071289,-1.88256076538086,5.42729260976942,15.3212679999999,
-4.88862460180664,1.23899935913086,-1.82988832885742,5.36491017682537,15.3241660000001,
-4.85749998022461,1.2916717956543,-1.83467673217773,5.35067853614523,15.32717,
-4.84552897192383,1.36349784545898,-1.87058975708008,5.37004501206623,15.3300939999999,
-4.88623040014649,1.37068045043945,-1.82031152221679,5.3914326907092,15.3331029999999,
-4.90538401342774,1.3299790222168,-1.88974337036133,5.42243179067784,15.336022,
-4.94369123999024,1.39462246704102,-1.87298395874023,5.46746045359543,15.3389380000001,
-4.90777821508789,1.29885440063477,-1.79876370727539,5.38598743380921,15.341958,
-4.92693182836914,1.36349784545898,-1.85622454711914,5.43869039248382,15.3449889999999,
-4.94129703833008,1.33237322387695,-1.92086799194336,5.46638533870293,15.3480629999999,
-4.99875787817383,1.33716162719727,-1.89932017700195,5.51207752817579,15.3510940000001,
-4.97242165991211,1.36349784545898,-1.97832883178711,5.52248933952928,15.3539960000001,
-5.02030569311524,1.34195003051758,-1.94720421020508,5.54940567745518,15.356992,
-4.89820140844727,1.34913263549805,-1.96875202514648,5.44871732083791,15.359905,
-4.94608544165039,1.3898340637207,-2.00945345336914,5.51663875036616,15.3629149999999,
-4.97002745825195,1.34673843383789,-2.0333954699707,5.53620578395094,15.365855,
-4.90538401342774,1.39941087036133,-2.05015488159179,5.49766115196203,15.368837,
-4.89341300512695,1.45447750854492,-2.09085630981445,5.51658189188736,15.3717569999999,
-4.90059561010742,1.47363112182617,-2.05254908325195,5.51365430147531,15.374683,
-4.89820140844727,1.45208330688477,-1.94959841186523,5.4682590406267,15.3776780000001,
-4.94369123999024,1.54066876831055,-2.09085630981445,5.5843910534896,15.380627,
-4.87186519018555,1.61249481811523,-2.05015488159179,5.52615101207928,15.38363,
-4.93411443334961,1.63883103637695,-2.14352874633789,5.62369699517659,15.3865949999999,
-4.9125666184082,1.72741649780273,-2.13395193969726,5.62770196599975,15.389498,
-4.92693182836914,1.75614691772461,-2.19380698120117,5.67199244611605,15.3925079999999,
-4.93172023168945,1.79445414428711,-2.24408521606445,5.7077008135118,15.395442,
-4.98678686987305,1.89740481567383,-2.23450840942383,5.78456706693476,15.398445,
-5.02269989477539,1.89261641235352,-2.27520983764648,5.82975907929393,15.4013709999999,
-5.02269989477539,1.95725985717773,-2.35661269409179,5.88319673064319,15.404286,
-5.01551728979492,2.00753809204102,-2.3398532824707,5.88731995552445,15.407271,
-4.98199846655274,2.05063372192383,-2.34943008911133,5.87751896005846,15.4102029999999,
-4.98678686987305,2.06739313354492,-2.37097790405273,5.89607444624584,15.413196,
-4.97481586157227,2.06499893188477,-2.30394025756836,5.85842591108571,15.4161329999999,
-4.92214342504883,2.07457573852539,-2.26563303100586,5.80210767073607,15.4190349999999,
-4.85989418188477,2.03866271362305,-2.24647941772461,5.72899527782094,15.4220419999999,
-4.78088552709961,1.95007725219727,-2.21774899780273,5.61943754569999,15.4249629999999,
-4.68032905737305,1.82079036254883,-2.12198093139648,5.45193183219044,15.4279690000001,
-4.53188855444336,1.71544548950195,-1.98072303344726,5.23488594265203,15.4308920000001,
-4.40978426977539,1.57658179321289,-1.82509992553711,5.02621101773935,15.433804,
-4.25894956518555,1.46405431518555,-1.82509992553711,4.85933083611346,15.4367890000001,
-4.12248007055664,1.35870944213867,-1.68144782592773,4.65491139245535,15.4397349999999,
-3.88305990454102,1.24378776245117,-1.65271740600586,4.39961782935656,15.442726,
-3.72983099829102,1.11450087280273,-1.59046816284179,4.2051564118715,15.445665,
-3.52392965551758,0.997184991455078,-1.51385370971679,3.96285391840815,15.4485689999999,
-3.33718192602539,0.918176336669922,-1.46118127319336,3.75697773559308,15.4515630000001,
-3.08100234838867,0.884657513427734,-1.39174942504883,3.49459022618738,15.4544900000001,
-2.87749520727539,0.784101043701172,-1.45160446655273,3.31691854617233,15.457502,
-2.70511268774414,0.748188018798828,-1.45639286987304,3.16204050516205,15.4604260000001,
-2.53033596655273,0.738611212158203,-1.47794068481445,3.0219952505234,15.4634289999999,
-2.4010490769043,0.781706842041016,-1.48991169311523,2.93188320195028,15.4663479999999,
-2.26697378393555,0.899022723388672,-1.54497833129883,2.88693090294921,15.469259,
-2.17359991918945,1.05943423461914,-1.5354015246582,2.86433157090903,15.472229,
-2.0945912644043,1.2150573425293,-1.56652614624023,2.88403902147794,15.4751690000001,
-2.09937966772461,1.32279641723633,-1.44681606323242,2.87236175847265,15.4781379999999,
-2.14726370092773,1.44729490356445,-1.40850883666992,2.9477620463977,15.4811500000001,
-2.26218538061523,1.64122523803711,-1.22654951049804,3.05213477421005,15.4841369999999,
-2.45611571508789,1.72981069946289,-1.1307814440918,3.20989347738836,15.4872399999999,
-2.62849823461914,1.82557876586914,-1.03022497436523,3.36200896750649,15.4902079999999,
-2.75299672094727,1.87825120239258,-0.855448253173826,3.44072815530284,15.493207,
-2.91819663549805,1.84233817749023,-0.680671531982419,3.51758373007971,15.4961249999999,
-3.00438789526367,1.76093532104492,-0.663912120361326,3.54514021354207,15.499037,
-3.09297335668945,1.61488901977539,-0.577720860595701,3.53668094746323,15.5020480000001,
-3.19831822973633,1.43771809692383,-0.50828901245117,3.5432514086732,15.5049839999999,
-3.2821152878418,1.21266314086914,-0.390973131103513,3.52075171591982,15.5079740000001,
-3.45210360571289,1.16238490600586,-0.256897838134764,3.6515961542214,15.5109150000001,
-3.58139049536133,0.956483563232422,-0.165918175048827,3.71062629859297,15.513811,
-3.17437621313477,0.621295330810547,-0.232955821533201,3.24298329403483,15.5168249999999,
-3.33718192602539,0.676361968994141,-0.163523973388669,3.408957144108,15.5197450000001,
-2.87510100561523,0.226252056884766,-0.189860191650387,2.89023228791525,15.522776,
-2.92777344213867,0.271741888427734,0.00885854614258008,2.94037063246431,15.525709,
-2.71468949438477,0.266953485107422,0.0423773693847682,2.72811272779737,15.528624,
-2.64765184790039,0.257376678466797,0.198000477294924,2.66749081560143,15.5316109999999,
-2.49202873999023,0.257376678466797,0.217154090576175,2.51467808965877,15.534541,
