X,Y,Z,Magnitude,Seconds,
-0.106877162109375,0.157251165039062,-0.14192827441406,0.237264181377739,0.0,
-0.262500270019531,0.140491753417969,-0.125168862792965,0.32297301551626,0.00290799999993396,
-0.406152369628906,0.303297466308594,-0.101226846191404,0.516910025840326,0.00590099999999438,
-0.324749513183594,0.293720659667969,-0.0533428129882783,0.441111695521974,0.00882899999987785,
-0.243346656738281,0.272172844726562,-0.0796790312499969,0.373690247094016,0.0119270000000142,
-0.303201698242188,0.389488726074219,-0.0916500395507782,0.502028353089269,0.0149579999999787,
-0.339114723144532,0.511593010742188,-0.0174297880859342,0.614027687980248,0.0179709999999886,
-0.190674220214844,0.521169817382813,-0.0365834013671833,0.556159133756666,0.0210230000000138,
-0.0757525405273439,0.571448052246094,-0.0413718046874969,0.577929883320893,0.0239529999998922,
-0.0829351455078127,0.655245110351563,0.00651222851562849,0.660504959951304,0.0269639999999072,
-0.0230801040039065,0.5929958671875,-0.0533428129882783,0.595837432023021,0.029892000000018,
0.0631111557617186,0.600178472167969,-0.14192827441406,0.619952297772667,0.0328549999999268,
0.0655053574218748,0.557082842285156,-0.0413718046874969,0.562444549482503,0.035865000000058,
0.0391691391601561,0.578630657226562,-0.10362104785156,0.589139186018759,0.0388140000000021,
0.0846589707031248,0.504410405761719,-0.0916500395507782,0.519612094269248,0.0418469999999616,
-0.00153228906250025,0.327239482910156,-0.0940442412109341,0.340488393913828,0.0447690000000875,
-0.0853293471679689,0.32484528125,-0.0892558378906223,0.347522889657732,0.0477020000000721,
-0.102088758789063,0.341604692871094,-0.0653138212890596,0.36246624134397,0.05070099999989,
-0.169126405273438,0.272172844726562,-0.077284829589841,0.329628189407392,0.0536620000000312,
-0.166732203613281,0.219500408203125,-0.13474566943359,0.30681664288983,0.0566730000000462,
-0.205039430175782,0.241048223144531,-0.0581312163085901,0.321752470258522,0.0595989999999347,
-0.264894471679688,0.348787297851562,-0.0796790312499969,0.445163350119923,0.0626110000000608,
-0.233769850097656,0.355969902832031,-0.0485544096679646,0.428626230222943,0.0655460000000403,
-0.183491615234375,0.384700322753906,-0.0796790312499969,0.433603804421983,0.0684690000000501,
-0.157155396972656,0.511593010742188,-0.0677080229492155,0.539453059876001,0.0714669999999842,
-0.159549598632813,0.552294438964844,-0.0677080229492155,0.578851965624265,0.0743939999999839,
-0.0637815322265627,0.581024858886719,-0.060525417968746,0.587640448503837,0.0773890000000392,
-0.0565989272460939,0.571448052246094,-0.115592056152341,0.585762612691173,0.0803269999998975,
-0.0422337172851565,0.554688640625,-0.0629196196289037,0.559841096605437,0.0832419999999274,
-0.0518105239257815,0.600178472167969,-0.0557370146484342,0.604983589566908,0.086238000000094,
0.00804451757812485,0.566659648925781,-0.115592056152341,0.578385161833601,0.0891919999999118,
0.0152271225585936,0.490045195800781,-0.0294007963867156,0.491162463974003,0.0922120000000177,
0.0104387192382811,0.449343767578125,-0.106015249511715,0.461798680649556,0.0951680000000579,
-0.027868507324219,0.442161162597656,-0.0533428129882783,0.446238280639048,0.0980830000000878,
-0.0733583388671877,0.389488726074219,-0.110803652832027,0.411534157879017,0.101075000000037,
-0.0685699355468752,0.339210491210937,-0.0413718046874969,0.348535822594419,0.104010000000017,
-0.262500270019531,0.310480071289063,0.528448190429691,0.666754644825518,0.107025999999905,
-0.736552198730469,0.0590888969726562,-1.14988717333984,1.36683618280013,0.109964999999875,
0.000861912597656,1.12211443408203,-0.0485544096679646,1.12316475940388,0.112885000000006,
0.0846589707031248,1.01916376269531,0.0232716401367217,1.02293865199553,0.115913000000091,
1.39189307714844,-0.474818073242188,-0.156293484374997,1.4789341412481,0.118844000000081,
1.0710700546875,0.710311748535156,1.33050574658203,1.84985928757924,0.12188100000003,
-0.59529430078125,0.885088469726563,-0.060525417968746,1.06837270182546,0.124814000000015,
-0.724581190429688,0.308085869628906,0.427891720703128,0.896117251946299,0.127747999999883,
-0.851473878417969,-0.663960004394531,-0.462751296874996,1.17472950751363,0.130724999999984,
-0.329537916503907,-0.659171601074219,-0.61358600146484,0.958952667898732,0.133632999999918,
-1.48354311669922,0.707917546875,-0.96553364550781,1.90638470747296,0.13662700000009,
-1.31355479882813,1.01916376269531,-0.453174490234371,1.72322027126971,0.139566000000059,
0.254647288574218,0.102184526855469,0.236355587890628,0.362147598409822,0.142509000000018,
0.357597959960937,0.355969902832031,0.636187265136723,0.811988367535282,0.145522000000028,
-0.0829351455078127,0.947337712890625,0.605062643554691,1.12713254910442,0.148498000000018,
-0.0422337172851565,0.947337712890625,0.0184832368164098,0.948458780961922,0.151605999999902,
0.441395018066406,0.554688640625,-0.548942556640622,0.89657513935163,0.154655999999932,
0.359992161621094,0.779743596679688,-0.412473062011715,0.952747846954756,0.157772999999906,
-0.0494163222656252,1.09817241748047,-0.17305289599609,1.11282161024748,0.160716999999977,
0.470125437988281,0.5163814140625,0.0400310517578166,0.699478503842468,0.163659000000052,
0.70715140234375,0.2099236015625,0.269874411132816,0.78547006442893,0.166670000000067,
0.122966197265625,0.521169817382813,0.186077353027347,0.566889270960799,0.169648999999936,
-0.257711866699219,0.399065532714844,-0.144322476074215,0.496485329832383,0.172636000000011,
0.0248039291992186,0.0447236870117187,-0.331070205566403,0.334996901623616,0.17559099999994,
-0.0733583388671877,-0.03907337109375,-0.362194827148434,0.371609024410155,0.178474000000051,
-0.635995729003907,0.320056877929688,-0.311916592285153,0.777315208241864,0.18149399999993,
-0.750917408691407,0.34399889453125,-0.113197854492183,0.833682162683221,0.18444199999999,
-0.272077076660156,-0.0151313544921876,0.00411802685547258,0.272528625428389,0.18744700000002,
-0.171520606933594,0.0495120903320312,0.0879150849609402,0.198997054891787,0.190413999999919,
-0.523468250976563,0.502016204101563,-0.022218191406246,0.725625886383864,0.193373000000065,
-0.463613209472657,0.569053850585937,-0.216148525878904,0.765166438171358,0.196378999999979,
-0.00153228906250025,0.427795952636719,-0.228119534179685,0.484819808667597,0.199317000000065,
-0.0973003554687503,0.557082842285156,-0.132351467773434,0.580797351375362,0.202311999999893,
-0.238558253417969,0.882694268066406,0.013694833496098,0.914465286173076,0.205249000000094,
0.0631111557617186,0.753407378417969,0.12622231152344,0.766510122413616,0.208176000000094,
0.345626951660156,0.571448052246094,0.0496078583984403,0.669680375809704,0.211197000000084,
0.106206785644531,0.681581328613281,-0.0868616362304646,0.695253862038768,0.214130000000068,
0.0535343491210936,0.739042168457031,-0.09643844287109,0.747227961573234,0.217155999999932,
0.0846589707031248,0.502016204101563,-0.170658694335934,0.53694673893553,0.220113999999967,
0.17085023046875,0.336816289550781,-0.10362104785156,0.391627802531735,0.223058999999921,
-0.0422337172851565,0.3631525078125,-0.0557370146484342,0.369824344261097,0.226051000000098,
-0.159549598632813,0.291326458007813,-0.125168862792965,0.354956932277922,0.228992000000062,
-0.102088758789063,0.164433770019531,-0.0246123930664037,0.195105995003697,0.231984000000011,
-0.0973003554687503,0.427795952636719,-0.0629196196289037,0.443210576138418,20.2417479999999,
-0.102088758789063,0.408642339355469,-0.0892558378906223,0.430554619975862,20.2459980000001,
-0.11645396875,0.430190154296875,-0.0701022246093714,0.451153430206153,20.2489700000001,
-0.0853293471679689,0.413430742675781,-0.0341891997070274,0.423526832507891,20.2518970000001,
-0.0853293471679689,0.434978557617188,-0.0892558378906223,0.452165951474011,20.254909,
-0.0996945571289065,0.442161162597656,-0.0748906279296833,0.459406252224044,20.2578900000001,
-0.106877162109375,0.413430742675781,-0.0270065947265596,0.427875055277503,20.260947,
-0.118848170410156,0.401459734375,-0.0533428129882783,0.422066655437017,20.2638870000001,
-0.111665565429688,0.423007549316406,-0.0868616362304646,0.446037587126956,20.2668040000001,
-0.094906153808594,0.442161162597656,-0.0365834013671833,0.453709176671625,20.2698069999999,
-0.130819178710938,0.444555364257813,0.013694833496098,0.463606166776809,20.2727749999999,
-0.133213380371094,0.411036541015625,-0.0533428129882783,0.435364558109047,20.275797,
-0.104482960449219,0.403853936035156,-0.122774661132809,0.434842854479175,20.2787370000001,
-0.0877235488281252,0.425401750976563,-0.129957266113278,0.453377284133825,20.2817049999999,
-0.106877162109375,0.4397669609375,-0.0940442412109341,0.462235899750007,20.2848409999999,
-0.102088758789063,0.4397669609375,-0.0701022246093714,0.456871334730555,20.2877980000001,
-0.147578590332031,0.475679985839844,-0.0126413847656224,0.498207480736466,20.2908090000001,
-0.0565989272460939,0.437372759277344,-0.0317949980468715,0.442164325815738,20.293758,
-0.111665565429688,0.444555364257813,-0.0916500395507782,0.467438124400211,20.2966739999999,
-0.0733583388671877,0.408642339355469,-0.113197854492183,0.43032982891835,20.29971,
-0.0877235488281252,0.432584355957031,-0.106015249511715,0.453942594572035,20.302672,
-0.126030775390625,0.446949565917969,-0.0102471831054647,0.464491846625342,20.3057289999999,
-0.109271363769532,0.418219145996094,-0.122774661132809,0.449356320122496,20.3087149999999,
-0.0973003554687503,0.403853936035156,-0.218542727539059,0.469389267650683,20.311798,
0.0607169541015623,0.53553502734375,0.0927034882812539,0.54688047210241,20.3148289999999,
-0.200251026855469,0.5163814140625,-0.0341891997070274,0.554904622365379,20.3177820000001,
-0.149972791992188,0.272172844726562,-0.120380459472653,0.333258684458978,20.3208159999999,
-0.109271363769532,0.346393096191406,-0.0198239897460901,0.363760083844524,20.323846,
-0.224193043457031,0.463708977539063,-0.292762979003903,0.592451431309005,20.326873,
-0.159549598632813,0.470891582519531,-0.266426760742185,0.564072846138877,20.3298030000001,
-0.0158974990234377,0.430190154296875,0.0328484467773471,0.431735242694934,20.3327649999999,
-0.0302627089843752,0.399065532714844,-0.0126413847656224,0.400410958347605,20.3358459999999,
0.0176213242187498,0.480468389160156,0.188471554687503,0.516412539522136,20.3388419999999,
-0.217010438476563,0.442161162597656,0.0160890351562539,0.492807143992211,20.341848,
-0.214616236816406,0.303297466308594,-0.292762979003903,0.47303239217805,20.344756,
-0.0685699355468752,0.451737969238281,-0.0940442412109341,0.466490458870671,20.347667,
-0.0925119521484377,0.494833599121094,-0.218542727539059,0.548798392736041,20.3507010000001,
0.00325611425781225,0.437372759277344,-0.0868616362304646,0.44592653732041,20.3536750000001,
0.0152271225585936,0.415824944335938,0.159741134765628,0.44571232844696,20.3568299999999,
-0.130819178710938,0.4397669609375,0.104674496582035,0.470601091887292,20.3597910000001,
-0.0901177504882814,0.442161162597656,-0.0653138212890596,0.455953504114354,20.362787,
-0.0853293471679689,0.406248137695313,-0.168264492675778,0.4479191739192,20.3658310000001,
-0.114059767089844,0.401459734375,-0.208965920898434,0.466740082797659,20.368804,
-0.149972791992188,0.4780741875,-0.110803652832027,0.513151260909137,20.371828,
-0.106877162109375,0.411036541015625,-0.038977603027341,0.426489178489209,20.3747920000001,
-0.0925119521484377,0.339210491210937,-0.00545877978515286,0.351641887315239,20.377776,
-0.0877235488281252,0.4397669609375,-0.0557370146484342,0.451881639097148,20.380825,
-0.1547611953125,0.415824944335938,-0.115592056152341,0.458500747384413,20.3837610000001,
-0.0733583388671877,0.415824944335938,-0.180235500976559,0.459104199529486,20.3867949999999,
-0.0757525405273439,0.423007549316406,-0.101226846191404,0.441498254316908,20.389811,
-0.0925119521484377,0.482862590820312,-0.113197854492183,0.504508173537013,20.392738,
-0.13560758203125,0.45892057421875,-0.0317949980468715,0.479591942849784,20.39579,
-0.0135032973632815,0.415824944335938,0.00890643017578441,0.416139457237766,20.3988139999999,
-0.0757525405273439,0.468497380859375,-0.0557370146484342,0.477843968331045,20.401848,
-0.11645396875,0.480468389160156,-0.122774661132809,0.509396718909788,20.404792,
-0.0853293471679689,0.45892057421875,-0.156293484374997,0.492256888410367,20.4077970000001,
-0.0661757338867189,0.432584355957031,-0.120380459472653,0.453872127142714,20.4107710000001,
-0.130819178710938,0.430190154296875,-0.0557370146484342,0.453082598622473,20.413714,
-0.11645396875,0.4397669609375,-0.0126413847656224,0.455100331112408,20.4167279999999,
-0.0925119521484377,0.408642339355469,-0.0629196196289037,0.423681367702748,20.419709,
-0.128424977050781,0.408642339355469,-0.0413718046874969,0.43034075157659,20.4227779999999,
-0.126030775390625,0.468497380859375,-0.0796790312499969,0.491652621510955,20.425823,
-0.126030775390625,0.408642339355469,-0.122774661132809,0.444911154362024,20.428793,
-0.0589931289062502,0.411036541015625,-0.0437660063476528,0.417548429071242,20.4318479999999,
-0.138001783691406,0.449343767578125,-0.0940442412109341,0.479373166821271,20.434786,
-0.102088758789063,0.42061334765625,-0.0557370146484342,0.436399264091507,20.437819,
-0.0853293471679689,0.408642339355469,-0.0413718046874969,0.41950123387795,20.4408169999999,
-0.102088758789063,0.408642339355469,-0.0796790312499969,0.428671697463151,20.4438150000001,
-0.130819178710938,0.473285784179687,-0.0796790312499969,0.497455363873106,20.4469389999999,
-0.0973003554687503,0.413430742675781,-0.120380459472653,0.441456445401628,20.4499269999999,
-0.0925119521484377,0.432584355957031,-0.0413718046874969,0.444296424172168,20.453002,
-0.104482960449219,0.415824944335938,-0.0629196196289037,0.433342764899178,20.455993,
-0.0733583388671877,0.449343767578125,-0.0509486113281223,0.458134290725898,20.4589619999999,
-0.0877235488281252,0.408642339355469,-0.060525417968746,0.422311861961279,20.4620829999999,
-0.111665565429688,0.456526372558594,-0.132351467773434,0.488264721607062,20.465144,
-0.142790187011719,0.461314775878906,-0.0581312163085901,0.486394488312279,20.4681849999999,
-0.140395985351563,0.456526372558594,-0.0677080229492155,0.482402050074454,20.4711629999999,
-0.118848170410156,0.461314775878906,-0.0365834013671833,0.477780865365744,20.4741730000001,
-0.0709641372070314,0.430190154296875,-0.0509486113281223,0.438970658039659,20.477241,
-0.0709641372070314,0.427795952636719,-0.106015249511715,0.446412946710697,20.4802030000001,
-0.111665565429688,0.415824944335938,-0.098832644531246,0.441754993700985,20.483207,
-0.123636573730469,0.396671331054688,-0.17305289599609,0.450090493186804,20.48613,
-0.109271363769532,0.418219145996094,-0.0724964262695273,0.438295809744524,20.489116,
-0.0973003554687503,0.425401750976563,-0.0557370146484342,0.43993252176918,20.4921260000001,
-0.0733583388671877,0.425401750976563,-0.00785298144530877,0.431751971544843,20.4951349999999,
-0.0805409438476564,0.423007549316406,-0.0748906279296833,0.437070745493502,20.4982439999999,
-0.094906153808594,0.401459734375,-0.108409451171871,0.426532185724093,20.5012079999999,
-0.0733583388671877,0.430190154296875,-0.115592056152341,0.4514493749922,20.504269,
-0.0709641372070314,0.411036541015625,-0.115592056152341,0.432837695060347,20.507216,
-0.0853293471679689,0.463708977539063,-0.0844674345703087,0.479000898580915,20.5101930000001,
-0.123636573730469,0.425401750976563,-0.0868616362304646,0.45143947096634,20.513234,
-0.128424977050781,0.403853936035156,-0.0102471831054647,0.423905627638014,20.516222,
-0.13560758203125,0.415824944335938,-0.0892558378906223,0.446392658131722,20.519278,
-0.0781467421875002,0.437372759277344,-0.108409451171871,0.457334071522977,20.522242,
-0.118848170410156,0.437372759277344,-0.129957266113278,0.471496245142373,20.5251820000001,
-0.147578590332031,0.427795952636719,-0.113197854492183,0.466478908074503,20.5282259999999,
-0.11645396875,0.446949565917969,-0.113197854492183,0.475540950469589,20.531209,
-0.118848170410156,0.425401750976563,-0.060525417968746,0.445819317172392,20.53422,
-0.111665565429688,0.461314775878906,-0.060525417968746,0.478480769903273,20.5372179999999,
-0.0446279189453127,0.423007549316406,-0.0198239897460901,0.425816895504998,20.540197,
-0.0565989272460939,0.403853936035156,-0.0844674345703087,0.416456705696266,20.5432330000001,
-0.106877162109375,0.468497380859375,-0.122774661132809,0.495969899357737,20.5461769999999,
-0.0925119521484377,0.430190154296875,-0.137139871093746,0.460900612266781,20.5492079999999,
-0.11645396875,0.406248137695313,-0.153899282714841,0.44976000871429,20.5521719999999,
-0.118848170410156,0.470891582519531,-0.0677080229492155,0.490355122813336,20.5551230000001,
-0.118848170410156,0.408642339355469,-0.132351467773434,0.445679660906277,20.5581339999999,
-0.0877235488281252,0.413430742675781,-0.0868616362304646,0.431468821419442,20.5611100000001,
-0.094906153808594,0.4397669609375,-0.0509486113281223,0.452766958775935,20.5641860000001,
-0.138001783691406,0.475679985839844,-0.0677080229492155,0.499900307663733,20.567172,
-0.128424977050781,0.451737969238281,-0.0820732329101528,0.47675589471169,20.570113,
-0.111665565429688,0.403853936035156,-0.0916500395507782,0.428913662528345,20.573155,
-0.104482960449219,0.425401750976563,-0.108409451171871,0.451260399172745,20.5760969999999,
-0.0757525405273439,0.418219145996094,-0.0485544096679646,0.427788770507424,20.57917,
-0.0709641372070314,0.449343767578125,-0.038977603027341,0.456579657637744,20.58214,
-0.0805409438476564,0.423007549316406,-0.106015249511715,0.443465290122659,20.5851230000001,
-0.102088758789063,0.446949565917969,-0.0533428129882783,0.461553339109203,20.5881939999999,
-0.126030775390625,0.49722780078125,-0.0796790312499969,0.519103063212171,20.59121,
-0.0996945571289065,0.387094524414062,-0.038977603027341,0.401622246757117,20.594274,
-0.121242372070313,0.449343767578125,-0.0868616362304646,0.473449551795303,20.597291,
-0.0901177504882814,0.418219145996094,-0.125168862792965,0.445752966612286,20.6003129999999,
-0.0901177504882814,0.430190154296875,-0.0653138212890596,0.444354220254986,20.603376,
-0.104482960449219,0.446949565917969,-0.0940442412109341,0.4685348682899,20.60635,
-0.0925119521484377,0.444555364257813,-0.0940442412109341,0.463715702220284,20.609385,
-0.0996945571289065,0.466103179199219,-0.0557370146484342,0.479893522755483,20.612351,
-0.104482960449219,0.446949565917969,-0.0365834013671833,0.460455153901101,20.6154180000001,
-0.094906153808594,0.403853936035156,-0.125168862792965,0.433327155731916,20.6184249999999,
-0.11645396875,0.45892057421875,-0.0844674345703087,0.48094112714737,20.6213600000001,
-0.094906153808594,0.444555364257813,-0.098832644531246,0.46519301536693,20.6243790000001,
-0.0805409438476564,0.432584355957031,-0.129957266113278,0.458808194859539,20.6273209999999,
-0.0589931289062502,0.423007549316406,-0.00545877978515286,0.42713624795089,20.6303660000001,
-0.0901177504882814,0.473285784179687,-0.0748906279296833,0.487574864622195,20.6333199999999,
-0.0996945571289065,0.425401750976563,-0.127563064453122,0.455168089685256,20.6363449999999,
-0.0757525405273439,0.415824944335938,-0.0485544096679646,0.4254484251076,20.6394129999999,
-0.102088758789063,0.4397669609375,-0.0653138212890596,0.456161144613036,20.6424099999999,
-0.111665565429688,0.432584355957031,-0.117986257812497,0.462081357072635,20.6454650000001,
-0.121242372070313,0.434978557617188,-0.0844674345703087,0.45939177819684,20.6484330000001,
-0.0829351455078127,0.42061334765625,-0.0341891997070274,0.430072933307371,20.6513970000001,
-0.0901177504882814,0.454132170898438,-0.0317949980468715,0.464077751566261,20.6544289999999,
-0.102088758789063,0.413430742675781,-0.153899282714841,0.452804685135525,20.6574390000001,
-0.102088758789063,0.444555364257813,-0.101226846191404,0.467224208438888,20.6605279999999,
-0.0781467421875002,0.449343767578125,-0.108409451171871,0.468795631250132,20.6634919999999,
-0.109271363769532,0.446949565917969,-0.077284829589841,0.466558774753026,20.6664249999999,
-0.0709641372070314,0.42061334765625,-0.0724964262695273,0.432674506780777,20.6695099999999,
-0.109271363769532,0.499622002441406,-0.113197854492183,0.523809250133336,20.672466,
-0.0661757338867189,0.430190154296875,-0.108409451171871,0.448548108582347,20.675522,
-0.094906153808594,0.434978557617188,-0.120380459472653,0.461199499826611,20.678533,
-0.0877235488281252,0.437372759277344,-0.0868616362304646,0.454461544495804,20.6814890000001,
-0.126030775390625,0.444555364257813,-0.110803652832027,0.475174365593178,20.684538,
-0.0925119521484377,0.415824944335938,-0.101226846191404,0.437853537169861,20.687484,
-0.0925119521484377,0.415824944335938,-0.0892558378906223,0.435241829584264,20.6905449999999,
-0.133213380371094,0.399065532714844,-0.10362104785156,0.433285616734194,20.6935389999999,
-0.0829351455078127,0.411036541015625,-0.0557370146484342,0.42300814556272,20.6965419999999,
-0.111665565429688,0.449343767578125,-0.0940442412109341,0.472465172546058,20.6995300000001,
-0.0757525405273439,0.442161162597656,-0.110803652832027,0.462084830509484,20.702522,
-0.0925119521484377,0.430190154296875,-0.0796790312499969,0.447180923301992,20.7056279999999,
-0.0661757338867189,0.427795952636719,-0.117986257812497,0.448675118410193,20.708607,
-0.109271363769532,0.456526372558594,-0.101226846191404,0.48021186383868,20.71165,
-0.128424977050781,0.434978557617188,-0.060525417968746,0.457561631408834,20.7146319999999,
-0.106877162109375,0.401459734375,-0.0413718046874969,0.41749763152394,20.717564,
-0.0805409438476564,0.432584355957031,-0.0461602080078087,0.442432857570451,20.7206570000001,
-0.0709641372070314,0.4397669609375,-0.106015249511715,0.457897501446311,20.723657,
-0.102088758789063,0.442161162597656,-0.0916500395507782,0.462956086611313,20.7267919999999,
-0.0996945571289065,0.449343767578125,-0.0557370146484342,0.463632873062677,20.7297819999999,
-0.109271363769532,0.4397669609375,-0.0748906279296833,0.459286203824979,20.732784,
-0.0685699355468752,0.415824944335938,-0.0916500395507782,0.431291027199207,20.735856,
-0.0973003554687503,0.406248137695313,-0.101226846191404,0.429827620035187,20.738848,
-0.133213380371094,0.427795952636719,-0.0653138212890596,0.452792532020605,20.741953,
-0.11645396875,0.434978557617188,-0.098832644531246,0.461016012790656,20.7450369999999,
-0.149972791992188,0.45892057421875,-0.0653138212890596,0.487202039230727,20.7479719999999,
-0.147578590332031,0.430190154296875,-0.14192827441406,0.476431153742607,20.751045,
-0.111665565429688,0.408642339355469,-0.10362104785156,0.436113610856732,20.7540469999999,
-0.0709641372070314,0.482862590820312,-0.0533428129882783,0.490955849421051,20.757134,
-0.0781467421875002,0.413430742675781,-0.0820732329101528,0.428681592635247,20.7601099999999,
-0.104482960449219,0.454132170898438,-0.0461602080078087,0.468277142803794,20.763048,
-0.149972791992188,0.427795952636719,-0.09643844287109,0.463466922976916,20.7660659999999,
-0.0901177504882814,0.437372759277344,-0.120380459472653,0.462501453547762,20.7690769999999,
-0.118848170410156,0.449343767578125,-0.077284829589841,0.471176881813907,20.7720899999999,
-0.0542047255859377,0.423007549316406,-0.038977603027341,0.428243847115491,20.775099,
-0.11645396875,0.408642339355469,-0.0844674345703087,0.433226079379376,20.778125,
-0.0565989272460939,0.470891582519531,-0.038977603027341,0.475879790063535,20.781178,
-0.0613873305664064,0.444555364257813,-0.0270065947265596,0.449585622994319,20.784179,
-0.0877235488281252,0.425401750976563,-0.0485544096679646,0.43705789256245,20.787214,
-0.0661757338867189,0.387094524414062,-0.120380459472653,0.410746702493936,20.7901939999999,
-0.123636573730469,0.427795952636719,-0.127563064453122,0.463214545182725,20.793234,
-0.121242372070313,0.423007549316406,-0.137139871093746,0.460914790180915,20.7962259999999,
-0.0853293471679689,0.418219145996094,-0.0916500395507782,0.436563948712526,20.7992059999999,
-0.128424977050781,0.468497380859375,-0.108409451171871,0.497730227840318,20.8022590000001,
-0.13560758203125,0.461314775878906,-0.0198239897460901,0.481241861560298,20.805218,
-0.109271363769532,0.432584355957031,-0.120380459472653,0.462126509715316,20.8082360000001,
-0.0853293471679689,0.425401750976563,-0.0868616362304646,0.442484678910661,20.811232,
-0.0637815322265627,0.430190154296875,-0.0557370146484342,0.438449846058882,20.8141539999999,
-0.109271363769532,0.423007549316406,-0.0485544096679646,0.439582925529336,20.817227,
-0.0973003554687503,0.432584355957031,-0.0461602080078087,0.445788457675195,20.8202060000001,
-0.121242372070313,0.434978557617188,-0.0509486113281223,0.454424712541285,20.8232619999999,
-0.145184388671875,0.434978557617188,-0.0844674345703087,0.466282746628743,20.8261970000001,
-0.104482960449219,0.418219145996094,-0.0581312163085901,0.434974920439617,20.8291529999999,
-0.0901177504882814,0.403853936035156,-0.0796790312499969,0.421388132990352,20.8321779999999,
-0.0733583388671877,0.427795952636719,-0.0629196196289037,0.438576904895774,20.8351519999999,
-0.11645396875,0.456526372558594,-0.038977603027341,0.472754808771831,20.8381669999999,
-0.145184388671875,0.45892057421875,-0.0820732329101528,0.488285383475297,20.8411639999999,
-0.0853293471679689,0.415824944335938,-0.098832644531246,0.43584329000816,20.8441310000001,
-0.13560758203125,0.425401750976563,-0.113197854492183,0.460618953474475,20.847213,
-0.157155396972656,0.427795952636719,-0.0724964262695273,0.461479065301823,20.8501670000001,
-0.121242372070313,0.430190154296875,-0.0724964262695273,0.452790253275243,20.853214,
-0.140395985351563,0.389488726074219,-0.098832644531246,0.425652900926088,20.8561500000001,
-0.102088758789063,0.403853936035156,-0.0701022246093714,0.42241500709298,20.8591349999999,
-0.126030775390625,0.432584355957031,-0.101226846191404,0.461800666688756,20.8621909999999,
-0.0805409438476564,0.384700322753906,-0.0940442412109341,0.404135498648376,20.8651990000001,
-0.0901177504882814,0.437372759277344,-0.0796790312499969,0.45361314744161,20.8682779999999,
-0.0494163222656252,0.454132170898438,-0.0270065947265596,0.457610486888044,20.8712820000001,
-0.118848170410156,0.430190154296875,-0.0844674345703087,0.454228140879338,20.8742580000001,
-0.0925119521484377,0.423007549316406,-0.0748906279296833,0.439434243341013,20.877317,
-0.0661757338867189,0.430190154296875,-0.13474566943359,0.455630543357797,20.880287,
-0.0853293471679689,0.487650994140625,-0.0461602080078087,0.497207556637845,20.88339,
-0.118848170410156,0.434978557617188,-0.122774661132809,0.467338047469759,20.886389,
-0.0996945571289065,0.461314775878906,-0.117986257812497,0.486488524220183,20.88941,
-0.104482960449219,0.432584355957031,-0.0365834013671833,0.446524645790784,20.8923709999999,
-0.128424977050781,0.425401750976563,-0.24966734912109,0.50969933262814,20.8953739999999,
0.108600987304687,0.552294438964844,0.178894748046879,0.590615486280034,20.8984820000001,
-0.0613873305664064,0.413430742675781,-0.32628180224609,0.53023881206535,20.9014259999999,
0.0511401474609373,0.401459734375,0.013694833496098,0.404935527548841,20.9044550000001,
-0.130819178710938,0.4780741875,0.0783382783203166,0.501802224110835,20.907404,
-0.264894471679688,0.293720659667969,-0.194600710937497,0.440806469711626,20.910359,
-0.286442286621094,0.3631525078125,-0.127563064453122,0.479792937534412,20.9133830000001,
-0.293624891601563,0.423007549316406,-0.280791970703122,0.586510950075141,20.9164129999999,
-0.140395985351563,0.387094524414062,-0.295157180664059,0.506627047078758,20.919525,
-0.0518105239257815,0.533140825683594,0.0855208833007843,0.542436440406242,20.9225280000001,
-0.17391480859375,0.432584355957031,0.00172382519531666,0.466238734169807,20.92551,
-0.0589931289062502,0.341604692871094,0.0879150849609402,0.357635313711318,20.928574,
-0.0637815322265627,0.432584355957031,-0.0317949980468715,0.438415591388728,20.9315509999999,
-0.094906153808594,0.442161162597656,-0.266426760742185,0.524877976847976,20.9345840000001,
-0.0350511123046877,0.463708977539063,-0.144322476074215,0.486912285144163,20.937576,
0.0176213242187498,0.511593010742188,-0.101226846191404,0.521809154861561,20.9405839999999,
0.00804451757812485,0.468497380859375,0.0903092866210979,0.477189980390589,20.9436699999999,
-0.0565989272460939,0.466103179199219,0.0328484467773471,0.470674656934821,20.9466130000001,
-0.0494163222656252,0.399065532714844,-0.0509486113281223,0.405328303111819,20.9496919999999,
-0.0925119521484377,0.399065532714844,-0.168264492675778,0.442859684535332,20.952642,
-0.181097413574219,0.487650994140625,-0.09643844287109,0.529055893600111,20.9556029999999,
-0.171520606933594,0.4780741875,-0.0940442412109341,0.516544835093328,20.9586959999999,
-0.140395985351563,0.403853936035156,-0.09643844287109,0.43830287201583,20.961654,
