X,Y,Z,Magnitude,Seconds,
-0.650360938964844,0.2865380546875,-0.000670376464841027,0.710685483965963,0.0,
-0.635995729003907,0.389488726074219,0.0256658417968776,0.746224343267674,0.00293899999996938,
-0.640784132324219,0.45892057421875,-0.0413718046874969,0.789255360389063,0.00602699999990364,
-0.602476905761719,0.5163814140625,0.00890643017578441,0.793541121343991,0.00907099999994898,
-0.571352284179688,0.473285784179687,-0.000670376464841027,0.741918671788581,0.0121650000000955,
-0.545016065917969,0.4397669609375,0.0424252534179725,0.701596318525464,0.0151730000002317,
-0.578534889160156,0.327239482910156,0.0160890351562539,0.664866267908908,0.0180860000000393,
-0.535439259277344,0.19076998828125,-0.0581312163085901,0.571373456780953,0.0210940000001756,
-0.492343629394531,0.130914946777344,-0.0748906279296833,0.514926770373028,0.0240200000002915,
-0.5378334609375,-0.0582269843750001,-0.0796790312499969,0.546812546888195,0.0270470000000387,
-0.545016065917969,-0.0797747993164063,-0.108409451171871,0.561390363132517,0.0299480000003314,
-0.547410267578125,-0.170754462402344,-0.14192827441406,0.590727282727335,0.0328490000001693,
-0.552198670898438,-0.252157318847656,-0.196994912597653,0.638211313892034,0.0358610000002955,
-0.597688502441406,-0.264128327148438,-0.146716677734371,0.669717181113263,0.0387789999999768,
-0.597688502441406,-0.244974713867188,-0.189812307617185,0.673255425903069,0.0417850000003455,
-0.561775477539063,-0.244974713867188,-0.115592056152341,0.623671244362026,0.0447120000003451,
-0.619236317382813,-0.201879083984375,-0.0868616362304646,0.657079694683097,0.0476300000000265,
-0.583323292480469,-0.118082025878906,-0.101226846191404,0.603702163964798,0.0506040000000212,
-0.650360938964844,-0.0486501777343751,-0.0796790312499969,0.657027350074377,0.0535170000002836,
-0.640784132324219,0.0135990654296875,-0.10362104785156,0.649250768483887,0.0565220000003137,
-0.602476905761719,0.0423294853515625,-0.0581312163085901,0.606753199922225,0.059465000000273,
-0.681485560546875,0.085425115234375,-0.0581312163085901,0.68927444306039,0.0624680000000808,
-0.635995729003907,0.145280156738281,-0.110803652832027,0.661720742257662,0.0654070000000502,
-0.63360152734375,0.15246276171875,-0.060525417968746,0.654491493744214,0.0683360000002722,
-0.597688502441406,0.19076998828125,-0.0198239897460901,0.627708311996052,0.0713420000001861,
-0.573746485839844,0.233865618164062,-0.0341891997070274,0.620521602161791,0.074301000000105,
-0.468401612792969,0.291326458007813,-0.0485544096679646,0.553740649312146,0.0773010000002614,
-0.413334974609375,0.346393096191406,-0.0461602080078087,0.541262175962561,0.0802440000002207,
-0.346297328125,0.427795952636719,-0.0820732329101528,0.556477521665697,0.083161999999902,
-0.293624891601563,0.384700322753906,-0.0246123930664037,0.484577842237389,0.0861680000002707,
-0.324749513183594,0.387094524414062,-0.000670376464841027,0.50527701961294,0.0891000000001441,
-0.367845143066406,0.348787297851562,-0.00785298144530877,0.506975638209293,0.0921080000002803,
-0.446853797851563,0.257807634765625,-0.000670376464841027,0.515891018144739,0.0950360000001638,
-0.545016065917969,0.0926077202148437,-0.0485544096679646,0.55495606371162,0.0979569999999512,
-0.676697157226563,-0.0486501777343751,-0.0653138212890596,0.681580353035119,0.100946000000022,
-0.777253626953125,-0.23060950390625,-0.182629702636715,0.831058091945954,0.103884999999991,
-0.884992701660157,-0.450876056640625,-0.170658694335934,1.00778256106959,0.106884000000264,
-0.908934718261719,-0.606499164550781,-0.240090542480466,1.11877031925721,0.109830000000329,
-0.918511524902344,-0.730997650878906,-0.244878945800778,1.19916082535472,0.112731000000167,
-0.884992701660157,-0.72860344921875,-0.230513735839841,1.16927826055907,0.115724000000228,
-0.7676768203125,-0.654383197753906,-0.189812307617185,1.02643742238419,0.118641000000025,
-0.707821778808594,-0.462847064941406,-0.165870291015622,0.86183062693446,0.121645000000171,
-0.607265309082031,-0.185119672363281,-0.0437660063476528,0.636361463338256,0.124560000000201,
-0.494737831054688,0.128520745117187,0.0232716401367217,0.511688061847086,0.127496999999948,
-0.434882789550782,0.413430742675781,0.0496078583984403,0.60208716914729,0.130501999999979,
-0.322355311523438,0.607361077148438,0.123828109863284,0.698665746759204,0.133452999999918,
-0.303201698242188,0.980856536132812,0.128616513183598,1.03467532190292,0.13645600000018,
-0.272077076660156,1.0526825859375,0.073549875000003,1.08975967373202,0.139411000000109,
-0.286442286621094,1.08620140917969,0.0496078583984403,1.12443035555055,0.14237600000024,
-0.398969764648438,1.14126804736328,0.0160890351562539,1.20910234723463,0.145476000000144,
-0.40375816796875,0.959308721191406,-0.00306457812499694,1.04081855882496,0.148493000000144,
-0.32714371484375,0.748618975097656,0.073549875000003,0.82028224663865,0.151609999999891,
-0.331932118164063,0.485256792480469,0.109462899902347,0.598026096564644,0.154550000000199,
-0.394181361328125,0.250625029785156,0.0567904633789098,0.470549686966314,0.157554000000346,
-0.485161024414063,0.0926077202148437,-0.038977603027341,0.495456015193731,0.160489000000325,
-0.552198670898438,-0.0893516059570313,-0.17305289599609,0.585537690026641,0.163405000000239,
-0.607265309082031,-0.26891673046875,-0.139534072753904,0.678643589080299,0.166396000000077,
-0.604871107421875,-0.338348578613281,-0.158687686035153,0.711006750279197,0.16932799999995,
-0.676697157226563,-0.333560175292969,-0.129957266113278,0.765552300078594,0.172297999999955,
-0.686273963867188,-0.30722395703125,-0.156293484374997,0.767975368429222,0.175228999999945,
-0.667120350585938,-0.256945722167969,-0.110803652832027,0.7234280308277,0.178122000000258,
-1.13877807763672,0.461314775878906,-0.194600710937497,1.24398403094556,0.181167000000187,
-0.734157997070313,0.442161162597656,-0.0365834013671833,0.857806973408119,0.184128000000328,
-0.6910623671875,0.619332085449219,-0.0126413847656224,0.928062084140098,0.187169000000267,
-0.255317665039063,0.293720659667969,0.119039706542972,0.406975905589782,0.190102000000024,
-0.408546571289063,0.485256792480469,0.0807324799804725,0.639454602676593,0.19304000000011,
-0.492343629394531,0.667216118652344,-0.038977603027341,0.830119781677702,0.19604100000015,
-0.4612190078125,0.518775615722656,0.0113006318359403,0.694246942316536,0.199004000000059,
-0.410940772949219,0.3631525078125,-0.00306457812499694,0.54841722660917,0.202004000000215,
-0.573746485839844,0.274567046386719,0.0448194550781285,0.637636947273758,0.204956999999922,
-0.650360938964844,0.164433770019531,0.0879150849609402,0.676562545384947,0.207879999999932,
-0.796407240234375,-0.0151313544921876,-0.151505081054685,0.810831203008301,0.210874000000331,
-0.829926063476563,-0.194696479003906,-0.228119534179685,0.882452554899457,0.213799000000108,
-0.837108668457032,-0.328771771972656,-0.252061550781246,0.9340111488811,0.216805999999906,
-0.856262281738281,-0.446087653320313,-0.247273147460934,0.996656058541616,0.219736999999895,
-0.834714466796875,-0.484394879882813,-0.216148525878904,0.988992834137993,0.222654000000148,
-0.750917408691407,-0.549038324707031,-0.185023904296871,0.948448143987945,0.225636000000122,
-0.619236317382813,-0.472423871582031,-0.244878945800778,0.816457977671162,0.228583000000071,
-0.506708839355469,-0.436510846679688,-0.208965920898434,0.700687036591169,0.231580000000122,
-0.219404640136719,-0.199484882324219,-0.108409451171871,0.315729668375997,20.3402620000002,
-0.207433631835938,-0.163571857421875,-0.077284829589841,0.275240638427214,20.3445140000003,
-0.214616236816406,-0.158783454101563,-0.0461602080078087,0.270930026399776,20.347417,
-0.221798841796875,-0.127658832519531,-0.0509486113281223,0.260935365059911,20.3503070000002,
-0.193068421875,-0.127658832519531,-0.0724964262695273,0.242544686331005,20.3532930000001,
-0.226587245117188,-0.15399505078125,-0.0581312163085901,0.280063374300233,20.3561970000001,
-0.221798841796875,-0.139629840820313,-0.110803652832027,0.284549939643047,20.3591810000003,
-0.195462623535156,-0.1731486640625,-0.022218191406246,0.262068206952387,20.362083,
-0.207433631835938,-0.144418244140625,-0.0653138212890596,0.261057917153814,20.364963,
-0.238558253417969,-0.15399505078125,-0.000670376464841027,0.283945356263413,20.3679360000001,
-0.193068421875,-0.158783454101563,-0.0485544096679646,0.254647072474691,20.370844,
-0.217010438476563,-0.149206647460938,-0.0198239897460901,0.264100633516422,20.3738090000002,
-0.219404640136719,-0.139629840820313,-0.0509486113281223,0.265010659327683,20.3767200000002,
-0.21222203515625,-0.19230227734375,-0.149110879394527,0.322881421626055,20.3796010000001,
-0.238558253417969,-0.0917458076171875,-0.0820732329101528,0.268446175330337,20.3826170000002,
-0.228981446777344,-0.132447235839844,-0.0796790312499969,0.276267119416696,20.3856140000003,
-0.226587245117188,-0.139629840820313,-0.0317949980468715,0.268046999606604,20.3886870000001,
-0.217010438476563,-0.127658832519531,-0.0701022246093714,0.261351544520446,20.3916790000003,
-0.221798841796875,-0.137235639160156,-0.0581312163085901,0.267221977366473,20.3945720000002,
-0.217010438476563,-0.139629840820313,-0.0270065947265596,0.259459783037797,20.3975330000003,
-0.236164051757813,-0.1348414375,-0.077284829589841,0.28271649667903,20.4004480000003,
-0.238558253417969,-0.15399505078125,-0.077284829589841,0.294274465123433,20.4034409999999,
-0.243346656738281,-0.1731486640625,-0.000670376464841027,0.298661186994447,20.4063700000002,
-0.197856825195313,-0.156389252441406,-0.0844674345703087,0.265969300969942,20.4093330000001,
-0.21222203515625,-0.15399505078125,-0.077284829589841,0.273359859444856,20.4122500000003,
-0.236164051757813,-0.149206647460938,-0.0653138212890596,0.286883213591487,20.4151390000002,
-0.21222203515625,-0.156389252441406,-0.0509486113281223,0.268498699217159,20.4181000000003,
-0.214616236816406,-0.118082025878906,-0.0748906279296833,0.25614858987042,20.4210130000001,
-0.209827833496094,-0.125264630859375,-0.0437660063476528,0.248262785704227,20.4239950000001,
-0.224193043457031,-0.120476227539063,-0.077284829589841,0.265988697168322,20.4269250000002,
-0.207433631835938,-0.110899420898438,-0.0270065947265596,0.236763065808375,20.429803,
-0.202645228515625,-0.118082025878906,-0.10362104785156,0.256409389519323,20.4327710000002,
-0.219404640136719,-0.161177655761719,-0.0701022246093714,0.281124447043563,20.4356830000002,
-0.233769850097656,-0.118082025878906,-0.0317949980468715,0.26382310276234,20.4386500000001,
-0.217010438476563,-0.151600849121094,-0.0413718046874969,0.267932779041921,20.4415600000002,
-0.207433631835938,-0.110899420898438,-0.0509486113281223,0.240672296221481,20.444442,
-0.209827833496094,-0.106111017578125,-0.115592056152341,0.262009143364608,20.4474090000003,
-0.193068421875,-0.110899420898438,-0.0629196196289037,0.231371942151934,20.4502980000002,
-0.217010438476563,-0.165966059082031,-0.0844674345703087,0.285959806053053,20.453278,
-0.228981446777344,-0.1348414375,-0.0485544096679646,0.270133757486021,20.4561830000002,
-0.197856825195313,-0.0893516059570313,-0.0174297880859342,0.217795386260108,20.4590600000001,
-0.207433631835938,-0.120476227539063,-0.0748906279296833,0.251300296797265,20.4620239999999,
-0.260106068359375,-0.103716815917969,-0.00545877978515286,0.28007524520792,20.4649240000003,
-0.205039430175782,-0.137235639160156,-0.0365834013671833,0.249425607823452,20.467897,
-0.240952455078125,-0.165966059082031,-0.101226846191404,0.309596015422121,20.4708030000002,
-0.202645228515625,-0.125264630859375,-0.0485544096679646,0.243133393598432,20.4736830000002,
-0.257711866699219,-0.113293622558594,-0.0677080229492155,0.289543135856709,20.4766480000003,
-0.200251026855469,-0.137235639160156,-0.0557370146484342,0.249079724615004,20.4795530000001,
-0.233769850097656,-0.118082025878906,-0.038977603027341,0.2647847450064,20.4825089999999,
-0.226587245117188,-0.11568782421875,-0.077284829589841,0.26589170202734,20.4853950000002,
-0.221798841796875,-0.158783454101563,-0.060525417968746,0.279410518304429,20.4882710000002,
-0.224193043457031,-0.1348414375,-0.060525417968746,0.268529440139967,20.491215,
-0.190674220214844,-0.122870429199219,-0.0820732329101528,0.241225654080289,20.4941240000003,
-0.195462623535156,-0.122870429199219,-0.0677080229492155,0.240597497789437,20.4970990000002,
-0.2313756484375,-0.137235639160156,-0.077284829589841,0.279895080754023,20.500004,
-0.2313756484375,-0.144418244140625,-0.110803652832027,0.294395600190382,20.5029770000001,
-0.195462623535156,-0.125264630859375,-0.0461602080078087,0.23670156262033,20.5058840000002,
-0.202645228515625,-0.137235639160156,-0.0198239897460901,0.24554368219382,20.5087670000003,
-0.214616236816406,-0.103716815917969,-0.0677080229492155,0.24779363063059,20.5117380000002,
-0.195462623535156,-0.130053034179688,-0.0341891997070274,0.23725161806655,20.514639,
-0.236164051757813,-0.139629840820313,-0.0341891997070274,0.276475773200437,20.5176060000003,
-0.188280018554688,-0.142024042480469,-0.106015249511715,0.258571899398366,20.5205920000003,
-0.21222203515625,-0.110899420898438,-0.110803652832027,0.263845263824064,20.5235670000002,
-0.200251026855469,-0.125264630859375,-0.10362104785156,0.257932206323407,20.5266329999999,
-0.202645228515625,-0.106111017578125,-0.0748906279296833,0.240693254669335,20.5295980000001,
-0.202645228515625,-0.122870429199219,-0.098832644531246,0.256768616923466,20.532573,
-0.238558253417969,-0.125264630859375,-0.10362104785156,0.288684238530652,20.5354810000003,
-0.245740858398438,-0.168360260742188,-0.106015249511715,0.316185040779303,20.5383900000002,
-0.200251026855469,-0.113293622558594,-0.0796790312499969,0.243484428023759,20.5413940000003,
-0.224193043457031,-0.125264630859375,-0.00306457812499694,0.256832903106176,20.5442940000003,
-0.190674220214844,-0.127658832519531,-0.115592056152341,0.256933764266813,20.5472850000001,
-0.217010438476563,-0.158783454101563,-0.060525417968746,0.275624820951424,20.550197,
-0.205039430175782,-0.137235639160156,-0.060525417968746,0.254043529346443,20.5530800000001,
-0.17391480859375,-0.156389252441406,-0.0677080229492155,0.243491961467056,20.5560860000001,
-0.205039430175782,-0.11568782421875,0.0424252534179725,0.239216936538483,20.5590130000001,
-0.209827833496094,-0.0965342109375001,-0.0796790312499969,0.24432626058598,20.562011,
-0.236164051757813,-0.161177655761719,-0.0653138212890596,0.293287557374821,20.564907,
-0.260106068359375,-0.103716815917969,-0.0892558378906223,0.293902958983218,20.5677850000002,
-0.188280018554688,-0.113293622558594,-0.0126413847656224,0.220101374162442,20.5707360000001,
-0.217010438476563,-0.1348414375,-0.0533428129882783,0.261000381939105,20.5736230000002,
-0.202645228515625,-0.125264630859375,-0.0341891997070274,0.240676583325201,20.5765710000001,
-0.221798841796875,-0.149206647460938,-0.0557370146484342,0.27306403034982,20.5794540000002,
-0.221798841796875,-0.101322614257813,-0.0437660063476528,0.247742732878475,20.5823370000003,
-0.214616236816406,-0.165966059082031,-0.0533428129882783,0.27649650552938,20.5852840000002,
-0.219404640136719,-0.120476227539063,0.035242648437503,0.252774527562523,20.5882000000001,
-0.205039430175782,-0.137235639160156,-0.0557370146484342,0.252945455354362,20.5911679999999,
-0.2313756484375,-0.110899420898438,-0.0294007963867156,0.258259131636532,20.594051,
-0.224193043457031,-0.144418244140625,-0.0317949980468715,0.268570422563595,20.5969869999999,
-0.2313756484375,-0.120476227539063,-0.0126413847656224,0.26116855993919,20.5998770000001,
-0.214616236816406,-0.120476227539063,-0.110803652832027,0.269911281698636,20.602738,
-0.236164051757813,-0.137235639160156,-0.0341891997070274,0.275274374715429,20.6056900000003,
-0.190674220214844,-0.132447235839844,-0.0748906279296833,0.243941662468419,20.6085660000003,
-0.202645228515625,-0.125264630859375,-0.0246123930664037,0.23950383353287,20.6115140000002,
-0.185885816894531,-0.139629840820313,-0.0461602080078087,0.237024880916281,20.6144280000003,
-0.190674220214844,-0.137235639160156,-0.038977603027341,0.238137633413941,20.6173220000001,
-0.217010438476563,-0.15399505078125,-0.0557370146484342,0.271872434930115,20.6203009999999,
-0.248135060058594,-0.11568782421875,-0.0294007963867156,0.275352660293892,20.623212,
-0.248135060058594,-0.103716815917969,-0.151505081054685,0.308677785918959,20.6261850000001,
-0.21222203515625,-0.110899420898438,-0.0868616362304646,0.254719095495613,20.6290920000001,
-0.257711866699219,-0.125264630859375,-0.0701022246093714,0.294993145474796,20.631981,
-0.238558253417969,-0.158783454101563,-0.022218191406246,0.28742977159581,20.634951,
-0.219404640136719,-0.144418244140625,-0.108409451171871,0.284161282474532,20.6378589999999,
-0.190674220214844,-0.151600849121094,-0.0629196196289037,0.251591641838558,20.6408380000003,
-0.224193043457031,-0.130053034179688,-0.0868616362304646,0.273351890943712,20.643744,
-0.25052926171875,-0.125264630859375,-0.077284829589841,0.290566831566179,20.6466260000002,
-0.197856825195313,-0.101322614257813,-0.0629196196289037,0.231024834099393,20.6495930000001,
-0.219404640136719,-0.130053034179688,-0.10362104785156,0.275298945458789,20.6524979999999,
-0.2313756484375,-0.125264630859375,-0.0892558378906223,0.277835424364436,20.655503,
-0.209827833496094,-0.101322614257813,-0.09643844287109,0.252179232160586,20.6585010000003,
-0.202645228515625,-0.118082025878906,-0.0724964262695273,0.245487647953354,20.661474,
-0.243346656738281,-0.144418244140625,-0.0677080229492155,0.290961511128279,20.6645400000002,
-0.217010438476563,-0.113293622558594,-0.0844674345703087,0.258966644228805,20.6674590000002,
-0.205039430175782,-0.108505219238281,-0.0413718046874969,0.235639930300145,20.670431,
-0.226587245117188,-0.137235639160156,-0.0820732329101528,0.277329075045905,20.6733410000002,
-0.202645228515625,-0.146812445800781,-0.0294007963867156,0.251959103249576,20.676238,
-0.219404640136719,-0.139629840820313,-0.0485544096679646,0.264560804465124,20.6792330000003,
-0.228981446777344,-0.156389252441406,-0.098832644531246,0.294377296802024,20.682143,
-0.195462623535156,-0.120476227539063,0.0160890351562539,0.230171709064232,20.6851200000001,
-0.224193043457031,-0.149206647460938,0.00172382519531666,0.2693104453124,20.6880530000003,
-0.197856825195313,-0.1731486640625,0.00651222851562849,0.263002266650379,20.6910250000001,
-0.190674220214844,-0.146812445800781,-0.0916500395507782,0.257507829485251,20.6939590000002,
-0.252923463378906,-0.139629840820313,-0.00785298144530877,0.289012871845991,20.6968750000001,
-0.224193043457031,-0.1348414375,-0.0509486113281223,0.266534228567096,20.6998760000001,
-0.255317665039063,-0.125264630859375,-0.0844674345703087,0.29666999398022,20.7027870000002,
-0.202645228515625,-0.144418244140625,-0.0198239897460901,0.249629141828962,20.7057380000001,
-0.2313756484375,-0.101322614257813,-0.0701022246093714,0.262136004289937,20.7086630000003,
-0.264894471679688,-0.163571857421875,-0.125168862792965,0.335547430149282,20.711542,
-0.133213380371094,-0.161177655761719,-0.0581312163085901,0.217032900124043,20.7145170000003,
-0.221798841796875,-0.122870429199219,-0.0437660063476528,0.257307854341173,20.7174210000003,
-0.279259681640625,-0.0821690009765625,-0.038977603027341,0.293695366067064,20.720401,
-0.226587245117188,-0.139629840820313,-0.161081887695309,0.31110391614505,20.7233060000003,
-0.197856825195313,-0.158783454101563,-0.120380459472653,0.28080413742614,20.7262060000003,
-0.190674220214844,-0.139629840820313,-0.132351467773434,0.270869085950809,20.7291770000002,
-0.226587245117188,-0.106111017578125,-0.146716677734371,0.290046739727708,20.732086,
-0.252923463378906,-0.120476227539063,-0.0653138212890596,0.287664205248071,20.7350570000003,
-0.195462623535156,-0.120476227539063,-0.0557370146484342,0.236276899851022,20.737971,
-0.21222203515625,-0.180331269042969,-0.0629196196289037,0.285510835757164,20.740859,
-0.219404640136719,-0.132447235839844,-0.0509486113281223,0.261297583975441,20.7438380000003,
-0.240952455078125,-0.120476227539063,-0.0629196196289037,0.276643245976593,20.7467380000003,
-0.197856825195313,-0.125264630859375,-0.0653138212890596,0.2431140602106,20.749722,
-0.169126405273438,-0.146812445800781,-0.0437660063476528,0.228195307827188,20.7526230000003,
-0.209827833496094,-0.1348414375,-0.098832644531246,0.268286832702931,20.755521,
-0.209827833496094,-0.127658832519531,-0.038977603027341,0.248684038023495,20.7584890000003,
-0.217010438476563,-0.156389252441406,-0.0294007963867156,0.269101348036655,20.7614100000001,
-0.209827833496094,-0.137235639160156,-0.0270065947265596,0.252171958242953,20.7643860000003,
-0.188280018554688,-0.139629840820313,-0.0533428129882783,0.240398239452709,20.7673010000003,
-0.202645228515625,-0.137235639160156,-0.101226846191404,0.264850115510084,20.7701900000002,
-0.245740858398438,-0.15399505078125,-0.0724964262695273,0.298929384593375,20.7731630000003,
-0.207433631835938,-0.151600849121094,-0.0581312163085901,0.263421273591182,20.7760659999999,
-0.214616236816406,-0.168360260742188,0.0113006318359403,0.273007345656311,20.7790560000003,
-0.245740858398438,-0.122870429199219,-0.0820732329101528,0.28674331277002,20.7819640000002,
-0.257711866699219,-0.139629840820313,-0.0844674345703087,0.305035483490022,20.7849310000001,
-0.219404640136719,-0.125264630859375,-0.0677080229492155,0.261560700850778,20.7878340000002,
-0.219404640136719,-0.130053034179688,-0.0724964262695273,0.265156405984693,20.7907220000002,
-0.2313756484375,-0.163571857421875,-0.0820732329101528,0.295002472516147,20.7937670000001,
-0.183491615234375,-0.0989284125976563,-0.0246123930664037,0.209908964965452,20.7967630000003,
-0.238558253417969,-0.127658832519531,-0.022218191406246,0.271478297149968,20.7998130000001,
-0.185885816894531,-0.175542865722656,-0.0653138212890596,0.263883932591678,20.8027870000001,
-0.228981446777344,-0.122870429199219,-0.0246123930664037,0.261027613926766,20.8056670000001,
-0.188280018554688,-0.108505219238281,-0.0557370146484342,0.22434206647622,20.8086390000003,
-0.236164051757813,-0.101322614257813,-0.038977603027341,0.259921113110231,20.8115400000002,
-0.226587245117188,-0.168360260742188,-0.0557370146484342,0.287738721497288,20.8145330000002,
-0.2313756484375,-0.139629840820313,-0.0294007963867156,0.271837432973372,20.8174320000003,
-0.233769850097656,-0.118082025878906,-0.0701022246093714,0.271119954163338,20.8203470000003,
-0.238558253417969,-0.125264630859375,-0.0294007963867156,0.271045521723456,20.823339,
-0.214616236816406,-0.120476227539063,-0.0868616362304646,0.260997307181345,20.8262680000003,
-0.185885816894531,-0.149206647460938,-0.0557370146484342,0.244791289409978,20.8292670000001,
-0.219404640136719,-0.189908075683594,-0.0892558378906223,0.303595253455857,20.8321800000003,
-0.228981446777344,-0.151600849121094,-0.0437660063476528,0.278084130676501,20.8350960000003,
-0.2313756484375,-0.130053034179688,-0.0581312163085901,0.27171257000502,20.8380860000002,
-0.21222203515625,-0.110899420898438,-0.129957266113278,0.272444058069004,20.8409930000003,
-0.197856825195313,-0.120476227539063,-0.038977603027341,0.234906573377949,20.8439800000001,
-0.248135060058594,-0.120476227539063,-0.0317949980468715,0.277662477358981,20.8468849999999,
-0.243346656738281,-0.137235639160156,-0.0509486113281223,0.283984113988194,20.8497750000001,
-0.255317665039063,-0.125264630859375,-0.098832644531246,0.301075122602938,20.8527440000003,
-0.228981446777344,-0.142024042480469,-0.0557370146484342,0.275154404676101,20.8556450000001,
-0.228981446777344,-0.139629840820313,-0.0677080229492155,0.276610505562321,20.858624,
-0.226587245117188,-0.122870429199219,-0.0294007963867156,0.259428851228174,20.8615290000002,
-0.219404640136719,-0.101322614257813,-0.0413718046874969,0.245186244509477,20.8644360000003,
-0.2313756484375,-0.103716815917969,-0.0629196196289037,0.261248439475304,20.8674100000003,
-0.169126405273438,-0.130053034179688,-0.022218191406246,0.214502169428243,20.8703180000002,
-0.2313756484375,-0.149206647460938,-0.0270065947265596,0.276634543206612,20.8733010000001,
-0.25052926171875,-0.142024042480469,-0.0437660063476528,0.29129229809842,20.8762070000002,
-0.25052926171875,-0.156389252441406,-0.0198239897460901,0.295999155110242,20.8791820000001,
-0.214616236816406,-0.137235639160156,-0.115592056152341,0.279741439916324,20.8820820000001,
-0.264894471679688,-0.122870429199219,-0.0246123930664037,0.293039235240806,20.8849760000003,
-0.169126405273438,-0.144418244140625,-0.0198239897460901,0.223278661700641,20.8879470000002,
-0.224193043457031,-0.125264630859375,-0.098832644531246,0.275175653181566,20.890868,
-0.197856825195313,-0.177937067382813,-0.0868616362304646,0.279917607652319,20.89383,
-0.226587245117188,-0.113293622558594,-0.0940442412109341,0.270224987495949,20.8967440000001,
-0.236164051757813,-0.113293622558594,-0.0581312163085901,0.268306061363943,20.8996240000001,
-0.205039430175782,-0.11568782421875,-0.077284829589841,0.24778576529738,20.9025959999999,
-0.209827833496094,-0.139629840820313,-0.0653138212890596,0.260365334498565,20.9055020000001,
-0.236164051757813,-0.139629840820313,-0.106015249511715,0.294124437813664,20.9084780000003,
-0.217010438476563,-0.144418244140625,-0.038977603027341,0.263570508946294,20.9113780000002,
-0.2313756484375,-0.163571857421875,-0.0653138212890596,0.2907857260625,20.9142810000003,
-0.217010438476563,-0.108505219238281,-0.0653138212890596,0.25126242906793,20.9172590000003,
-0.2313756484375,-0.103716815917969,-0.0437660063476528,0.257307854341173,20.9201740000003,
-0.224193043457031,-0.120476227539063,-0.0341891997070274,0.2567994227275,20.9231450000002,
-0.214616236816406,-0.132447235839844,-0.0868616362304646,0.266734593248579,20.9260530000001,
-0.252923463378906,-0.110899420898438,-0.038977603027341,0.278905384352735,20.9289690000001,
-0.221798841796875,-0.0941400092773438,-0.0629196196289037,0.249030010447375,20.932041,
-0.181097413574219,-0.130053034179688,-0.0581312163085901,0.230411161214319,20.9350290000002,
-0.243346656738281,-0.137235639160156,-0.0485544096679646,0.283564360771237,20.9380940000001,
-0.228981446777344,-0.132447235839844,-0.0653138212890596,0.272471408594076,20.9410210000001,
-0.248135060058594,-0.142024042480469,-0.0509486113281223,0.290409362226909,20.9439120000002,
-0.257711866699219,-0.142024042480469,-0.0844674345703087,0.306138828610452,20.9468780000002,
-0.264894471679688,-0.0989284125976563,-0.0461602080078087,0.286507725461072,20.949795,
-0.159549598632813,-0.122870429199219,-0.0916500395507782,0.221253127763544,20.9527840000001,
-0.183491615234375,-0.142024042480469,-0.0270065947265596,0.233600851159705,20.955696,
-0.228981446777344,-0.1731486640625,-0.0653138212890596,0.294412734246081,20.9585649999999,
-0.195462623535156,-0.120476227539063,-0.0341891997070274,0.232140173123691,20.9615440000002,
-0.240952455078125,-0.1348414375,-0.0581312163085901,0.282169341326726,20.9644520000002,
-0.207433631835938,-0.120476227539063,-0.0485544096679646,0.244746325236756,20.967439,
-0.236164051757813,-0.132447235839844,-0.038977603027341,0.273559834701732,20.9703720000002,
-0.207433631835938,-0.151600849121094,-0.0341891997070274,0.259191879594039,20.9733660000002,
-0.166732203613281,-0.113293622558594,-0.0916500395507782,0.221438032830517,20.9762800000003,
-0.238558253417969,-0.146812445800781,-0.110803652832027,0.301233105744969,20.9791730000002,
-0.200251026855469,-0.137235639160156,-0.038977603027341,0.245872625459044,20.9821569999999,
-0.202645228515625,-0.113293622558594,-0.000670376464841027,0.232165852263428,20.9850660000002,
-0.21222203515625,-0.137235639160156,-0.0509486113281223,0.25781305990547,20.9880210000001,
-0.240952455078125,-0.146812445800781,-0.0820732329101528,0.293850294215452,20.9909339999999,
-0.243346656738281,-0.120476227539063,-0.038977603027341,0.274319832103878,20.993817,
-0.21222203515625,-0.151600849121094,-0.0677080229492155,0.269453866240195,20.996791,
-0.217010438476563,-0.1348414375,-0.120380459472653,0.282430874193498,20.9997000000003,
-0.214616236816406,-0.180331269042969,-0.0724964262695273,0.289543135856709,21.0026790000002,
-0.21222203515625,-0.137235639160156,-0.0844674345703087,0.266470561909654,21.0055710000001,
-0.188280018554688,-0.165966059082031,-0.0198239897460901,0.251767926320306,21.008468,
-0.221798841796875,-0.130053034179688,-0.0629196196289037,0.264702467793604,21.0114330000001,
-0.236164051757813,-0.139629840820313,-0.0557370146484342,0.279958151501421,21.014353,
-0.236164051757813,-0.106111017578125,-0.077284829589841,0.270196136683822,21.0173340000001,
-0.240952455078125,-0.11568782421875,-0.0557370146484342,0.273035479530709,21.0202480000003,
-0.238558253417969,-0.106111017578125,-0.0557370146484342,0.266976034743227,21.0231349999999,
-0.248135060058594,-0.120476227539063,-0.0916500395507782,0.290663480991309,21.026124,
-0.219404640136719,-0.118082025878906,-0.0246123930664037,0.250374780762051,21.0290290000003,
-0.224193043457031,-0.113293622558594,-0.0796790312499969,0.263527443861002,21.032005,
-0.2313756484375,-0.132447235839844,-0.0581312163085901,0.272866632773238,21.034909,
-0.21222203515625,-0.11568782421875,-0.09643844287109,0.260234967177222,21.0377990000002,
-0.214616236816406,-0.137235639160156,-0.060525417968746,0.261834061919422,21.040763,
-0.21222203515625,-0.199484882324219,-0.0413718046874969,0.294183678515428,21.0436760000002,
