X,Y,Z,Magnitude,Seconds,
-0.0637815322265627,0.339210491210937,-0.117986257812497,0.364763756743088,0.0,
-0.0709641372070314,0.353575701171875,-0.09643844287109,0.373298886272276,0.00385000000005675,
-0.0973003554687503,0.353575701171875,-0.0677080229492155,0.372917567305725,0.00767100000030041,
-0.0589931289062502,0.312874272949219,-0.127563064453122,0.342991013503741,0.0116610000000037,
-0.106877162109375,0.32484528125,-0.0701022246093714,0.349086674661363,0.0155810000001111,
-0.0685699355468752,0.334422087890625,-0.115592056152341,0.360418496161828,0.0195149999999558,
-0.104482960449219,0.334422087890625,-0.0270065947265596,0.351403156007573,0.0235080000002199,
-0.0326569106445315,0.332027886230469,-0.0629196196289037,0.339511221584448,0.027407999999923,
-0.0661757338867189,0.329633684570313,-0.0892558378906223,0.347856577279205,0.0312990000002173,
-0.0757525405273439,0.336816289550781,-0.0868616362304646,0.355989612421116,0.0351399999999558,
-0.0613873305664064,0.310480071289063,-0.0557370146484342,0.321361002337948,0.0389870000003611,
-0.0877235488281252,0.334422087890625,-0.132351467773434,0.37020327512045,0.042826000000332,
-0.0709641372070314,0.332027886230469,-0.077284829589841,0.34821167540584,0.0468700000001263,
-0.0494163222656252,0.341604692871094,-0.113197854492183,0.363248528365151,0.0507760000000417,
-0.0781467421875002,0.32484528125,-0.113197854492183,0.352767805116262,0.0546460000000479,
-0.0637815322265627,0.336816289550781,-0.0748906279296833,0.350887307994498,0.0586069999999381,
-0.0613873305664064,0.332027886230469,-0.0533428129882783,0.341842620640324,0.0626090000000659,
-0.0733583388671877,0.358364104492187,-0.0533428129882783,0.369664351767036,0.066635000000133,
-0.0757525405273439,0.339210491210937,-0.106015249511715,0.363375065012645,0.0706150000000889,
-0.0709641372070314,0.346393096191406,-0.0317949980468715,0.355014095155964,0.0745850000002974,
-0.0781467421875002,0.332027886230469,-0.0796790312499969,0.35028299783194,0.0784510000003138,
-0.0829351455078127,0.336816289550781,-0.14192827441406,0.374789389317935,0.082314000000224,
-0.0901177504882814,0.339210491210937,-0.0509486113281223,0.354655787062467,0.086301000000276,
-0.0637815322265627,0.375123516113281,-0.0581312163085901,0.384922036916406,0.0902160000000549,
-0.0542047255859377,0.360758306152344,-0.060525417968746,0.369794583456879,0.0942400000003545,
-0.0470221206054689,0.387094524414062,-0.0581312163085901,0.394249272627231,0.0981839999999465,
-0.0613873305664064,0.348787297851562,-0.10362104785156,0.368996348294287,0.10210700000016,
-0.0637815322265627,0.370335112792969,-0.0317949980468715,0.377130085675155,0.106003000000328,
-0.0158974990234377,0.353575701171875,-0.101226846191404,0.368124138469948,0.10985699999992,
-0.0613873305664064,0.320056877929688,-0.122774661132809,0.348250523158895,0.113679000000047,
-0.0589931289062502,0.336816289550781,-0.0677080229492155,0.348582527583636,0.117512000000261,
-0.0494163222656252,0.320056877929688,-0.0174297880859342,0.324318016041477,0.121516000000156,
-0.0494163222656252,0.351181499511719,-0.098832644531246,0.368155279916775,0.125291000000288,
-0.0565989272460939,0.348787297851562,-0.0198239897460901,0.35390536627389,0.12918000000036,
-0.0877235488281252,0.339210491210937,-0.106015249511715,0.366057934616363,0.133119000000079,
-0.0925119521484377,0.351181499511719,-0.0485544096679646,0.366393828534022,0.136971000000358,
-0.106877162109375,0.329633684570313,-0.0844674345703087,0.356673297692501,0.140917000000172,
-0.0805409438476564,0.34399889453125,-0.0629196196289037,0.358860643716805,0.144839000000047,
-0.0637815322265627,0.332027886230469,-0.0270065947265596,0.339175407785656,0.148732000000109,
-0.0853293471679689,0.315268474609375,-0.0796790312499969,0.33619050639715,0.152581000000282,
-0.0661757338867189,0.339210491210937,-0.060525417968746,0.350865089918195,0.156500999999935,
-0.0613873305664064,0.298509062988281,-0.077284829589841,0.314402623915485,0.160444999999982,
-0.0350511123046877,0.312874272949219,-0.0246123930664037,0.315792116810653,0.164330000000064,
-0.0661757338867189,0.358364104492187,-0.137139871093746,0.38937309022009,0.168269000000237,
-0.0542047255859377,0.322451079589844,-0.156293484374997,0.362409304878586,0.172265000000152,
-0.0877235488281252,0.303297466308594,-0.139534072753904,0.345187675833748,0.176112999999987,
-0.0709641372070314,0.351181499511719,-0.0868616362304646,0.36865878291107,0.17996200000016,
-0.0565989272460939,0.348787297851562,-0.113197854492183,0.371038774213204,0.183765000000221,
-0.0925119521484377,0.348787297851562,-0.0341891997070274,0.362463711024313,0.187544000000344,
-0.0996945571289065,0.32484528125,-0.09643844287109,0.353219244570452,0.19142600000032,
-0.0661757338867189,0.332027886230469,-0.0748906279296833,0.346742485342972,0.195348000000195,
0.00325611425781225,0.320056877929688,-0.00785298144530877,0.320169762325769,0.199227999999948,
-0.0853293471679689,0.284143853027344,-0.185023904296871,0.349646495567443,0.203146000000288,
-0.0996945571289065,0.32484528125,-0.09643844287109,0.353219244570452,0.207236000000194,
-0.0302627089843752,0.32484528125,-0.060525417968746,0.331818647043466,0.211127999999917,
-0.0589931289062502,0.322451079589844,-0.0294007963867156,0.329118967570966,0.215074000000186,
-0.0542047255859377,0.358364104492187,-0.0413718046874969,0.364793927975007,0.219062000000122,
-0.0254743056640627,0.32484528125,-0.038977603027341,0.328165584023088,0.22293800000034,
-0.0542047255859377,0.34399889453125,-0.132351467773434,0.372545705566916,0.226763000000119,
-0.0350511123046877,0.34399889453125,-0.0844674345703087,0.355947422262625,0.230692999999974,
-0.0853293471679689,0.34399889453125,-0.14192827441406,0.381785243304382,0.234570000000076,
-0.0446279189453127,0.351181499511719,-0.0413718046874969,0.356415099247758,0.238439000000199,
-0.0565989272460939,0.22907721484375,-0.204177517578122,0.312038887977673,0.242365999999947,
0.0056503159179685,0.3631525078125,0.0903092866210979,0.374255844644399,0.246442000000116,
-0.0565989272460939,0.339210491210937,-0.156293484374997,0.377749717631994,0.250355000000127,
-0.11645396875,0.367940911132812,-0.120380459472653,0.404269088535986,0.254257999999936,
-0.0230801040039065,0.346393096191406,-0.0820732329101528,0.356730828286853,0.258144000000357,
-0.0637815322265627,0.391882927734375,-0.00306457812499694,0.397051261856599,0.262038000000302,
-0.0661757338867189,0.360758306152344,-0.0748906279296833,0.374345280944019,0.265977000000021,
-0.114059767089844,0.399065532714844,-0.0748906279296833,0.421748190299939,0.269929999999931,
-0.0733583388671877,0.320056877929688,-0.10362104785156,0.344318417383252,0.273834999999963,
-0.0709641372070314,0.308085869628906,-0.168264492675778,0.35814208260127,0.27777100000003,
-0.00392649072265649,0.348787297851562,-0.0940442412109341,0.361264883121692,0.281644000000142,
-0.0613873305664064,0.339210491210937,0.00890643017578441,0.344835448003988,0.285617000000002,
0.0104387192382811,0.274567046386719,-0.0916500395507782,0.289647647272546,0.289418000000296,
-0.0757525405273439,0.415824944335938,-0.0102471831054647,0.422792900235954,0.293272000000343,
0.122966197265625,0.205135198242187,-0.0868616362304646,0.254452508489234,0.297187000000122,
0.242676280273437,0.104578728515625,0.111857101562503,0.286950341758397,0.301089999999931,
-0.111665565429688,0.241048223144531,-0.206571719238278,0.336519419310276,0.305061000000023,
0.257041490234375,-0.163571857421875,-0.726113479492184,0.787443245791465,0.308954000000085,
-1.38298664697266,2.63046147998047,0.909126254394534,3.1078111605751,0.312710000000152,
0.314502330078125,2.65440349658203,2.65928766796875,3.77048810358847,0.315758000000187,
-0.377421949707032,-0.424539838378906,-2.53134153125,2.59429592574219,0.318707000000359,
-0.525862452636719,0.698340740234375,1.15812322705079,1.45102050902071,0.321746999999959,
0.3815399765625,-0.297647150390625,2.38634867871094,2.4349181908714,0.324739000000136,
-0.224193043457031,-2.90972116162109,-2.11475044238281,3.60401292903874,0.327764999999999,
2.73982861181641,-2.65114738232422,-0.273609365722653,3.82231675164991,0.330699000000095,
1.82284937597656,-1.34151907421875,-1.68618834521484,2.82235440891629,0.333654000000024,
-0.226587245117188,-0.0271023627929688,-2.10277943408203,2.11512592204745,0.336720000000241,
-0.928088331542969,0.808474016601562,-1.01820608203125,1.59741097158856,0.339676000000054,
-0.928088331542969,0.858752251464844,0.0424252534179725,1.26514951000652,0.342720999999983,
0.501250059570312,1.11493182910156,2.49887615673829,2.78185309685434,0.345724000000246,
-0.437276991210938,1.42617804492188,1.17248843701172,1.89734659927644,0.348672999999962,
-0.961607154785156,2.59454845507813,1.26825650341797,3.04382071816726,0.351705999999922,
-1.06695202783203,1.87149955371094,-0.455568691894529,2.20191735591271,0.35465000000022,
-0.317566908203125,0.906636284667969,-0.912861208984372,1.32519948714548,0.357746000000134,
-0.296019093261719,0.885088469726563,-0.936803225585935,1.32234987287276,0.360777000000326,
-0.750917408691407,1.16042166064453,-0.879342385742184,1.63819974866668,0.363739000000351,
-0.861050685058594,1.22506510546875,-0.077284829589841,1.49938845525826,0.366795000000366,
0.0655053574218748,0.413430742675781,0.775050961425785,0.880863169650911,0.36978100000033,
0.826861485351562,-0.42214563671875,0.87321322949219,1.27452273370021,0.372796999999991,
0.491673252929687,-0.513125299804688,0.423103317382816,0.827077129490627,0.375824000000193,
0.0511401474609373,-0.285676142089844,-0.113197854492183,0.311512322554496,0.378846999999951,
0.127754600585937,-0.503548493164063,-0.77399751269531,0.93217727530615,0.381888000000345,
0.448577623046875,-0.865072943847656,-1.06609011523437,1.44434110094398,0.384866000000329,
0.525192076171875,-0.76691067578125,-0.678229446289059,1.15064064038888,0.388006000000132,
0.108600987304687,-0.331165973632813,-0.13474566943359,0.373659566941391,0.391011000000162,
-0.0685699355468752,0.00641646044921873,0.368036679199221,0.374424898025745,0.394054000000324,
0.137331407226562,0.0447236870117187,0.377613485839847,0.404292058144691,0.397093000000041,
0.146908213867187,0.303297466308594,0.16452953808594,0.375021793064927,0.400169000000005,
-0.305595899902344,0.849175444824219,-0.09643844287109,0.907627766979908,0.403182000000015,
-0.635995729003907,1.12450863574219,-0.32628180224609,1.33246765576014,0.40615600000001,
-0.552198670898438,1.13647964404297,-0.280791970703122,1.29435446624075,0.409202000000278,
-0.418123377929688,1.07901880419922,-0.108409451171871,1.16226560995765,0.412193000000116,
-0.42291178125,1.12690283740234,0.0543962617187539,1.20487482045002,0.415162000000237,
-0.437276991210938,1.23224771044922,0.114251303222659,1.31251626551365,0.41818400000011,
-0.245740858398438,0.964097124511719,0.111857101562503,1.00119121357917,0.421129000000292,
0.0367749374999998,0.588207463867187,0.109462899902347,0.599435186681787,0.42419400000017,
0.0631111557617186,0.281749651367187,-0.158687686035153,0.329465727696073,0.427145999999993,
0.0248039291992186,0.128520745117187,-0.161081887695309,0.207557682037261,0.430103000000145,
0.13254300390625,-0.03907337109375,-0.120380459472653,0.183264375250535,0.433234999999968,
0.288166111816406,-0.319194965332031,-0.240090542480466,0.492512540430461,0.436181000000033,
0.336050145019531,-0.419751435058594,-0.276003567382809,0.604399649577524,0.439303999999993,
0.235493675292969,-0.312012360351563,-0.108409451171871,0.40566191985264,0.442246000000068,
0.223522666992187,-0.235397907226563,-0.0365834013671833,0.326669408793566,0.445198000000346,
0.0846589707031248,-0.15399505078125,-0.13474566943359,0.221445280863555,0.448241000000053,
0.120571995605469,0.00641646044921873,-0.0916500395507782,0.151586631464126,0.451215999999931,
-0.161943800292969,0.281749651367187,-0.220936929199215,0.392965376570048,0.454302000000098,
-0.293624891601563,0.581024858886719,-0.0317949980468715,0.651779399423733,0.457244000000173,
-0.348691529785156,0.691158135253906,-0.0317949980468715,0.774787888891128,0.460160000000087,
-0.355874134765625,0.772560991699219,-0.0150355864257783,0.850719080866081,0.463207000000239,
-0.372633546386719,0.865934856445313,-0.0126413847656224,0.942793052641193,0.466183000000001,
-0.358268336425781,0.954520317871094,0.0208774384765658,1.01975541457321,0.46921199999997,
-0.310384303222656,0.870723259765625,-0.0317949980468715,0.924936934436446,0.472196000000167,
-0.197856825195313,0.743830571777344,-0.0461602080078087,0.771078470449216,0.475233000000117,
-0.0350511123046877,0.564265447265625,-0.10362104785156,0.574770734301536,0.478207000000111,
-0.331932118164063,0.619332085449219,-0.228119534179685,0.738775801586731,0.481129000000237,
0.2283110703125,0.159645366699219,-0.00545877978515286,0.2786438339754,0.484159999999974,
0.146908213867187,0.00162805712890618,-0.283186172363278,0.319028340574041,0.487145000000055,
0.194792247070312,0.121338140136719,0.0591846650390657,0.237001663172067,0.490183000000343,
0.156485020507812,-0.0558327827148438,-0.156293484374997,0.228106366695651,0.493106000000353,
0.218734263671875,-0.0917458076171875,-0.182629702636715,0.29935861371369,0.496063000000049,
0.192398045410156,-0.110899420898438,-0.13474566943359,0.259753892876245,0.499114000000191,
0.166061827148437,-0.103716815917969,-0.213754324218746,0.289870004419657,0.502083000000312,
-0.0422337172851565,0.2099236015625,-0.038977603027341,0.217648475543595,0.505132000000231,
-0.13560758203125,0.339210491210937,-0.0365834013671833,0.367139644968396,0.508095000000139,
-0.0542047255859377,0.327239482910156,0.00172382519531666,0.331702883654118,0.511029000000235,
-0.2313756484375,0.480468389160156,-0.139534072753904,0.551229826053816,0.514079999999922,
-0.233769850097656,0.674398723632813,0.0232716401367217,0.714145328688006,0.517072999999982,
-0.353479933105469,0.621726287109375,-0.180235500976559,0.737547608635081,0.520138000000316,
-0.272077076660156,0.707917546875,-0.0294007963867156,0.758971406342576,0.523157000000083,
-0.315172706542969,0.679187126953125,-0.122774661132809,0.758750687501986,0.526197000000138,
-0.224193043457031,0.640879900390625,-0.00785298144530877,0.679007538085406,0.52925200000027,
-0.161943800292969,0.494833599121094,-0.077284829589841,0.526363971180774,0.532239000000118,
0.0128329208984373,0.418219145996094,0.0232716401367217,0.419062653037873,0.535321000000295,
-0.114059767089844,0.291326458007813,-0.194600710937497,0.368442902362559,0.538338000000294,
0.182821238769531,0.130914946777344,-0.0174297880859342,0.225535199354028,0.541363000000274,
0.0271981308593748,0.102184526855469,-0.220936929199215,0.244937834021,0.544417000000067,
0.142119810546875,0.126126543457031,0.0448194550781285,0.195229938963773,0.547379999999976,
0.187609642089844,0.00881066210937498,-0.132351467773434,0.229764915932932,0.550482999999986,
0.0535343491210936,0.0973961235351562,-0.10362104785156,0.151951482300601,0.553532000000359,
0.0248039291992186,0.11415553515625,-0.146716677734371,0.187543340686736,0.556483000000298,
0.0607169541015623,0.241048223144531,-0.060525417968746,0.255840029348025,0.559524000000238,
0.0487459458007811,0.303297466308594,-0.0150355864257783,0.307557456681499,0.562475000000177,
-0.0757525405273439,0.444555364257813,-0.0246123930664037,0.45163446411805,0.565532999999959,
-0.147578590332031,0.461314775878906,0.00890643017578441,0.484427587227515,0.568490999999995,
-0.166732203613281,0.542717632324219,-0.0437660063476528,0.569436141695423,0.571570999999949,
-0.226587245117188,0.57384225390625,-0.0509486113281223,0.619057729952761,0.574599000000035,
-0.281653883300782,0.53553502734375,-0.0940442412109341,0.612348752587463,0.577572000000146,
-0.0925119521484377,0.504410405761719,-0.00306457812499694,0.512833023868492,0.580639000000247,
-0.200251026855469,0.523564019042969,-0.0796790312499969,0.566187693096586,0.583599000000049,
-0.0805409438476564,0.511593010742188,0.0855208833007843,0.524907681175151,0.586641000000327,
-0.094906153808594,0.2865380546875,-0.180235500976559,0.351562328225179,0.589613999999983,
-0.0494163222656252,0.260201836425781,-0.0677080229492155,0.2733703439609,0.592577000000347,
-0.0158974990234377,0.181193181640625,-0.125168862792965,0.220796158845974,0.595663000000059,
0.0822647690429685,0.118943938476562,-0.0844674345703087,0.167481044386816,0.598647000000256,
0.0655053574218748,0.109367131835937,-0.0677080229492155,0.144348528737491,0.601693000000068,
0.0200155258789061,0.142885955078125,-0.117986257812497,0.186380724506034,0.604687000000013,
0.0319865341796873,0.162039568359375,-0.137139871093746,0.214679538676908,0.607664000000113,
0.0535343491210936,0.2099236015625,-0.115592056152341,0.24555115245976,0.610701000000063,
-0.0398395156250002,0.231471416503906,-0.163476089355465,0.28616539877231,0.613716000000295,
-0.0111090957031252,0.413430742675781,-0.0317949980468715,0.414800328950677,0.616769000000204,
-0.130819178710938,0.434978557617188,-0.0677080229492155,0.459243268297995,0.619721000000027,
-0.159549598632813,0.451737969238281,-0.077284829589841,0.485279519617456,0.622646000000259,
-0.152366993652344,0.521169817382813,-0.106015249511715,0.553238567378052,0.625714000000244,
-0.185885816894531,0.509198809082031,-0.127563064453122,0.556874581486512,0.62867899999992,
-0.0757525405273439,0.4780741875,-0.022218191406246,0.484548268162726,0.631699000000026,
-0.449247999511719,0.621726287109375,-0.558519363281247,0.948847311377432,0.634635000000344,
-0.346297328125,1.14126804736328,0.226778781250003,1.21401944425291,0.637637000000268,
-0.434882789550782,1.46209106982422,0.466198947265628,1.59504695715793,0.640757000000121,
0.0391691391601561,0.387094524414062,-0.165870291015622,0.422953124749663,0.643742000000202,
-0.00392649072265649,0.176404778320312,0.145375924804691,0.228622445653205,0.646807999999965,
-0.0302627089843752,-0.209061688964844,0.308181637695316,0.373628884269503,0.649768000000222,
0.867562913574219,-1.40616251904297,-0.304733987304685,1.68012536496217,0.652696000000105,
0.74545862890625,-0.936898993652344,-0.912861208984372,1.50559087357289,0.655787000000146,
0.781371653808594,-0.283281940429688,-0.534577346679685,0.988212152694085,0.658767000000353,
-0.588111695800781,0.513987212402344,-0.675835244628903,1.03286567332515,0.661856000000171,
-0.753311610351563,0.791714604980469,0.142981723144535,1.10214979525617,0.664831000000049,
0.096629979003906,0.219500408203125,0.370430880859379,0.441289949509265,0.667951000000357,
0.644902159179687,0.0519062919921874,0.597880038574223,0.88093904362817,0.670972000000347,
-0.245740858398438,0.758195781738281,0.169317941406254,0.814811621305303,0.673963000000185,
-0.856262281738281,1.19154628222656,-0.201783315917965,1.48110909267293,0.677052000000003,
-0.679091358886719,1.00240435107422,-0.481904910156247,1.30315459528018,0.680121000000327,
-0.145184388671875,0.676792925292969,-0.383742642089841,0.791445251295838,0.683138000000326,
-0.205039430175782,0.751013176757812,-0.0174297880859342,0.77869490630374,0.686136000000261,
-0.439671192871094,0.7462247734375,-0.163476089355465,0.881411709772167,0.689103000000159,
-0.233769850097656,0.683975530273438,0.418314914062503,0.835139650690009,0.692191999999977,
0.0319865341796873,0.367940911132812,0.312970041015628,0.4841011247946,0.695212000000083,
0.182821238769531,0.03754108203125,-0.120380459472653,0.222090957060728,0.698249000000033,
0.00804451757812485,0.07584830859375,-0.347829617187497,0.356094261077594,0.701219000000037,
-0.0518105239257815,0.183587383300781,-0.362194827148434,0.409357729265951,0.704204000000118,
0.204369053710937,-0.139629840820313,-0.232907937499997,0.339866606057012,0.70721500000036,
0.336050145019531,-0.300041352050781,-0.153899282714841,0.476066699243133,0.710188000000016,
0.230705271972656,-0.0845632026367188,0.147770126464847,0.286726120246469,0.713334999999915,
0.00325611425781225,0.0878193168945312,0.0879150849609402,0.124305659016681,0.716316000000006,
0.0295923325195311,0.166827971679687,-0.0485544096679646,0.17625211765227,0.719330000000355,
0.0990241806640623,0.202740996582031,-0.240090542480466,0.32947407885876,0.72238600000037,
-0.111665565429688,0.418219145996094,-0.242484744140622,0.496160562440604,0.725362000000132,
-0.298413294921875,0.691158135253906,0.00651222851562849,0.7528562091356,0.728418000000147,
-0.281653883300782,0.748618975097656,0.0663672700195352,0.802598214790266,0.731395000000248,
-0.219404640136719,0.643274102050781,-0.0461602080078087,0.681227371210293,0.734377000000222,
-0.2313756484375,0.710311748535156,0.0496078583984403,0.748691131516745,0.737453000000187,
-0.269682875,0.767772588378906,-0.09643844287109,0.819453460422074,0.740384000000176,
-0.248135060058594,0.705523345214844,-0.10362104785156,0.755030807471643,0.743408000000272,
-0.0877235488281252,0.461314775878906,-0.106015249511715,0.481400017233316,0.74641100000008,
-0.018291700683594,0.341604692871094,-0.0509486113281223,0.345867190553999,0.749361000000135,
-0.027868507324219,0.217106206542969,-0.0748906279296833,0.231344688228756,0.752512000000024,
-0.0230801040039065,0.212317803222656,-0.0820732329101528,0.228795883543498,0.755500000000211,
0.0607169541015623,0.0710599052734375,-0.144322476074215,0.171944862537482,0.758610000000317,
0.146908213867187,-0.0510443793945313,-0.106015249511715,0.18822004435886,0.761592000000292,
0.101418382324219,0.0255700737304687,-0.0317949980468715,0.109318062755628,0.764730000000327,
0.0056503159179685,0.102184526855469,-0.0916500395507782,0.137380250939893,0.767796999999973,
0.0224097275390623,0.116549736816406,-0.192206509277341,0.225896833198097,0.770799000000352,
-0.0135032973632815,0.202740996582031,-0.125168862792965,0.238649313738046,0.773817000000236,
-0.106877162109375,0.351181499511719,-0.0365834013671833,0.368903129067029,0.776910000000044,
-0.145184388671875,0.432584355957031,-0.106015249511715,0.468451667583559,0.78001200000017,
-0.118848170410156,0.561871245605469,0.0113006318359403,0.57441438746603,0.783073999999942,
-0.193068421875,0.595390068847656,-0.077284829589841,0.6306644864684,0.786105000000134,
-0.159549598632813,0.65045670703125,-0.0701022246093714,0.673397597293762,0.789342000000033,
-0.281653883300782,0.619332085449219,-0.0748906279296833,0.684477719284559,0.792351000000053,
-0.171520606933594,0.554688640625,-0.0461602080078087,0.582434177778573,0.795427000000018,
-0.11645396875,0.53553502734375,-0.060525417968746,0.551382461246265,0.798424999999952,
-0.094906153808594,0.454132170898438,-0.0341891997070274,0.465201147948148,0.80138100000022,
-0.0518105239257815,0.327239482910156,-0.0724964262695273,0.339154450636614,0.804398000000219,
0.0176213242187498,0.279355449707031,-0.0509486113281223,0.284509647190572,0.807346000000052,
0.096629979003906,0.169222173339844,-0.139534072753904,0.239673223893382,0.810445999999956,
0.0942357773437498,0.121338140136719,-0.106015249511715,0.186661616601941,0.813398000000234,
0.110995188964844,0.07584830859375,-0.165870291015622,0.213508433864991,0.816397999999936,
0.0750821640624998,0.150068560058594,-0.0509486113281223,0.175367229192435,0.819546000000173,
0.0367749374999998,0.200346794921875,-0.0461602080078087,0.208858801746349,0.822528000000148,
0.0104387192382811,0.19076998828125,-0.077284829589841,0.206094881481551,0.825628999999935,
-0.17391480859375,0.176404778320312,-0.419655666992185,0.487314975453346,0.828582999999981,
-0.178703211914063,0.743830571777344,0.257903402832035,0.807299772483156,0.831566000000294,
-0.386998756347657,1.00240435107422,0.212413571289066,1.09530910967404,0.834631000000172,
-0.0853293471679689,0.411036541015625,-0.199389114257809,0.464745257558068,0.837590999999975,
-0.0589931289062502,0.260201836425781,-0.187418105957027,0.326053264633277,0.840680000000248,
0.0822647690429685,0.171616375,0.0591846650390657,0.199305034983113,0.843669000000318,
0.19000384375,0.111761333496094,0.0280600434570353,0.222214811260209,0.846614000000045,
-0.126030775390625,0.183587383300781,-0.539365749999996,0.583526773958015,0.849660000000313,
0.0655053574218748,0.250625029785156,-0.098832644531246,0.277257549997863,0.852657000000363,
-0.185885816894531,0.351181499511719,-0.228119534179685,0.458170824470746,0.855677000000014,
0.0128329208984373,0.396671331054688,0.174106344726566,0.433388795440686,0.858696000000236,
-0.0494163222656252,0.317662676269531,0.052002060058598,0.325662038087523,0.861745000000155,
0.0439575424804686,0.2865380546875,-0.0365834013671833,0.292189437832053,0.864716000000044,
-0.138001783691406,0.451737969238281,-0.0485544096679646,0.474835988370448,0.86765000000014,
-0.178703211914063,0.418219145996094,-0.228119534179685,0.508803118996396,0.870710000000145,
0.0200155258789061,0.3631525078125,-0.0485544096679646,0.366930369286765,0.873696000000109,
-0.106877162109375,0.341604692871094,-0.177841299316404,0.399679899062556,0.876709000000119,
-0.0925119521484377,0.456526372558594,-0.060525417968746,0.469721317753532,0.879656999999952,
-0.185885816894531,0.463708977539063,-0.0341891997070274,0.500747894802841,0.882621000000199,
-0.166732203613281,0.561871245605469,0.0903092866210979,0.593004798977203,0.885749999999916,
0.0128329208984373,0.269778643066406,-0.0102471831054647,0.270278014043196,0.888734999999997,
0.0128329208984373,0.207529399902344,-0.189812307617185,0.281534807449405,0.891802999999982,
-0.0781467421875002,0.320056877929688,-0.220936929199215,0.396681793265834,0.894766000000345,
-0.169126405273438,0.403853936035156,-0.0748906279296833,0.444196295305922,0.897683000000143,
-0.00632069238281274,0.236259819824219,-0.077284829589841,0.248659603675992,0.900766000000203,
0.0702937607421873,0.195558391601563,0.013694833496098,0.208259083330249,0.903761000000031,
-0.037445313964844,0.238654021484375,-0.122774661132809,0.270982491915744,0.906820000000153,
-0.0781467421875002,0.329633684570313,-0.0629196196289037,0.344563721033085,0.909797000000253,
-0.0589931289062502,0.341604692871094,-0.165870291015622,0.384300545005222,0.912791000000198,
-0.0158974990234377,0.300903264648438,-0.129957266113278,0.328153007249553,0.915854000000309,
-0.0565989272460939,0.348787297851562,-0.0940442412109341,0.365650566816111,0.918833000000177,
-0.128424977050781,0.411036541015625,-0.10362104785156,0.442923621337177,0.921875,
-0.13560758203125,0.4397669609375,-0.038977603027341,0.461848080838628,0.924893000000338,
-0.0589931289062502,0.403853936035156,-0.0748906279296833,0.414953969809833,0.927846000000045,
-0.104482960449219,0.430190154296875,-0.0150355864257783,0.442951833428161,0.93089400000008,
-0.0805409438476564,0.423007549316406,-0.0509486113281223,0.433610414324665,0.933858000000328,
-0.130819178710938,0.456526372558594,-0.120380459472653,0.48991983158774,0.936914000000343,
-0.094906153808594,0.403853936035156,-0.101226846191404,0.427026994546816,0.939900000000307,
-0.0470221206054689,0.312874272949219,-0.216148525878904,0.38317303628956,0.942817999999988,
-0.027868507324219,0.236259819824219,-0.309522390624997,0.390383742568854,0.945818000000145,
-0.1547611953125,0.533140825683594,-0.0701022246093714,0.559557404991053,0.948746000000028,
-0.219404640136719,0.691158135253906,0.250720797851566,0.767267151985868,0.951778999999988,
-0.0111090957031252,0.195558391601563,-0.189812307617185,0.272754850838793,0.954733000000033,
0.0655053574218748,0.123732341796875,-0.0485544096679646,0.148182910471184,0.957863000000089,
0.134937205566406,0.106972930175781,0.0759440766601589,0.188198724799684,0.960857000000033,
0.106206785644531,0.135703350097656,-0.120380459472653,0.210206411813525,0.963885000000118,
-0.0422337172851565,0.145280156738281,-0.311916592285153,0.346672715050383,0.966929000000164,
0.0655053574218748,0.150068560058594,-0.113197854492183,0.199060992740066,0.969920000000002,
-0.0637815322265627,0.300903264648438,-0.0629196196289037,0.313958177252165,0.972937000000002,
-0.0853293471679689,0.406248137695313,0.0591846650390657,0.419310709909499,0.975906000000123,
-0.181097413574219,0.38230612109375,-0.0724964262695273,0.429196895667797,0.978881000000001,
-0.121242372070313,0.504410405761719,-0.0437660063476528,0.520619855112692,0.981948999999986,
-0.111665565429688,0.513987212402344,-0.0581312163085901,0.529179828910154,0.984868000000006,
-0.2313756484375,0.518775615722656,-0.247273147460934,0.619521460171907,0.987887000000228,
-0.195462623535156,0.600178472167969,0.0879150849609402,0.637298123186326,0.990873000000192,
-0.171520606933594,0.492439397460938,-0.09643844287109,0.530298267051628,0.993787000000339,
-0.037445313964844,0.396671331054688,-0.0653138212890596,0.403752636734427,0.996828000000278,
-0.0685699355468752,0.403853936035156,-0.0868616362304646,0.418741903277692,0.999825000000328,
-0.0613873305664064,0.406248137695313,-0.0150355864257783,0.411135041797882,1.00285100000019,
-0.0254743056640627,0.288932256347656,-0.09643844287109,0.305665114579035,1.00579599999992,
0.0463517441406248,0.2099236015625,-0.151505081054685,0.263002266650377,1.00872200000003,
0.00325611425781225,0.162039568359375,-0.218542727539059,0.272081509394453,1.01178800000025,
0.000861912597656,0.236259819824219,-0.060525417968746,0.243890900972114,1.01477100000011,
0.0750821640624998,0.15246276171875,-0.151505081054685,0.227675239445582,1.01781100000017,
-0.111665565429688,0.358364104492187,-0.0365834013671833,0.37713707739602,1.02076100000022,
-0.121242372070313,0.513987212402344,0.150164328125003,0.549028134743204,1.0237430000002,
-0.128424977050781,0.236259819824219,-0.242484744140622,0.362091878305506,1.0268430000001,
-0.0542047255859377,0.308085869628906,-0.0701022246093714,0.320576632392364,1.0298200000002,
