X,Y,Z,Magnitude,Seconds,
0.0572214196777342,0.656490095214844,-0.0548751020507812,0.661260019062255,0.0,
0.13623007446289,0.558327827148438,0.0313161577148442,0.575559986005352,0.00381000000015774,
0.148201082763672,0.642124885253906,-0.0117794721679676,0.659110525753627,0.00764600000002247,
0.109893856201172,0.58226984375,-0.0500866987304676,0.594662516021592,0.0114399999997659,
0.145806881103515,0.553539423828125,-0.0117794721679676,0.572541960273361,0.01524100000006,
0.126653267822265,0.596635053710938,0.0073741411132815,0.609974438418423,0.0189829999999347,
0.121864864501953,0.56311623046875,-0.00699106884765577,0.57619424611935,0.022689999999784,
0.160172091064453,0.553539423828125,0.0648349809570323,0.57988323587049,0.0264729999998963,
0.0811634362792967,0.572693037109375,0.0073741411132815,0.578462787134472,0.0302990000000136,
0.0931344445800779,0.591846650390625,0.0121625444335951,0.599253210114841,0.0340360000000146,
0.0955286462402342,0.6205770703125,0.0073741411132815,0.627929932721236,0.0377419999999802,
0.160172091064453,0.551145222167969,-0.0261446821289049,0.574543035009703,0.0414459999997234,
0.145806881103515,0.531991608886719,-0.00938527050781168,0.551690857097994,0.045158999999785,
0.102711251220703,0.622971271972656,0.014556746093751,0.631549448331158,0.0489710000001651,
0.107499654541016,0.627759675292969,0.0384987626953137,0.638059981803781,0.0529419999998026,
0.152989486083984,0.60142345703125,-0.0524809003906235,0.622792262657037,0.0568339999999807,
0.160172091064453,0.515232197265625,-0.0907881269531234,0.547139652968764,0.0606229999998504,
0.129047469482422,0.560722028808594,0.00976834277343741,0.575463173010733,0.0644569999999476,
0.133835872802734,0.649307490234375,-0.0285388837890626,0.663571191064876,0.0682830000000649,
0.126653267822265,0.594240852050781,-0.0333272871093744,0.608501395694511,0.0721309999998994,
0.124259066162109,0.534385810546875,-0.0189620771484371,0.548970008659037,0.0759299999999712,
0.117076461181641,0.553539423828125,0.0193451494140628,0.566115735782571,0.0797819999997955,
0.0931344445800779,0.615788666992188,-0.0165678754882812,0.623012200250886,0.0835670000001301,
0.148201082763672,0.60142345703125,0.0744117875976578,0.623867654020645,0.0873499999997875,
0.145806881103515,0.52480900390625,-0.0285388837890626,0.545434326978171,0.0910930000000008,
0.112288057861328,0.517626398925781,0.0169509477539069,0.529936818340542,0.09480399999984,
0.131441671142578,0.618182868652344,0.0432871660156255,0.633483031145791,0.0985350000000835,
0.119470662841797,0.60142345703125,-0.0692403120117184,0.617071823011518,0.102241999999933,
0.114682259521484,0.575087238769531,-0.0189620771484371,0.586717064021748,0.106088,
0.0931344445800779,0.591846650390625,-0.00459686718749985,0.599147405513687,0.109817999999905,
0.141018477783203,0.579875642089844,-0.00459686718749985,0.596794020205749,0.11353999999983,
0.121864864501953,0.577481440429688,-0.0141736738281235,0.590370013017779,0.117272999999841,
0.131441671142578,0.555933625488281,-0.0189620771484371,0.571575602375645,0.121176999999989,
0.114682259521484,0.572693037109375,-0.0285388837890626,0.584759611541733,0.125098999999864,
0.152989486083984,0.560722028808594,0.0241335527343765,0.581719352274832,0.128934999999728,
0.112288057861328,0.551145222167969,-0.141066361816405,0.579887387596045,0.132739000000129,
0.129047469482422,0.627759675292969,-0.0476924970703116,0.642658566877119,0.136507000000165,
0.138624276123047,0.56311623046875,0.0241335527343765,0.580430019309439,0.140313999999762,
0.124259066162109,0.579875642089844,-0.00938527050781168,0.593113951205915,0.144111000000066,
0.126653267822265,0.591846650390625,0.0289219560546883,0.605937280063449,0.147883999999976,
0.119470662841797,0.558327827148438,0.014556746093751,0.571152432109846,0.151699000000008,
0.0548272180175779,0.565510432128906,-0.0357214887695303,0.569283846110252,0.155504999999721,
0.133835872802734,0.6205770703125,0.052863972656251,0.637042024242919,0.159286999999949,
0.112288057861328,0.560722028808594,-0.0859997236328116,0.578285183965848,0.163021999999728,
0.0955286462402342,0.589452448730469,0.00976834277343741,0.5972230170442,0.166792999999871,
0.126653267822265,0.505655390625,-0.0548751020507812,0.524156180105952,0.170485000000099,
0.15538368774414,0.572693037109375,-0.0429040937499998,0.594947196338496,0.174236999999721,
0.141018477783203,0.625365473632813,0.0169509477539069,0.641292071772324,0.178106999999727,
0.102711251220703,0.632548078613281,-0.0716345136718743,0.644824143804869,0.181814000000031,
0.124259066162109,0.536780012207031,-0.0237504804687489,0.551486339224243,0.185551000000032,
0.100317049560547,0.534385810546875,0.0600465776367187,0.547025864500259,0.189327999999932,
0.129047469482422,0.599029255371094,-0.0189620771484371,0.613065134011099,0.193302000000131,
0.124259066162109,0.608606062011719,0.0337103593750001,0.62207559232788,0.197170999999798,
0.0979228479003904,0.572693037109375,-0.0189620771484371,0.58131382166973,0.201015999999981,
0.13623007446289,0.575087238769531,-0.0476924970703116,0.592923721620691,0.204858000000058,
0.172143099365234,0.589452448730469,0.0193451494140628,0.614379093702957,0.208713999999873,
0.0883460412597654,0.594240852050781,0.0169509477539069,0.601011271010841,0.212553999999727,
0.0811634362792967,0.572693037109375,0.00258573779296967,0.578421562687766,0.216348999999809,
0.145806881103515,0.589452448730469,0.0839885942382814,0.612999118966417,0.220140999999785,
0.148201082763672,0.56311623046875,-0.021356278808593,0.582683053292448,0.223928999999771,
0.176931502685547,0.541568415527344,0.014556746093751,0.569923682782354,0.227851999999984,
0.0907402429199217,0.608606062011719,-0.0309330854492185,0.61611036850388,0.231592999999975,
0.0620098229980467,0.575087238769531,-0.0117794721679676,0.578540669537042,0.235349000000042,
0.150595284423828,0.589452448730469,0.00497993945312558,0.608406055855788,0.23911599999974,
0.0955286462402342,0.546356818847656,-0.0429040937499998,0.556302307216437,0.242839999999887,
0.119470662841797,0.589452448730469,0.0313161577148442,0.602252546966989,0.24658700000009,
0.045250411376953,0.630153876953125,-0.0237504804687489,0.632222740568017,0.250373999999738,
0.0931344445800779,0.603817658691406,-0.0261446821289049,0.611517239428647,0.254117999999835,
0.129047469482422,0.548751020507813,0.0121625444335951,0.563851806217983,0.257856000000174,
0.164960494384765,0.572693037109375,-0.00220266552734216,0.595981653406086,0.261688999999933,
0.0739808312988279,0.644519086914063,-0.00220266552734216,0.648754860121778,0.265652999999929,
0.0979228479003904,0.567904633789063,-0.0141736738281235,0.576459409021831,0.269429999999829,
0.152989486083984,0.615788666992188,-0.0141736738281235,0.634667123993391,0.273271000000022,
0.129047469482422,0.577481440429688,0.0408929643554696,0.593135986055762,0.277102000000014,
0.117076461181641,0.634942280273438,0.0169509477539069,0.645868354753044,0.280883999999787,
0.102711251220703,0.594240852050781,0.0121625444335951,0.60317470011636,0.284705999999915,
0.129047469482422,0.625365473632813,-0.00459686718749985,0.638558028827254,0.288446999999906,
0.148201082763672,0.558327827148438,0.0408929643554696,0.57910772575955,0.292206000000078,
-0.069671268310547,0.855208833007813,0.0289219560546883,0.858529389843245,0.295955000000049,
0.138624276123047,2.14089512451172,-1.74278727246094,2.76404705118066,0.299817999999959,
-0.0600944616699221,-0.310767375488281,7.43179348925782,7.43853091497011,0.303390000000036,
0.677319649658203,0.33327287109375,-3.52646750927734,3.60635630635811,0.306330999999773,
-0.0169988317871096,-0.16472107421875,-3.92629918652344,3.92978972652081,0.309251000000131,
-0.129526309814453,-0.040222587890625,2.58832353076172,2.5918745381298,0.312288999999964,
0.112288057861328,0.658884296875,0.277918928710939,0.723861903640859,0.315252999999757,
-0.0074220251464846,0.733104548339844,-0.00938527050781168,0.733202188046617,0.318233999999848,
0.390015450439453,0.749863959960938,-0.469071989257811,0.966662578739897,0.321175999999923,
0.203267720947266,0.90788126953125,-0.0381156904296862,0.931138535236139,0.324117000000115,
-0.0289698400878908,0.960553706054688,0.433542036621095,1.05425868332572,0.327152999999726,
0.035673604736328,0.649307490234375,-0.191344596679686,0.677853655022866,0.330094999999801,
0.138624276123047,0.553539423828125,-0.224863419921874,0.613340151369183,0.333129999999983,
0.117076461181641,0.441011945800781,0.0863827958984373,0.464392529579276,0.336075000000164,
0.181719906005859,0.40988732421875,0.378475398437502,0.586748131668445,0.339004999999815,
0.215238729248047,0.498472785644531,-0.430764762695311,0.693080882276002,0.342017999999825,
0.0955286462402342,0.553539423828125,0.143843635742188,0.579847055289579,0.344963000000007,
0.0811634362792967,0.575087238769531,0.1103248125,0.591172056035624,0.347975000000133,
0.0691924279785154,0.692403120117188,-0.0285388837890626,0.696436745674368,0.3509039999999,
0.126653267822265,0.618182868652344,0.0504697709960951,0.63303894598176,0.353857000000062,
0.13623007446289,0.58226984375,0.0289219560546883,0.598692979473489,0.35695799999985,
0.102711251220703,0.534385810546875,-0.00220266552734216,0.54417152385676,0.359970999999859,
0.167354696044922,0.572693037109375,-0.0117794721679676,0.596760978119719,0.363089999999829,
0.0883460412597654,0.60142345703125,-0.0381156904296862,0.609071427281418,0.366048999999748,
0.13623007446289,0.608606062011719,0.0169509477539069,0.623896871714655,0.369060999999874,
0.138624276123047,0.606211860351563,0.0169509477539069,0.622090704151169,0.37199899999996,
0.0596156213378904,0.577481440429688,-0.0309330854492185,0.581373969251856,0.374906999999894,
0.133835872802734,0.606211860351563,0.0504697709960951,0.622857975997876,0.377970999999889,
0.13623007446289,0.558327827148438,-0.0141736738281235,0.574882152085318,0.380889000000025,
0.0955286462402342,0.575087238769531,-0.00938527050781168,0.583042998200442,0.383882999999969,
0.160172091064453,0.58226984375,-0.0907881269531234,0.610684659781352,0.386842999999772,
0.0524330163574217,0.6205770703125,0.0432871660156255,0.624290717649756,0.389772999999877,
0.17453730102539,0.58226984375,0.0432871660156255,0.609405627748499,0.392812000000049,
0.164960494384765,0.577481440429688,-0.0572693037109371,0.603304692419965,0.395760999999766,
0.121864864501953,0.558327827148438,0.0456813676757815,0.5732955565161,0.398814000000129,
0.117076461181641,0.570298835449219,0.00976834277343741,0.582274059183552,0.401757999999973,
0.121864864501953,0.596635053710938,-0.0261446821289049,0.609514542008929,0.404669000000013,
0.114682259521484,0.539174213867188,0.0073741411132815,0.551285072812072,0.407709000000068,
0.133835872802734,0.551145222167969,-0.00459686718749985,0.567180948159746,0.410636999999952,
0.0907402429199217,0.60142345703125,0.0408929643554696,0.609603314366289,0.413660000000164,
0.133835872802734,0.572693037109375,-0.021356278808593,0.588511211657841,0.416584000000057,
0.129047469482422,0.570298835449219,0.014556746093751,0.584898204777027,0.419514000000163,
0.0859518395996092,0.611000263671875,-0.00938527050781168,0.617087614719468,0.422517999999855,
0.0955286462402342,0.618182868652344,0.0073741411132815,0.625563873081631,0.42546799999991,
0.131441671142578,0.637336481933594,-0.0117794721679676,0.650855944184886,0.428475000000162,
0.141018477783203,0.567904633789063,0.0480755693359374,0.587122767845325,0.431419000000005,
0.176931502685547,0.534385810546875,0.0337103593750001,0.56392316806955,0.434342000000015,
0.188902510986328,0.522414802246094,-0.00938527050781168,0.555598296942377,0.437342000000172,
0.119470662841797,0.546356818847656,0.0337103593750001,0.560281537363477,0.440289000000121,
0.141018477783203,0.570298835449219,0.00497993945312558,0.587496189424224,0.443304999999782,
0.102711251220703,0.642124885253906,-0.00220266552734216,0.650291335575902,0.44622900000013,
0.0620098229980467,0.685220515136719,0.0289219560546883,0.688628239367591,0.449161999999887,
0.138624276123047,0.618182868652344,0.000191536132813752,0.63353514954734,0.452194999999847,
0.138624276123047,0.572693037109375,0.00258573779296967,0.589237380623576,0.455137999999806,
0.112288057861328,0.553539423828125,0.0121625444335951,0.564944624859234,0.458156000000145,
0.141018477783203,0.546356818847656,0.00497993945312558,0.564284311650235,0.461089999999786,
0.148201082763672,0.584664045410156,-0.00220266552734216,0.603158734217718,0.46408399999973,
0.138624276123047,0.60142345703125,-0.0333272871093744,0.618091880438604,0.467025999999805,
0.126653267822265,0.608606062011719,-0.0429040937499998,0.623123703792417,0.469959999999901,
0.0835576379394529,0.615788666992188,-0.0285388837890626,0.622086834085051,0.472975000000133,
0.129047469482422,0.534385810546875,0.0217393510742188,0.550176374700682,0.475922000000082,
0.121864864501953,0.594240852050781,-0.0165678754882812,0.606834186532296,0.478908999999931,
0.131441671142578,0.551145222167969,-0.00459686718749985,0.566620772668345,0.481852999999774,
0.124259066162109,0.551145222167969,0.0361045610351578,0.566131531333135,0.484783999999763,
0.126653267822265,0.589452448730469,-0.0141736738281235,0.603072244921113,0.487795999999889,
0.13623007446289,0.60142345703125,0.00258573779296967,0.61666481486746,0.490749999999935,
0.114682259521484,0.615788666992188,0.0624407792968764,0.629481178403429,0.493767999999818,
0.13623007446289,0.570298835449219,-0.0285388837890626,0.587038212377036,0.496701999999914,
0.126653267822265,0.596635053710938,0.00258573779296967,0.609935343791984,0.499644999999873,
0.109893856201172,0.596635053710938,0.0313161577148442,0.607479010897857,0.502649000000019,
0.107499654541016,0.591846650390625,-0.00699106884765577,0.601570867270576,0.505576000000019,
0.112288057861328,0.599029255371094,-0.021356278808593,0.609836656305003,0.508594999999787,
0.126653267822265,0.594240852050781,0.0313161577148442,0.608394561308793,0.511567000000014,
0.152989486083984,0.613394465332031,-0.0141736738281235,0.63234440456289,0.514483999999811,
0.121864864501953,0.488895979003906,-0.0357214887695303,0.505120132489469,0.517530000000079,
0.160172091064453,0.622971271972656,-0.0907881269531234,0.649608180717304,0.520485000000008,
0.0883460412597654,0.73549875,0.0241335527343765,0.741178698172996,0.523517999999967,
0.0380678063964842,0.893516059570313,-0.165008378417967,0.9094217237025,0.526432999999997,
-0.0840364782714846,0.622971271972656,1.18532135791016,1.34169372693677,0.529368999999861,
0.390015450439453,0.192014973144531,-0.593570475585937,0.73573616941163,0.532380999999987,
0.224815535888672,0.417069929199219,-1.09395862255859,1.19215553468893,0.535323999999946,
0.129047469482422,0.385945307617188,1.09434169482422,1.16755761094787,0.538344000000052,
0.205661922607422,0.60142345703125,-0.41879375439453,0.761180142803178,0.541271999999935,
0.026096798095703,0.836055219726563,0.143843635742188,0.848740457882391,0.544194000000061,
0.138624276123047,0.668461103515625,-0.00220266552734216,0.682687182082241,0.547215999999935,
0.0859518395996092,0.725921943359375,-0.0716345136718743,0.734494309120374,0.550165000000106,
0.0691924279785154,0.630153876953125,0.0456813676757815,0.635584996740284,0.55319499999996,
0.255940157470703,0.421858332519531,-0.0237504804687489,0.493997876761413,0.556130999999823,
0.129047469482422,0.476924970703125,-0.0859997236328116,0.501504366406628,0.559134000000086,
0.143412679443359,0.531991608886719,-0.021356278808593,0.551396734843029,0.562081999999918,
0.0979228479003904,0.567904633789063,0.107930610839844,0.586305017867214,0.565032999999858,
0.105105452880859,0.67803791015625,-0.0189620771484371,0.686397934294771,0.5680440000001,
0.129047469482422,0.654095893554688,-0.0117794721679676,0.666808400749029,0.570991000000049,
0.148201082763672,0.613394465332031,-0.00699106884765577,0.631082566765971,0.573992000000089,
0.0787692346191404,0.551145222167969,-0.0117794721679676,0.556870186134633,0.576938000000155,
0.109893856201172,0.484107575683594,0.00258573779296967,0.49643075096628,0.579874000000018,
0.143412679443359,0.548751020507813,0.00258573779296967,0.567187416268576,0.582888999999795,
0.107499654541016,0.567904633789063,0.0289219560546883,0.578712647475028,0.585818000000017,
0.133835872802734,0.584664045410156,-0.00220266552734216,0.599790745660238,0.588831999999911,
0.105105452880859,0.634942280273438,0.0241335527343765,0.644035157325829,0.591775999999754,
0.13623007446289,0.577481440429688,-0.0500866987304676,0.595442797100299,0.59469799999988,
0.126653267822265,0.594240852050781,-0.00220266552734216,0.607592044246403,0.597713999999996,
0.131441671142578,0.611000263671875,0.0361045610351578,0.626020586280831,0.600668999999925,
0.191296712646484,0.56311623046875,-0.0692403120117184,0.598739126911016,0.603685000000041,
0.150595284423828,0.58226984375,-0.0381156904296862,0.602635807505889,0.606628999999884,
0.124259066162109,0.558327827148438,0.0384987626953137,0.573282158121849,0.609570000000076,
0.117076461181641,0.618182868652344,-0.0548751020507812,0.631560158403885,0.612587000000076,
0.107499654541016,0.599029255371094,-0.0620577070312489,0.611754348998731,0.615624999999909,
0.126653267822265,0.589452448730469,0.014556746093751,0.603081369651926,0.618750000000091,
0.141018477783203,0.606211860351563,-0.0141736738281235,0.62255917287996,0.621771999999964,
0.129047469482422,0.584664045410156,0.0217393510742188,0.599130949593087,0.624753999999939,
0.126653267822265,0.567904633789063,0.000191536132813752,0.581856305298171,0.627771999999823,
0.157777889404297,0.510443793945313,0.0552581743164069,0.537122141594388,0.630702999999812,
0.150595284423828,0.541568415527344,-0.0883939252929675,0.569024405817703,0.633710000000065,
0.105105452880859,0.596635053710938,0.0456813676757815,0.607542040433972,0.636684999999943,
0.112288057861328,0.637336481933594,-0.0141736738281235,0.647307726024914,0.639591999999993,
0.133835872802734,0.594240852050781,-0.0261446821289049,0.609686620731118,0.642604000000119,
0.157777889404297,0.567904633789063,0.0600465776367187,0.592465295987745,0.645564999999806,
0.172143099365234,0.60142345703125,0.0193451494140628,0.62587351448383,0.648571000000175,
0.112288057861328,0.558327827148438,0.0169509477539069,0.569759515178395,0.651526999999987,
0.0955286462402342,0.587058247070313,-0.00459686718749985,0.594797645333015,0.654532000000017,
0.126653267822265,0.634942280273438,-0.00699106884765577,0.647488706135114,0.657514999999876,
0.114682259521484,0.599029255371094,0.014556746093751,0.610081935723586,0.660464000000047,
0.117076461181641,0.531991608886719,0.052863972656251,0.547281069738116,0.663482999999815,
0.13623007446289,0.570298835449219,0.0456813676757815,0.588120890851218,0.666435999999976,
0.131441671142578,0.594240852050781,0.0289219560546883,0.60929104925382,0.669444000000112,
0.114682259521484,0.577481440429688,-0.0261446821289049,0.589338933970361,0.672388999999839,
0.100317049560547,0.591846650390625,0.00258573779296967,0.600293806440705,0.675330000000031,
0.13623007446289,0.577481440429688,0.0337103593750001,0.594289353394542,0.678354000000127,
0.126653267822265,0.548751020507813,0.0073741411132815,0.563225630378788,0.681290999999874,
0.145806881103515,0.613394465332031,0.0241335527343765,0.630947577097088,0.684326000000056,
0.129047469482422,0.587058247070313,-0.0117794721679676,0.601189978956437,0.687273000000005,
0.143412679443359,0.575087238769531,-0.0548751020507812,0.595234244349039,0.690216999999848,
0.112288057861328,0.60142345703125,-0.00699106884765577,0.611855912490287,0.693244999999933,
0.0931344445800779,0.594240852050781,-0.0476924970703116,0.603382788360821,0.696200999999746,
0.124259066162109,0.606211860351563,-0.00938527050781168,0.618887080538031,0.699228999999832,
0.117076461181641,0.596635053710938,-0.0141736738281235,0.608178574194501,0.702190999999857,
0.0907402429199217,0.5439626171875,0.0073741411132815,0.551528329770828,0.705128000000059,
0.0859518395996092,0.603817658691406,-0.0692403120117184,0.613822209182438,0.70813999999973,
0.145806881103515,0.6205770703125,-0.0668461103515625,0.64097109860267,0.711099000000104,
0.133835872802734,0.572693037109375,-0.0165678754882812,0.5883569070731,0.714132999999947,
0.138624276123047,0.577481440429688,0.00976834277343741,0.593967107247468,0.717075000000023,
0.0859518395996092,0.579875642089844,0.0241335527343765,0.586707684786256,0.720002999999906,
0.172143099365234,0.572693037109375,0.00258573779296967,0.598011076362774,0.723018000000138,
0.124259066162109,0.596635053710938,0.0121625444335951,0.609558553649468,0.725950000000012,
0.129047469482422,0.606211860351563,-0.0476924970703116,0.621627415167253,0.728959000000032,
0.124259066162109,0.572693037109375,-0.0141736738281235,0.586189835554,0.731893000000127,
0.141018477783203,0.56311623046875,0.0121625444335951,0.580632437589156,0.734832000000097,
0.172143099365234,0.572693037109375,-0.00938527050781168,0.5980791291419,0.73784599999999,
0.107499654541016,0.553539423828125,0.00976834277343741,0.563965858877069,0.740788000000066,
0.0883460412597654,0.603817658691406,0.00497993945312558,0.610266816852105,0.743802999999843,
0.0931344445800779,0.579875642089844,-0.0141736738281235,0.587478236265935,0.746722999999747,
0.0955286462402342,0.579875642089844,0.0073741411132815,0.587737918207392,0.74972600000001,
0.143412679443359,0.606211860351563,0.00497993945312558,0.622964538359113,0.752704999999878,
0.172143099365234,0.579875642089844,-0.0333272871093744,0.605805014022043,0.755717000000004,
0.114682259521484,0.603817658691406,-0.0476924970703116,0.61645953628225,0.758831999999984,
0.112288057861328,0.58226984375,-0.0189620771484371,0.593301221344354,0.761865999999827,
0.105105452880859,0.594240852050781,-0.0141736738281235,0.603630880175224,0.76486900000009,
0.13623007446289,0.625365473632813,0.0337103593750001,0.640918869381569,0.767835999999988,
0.131441671142578,0.572693037109375,0.0361045610351578,0.588691572042487,0.770762000000104,
0.133835872802734,0.56311623046875,-0.0237504804687489,0.579289232757437,0.773775999999998,
0.145806881103515,0.589452448730469,-0.0237504804687489,0.607682418055663,0.776723999999831,
0.0979228479003904,0.567904633789063,-0.0500866987304676,0.578457634239301,0.779746000000159,
0.133835872802734,0.625365473632813,0.000191536132813752,0.639526428810375,0.78268399999979,
0.138624276123047,0.6205770703125,-0.00699106884765577,0.635909950521233,0.785601999999926,
0.145806881103515,0.577481440429688,-0.0141736738281235,0.59577290442556,0.788629000000128,
0.0859518395996092,0.575087238769531,-0.0405098920898439,0.582884295793987,0.791585999999825,
0.0979228479003904,0.603817658691406,-0.021356278808593,0.612079030626802,0.794634999999744,
0.119470662841797,0.611000263671875,0.0121625444335951,0.622689721268995,0.797606999999971,
0.160172091064453,0.555933625488281,0.0624407792968764,0.58190733422402,0.800526999999875,
0.141018477783203,0.534385810546875,-0.0381156904296862,0.553992068036235,0.803531999999905,
0.0907402429199217,0.56311623046875,0.0337103593750001,0.571375593661203,0.806477000000086,
0.131441671142578,0.58226984375,-0.00220266552734216,0.596925402030127,0.809487999999874,
0.0883460412597654,0.584664045410156,-0.00938527050781168,0.591375643989627,0.812421000000086,
0.131441671142578,0.603817658691406,-0.0189620771484371,0.618249333384282,0.815348999999969,
0.0907402429199217,0.551145222167969,0.0169509477539069,0.558822138281494,0.818369000000075,
0.133835872802734,0.572693037109375,0.0289219560546883,0.588834301942795,0.821297999999842,
0.105105452880859,0.565510432128906,-0.0141736738281235,0.575369531780836,0.824309999999969,
0.0548272180175779,0.560722028808594,-0.0405098920898439,0.564850660603228,0.827264999999898,
0.152989486083984,0.589452448730469,-0.0141736738281235,0.609147654675263,0.830195000000003,
0.138624276123047,0.594240852050781,-0.00459686718749985,0.61021308685132,0.833220999999867,
0.114682259521484,0.584664045410156,-0.00459686718749985,0.595823126298621,0.836158000000069,
0.105105452880859,0.589452448730469,0.0241335527343765,0.599235991832283,0.839191999999912,
0.109893856201172,0.58226984375,0.0121625444335951,0.592674242783093,0.842137999999977,
0.145806881103515,0.529597407226563,-0.0237504804687489,0.549815556019224,0.845135000000028,
0.0787692346191404,0.527203205566406,0.0289219560546883,0.533839200344082,0.848089999999956,
0.117076461181641,0.603817658691406,0.0384987626953137,0.616266839477395,0.851027000000158,
0.121864864501953,0.594240852050781,0.0504697709960951,0.608703896184768,0.854048000000148,
0.0979228479003904,0.606211860351563,-0.0189620771484371,0.614362485949141,0.856975000000148,
0.145806881103515,0.539174213867188,0.00497993945312558,0.558563585702999,0.859984000000168,
0.121864864501953,0.541568415527344,0.00976834277343741,0.555196194527139,0.862920999999915,
0.114682259521484,0.591846650390625,0.0384987626953137,0.6040832996836,0.865838000000167,
0.129047469482422,0.625365473632813,-0.0740287153320303,0.642818384682267,0.868856999999934,
0.150595284423828,0.579875642089844,-0.0333272871093744,0.600037838845079,0.871791999999914,
0.133835872802734,0.579875642089844,0.0432871660156255,0.596692198607995,0.874823000000106,
0.143412679443359,0.606211860351563,-0.00938527050781168,0.623015328510086,0.877747999999883,
0.102711251220703,0.594240852050781,0.00976834277343741,0.603131173041073,0.880681000000095,
0.143412679443359,0.589452448730469,0.0600465776367187,0.609612153278912,0.883692999999766,
0.15538368774414,0.56311623046875,0.00976834277343741,0.584242586563871,0.886627999999746,
0.129047469482422,0.60142345703125,-0.00938527050781168,0.615184124754322,0.889631999999892,
0.0787692346191404,0.58226984375,0.0289219560546883,0.588285001343026,0.892659999999978,
0.138624276123047,0.577481440429688,0.0289219560546883,0.594590601601989,0.895676999999978,
0.143412679443359,0.596635053710938,0.0241335527343765,0.614103421509244,0.898795000000064,
0.109893856201172,0.555933625488281,0.00258573779296967,0.566697045712471,0.901792999999998,
0.145806881103515,0.572693037109375,0.0432871660156255,0.592545981399215,0.904818999999861,
0.143412679443359,0.56311623046875,-0.0165678754882812,0.58132742937234,0.907760999999937,
0.15538368774414,0.558327827148438,-0.00220266552734216,0.579550605832389,0.910695999999916,
0.138624276123047,0.594240852050781,-0.0285388837890626,0.610862789883786,0.913760999999795,
0.129047469482422,0.565510432128906,-0.0117794721679676,0.580167263977376,0.916703999999754,
0.131441671142578,0.539174213867188,0.0241335527343765,0.555489130568399,0.91973999999982,
0.145806881103515,0.567904633789063,-0.021356278808593,0.586712374422744,0.922697999999855,
0.131441671142578,0.570298835449219,0.00497993945312558,0.585271282760777,0.925629999999728,
0.148201082763672,0.565510432128906,0.052863972656251,0.586992512204328,0.928664000000026,
0.124259066162109,0.622971271972656,0.0313161577148442,0.63601432606564,0.931606999999985,
0.102711251220703,0.603817658691406,-0.00938527050781168,0.612563016658204,0.934656999999788,
0.131441671142578,0.589452448730469,0.00258573779296967,0.603935251717462,0.937617000000046,
0.129047469482422,0.599029255371094,-0.0237504804687489,0.613231916564003,0.940622000000076,
0.112288057861328,0.539174213867188,-0.0476924970703116,0.552803776320649,0.943580000000111,
0.107499654541016,0.596635053710938,0.00258573779296967,0.606247679651663,0.946521999999732,
0.138624276123047,0.618182868652344,-0.0357214887695303,0.634541388552229,0.94954000000007,
0.121864864501953,0.603817658691406,-0.00220266552734216,0.615996478791134,0.952480999999807,
0.129047469482422,0.565510432128906,-0.0452982954101557,0.581813744933466,0.955486999999721,
0.133835872802734,0.56311623046875,-0.0237504804687489,0.579289232757437,0.958442999999988,
0.100317049560547,0.567904633789063,0.000191536132813752,0.57669681826564,0.961390999999821,
0.121864864501953,0.575087238769531,0.0121625444335951,0.587983252212801,0.964419999999791,
0.0763750329589842,0.60142345703125,0.000191536132813752,0.606253541856042,0.96735099999978,
0.0955286462402342,0.567904633789063,-0.0285388837890626,0.576589857021008,0.970362999999907,
0.143412679443359,0.567904633789063,-0.0452982954101557,0.587481748883554,0.973301999999876,
0.145806881103515,0.58226984375,0.0073741411132815,0.600293424480847,0.976236999999855,
0.138624276123047,0.587058247070313,0.0361045610351578,0.604282727464097,0.979250999999749,
0.0835576379394529,0.587058247070313,0.0121625444335951,0.593099647444161,0.982199000000037,
0.119470662841797,0.613394465332031,0.000191536132813752,0.624920831838655,0.985227000000123,
0.145806881103515,0.587058247070313,-0.0476924970703116,0.606771461348673,0.988189000000148,
0.145806881103515,0.56311623046875,-0.0692403120117184,0.585793271045297,0.991132999999991,
0.143412679443359,0.551145222167969,-0.0141736738281235,0.569674596215672,0.994173000000046,
0.100317049560547,0.56311623046875,-0.0452982954101557,0.573772894982791,0.997132999999849,
0.102711251220703,0.591846650390625,0.0169509477539069,0.60093210376521,1.00018099999988,
0.131441671142578,0.567904633789063,0.014556746093751,0.583099035197865,1.00313000000006,
0.109893856201172,0.570298835449219,0.00258573779296967,0.580796097942671,1.00607200000013,
0.133835872802734,0.60142345703125,-0.0740287153320303,0.620566246431435,1.0090909999999,
0.114682259521484,0.594240852050781,-0.00459686718749985,0.605223381969774,1.01204099999995,
