X,Y,Z,Magnitude,Seconds,
0.121864864501953,0.589452448730469,-0.0117794721679676,0.602033213767298,0.0,
0.13623007446289,0.567904633789063,0.0121625444335951,0.58414230608162,0.00387200000022858,
0.112288057861328,0.56311623046875,0.0217393510742188,0.574613867167102,0.00770900000043184,
0.162566292724609,0.584664045410156,-0.00699106884765577,0.606884437573765,0.0114810000000034,
0.133835872802734,0.634942280273438,0.0696233842773442,0.652618690941298,0.0152630000002318,
0.179325704345703,0.548751020507813,0.0337103593750001,0.578292122613338,0.0190610000004199,
0.0931344445800779,0.553539423828125,-0.0620577070312489,0.564739831693487,0.0228930000002947,
0.131441671142578,0.596635053710938,-0.0476924970703116,0.612800844080855,0.0266610000003311,
0.141018477783203,0.603817658691406,-0.0189620771484371,0.620355975544402,0.030395000000226,
0.133835872802734,0.58226984375,0.0169509477539069,0.597693522149333,0.0341520000001765,
0.164960494384765,0.606211860351563,0.0193451494140628,0.6285531156111,0.037869000000228,
0.107499654541016,0.596635053710938,0.0480755693359374,0.608145396603531,0.041588000000047,
0.157777889404297,0.584664045410156,0.0648349809570323,0.609039804229529,0.0453170000000682,
0.138624276123047,0.587058247070313,0.0384987626953137,0.604430500647491,0.049141000000418,
0.129047469482422,0.596635053710938,0.0073741411132815,0.610476055757823,0.0528700000004392,
0.124259066162109,0.611000263671875,0.0384987626953137,0.624694959527969,0.0567600000003949,
0.145806881103515,0.618182868652344,-0.021356278808593,0.635504363727682,0.0606470000002446,
0.133835872802734,0.589452448730469,0.0480755693359374,0.606364156699743,0.0644050000000789,
0.0955286462402342,0.584664045410156,0.00497993945312558,0.5924378178719,0.068152000000282,
0.109893856201172,0.587058247070313,-0.021356278808593,0.597637127133667,0.0719680000001972,
0.138624276123047,0.594240852050781,0.00976834277343741,0.610273955447237,0.0757960000000821,
0.131441671142578,0.606211860351563,0.0384987626953137,0.621491663075802,0.079584000000068,
0.114682259521484,0.587058247070313,-0.00699106884765577,0.598195855172747,0.0833400000001348,
0.152989486083984,0.622971271972656,0.000191536132813752,0.641481897828428,0.0871210000000247,
0.126653267822265,0.567904633789063,0.0313161577148442,0.582698399743099,0.0909050000000207,
0.138624276123047,0.594240852050781,-0.0548751020507812,0.612658270981271,0.0947370000003502,
0.114682259521484,0.575087238769531,-0.0476924970703116,0.588346774548241,0.098515000000134,
0.138624276123047,0.591846650390625,-0.0524809003906235,0.610125718532707,0.10228700000016,
0.0883460412597654,0.565510432128906,-0.0309330854492185,0.573204961273281,0.106051000000207,
0.148201082763672,0.591846650390625,-0.0836055219726557,0.615821322962471,0.109800000000178,
0.164960494384765,0.589452448730469,0.0384987626953137,0.613309309199756,0.113544000000275,
0.152989486083984,0.60142345703125,-0.00938527050781168,0.62064808130064,0.11725400000023,
0.160172091064453,0.575087238769531,-0.0692403120117184,0.600978079266626,0.121081000000231,
0.176931502685547,0.5439626171875,0.0456813676757815,0.573835231484413,0.124856000000364,
0.138624276123047,0.60142345703125,-0.0261446821289049,0.617746233498578,0.12882800000034,
0.131441671142578,0.60142345703125,0.0169509477539069,0.615852597794252,0.1326710000003,
0.145806881103515,0.591846650390625,0.014556746093751,0.609716329954,0.136458000000403,
0.121864864501953,0.615788666992188,0.0193451494140628,0.628029427974476,0.140250000000378,
0.121864864501953,0.577481440429688,-0.0261446821289049,0.590778641831649,0.144131000000016,
0.162566292724609,0.615788666992188,-0.0141736738281235,0.637043463945769,0.148013000000446,
0.141018477783203,0.596635053710938,-0.00938527050781168,0.613145726312636,0.151844000000438,
0.148201082763672,0.572693037109375,-0.0381156904296862,0.592784683964436,0.155640000000403,
0.169748897705078,0.60142345703125,-0.0165678754882812,0.625139470388572,0.159475000000384,
0.157777889404297,0.60142345703125,-0.0381156904296862,0.622942086320411,0.163301000000047,
0.119470662841797,0.6205770703125,-0.0333272871093744,0.63285057283973,0.167085000000043,
0.105105452880859,0.608606062011719,0.0720175859375001,0.621799829227194,0.170972000000347,
0.143412679443359,0.565510432128906,0.0169509477539069,0.583657930727838,0.174760000000333,
0.133835872802734,0.577481440429688,-0.00459686718749985,0.592805183915893,0.178489000000354,
0.157777889404297,0.60142345703125,0.0696233842773442,0.62566081281356,0.182230000000345,
0.145806881103515,0.637336481933594,0.0121625444335951,0.653915411400988,0.185941000000184,
0.169748897705078,0.560722028808594,0.0121625444335951,0.585979359150485,0.18963900000017,
0.179325704345703,0.60142345703125,0.0552581743164069,0.630016943212867,0.19342800000004,
0.121864864501953,0.589452448730469,-0.00220266552734216,0.601921993492388,0.197268000000349,
0.152989486083984,0.611000263671875,-0.0285388837890626,0.630508979275687,0.201242000000093,
0.126653267822265,0.599029255371094,-0.0285388837890626,0.612936837633725,0.205024000000321,
0.141018477783203,0.596635053710938,0.0241335527343765,0.613548715882063,0.208840000000237,
0.143412679443359,0.599029255371094,-0.0165678754882812,0.616179957409981,0.212634000000435,
0.143412679443359,0.565510432128906,0.00258573779296967,0.583417459039134,0.216533000000254,
0.117076461181641,0.594240852050781,-0.0261446821289049,0.606228201597778,0.220382000000427,
0.109893856201172,0.579875642089844,0.0265277543945324,0.590792807736426,0.22417600000017,
0.131441671142578,0.56311623046875,-0.00938527050781168,0.578329391638185,0.227935000000343,
0.129047469482422,0.594240852050781,0.00258573779296967,0.608097135058034,0.231739000000289,
0.150595284423828,0.56311623046875,0.0384987626953137,0.584175473156053,0.235507000000325,
0.129047469482422,0.637336481933594,-0.0333272871093744,0.651123451159131,0.239232000000356,
0.141018477783203,0.589452448730469,-0.0309330854492185,0.606874992206835,0.243070000000444,
0.109893856201172,0.589452448730469,0.00258573779296967,0.599614488638362,0.246848000000227,
0.117076461181641,0.575087238769531,0.0241335527343765,0.587379484086704,0.250578000000132,
0.0955286462402342,0.572693037109375,-0.00699106884765577,0.58064783823733,0.254313000000366,
0.15538368774414,0.58226984375,0.014556746093751,0.602821831235777,0.258057000000008,
0.181719906005859,0.577481440429688,0.052863972656251,0.607701849499017,0.261794000000009,
0.119470662841797,0.577481440429688,-0.0237504804687489,0.590188223063712,0.265583000000333,
0.13623007446289,0.587058247070313,0.0768059892578137,0.607532039177609,0.269557000000077,
0.100317049560547,0.560722028808594,-0.021356278808593,0.570025257921356,0.273431000000073,
0.129047469482422,0.58226984375,0.0863827958984373,0.602622110237998,0.27719100000013,
0.164960494384765,0.558327827148438,-0.0237504804687489,0.582671444811275,0.280934000000343,
0.138624276123047,0.606211860351563,0.0217393510742188,0.62223959127226,0.284703000000263,
0.143412679443359,0.587058247070313,-0.0500866987304676,0.606393650583603,0.288503000000219,
0.145806881103515,0.529597407226563,-0.0261446821289049,0.549924180884832,0.292437000000064,
0.162566292724609,0.596635053710938,-0.320631486328125,0.696567108663522,0.296240000000125,
0.006943184814453,0.780988581542969,0.359321785156251,0.859711298985736,0.300027000000227,
0.220027132568359,0.304542451171875,0.134266829101563,0.398980732653867,0.303868000000421,
0.318189400634766,0.364397492675781,-0.658213920410155,0.816869385132295,0.30681900000036,
-0.0481234533691408,0.958159504394531,0.088776997558595,0.963466064748139,0.309761000000435,
0.0620098229980467,0.668461103515625,0.917170771972657,1.13661237456861,0.312787000000299,
0.239180745849609,0.462559760742188,-0.883268876464843,1.02534524408831,0.315728000000036,
0.0380678063964842,0.579875642089844,0.0983538041992187,0.589388147975006,0.318756000000121,
0.157777889404297,0.599029255371094,0.2252464921875,0.659140268393682,0.32171100000005,
0.148201082763672,0.575087238769531,-0.153037370117186,0.613277530796843,0.324645000000146,
0.186508309326172,0.567904633789063,-0.097970731933593,0.605722120152798,0.327674000000115,
0.196085115966797,0.575087238769531,0.0241335527343765,0.608076585034203,0.330633000000034,
0.0284909997558592,0.699585725097656,0.0624407792968764,0.702944361060463,0.333656000000246,
0.222421334228516,0.565510432128906,-0.133883756835937,0.622252488232164,0.336603000000196,
0.176931502685547,0.52480900390625,0.105536409179688,0.563797109682356,0.339554000000135,
0.162566292724609,0.60142345703125,-0.0309330854492185,0.623774662817473,0.342557000000397,
0.119470662841797,0.599029255371094,0.0193451494140628,0.611132982971921,0.34552100000019,
0.0644040246582029,0.589452448730469,-0.097970731933593,0.600999444277717,0.348525000000336,
0.15538368774414,0.603817658691406,-0.0333272871093744,0.624380143366692,0.351485000000139,
0.188902510986328,0.615788666992188,0.0480755693359374,0.645903322038159,0.354431000000204,
0.117076461181641,0.570298835449219,0.014556746093751,0.582374070795043,0.357448000000204,
0.119470662841797,0.551145222167969,-0.0189620771484371,0.564263994570114,0.360399000000143,
0.0955286462402342,0.625365473632813,0.00258573779296967,0.632624994688337,0.363433000000441,
0.119470662841797,0.613394465332031,-0.0333272871093744,0.625808850565328,0.366440000000239,
0.167354696044922,0.512837995605469,0.0241335527343765,0.539993363285611,0.369544000000133,
0.121864864501953,0.596635053710938,0.0384987626953137,0.610169310311329,0.37260600000036,
0.181719906005859,0.596635053710938,0.0552581743164069,0.626138145607033,0.375618000000031,
0.114682259521484,0.591846650390625,0.0384987626953137,0.6040832996836,0.378629000000274,
0.126653267822265,0.596635053710938,0.0289219560546883,0.610615195609101,0.381574000000001,
0.102711251220703,0.599029255371094,0.052863972656251,0.610065774751191,0.384572000000389,
0.129047469482422,0.579875642089844,-0.0117794721679676,0.594178227162087,0.387530000000424,
0.150595284423828,0.611000263671875,-0.0452982954101557,0.630913779739245,0.390467000000172,
0.138624276123047,0.567904633789063,0.0169509477539069,0.584824501572466,0.393490000000384,
0.105105452880859,0.587058247070313,0.0337103593750001,0.597344900378124,0.39643500000011,
0.15538368774414,0.584664045410156,-0.00938527050781168,0.605032412119254,0.3994560000001,
0.124259066162109,0.572693037109375,0.0265277543945324,0.586618574569759,0.402424000000337,
0.169748897705078,0.579875642089844,-0.00699106884765577,0.604251043528127,0.405338000000029,
0.114682259521484,0.553539423828125,0.00976834277343741,0.565378930365702,0.40840100000014,
0.114682259521484,0.606211860351563,-0.0237504804687489,0.617421189790529,0.411372000000028,
0.15538368774414,0.558327827148438,0.0361045610351578,0.58066995127422,0.414392000000134,
0.126653267822265,0.572693037109375,0.0217393510742188,0.586933526379902,0.417336000000432,
0.109893856201172,0.608606062011719,-0.0405098920898439,0.619773385767174,0.420252000000346,
0.131441671142578,0.611000263671875,0.0337103593750001,0.62588706924576,0.423275000000103,
0.17453730102539,0.60142345703125,0.00258573779296967,0.626242868347881,0.426210000000083,
0.141018477783203,0.596635053710938,-0.0261446821289049,0.613631112963291,0.429208000000017,
0.121864864501953,0.587058247070313,-0.0117794721679676,0.599689241705988,0.432151000000431,
0.141018477783203,0.579875642089844,0.0121625444335951,0.596900241960497,0.435079000000314,
0.119470662841797,0.591846650390625,-0.0524809003906235,0.606061004985696,0.43809500000043,
0.0859518395996092,0.587058247070313,-0.0644519086914048,0.596807467042589,0.441048000000137,
0.172143099365234,0.572693037109375,-0.0141736738281235,0.598173431742346,0.444060000000263,
0.114682259521484,0.560722028808594,-0.00699106884765577,0.572372334485002,0.447011000000202,
0.15538368774414,0.596635053710938,-0.0285388837890626,0.617196845116327,0.449937000000318,
0.133835872802734,0.577481440429688,0.0121625444335951,0.59291212028151,0.452945,
0.148201082763672,0.596635053710938,-0.00459686718749985,0.614782953111842,0.455880000000434,
0.129047469482422,0.56311623046875,-0.0237504804687489,0.578201715424338,0.458893000000444,
0.15538368774414,0.584664045410156,-0.0333272871093744,0.605876921889594,0.461826000000201,
0.150595284423828,0.589452448730469,0.00258573779296967,0.608391169433756,0.464848000000075,
0.184114107666015,0.567904633789063,0.0073741411132815,0.59704945831807,0.467784000000393,
0.15538368774414,0.553539423828125,0.0241335527343765,0.575441059115983,0.470708000000286,
0.145806881103515,0.618182868652344,0.0265277543945324,0.63569916424799,0.473713000000316,
0.126653267822265,0.599029255371094,-0.0524809003906235,0.61451716326423,0.476648000000296,
0.126653267822265,0.599029255371094,-0.00220266552734216,0.612276041321176,0.479645000000346,
0.172143099365234,0.613394465332031,-0.0285388837890626,0.637730730517954,0.482595000000401,
0.133835872802734,0.575087238769531,-0.00220266552734216,0.590459333722365,0.485513000000083,
0.121864864501953,0.572693037109375,-0.0165678754882812,0.585749822408709,0.488530000000083,
0.124259066162109,0.608606062011719,0.0241335527343765,0.621630181545647,0.491485000000011,
0.160172091064453,0.555933625488281,-0.0357214887695303,0.579649307309528,0.494489000000158,
0.141018477783203,0.553539423828125,-0.0141736738281235,0.571395657874691,0.497440000000097,
0.117076461181641,0.570298835449219,0.00258573779296967,0.582197857706025,0.500374000000193,
0.112288057861328,0.560722028808594,0.0504697709960951,0.574077520300083,0.503399000000172,
0.167354696044922,0.603817658691406,0.158208845703125,0.646245617466436,0.50645300000042,
0.145806881103515,0.584664045410156,0.0073741411132815,0.602616022463445,0.50956000000042,
0.141018477783203,0.589452448730469,0.0552581743164069,0.60859992295384,0.512606000000233,
0.184114107666015,0.606211860351563,0.0337103593750001,0.634450323194612,0.515574000000015,
0.162566292724609,0.558327827148438,0.0217393510742188,0.581919548978763,0.518582000000151,
0.114682259521484,0.630153876953125,-0.0620577070312489,0.643503759344096,0.521517000000131,
0.133835872802734,0.599029255371094,-0.0237504804687489,0.614257417506548,0.524552000000313,
0.121864864501953,0.570298835449219,0.0073741411132815,0.58322052850699,0.527518000000327,
0.160172091064453,0.58226984375,-0.0237504804687489,0.604365249678624,0.530432000000019,
0.145806881103515,0.589452448730469,-0.0476924970703116,0.609088179304345,0.533455000000231,
0.121864864501953,0.591846650390625,-0.0285388837890626,0.604936336044222,0.536419000000024,
0.162566292724609,0.579875642089844,-0.0381156904296862,0.603437126531227,0.539450000000215,
0.0955286462402342,0.587058247070313,-0.0165678754882812,0.595010589993115,0.542419000000336,
0.126653267822265,0.555933625488281,0.0121625444335951,0.570307963898193,0.545362000000296,
0.126653267822265,0.570298835449219,0.00497993945312558,0.584214525462822,0.548408000000109,
0.15538368774414,0.515232197265625,0.0289219560546883,0.538929296900959,0.551332000000002,
0.112288057861328,0.632548078613281,0.00497993945312558,0.642456597360927,0.554360000000088,
0.13623007446289,0.529597407226563,0.0313161577148442,0.547734195265626,0.557318000000123,
0.138624276123047,0.575087238769531,-0.0165678754882812,0.59179093996478,0.560320000000047,
0.133835872802734,0.599029255371094,0.014556746093751,0.613970673970797,0.563270000000102,
0.107499654541016,0.589452448730469,0.0456813676757815,0.600913598110006,0.566189000000122,
0.13623007446289,0.642124885253906,-0.0500866987304676,0.658324903706539,0.569183000000066,
0.109893856201172,0.599029255371094,0.122295820800781,0.621183528602093,0.572137000000112,
0.164960494384765,0.488895979003906,-0.0405098920898439,0.517563807033476,0.575122000000192,
0.17453730102539,0.488895979003906,-0.0788171186523439,0.52506636335617,0.578087000000323,
0.121864864501953,0.740287153320313,-0.097970731933593,0.756620366423463,0.581016000000091,
0.112288057861328,0.618182868652344,0.273130525390625,0.685097767427153,0.584039000000303,
0.188902510986328,0.493684382324219,-0.208104008300781,0.568080721622057,0.586969000000408,
0.143412679443359,0.596635053710938,0.0217393510742188,0.614013992777775,0.589990000000398,
0.102711251220703,0.596635053710938,0.0193451494140628,0.60572041673517,0.592933000000357,
0.112288057861328,0.575087238769531,0.000191536132813752,0.585947076808071,0.595852000000377,
0.138624276123047,0.575087238769531,-0.0859997236328116,0.597777529346096,0.598852000000079,
0.176931502685547,0.579875642089844,0.0241335527343765,0.606747843258843,0.601814000000104,
0.117076461181641,0.584664045410156,-0.00938527050781168,0.596344721667502,0.604810000000271,
0.13623007446289,0.603817658691406,0.0121625444335951,0.619114145875246,0.607763000000432,
0.129047469482422,0.551145222167969,-0.0237504804687489,0.566549548248776,0.610680000000229,
0.152989486083984,0.579875642089844,-0.0429040937499998,0.601250616965886,0.613693000000239,
0.121864864501953,0.579875642089844,-0.0189620771484371,0.59284598831313,0.616637000000082,
0.0955286462402342,0.579875642089844,0.0384987626953137,0.588951302970518,0.619660000000295,
0.181719906005859,0.599029255371094,0.014556746093751,0.626154990306764,0.62259800000038,
0.131441671142578,0.591846650390625,0.0313161577148442,0.607075013672427,0.62552100000039,
0.160172091064453,0.608606062011719,0.0504697709960951,0.631350643666235,0.628525000000081,
0.109893856201172,0.551145222167969,-0.0429040937499998,0.56362973378793,0.631465000000389,
0.114682259521484,0.632548078613281,-0.00459686718749985,0.642876522820865,0.634477000000061,
0.148201082763672,0.625365473632813,0.0792001909179696,0.6475478413104,0.637439000000086,
0.169748897705078,0.599029255371094,-0.0285388837890626,0.623269769000921,0.640348000000358,
0.152989486083984,0.587058247070313,0.000191536132813752,0.606665645138737,0.643421000000217,
0.133835872802734,0.551145222167969,-0.0165678754882812,0.567404257355939,0.646466000000146,
0.126653267822265,0.579875642089844,-0.0237504804687489,0.594020955742862,0.649583000000348,
0.164960494384765,0.56311623046875,-0.0141736738281235,0.586952082162408,0.652632000000267,
0.15538368774414,0.579875642089844,-0.0117794721679676,0.60044867113737,0.655641000000287,
0.160172091064453,0.579875642089844,-0.00699106884765577,0.601630895224556,0.65858500000013,
0.15538368774414,0.572693037109375,0.014556746093751,0.593576704417691,0.661529000000428,
0.102711251220703,0.551145222167969,0.0576523759765628,0.563590679040778,0.664559000000281,
0.109893856201172,0.584664045410156,0.0672291826171882,0.598688958159,0.667521000000306,
0.145806881103515,0.591846650390625,0.0624407792968764,0.612732368228527,0.670517000000018,
0.112288057861328,0.558327827148438,-0.0261446821289049,0.57010710827895,0.673460000000432,
0.143412679443359,0.565510432128906,-0.00699106884765577,0.583453614707612,0.676399000000401,
0.145806881103515,0.587058247070313,0.0121625444335951,0.60501649524414,0.679439000000002,
0.152989486083984,0.618182868652344,-0.0117794721679676,0.636941596939655,0.682382000000416,
0.129047469482422,0.606211860351563,-0.0189620771484371,0.620085179133079,0.685442000000421,
0.145806881103515,0.618182868652344,0.0169509477539069,0.63537157656141,0.688429000000269,
0.129047469482422,0.622971271972656,-0.0285388837890626,0.63683665328793,0.691349000000173,
0.152989486083984,0.565510432128906,0.0241335527343765,0.586336302872717,0.694362000000183,
0.172143099365234,0.587058247070313,-0.0261446821289049,0.612335019834697,0.697316000000228,
0.176931502685547,0.553539423828125,-0.0309330854492185,0.581951463740703,0.700328000000354,
0.131441671142578,0.606211860351563,0.052863972656251,0.622546650580225,0.703286000000389,
0.138624276123047,0.570298835449219,-0.00699106884765577,0.586946613150639,0.706203000000187,
0.176931502685547,0.634942280273438,0.0337103593750001,0.659994578955456,0.709222000000409,
0.109893856201172,0.606211860351563,0.0600465776367187,0.619011365604501,0.712161000000378,
0.167354696044922,0.599029255371094,0.0480755693359374,0.623822814143335,0.71517300000005,
0.114682259521484,0.584664045410156,0.0241335527343765,0.596293966942401,0.718113000000358,
0.114682259521484,0.606211860351563,-0.0261446821289049,0.617517922560533,0.721025000000282,
0.126653267822265,0.60142345703125,0.0073741411132815,0.614658932152325,0.724045000000388,
0.145806881103515,0.551145222167969,-0.0237504804687489,0.570600374884394,0.726981000000251,
0.148201082763672,0.606211860351563,-0.0189620771484371,0.62435241725568,0.729991000000155,
0.145806881103515,0.599029255371094,-0.0189620771484371,0.616810550929023,0.7329450000002,
0.126653267822265,0.60142345703125,0.0432871660156255,0.616137163023902,0.735869000000093,
0.121864864501953,0.60142345703125,0.014556746093751,0.613818473756156,0.738876000000346,
0.112288057861328,0.615788666992188,-0.0883939252929675,0.63215328549568,0.741825000000063,
0.129047469482422,0.584664045410156,-0.0500866987304676,0.600827739676609,0.744836000000305,
0.179325704345703,0.596635053710938,-0.0429040937499998,0.624477266853041,0.747781000000032,
0.143412679443359,0.599029255371094,-0.0572693037109371,0.618613787886357,0.750785000000178,
0.176931502685547,0.575087238769531,0.0480755693359374,0.603606949268399,0.753736000000117,
0.143412679443359,0.60142345703125,0.0121625444335951,0.618405448536511,0.756656000000021,
0.131441671142578,0.565510432128906,0.0217393510742188,0.580991877003891,0.759661000000051,
0.13623007446289,0.606211860351563,0.0672291826171882,0.62495697117037,0.762602000000243,
0.15538368774414,0.596635053710938,-0.0285388837890626,0.617196845116327,0.765592000000197,
0.176931502685547,0.634942280273438,0.00497993945312558,0.659151921576775,0.768549000000348,
0.121864864501953,0.587058247070313,0.014556746093751,0.599750222601197,0.771476000000348,
0.145806881103515,0.611000263671875,0.0361045610351578,0.629193537881451,0.774492000000009,
0.148201082763672,0.630153876953125,0.0289219560546883,0.647992244639863,0.777435000000423,
0.160172091064453,0.584664045410156,-0.059663505371093,0.609136174122417,0.780444000000443,
0.157777889404297,0.577481440429688,-0.0524809003906235,0.600943359503566,0.783488000000034,
0.13623007446289,0.56311623046875,-0.021356278808593,0.579753924393832,0.786521000000448,
0.141018477783203,0.567904633789063,-0.00220266552734216,0.585155309205006,0.789633000000322,
0.119470662841797,0.625365473632813,-0.0237504804687489,0.637117964127795,0.792640000000119,
0.148201082763672,0.606211860351563,-0.00220266552734216,0.624068291374151,0.795649000000139,
0.157777889404297,0.577481440429688,-0.059663505371093,0.601613173308886,0.798598000000311,
0.107499654541016,0.58226984375,0.0456813676757815,0.59386962712351,0.801551000000018,
0.162566292724609,0.599029255371094,0.0217393510742188,0.621076845250085,0.80458200000021,
0.167354696044922,0.587058247070313,-0.0189620771484371,0.610740976283186,0.807511000000432,
0.0931344445800779,0.575087238769531,0.000191536132813752,0.582579946143784,0.810550000000148,
0.133835872802734,0.575087238769531,0.0265277543945324,0.591050839435704,0.81351100000029,
0.160172091064453,0.587058247070313,-0.0237504804687489,0.608979941813952,0.816443000000163,
0.160172091064453,0.625365473632813,0.0313161577148442,0.646310897403078,0.819489000000431,
0.138624276123047,0.60142345703125,0.0313161577148442,0.617986704009139,0.822445000000243,
0.117076461181641,0.608606062011719,0.0552581743164069,0.622223193322951,0.825490000000173,
0.126653267822265,0.58226984375,-0.00699106884765577,0.595926250667262,0.828440000000228,
0.17453730102539,0.606211860351563,0.00258573779296967,0.630842908432887,0.83138100000042,
0.138624276123047,0.570298835449219,0.0169509477539069,0.587149713680531,0.834399000000303,
0.133835872802734,0.577481440429688,0.0480755693359374,0.594733650684566,0.83734000000004,
0.131441671142578,0.587058247070313,0.0313161577148442,0.602407669356925,0.840348000000176,
0.119470662841797,0.551145222167969,0.0480755693359374,0.565990773392476,0.843293000000358,
0.114682259521484,0.613394465332031,-0.00938527050781168,0.624093642053359,0.846284000000196,
0.117076461181641,0.589452448730469,0.0241335527343765,0.601451174614154,0.849244000000454,
0.129047469482422,0.558327827148438,0.0265277543945324,0.573660991964181,0.852162000000135,
0.121864864501953,0.570298835449219,0.0600465776367187,0.586257109467081,0.855181000000357,
0.13623007446289,0.570298835449219,0.0073741411132815,0.586390461092316,0.858120000000326,
0.109893856201172,0.570298835449219,0.0384987626953137,0.582064924277841,0.861118000000261,
0.145806881103515,0.594240852050781,0.0289219560546883,0.612550664325166,0.864062000000104,
0.133835872802734,0.579875642089844,-0.00699106884765577,0.595161050625468,0.866973000000144,
0.121864864501953,0.6205770703125,0.0576523759765628,0.63505176312917,0.869991000000027,
0.121864864501953,0.591846650390625,0.0313161577148442,0.605073718246548,0.872928000000229,
0.131441671142578,0.577481440429688,0.0289219560546883,0.592957170877906,0.875935000000027,
0.129047469482422,0.591846650390625,0.0408929643554696,0.607130909682745,0.878885000000082,
0.138624276123047,0.587058247070313,0.0408929643554696,0.604587718960354,0.881812000000082,
0.133835872802734,0.60142345703125,-0.0189620771484371,0.616426618411367,0.884810000000016,
0.114682259521484,0.591846650390625,0.0552581743164069,0.605382477493641,0.887763000000177,
0.141018477783203,0.599029255371094,-0.0141736738281235,0.615567342292072,0.890763000000334,
0.13623007446289,0.579875642089844,0.0384987626953137,0.596905811838303,0.89371200000005,
0.150595284423828,0.579875642089844,-0.00938527050781168,0.599185099349364,0.896636000000399,
0.112288057861328,0.572693037109375,0.0337103593750001,0.584570193407961,0.89965600000005,
0.133835872802734,0.587058247070313,0.00258573779296967,0.602126325900198,0.902596000000358,
0.129047469482422,0.575087238769531,0.0720175859375001,0.59377193791863,0.905610000000252,
0.145806881103515,0.608606062011719,0.000191536132813752,0.625828268761197,0.908549000000221,
0.164960494384765,0.589452448730469,-0.0309330854492185,0.612880909963282,0.911465000000135,
0.109893856201172,0.565510432128906,-0.0476924970703116,0.578059930071431,0.914478000000145,
0.126653267822265,0.611000263671875,0.0265277543945324,0.624552715317431,0.917439000000286,
0.119470662841797,0.565510432128906,0.0408929643554696,0.579437246524814,0.920489000000089,
0.138624276123047,0.613394465332031,0.0265277543945324,0.629422895821104,0.923533000000134,
0.15538368774414,0.606211860351563,-0.0357214887695303,0.626827675527958,0.92654900000025,
0.112288057861328,0.572693037109375,0.052863972656251,0.585986793619813,0.929669000000104,
0.100317049560547,0.555933625488281,-0.0476924970703116,0.566921758850266,0.932620000000043,
0.15538368774414,0.572693037109375,-0.0333272871093744,0.594333335121461,0.935633000000053,
0.141018477783203,0.613394465332031,0.0265277543945324,0.629954524493218,0.938584000000446,
0.141018477783203,0.587058247070313,0.014556746093751,0.603933353430987,0.941593000000012,
0.112288057861328,0.575087238769531,-0.00938527050781168,0.586022203876558,0.944547000000057,
0.119470662841797,0.599029255371094,0.0241335527343765,0.611303293331459,0.947486000000026,
0.15538368774414,0.558327827148438,-0.00220266552734216,0.579550605832389,0.950493000000279,
0.157777889404297,0.606211860351563,0.0361045610351578,0.627447385318736,0.953465000000051,
0.119470662841797,0.579875642089844,0.0169509477539069,0.592297504805417,0.9564790000004,
0.169748897705078,0.572693037109375,-0.0572693037109371,0.600059810496574,0.959431000000222,
0.121864864501953,0.584664045410156,0.0241335527343765,0.597716922600516,0.962404000000333,
0.131441671142578,0.579875642089844,0.00976834277343741,0.594666371776983,0.965452000000369,
0.133835872802734,0.575087238769531,-0.0141736738281235,0.590625317840524,0.968396000000212,
0.117076461181641,0.587058247070313,0.0289219560546883,0.599316913459076,0.971421000000191,
0.148201082763672,0.56311623046875,0.0337103593750001,0.583266524222718,0.974364000000151,
0.119470662841797,0.630153876953125,0.0169509477539069,0.641603056841742,0.97729100000015,
0.119470662841797,0.560722028808594,0.0384987626953137,0.574599501914293,0.980305000000044,
0.126653267822265,0.560722028808594,0.0073741411132815,0.574895313773249,0.983247000000119,
0.133835872802734,0.615788666992188,-0.00699106884765577,0.630203616530814,0.98624800000016,
0.114682259521484,0.591846650390625,-0.021356278808593,0.6032334281786,0.989194000000225,
0.150595284423828,0.560722028808594,-0.0237504804687489,0.581078496078125,0.992132000000311,
0.164960494384765,0.536780012207031,0.00258573779296967,0.561561601476259,0.9951530000003,
0.114682259521484,0.637336481933594,0.00258573779296967,0.647577406873014,0.998087000000396,
0.133835872802734,0.584664045410156,0.0456813676757815,0.601523793541842,1.00109900000007,
0.141018477783203,0.608606062011719,0.0480755693359374,0.62657705843789,1.00403700000015,
0.131441671142578,0.599029255371094,-0.0381156904296862,0.614463804922741,1.00694600000043,
0.145806881103515,0.587058247070313,-0.0548751020507812,0.607378225536186,1.00996600000008,
0.160172091064453,0.606211860351563,0.000191536132813752,0.62701511550596,1.01291300000003,
