X,Y,Z,Magnitude,Seconds,
0.109893856201172,0.5439626171875,-0.00699106884765577,0.554996273475662,0.0,
0.150595284423828,0.584664045410156,0.0265277543945324,0.604329965696952,0.00388199999997596,
0.102711251220703,0.56311623046875,0.00258573779296967,0.572412592615319,0.00767099999984566,
0.138624276123047,0.567904633789063,-0.0237504804687489,0.585061063763625,0.0114119999998366,
0.15538368774414,0.589452448730469,0.0121625444335951,0.60970993695233,0.0151569999998173,
0.126653267822265,0.558327827148438,0.0241335527343765,0.573021326990486,0.0189099999997779,
0.138624276123047,0.572693037109375,-0.0237504804687489,0.589710174582985,0.0226290000000517,
0.143412679443359,0.611000263671875,0.00497993945312558,0.627625141807736,0.0264619999998104,
0.0979228479003904,0.548751020507813,0.0241335527343765,0.557941748766725,0.0302059999999074,
0.131441671142578,0.551145222167969,-0.00938527050781168,0.566679849768666,0.0339140000000953,
0.172143099365234,0.558327827148438,0.00497993945312558,0.584284185156779,0.0376329999999143,
0.169748897705078,0.599029255371094,-0.0141736738281235,0.622777351942347,0.041421999999784,
0.119470662841797,0.575087238769531,0.00497993945312558,0.587386900834858,0.0454319999998916,
0.129047469482422,0.584664045410156,-0.0524809003906235,0.601032062606477,0.0492489999996906,
0.145806881103515,0.596635053710938,0.0456813676757815,0.615889455378575,0.0531879999998637,
0.15538368774414,0.615788666992188,-0.00220266552734216,0.635094185572824,0.0569729999997435,
0.167354696044922,0.611000263671875,0.0073741411132815,0.633548178477807,0.0608149999998204,
0.157777889404297,0.589452448730469,0.0241335527343765,0.610680341968532,0.0646529999999075,
0.150595284423828,0.56311623046875,0.0265277543945324,0.583508826378183,0.0684360000000197,
0.117076461181641,0.58226984375,0.0456813676757815,0.595677644415329,0.072215000000142,
0.162566292724609,0.584664045410156,0.0169509477539069,0.607080867887754,0.0760669999999664,
0.0811634362792967,0.548751020507813,-0.0261446821289049,0.555336591897788,0.0798719999997957,
0.124259066162109,0.555933625488281,-0.0165678754882812,0.569892100287606,0.0836289999997462,
0.0979228479003904,0.536780012207031,-0.0572693037109371,0.548635980221348,0.0873559999999998,
0.143412679443359,0.558327827148438,0.0552581743164069,0.579094659811504,0.0911289999999099,
0.124259066162109,0.599029255371094,-0.0165678754882812,0.612005603579021,0.0948539999999412,
0.107499654541016,0.594240852050781,0.0456813676757815,0.605611388041214,0.0986669999997503,
0.121864864501953,0.589452448730469,0.00258573779296967,0.601923517196628,0.102406999999857,
0.107499654541016,0.529597407226563,0.0073741411132815,0.540447932205031,0.106124999999793,
0.152989486083984,0.589452448730469,0.00976834277343741,0.609061074677349,0.10984899999994,
0.133835872802734,0.594240852050781,-0.0189620771484371,0.609420865629568,0.113714000000073,
0.124259066162109,0.60142345703125,0.0504697709960951,0.616196144076947,0.117656999999781,
0.131441671142578,0.572693037109375,0.0313161577148442,0.588417308889137,0.12139900000011,
0.143412679443359,0.58226984375,0.0193451494140628,0.599983001735571,0.125278999999864,
0.150595284423828,0.594240852050781,-0.0572693037109371,0.615695462939486,0.129030999999941,
0.143412679443359,0.555933625488281,0.0432871660156255,0.575763120836454,0.132845000000088,
0.15538368774414,0.611000263671875,-0.059663505371093,0.633265462896277,0.136645999999928,
0.119470662841797,0.570298835449219,0.0432871660156255,0.584283988943953,0.140419999999722,
0.143412679443359,0.615788666992188,0.0241335527343765,0.632728462603605,0.144159999999829,
0.164960494384765,0.584664045410156,-0.00459686718749985,0.607507318384705,0.148016000000098,
0.133835872802734,0.591846650390625,-0.0452982954101557,0.608478786807345,0.151784000000134,
0.124259066162109,0.594240852050781,0.0456813676757815,0.608809734746619,0.155549000000065,
0.15538368774414,0.611000263671875,0.0217393510742188,0.63082328112491,0.159279999999853,
0.13623007446289,0.596635053710938,-0.0237504804687489,0.612450900748227,0.163015999999971,
0.133835872802734,0.608606062011719,-0.021356278808593,0.623513809158091,0.166738999999779,
0.126653267822265,0.596635053710938,0.0432871660156255,0.611463994286153,0.170478999999887,
0.133835872802734,0.603817658691406,-0.00699106884765577,0.618511665888424,0.174293999999918,
0.145806881103515,0.572693037109375,0.000191536132813752,0.590962772107334,0.178041000000121,
0.131441671142578,0.606211860351563,0.0337103593750001,0.621213426185275,0.181759000000056,
0.150595284423828,0.58226984375,0.0121625444335951,0.601552190685432,0.185717999999724,
0.131441671142578,0.567904633789063,0.0313161577148442,0.583757901638911,0.189539999999852,
0.141018477783203,0.613394465332031,0.00976834277343741,0.629471525723602,0.193299999999908,
0.131441671142578,0.637336481933594,0.0720175859375001,0.654722259282903,0.197130999999899,
0.0835576379394529,0.618182868652344,-0.0237504804687489,0.624256376239569,0.200902000000042,
0.133835872802734,0.622971271972656,-0.00459686718749985,0.637201991318325,0.204730999999811,
0.148201082763672,0.606211860351563,-0.0620577070312489,0.627142359887453,0.208510999999817,
0.126653267822265,0.611000263671875,0.052863972656251,0.626224378367818,0.212279999999737,
0.150595284423828,0.58226984375,0.0432871660156255,0.60298498270936,0.216062999999849,
0.148201082763672,0.589452448730469,0.0241335527343765,0.608276399849816,0.219923000000108,
0.138624276123047,0.591846650390625,0.0408929643554696,0.609238362254889,0.223700999999892,
0.138624276123047,0.603817658691406,0.052863972656251,0.621777335131485,0.227433999999903,
0.109893856201172,0.589452448730469,0.0169509477539069,0.599848467177224,0.231213999999909,
0.152989486083984,0.60142345703125,0.052863972656251,0.622824660016495,0.234958000000006,
0.109893856201172,0.606211860351563,0.0289219560546883,0.616770588471674,0.238690000000133,
0.117076461181641,0.589452448730469,-0.0309330854492185,0.601762364104445,0.24239099999977,
0.114682259521484,0.589452448730469,0.000191536132813752,0.600504993026194,0.246235999999953,
0.0931344445800779,0.567904633789063,0.0456813676757815,0.57730103516195,0.249957999999879,
0.129047469482422,0.565510432128906,0.0792001909179696,0.585429729743785,0.253783999999996,
0.143412679443359,0.587058247070313,0.0073741411132815,0.604366577530186,0.257769999999709,
0.124259066162109,0.584664045410156,-0.00459686718749985,0.597740322135615,0.261563999999908,
0.126653267822265,0.613394465332031,-0.00938527050781168,0.626403946070371,0.265358000000106,
0.13623007446289,0.58226984375,0.0073741411132815,0.598039448603495,0.269277999999758,
0.138624276123047,0.567904633789063,0.0217393510742188,0.584982873591062,0.273122000000058,
0.141018477783203,0.58226984375,-0.00459686718749985,0.599120616574727,0.27694799999972,
0.112288057861328,0.558327827148438,-0.0141736738281235,0.56968365215824,0.280733999999939,
0.100317049560547,0.558327827148438,-0.0237504804687489,0.567765407825561,0.284521000000041,
0.143412679443359,0.58226984375,-0.021356278808593,0.600051212989628,0.28832999999986,
0.150595284423828,0.567904633789063,0.0480755693359374,0.589496287636112,0.292136000000028,
0.205661922607422,0.613394465332031,-0.435553166015625,0.779907787457456,0.295982999999978,
0.026096798095703,0.764229169921875,0.388052205078125,0.857503225006368,0.299737999999707,
0.222421334228516,0.464953962402344,-0.224863419921874,0.562331747896732,0.303484000000026,
0.337343013916016,0.170467158203125,-0.162614176757812,0.411464131542971,0.306414000000132,
0.141018477783203,0.886333454589844,-0.765952995117187,1.17989711184088,0.309338999999909,
-0.175016141357422,0.826478413085938,1.7359877397461,1.93063477892155,0.312339000000065,
0.306218392333984,0.476924970703125,-1.02213257275391,1.16875238086102,0.315286000000015,
0.0380678063964842,0.546356818847656,0.0241335527343765,0.54821287813472,0.318298000000141,
0.222421334228516,0.608606062011719,0.306649348632813,0.716872660696678,0.321237999999994,
0.145806881103515,0.5439626171875,0.115113215820314,0.57480955796777,0.324157000000014,
0.188902510986328,0.539174213867188,-0.138672160156249,0.587897065444828,0.327148999999736,
0.243969149169922,0.541568415527344,0.00497993945312558,0.594005129809878,0.330093999999917,
-0.0529118566894533,0.718739338378906,0.184545063964844,0.743937350685837,0.333082999999988,
0.164960494384765,0.625365473632813,-0.167402580078125,0.668070029365538,0.336019999999735,
0.229603939208984,0.491290180664063,0.0600465776367187,0.545609385919169,0.338999000000058,
0.109893856201172,0.579875642089844,-0.0452982954101557,0.591932728852644,0.342102999999952,
0.17453730102539,0.584664045410156,0.0432871660156255,0.611693627714284,0.345150000000103,
0.0979228479003904,0.56311623046875,-0.0405098920898439,0.573000719471964,0.348250000000007,
0.13623007446289,0.632548078613281,-0.0716345136718743,0.651004768411511,0.35120599999982,
0.188902510986328,0.589452448730469,0.0193451494140628,0.61928392743324,0.354131999999936,
0.141018477783203,0.630153876953125,-0.0357214887695303,0.646727256635483,0.35712999999987,
0.141018477783203,0.508049592285156,-0.0333272871093744,0.528309859233647,0.36006099999986,
0.133835872802734,0.622971271972656,-0.00938527050781168,0.637254525173893,0.363108999999895,
0.0835576379394529,0.627759675292969,-0.021356278808593,0.633656199706517,0.366048999999748,
0.148201082763672,0.56311623046875,-0.00220266552734216,0.582295716698212,0.369038999999702,
0.126653267822265,0.577481440429688,-0.0476924970703116,0.593127674761182,0.371980999999778,
0.150595284423828,0.577481440429688,0.0384987626953137,0.598035039492261,0.37491399999999,
0.17453730102539,0.570298835449219,-0.0381156904296862,0.597626000957869,0.377920999999787,
0.0955286462402342,0.58226984375,-0.0692403120117184,0.594102780670669,0.380900000000111,
0.129047469482422,0.553539423828125,0.0576523759765628,0.571299343223438,0.383925999999974,
0.152989486083984,0.637336481933594,0.0073741411132815,0.655482991398625,0.386872999999923,
0.124259066162109,0.575087238769531,0.0193451494140628,0.58867638183037,0.389779999999973,
0.112288057861328,0.591846650390625,0.014556746093751,0.602580255545857,0.39278800000011,
0.124259066162109,0.60142345703125,-0.00938527050781168,0.614197503652859,0.395709999999781,
0.141018477783203,0.551145222167969,0.014556746093751,0.56908625519486,0.398724000000129,
0.162566292724609,0.596635053710938,0.0265277543945324,0.618954690264234,0.40164999999979,
0.112288057861328,0.603817658691406,0.0337103593750001,0.615094107608773,0.40457699999979,
0.152989486083984,0.541568415527344,0.00258573779296967,0.562768884702214,0.407564000000093,
0.143412679443359,0.565510432128906,-0.0237504804687489,0.583894965549663,0.410495000000083,
0.121864864501953,0.625365473632813,-0.0189620771484371,0.637410841751107,0.41350999999986,
0.152989486083984,0.536780012207031,-0.0237504804687489,0.558661480397314,0.416455999999926,
0.0859518395996092,0.594240852050781,0.00258573779296967,0.600430341518922,0.419384999999693,
0.117076461181641,0.577481440429688,-0.0141736738281235,0.58940020769707,0.422379999999976,
0.145806881103515,0.606211860351563,-0.0189620771484371,0.623788446973668,0.425320999999713,
0.148201082763672,0.565510432128906,0.00258573779296967,0.584612945305594,0.428337999999712,
0.143412679443359,0.527203205566406,0.0169509477539069,0.546623957775703,0.431267999999818,
0.107499654541016,0.567904633789063,0.0408929643554696,0.579434278705795,0.43420100000003,
0.114682259521484,0.60142345703125,0.000191536132813752,0.612259938263531,0.437211999999818,
0.188902510986328,0.560722028808594,0.0648349809570323,0.59522846622441,0.440149000000019,
0.172143099365234,0.558327827148438,0.0432871660156255,0.585864308495601,0.44315000000006,
0.138624276123047,0.567904633789063,0.00497993945312558,0.584600002400517,0.446096000000125,
0.107499654541016,0.591846650390625,0.0815943925781255,0.607038942906659,0.449004000000059,
0.129047469482422,0.608606062011719,0.0337103593750001,0.623049738324655,0.452001999999993,
0.152989486083984,0.613394465332031,0.0073741411132815,0.632228543257396,0.45493499999975,
0.102711251220703,0.575087238769531,0.0265277543945324,0.58478941087891,0.457938999999897,
0.143412679443359,0.599029255371094,-0.0165678754882812,0.616179957409981,0.460872000000109,
0.15538368774414,0.613394465332031,0.000191536132813752,0.632769229026687,0.463882999999896,
0.121864864501953,0.579875642089844,0.0480755693359374,0.594489752524097,0.466813999999886,
0.126653267822265,0.615788666992188,0.0241335527343765,0.629141606487488,0.469729999999799,
0.152989486083984,0.591846650390625,-0.021356278808593,0.611673385946613,0.472721999999976,
0.143412679443359,0.603817658691406,-0.00938527050781168,0.620685947057931,0.475666999999703,
0.126653267822265,0.565510432128906,0.0313161577148442,0.580365230549438,0.478761999999733,
0.119470662841797,0.565510432128906,0.0121625444335951,0.578120416188167,0.481799000000137,
0.121864864501953,0.613394465332031,0.0193451494140628,0.625682067911412,0.484816000000137,
0.143412679443359,0.606211860351563,-0.0333272871093744,0.623835494599415,0.487876000000142,
0.129047469482422,0.584664045410156,-0.0452982954101557,0.600447525552609,0.490812999999889,
0.13623007446289,0.594240852050781,0.0480755693359374,0.611548921837965,0.493826999999783,
0.13623007446289,0.553539423828125,0.00258573779296967,0.570062464086236,0.496748999999909,
0.148201082763672,0.591846650390625,0.0169509477539069,0.610355104132572,0.49969400000009,
0.148201082763672,0.555933625488281,0.0432871660156255,0.576974467045582,0.502680999999939,
0.119470662841797,0.577481440429688,0.0720175859375001,0.594091395329768,0.505615999999918,
0.117076461181641,0.579875642089844,0.00497993945312558,0.591597378162616,0.508624999999938,
0.13623007446289,0.570298835449219,-0.0237504804687489,0.586824914455237,0.511555999999928,
0.112288057861328,0.570298835449219,0.0600465776367187,0.584341476483474,0.514497000000119,
0.133835872802734,0.599029255371094,0.0217393510742188,0.614182944263714,0.517507000000023,
0.114682259521484,0.596635053710938,0.0361045610351578,0.608628743400398,0.520480000000134,
0.145806881103515,0.599029255371094,0.0432871660156255,0.61803679025544,0.523490999999922,
0.172143099365234,0.58226984375,0.0121625444335951,0.607304985231323,0.526419999999689,
0.117076461181641,0.596635053710938,-0.0381156904296862,0.609206936054081,0.529337999999825,
0.167354696044922,0.572693037109375,-0.0165678754882812,0.596874696682682,0.532349000000067,
0.102711251220703,0.615788666992188,0.0289219560546883,0.624965409495091,0.535299000000123,
0.0787692346191404,0.565510432128906,-0.0381156904296862,0.572240724718225,0.538290999999845,
0.141018477783203,0.599029255371094,0.0313161577148442,0.616200423239679,0.541245999999774,
0.0883460412597654,0.572693037109375,-0.0189620771484371,0.579777455692799,0.544155000000046,
0.124259066162109,0.570298835449219,0.0073741411132815,0.58372549644107,0.54716499999995,
0.133835872802734,0.567904633789063,-0.0333272871093744,0.584412886574235,0.550100999999813,
0.176931502685547,0.591846650390625,-0.0165678754882812,0.61794960046865,0.553116999999929,
0.126653267822265,0.567904633789063,0.0217393510742188,0.582262245654203,0.556062000000111,
0.176931502685547,0.548751020507813,0.0289219560546883,0.577294481779413,0.559058999999706,
0.129047469482422,0.548751020507813,0.0217393510742188,0.564139638097972,0.561991000000035,
0.109893856201172,0.587058247070313,0.0169509477539069,0.597495924432784,0.564911999999822,
0.129047469482422,0.596635053710938,0.0839885942382814,0.616182376134365,0.567903999999999,
0.150595284423828,0.594240852050781,0.0217393510742188,0.613411549713453,0.570843999999852,
0.191296712646484,0.594240852050781,0.000191536132813752,0.624272904426806,0.573841999999786,
0.124259066162109,0.608606062011719,0.0600465776367187,0.624057085310931,0.576778999999988,
0.145806881103515,0.58226984375,-0.0405098920898439,0.601613554430845,0.579678000000058,
0.102711251220703,0.608606062011719,-0.00699106884765577,0.61725182453223,0.582693999999719,
0.133835872802734,0.572693037109375,0.0792001909179696,0.593432410510138,0.585637000000133,
0.188902510986328,0.472136567382813,0.0432871660156255,0.510363474063955,0.588636999999835,
0.200873519287109,0.546356818847656,-0.200921403320311,0.615812759338683,0.591563999999835,
0.0691924279785154,0.742681354980469,0.0983538041992187,0.752354077496524,0.594489000000067,
0.0667982263183592,0.560722028808594,0.237217500488281,0.612489460454963,0.597487000000001,
0.212844527587891,0.452982954101563,-0.275141654785156,0.57113858198217,0.60042199999998,
0.167354696044922,0.6205770703125,0.00258573779296967,0.642752036578545,0.603430000000117,
0.150595284423828,0.599029255371094,0.0384987626953137,0.618867629796721,0.606367999999748,
0.124259066162109,0.58226984375,-0.0740287153320303,0.59996561331283,0.609277999999904,
0.176931502685547,0.591846650390625,-0.0764229169921862,0.622436885525563,0.61229400000002,
0.152989486083984,0.630153876953125,0.0193451494140628,0.648747968241249,0.61528700000008,
0.109893856201172,0.603817658691406,-0.00220266552734216,0.613740398143841,0.618388999999752,
0.172143099365234,0.558327827148438,-0.0357214887695303,0.585353939072145,0.621429999999691,
0.129047469482422,0.58226984375,0.0337103593750001,0.597350658030656,0.624467999999979,
0.162566292724609,0.6205770703125,0.000191536132813752,0.641516746791507,0.627478999999767,
0.0835576379394529,0.558327827148438,-0.0500866987304676,0.566763194655434,0.630409999999756,
0.105105452880859,0.575087238769531,-0.095576530273437,0.592374342422056,0.633417000000009,
0.126653267822265,0.553539423828125,-0.0405098920898439,0.569287269609256,0.636371999999938,
0.160172091064453,0.591846650390625,-0.00220266552734216,0.613141425830931,0.639313000000129,
0.160172091064453,0.579875642089844,-0.00459686718749985,0.601607837576114,0.642316999999821,
0.150595284423828,0.584664045410156,0.0121625444335951,0.603869947234636,0.645269999999982,
0.129047469482422,0.634942280273438,0.0361045610351578,0.648928723348097,0.648298000000068,
0.152989486083984,0.63973068359375,0.0265277543945324,0.658304528418866,0.651253999999881,
0.164960494384765,0.531991608886719,0.00497993945312558,0.557002546161598,0.654259999999795,
0.121864864501953,0.615788666992188,-0.0716345136718743,0.631805532695861,0.657220999999936,
0.172143099365234,0.565510432128906,0.0408929643554696,0.592543272714718,0.660195999999814,
0.15538368774414,0.589452448730469,0.0217393510742188,0.609976129956282,0.663205999999718,
0.145806881103515,0.579875642089844,0.0456813676757815,0.599668403552308,0.666143999999804,
0.164960494384765,0.60142345703125,0.0384987626953137,0.624823410336198,0.669137999999748,
0.138624276123047,0.589452448730469,-0.0668461103515625,0.609212017046708,0.672075999999834,
0.124259066162109,0.615788666992188,-0.0357214887695303,0.629215402449278,0.674995999999737,
0.138624276123047,0.591846650390625,0.0432871660156255,0.60940374650219,0.67800699999998,
0.162566292724609,0.56311623046875,-0.00699106884765577,0.586154044250477,0.680929999999989,
0.152989486083984,0.577481440429688,0.0289219560546883,0.598102897865424,0.683944999999767,
0.152989486083984,0.591846650390625,0.0768059892578137,0.616106646950604,0.686887999999726,
0.109893856201172,0.611000263671875,-0.0285388837890626,0.621459934127527,0.689813999999842,
0.117076461181641,0.579875642089844,0.0073741411132815,0.591622376190322,0.692817999999988,
0.138624276123047,0.594240852050781,0.0408929643554696,0.611564481236815,0.695762999999715,
0.167354696044922,0.594240852050781,0.0241335527343765,0.617828627454175,0.698762999999872,
0.133835872802734,0.603817658691406,0.0193451494140628,0.618774628279387,0.701697999999851,
0.121864864501953,0.589452448730469,0.0504697709960951,0.604030158434845,0.704609999999775,
0.121864864501953,0.591846650390625,0.052863972656251,0.606570772774029,0.707605000000058,
0.129047469482422,0.589452448730469,0.0169509477539069,0.603651201708336,0.710538999999699,
0.145806881103515,0.567904633789063,0.0313161577148442,0.587159281107133,0.713555999999699,
0.15538368774414,0.632548078613281,-0.0357214887695303,0.65233211398354,0.716472999999951,
0.109893856201172,0.560722028808594,0.0337103593750001,0.572382950087772,0.719399999999951,
0.117076461181641,0.589452448730469,0.0217393510742188,0.601359864359345,0.722401999999875,
0.13623007446289,0.587058247070313,-0.0141736738281235,0.602824113379034,0.725337999999738,
0.0931344445800779,0.594240852050781,-0.059663505371093,0.604446812289092,0.728336000000127,
0.105105452880859,0.589452448730469,0.0456813676757815,0.6004899107332,0.731293999999707,
0.124259066162109,0.587058247070313,0.0121625444335951,0.600187994268335,0.734206000000086,
0.133835872802734,0.596635053710938,0.0265277543945324,0.612036886076926,0.737209999999777,
0.100317049560547,0.615788666992188,-0.0692403120117184,0.627736739116031,0.740138000000115,
0.112288057861328,0.67803791015625,0.0193451494140628,0.687545089687343,0.743152999999893,
0.129047469482422,0.608606062011719,0.0600465776367187,0.625028143032865,0.746086999999989,
0.117076461181641,0.565510432128906,-0.0357214887695303,0.578606058877152,0.749073999999837,
0.162566292724609,0.572693037109375,-0.0476924970703116,0.597226664308104,0.752012999999806,
0.13623007446289,0.599029255371094,0.0863827958984373,0.620368172463613,0.755032000000028,
0.107499654541016,0.594240852050781,-0.0476924970703116,0.60576640732982,0.758124999999836,
0.133835872802734,0.603817658691406,-0.0117794721679676,0.618584320655638,0.761187999999947,
0.141018477783203,0.567904633789063,-0.00699106884765577,0.585192924768417,0.764243000000079,
0.109893856201172,0.596635053710938,0.014556746093751,0.606845899552972,0.767198000000008,
0.138624276123047,0.551145222167969,-0.0572693037109371,0.57118956485282,0.770105999999942,
0.107499654541016,0.577481440429688,-0.00220266552734216,0.587406027805818,0.773112999999739,
0.143412679443359,0.572693037109375,-0.0141736738281235,0.590546699600015,0.77608599999985,
0.150595284423828,0.584664045410156,0.00258573779296967,0.603752988999638,0.779099999999744,
0.13623007446289,0.596635053710938,-0.0429040937499998,0.613492283378794,0.782030999999733,
0.124259066162109,0.56311623046875,0.0456813676757815,0.578469525466592,0.784971999999925,
0.145806881103515,0.596635053710938,-0.0261446821289049,0.614749199509369,0.787960999999996,
0.133835872802734,0.553539423828125,0.00497993945312558,0.569510960717877,0.790946000000076,
0.0883460412597654,0.596635053710938,-0.0524809003906235,0.60541940440387,0.793933999999808,
0.141018477783203,0.608606062011719,-0.0572693037109371,0.627349442449134,0.796919999999773,
0.114682259521484,0.613394465332031,-0.0333272871093744,0.624912392911992,0.799850999999762,
0.100317049560547,0.539174213867188,0.000191536132813752,0.548427187526223,0.802871999999752,
0.133835872802734,0.558327827148438,0.0217393510742188,0.574556004931019,0.80581200000006,
0.150595284423828,0.587058247070313,0.0504697709960951,0.608164059221161,0.808821999999964,
0.138624276123047,0.596635053710938,-0.0117794721679676,0.612640868055542,0.811746999999741,
0.141018477783203,0.606211860351563,0.0792001909179696,0.627416688452449,0.814677999999731,
0.145806881103515,0.584664045410156,0.0121625444335951,0.60269363698284,0.817665999999917,
0.145806881103515,0.603817658691406,0.088776997558595,0.627484475361921,0.820616999999856,
0.105105452880859,0.575087238769531,-0.00220266552734216,0.584617259543609,0.823606999999811,
0.0955286462402342,0.596635053710938,0.0169509477539069,0.604472037565759,0.826571999999942,
0.114682259521484,0.579875642089844,0.0552581743164069,0.593684467345108,0.829475999999886,
0.112288057861328,0.577481440429688,0.00497993945312558,0.588318129735922,0.832472000000053,
0.105105452880859,0.618182868652344,-0.0117794721679676,0.627165027154008,0.835401999999704,
0.126653267822265,0.611000263671875,0.00976834277343741,0.624065535803491,0.838421999999809,
0.157777889404297,0.60142345703125,0.0265277543945324,0.622340548900287,0.841355999999905,
0.13623007446289,0.608606062011719,0.0432871660156255,0.625166978212414,0.844346999999743,
0.15538368774414,0.589452448730469,0.0384987626953137,0.610803106131906,0.847285999999713,
0.131441671142578,0.596635053710938,0.0361045610351578,0.61200803880092,0.850222000000031,
0.138624276123047,0.560722028808594,0.0361045610351578,0.57873087255598,0.853219999999965,
0.138624276123047,0.584664045410156,0.0839885942382814,0.606714776388486,0.856155999999828,
0.13623007446289,0.575087238769531,-0.0357214887695303,0.592081067205869,0.859141999999792,
0.121864864501953,0.606211860351563,-0.0740287153320303,0.622755261338427,0.862086999999974,
0.141018477783203,0.60142345703125,0.0193451494140628,0.61803771774024,0.8650090000001,
0.124259066162109,0.611000263671875,0.00258573779296967,0.623512889819059,0.868015000000014,
0.160172091064453,0.584664045410156,0.0337103593750001,0.607143749931201,0.870942000000014,
0.119470662841797,0.591846650390625,-0.0117794721679676,0.603899373093744,0.873937999999725,
0.169748897705078,0.615788666992188,-0.0165678754882812,0.638971724856663,0.876878999999917,
0.133835872802734,0.577481440429688,-0.0141736738281235,0.592956784192071,0.879798999999821,
0.179325704345703,0.58226984375,-0.0476924970703116,0.611122290099562,0.882802000000083,
0.124259066162109,0.560722028808594,0.0744117875976578,0.579125740446912,0.8857509999998,
0.138624276123047,0.577481440429688,-0.0189620771484371,0.594189417897331,0.888738999999987,
0.157777889404297,0.575087238769531,-0.0500866987304676,0.598437859739969,0.891721999999845,
0.109893856201172,0.589452448730469,0.0073741411132815,0.599654256136208,0.894754999999805,
0.129047469482422,0.625365473632813,0.0217393510742188,0.638911437037197,0.897860000000037,
0.131441671142578,0.575087238769531,-0.0548751020507812,0.592463941462602,0.900886999999784,
0.150595284423828,0.594240852050781,0.0504697709960951,0.615100258267813,0.903925999999956,
0.164960494384765,0.551145222167969,0.0121625444335951,0.575431097624507,0.906854999999723,
0.143412679443359,0.579875642089844,0.0504697709960951,0.599474899139764,0.909773999999743,
0.0883460412597654,0.553539423828125,-0.021356278808593,0.560951876173701,0.912774999999783,
0.126653267822265,0.60142345703125,-0.0117794721679676,0.61472756639184,0.91575499999999,
0.114682259521484,0.572693037109375,-0.0285388837890626,0.584759611541733,0.918754999999692,
0.124259066162109,0.570298835449219,0.00258573779296967,0.583684643688823,0.921702000000096,
0.121864864501953,0.594240852050781,0.0169509477539069,0.606844766044722,0.924610999999913,
0.179325704345703,0.58226984375,0.0217393510742188,0.609646191298576,0.927609999999731,
0.114682259521484,0.575087238769531,0.00497993945312558,0.586431711831372,0.930555999999797,
0.133835872802734,0.567904633789063,0.0289219560546883,0.58417822063989,0.933582999999999,
0.145806881103515,0.567904633789063,-0.0189620771484371,0.586630104943488,0.936525000000074,
0.126653267822265,0.584664045410156,0.0193451494140628,0.598537660512085,0.939535999999862,
0.126653267822265,0.60142345703125,-0.0237504804687489,0.615073418576982,0.942466999999851,
0.124259066162109,0.589452448730469,0.0217393510742188,0.602799389700217,0.945404000000053,
0.119470662841797,0.603817658691406,0.0408929643554696,0.616880246693965,0.948391999999785,
0.121864864501953,0.560722028808594,0.0289219560546883,0.574540440990305,0.951332000000093,
0.138624276123047,0.58226984375,0.000191536132813752,0.598543981305784,0.954310999999961,
0.133835872802734,0.567904633789063,-0.0117794721679676,0.583580731255338,0.957245999999941,
0.15538368774414,0.572693037109375,-0.00459686718749985,0.593415989301323,0.960170999999718,
0.107499654541016,0.572693037109375,0.014556746093751,0.582876821752963,0.963201000000026,
0.17453730102539,0.553539423828125,0.0552581743164069,0.583028840633105,0.96613699999989,
0.13623007446289,0.60142345703125,0.00976834277343741,0.616736757763086,0.969141000000036,
0.150595284423828,0.596635053710938,0.0193451494140628,0.615651331366383,0.972080000000005,
0.114682259521484,0.615788666992188,-0.0117794721679676,0.626487397326973,0.974991000000045,
0.109893856201172,0.60142345703125,0.014556746093751,0.611554358299425,0.977994999999737,
0.184114107666015,0.575087238769531,0.0241335527343765,0.604322567181468,0.980935000000045,
0.138624276123047,0.56311623046875,0.0193451494140628,0.580250647353215,0.983925999999883,
0.0979228479003904,0.596635053710938,-0.0165678754882812,0.604844414668575,0.986867000000075,
0.145806881103515,0.613394465332031,-0.0548751020507812,0.632869412677044,0.989799999999832,
0.126653267822265,0.599029255371094,0.0265277543945324,0.61284649039847,0.992817999999716,
0.131441671142578,0.555933625488281,-0.0117794721679676,0.57138241557284,0.995746999999938,
0.152989486083984,0.575087238769531,0.0720175859375001,0.599431103407281,0.998767999999927,
0.172143099365234,0.611000263671875,0.0432871660156255,0.63626122591891,1.00169800000003,
0.160172091064453,0.591846650390625,0.014556746093751,0.613310243833739,1.00461099999984,
0.157777889404297,0.553539423828125,0.0241335527343765,0.576092166657758,1.007611,
0.141018477783203,0.579875642089844,-0.0357214887695303,0.597844458137158,1.01053300000012,
