X,Y,Z,Magnitude,Seconds,
-0.00502782348632835,0.153707746582031,0.014556746093751,0.154477342109364,0.0,
-0.0122104284667971,0.175255561523438,0.00976834277343741,0.175951774440548,0.00369000000000597,
0.0308852014160155,0.156101948242188,0.000191536132813752,0.159128094934881,0.00759199999993143,
-0.000239420166015747,0.184832368164063,0.0121625444335951,0.185232257261662,0.0114559999997255,
-0.0289698400878908,0.201591779785156,-0.0237504804687489,0.205042879988946,0.0151739999996607,
0.0213083947753905,0.124977326660156,0.0384987626953137,0.132497300335114,0.0189449999998033,
0.0332794030761717,0.129765729980469,0.0672291826171882,0.149888046027178,0.0227369999997791,
0.016519991455078,0.158496149902344,0.0504697709960951,0.167156027219901,0.0265599999997903,
0.006943184814453,0.170467158203125,0.0432871660156255,0.176014313573872,0.0303579999999783,
-0.000239420166015747,0.175255561523438,0.0217393510742188,0.176598891706713,0.0340889999997671,
0.0117315881347655,0.170467158203125,0.00976834277343741,0.171149357891148,0.03784399999995,
0.00454898315429675,0.146525141601563,0.0504697709960951,0.155040343631889,0.0416289999998298,
-0.0265756384277346,0.18004396484375,0.0552581743164069,0.190198737280986,0.0453749999996944,
-0.0457292517089846,0.144130939941406,0.0073741411132815,0.15139111687089,0.0492059999996854,
0.00933738647460924,0.172861359863281,0.0265277543945324,0.175134115103756,0.0529759999999442,
-0.0074220251464846,0.144130939941406,-0.0405098920898439,0.149899518554261,0.0566839999996773,
-0.0361524450683596,0.14173673828125,0.0241335527343765,0.148252253374481,0.0604369999996379,
-0.00981622680664085,0.165678754882813,-0.0261446821289049,0.168015929399149,0.0641809999997349,
-0.0289698400878908,0.124977326660156,-0.0381156904296862,0.133833440031888,0.0679129999998622,
0.0189141931152342,0.172861359863281,0.0169509477539069,0.174717288969177,0.0717349999999897,
-0.00263362182617211,0.163284553222656,0.00976834277343741,0.163597682763495,0.0755269999999655,
0.0189141931152342,0.215956989746094,0.0121625444335951,0.217124608482074,0.079529999999977,
-0.00981622680664085,0.18004396484375,0.0217393510742188,0.181617143933344,0.083346999999776,
0.0213083947753905,0.108217915039063,0.0408929643554696,0.117632475775541,0.0871829999996407,
0.0548272180175779,0.105823713378906,-0.021356278808593,0.121081678190378,0.0909849999998187,
-0.00502782348632835,0.122583125,-0.059663505371093,0.136424467808901,0.0948379999999815,
-0.0553060583496096,0.113006318359375,0.0217393510742188,0.127678453407139,0.0987139999997453,
0.0308852014160155,0.124977326660156,0.0193451494140628,0.130182420669919,0.102507999999943,
0.00454898315429675,0.184832368164063,0.0361045610351578,0.188380564009175,0.106277999999747,
-0.0289698400878908,0.21835119140625,0.0265277543945324,0.221856296229031,0.110046999999668,
-0.0193930334472658,0.139342536621094,0.0289219560546883,0.143627684658345,0.113816999999926,
-0.00981622680664085,0.1608903515625,0.0265277543945324,0.163357844280098,0.117583999999624,
-0.0337582434082033,0.151313544921875,0.0815943925781255,0.175194328604053,0.121439000000009,
0.026096798095703,0.144130939941406,0.0696233842773442,0.16217948809104,0.125186999999642,
0.006943184814453,0.129765729980469,0.014556746093751,0.130764105738423,0.128897999999936,
0.016519991455078,0.158496149902344,0.00497993945312558,0.15943255454423,0.132627999999841,
-0.00502782348632835,0.14173673828125,-0.0405098920898439,0.147497909628401,0.136305999999877,
-0.00263362182617211,0.211168586425781,0.0815943925781255,0.226399542307795,0.140058999999837,
0.13623007446289,-0.0450109912109375,-0.129095353515625,0.193003193800724,0.143869999999879,
-0.0768538732910158,0.0770932934570313,-0.105153336914062,0.151350976211076,0.147701999999754,
-0.0265756384277346,0.223139594726563,0.0792001909179696,0.238265006943989,0.151674999999614,
-0.0337582434082033,0.304542451171875,0.0624407792968764,0.312705251767511,0.155414999999721,
0.0380678063964842,0.271023627929688,0.0911711992187509,0.288470366497141,0.159192999999959,
0.0620098229980467,0.187226569824219,-0.0285388837890626,0.199282398832204,0.162946999999804,
-0.0505176550292971,0.101035310058594,0.00976834277343741,0.113382484841507,0.166738999999779,
-0.0457292517089846,0.0507570751953125,-0.0836055219726557,0.1079691087699,0.170624999999745,
-0.0409408483886721,0.134554133300781,0.0911711992187509,0.167610129234763,0.174383999999918,
0.0141257897949217,0.14173673828125,-0.00459686718749985,0.14251305941519,0.178132000000005,
0.0524330163574217,0.0699106884765625,-0.0764229169921862,0.1160912908413,0.181901999999809,
0.026096798095703,0.0292092602539062,-0.0189620771484371,0.0435176300504933,0.185688999999911,
-0.0122104284667971,0.0244208569335937,-0.0309330854492185,0.0412592849201543,0.18939999999975,
-0.129526309814453,0.29496564453125,0.0073741411132815,0.322236208929171,0.19318099999964,
0.006943184814453,0.215956989746094,0.1486320390625,0.262253908019382,0.196935999999823,
0.0548272180175779,0.225533796386719,-0.0309330854492185,0.234154591933538,0.200631999999587,
-0.0169988317871096,0.21835119140625,0.0384987626953137,0.222369867112712,0.204345999999987,
-0.0720654699707033,0.117794721679687,-0.0189620771484371,0.139386472756422,0.208024999999907,
-0.0864306799316408,0.189620771484375,0.0504697709960951,0.214414312013386,0.211729999999989,
-0.0361524450683596,0.115400520019531,0.0241335527343765,0.123315480264166,0.215509999999995,
0.0548272180175779,0.165678754882813,0.0624407792968764,0.185349196314058,0.219461999999567,
0.0620098229980467,0.120188923339844,0.0169509477539069,0.136300880670653,0.223307999999633,
-0.000239420166015747,0.132159931640625,-0.0405098920898439,0.138229360884008,0.226988999999776,
-0.0505176550292971,0.192014973144531,0.0361045610351578,0.201805160263298,0.230792999999721,
-0.0217872351074221,0.184832368164063,-0.021356278808593,0.18733333547266,0.234542999999576,
0.0213083947753905,0.134554133300781,0.00258573779296967,0.136255453161194,0.238360999999713,
0.0883460412597654,-0.0378283862304688,-0.0716345136718743,0.119864562569926,0.24229299999979,
-0.0409408483886721,0.158496149902344,-0.143460563476562,0.217665146207801,0.246040999999877,
-0.0457292517089846,0.132159931640625,0.0792001909179696,0.160717398667852,0.249765999999909,
-0.0122104284667971,0.266235224609375,0.00976834277343741,0.266694038003639,0.253524999999627,
0.0548272180175779,0.230322199707031,-0.0309330854492185,0.238770172527561,0.25727999999981,
0.0237025964355467,0.163284553222656,0.0648349809570323,0.17727727760378,0.261017999999694,
-0.0553060583496096,0.132159931640625,-0.0644519086914048,0.157095691078369,0.264785999999731,
-0.0169988317871096,0.045968671875,-0.00699106884765577,0.0495071118094211,0.268520999999964,
-0.00981622680664085,0.132159931640625,0.0408929643554696,0.138689726994294,0.272236999999677,
-0.0217872351074221,0.182438166503906,0.0337103593750001,0.18680138259693,0.275948999999855,
-0.0074220251464846,0.225533796386719,0.0432871660156255,0.229770229820021,0.279656999999588,
-0.0074220251464846,0.187226569824219,0.0648349809570323,0.198273673646092,0.283386999999948,
0.0117315881347655,0.163284553222656,0.0815943925781255,0.182912876478064,0.287190999999893,
0.0237025964355467,0.134554133300781,-0.0836055219726557,0.160176500056753,0.291263999999956,
-0.0265756384277346,0.282994636230469,0.196516072265625,0.345558671359533,0.295081999999638,
-0.124737906494141,1.6548721875,0.172574055664063,1.66851530018934,0.298914999999852,
-0.634702860107422,-1.24690022460938,-1.05086299267578,1.74983454078806,0.30256799999961,
0.488177718505859,0.699585725097656,7.78613533496094,7.83272884287036,0.305549999999585,
0.947864437255859,-0.224576115722656,-1.91038138867187,2.1443969952766,0.308478999999807,
0.102711251220703,0.055545478515625,-3.24395171337891,3.24605262126861,0.311534999999822,
-0.866940421142578,0.718739338378906,-2.07797550488281,2.36350462856268,0.314496999999847,
-0.445560928955078,0.462559760742188,0.768730269042969,1.00171468004221,0.317505999999867,
-0.26599580444336,0.25665841796875,1.8892166459961,1.9250368430252,0.32042999999976,
-0.299514627685547,0.18004396484375,1.23320539111328,1.28176455643973,0.323359999999866,
-0.641885465087891,0.632548078613281,-0.440341569335937,1.00301282132069,0.326350999999704,
-0.447955130615235,0.539174213867188,-0.880874674804687,1.12574989436201,0.32926899999984,
0.0739808312988279,0.163284553222656,0.242005903808595,0.301167505217616,0.332271999999648,
0.339737215576172,-0.08810662109375,0.337773970214844,0.487109235472605,0.335241999999653,
0.25115175415039,0.0387860668945312,-0.00938527050781168,0.254302272700167,0.338132999999743,
0.196085115966797,0.055545478515625,-0.160219975097656,0.259239490254736,0.341168999999809,
0.25115175415039,-0.0378283862304688,-0.102759135253905,0.273984726391363,0.34412999999995,
0.167354696044922,-0.181480485839844,-0.11233594189453,0.271223385551993,0.347168999999667,
-0.0912190832519533,0.0411802685546875,0.162997249023439,0.191271636310175,0.350103999999646,
-0.206140762939453,0.017238251953125,-0.117124345214844,0.237716814124843,0.353009999999813,
-0.24684219116211,0.146525141601563,-0.0788171186523439,0.297679059813966,0.355995999999777,
-0.122343704833985,0.225533796386719,0.0241335527343765,0.257712832029556,0.358919999999671,
-0.0193930334472658,0.309330854492188,0.1486320390625,0.343734127376131,0.361915999999837,
0.0763750329589842,0.302148249511719,0.0504697709960951,0.315711748477753,0.364854999999807,
0.112288057861328,0.215956989746094,0.0073741411132815,0.243516749558674,0.367859999999837,
0.112288057861328,0.261446821289062,0.0361045610351578,0.286821525740251,0.370774999999867,
-0.0385466467285158,0.2375048046875,-0.0261446821289049,0.242028759917664,0.373685999999907,
-0.0457292517089846,0.124977326660156,0.0839885942382814,0.157367660601236,0.376682999999957,
0.0476446130371092,0.0531512768554687,-0.0357214887695303,0.079819121410438,0.379633000000013,
0.0237025964355467,0.0411802685546875,-0.0429040937499998,0.0640186602213085,0.382617999999638,
-0.00502782348632835,0.00287304199218749,-0.0189620771484371,0.0198265919684102,0.385557999999946,
-0.0624886633300783,0.110612116699219,0.0384987626953137,0.132747987308778,0.388466999999764,
-0.0241814367675783,0.148919343261719,0.0648349809570323,0.164211106315452,0.391471999999794,
-0.0217872351074221,0.211168586425781,0.0648349809570323,0.221969435423861,0.394408999999996,
-0.0217872351074221,0.215956989746094,0.0169509477539069,0.217714123711752,0.397416999999678,
0.0141257897949217,0.225533796386719,0.0361045610351578,0.228841802513172,0.400358999999753,
0.026096798095703,0.18004396484375,0.0384987626953137,0.185954367726535,0.403276999999889,
-0.0169988317871096,0.187226569824219,0.0576523759765628,0.1966381071563,0.406271999999717,
-0.00981622680664085,0.139342536621094,0.0456813676757815,0.146967643287392,0.40930199999957,
-0.0265756384277346,0.151313544921875,0.0193451494140628,0.154842785561738,0.412413999999899,
-0.0505176550292971,0.108217915039063,0.0815943925781255,0.144640227824952,0.415462999999818,
-0.0265756384277346,0.101035310058594,0.0576523759765628,0.119323907462926,0.418413999999757,
-0.0074220251464846,0.113006318359375,-0.0452982954101557,0.12197315283898,0.421407999999701,
-0.0840364782714846,0.280600434570313,0.0456813676757815,0.296454922229421,0.424342999999681,
0.00454898315429675,0.151313544921875,0.107930610839844,0.185917989664325,0.427345999999943,
0.045250411376953,0.115400520019531,0.00497993945312558,0.124055147202841,0.430325999999695,
0.0524330163574217,0.117794721679687,0.0576523759765628,0.141239562855723,0.433238999999958,
0.0021547814941405,0.10342951171875,-0.0572693037109371,0.118245846122399,0.4362229999997,
-0.0265756384277346,0.117794721679687,-0.0644519086914048,0.136879178648186,0.439161999999669,
-0.0864306799316408,0.120188923339844,-0.0572693037109371,0.158730629919282,0.442137000000002,
-0.0792480749511721,0.168072956542969,-0.0165678754882812,0.186556346991349,0.445088999999825,
-0.0169988317871096,0.184832368164063,0.0337103593750001,0.188648755448992,0.448016999999709,
0.0141257897949217,0.170467158203125,0.0935654008789069,0.194969418639976,0.451051999999891,
0.0572214196777342,0.146525141601563,-0.0141736738281235,0.157939232051696,0.453978000000006,
0.0117315881347655,0.170467158203125,0.0696233842773442,0.184510427413314,0.456996999999774,
-0.00502782348632835,0.170467158203125,0.0217393510742188,0.171921291351557,0.459923999999774,
-0.0433350500488283,0.108217915039063,0.0241335527343765,0.119043992144581,0.46291199999996,
-0.0577002600097658,0.153707746582031,0.014556746093751,0.164825029110747,0.46583899999996,
-0.0217872351074221,0.168072956542969,-0.0476924970703116,0.176061854504383,0.468733999999586,
0.0141257897949217,0.132159931640625,-0.0165678754882812,0.133941330315852,0.471726999999646,
0.0021547814941405,0.165678754882813,0.00976834277343741,0.165980460968591,0.474682999999914,
0.0308852014160155,0.146525141601563,-0.0476924970703116,0.157156250479157,0.477664000000004,
0.0213083947753905,0.158496149902344,0.014556746093751,0.16058323722795,0.480632999999671,
-0.0241814367675783,0.175255561523438,0.0169509477539069,0.177726161154726,0.483532999999625,
-0.0457292517089846,0.172861359863281,-0.0476924970703116,0.185058878394008,0.486525999999685,
-0.069671268310547,0.244687409667969,0.0600465776367187,0.261403147578416,0.489460999999665,
0.00933738647460924,0.165678754882813,0.0552581743164069,0.174900264249308,0.492476999999781,
0.0524330163574217,0.117794721679687,-0.0572693037109371,0.141083630543973,0.495409999999993,
0.0332794030761717,0.0986411083984375,-0.021356278808593,0.106271715803072,0.49833499999977,
0.0021547814941405,0.101035310058594,-0.00699106884765577,0.101299812465554,0.50134399999979,
-0.00981622680664085,0.172861359863281,0.0408929643554696,0.177903464205394,0.504285999999865,
-0.0385466467285158,0.163284553222656,-0.0668461103515625,0.180599257374632,0.507268999999724,
-0.0074220251464846,0.194409174804688,-0.00459686718749985,0.194605099864968,0.510200999999597,
0.0117315881347655,0.182438166503906,0.0384987626953137,0.186824702559755,0.513118999999733,
-0.0241814367675783,0.225533796386719,0.0361045610351578,0.229681898556007,0.516105999999581,
-0.0241814367675783,0.134554133300781,0.0313161577148442,0.140250698417119,0.519024999999601,
0.026096798095703,0.175255561523438,-0.0141736738281235,0.177753896569187,0.522039999999834,
-0.00981622680664085,0.0890643017578125,0.0456813676757815,0.100576316839781,0.524974999999813,
-0.00981622680664085,0.139342536621094,0.0384987626953137,0.14489601633513,0.52786900000001,
-0.0122104284667971,0.170467158203125,0.0456813676757815,0.176903742023514,0.53088600000001,
-0.0409408483886721,0.184832368164063,0.0648349809570323,0.200106801842462,0.533809999999903,
-0.0193930334472658,0.187226569824219,-0.0309330854492185,0.190753070669488,0.536792999999761,
-0.0217872351074221,0.187226569824219,0.0408929643554696,0.192874846974785,0.539737999999943,
-0.0193930334472658,0.144130939941406,-0.0237504804687489,0.147356380646297,0.542623999999705,
-0.100795889892578,0.481713374023438,-0.0620577070312489,0.496043087981535,0.545682999999826,
-0.232476981201172,0.354820686035156,-0.337390897949218,0.542010963031052,0.548697999999604,
-0.225294376220703,0.223139594726563,-0.655819718749999,0.72845613333456,0.551789999999983,
-0.0193930334472658,-0.112048637695313,2.25313529833985,2.2560030273873,0.554819999999836,
0.413957467041016,-0.169509477539063,0.620289766113283,0.76475724346975,0.557850999999573,
0.102711251220703,0.101035310058594,-2.02769727001953,2.03280937469567,0.560771999999815,
-0.0241814367675783,0.223139594726563,-0.677367533691406,0.713584470345352,0.563677999999982,
0.25115175415039,-0.0354341845703125,1.02969825,1.06047690738745,0.566730999999891,
0.241574947509765,-0.0450109912109375,0.28988993701172,0.380027130840413,0.569714999999633,
-0.134314713134766,0.261446821289062,-0.34936190625,0.456561741788844,0.572672999999668,
-0.373734879150391,0.383551105957031,-0.0883939252929675,0.542773154092129,0.575608999999986,
-0.146285721435547,0.232716401367187,0.129478425781251,0.303843871921096,0.578540999999859,
-0.0193930334472658,0.158496149902344,0.146237837402344,0.216523957954466,0.581565999999839,
-0.110372696533203,0.271023627929688,-0.0764229169921862,0.302450659245066,0.584486999999626,
0.0332794030761717,0.18004396484375,0.00497993945312558,0.183161534560946,0.587536,
0.203267720947266,0.0292092602539062,0.0504697709960951,0.211466652330986,0.590516999999636,
0.143412679443359,0.000478840332031241,-0.0117794721679676,0.143896427605911,0.593433000000005,
0.0380678063964842,0.146525141601563,-0.0429040937499998,0.157351632548591,0.596444999999676,
-0.0217872351074221,0.134554133300781,0.0456813676757815,0.143757732851768,0.599386999999751,
-0.0193930334472658,0.136948334960938,0.0217393510742188,0.140012626501998,0.602375999999822,
-0.119949503173828,0.175255561523438,0.0384987626953137,0.215834542846167,0.605322999999771,
-0.0936132849121096,0.213562788085938,-0.0189620771484371,0.233948866073033,0.608210999999756,
0.035673604736328,0.132159931640625,0.105536409179688,0.17284903027984,0.611214999999902,
0.0237025964355467,0.196803376464844,0.0217393510742188,0.199414095416742,0.614154999999755,
0.026096798095703,0.148919343261719,-0.00938527050781168,0.151479691611959,0.617168999999649,
0.0284909997558592,0.110612116699219,-0.0165678754882812,0.115417814595344,0.620102999999744,
-0.000239420166015747,0.127371528320313,-0.00220266552734216,0.127390797485899,0.622996999999941,
-0.0648828649902345,0.153707746582031,-0.0189620771484371,0.167914912674397,0.625984999999673,
-0.0313640417480471,0.1608903515625,0.0480755693359374,0.170823501625662,0.628931999999622,
-0.0577002600097658,0.110612116699219,0.000191536132813752,0.124757352697011,0.631919999999809,
-0.0217872351074221,0.148919343261719,0.00497993945312558,0.150587032005032,0.634855999999672,
-0.000239420166015747,0.163284553222656,0.0408929643554696,0.168327470060344,0.637751999999637,
0.0284909997558592,0.199197578125,0.014556746093751,0.201750615996065,0.640762999999879,
0.0213083947753905,0.201591779785156,0.0217393510742188,0.203877151122873,0.643709999999828,
-0.0289698400878908,0.165678754882813,0.0265277543945324,0.170271615977102,0.646702000000005,
-0.0313640417480471,0.170467158203125,0.0600465776367187,0.183434856629009,0.649629000000004,
-0.0193930334472658,0.120188923339844,0.000191536132813752,0.12174359829563,0.652620999999726,
-0.0169988317871096,0.110612116699219,0.0959596025390628,0.147418607924044,0.655551999999716,
0.026096798095703,0.151313544921875,0.00497993945312558,0.153628225091059,0.658479999999599,
0.006943184814453,0.1608903515625,-0.00459686718749985,0.161105692727514,0.66147699999965,
0.0237025964355467,0.192014973144531,0.0480755693359374,0.199356021620758,0.664430999999695,
-0.0241814367675783,0.203985981445313,-0.00459686718749985,0.205465699566354,0.667399999999816,
-0.0529118566894533,0.203985981445313,-0.00699106884765577,0.210852603133481,0.670326999999816,
-0.115161099853516,0.278206232910156,0.00976834277343741,0.301257709395247,0.673229999999876,
-0.069671268310547,0.165678754882813,0.0863827958984373,0.199412945604718,0.676232999999684,
0.006943184814453,0.0387860668945312,0.172574055664063,0.177015173046995,0.679156999999577,
0.133835872802734,-0.0258573779296875,0.222852290527344,0.261235120601255,0.682207999999719,
0.0739808312988279,0.0723048901367187,-0.282324259765625,0.300679477499807,0.685227999999825,
0.0691924279785154,0.129765729980469,-0.220075016601562,0.264688023338994,0.68825599999991,
0.0548272180175779,0.14173673828125,0.11750741748047,0.192102368483796,0.691371999999774,
-0.0193930334472658,0.211168586425781,-0.0381156904296862,0.215455488433878,0.694342999999662,
-0.0912190832519533,0.29496564453125,-0.0309330854492185,0.310294228722468,0.697327999999743,
-0.141497318115235,0.259052619628906,0.0720175859375001,0.303835948259366,0.700244999999995,
-0.0313640417480471,0.196803376464844,0.052863972656251,0.206179222298798,0.703164999999899,
0.0308852014160155,0.168072956542969,0.0504697709960951,0.178184208537123,0.706232,
0.0548272180175779,0.0962469067382813,-0.0237504804687489,0.113285375114049,0.709148999999798,
0.0308852014160155,0.0339976635742187,-0.0644519086914048,0.0791440795573414,0.712167999999565,
-0.0457292517089846,0.0244208569335937,0.00497993945312558,0.0520801546867088,0.715150999999878,
-0.0265756384277346,0.120188923339844,-0.0117794721679676,0.12365434814833,0.71804899999961,
-0.069671268310547,0.189620771484375,-0.0644519086914048,0.212047568107477,0.721051999999872,
-0.0337582434082033,0.148919343261719,0.0456813676757815,0.159384369209277,0.723997999999938,
-0.00263362182617211,0.177649763183594,0.0121625444335951,0.178085097103069,0.727023999999801,
-0.0146046301269533,0.2375048046875,0.0217393510742188,0.238944401181364,0.729962999999771,
-0.0146046301269533,0.194409174804688,0.0241335527343765,0.196445032609551,0.732866999999715,
-0.0146046301269533,0.175255561523438,0.014556746093751,0.176464460792757,0.735867999999755,
-0.0313640417480471,0.151313544921875,-0.0333272871093744,0.158082889832101,0.738777999999911,
-0.0193930334472658,0.129765729980469,0.00976834277343741,0.131569962165344,0.741774999999961,
0.0117315881347655,0.101035310058594,0.00976834277343741,0.102182114674435,0.744721999999911,
-0.0217872351074221,0.105823713378906,-0.00699106884765577,0.108269187539944,0.747684999999819,
-0.0146046301269533,0.158496149902344,0.0815943925781255,0.178862991295585,0.750620999999683,
0.0021547814941405,0.136948334960938,0.0193451494140628,0.138324706172517,0.753547999999682,
0.0644040246582029,0.122583125,0.000191536132813752,0.138472154648616,0.756572999999662,
0.0141257897949217,0.168072956542969,0.00976834277343741,0.168948149380111,0.75951699999996,
-0.0217872351074221,0.194409174804688,0.0600465776367187,0.204634313710453,0.762490999999955,
-0.0624886633300783,0.187226569824219,0.0169509477539069,0.198105921473031,0.765426999999818,
-0.0265756384277346,0.184832368164063,-0.00938527050781168,0.186968853506358,0.768323999999666,
-0.00263362182617211,0.14173673828125,0.0384987626953137,0.146895859953917,0.7713219999996,
0.00933738647460924,0.120188923339844,0.0241335527343765,0.122943045542845,0.774270999999771,
-0.000239420166015747,0.127371528320313,0.0384987626953137,0.133062835824802,0.777255999999852,
0.0189141931152342,0.127371528320313,0.0480755693359374,0.13745003926819,0.780202999999801,
-0.0122104284667971,0.110612116699219,-0.0405098920898439,0.118427979300312,0.783113999999841,
-0.0481234533691408,0.151313544921875,0.0408929643554696,0.163963075644408,0.786110999999892,
-0.0146046301269533,0.163284553222656,0.0552581743164069,0.172998862340334,0.789052999999967,
-0.0624886633300783,0.182438166503906,-0.0285388837890626,0.194943544468681,0.79202499999974,
-0.00263362182617211,0.153707746582031,0.0313161577148442,0.156887568204974,0.794962999999825,
-0.000239420166015747,0.151313544921875,0.00497993945312558,0.151395660425908,0.797865000000002,
0.026096798095703,0.148919343261719,0.0289219560546883,0.153930156923128,0.800871999999799,
-0.0313640417480471,0.151313544921875,0.0073741411132815,0.154705752797871,0.803791999999703,
0.0021547814941405,0.148919343261719,0.0121625444335951,0.149430724310258,0.806812999999693,
-0.0385466467285158,0.18004396484375,-0.0189620771484371,0.185097902798637,0.809711999999763,
-0.0672770666503908,0.208774384765625,0.0408929643554696,0.223125932973117,0.812629000000015,
0.0332794030761717,0.175255561523438,0.0289219560546883,0.180716656830606,0.815636999999697,
0.0332794030761717,0.163284553222656,-0.0405098920898439,0.171494651075069,0.818573000000015,
-0.0074220251464846,0.153707746582031,-0.0548751020507812,0.163378195123109,0.821608999999626,
-0.0074220251464846,0.110612116699219,-0.0237504804687489,0.113376417920364,0.824633999999605,
-0.00502782348632835,0.175255561523438,0.0169509477539069,0.176145182970358,0.827656999999817,
-0.0385466467285158,0.168072956542969,0.0265277543945324,0.174465138203379,0.830746999999974,
-0.00263362182617211,0.151313544921875,0.0073741411132815,0.151516014988206,0.833685999999943,
-0.0146046301269533,0.163284553222656,-0.0165678754882812,0.164771463064642,0.836670999999569,
-0.00502782348632835,0.203985981445313,0.0576523759765628,0.212036214102592,0.839617999999973,
-0.0074220251464846,0.153707746582031,0.0361045610351578,0.158065483721597,0.842630999999983,
-0.0074220251464846,0.144130939941406,0.0863827958984373,0.168198697179554,0.84556799999973,
0.0141257897949217,0.156101948242188,0.0265277543945324,0.158968795477457,0.848516999999902,
-0.0577002600097658,0.139342536621094,-0.00938527050781168,0.151108390963905,0.851478999999927,
0.0021547814941405,0.14173673828125,0.0289219560546883,0.144673513830018,0.854434999999739,
0.0213083947753905,0.153707746582031,0.0456813676757815,0.161761881789128,0.857438999999886,
-0.00502782348632835,0.148919343261719,0.000191536132813752,0.149004317026727,0.860387999999602,
0.0237025964355467,0.136948334960938,0.000191536132813752,0.138984517887604,0.8633319999999,
-0.00263362182617211,0.134554133300781,0.0121625444335951,0.135128376884157,0.866350999999668,
-0.00263362182617211,0.120188923339844,0.0241335527343765,0.122616237200042,0.869294999999966,
0.0284909997558592,0.132159931640625,0.0624407792968764,0.148918889055567,0.8722929999999,
-0.00981622680664085,0.187226569824219,-0.0261446821289049,0.189297890005367,0.875209999999697,
-0.0122104284667971,0.144130939941406,-0.00699106884765577,0.144816081480506,0.878101999999672,
0.016519991455078,0.132159931640625,0.0289219560546883,0.136292469311257,0.881106999999702,
-0.00502782348632835,0.14173673828125,0.0073741411132815,0.142017463520427,0.884026999999605,
-0.000239420166015747,0.165678754882813,0.0073741411132815,0.16584295311738,0.887031999999635,
0.0189141931152342,0.14173673828125,0.0863827958984373,0.167059980566978,0.889968999999837,
0.00933738647460924,0.134554133300781,0.0169509477539069,0.135938722240046,0.892889999999625,
0.0021547814941405,0.146525141601563,0.0337103593750001,0.150368376109597,0.895902999999635,
-0.0600944616699221,0.196803376464844,0.0073741411132815,0.205906025333207,0.898811999999907,
0.0404620080566405,0.151313544921875,0.014556746093751,0.157304996200495,0.901832999999897,
-0.0122104284667971,0.148919343261719,0.0384987626953137,0.154299125369895,0.904748999999811,
0.0189141931152342,0.172861359863281,0.014556746093751,0.174501275903132,0.907681999999568,
-0.0169988317871096,0.1608903515625,0.0337103593750001,0.165260563466373,0.910667999999987,
-0.0241814367675783,0.172861359863281,-0.0141736738281235,0.175119058493681,0.913594999999987,
0.0117315881347655,0.120188923339844,0.0456813676757815,0.129111559538581,0.91660899999988,
0.016519991455078,0.203985981445313,0.0408929643554696,0.208699365781645,0.919561999999587,
0.0117315881347655,0.146525141601563,-0.0165678754882812,0.147924784196959,0.92246299999988,
-0.0265756384277346,0.14173673828125,0.0432871660156255,0.150563429418015,0.925458999999591,
0.006943184814453,0.136948334960938,-0.0500866987304676,0.145985381643702,0.928394999999909,
-0.0265756384277346,0.153707746582031,0.0073741411132815,0.156162459875369,0.931420999999773,
0.00933738647460924,0.170467158203125,0.00258573779296967,0.170742276112155,0.934358999999858,
-0.0074220251464846,0.14173673828125,0.00976834277343741,0.142266686038658,0.937321999999767,
-0.0241814367675783,0.148919343261719,0.0504697709960951,0.15908774455012,0.940259999999853,
0.006943184814453,0.1608903515625,0.0313161577148442,0.16405674254749,0.943190999999842,
-0.0122104284667971,0.144130939941406,0.0600465776367187,0.156615496990619,0.946159999999963,
-0.000239420166015747,0.158496149902344,0.0432871660156255,0.164301143019598,0.949105999999574,
0.0117315881347655,0.117794721679687,-0.0907881269531234,0.149183479686644,0.952093999999761,
-0.0265756384277346,0.1608903515625,0.014556746093751,0.163718870752838,0.955035999999836,
-0.00502782348632835,0.146525141601563,0.0217393510742188,0.14821435664434,0.957935999999791,
-0.0146046301269533,0.132159931640625,-0.0189620771484371,0.134309728322944,0.961008999999649,
0.00454898315429675,0.139342536621094,0.0217393510742188,0.141101506529403,0.964052999999694,
-0.0169988317871096,0.172861359863281,-0.0237504804687489,0.175311423867373,0.967148999999608,
-0.00981622680664085,0.163284553222656,0.0193451494140628,0.164719271597753,0.970143999999891,
0.0021547814941405,0.14173673828125,-0.0189620771484371,0.14301575588612,0.973052999999709,
-0.0289698400878908,0.148919343261719,0.0384987626953137,0.156519574371034,0.976068999999825,
-0.000239420166015747,0.182438166503906,-0.0237504804687489,0.183977790077551,0.978982999999971,
-0.000239420166015747,0.177649763183594,0.0241335527343765,0.179281689106238,0.982011999999941,
0.00933738647460924,0.153707746582031,0.000191536132813752,0.153991216735216,0.984956999999667,
-0.0169988317871096,0.117794721679687,0.014556746093751,0.119901858178093,0.987843999999768,
-0.0122104284667971,0.187226569824219,-0.0548751020507812,0.19548442351392,0.990845999999692,
-0.0577002600097658,0.14173673828125,-0.00459686718749985,0.153100470841019,0.993745999999646,
-0.00263362182617211,0.144130939941406,0.0768059892578137,0.163339596541035,0.996770999999626,
-0.0409408483886721,0.163284553222656,0.0480755693359374,0.175069297008017,0.999711999999818,
-0.000239420166015747,0.172861359863281,0.00497993945312558,0.172933243920177,1.00267199999962,
-0.0241814367675783,0.156101948242188,0.0313161577148442,0.161038075818025,1.00566799999979,
-0.0265756384277346,0.175255561523438,-0.00220266552734216,0.177272750692718,1.00859499999979,
