X,Y,Z,Magnitude,Seconds,
0.0213083947753905,0.172861359863281,0.00497993945312558,0.174240917176889,0.0,
0.0117315881347655,0.151313544921875,-0.0309330854492185,0.154887942759909,0.00373499999977867,
0.00933738647460924,0.196803376464844,-0.0189620771484371,0.197935131151402,0.00757999999996173,
-0.0337582434082033,0.215956989746094,0.0600465776367187,0.226677374045326,0.0114019999996344,
-0.0074220251464846,0.158496149902344,0.0863827958984373,0.180660187696051,0.0153999999997723,
0.0117315881347655,0.151313544921875,0.052863972656251,0.160710978598193,0.0192349999997532,
-0.0074220251464846,0.115400520019531,0.00497993945312558,0.115746128553011,0.0230509999996684,
-0.0289698400878908,0.105823713378906,0.0121625444335951,0.110389480636146,0.026850999999624,
-0.0337582434082033,0.206380183105469,0.014556746093751,0.209628952755797,0.0307549999997718,
-0.000239420166015747,0.223139594726563,0.0863827958984373,0.239276667236865,0.0346539999995912,
-0.000239420166015747,0.230322199707031,0.0408929643554696,0.23392436284765,0.0384659999999712,
0.0284909997558592,0.117794721679687,0.0432871660156255,0.128689985097317,0.0422899999998663,
-0.00502782348632835,0.122583125,0.0408929643554696,0.129321831403491,0.0460899999998219,
-0.0074220251464846,0.182438166503906,0.00497993945312558,0.182656975918082,0.0499039999999695,
-0.0313640417480471,0.10342951171875,-0.0357214887695303,0.113830539702946,0.0537229999999909,
0.0141257897949217,0.14173673828125,-0.0189620771484371,0.143695515885922,0.0574819999997089,
-0.0385466467285158,0.175255561523438,-0.00459686718749985,0.179503445668455,0.0612349999996695,
-0.0241814367675783,0.184832368164063,0.0193451494140628,0.187408593749413,0.064976999999999,
-0.0361524450683596,0.175255561523438,0.0241335527343765,0.180565609950785,0.0686859999996159,
-0.000239420166015747,0.163284553222656,0.0863827958984373,0.18472652779276,0.0724079999999958,
-0.000239420166015747,0.0842758984375,0.014556746093751,0.0855241675569055,0.0761179999999513,
-0.0457292517089846,0.134554133300781,0.0121625444335951,0.14263206770319,0.0799529999999322,
-0.0361524450683596,0.146525141601563,0.0121625444335951,0.151408533091361,0.0838339999995696,
-0.0313640417480471,0.14173673828125,0.0672291826171882,0.159977401806493,0.087778999999955,
-0.0074220251464846,0.156101948242188,0.000191536132813752,0.156278409860005,0.0915459999996528,
0.0117315881347655,0.170467158203125,0.0073741411132815,0.171029413093689,0.095325999999659,
0.0189141931152342,0.156101948242188,-0.0309330854492185,0.160257357776845,0.0990809999998419,
-0.0385466467285158,0.146525141601563,-0.00699106884765577,0.151671804034249,0.102965999999924,
0.0237025964355467,0.18004396484375,0.0241335527343765,0.183194079385844,0.106815999999981,
0.00933738647460924,0.170467158203125,0.000191536132813752,0.170722803099397,0.110588999999891,
0.035673604736328,0.134554133300781,0.00258573779296967,0.139226818189393,0.114325000000008,
-0.0361524450683596,0.156101948242188,0.0121625444335951,0.160694570588202,0.118089999999938,
-0.0265756384277346,0.165678754882813,0.014556746093751,0.168426878004072,0.121811999999863,
-0.0313640417480471,0.203985981445313,0.0361045610351578,0.209517357439717,0.125536999999895,
-0.00981622680664085,0.194409174804688,0.0337103593750001,0.197554230241093,0.129355999999916,
-0.00263362182617211,0.136948334960938,0.0073741411132815,0.137172010153876,0.133053999999902,
0.00454898315429675,0.105823713378906,-0.0261446821289049,0.109100393971151,0.136762999999974,
0.016519991455078,0.132159931640625,0.0504697709960951,0.142430177396958,0.140484999999899,
-0.0265756384277346,0.163284553222656,0.100748005859376,0.193696335958131,0.144180999999662,
-0.0169988317871096,0.172861359863281,0.0576523759765628,0.183013131965037,0.147879999999986,
-0.0481234533691408,0.211168586425781,0.0432871660156255,0.220866062125667,0.15166199999976,
0.0237025964355467,0.165678754882813,0.0408929643554696,0.172288993934851,0.155659000000014,
0.0308852014160155,0.146525141601563,0.00497993945312558,0.149827609554523,0.159518999999818,
-0.0481234533691408,0.144130939941406,-0.00699106884765577,0.152113344766979,0.163249999999607,
-0.0313640417480471,0.144130939941406,0.000191536132813752,0.147504127566847,0.167032999999719,
-0.0074220251464846,0.158496149902344,0.0313161577148442,0.161730695061767,0.170803999999862,
-0.0146046301269533,0.146525141601563,-0.00938527050781168,0.147549976770611,0.174705999999787,
-0.0122104284667971,0.175255561523438,0.0600465776367187,0.185658821212784,0.178542999999991,
0.0021547814941405,0.134554133300781,0.0217393510742188,0.136316019809632,0.182317999999668,
-0.000239420166015747,0.177649763183594,0.00258573779296967,0.177668741542053,0.186087999999927,
-0.00263362182617211,0.151313544921875,-0.0141736738281235,0.151998742989979,0.189887999999883,
0.00454898315429675,0.132159931640625,0.0384987626953137,0.137728339524089,0.193673999999646,
-0.0122104284667971,0.156101948242188,-0.0381156904296862,0.161151229177072,0.197411999999986,
-0.0313640417480471,0.139342536621094,0.00258573779296967,0.142852132174175,0.201292999999623,
0.006943184814453,0.177649763183594,0.0624407792968764,0.188431677522002,0.205080999999609,
-0.0433350500488283,0.184832368164063,0.0744117875976578,0.203906951861257,0.20883399999957,
-0.0193930334472658,0.153707746582031,0.0313161577148442,0.158059681258801,0.212545999999747,
-0.0074220251464846,0.127371528320313,0.00976834277343741,0.127960983133401,0.216260999999577,
-0.0193930334472658,0.168072956542969,0.0408929643554696,0.17405988337684,0.21998799999983,
-0.0457292517089846,0.156101948242188,0.0720175859375001,0.177891864319691,0.223867999999584,
-0.0361524450683596,0.148919343261719,-0.0237504804687489,0.155074354438182,0.227847999999994,
-0.0313640417480471,0.184832368164063,0.0456813676757815,0.192959826877614,0.231681999999637,
-0.0337582434082033,0.184832368164063,0.0217393510742188,0.189143391912779,0.235458999999992,
0.006943184814453,0.18004396484375,0.0361045610351578,0.183759561437131,0.239260999999715,
-0.0433350500488283,0.14173673828125,-0.0117794721679676,0.148680817545163,0.243049999999585,
-0.0361524450683596,0.156101948242188,0.0408929643554696,0.165369441140753,0.246898999999758,
-0.0193930334472658,0.134554133300781,0.00258573779296967,0.135969079479657,0.250789999999597,
-0.0241814367675783,0.194409174804688,0.0408929643554696,0.20012971709909,0.254608999999618,
-0.0074220251464846,0.182438166503906,0.0432871660156255,0.187650072731791,0.25839999999971,
-0.00981622680664085,0.182438166503906,0.00258573779296967,0.182720357229184,0.262181999999939,
0.00454898315429675,0.148919343261719,0.0600465776367187,0.160633917748159,0.265938999999889,
0.006943184814453,0.156101948242188,-0.0429040937499998,0.16203946223338,0.26967599999989,
-0.0169988317871096,0.165678754882813,-0.0117794721679676,0.166964565301148,0.273488999999699,
-0.0122104284667971,0.177649763183594,-0.00699106884765577,0.178206082853988,0.277251999999862,
0.00933738647460924,0.170467158203125,0.0456813676757815,0.176728679519639,0.280990999999631,
0.0308852014160155,0.1608903515625,-0.00699106884765577,0.16397705917611,0.284725999999864,
0.00454898315429675,0.215956989746094,0.0193451494140628,0.21686942955102,0.288456999999653,
-0.000239420166015747,0.129765729980469,0.0576523759765628,0.141996473389739,0.292148999999881,
0.0332794030761717,0.0699106884765625,0.0384987626953137,0.0864706757313909,0.296093999999812,
-0.134314713134766,0.464953962402344,-1.61828878613281,1.68910663507113,0.300006999999823,
0.921528218994141,-0.827914934082031,3.39756369189453,3.61636508623764,0.303835999999592,
-0.134314713134766,0.83126681640625,1.34094446582031,1.58340677737491,0.306785999999647,
-0.163045133056641,0.0699106884765625,-2.54484482861328,2.55102066269493,0.30967899999996,
-0.70652890991211,0.000478840332031241,-0.557657450683593,0.900091752063411,0.312701999999717,
0.107499654541016,-0.229364519042969,1.17813875292969,1.20506231352448,0.315689999999904,
0.150595284423828,-0.0761356127929688,-0.141066361816405,0.219943832971446,0.318714,
-0.311485635986328,0.414675727539063,-0.294295268066406,0.596312808215735,0.321662999999717,
-0.191775552978516,0.510443793945313,0.182150862304688,0.5748997009356,0.324589999999716,
0.152989486083984,0.302148249511719,0.0815943925781255,0.348363305236689,0.327624000000014,
0.220027132568359,0.29496564453125,0.344956575195313,0.504392415972395,0.330562999999984,
-0.0337582434082033,0.438617744140625,-0.198527201660156,0.482636710447962,0.333553999999822,
0.0500388146972655,0.242293208007813,-0.107547538574218,0.269770930006176,0.336490999999569,
0.129047469482422,0.0866701000976562,0.258765315429688,0.301868256198263,0.339419999999791,
0.00933738647460924,0.108217915039063,0.0624407792968764,0.125288286925711,0.342419999999947,
-0.160650931396485,0.129765729980469,-0.200921403320311,0.288127188491689,0.345317999999679,
-0.110372696533203,0.0316034619140625,0.0456813676757815,0.123562527886468,0.348334999999679,
0.0237025964355467,-0.021068974609375,0.0839885942382814,0.0897763818105829,0.35131599999977,
-0.0313640417480471,0.122583125,-0.126701151855467,0.17906285916136,0.354229999999916,
-0.0122104284667971,0.127371528320313,0.00497993945312558,0.128052335343608,0.357213999999658,
0.0332794030761717,0.182438166503906,0.014556746093751,0.186019090749448,0.360170999999809,
-0.000239420166015747,0.227927998046875,0.000191536132813752,0.227928204270034,0.363158999999996,
-0.0241814367675783,0.247081611328125,0.0648349809570323,0.25658846290577,0.36608299999989,
-0.0074220251464846,0.21835119140625,0.0241335527343765,0.21980618192714,0.369068999999854,
-0.000239420166015747,0.247081611328125,0.0361045610351578,0.249705665346343,0.371992999999748,
-0.0074220251464846,0.18004396484375,0.00497993945312558,0.180265680402259,0.37491399999999,
-0.0193930334472658,0.134554133300781,-0.0668461103515625,0.151490286829699,0.377884999999878,
0.0117315881347655,0.115400520019531,-0.00220266552734216,0.11601621402359,0.380843999999797,
-0.00263362182617211,0.105823713378906,0.00258573779296967,0.10588805559249,0.383833999999752,
-0.00263362182617211,0.132159931640625,0.000191536132813752,0.132186308599901,0.386759999999867,
-0.0265756384277346,0.182438166503906,0.00497993945312558,0.18443087852121,0.389679999999771,
-0.00263362182617211,0.165678754882813,0.0672291826171882,0.178818759583042,0.392686999999569,
0.0117315881347655,0.203985981445313,0.0408929643554696,0.208375011266104,0.395634999999857,
0.0141257897949217,0.163284553222656,0.00497993945312558,0.163970067559325,0.39864499999976,
-0.0146046301269533,0.213562788085938,-0.0117794721679676,0.214385437100425,0.401557999999568,
-0.0169988317871096,0.189620771484375,0.0432871660156255,0.195240303221749,0.404484999999568,
-0.0241814367675783,0.215956989746094,-0.00938527050781168,0.217509187407897,0.407461999999668,
-0.0361524450683596,0.129765729980469,-0.00459686718749985,0.134786034698422,0.410376999999698,
-0.000239420166015747,0.120188923339844,0.00976834277343741,0.120585468179819,0.413375999999971,
-0.0146046301269533,0.168072956542969,0.0337103593750001,0.172041280718993,0.416305999999622,
-0.0457292517089846,0.156101948242188,-0.0333272871093744,0.166041232147141,0.419279999999617,
-0.0122104284667971,0.175255561523438,0.0672291826171882,0.188104676719143,0.422395999999935,
0.0189141931152342,0.177649763183594,-0.0165678754882812,0.179420398947785,0.425435999999991,
-0.00263362182617211,0.192014973144531,0.0576523759765628,0.200500579379116,0.428520999999819,
-0.0433350500488283,0.21835119140625,-0.0309330854492185,0.224748804505546,0.431430999999975,
-0.0074220251464846,0.184832368164063,-0.0309330854492185,0.187549850849899,0.434334999999919,
-0.0074220251464846,0.177649763183594,0.0552581743164069,0.186193422669128,0.437312999999904,
-0.00981622680664085,0.120188923339844,0.0384987626953137,0.126585506008312,0.440287999999782,
0.00454898315429675,0.129765729980469,0.0384987626953137,0.135432612963688,0.443281999999726,
-0.00502782348632835,0.144130939941406,-0.0357214887695303,0.148576685981733,0.446199999999862,
-0.0337582434082033,0.153707746582031,0.0241335527343765,0.159210925268703,0.449135999999726,
0.0021547814941405,0.199197578125,0.0169509477539069,0.199929119549676,0.452138999999988,
0.0332794030761717,0.18004396484375,0.0361045610351578,0.186619632604143,0.455088999999589,
-0.0169988317871096,0.172861359863281,0.0265277543945324,0.175709225054139,0.458089999999629,
-0.0193930334472658,0.1608903515625,-0.00699106884765577,0.162205641134408,0.461045999999897,
-0.0169988317871096,0.187226569824219,-0.0117794721679676,0.188365348975934,0.464031999999861,
-0.0289698400878908,0.151313544921875,-0.0285388837890626,0.156682827391734,0.466943999999785,
0.0021547814941405,0.1608903515625,-0.0405098920898439,0.165925886064602,0.469875999999658,
-0.00502782348632835,0.213562788085938,0.0408929643554696,0.217500754016685,0.472890000000007,
-0.0241814367675783,0.175255561523438,0.0768059892578137,0.192868902923491,0.47582199999988,
-0.0289698400878908,0.182438166503906,0.0289219560546883,0.186974371971279,0.478800999999748,
-0.0169988317871096,0.206380183105469,-0.0452982954101557,0.211975649138855,0.481722999999874,
-0.0169988317871096,0.156101948242188,0.0241335527343765,0.158868520779656,0.484642999999778,
-0.0457292517089846,0.168072956542969,0.0911711992187509,0.196600790308543,0.487645999999586,
-0.0505176550292971,0.184832368164063,-0.00938527050781168,0.191841395671788,0.490576999999575,
-0.000239420166015747,0.168072956542969,0.0480755693359374,0.174813719170107,0.493582999999944,
-0.00981622680664085,0.151313544921875,0.0432871660156255,0.157689333587304,0.496521999999914,
-0.0265756384277346,0.201591779785156,0.0408929643554696,0.207407195556389,0.499444999999923,
-0.0361524450683596,0.136948334960938,0.0073741411132815,0.14183167379028,0.502439999999751,
-0.0122104284667971,0.177649763183594,-0.00459686718749985,0.178128223789688,0.505375999999615,
-0.0122104284667971,0.172861359863281,0.0504697709960951,0.180491944644419,0.508372999999665,
0.00933738647460924,0.189620771484375,0.0456813676757815,0.195269073632349,0.511316999999963,
-0.0193930334472658,0.206380183105469,0.0265277543945324,0.208979882950848,0.514216999999917,
-0.00502782348632835,0.115400520019531,0.0193451494140628,0.117118716845944,0.517226999999821,
0.0117315881347655,0.115400520019531,-0.0644519086914048,0.132698751745852,0.520155999999588,
0.00454898315429675,0.115400520019531,0.000191536132813752,0.115490302426682,0.52317499999981,
-0.0433350500488283,0.199197578125,0.0408929643554696,0.207917859327614,0.52608999999984,
-0.00981622680664085,0.206380183105469,0.0337103593750001,0.209345471927524,0.52900499999987,
-0.00502782348632835,0.170467158203125,0.00258573779296967,0.170560889640014,0.531995999999708,
-0.0337582434082033,0.203985981445313,0.0432871660156255,0.211243173536754,0.53492899999992,
-0.0217872351074221,0.146525141601563,0.0193451494140628,0.149393893920858,0.537917999999991,
0.00933738647460924,0.203985981445313,0.00258573779296967,0.204215948085152,0.540861999999834,
0.0117315881347655,0.187226569824219,0.0169509477539069,0.188358045323428,0.543770999999651,
-0.069671268310547,0.156101948242188,0.00497993945312558,0.171016676584372,0.546748999999636,
-0.0505176550292971,0.168072956542969,0.0121625444335951,0.175921799893739,0.549681999999848,
-0.0193930334472658,0.182438166503906,-0.11233594189453,0.215125865913249,0.55267399999957,
-0.117555301513672,0.450588752441406,-0.136277958496093,0.485202179212476,0.555626999999731,
0.00933738647460924,0.457771357421875,0.172574055664063,0.489309316435305,0.558735999999953,
0.196085115966797,0.093852705078125,0.143843635742188,0.260669703835572,0.561766999999691,
-0.0122104284667971,0.0842758984375,1.04885186328125,1.05230307075925,0.564776999999594,
-0.105584293212891,0.134554133300781,-0.940729716308594,0.956151273025162,0.567777999999635,
-0.146285721435547,-0.0330399829101563,-0.976642741210936,0.988090176414397,0.57073199999968,
-0.0074220251464846,-0.270065947265625,0.641837581054688,0.6963807742779,0.573745999999574,
0.121864864501953,-0.265277543945313,0.0911711992187509,0.305835589964153,0.57673799999975,
0.0237025964355467,-0.0641646044921875,-0.399640141113281,0.405451787437752,0.579681999999593,
-0.0600944616699221,0.172861359863281,-0.00459686718749985,0.183066996602665,0.582672999999886,
-0.069671268310547,0.318907661132813,0.0983538041992187,0.340924702474988,0.585616999999729,
-0.0146046301269533,0.395522114257813,0.0768059892578137,0.40317514565507,0.588637999999719,
-0.0457292517089846,0.517626398925781,0.0815943925781255,0.526009408876808,0.591572999999698,
-0.0265756384277346,0.436223542480469,0.0193451494140628,0.437460259198368,0.594518999999764,
0.0715866296386717,0.3141192578125,0.0624407792968764,0.328168256525371,0.597562999999809,
0.119470662841797,0.18004396484375,0.0456813676757815,0.220852566001044,0.60053599999992,
-0.00502782348632835,0.134554133300781,0.00497993945312558,0.134740096460893,0.603524999999991,
-0.00263362182617211,0.06512228515625,-0.00459686718749985,0.0653374255372428,0.606448999999884,
-0.0720654699707033,0.00766144531249999,-0.00459686718749985,0.0726172217474221,0.609360999999808,
-0.105584293212891,-0.040222587890625,-0.0644519086914048,0.130076700772467,0.612370999999712,
-0.0624886633300783,0.0699106884765625,0.0384987626953137,0.10136316952975,0.615300999999818,
-0.0385466467285158,0.165678754882813,0.00258573779296967,0.170123425293127,0.618308999999954,
0.0117315881347655,0.242293208007813,-0.0117794721679676,0.242862892948752,0.621244999999817,
0.0380678063964842,0.309330854492188,0.0289219560546883,0.313003538265523,0.624182999999903,
0.00933738647460924,0.266235224609375,0.0408929643554696,0.269519231489625,0.627168999999867,
-0.00263362182617211,0.271023627929688,0.0959596025390628,0.287522152502286,0.630118999999922,
0.006943184814453,0.203985981445313,0.0959596025390628,0.225536546397762,0.63312999999971,
-0.0122104284667971,0.136948334960938,0.0552581743164069,0.1481803186685,0.636041999999634,
0.006943184814453,0.105823713378906,0.0313161577148442,0.110578333604235,0.638972999999623,
-0.0385466467285158,0.101035310058594,0.0504697709960951,0.119336396950165,0.64195299999983,
-0.0313640417480471,0.093852705078125,0.0313161577148442,0.103791787243865,0.644876999999724,
-0.00502782348632835,0.136948334960938,0.0384987626953137,0.142345636345667,0.647865999999794,
0.026096798095703,0.172861359863281,-0.0117794721679676,0.175216576182696,0.650814999999966,
0.0117315881347655,0.203985981445313,0.0408929643554696,0.208375011266104,0.653835999999956,
-0.0337582434082033,0.220745393066406,0.0169509477539069,0.223954196629144,0.656750999999986,
-0.0385466467285158,0.232716401367187,-0.021356278808593,0.236851975047407,0.65965499999993,
-0.0265756384277346,0.230322199707031,0.0792001909179696,0.245004592767503,0.662661999999727,
-0.0313640417480471,0.18004396484375,0.0983538041992187,0.207540365210937,0.665599999999813,
-0.0193930334472658,0.1608903515625,-0.00938527050781168,0.162326455868094,0.668572999999924,
-0.0146046301269533,0.127371528320313,0.0193451494140628,0.129657380251375,0.671509999999671,
0.0021547814941405,0.139342536621094,-0.0141736738281235,0.140078116153361,0.674432999999681,
-0.0265756384277346,0.239899006347656,-0.0405098920898439,0.244742413899931,0.677434999999605,
-0.0313640417480471,0.297359846191406,0.0384987626953137,0.301477587841651,0.680367999999817,
-0.00981622680664085,0.3141192578125,0.0648349809570323,0.320890699760984,0.683362999999645,
0.006943184814453,0.244687409667969,0.052863972656251,0.250429103481183,0.686301999999614,
0.0596156213378904,0.129765729980469,0.014556746093751,0.143544647555054,0.689210000000003,
0.0189141931152342,0.0890643017578125,0.115113215820314,0.146769373526295,0.6922169999998,
-0.0241814367675783,-0.0186747729492188,0.052863972656251,0.0610580759101539,0.695236999999906,
-0.0193930334472658,0.02681505859375,-0.167402580078125,0.170642201493318,0.698328999999831,
-0.0193930334472658,-0.03064578125,-0.0189620771484371,0.0409244917438556,0.701379999999972,
-0.000239420166015747,-0.00909796630859376,0.0337103593750001,0.0349173114967327,0.704379999999674,
0.0141257897949217,0.156101948242188,-0.095576530273437,0.183581669350309,0.70739599999979,
-0.0241814367675783,0.232716401367187,0.0121625444335951,0.234285280878969,0.710325000000012,
-0.0481234533691408,0.328484467773438,0.0384987626953137,0.334215599668299,0.713318999999956,
-0.0217872351074221,0.369185895996094,0.0672291826171882,0.37588917570401,0.716279999999642,
-0.0385466467285158,0.385945307617188,0.0959596025390628,0.399559594760523,0.719210999999632,
-0.00263362182617211,0.278206232910156,0.0384987626953137,0.280869718415947,0.722211999999672,
-0.0337582434082033,0.18004396484375,0.0552581743164069,0.191334560661286,0.725149999999758,
-0.000239420166015747,0.0890643017578125,0.0337103593750001,0.0952307487044717,0.728147999999692,
-0.0217872351074221,0.0675164868164063,-0.0165678754882812,0.0728536485280678,0.731078999999681,
-0.0146046301269533,0.00766144531249999,-0.021356278808593,0.0269830244778435,0.733986999999615,
-0.0624886633300783,0.0411802685546875,-0.0309330854492185,0.0809784127926987,0.737001999999848,
-0.0481234533691408,0.0914585034179687,-0.0357214887695303,0.109346007570181,0.739943999999923,
-0.0433350500488283,0.151313544921875,0.0384987626953137,0.16203663218121,0.742943999999625,
-0.0289698400878908,0.220745393066406,0.052863972656251,0.22882827578724,0.745872999999847,
-0.0265756384277346,0.297359846191406,-0.0165678754882812,0.299004409972518,0.748855999999705,
0.0332794030761717,0.297359846191406,0.0959596025390628,0.314227055034314,0.751793999999791,
-0.0217872351074221,0.259052619628906,0.0073741411132815,0.26007176184158,0.754686999999649,
0.0189141931152342,0.18004396484375,0.0648349809570323,0.192294437604307,0.757711999999628,
-0.000239420166015747,0.117794721679687,0.112719014160158,0.163037510809166,0.760645999999724,
-0.00263362182617211,0.0770932934570313,-0.0381156904296862,0.0860413721235714,0.763604999999643,
-0.0169988317871096,0.0316034619140625,0.0241335527343765,0.0432454327607318,0.766594999999597,
-0.0146046301269533,0.0579396801757812,-0.0429040937499998,0.0735599280894544,0.769498999999996,
0.0189141931152342,0.093852705078125,0.00258573779296967,0.0957745425027751,0.7725089999999,
-0.0241814367675783,0.127371528320313,0.0480755693359374,0.13827331079341,0.775428999999804,
0.016519991455078,0.168072956542969,0.0624407792968764,0.180056323848877,0.778461999999763,
-0.00981622680664085,0.225533796386719,0.0552581743164069,0.232411956340692,0.781379999999899,
-0.0122104284667971,0.247081611328125,0.0289219560546883,0.249068056486324,0.784295999999813,
-0.0433350500488283,0.259052619628906,0.107930610839844,0.283963383300726,0.787268999999924,
-0.00981622680664085,0.182438166503906,0.0576523759765628,0.191582460997267,0.790226999999959,
0.0117315881347655,0.139342536621094,0.0672291826171882,0.155157132183925,0.793230999999651,
-0.0529118566894533,0.153707746582031,0.0217393510742188,0.164007119731978,0.796167999999852,
-0.0672770666503908,0.101035310058594,0.0672291826171882,0.138759145900703,0.799081999999999,
0.00454898315429675,0.10342951171875,-0.0261446821289049,0.106779686952803,0.802083999999923,
-0.0481234533691408,0.0866701000976562,0.0337103593750001,0.104708936315394,0.805019999999786,
-0.00502782348632835,0.156101948242188,0.0552581743164069,0.165670042804361,0.80801799999972,
-0.00981622680664085,0.153707746582031,0.0624407792968764,0.166196511958725,0.810943999999836,
0.006943184814453,0.163284553222656,0.0361045610351578,0.167372615633596,0.81385999999975,
-0.0265756384277346,0.168072956542969,0.0073741411132815,0.170320759850627,0.816843999999946,
0.0237025964355467,0.165678754882813,-0.0165678754882812,0.16818370133726,0.819790000000012,
-0.0481234533691408,0.148919343261719,0.0073741411132815,0.156675510271491,0.822789999999713,
-0.0146046301269533,0.1608903515625,0.0744117875976578,0.177865439533735,0.825719999999819,
-0.0337582434082033,0.132159931640625,-0.0692403120117184,0.15297087087659,0.828605999999581,
-0.0409408483886721,0.093852705078125,0.0480755693359374,0.11311827299,0.831649999999627,
-0.0122104284667971,0.187226569824219,0.0384987626953137,0.191533385446391,0.834684999999808,
-0.0505176550292971,0.213562788085938,-0.00220266552734216,0.219467422776419,0.837774999999965,
-0.0265756384277346,0.170467158203125,0.0600465776367187,0.182677059505493,0.840815999999904,
0.0189141931152342,0.208774384765625,0.0480755693359374,0.21507150160456,0.843856999999844,
-0.0169988317871096,0.165678754882813,0.0408929643554696,0.171495319572935,0.84677499999998,
-0.0074220251464846,0.1608903515625,0.0432871660156255,0.166777008082182,0.849688999999671,
0.0332794030761717,0.156101948242188,0.0361045610351578,0.163642525773878,0.852724999999737,
-0.0169988317871096,0.120188923339844,-0.0285388837890626,0.124694849386985,0.855666999999812,
0.00454898315429675,0.158496149902344,-0.0261446821289049,0.160702418106343,0.858654999999999,
-0.0361524450683596,0.172861359863281,0.0121625444335951,0.17701970654507,0.861626999999771,
-0.0457292517089846,0.134554133300781,-0.0812113203124998,0.16368035250783,0.864519999999629,
0.00454898315429675,0.208774384765625,-0.0141736738281235,0.209304395586403,0.867562999999791,
-0.0122104284667971,0.175255561523438,-0.0500866987304676,0.182680824932325,0.870490999999674,
-0.00502782348632835,0.156101948242188,0.00976834277343741,0.156488075502754,0.873515999999654,
0.00454898315429675,0.139342536621094,0.0217393510742188,0.141101506529403,0.876472999999805,
0.0189141931152342,0.184832368164063,-0.00938527050781168,0.186034497674062,0.879403999999795,
-0.00263362182617211,0.156101948242188,0.00497993945312558,0.156203565919241,0.882413999999699,
0.00933738647460924,0.148919343261719,0.0744117875976578,0.166737133588043,0.88536699999986,
0.0141257897949217,0.184832368164063,0.00497993945312558,0.185438243238612,0.888360999999804,
-0.0217872351074221,0.151313544921875,0.0337103593750001,0.156546672975321,0.89128299999993,
-0.0265756384277346,0.151313544921875,0.0193451494140628,0.154842785561738,0.894189999999981,
-0.00502782348632835,0.170467158203125,0.000191536132813752,0.170541395915916,0.897181999999702,
0.006943184814453,0.1608903515625,0.0361045610351578,0.165037730137123,0.900132999999641,
-0.0457292517089846,0.170467158203125,0.0456813676757815,0.182310185783578,0.903122999999596,
-0.00981622680664085,0.18004396484375,-0.0405098920898439,0.184805949424004,0.906048999999712,
0.00933738647460924,0.156101948242188,0.0169509477539069,0.157296979185674,0.908978999999817,
-0.0217872351074221,0.124977326660156,0.0073741411132815,0.127076330407767,0.911964999999782,
-0.0337582434082033,0.158496149902344,0.0241335527343765,0.163838569633211,0.914886999999908,
0.026096798095703,0.175255561523438,0.0648349809570323,0.188677315730964,0.917892999999822,
-0.0361524450683596,0.165678754882813,-0.0117794721679676,0.169985896675271,0.920812999999725,
-0.0265756384277346,0.151313544921875,-0.00699106884765577,0.153788583706004,0.923699999999826,
-0.00502782348632835,0.129765729980469,-0.00699106884765577,0.130051138903149,0.926673999999821,
-0.000239420166015747,0.187226569824219,-0.0357214887695303,0.190603962524578,0.929621999999654,
-0.0241814367675783,0.189620771484375,0.0408929643554696,0.195481491185871,0.93262199999981,
0.016519991455078,0.1608903515625,-0.00459686718749985,0.161801565293789,0.93556099999978,
0.0189141931152342,0.172861359863281,0.0265277543945324,0.175904855499215,0.938572999999906,
0.0213083947753905,0.163284553222656,0.0265277543945324,0.16679213039662,0.941503999999895,
-0.0313640417480471,0.177649763183594,-0.0405098920898439,0.184889677459535,0.944400999999743,
-0.0433350500488283,0.18004396484375,-0.00220266552734216,0.185198832541723,0.94738499999994,
-0.0337582434082033,0.151313544921875,0.000191536132813752,0.155033688470996,0.950312999999824,
-0.0337582434082033,0.172861359863281,0.0456813676757815,0.181954544006244,0.953292999999576,
-0.0146046301269533,0.175255561523438,0.0265277543945324,0.177852547969539,0.956234999999651,
0.0380678063964842,0.158496149902344,-0.00220266552734216,0.163018523957039,0.959144999999808,
-0.0457292517089846,0.199197578125,-0.059663505371093,0.212909777760195,0.962137999999868,
0.006943184814453,0.148919343261719,0.0480755693359374,0.156641115227911,0.965076999999837,
-0.0074220251464846,0.1608903515625,0.0313161577148442,0.164077705423988,0.96806099999958,
0.0189141931152342,0.120188923339844,0.0313161577148442,0.125633696629575,0.971068999999716,
-0.0146046301269533,0.220745393066406,0.0121625444335951,0.221562070915323,0.974077999999736,
-0.0122104284667971,0.184832368164063,-0.0117794721679676,0.185609414763999,0.9771539999997,
0.0141257897949217,0.223139594726563,0.0289219560546883,0.225449098942742,0.980192999999872,
0.00933738647460924,0.184832368164063,-0.0237504804687489,0.186585841986492,0.983185999999932,
0.035673604736328,0.168072956542969,-0.00220266552734216,0.171831244339916,0.986128999999892,
-0.0122104284667971,0.177649763183594,-0.00699106884765577,0.178206082853988,0.989026999999624,
-0.00263362182617211,0.170467158203125,0.0241335527343765,0.172187155030088,0.992040999999972,
-0.0217872351074221,0.158496149902344,0.0217393510742188,0.161456844180172,0.994987999999921,
-0.0169988317871096,0.158496149902344,0.0456813676757815,0.165821522031136,0.997995999999603,
-0.0337582434082033,0.144130939941406,0.000191536132813752,0.148031697728868,1.00090099999989,
-0.0122104284667971,0.165678754882813,0.0313161577148442,0.169053973975423,1.00382899999977,
-0.0217872351074221,0.127371528320313,0.0169509477539069,0.130328525158669,1.0068239999996,
-0.0289698400878908,0.175255561523438,0.0217393510742188,0.178959109476834,1.00977199999988,
