X,Y,Z,Magnitude,Seconds,
-0.0146046301269533,0.158496149902344,-0.0165678754882812,0.160027557793046,0.0,
-0.00263362182617211,0.170467158203125,0.0073741411132815,0.17064690429929,0.00385599999981423,
-0.0313640417480471,0.235110603027344,0.0408929643554696,0.240692611653188,0.00761099999999715,
0.0021547814941405,0.158496149902344,0.0241335527343765,0.160337459705262,0.0113830000000235,
0.0117315881347655,0.168072956542969,0.0337103593750001,0.171821236203358,0.0151519999999437,
-0.0241814367675783,0.211168586425781,0.0073741411132815,0.212676495491076,0.0189179999997577,
-0.0241814367675783,0.175255561523438,-0.0261446821289049,0.178837351055816,0.022707999999966,
-0.0122104284667971,0.158496149902344,0.00497993945312558,0.159043779803442,0.0265119999999115,
-0.0169988317871096,0.165678754882813,0.0408929643554696,0.171495319572935,0.0302659999997559,
0.00454898315429675,0.122583125,0.0193451494140628,0.124183535898911,0.0340329999999085,
-0.0313640417480471,0.172861359863281,0.0121625444335951,0.176104174668448,0.0377439999997478,
-0.0193930334472658,0.148919343261719,0.0600465776367187,0.161736365823122,0.0414839999998549,
-0.0146046301269533,0.199197578125,-0.0405098920898439,0.203798973768617,0.0451830000001792,
-0.0337582434082033,0.182438166503906,0.0241335527343765,0.187098188026762,0.0490859999999884,
-0.0433350500488283,0.196803376464844,-0.00459686718749985,0.201570401444848,0.0530800000001364,
-0.00502782348632835,0.199197578125,0.0384987626953137,0.202946073795344,0.0569609999997738,
-0.0361524450683596,0.182438166503906,0.0408929643554696,0.190428250045799,0.0607740000000376,
-0.0074220251464846,0.134554133300781,0.0456813676757815,0.142290859152404,0.0645810000000893,
-0.0361524450683596,0.182438166503906,-0.0237504804687489,0.187496051169683,0.0684360000000197,
0.0189141931152342,0.175255561523438,0.0265277543945324,0.178258184382408,0.072407000000112,
-0.0146046301269533,0.182438166503906,0.0241335527343765,0.184606089244193,0.076242000000093,
-0.0241814367675783,0.189620771484375,0.0121625444335951,0.191542962150984,0.0800639999997657,
-0.0505176550292971,0.184832368164063,0.0361045610351578,0.194983530377148,0.0838880000001154,
-0.00502782348632835,0.196803376464844,0.0600465776367187,0.205821377613831,0.0877099999997881,
-0.0385466467285158,0.196803376464844,-0.00699106884765577,0.200664615728854,0.0914729999999508,
0.0237025964355467,0.184832368164063,-0.00938527050781168,0.186582155367084,0.095267000000149,
-0.0361524450683596,0.213562788085938,0.052863972656251,0.222958882631889,0.0991579999999885,
-0.0074220251464846,0.144130939941406,-0.0309330854492185,0.147599695396288,0.102913000000171,
-0.0337582434082033,0.165678754882813,-0.0141736738281235,0.169676049716254,0.106636999999864,
-0.0146046301269533,0.14173673828125,0.00497993945312558,0.142574184187424,0.110384000000067,
-0.0122104284667971,0.177649763183594,-0.00220266552734216,0.178082522045132,0.114102999999886,
-0.0385466467285158,0.170467158203125,-0.0333272871093744,0.177920218260694,0.11783400000013,
-0.0433350500488283,0.194409174804688,0.0265277543945324,0.200939233511504,0.121787999999924,
0.00454898315429675,0.148919343261719,0.0073741411132815,0.149171183552314,0.125801000000138,
-0.0169988317871096,0.175255561523438,0.0241335527343765,0.177724225964287,0.12954099999979,
-0.00263362182617211,0.146525141601563,-0.00459686718749985,0.146620886210733,0.133319999999912,
-0.00263362182617211,0.196803376464844,0.0361045610351578,0.200105083092429,0.137122999999974,
-0.0241814367675783,0.187226569824219,0.0121625444335951,0.189173089575094,0.140945000000102,
-0.00263362182617211,0.187226569824219,0.0193451494140628,0.188241757370459,0.144858999999997,
-0.0169988317871096,0.175255561523438,0.0313161577148442,0.178841197326127,0.148658999999952,
0.016519991455078,0.170467158203125,0.0169509477539069,0.172102576312154,0.152434000000085,
-0.00981622680664085,0.192014973144531,-0.00938527050781168,0.192494653232029,0.156183000000055,
-0.00981622680664085,0.156101948242188,0.014556746093751,0.157086203756294,0.159955000000082,
-0.00263362182617211,0.211168586425781,0.000191536132813752,0.211185095456749,0.16369399999985,
-0.0169988317871096,0.182438166503906,-0.0357214887695303,0.186677983809942,0.167410999999902,
0.016519991455078,0.175255561523438,0.0193451494140628,0.17709222673066,0.171249999999873,
-0.0505176550292971,0.168072956542969,0.105536409179688,0.204788881175947,0.174955999999838,
-0.0122104284667971,0.187226569824219,-0.0165678754882812,0.188354393390972,0.17867699999988,
-0.0122104284667971,0.196803376464844,-0.0357214887695303,0.200391337914635,0.182401000000027,
0.006943184814453,0.172861359863281,0.00258573779296967,0.173020067012715,0.186146999999892,
-0.0193930334472658,0.242293208007813,0.014556746093751,0.243503567222006,0.189868999999817,
-0.0122104284667971,0.192014973144531,0.0217393510742188,0.19362707419203,0.193898999999874,
-0.0146046301269533,0.170467158203125,0.014556746093751,0.171709772883876,0.197783000000072,
0.00933738647460924,0.153707746582031,-0.00459686718749985,0.15405969405864,0.201570000000174,
-0.0193930334472658,0.165678754882813,-0.0261446821289049,0.168846332413314,0.205339000000095,
-0.0122104284667971,0.192014973144531,0.0073741411132815,0.192544079192782,0.209113999999772,
-0.0385466467285158,0.146525141601563,0.0456813676757815,0.158247427935183,0.212932999999794,
-0.0169988317871096,0.14173673828125,0.0313161577148442,0.14614706632278,0.216781999999967,
-0.00263362182617211,0.1608903515625,-0.0500866987304676,0.168526907583165,0.220537000000149,
-0.0146046301269533,0.177649763183594,0.0217393510742188,0.179569855391879,0.224339999999756,
-0.0361524450683596,0.172861359863281,0.0959596025390628,0.200988294031415,0.228142999999818,
0.00454898315429675,0.172861359863281,0.0384987626953137,0.177155010402164,0.2319379999999,
0.0021547814941405,0.144130939941406,0.0600465776367187,0.156153650029589,0.235675999999785,
-0.0169988317871096,0.199197578125,0.0576523759765628,0.208068334613258,0.239521999999852,
0.006943184814453,0.199197578125,-0.0309330854492185,0.201704582797818,0.243289000000004,
-0.0169988317871096,0.194409174804688,0.0696233842773442,0.207198704553375,0.247065000000021,
-0.00981622680664085,0.175255561523438,-0.0381156904296862,0.179620923086779,0.250794999999925,
-0.0624886633300783,0.213562788085938,-0.00220266552734216,0.222528086396401,0.254534000000149,
-0.0337582434082033,0.168072956542969,0.0169509477539069,0.172265702764241,0.25825900000018,
-0.0217872351074221,0.172861359863281,0.0504697709960951,0.181391651218592,0.262076999999863,
-0.0265756384277346,0.203985981445313,0.014556746093751,0.206224256674347,0.266195000000153,
-0.0217872351074221,0.158496149902344,0.0313161577148442,0.163022743448616,0.270050000000083,
0.0141257897949217,0.1608903515625,0.0408929643554696,0.166605755293786,0.273881999999958,
-0.0193930334472658,0.192014973144531,-0.00938527050781168,0.193219882415052,0.277650999999878,
-0.0361524450683596,0.146525141601563,0.0672291826171882,0.165216159624759,0.281521999999768,
-0.0241814367675783,0.177649763183594,0.0217393510742188,0.180601161758333,0.285378999999921,
0.0213083947753905,0.153707746582031,0.00258573779296967,0.155199243191337,0.28926599999977,
-0.00502782348632835,0.168072956542969,0.000191536132813752,0.168148251302815,0.293063999999958,
-0.00263362182617211,0.163284553222656,0.21327548388672,0.268617224526203,0.29687899999999,
-0.0313640417480471,0.0699106884765625,-0.45710098095703,0.463478709618812,0.300644999999804,
0.0380678063964842,0.182438166503906,1.05124606494141,1.06763810888144,0.304486999999881,
-0.0146046301269533,0.144130939941406,1.77908336962891,1.78497189310075,0.307384000000184,
-0.110372696533203,0.364397492675781,-2.37006810742187,2.40045631050155,0.310293999999885,
-0.0457292517089846,0.136948334960938,-0.208104008300781,0.253284995965589,0.313272999999754,
0.0787692346191404,0.0675164868164063,1.67613269824219,1.6793403140612,0.316217000000051,
0.0667982263183592,0.0914585034179687,-0.299083671386718,0.319808854437915,0.319226000000072,
-0.129526309814453,0.254264216308594,-0.562445854003906,0.630692235020661,0.322123999999803,
-0.218111771240235,0.290177241210938,0.0600465776367187,0.367941799142508,0.325045999999929,
0.152989486083984,0.0220266552734375,0.426359431640625,0.453512206388862,0.328063999999813,
0.105105452880859,0.10342951171875,-0.0812113203124998,0.168345177140805,0.331002999999782,
-0.172621939697266,0.278206232910156,-0.0620577070312489,0.333238954951072,0.333990999999969,
0.0308852014160155,0.0866701000976562,0.0600465776367187,0.109868982899306,0.336941999999908,
0.102711251220703,0.0866701000976562,0.139055232421876,0.193384759074137,0.339868999999908,
-0.107978494873047,0.292571442871094,-0.11233594189453,0.331476648317877,0.342847999999776,
-0.0624886633300783,0.215956989746094,-0.0381156904296862,0.228024253801884,0.345772000000125,
0.0404620080566405,0.115400520019531,0.134266829101563,0.181609568893663,0.348778999999922,
-0.0074220251464846,0.165678754882813,-0.021356278808593,0.167214314343433,0.351685999999972,
-0.0433350500488283,0.213562788085938,-0.00699106884765577,0.218027214038537,0.35461099999975,
-0.000239420166015747,0.165678754882813,0.0408929643554696,0.170650935172687,0.357708000000002,
0.0213083947753905,0.177649763183594,0.0480755693359374,0.185269388766912,0.360761999999795,
-0.0289698400878908,0.148919343261719,0.11750741748047,0.191896366810706,0.363870000000134,
-0.00981622680664085,0.158496149902344,-0.0309330854492185,0.161784559269401,0.36682699999983,
-0.0912190832519533,0.189620771484375,-0.0237504804687489,0.21175703872635,0.369808999999805,
-0.0361524450683596,0.170467158203125,-0.0333272871093744,0.177416908372175,0.372734999999921,
0.016519991455078,0.206380183105469,0.0648349809570323,0.216954522543369,0.37566599999991,
-0.0146046301269533,0.215956989746094,0.0744117875976578,0.228883880548235,0.378693999999996,
-0.00981622680664085,0.182438166503906,-0.0261446821289049,0.184563233905477,0.381602999999814,
-0.0074220251464846,0.144130939941406,-0.0524809003906235,0.15356776748875,0.384557999999743,
0.00454898315429675,0.156101948242188,0.000191536132813752,0.156168332829786,0.387534999999843,
-0.0146046301269533,0.18004396484375,-0.059663505371093,0.190233694100096,0.390414999999848,
0.0021547814941405,0.182438166503906,0.0456813676757815,0.188082734543404,0.39345400000002,
-0.0481234533691408,0.134554133300781,-0.0189620771484371,0.144153535934016,0.396372000000156,
-0.0433350500488283,0.206380183105469,0.0265277543945324,0.212542768154077,0.399417000000085,
-0.00981622680664085,0.182438166503906,0.0265277543945324,0.184617888242833,0.402351000000181,
0.006943184814453,0.172861359863281,0.0432871660156255,0.178334058134768,0.40527800000018,
0.00454898315429675,0.187226569824219,-0.0237504804687489,0.188781797370344,0.408266999999796,
-0.0337582434082033,0.170467158203125,0.0744117875976578,0.18903911012628,0.411207000000104,
-0.00981622680664085,0.148919343261719,0.0121625444335951,0.14973729192596,0.414189999999962,
-0.0313640417480471,0.203985981445313,0.0337103593750001,0.209118081643296,0.417127000000164,
-0.0146046301269533,0.189620771484375,0.0624407792968764,0.200170385218883,0.42002999999977,
-0.0217872351074221,0.184832368164063,0.0504697709960951,0.192833829291335,0.423028000000158,
-0.0409408483886721,0.1608903515625,0.0337103593750001,0.169405568450039,0.425961999999799,
-0.0337582434082033,0.163284553222656,0.0600465776367187,0.177220359454021,0.428976000000148,
-0.0217872351074221,0.175255561523438,0.000191536132813752,0.176604734207811,0.431905999999799,
0.0021547814941405,0.184832368164063,-0.00459686718749985,0.184902078388434,0.434838000000127,
0.0117315881347655,0.192014973144531,0.0648349809570323,0.203004814789102,0.437852000000021,
-0.000239420166015747,0.175255561523438,-0.0117794721679676,0.175651146114869,0.440763999999945,
-0.000239420166015747,0.168072956542969,0.0361045610351578,0.171907287136561,0.443764999999985,
-0.0361524450683596,0.168072956542969,0.052863972656251,0.179861384434003,0.446701999999732,
-0.0074220251464846,0.201591779785156,0.0432871660156255,0.206320408287417,0.449611000000004,
-0.0074220251464846,0.201591779785156,0.00497993945312558,0.201789821178321,0.452617999999802,
-0.0409408483886721,0.208774384765625,0.0576523759765628,0.220423894477873,0.455548999999792,
-0.00263362182617211,0.189620771484375,-0.00699106884765577,0.189767879225873,0.458542999999736,
-0.0409408483886721,0.158496149902344,-0.00459686718749985,0.163762980519377,0.461467999999968,
-0.000239420166015747,0.201591779785156,0.0193451494140628,0.202517993780344,0.464457000000039,
0.00933738647460924,0.136948334960938,-0.00220266552734216,0.137283957439224,0.467379000000165,
-0.0074220251464846,0.196803376464844,0.0432871660156255,0.2016443259477,0.470314000000144,
0.006943184814453,0.182438166503906,0.000191536132813752,0.182570340139807,0.473314999999729,
-0.0122104284667971,0.206380183105469,0.0193451494140628,0.207644189294673,0.476239000000078,
-0.0385466467285158,0.206380183105469,-0.00699106884765577,0.210065463597167,0.479201999999987,
-0.00263362182617211,0.192014973144531,-0.0285388837890626,0.194142096835138,0.482128999999986,
-0.0313640417480471,0.184832368164063,0.0337103593750001,0.190481221555041,0.485032000000047,
-0.0217872351074221,0.184832368164063,0.0408929643554696,0.190551626780092,0.488033000000087,
-0.0122104284667971,0.194409174804688,0.0121625444335951,0.195171589373765,0.490964000000076,
0.00454898315429675,0.1608903515625,0.00258573779296967,0.160975415867072,0.494048999999904,
-0.0313640417480471,0.182438166503906,0.0121625444335951,0.185513652325589,0.497066999999788,
-0.0481234533691408,0.170467158203125,0.000191536132813752,0.177129770157676,0.500090999999884,
0.035673604736328,0.175255561523438,0.0193451494140628,0.179892614427696,0.503169999999955,
-0.00981622680664085,0.151313544921875,0.0983538041992187,0.180736321712051,0.50610000000006,
-0.0265756384277346,0.175255561523438,0.0504697709960951,0.1843040265082,0.509091999999782,
-0.0169988317871096,0.144130939941406,0.0456813676757815,0.152149516868275,0.512021000000004,
-0.00263362182617211,0.170467158203125,0.0600465776367187,0.180752813188772,0.514970000000176,
-0.0385466467285158,0.189620771484375,0.0337103593750001,0.196413516035771,0.51798000000008,
-0.00502782348632835,0.139342536621094,0.0313161577148442,0.142906694227498,0.520905999999741,
-0.0241814367675783,0.1608903515625,-0.0261446821289049,0.164784682278635,0.523913999999877,
-0.0289698400878908,0.196803376464844,-0.059663505371093,0.207678969796769,0.52684599999975,
0.00933738647460924,0.148919343261719,0.0504697709960951,0.157516206683871,0.529779999999846,
-0.0337582434082033,0.184832368164063,-0.0309330854492185,0.190419219341304,0.532761999999821,
0.0117315881347655,0.139342536621094,0.00497993945312558,0.139924166851625,0.535739999999805,
-0.00981622680664085,0.172861359863281,0.0432871660156255,0.178469007909403,0.538756999999805,
-0.0193930334472658,0.199197578125,-0.205709806640625,0.287005730648842,0.541682000000037,
-0.0457292517089846,0.273417829589844,0.25158271044922,0.374355892429197,0.544606999999814,
0.0572214196777342,0.0699106884765625,0.584376741210939,0.59131884030658,0.547603999999865,
-0.0912190832519533,0.261446821289062,-0.938335514648436,0.978339869146723,0.550518999999895,
-0.0720654699707033,0.194409174804688,0.134266829101563,0.247014049412834,0.553534000000127,
0.0763750329589842,0.0675164868164063,0.577194136230469,0.586126857045771,0.556461000000127,
0.0141257897949217,0.172861359863281,-0.461889384277343,0.49337854734394,0.559455999999955,
-0.0864306799316408,0.239899006347656,0.0456813676757815,0.25905324362526,0.562380999999732,
-0.0337582434082033,0.201591779785156,0.0217393510742188,0.205551609237395,0.565313999999944,
0.0883460412597654,0.127371528320313,0.0983538041992187,0.183581044864067,0.568307000000004,
-0.0888248815917971,0.232716401367187,-0.00699106884765577,0.24919000401044,0.571226999999908,
-0.0265756384277346,0.194409174804688,0.0265277543945324,0.198002306954484,0.574211000000105,
0.0404620080566405,0.113006318359375,0.014556746093751,0.120911128280047,0.577162999999928,
0.00454898315429675,0.1608903515625,0.0432871660156255,0.166673864823815,0.580073999999968,
-0.0529118566894533,0.235110603027344,-0.0189620771484371,0.241735848818477,0.583052999999836,
0.0237025964355467,0.18004396484375,0.0241335527343765,0.183194079385844,0.585991999999806,
-0.0146046301269533,0.18004396484375,0.0073741411132815,0.180785791629102,0.588998000000174,
-0.0313640417480471,0.196803376464844,-0.0237504804687489,0.200697178418713,0.591922000000068,
0.035673604736328,0.14173673828125,-0.00699106884765577,0.146324243025973,0.594841000000088,
-0.00502782348632835,0.170467158203125,-0.0261446821289049,0.17253369363252,0.597843000000012,
-0.00502782348632835,0.213562788085938,-0.0165678754882812,0.214263477901027,0.600766999999905,
0.0189141931152342,0.122583125,-0.0381156904296862,0.12975814075771,0.603767000000062,
-0.0241814367675783,0.1608903515625,0.0911711992187509,0.186501031302871,0.606718000000001,
-0.0074220251464846,0.136948334960938,0.00258573779296967,0.137173681680496,0.609602999999879,
0.00454898315429675,0.175255561523438,-0.00938527050781168,0.175565624184059,0.612626999999975,
-0.0169988317871096,0.199197578125,0.0600465776367187,0.208744405670845,0.615564000000177,
-0.00502782348632835,0.220745393066406,0.0576523759765628,0.228205179662502,0.618564999999762,
0.0428562097167967,0.182438166503906,-0.0357214887695303,0.190778311315801,0.621494999999868,
0.0021547814941405,0.1608903515625,-0.0237504804687489,0.162648189758413,0.6244200000001,
-0.0122104284667971,0.163284553222656,-0.0524809003906235,0.171945295923662,0.627399999999852,
0.016519991455078,0.148919343261719,-0.00220266552734216,0.14984903286509,0.630362999999761,
-0.0241814367675783,0.184832368164063,0.0073741411132815,0.186553274327841,0.633468999999877,
-0.0193930334472658,0.136948334960938,0.00258573779296967,0.138338795118339,0.636492000000089,
-0.00981622680664085,0.146525141601563,0.0217393510742188,0.148453948466201,0.639517999999953,
-0.0074220251464846,0.165678754882813,-0.0429040937499998,0.171304692105333,0.642545000000155,
-0.0289698400878908,0.151313544921875,-0.00220266552734216,0.154077552703071,0.645461999999952,
0.0117315881347655,0.1608903515625,-0.0165678754882812,0.162166056510799,0.648470000000088,
0.00454898315429675,0.132159931640625,0.00258573779296967,0.132263474999437,0.65139999999974,
-0.0146046301269533,0.14173673828125,-0.00938527050781168,0.142795943577741,0.6543929999998,
0.00933738647460924,0.213562788085938,0.0384987626953137,0.217205906849435,0.657338999999865,
-0.0433350500488283,0.189620771484375,0.0265277543945324,0.1963101762372,0.660241000000042,
-0.0193930334472658,0.199197578125,0.0361045610351578,0.203369870444699,0.663257000000158,
0.0213083947753905,0.136948334960938,0.0983538041992187,0.169948124252477,0.666180000000168,
-0.0217872351074221,0.132159931640625,-0.0429040937499998,0.140647404545514,0.669162000000142,
-0.0624886633300783,0.163284553222656,-0.097970731933593,0.20041193248284,0.672111999999743,
0.0237025964355467,0.153707746582031,0.0983538041992187,0.184014551700594,0.675059000000147,
0.0021547814941405,0.144130939941406,0.0121625444335951,0.144659249337123,0.678062999999838,
-0.0481234533691408,0.18004396484375,0.0169509477539069,0.187133724033337,0.680999000000156,
-0.0241814367675783,0.158496149902344,0.105536409179688,0.191947141371142,0.684006999999838,
0.006943184814453,0.165678754882813,-0.0524809003906235,0.173930740643215,0.686948000000029,
-0.0457292517089846,0.187226569824219,0.0193451494140628,0.193698703443929,0.689876999999797,
-0.0122104284667971,0.168072956542969,0.0624407792968764,0.179712170438284,0.692870999999741,
-0.00502782348632835,0.163284553222656,-0.0117794721679676,0.16378608089422,0.695787999999993,
0.00933738647460924,0.194409174804688,0.0121625444335951,0.195012926549793,0.698805999999877,
0.006943184814453,0.170467158203125,0.00497993945312558,0.170681163688832,0.701752999999826,
0.0189141931152342,0.132159931640625,0.0361045610351578,0.138302326661544,0.70466099999976,
-0.0289698400878908,0.153707746582031,0.0169509477539069,0.157329773481689,0.707663000000139,
-0.000239420166015747,0.201591779785156,0.0648349809570323,0.211761369835628,0.710591000000022,
-0.0193930334472658,0.189620771484375,0.0456813676757815,0.196007433729811,0.713588999999956,
0.006943184814453,0.194409174804688,0.0456813676757815,0.199824729241246,0.716536999999789,
-0.0193930334472658,0.172861359863281,0.000191536132813752,0.173945900113109,0.719445000000178,
-0.0193930334472658,0.175255561523438,-0.0285388837890626,0.178619902248064,0.722421999999824,
0.0141257897949217,0.177649763183594,-0.0237504804687489,0.179786155248433,0.725367000000006,
-0.0074220251464846,0.156101948242188,0.100748005859376,0.185938337593199,0.728383000000122,
-0.0146046301269533,0.196803376464844,0.0576523759765628,0.205593435364194,0.731318000000101,
-0.0385466467285158,0.192014973144531,0.0169509477539069,0.196578046880784,0.734226999999919,
-0.0074220251464846,0.144130939941406,0.0073741411132815,0.144510180481608,0.737199000000146,
-0.0217872351074221,0.170467158203125,-0.0141736738281235,0.17243731808765,0.74012700000003,
-0.0193930334472658,0.201591779785156,0.014556746093751,0.203044907052779,0.743133999999827,
-0.0193930334472658,0.199197578125,0.0456813676757815,0.205286512537678,0.746060999999827,
-0.0385466467285158,0.206380183105469,0.014556746093751,0.210453136848795,0.749049000000014,
-0.0265756384277346,0.168072956542969,-0.0572693037109371,0.179539846347467,0.75197100000014,
0.0141257897949217,0.158496149902344,0.0313161577148442,0.162176660482381,0.754906000000119,
0.00454898315429675,0.184832368164063,0.014556746093751,0.18546049828929,0.757901999999831,
-0.0217872351074221,0.153707746582031,0.0289219560546883,0.157915276382563,0.760823000000073,
-0.00502782348632835,0.151313544921875,-0.0357214887695303,0.155554146989869,0.763791999999739,
-0.0146046301269533,0.192014973144531,-0.0405098920898439,0.196784390869731,0.766713999999865,
-0.0529118566894533,0.168072956542969,-0.00938527050781168,0.176454715442588,0.769674000000123,
0.0213083947753905,0.136948334960938,-0.0381156904296862,0.143741782350883,0.772773000000143,
-0.0241814367675783,0.158496149902344,0.0217393510742188,0.161797313955265,0.775834000000032,
-0.000239420166015747,0.196803376464844,0.00258573779296967,0.196820507950551,0.77891899999986,
-0.0169988317871096,0.172861359863281,0.0432871660156255,0.179007789656131,0.781859000000168,
0.00454898315429675,0.182438166503906,-0.0141736738281235,0.183044450543662,0.784775999999965,
-0.0217872351074221,0.211168586425781,-0.0309330854492185,0.214531375985186,0.787761000000046,
0.0141257897949217,0.196803376464844,0.0863827958984373,0.215390562357139,0.790726000000177,
-0.000239420166015747,0.172861359863281,0.0672291826171882,0.185474715395856,0.793724000000111,
-0.0217872351074221,0.1608903515625,0.0480755693359374,0.169327048065291,0.796664999999848,
-0.0265756384277346,0.156101948242188,0.0624407792968764,0.170214375779631,0.799563999999918,
-0.00502782348632835,0.172861359863281,0.0408929643554696,0.177703582621652,0.802573999999822,
-0.0289698400878908,0.165678754882813,-0.0141736738281235,0.168788608869269,0.805494000000181,
-0.0313640417480471,0.206380183105469,0.0361045610351578,0.211849055747156,0.808508999999958,
-0.0337582434082033,0.215956989746094,0.0432871660156255,0.222824637685931,0.811470999999983,
-0.0193930334472658,0.168072956542969,0.00258573779296967,0.169207844106931,0.814413000000059,
-0.0146046301269533,0.187226569824219,-0.0165678754882812,0.188524741526101,0.817396999999801,
0.016519991455078,0.175255561523438,0.0361045610351578,0.179696859433082,0.820354999999836,
0.00454898315429675,0.18004396484375,0.014556746093751,0.180688741711357,0.823354999999992,
-0.0361524450683596,0.201591779785156,0.0265277543945324,0.206518683693714,0.826278999999886,
-0.00981622680664085,0.189620771484375,0.0456813676757815,0.195292556539616,0.829181999999946,
0.0117315881347655,0.187226569824219,0.0073741411132815,0.187738638978409,0.832178000000113,
-0.0361524450683596,0.146525141601563,-0.0309330854492185,0.15405671741663,0.835082999999941,
-0.0481234533691408,0.165678754882813,0.0241335527343765,0.174206041661229,0.838083000000097,
-0.000239420166015747,0.177649763183594,0.0361045610351578,0.181281645537391,0.841029000000162,
0.006943184814453,0.201591779785156,0.0217393510742188,0.202879404764118,0.844027000000096,
-0.0289698400878908,0.189620771484375,-0.00459686718749985,0.191876053224437,0.846935999999914,
-0.0313640417480471,0.168072956542969,0.0289219560546883,0.173403291139174,0.849869000000126,
0.026096798095703,0.170467158203125,0.0217393510742188,0.173817991824279,0.85287900000003,
-0.0361524450683596,0.189620771484375,0.0169509477539069,0.193779180750941,0.855801000000156,
-0.0169988317871096,0.146525141601563,0.00497993945312558,0.147591927965052,0.85879900000009,
0.00454898315429675,0.194409174804688,0.014556746093751,0.195006459772018,0.861742000000049,
-0.0193930334472658,0.146525141601563,0.0265277543945324,0.15016467168033,0.864643999999771,
-0.0361524450683596,0.151313544921875,0.00976834277343741,0.155878826919452,0.867655000000013,
-0.0385466467285158,0.158496149902344,0.0289219560546883,0.165660354490471,0.870575999999801,
-0.0193930334472658,0.175255561523438,-0.0261446821289049,0.178253039230201,0.873567999999977,
-0.0122104284667971,0.14173673828125,-0.0333272871093744,0.146113331383625,0.876467999999932,
-0.0385466467285158,0.156101948242188,-0.0285388837890626,0.16330379697651,0.879380999999739,
-0.0337582434082033,0.163284553222656,-0.00220266552734216,0.16675225951859,0.882354999999734,
0.006943184814453,0.177649763183594,-0.0381156904296862,0.181825333855011,0.885302000000138,
-0.0217872351074221,0.18004396484375,0.0193451494140628,0.182386259614413,0.888300999999956,
-0.00263362182617211,0.189620771484375,0.014556746093751,0.190196928994899,0.891239999999925,
-0.0361524450683596,0.1608903515625,0.0193451494140628,0.166032946478035,0.894142000000102,
-0.0146046301269533,0.182438166503906,0.0313161577148442,0.185681667249282,0.897144000000026,
-0.0313640417480471,0.153707746582031,-0.100364933593749,0.186233440523921,0.90005199999996,
-0.0265756384277346,0.172861359863281,-0.0429040937499998,0.180077970757484,0.903042999999798,
-0.00981622680664085,0.175255561523438,0.052863972656251,0.18331794718089,0.905987000000096,
-0.0289698400878908,0.187226569824219,0.0408929643554696,0.193817632367746,0.909010999999737,
-0.0600944616699221,0.211168586425781,0.0289219560546883,0.221449758993975,0.912103000000116,
-0.000239420166015747,0.172861359863281,-0.0165678754882812,0.173653682811491,0.915132000000085,
-0.0241814367675783,0.189620771484375,0.0576523759765628,0.199661151249353,0.918177999999898,
0.0141257897949217,0.170467158203125,0.0408929643554696,0.175871613675878,0.92112700000007,
0.0117315881347655,0.146525141601563,0.00497993945312558,0.147078370532443,0.924036999999771,
-0.00263362182617211,0.175255561523438,0.00497993945312558,0.175346079527817,0.927044000000024,
-0.0289698400878908,0.151313544921875,0.0432871660156255,0.160027557793046,0.929994999999963,
-0.0361524450683596,0.187226569824219,0.0313161577148442,0.193239461463193,0.932996999999887,
-0.0193930334472658,0.170467158203125,0.0839885942382814,0.191021532122059,0.935942000000068,
-0.0193930334472658,0.170467158203125,0.0456813676757815,0.1775441610554,0.938959999999952,
-0.0169988317871096,0.213562788085938,0.0384987626953137,0.217669886447886,0.941897000000154,
-0.0385466467285158,0.168072956542969,-0.00699106884765577,0.172578207600903,0.944826999999805,
-0.0289698400878908,0.189620771484375,0.0600465776367187,0.200999701738411,0.947846000000027,
-0.0361524450683596,0.163284553222656,0.0313161577148442,0.170145662123853,0.950820999999905,
-0.0074220251464846,0.172861359863281,-0.0165678754882812,0.173812055649926,0.9537949999999,
-0.0193930334472658,0.172861359863281,0.0073741411132815,0.174102031686101,0.956747000000178,
-0.00502782348632835,0.184832368164063,0.0265277543945324,0.186794017793295,0.959660999999869,
-0.0361524450683596,0.182438166503906,-0.0165678754882812,0.186722195734527,0.962646999999833,
-0.0122104284667971,0.170467158203125,0.0289219560546883,0.173333857429013,0.965575000000172,
-0.00263362182617211,0.18004396484375,0.00497993945312558,0.180132076648046,0.968578999999863,
-0.0074220251464846,0.158496149902344,-0.021356278808593,0.160100614101544,0.971484000000146,
0.006943184814453,0.148919343261719,0.014556746093751,0.14979011138826,0.974423999999999,
-0.0313640417480471,0.151313544921875,-0.0189620771484371,0.155688960306699,0.97740500000009,
-0.0074220251464846,0.192014973144531,0.0265277543945324,0.193980818954315,0.980359000000135,
-0.0672770666503908,0.182438166503906,0.0672291826171882,0.205741710136188,0.983350999999857,
-0.0217872351074221,0.177649763183594,-0.0452982954101557,0.184624097939242,0.986272000000099,
-0.00981622680664085,0.213562788085938,0.0361045610351578,0.216815502423835,0.989180999999917,
0.0021547814941405,0.18004396484375,0.0408929643554696,0.184642104877849,0.992193000000043,
0.0117315881347655,0.158496149902344,-0.0237504804687489,0.160694570588201,0.995116000000053,
-0.0505176550292971,0.170467158203125,0.0839885942382814,0.196634609002665,0.998121000000083,
-0.0241814367675783,0.182438166503906,0.000191536132813752,0.184033864186844,1.00104499999998,
-0.0409408483886721,0.182438166503906,0.00497993945312558,0.18704180671991,1.00397199999998,
0.0213083947753905,0.168072956542969,0.0289219560546883,0.171869269943838,1.00697899999977,
-0.00263362182617211,0.184832368164063,-0.0429040937499998,0.189764858563348,1.00989799999979,
