X,Y,Z,Magnitude,Seconds,
-0.13192051147461,0.587058247070313,-0.0117794721679676,0.601813229138033,0.0,
-0.163045133056641,0.599029255371094,0.014556746093751,0.620992482290038,0.00390000000015789,
-0.15107412475586,0.599029255371094,-0.021356278808593,0.618154940614201,0.00774700000010853,
-0.13192051147461,0.587058247070313,-0.0117794721679676,0.601813229138033,0.0116130000001249,
-0.143891519775391,0.594240852050781,-0.11233594189453,0.62164807049539,0.0156139999999141,
-0.11276689819336,0.60142345703125,0.000191536132813752,0.611904064933108,0.0196359999999913,
-0.110372696533203,0.599029255371094,0.0408929643554696,0.610483755282837,0.0235250000000633,
-0.11276689819336,0.606211860351563,-0.0117794721679676,0.61672355956588,0.0275030000002516,
-0.136708914794922,0.608606062011719,-0.0117794721679676,0.623882538677252,0.031402000000071,
-0.15107412475586,0.60142345703125,0.0456813676757815,0.621788029147312,0.0352820000002794,
-0.110372696533203,0.599029255371094,-0.0405098920898439,0.610458215021789,0.0391580000000431,
-0.127132108154297,0.599029255371094,0.0265277543945324,0.612945628475658,0.043105000000196,
-0.143891519775391,0.584664045410156,-0.0381156904296862,0.603315523847657,0.0468829999999798,
-0.163045133056641,0.63973068359375,0.0504697709960951,0.662107438962275,0.0507889999998952,
-0.134314713134766,0.503261188964844,0.00497993945312558,0.520900245997004,0.0546260000000984,
-0.146285721435547,0.611000263671875,-0.0524809003906235,0.630456247021813,0.0584400000002461,
-0.0840364782714846,0.591846650390625,-0.0452982954101557,0.599496891423085,0.0623669999999947,
-0.167833536376953,0.577481440429688,-0.021356278808593,0.601754934020562,0.0663650000001326,
-0.163045133056641,0.560722028808594,-0.0309330854492185,0.584764708904438,0.0703499999999622,
-0.136708914794922,0.613394465332031,0.0504697709960951,0.630467521184694,0.0742740000000595,
-0.11276689819336,0.627759675292969,0.00976834277343741,0.637882437266166,0.0781910000000607,
-0.141497318115235,0.584664045410156,0.0552581743164069,0.604075328794312,0.0820170000001781,
-0.153468326416016,0.618182868652344,0.0408929643554696,0.63825921132558,0.0858570000000327,
-0.167833536376953,0.548751020507813,0.0313161577148442,0.574696859374732,0.0898630000001504,
-0.127132108154297,0.613394465332031,0.0408929643554696,0.627763950508073,0.0937830000002577,
-0.110372696533203,0.567904633789063,-0.00220266552734216,0.578534922847813,0.0976350000000821,
-0.122343704833985,0.613394465332031,0.0169509477539069,0.625706070645179,0.101592999999866,
-0.15107412475586,0.548751020507813,0.00976834277343741,0.569250818356596,0.1055080000001,
-0.134314713134766,0.577481440429688,-0.0309330854492185,0.593702039730899,0.10937899999999,
-0.124737906494141,0.658884296875,0.0600465776367187,0.673270861890582,0.113225999999941,
-0.134314713134766,0.627759675292969,0.0744117875976578,0.646266018154975,0.117208000000119,
-0.175016141357422,0.58226984375,-0.0452982954101557,0.609689065215505,0.12103100000013,
-0.153468326416016,0.596635053710938,-0.0189620771484371,0.616348501173946,0.124913000000106,
-0.165439334716797,0.60142345703125,0.0504697709960951,0.62580152278766,0.128783999999996,
-0.0816422766113283,0.599029255371094,-0.00699106884765577,0.604607629098708,0.132669999999962,
-0.141497318115235,0.611000263671875,0.0384987626953137,0.628350991063096,0.136661000000004,
-0.146285721435547,0.611000263671875,-0.0333272871093744,0.629151446449176,0.140603000000283,
-0.15107412475586,0.611000263671875,-0.021356278808593,0.629762498107342,0.144595000000209,
-0.146285721435547,0.596635053710938,0.00258573779296967,0.6143122867504,0.148478999999952,
-0.129526309814453,0.579875642089844,-0.00459686718749985,0.594183436668507,0.152360999999928,
-0.175016141357422,0.596635053710938,-0.0476924970703116,0.623601324027697,0.156197000000247,
-0.124737906494141,0.687614716796875,0.0313161577148442,0.69953859493684,0.160084000000097,
-0.153468326416016,0.577481440429688,-0.0309330854492185,0.598326162748286,0.164060000000063,
-0.175016141357422,0.584664045410156,0.0217393510742188,0.61068428432058,0.16809400000011,
-0.127132108154297,0.613394465332031,-0.0237504804687489,0.62688071301183,0.172042000000147,
-0.115161099853516,0.630153876953125,-0.0476924970703116,0.642363263142692,0.175968999999895,
-0.119949503173828,0.570298835449219,-0.0165678754882812,0.583012126395822,0.179815999999846,
-0.136708914794922,0.572693037109375,0.0504697709960951,0.590943178251821,0.18372700000009,
-0.13192051147461,0.587058247070313,0.0552581743164069,0.604229983226398,0.18761399999994,
-0.0984016882324221,0.642124885253906,0.052863972656251,0.651768256448819,0.191569000000072,
-0.115161099853516,0.637336481933594,0.0289219560546883,0.648302668253796,0.195474999999988,
-0.127132108154297,0.579875642089844,0.0648349809570323,0.597178288259514,0.19936800000005,
-0.13192051147461,0.627759675292969,0.0384987626953137,0.6426253854313,0.203207999999904,
-0.143891519775391,0.565510432128906,0.0935654008789069,0.590983335257031,0.207151999999951,
-0.139103116455078,0.608606062011719,0.0073741411132815,0.624343970646058,0.211162999999942,
-0.115161099853516,0.644519086914063,0.0792001909179696,0.659499509141175,0.215113000000201,
-0.119949503173828,0.622971271972656,0.052863972656251,0.636612667655835,0.219094000000041,
-0.155862528076172,0.589452448730469,0.0265277543945324,0.61028766882992,0.222933000000012,
-0.148679923095703,0.560722028808594,-0.021356278808593,0.580492035920838,0.22672300000022,
-0.0960074865722658,0.584664045410156,0.0289219560546883,0.593199766533436,0.230528999999933,
-0.139103116455078,0.577481440429688,-0.00459686718749985,0.594016516804206,0.234451000000263,
-0.136708914794922,0.627759675292969,0.0073741411132815,0.642515303526303,0.238366000000042,
-0.139103116455078,0.6205770703125,0.0217393510742188,0.63634752815603,0.242345000000114,
-0.139103116455078,0.565510432128906,-0.00938527050781168,0.582442966441043,0.246304000000237,
-0.146285721435547,0.622971271972656,0.0169509477539069,0.640140650661168,0.250234000000091,
-0.0912190832519533,0.60142345703125,-0.00220266552734216,0.608305801018018,0.254116000000067,
-0.153468326416016,0.551145222167969,-0.00938527050781168,0.572190236227443,0.25799300000017,
-0.141497318115235,0.594240852050781,0.0241335527343765,0.611331423736279,0.261855000000196,
-0.143891519775391,0.615788666992188,0.0600465776367187,0.635221255426146,0.265776000000187,
-0.11276689819336,0.575087238769531,0.0408929643554696,0.587463990434727,0.26974700000028,
-0.15107412475586,0.594240852050781,0.0073741411132815,0.613188355543341,0.273705999999947,
-0.119949503173828,0.599029255371094,-0.0141736738281235,0.611084957376535,0.277568999999858,
-0.11276689819336,0.613394465332031,0.00258573779296967,0.623679268108259,0.281606000000011,
-0.153468326416016,0.627759675292969,-0.00938527050781168,0.646314799799116,0.28564200000028,
-0.110372696533203,0.572693037109375,0.0408929643554696,0.584663733634427,0.289679999999862,
-0.13192051147461,0.622971271972656,-0.00220266552734216,0.636789666048671,0.293707000000268,
-0.17022773803711,0.589452448730469,0.0289219560546883,0.61422158188524,0.297685000000001,
-0.122343704833985,0.625365473632813,0.119901619140625,0.648402927196539,0.301543000000038,
-0.359369669189453,0.330878669433594,0.227640693847658,0.538931849601529,0.305440999999973,
0.100317049560547,0.352426484375,-2.34852029248047,2.3769340549359,0.309463000000051,
-0.210929166259766,1.17124345214844,5.56192199267578,5.68781843855711,0.31344399999989,
-0.349792862548828,1.30292454345703,0.78788388232422,1.56228308083366,0.316392000000178,
0.205661922607422,0.33327287109375,-5.36521438427734,5.37948817474992,0.319339000000127,
0.27030536743164,0.424252534179688,0.189333467285158,0.53749638720131,0.322407999999996,
-0.385705887451172,0.637336481933594,3.29461302050781,3.37778652044762,0.325349000000188,
-0.402465299072266,0.603817658691406,-0.679761735351562,0.994308854809745,0.328335000000152,
-0.0792480749511721,0.328484467773438,-0.648637113769531,0.731377063019571,0.331278999999995,
-0.36176387084961,0.388339509277344,-0.0524809003906235,0.533324401864073,0.334214999999858,
-0.488656558837891,0.52480900390625,0.450301448242188,0.846747375174775,0.337211999999909,
-0.00263362182617211,0.611000263671875,-0.232046024902344,0.653585201671521,0.340205999999853,
0.0644040246582029,0.761834968261719,-0.00459686718749985,0.764566235486794,0.343245000000024,
-0.127132108154297,0.771411774902344,0.285101533691407,0.832178817259207,0.346219999999903,
0.0332794030761717,0.685220515136719,0.0361045610351578,0.686977592328074,0.349142000000029,
-0.0385466467285158,0.498472785644531,-0.0405098920898439,0.501599455102737,0.352147999999943,
-0.292332022705078,0.570298835449219,0.0696233842773442,0.644628721708712,0.355080000000271,
-0.268390006103516,0.536780012207031,-0.0452982954101557,0.601845422387087,0.358095999999932,
-0.148679923095703,0.48650177734375,-0.00699106884765577,0.50876180471219,0.361006000000089,
-0.160650931396485,0.637336481933594,-0.00938527050781168,0.657339026883809,0.363941999999952,
-0.0505176550292971,0.673249506835938,-0.021356278808593,0.675479846160522,0.366970000000038,
-0.0409408483886721,0.634942280273438,0.000191536132813752,0.636260865550999,0.369942000000265,
-0.201352359619141,0.618182868652344,0.0696233842773442,0.653865618806852,0.372949999999946,
-0.139103116455078,0.548751020507813,-0.0716345136718743,0.570621470911222,0.375882000000274,
-0.143891519775391,0.594240852050781,-0.0836055219726557,0.617103591800948,0.378857000000153,
-0.153468326416016,0.603817658691406,0.0121625444335951,0.623134190722675,0.381824999999935,
-0.107978494873047,0.6205770703125,0.0456813676757815,0.631555257206703,0.384767000000011,
-0.136708914794922,0.615788666992188,-0.0141736738281235,0.630940490704319,0.387798000000203,
-0.129526309814453,0.642124885253906,0.0432871660156255,0.656487023434703,0.390796000000137,
-0.134314713134766,0.541568415527344,0.0289219560546883,0.558724682113921,0.393873999999869,
-0.155862528076172,0.575087238769531,-0.0381156904296862,0.597052146559068,0.39685099999997,
-0.172621939697266,0.555933625488281,-0.00699106884765577,0.582159260904629,0.399817999999868,
-0.127132108154297,0.60142345703125,0.0504697709960951,0.616781926920345,0.402859000000262,
-0.122343704833985,0.649307490234375,0.0121625444335951,0.660845009419052,0.405898999999863,
-0.122343704833985,0.613394465332031,-0.0261446821289049,0.626022600723085,0.4089570000001,
-0.124737906494141,0.584664045410156,0.052863972656251,0.600155139040658,0.411935000000085,
-0.165439334716797,0.579875642089844,-0.0381156904296862,0.604217460536831,0.414847999999893,
-0.165439334716797,0.589452448730469,-0.0357214887695303,0.613270240225134,0.417897000000266,
-0.127132108154297,0.58226984375,0.0073741411132815,0.596032819416485,0.420879000000241,
-0.119949503173828,0.56311623046875,-0.0141736738281235,0.575924183689805,0.423873000000185,
-0.124737906494141,0.591846650390625,-0.0237504804687489,0.605314867005297,0.426797999999962,
-0.107978494873047,0.599029255371094,0.0384987626953137,0.609899630164313,0.429719000000205,
-0.155862528076172,0.6205770703125,0.0480755693359374,0.64165433702494,0.432760000000144,
-0.117555301513672,0.591846650390625,0.0648349809570323,0.606881603979122,0.435717000000295,
-0.0864306799316408,0.611000263671875,0.000191536132813752,0.617083155925226,0.438815999999861,
-0.153468326416016,0.579875642089844,0.0265277543945324,0.600426522777982,0.441800999999941,
-0.139103116455078,0.589452448730469,0.0456813676757815,0.607363691435857,0.444749000000229,
-0.117555301513672,0.627759675292969,0.000191536132813752,0.638671664882664,0.447789000000284,
-0.124737906494141,0.579875642089844,0.0313161577148442,0.593966335190531,0.450733000000128,
-0.139103116455078,0.570298835449219,-0.0117794721679676,0.587136436177151,0.453759999999875,
-0.129526309814453,0.632548078613281,0.0408929643554696,0.646967055749581,0.456709000000046,
-0.134314713134766,0.60142345703125,0.0217393510742188,0.616622425976401,0.459695000000011,
-0.160650931396485,0.60142345703125,0.0073741411132815,0.62255383251823,0.462738000000172,
-0.158256729736328,0.591846650390625,-0.0117794721679676,0.61275313630368,0.465668000000278,
-0.0936132849121096,0.565510432128906,0.0456813676757815,0.575023724129177,0.468721000000187,
-0.124737906494141,0.630153876953125,-0.00938527050781168,0.642449637915767,0.471673999999894,
-0.179804544677735,0.577481440429688,0.0792001909179696,0.609989474146036,0.474690999999893,
-0.15107412475586,0.589452448730469,0.00258573779296967,0.60850987381063,0.477660000000014,
-0.15107412475586,0.599029255371094,0.000191536132813752,0.617785947272424,0.480649999999969,
-0.115161099853516,0.632548078613281,-0.0452982954101557,0.644539437306897,0.483698000000004,
-0.115161099853516,0.608606062011719,0.0648349809570323,0.622789685521993,0.486631000000216,
-0.163045133056641,0.596635053710938,0.0289219560546883,0.619187840862642,0.489606000000094,
-0.146285721435547,0.613394465332031,0.0432871660156255,0.632080739413527,0.492619999999988,
-0.127132108154297,0.606211860351563,0.0432871660156255,0.620909954257719,0.495570000000043,
-0.0792480749511721,0.58226984375,0.0193451494140628,0.587956344578378,0.498595000000023,
-0.141497318115235,0.632548078613281,0.0193451494140628,0.648469581088435,0.501514999999927,
-0.143891519775391,0.587058247070313,-0.00938527050781168,0.60450826149776,0.504577000000154,
-0.115161099853516,0.6205770703125,-0.00699106884765577,0.631210625830039,0.507559000000128,
-0.167833536376953,0.611000263671875,0.0624407792968764,0.636701082973083,0.510499999999865,
-0.103190091552735,0.60142345703125,-0.0476924970703116,0.612072662303164,0.51355599999988,
-0.134314713134766,0.6205770703125,-0.0189620771484371,0.635229015971329,0.516496000000188,
-0.141497318115235,0.613394465332031,-0.0548751020507812,0.631890447750918,0.519502000000102,
-0.13192051147461,0.60142345703125,0.0720175859375001,0.619919130773852,0.52249699999993,
-0.148679923095703,0.577481440429688,-0.0405098920898439,0.597688535049504,0.525466000000051,
-0.139103116455078,0.6205770703125,-0.0620577070312489,0.638996663690146,0.528599000000213,
-0.184592947998047,0.599029255371094,-0.00220266552734216,0.626829687376469,0.531538000000182,
-0.134314713134766,0.627759675292969,0.000191536132813752,0.641967825342126,0.534639999999854,
-0.163045133056641,0.546356818847656,-0.0141736738281235,0.570342337499659,0.537600999999995,
-0.148679923095703,0.515232197265625,-0.0476924970703116,0.538372093358961,0.540559999999914,
-0.0648828649902345,0.692403120117188,-0.0620577070312489,0.698199846690999,0.543642999999975,
0.0428562097167967,0.843237824707031,-0.097970731933593,0.84999114586185,0.546682000000146,
-0.184592947998047,0.666066901855469,1.23081118945313,1.41160045986142,0.549731999999949,
-0.287543619384766,0.397916315917969,-0.756376188476562,0.901733700167046,0.552677000000131,
-0.0720654699707033,0.412281525878906,-1.19690929394531,1.26797529411097,0.555644000000029,
-0.179804544677735,0.594240852050781,1.26193581103516,1.40639036391244,0.558734000000186,
-0.134314713134766,0.6971915234375,-0.114730143554686,0.719221432076141,0.561678000000029,
0.035673604736328,0.594240852050781,-0.433158964355469,0.736221084133309,0.564726000000064,
-0.129526309814453,0.618182868652344,0.330591365234376,0.712893943582718,0.56766400000015,
-0.234871182861328,0.632548078613281,0.0648349809570323,0.677853316766786,0.57068500000014,
-0.0217872351074221,0.560722028808594,-0.0764229169921862,0.566325294725961,0.573627000000215,
-0.17022773803711,0.572693037109375,0.124690022460939,0.610329746327426,0.576587999999902,
-0.218111771240235,0.594240852050781,0.00258573779296967,0.633009969147031,0.579725999999937,
-0.0289698400878908,0.555933625488281,0.0289219560546883,0.557438720511315,0.582672999999886,
-0.0984016882324221,0.618182868652344,0.0289219560546883,0.626633410284084,0.585747999999967,
-0.153468326416016,0.627759675292969,-0.0524809003906235,0.648374106548586,0.588682999999946,
-0.110372696533203,0.587058247070313,0.0432871660156255,0.598910090359933,0.591655000000173,
-0.172621939697266,0.615788666992188,0.0193451494140628,0.639818920685153,0.594708999999966,
-0.20853496459961,0.575087238769531,-0.0333272871093744,0.612636002633044,0.597653000000264,
-0.13192051147461,0.520020600585938,0.0337103593750001,0.537550774076899,0.600721000000249,
-0.0888248815917971,0.63973068359375,0.014556746093751,0.646031814988984,0.603679000000284,
-0.141497318115235,0.579875642089844,0.0073741411132815,0.596935196884948,0.606597999999849,
-0.117555301513672,0.606211860351563,0.0313161577148442,0.618298285845023,0.609631000000263,
-0.158256729736328,0.622971271972656,0.00258573779296967,0.642763630154974,0.612605000000258,
-0.163045133056641,0.596635053710938,0.0504697709960951,0.620567724357712,0.61560499999996,
-0.158256729736328,0.591846650390625,-0.00459686718749985,0.612657148226787,0.618596000000252,
-0.146285721435547,0.611000263671875,0.00976834277343741,0.628344057840574,0.621556000000055,
-0.105584293212891,0.630153876953125,0.0408929643554696,0.640245410874688,0.624596999999994,
-0.146285721435547,0.565510432128906,0.00258573779296967,0.584130334071494,0.627545000000282,
-0.143891519775391,0.613394465332031,0.0289219560546883,0.630709139861846,0.630579000000125,
-0.136708914794922,0.577481440429688,-0.0141736738281235,0.593611855049188,0.633509000000231,
-0.177410343017578,0.646913288574219,0.00976834277343741,0.670870071820218,0.636463000000276,
-0.15107412475586,0.591846650390625,0.00497993945312558,0.610844209718246,0.639462000000094,
-0.117555301513672,0.599029255371094,-0.0405098920898439,0.61179763734551,0.642420000000129,
-0.122343704833985,0.599029255371094,-0.059663505371093,0.614299409714936,0.645469000000048,
-0.110372696533203,0.603817658691406,0.0576523759765628,0.616523879134722,0.648450000000139,
-0.11276689819336,0.560722028808594,0.00976834277343741,0.572032330764544,0.651378999999906,
-0.148679923095703,0.589452448730469,0.00497993945312558,0.607934789794964,0.654411999999866,
-0.158256729736328,0.622971271972656,0.0241335527343765,0.643211338968499,0.657329000000118,
-0.0864306799316408,0.649307490234375,0.0576523759765628,0.657566936337018,0.66036800000029,
-0.17022773803711,0.627759675292969,0.052863972656251,0.652575123894686,0.663324000000102,
-0.172621939697266,0.546356818847656,0.103142207519532,0.582187617987689,0.666396000000077,
-0.172621939697266,0.491290180664063,-0.107547538574218,0.531724410512764,0.669365000000198,
-0.103190091552735,0.587058247070313,0.014556746093751,0.596236093594448,0.672399999999925,
-0.0840364782714846,0.596635053710938,0.105536409179688,0.611697188696719,0.675450000000183,
-0.0960074865722658,0.622971271972656,-0.0644519086914048,0.633612414426294,0.678413999999975,
-0.110372696533203,0.642124885253906,-0.0788171186523439,0.656291580469391,0.681426000000101,
-0.143891519775391,0.6205770703125,-0.0405098920898439,0.638327283623415,0.684463000000051,
-0.153468326416016,0.575087238769531,-0.0452982954101557,0.596933660447761,0.687453000000005,
-0.127132108154297,0.603817658691406,-0.0500866987304676,0.619085628375465,0.690473999999995,
-0.143891519775391,0.56311623046875,0.0121625444335951,0.581336895412381,0.69342000000006,
-0.0672770666503908,0.611000263671875,0.0169509477539069,0.614926711514419,0.696500000000015,
-0.129526309814453,0.622971271972656,0.0648349809570323,0.639588809621524,0.699500000000171,
-0.11276689819336,0.6205770703125,0.0169509477539069,0.630967200538628,0.702424000000065,
-0.158256729736328,0.596635053710938,-0.0165678754882812,0.617489331342401,0.705421999999999,
-0.172621939697266,0.606211860351563,0.0552581743164069,0.632727919033554,0.708374000000276,
-0.115161099853516,0.584664045410156,0.0696233842773442,0.599951281816342,0.711427000000185,
-0.167833536376953,0.594240852050781,0.00258573779296967,0.617492487580834,0.714382999999998,
-0.148679923095703,0.611000263671875,0.0265277543945324,0.629389198741178,0.717372999999952,
-0.158256729736328,0.596635053710938,0.00976834277343741,0.617344312636012,0.720475999999962,
-0.119949503173828,0.599029255371094,0.0121625444335951,0.611041618540991,0.723441000000093,
-0.124737906494141,0.599029255371094,0.0480755693359374,0.613764494308658,0.726497000000109,
-0.148679923095703,0.611000263671875,-0.021356278808593,0.629192444633115,0.729440000000068,
-0.124737906494141,0.575087238769531,0.0193451494140628,0.588777642508577,0.73239999999987,
-0.0912190832519533,0.572693037109375,-0.0476924970703116,0.581870097341055,0.735408000000007,
-0.153468326416016,0.579875642089844,-0.0261446821289049,0.6004097200293,0.738401999999951,
-0.100795889892578,0.608606062011719,0.0313161577148442,0.61769074128618,0.741469999999936,
-0.129526309814453,0.594240852050781,-0.0548751020507812,0.610664009096059,0.744428999999855,
-0.13192051147461,0.6205770703125,0.00976834277343741,0.634518984795497,0.747366000000056,
-0.105584293212891,0.608606062011719,-0.0117794721679676,0.617809143389149,0.750403999999889,
-0.136708914794922,0.634942280273438,-0.0117794721679676,0.649599709534875,0.753360000000157,
-0.186987149658203,0.625365473632813,0.0073741411132815,0.652763776343671,0.756381000000147,
-0.110372696533203,0.579875642089844,0.0073741411132815,0.590332338929757,0.759368999999879,
-0.110372696533203,0.584664045410156,-0.0261446821289049,0.595565044759178,0.762404999999944,
-0.119949503173828,0.642124885253906,-0.0165678754882812,0.653442228565147,0.765345000000252,
-0.115161099853516,0.58226984375,0.0169509477539069,0.59379085921718,0.76826200000005,
-0.136708914794922,0.596635053710938,-0.0452982954101557,0.613770845078295,0.771317000000181,
-0.115161099853516,0.58226984375,0.00976834277343741,0.593629236460487,0.774291000000176,
-0.179804544677735,0.608606062011719,0.00976834277343741,0.634686090539819,0.777282999999898,
-0.119949503173828,0.591846650390625,0.000191536132813752,0.603879439603917,0.780220999999983,
-0.100795889892578,0.572693037109375,0.0576523759765628,0.584346577493648,0.783194999999978,
-0.134314713134766,0.567904633789063,-0.00938527050781168,0.583647323771872,0.786290999999892,
-0.141497318115235,0.642124885253906,0.0073741411132815,0.657571469312123,0.789252000000033,
-0.146285721435547,0.613394465332031,-0.0141736738281235,0.630756034791323,0.792295000000195,
-0.117555301513672,0.625365473632813,-0.0261446821289049,0.636855375206635,0.795258999999987,
-0.136708914794922,0.579875642089844,-0.0141736738281235,0.595941256084272,0.798151999999845,
-0.0984016882324221,0.584664045410156,0.0169509477539069,0.593129221057364,0.801264000000174,
-0.103190091552735,0.587058247070313,0.0456813676757815,0.597806296220322,0.804251999999906,
-0.146285721435547,0.591846650390625,-0.0165678754882812,0.609882336498374,0.807342000000062,
-0.11276689819336,0.572693037109375,-0.0165678754882812,0.583924809012176,0.810295000000224,
-0.141497318115235,0.58226984375,-0.0189620771484371,0.599515823264271,0.813292000000274,
-0.17022773803711,0.613394465332031,0.0193451494140628,0.636870856377533,0.81637899999987,
-0.110372696533203,0.615788666992188,-0.0620577070312489,0.62867238967367,0.819359000000077,
-0.122343704833985,0.606211860351563,0.0265277543945324,0.619002846113509,0.822430000000168,
-0.103190091552735,0.60142345703125,0.0552581743164069,0.612708605693493,0.825501000000259,
-0.129526309814453,0.594240852050781,0.0456813676757815,0.609906585087354,0.828438000000006,
-0.13192051147461,0.591846650390625,0.014556746093751,0.60654544576904,0.831502999999884,
-0.153468326416016,0.60142345703125,-0.0141736738281235,0.620857145332273,0.834463000000142,
-0.136708914794922,0.630153876953125,-0.00459686718749985,0.64482894414829,0.837539000000106,
-0.119949503173828,0.577481440429688,0.014556746093751,0.589986945795611,0.840517999999975,
-0.13192051147461,0.613394465332031,0.0361045610351578,0.628457898967968,0.843452999999954,
-0.13192051147461,0.596635053710938,-0.0285388837890626,0.611711432419161,0.846460000000206,
-0.182198746337891,0.6205770703125,-0.00938527050781168,0.646838748582094,0.849419000000125,
-0.0936132849121096,0.603817658691406,0.00497993945312558,0.611051562355064,0.852440000000115,
-0.129526309814453,0.63973068359375,0.014556746093751,0.652873886230958,0.855385000000297,
-0.127132108154297,0.558327827148438,-0.0381156904296862,0.573886174558146,0.858465000000251,
-0.119949503173828,0.58226984375,0.000191536132813752,0.594496502040498,0.861435000000256,
-0.119949503173828,0.615788666992188,-0.059663505371093,0.630193065322707,0.864419999999882,
-0.129526309814453,0.58226984375,-0.0165678754882812,0.596732545092854,0.867447000000084,
-0.0864306799316408,0.560722028808594,-0.00220266552734216,0.5673484888145,0.870398999999907,
-0.146285721435547,0.584664045410156,0.00497993945312558,0.602707522840262,0.873427999999876,
-0.136708914794922,0.579875642089844,0.0432871660156255,0.597343173071542,0.876400000000103,
-0.115161099853516,0.618182868652344,0.0073741411132815,0.628861285159033,0.879382000000078,
-0.141497318115235,0.603817658691406,-0.021356278808593,0.620542783880311,0.882427000000007,
-0.129526309814453,0.613394465332031,0.0408929643554696,0.628253189063053,0.885357000000113,
-0.0912190832519533,0.622971271972656,-0.021356278808593,0.62997636264951,0.888374000000113,
-0.153468326416016,0.587058247070313,0.0504697709960951,0.608881852620522,0.891356999999971,
-0.15107412475586,0.587058247070313,0.00258573779296967,0.606190945712612,0.894260999999915,
-0.143891519775391,0.632548078613281,0.0121625444335951,0.648821831250864,0.897331000000122,
-0.175016141357422,0.606211860351563,0.0696233842773442,0.634799877918053,0.900285000000167,
-0.129526309814453,0.611000263671875,-0.0476924970703116,0.626396808275755,0.903331999999864,
-0.119949503173828,0.58226984375,0.00497993945312558,0.594517328636647,0.906268000000182,
-0.127132108154297,0.570298835449219,-0.0333272871093744,0.585246992905185,0.90918099999999,
-0.146285721435547,0.599029255371094,-0.0189620771484371,0.616923918693504,0.912204000000202,
-0.15107412475586,0.606211860351563,-0.0309330854492185,0.625518238404813,0.915147000000161,
-0.105584293212891,0.594240852050781,0.0169509477539069,0.60378602819961,0.918161000000055,
-0.146285721435547,0.58226984375,-0.0405098920898439,0.601729785363579,0.921106000000236,
-0.139103116455078,0.565510432128906,-0.0261446821289049,0.582953917782323,0.924035999999887,
-0.117555301513672,0.6205770703125,0.0193451494140628,0.631909316213544,0.927083999999923,
-0.129526309814453,0.553539423828125,-0.0189620771484371,0.568807980812423,0.930008000000271,
-0.148679923095703,0.615788666992188,-0.0309330854492185,0.634238328787506,0.93304500000022,
-0.136708914794922,0.541568415527344,-0.00699106884765577,0.558600529112563,0.935961000000134,
-0.158256729736328,0.587058247070313,-0.0261446821289049,0.608577129346583,0.938896000000113,
-0.143891519775391,0.632548078613281,0.00258573779296967,0.648712977564469,0.941935000000285,
-0.107978494873047,0.594240852050781,-0.0117794721679676,0.604086336185187,0.944952000000285,
-0.134314713134766,0.58226984375,0.100748005859376,0.605994037751004,0.948037000000113,
-0.143891519775391,0.58226984375,0.000191536132813752,0.599785775998407,0.951047999999901,
-0.124737906494141,0.606211860351563,-0.0309330854492185,0.619684775287284,0.95408499999985,
-0.141497318115235,0.613394465332031,0.0241335527343765,0.629965625650603,0.957065999999941,
-0.117555301513672,0.599029255371094,0.0193451494140628,0.610761436659413,0.96001699999988,
-0.127132108154297,0.618182868652344,0.0361045610351578,0.632152016010815,0.963087999999971,
-0.0936132849121096,0.567904633789063,0.0265277543945324,0.576179522322984,0.966107000000193,
-0.172621939697266,0.599029255371094,-0.0141736738281235,0.623566576946744,0.969089000000167,
-0.105584293212891,0.627759675292969,0.0408929643554696,0.637889087091931,0.972056000000066,
-0.15107412475586,0.594240852050781,0.0432871660156255,0.61467012304036,0.975032000000283,
-0.139103116455078,0.613394465332031,0.0576523759765628,0.631606082588845,0.978118999999879,
-0.146285721435547,0.613394465332031,0.0121625444335951,0.630714047634097,0.981041000000005,
-0.117555301513672,0.591846650390625,0.000191536132813752,0.603408438106945,0.984061000000111,
-0.141497318115235,0.63973068359375,0.00258573779296967,0.655197317306065,0.986972000000151,
-0.13192051147461,0.567904633789063,-0.0117794721679676,0.583144450707857,0.989927999999964,
-0.107978494873047,0.60142345703125,-0.021356278808593,0.611412807084558,0.992935000000216,
-0.122343704833985,0.60142345703125,-0.0931823286132811,0.620774599307767,0.995909000000211,
-0.11276689819336,0.591846650390625,0.0193451494140628,0.602804334517102,0.999008000000231,
-0.143891519775391,0.577481440429688,0.014556746093751,0.59531628766636,1.00194099999999,
-0.119949503173828,0.572693037109375,-0.0309330854492185,0.585936902610355,1.00487999999996,
-0.129526309814453,0.579875642089844,0.00497993945312558,0.59418652376187,1.00792799999999,
-0.13192051147461,0.642124885253906,0.0624407792968764,0.658503030007658,1.01088100000015,
-0.139103116455078,0.558327827148438,-0.0405098920898439,0.576819461298716,1.01389199999994,
-0.146285721435547,0.572693037109375,-0.0165678754882812,0.591313217802269,1.01685700000007,
-0.122343704833985,0.589452448730469,0.0384987626953137,0.603244831022961,1.01984200000015,
-0.139103116455078,0.632548078613281,-0.0285388837890626,0.648290996893212,1.02287200000001,
-0.172621939697266,0.615788666992188,-0.00938527050781168,0.639595262461634,1.02578399999993,
