X,Y,Z,Magnitude,Seconds,
-0.122343704833985,0.608606062011719,-0.0381156904296862,0.621950260621257,0.0,
-0.18938135131836,0.634942280273438,0.0241335527343765,0.663022943700732,0.00408299999980954,
-0.105584293212891,0.584664045410156,0.0792001909179696,0.599376975875849,0.00788299999976516,
-0.100795889892578,0.560722028808594,0.0600465776367187,0.572865251604899,0.0116629999997713,
-0.11276689819336,0.618182868652344,-0.00699106884765577,0.628422873125275,0.0154389999997875,
-0.117555301513672,0.622971271972656,0.0217393510742188,0.634338280416946,0.0192560000000412,
-0.117555301513672,0.567904633789063,0.0073741411132815,0.579990775745803,0.0230619999997543,
-0.141497318115235,0.570298835449219,-0.0429040937499998,0.589154490782382,0.0269010000001799,
-0.100795889892578,0.584664045410156,0.00976834277343741,0.593369427873686,0.0306729999997515,
-0.175016141357422,0.558327827148438,0.00497993945312558,0.585137088297173,0.0344540000000961,
-0.143891519775391,0.627759675292969,0.0169509477539069,0.644262612617682,0.0382190000000264,
-0.124737906494141,0.587058247070313,-0.0165678754882812,0.600392725862001,0.0419419999998354,
-0.117555301513672,0.589452448730469,-0.00220266552734216,0.601064297695132,0.0456659999999829,
-0.143891519775391,0.596635053710938,-0.0309330854492185,0.614520148209425,0.0494020000001001,
-0.155862528076172,0.587058247070313,0.0289219560546883,0.608084692007284,0.053244000000177,
-0.172621939697266,0.613394465332031,-0.0429040937499998,0.63866412567587,0.056952999999794,
-0.105584293212891,0.625365473632813,-0.0165678754882812,0.634432433820539,0.0606760000000577,
-0.167833536376953,0.596635053710938,0.0552581743164069,0.622249908861568,0.0643970000000991,
-0.148679923095703,0.584664045410156,-0.00220266552734216,0.603276567804965,0.0681089999998221,
-0.139103116455078,0.570298835449219,0.014556746093751,0.587198720689247,0.072041999999783,
-0.160650931396485,0.570298835449219,-0.00459686718749985,0.592512121952988,0.0759979999997995,
-0.136708914794922,0.603817658691406,0.0289219560546883,0.619775420514565,0.0797809999999117,
-0.105584293212891,0.572693037109375,-0.0189620771484371,0.582653342989302,0.0835520000000542,
-0.122343704833985,0.58226984375,-0.0261446821289049,0.595558307352669,0.0872920000001614,
-0.163045133056641,0.591846650390625,0.0959596025390628,0.621348870049279,0.0911270000001423,
-0.13192051147461,0.579875642089844,-0.0500866987304676,0.59679767009142,0.0949099999997998,
-0.155862528076172,0.615788666992188,-0.0117794721679676,0.635316902040916,0.0986549999997806,
-0.122343704833985,0.611000263671875,-0.0309330854492185,0.623895952940083,0.102524999999787,
-0.115161099853516,0.591846650390625,0.0121625444335951,0.603069203313495,0.106318000000101,
-0.119949503173828,0.579875642089844,0.0337103593750001,0.593110471944265,0.110071000000062,
-0.143891519775391,0.591846650390625,-0.00938527050781168,0.609159511412552,0.113788000000113,
-0.136708914794922,0.558327827148438,0.0337103593750001,0.575808716747057,0.11756000000014,
-0.119949503173828,0.589452448730469,0.0313161577148442,0.602347718813656,0.121291999999812,
-0.139103116455078,0.611000263671875,0.0073741411132815,0.626678049058505,0.125093000000106,
-0.119949503173828,0.613394465332031,0.0504697709960951,0.627046929022075,0.128849000000173,
-0.141497318115235,0.565510432128906,0.0672291826171882,0.586807722235999,0.132571999999982,
-0.124737906494141,0.560722028808594,0.0768059892578137,0.579541110615664,0.136274999999841,
-0.119949503173828,0.572693037109375,0.0169509477539069,0.585365298505953,0.140041999999994,
-0.119949503173828,0.58226984375,-0.095576530273437,0.602130324258301,0.14402999999993,
-0.15107412475586,0.646913288574219,0.00976834277343741,0.664391160857216,0.147954000000027,
-0.127132108154297,0.491290180664063,-0.124306950195312,0.522475676378856,0.151739999999791,
-0.124737906494141,0.599029255371094,0.0121625444335951,0.611999609145371,0.155534999999873,
-0.11276689819336,0.646913288574219,0.0241335527343765,0.657111561783572,0.159376999999949,
-0.119949503173828,0.642124885253906,0.0313161577148442,0.653982379967543,0.163215000000037,
-0.153468326416016,0.625365473632813,0.0217393510742188,0.644288058410253,0.167011999999886,
-0.0960074865722658,0.548751020507813,0.00258573779296967,0.557092277837544,0.170810999999958,
-0.11276689819336,0.608606062011719,-0.0333272871093744,0.619861613678113,0.174715000000106,
-0.0984016882324221,0.60142345703125,-0.0117794721679676,0.609534103130388,0.178508999999849,
-0.167833536376953,0.558327827148438,-0.0692403120117184,0.587104998538226,0.182238999999754,
-0.0864306799316408,0.594240852050781,0.0432871660156255,0.602051685008147,0.185986999999841,
-0.117555301513672,0.649307490234375,0.0384987626953137,0.660985340622244,0.189731999999822,
-0.127132108154297,0.575087238769531,0.014556746093751,0.589151766505166,0.193471999999929,
-0.153468326416016,0.565510432128906,-0.0405098920898439,0.58736328402164,0.197259999999915,
-0.11276689819336,0.584664045410156,0.0648349809570323,0.598959092158404,0.201000999999906,
-0.115161099853516,0.622971271972656,0.0193451494140628,0.633821362395236,0.204736000000139,
-0.0816422766113283,0.6205770703125,0.0265277543945324,0.626486299356293,0.208467999999812,
-0.146285721435547,0.553539423828125,-0.00459686718749985,0.572561382923989,0.212328999999954,
-0.11276689819336,0.668461103515625,0.0265277543945324,0.678424897829299,0.216261000000031,
-0.134314713134766,0.587058247070313,0.0121625444335951,0.602350193081103,0.22001199999977,
-0.160650931396485,0.546356818847656,-0.00220266552734216,0.569490427483478,0.223887999999988,
-0.11276689819336,0.577481440429688,0.0600465776367187,0.591444654092655,0.227640000000065,
-0.0792480749511721,0.651701691894531,-0.0237504804687489,0.65693183658897,0.231409999999869,
-0.115161099853516,0.630153876953125,0.0720175859375001,0.644625876181519,0.235213999999814,
-0.15107412475586,0.575087238769531,0.0121625444335951,0.594724012339683,0.238957000000028,
-0.160650931396485,0.60142345703125,-0.0141736738281235,0.622671494012504,0.242682999999943,
-0.148679923095703,0.596635053710938,0.0265277543945324,0.615453352092272,0.246534999999767,
-0.0648828649902345,0.618182868652344,0.0576523759765628,0.62424645911717,0.250282999999854,
-0.0864306799316408,0.622971271972656,0.00258573779296967,0.628943681243885,0.254007999999885,
-0.167833536376953,0.591846650390625,0.0073741411132815,0.615227544465099,0.257751000000098,
-0.17022773803711,0.591846650390625,0.0289219560546883,0.616519602217045,0.26147600000013,
-0.136708914794922,0.630153876953125,0.0337103593750001,0.645693134819204,0.265205000000151,
-0.160650931396485,0.613394465332031,0.0121625444335951,0.634199826037209,0.269001000000117,
-0.0888248815917971,0.596635053710938,0.0504697709960951,0.605318465512864,0.272744999999759,
-0.155862528076172,0.606211860351563,0.0169509477539069,0.62615755359091,0.276476999999886,
-0.136708914794922,0.634942280273438,0.0073741411132815,0.649534760132509,0.280201999999917,
-0.127132108154297,0.577481440429688,0.0265277543945324,0.591904644953661,0.284150999999838,
-0.124737906494141,0.589452448730469,-0.0165678754882812,0.602733962150037,0.287973999999849,
-0.13192051147461,0.60142345703125,0.0720175859375001,0.619919130773852,0.291768000000047,
-0.22768857788086,0.500866987304688,0.275524727050781,0.615324063145177,0.29564500000015,
0.27030536743164,0.3141192578125,-2.72201575146484,2.75338076753175,0.299429000000146,
-0.835815799560547,1.33404916503906,5.65529585742188,5.87031911061992,0.303308000000015,
-0.488656558837891,1.3101071484375,0.785489680664064,1.60379550171213,0.306261000000177,
0.512119735107422,0.0890643017578125,-5.22156228466797,5.24737189129959,0.309205999999904,
0.777876119384766,0.239899006347656,0.332985566894532,0.879501096142448,0.31222200000002,
-0.34261025756836,0.838449421386719,3.36165066699219,3.48153334433318,0.315142999999807,
-0.586818826904297,0.828872614746094,-0.574416862304687,1.16676513437166,0.318147999999837,
-0.115161099853516,0.354820686035156,-1.30225416699219,1.35463120944648,0.321074999999837,
-0.402465299072266,0.505655390625,0.414388423339844,0.767713134200224,0.323969999999917,
-0.675404288330078,0.63973068359375,0.246794307128907,0.962462326669062,0.327001999999993,
-0.119949503173828,0.510443793945313,-0.222469218261718,0.569590469691087,0.329905000000053,
0.0428562097167967,0.534385810546875,-0.186556193359374,0.567633739752907,0.332941000000119,
-0.198958157958985,0.812113203125,0.26355371875,0.876682819482242,0.335887000000184,
0.160172091064453,0.71634513671875,0.0504697709960951,0.735766709929827,0.338816999999835,
0.138624276123047,0.553539423828125,-0.160219975097656,0.592699775673068,0.341833999999835,
-0.218111771240235,0.572693037109375,0.107930610839844,0.622253225193228,0.344779999999901,
-0.256418997802735,0.5439626171875,0.00976834277343741,0.601449459100408,0.347777999999835,
-0.177410343017578,0.488895979003906,-0.0548751020507812,0.522977040529397,0.350704999999834,
-0.215717569580078,0.589452448730469,-0.0333272871093744,0.628568983649331,0.353625000000193,
-0.194169754638672,0.680432111816406,0.0169509477539069,0.707797348848618,0.356620999999905,
-0.0169988317871096,0.673249506835938,0.0384987626953137,0.674563572590478,0.359552999999778,
-0.0385466467285158,0.654095893554688,0.014556746093751,0.655392386891972,0.362560999999914,
-0.15107412475586,0.611000263671875,0.0408929643554696,0.630727316604908,0.365494000000126,
-0.0960074865722658,0.520020600585938,-0.0333272871093744,0.529858066445868,0.368476999999984,
-0.141497318115235,0.536780012207031,0.0576523759765628,0.558102203000962,0.371422000000166,
-0.218111771240235,0.577481440429688,0.0169509477539069,0.617531289429171,0.374332999999751,
-0.15107412475586,0.627759675292969,-0.00938527050781168,0.645750481530744,0.377324999999928,
-0.136708914794922,0.654095893554688,0.0768059892578137,0.672629114248991,0.38026200000013,
-0.107978494873047,0.596635053710938,0.0313161577148442,0.607135441566149,0.383253999999852,
-0.0553060583496096,0.572693037109375,0.0672291826171882,0.579271816886603,0.386183000000074,
-0.136708914794922,0.651701691894531,0.00976834277343741,0.66595783884803,0.389094999999998,
-0.136708914794922,0.58226984375,0.0552581743164069,0.600650450889565,0.392100999999911,
-0.148679923095703,0.531991608886719,-0.00220266552734216,0.552381791149065,0.395116000000144,
-0.184592947998047,0.584664045410156,-0.0644519086914048,0.616490592774897,0.398205999999846,
-0.0912190832519533,0.625365473632813,-0.0141736738281235,0.632142222756165,0.401213999999982,
-0.0960074865722658,0.603817658691406,0.0408929643554696,0.612768665125162,0.404179999999997,
-0.20853496459961,0.63973068359375,-0.021356278808593,0.673200022011614,0.407173000000057,
-0.103190091552735,0.570298835449219,0.00497993945312558,0.579580672992426,0.410111000000143,
-0.124737906494141,0.575087238769531,0.0217393510742188,0.58886116945952,0.413120000000163,
-0.206140762939453,0.577481440429688,0.0121625444335951,0.613291737815785,0.416079999999965,
-0.146285721435547,0.567904633789063,-0.0189620771484371,0.586749304000261,0.418976999999813,
-0.146285721435547,0.577481440429688,-0.0117794721679676,0.595838134312685,0.42198099999996,
-0.158256729736328,0.613394465332031,-0.0309330854492185,0.634235617402724,0.424924999999803,
-0.13192051147461,0.603817658691406,0.0169509477539069,0.618292908680869,0.427951000000121,
-0.146285721435547,0.615788666992188,0.00976834277343741,0.63300127583795,0.430915999999797,
-0.163045133056641,0.591846650390625,-0.00220266552734216,0.613898220169668,0.433830999999827,
-0.155862528076172,0.58226984375,0.0552581743164069,0.605297252949101,0.436878999999863,
-0.155862528076172,0.577481440429688,0.0289219560546883,0.59884423787916,0.43982700000015,
-0.175016141357422,0.594240852050781,-0.00938527050781168,0.619548967624178,0.442834999999832,
-0.115161099853516,0.60142345703125,0.00497993945312558,0.612370029789055,0.44577500000014,
-0.129526309814453,0.60142345703125,-0.059663505371093,0.618099485095026,0.44868600000018,
-0.179804544677735,0.587058247070313,0.0289219560546883,0.614657253501547,0.45169900000019,
-0.0912190832519533,0.539174213867188,-0.0285388837890626,0.547580333774463,0.454613999999765,
-0.146285721435547,0.551145222167969,0.0361045610351578,0.571370376850288,0.457625000000007,
-0.13192051147461,0.6205770703125,0.00258573779296967,0.634449058305946,0.460552999999891,
-0.127132108154297,0.567904633789063,0.0265277543945324,0.582564990156516,0.463560000000143,
-0.0888248815917971,0.608606062011719,0.0720175859375001,0.619255788016127,0.466493999999784,
-0.143891519775391,0.570298835449219,-0.0237504804687489,0.588650674424572,0.469396999999844,
-0.158256729736328,0.627759675292969,-0.0141736738281235,0.647555631170448,0.472396000000117,
-0.13192051147461,0.56311623046875,0.0384987626953137,0.579642187124201,0.475320999999894,
-0.163045133056641,0.599029255371094,0.0624407792968764,0.623954016833858,0.478314999999839,
-0.182198746337891,0.608606062011719,0.00976834277343741,0.635368509138634,0.481244000000061,
-0.105584293212891,0.594240852050781,0.0313161577148442,0.604359938243201,0.484163999999964,
-0.141497318115235,0.60142345703125,0.0337103593750001,0.618763326345716,0.487165000000005,
-0.127132108154297,0.565510432128906,-0.0117794721679676,0.579744234757823,0.490085999999792,
-0.117555301513672,0.599029255371094,0.0720175859375001,0.614688401052666,0.493106999999782,
-0.127132108154297,0.613394465332031,0.0289219560546883,0.627097936980942,0.496033999999781,
-0.136708914794922,0.613394465332031,-0.0548751020507812,0.630835457397139,0.498944999999821,
-0.119949503173828,0.591846650390625,-0.00699106884765577,0.603919875425444,0.501936999999998,
-0.124737906494141,0.579875642089844,-0.00220266552734216,0.593144297233881,0.504863999999998,
-0.119949503173828,0.622971271972656,0.014556746093751,0.634580954545372,0.507885999999871,
-0.146285721435547,0.60142345703125,0.0313161577148442,0.619750263168447,0.510826000000179,
-0.119949503173828,0.611000263671875,-0.00699106884765577,0.622702240691634,0.513730000000123,
-0.13192051147461,0.627759675292969,-0.0261446821289049,0.642003719362495,0.516733999999815,
-0.119949503173828,0.627759675292969,-0.0237504804687489,0.639557799231687,0.519655999999941,
-0.119949503173828,0.632548078613281,0.0217393510742188,0.644187514978465,0.522671000000173,
-0.143891519775391,0.579875642089844,0.0672291826171882,0.601232311796161,0.52559599999995,
-0.107978494873047,0.572693037109375,-0.0165678754882812,0.583019008786852,0.528499000000011,
-0.115161099853516,0.567904633789063,0.00497993945312558,0.579484729561977,0.531556999999793,
-0.0984016882324221,0.627759675292969,-0.0261446821289049,0.635962771374666,0.534568999999919,
-0.0912190832519533,0.709162531738281,-0.198527201660156,0.74205489511881,0.537655000000086,
-0.0505176550292971,0.819295808105469,0.124690022460939,0.83026818339026,0.540676000000076,
-0.450349332275391,0.5439626171875,1.38643429736328,1.55592734755951,0.543599000000086,
-0.15107412475586,0.266235224609375,-1.57998155957031,1.60936208311734,0.54657300000008,
0.0691924279785154,0.259052619628906,-0.433158964355469,0.509433548392392,0.549521999999797,
-0.249236392822266,0.630153876953125,1.48459656542969,1.63194351931424,0.552553999999873,
-0.129526309814453,0.692403120117188,-0.567234257324218,0.904408009896155,0.555499000000054,
0.0739808312988279,0.668461103515625,-0.217680814941406,0.70689344848184,0.558496000000105,
-0.22768857788086,0.742681354980469,0.342562373535158,0.848979777907033,0.561431999999968,
-0.297120426025391,0.706768330078125,-0.109941740234374,0.774525148854893,0.564335000000028,
-0.0505176550292971,0.56311623046875,-0.0692403120117184,0.569601740951056,0.567332999999962,
-0.196563956298828,0.587058247070313,0.124690022460939,0.631523852336889,0.570272999999816,
-0.115161099853516,0.503261188964844,0.0337103593750001,0.517368622518772,0.573288000000048,
-0.0074220251464846,0.505655390625,0.000191536132813752,0.50570989431836,0.576239999999871,
-0.110372696533203,0.644519086914063,0.0552581743164069,0.656232010317487,0.57916699999987,
-0.155862528076172,0.625365473632813,-0.0189620771484371,0.644774893773068,0.582167000000027,
-0.0960074865722658,0.644519086914063,0.0839885942382814,0.657020832878672,0.58511099999987,
-0.220505972900391,0.656490095214844,0.00497993945312558,0.692551029886534,0.588120999999774,
-0.196563956298828,0.632548078613281,0.0265277543945324,0.662916421901297,0.591047999999773,
-0.0840364782714846,0.527203205566406,0.0289219560546883,0.534641776502545,0.593973000000005,
-0.115161099853516,0.548751020507813,-0.0333272871093744,0.561694284726049,0.596973000000162,
-0.115161099853516,0.599029255371094,-0.0309330854492185,0.610782271751012,0.599898999999823,
-0.115161099853516,0.579875642089844,-0.0381156904296862,0.592427755144466,0.602906000000075,
-0.163045133056641,0.615788666992188,-0.0333272871093744,0.637879381917572,0.605841000000055,
-0.148679923095703,0.596635053710938,0.0313161577148442,0.61567833207156,0.608754999999746,
-0.146285721435547,0.60142345703125,0.014556746093751,0.619129700321489,0.611771999999746,
-0.146285721435547,0.575087238769531,-0.00220266552734216,0.593405170374263,0.614690999999766,
-0.105584293212891,0.579875642089844,0.0600465776367187,0.592460458383728,0.617709999999988,
-0.119949503173828,0.577481440429688,0.0361045610351578,0.590911361102438,0.620648000000074,
-0.13192051147461,0.579875642089844,0.000191536132813752,0.594692204693252,0.623557999999775,
-0.146285721435547,0.584664045410156,0.014556746093751,0.60286271832659,0.626568000000134,
-0.115161099853516,0.622971271972656,0.0337103593750001,0.634422314355266,0.629515000000083,
-0.160650931396485,0.627759675292969,-0.0189620771484371,0.648267299848045,0.632516000000123,
-0.100795889892578,0.599029255371094,0.0217393510742188,0.607839172474769,0.635459999999966,
-0.143891519775391,0.6205770703125,0.00497993945312558,0.637060020294693,0.638378000000102,
-0.11276689819336,0.632548078613281,-0.021356278808593,0.642875987831289,0.641356999999971,
-0.117555301513672,0.558327827148438,0.0696233842773442,0.574801380583325,0.644299000000046,
-0.136708914794922,0.553539423828125,0.0576523759765628,0.573078543981644,0.64730499999996,
-0.143891519775391,0.58226984375,-0.059663505371093,0.602745945052381,0.650219000000106,
-0.107978494873047,0.58226984375,0.014556746093751,0.592376084217228,0.653228000000126,
-0.127132108154297,0.690008918457031,0.014556746093751,0.701774022980928,0.656159000000116,
-0.186987149658203,0.608606062011719,0.0432871660156255,0.638153047157479,0.659075999999914,
-0.194169754638672,0.462559760742188,-0.00220266552734216,0.501665503707139,0.662068999999974,
-0.100795889892578,0.510443793945313,-0.117124345214844,0.533320532549167,0.664977999999792,
-0.0553060583496096,0.630153876953125,-0.00220266552734216,0.632580050637585,0.667973000000075,
-0.119949503173828,0.618182868652344,0.0935654008789069,0.636625813683768,0.67100100000016,
-0.136708914794922,0.618182868652344,-0.0500866987304676,0.635096893292168,0.673995000000104,
-0.210929166259766,0.622971271972656,0.0480755693359374,0.659466131995604,0.677104999999756,
-0.18938135131836,0.567904633789063,-0.0524809003906235,0.600945267234935,0.680078999999751,
-0.122343704833985,0.553539423828125,0.014556746093751,0.567085332821539,0.68309199999976,
-0.11276689819336,0.606211860351563,0.014556746093751,0.616782856292141,0.686021999999866,
-0.100795889892578,0.613394465332031,0.0121625444335951,0.621739904627574,0.688963000000058,
-0.0960074865722658,0.649307490234375,-0.0309330854492185,0.657095510658683,0.691979000000174,
-0.177410343017578,0.591846650390625,0.0169509477539069,0.618097259351612,0.694922000000133,
-0.18938135131836,0.622971271972656,-0.0237504804687489,0.65155397877144,0.697932999999921,
-0.136708914794922,0.587058247070313,0.0983538041992187,0.610737409725433,0.700897000000168,
-0.153468326416016,0.575087238769531,-0.0117794721679676,0.595328997591292,0.70380699999987,
-0.0840364782714846,0.56311623046875,-0.00699106884765577,0.569395199963295,0.706824999999753,
-0.100795889892578,0.589452448730469,0.0337103593750001,0.598957752318788,0.709761999999955,
-0.0912190832519533,0.599029255371094,-0.0261446821289049,0.606498569119001,0.712794999999915,
-0.146285721435547,0.60142345703125,0.0432871660156255,0.620470358441886,0.71574499999997,
-0.160650931396485,0.611000263671875,0.014556746093751,0.631935078012367,0.718671000000086,
-0.141497318115235,0.613394465332031,-0.0357214887695303,0.630515888692493,0.721664000000146,
-0.11276689819336,0.572693037109375,0.0289219560546883,0.584405824426606,0.724603999999999,
-0.134314713134766,0.60142345703125,-0.0237504804687489,0.616696604623692,0.72759300000007,
-0.0984016882324221,0.587058247070313,0.0313161577148442,0.596071287208401,0.730540000000019,
-0.148679923095703,0.572693037109375,-0.0141736738281235,0.591847892042449,0.733444999999847,
-0.153468326416016,0.558327827148438,-0.0405098920898439,0.58045115310279,0.736433999999917,
-0.15107412475586,0.632548078613281,0.0073741411132815,0.650380535444644,0.739364999999907,
-0.139103116455078,0.6205770703125,-0.00699106884765577,0.636014506319466,0.742365999999947,
-0.163045133056641,0.611000263671875,0.0121625444335951,0.63249740324183,0.745308000000023,
-0.119949503173828,0.56311623046875,0.00258573779296967,0.575755554353509,0.748297999999977,
-0.143891519775391,0.599029255371094,0.0456813676757815,0.617760152167853,0.751236000000063,
-0.141497318115235,0.613394465332031,0.0384987626953137,0.630679328869151,0.754140000000007,
-0.172621939697266,0.603817658691406,0.0073741411132815,0.628051333068864,0.757148000000143,
-0.11276689819336,0.58226984375,0.0313161577148442,0.593915184182744,0.760076000000026,
-0.13192051147461,0.632548078613281,-0.0476924970703116,0.64791563291981,0.763051999999789,
-0.134314713134766,0.658884296875,0.0432871660156255,0.673826934438363,0.766017999999804,
-0.18938135131836,0.606211860351563,-0.00220266552734216,0.635108626609256,0.768924999999854,
-0.155862528076172,0.575087238769531,-0.00938527050781168,0.595908166713936,0.771929,
-0.127132108154297,0.603817658691406,0.0313161577148442,0.617850337545711,0.774867999999969,
-0.103190091552735,0.603817658691406,-0.0333272871093744,0.613477520377319,0.777865999999904,
-0.160650931396485,0.613394465332031,-0.021356278808593,0.634442733824793,0.780797999999777,
-0.184592947998047,0.577481440429688,0.0169509477539069,0.606503672801008,0.783723000000009,
-0.153468326416016,0.603817658691406,0.0265277543945324,0.623579998006448,0.786740000000009,
-0.127132108154297,0.60142345703125,-0.0189620771484371,0.615005941402975,0.789659999999913,
-0.105584293212891,0.567904633789063,-0.0309330854492185,0.578463976257609,0.792660000000069,
-0.122343704833985,0.615788666992188,-0.00459686718749985,0.627841377814859,0.795576999999867,
-0.110372696533203,0.608606062011719,0.0241335527343765,0.619003957358114,0.798502000000099,
-0.139103116455078,0.567904633789063,0.00497993945312558,0.584713733277714,0.80150599999979,
-0.141497318115235,0.603817658691406,0.0121625444335951,0.620294432885283,0.804438000000118,
-0.129526309814453,0.606211860351563,0.0265277543945324,0.620462413300168,0.807471999999962,
-0.136708914794922,0.587058247070313,0.0121625444335951,0.602888580356912,0.810497999999825,
-0.117555301513672,0.618182868652344,0.0193451494140628,0.629558212411739,0.813502999999855,
-0.158256729736328,0.565510432128906,-0.0333272871093744,0.588181901642281,0.816589000000022,
-0.13192051147461,0.630153876953125,0.00976834277343741,0.643888461231692,0.819551999999931,
-0.129526309814453,0.587058247070313,0.00497993945312558,0.601198178793295,0.822556999999961,
-0.103190091552735,0.618182868652344,-0.00699106884765577,0.626775182289101,0.825473999999758,
-0.158256729736328,0.584664045410156,-0.00699106884765577,0.60574426414605,0.828387999999904,
-0.119949503173828,0.589452448730469,0.014556746093751,0.601709208407876,0.83140800000001,
-0.148679923095703,0.594240852050781,0.0456813676757815,0.6142594705257,0.834331999999904,
-0.122343704833985,0.577481440429688,-0.0237504804687489,0.590776507213809,0.837316999999985,
-0.141497318115235,0.567904633789063,-0.0309330854492185,0.586083628749602,0.84025100000008,
-0.107978494873047,0.60142345703125,0.0408929643554696,0.612406535363762,0.843257999999878,
-0.182198746337891,0.58226984375,-0.0548751020507812,0.612573122927241,0.846185999999761,
-0.119949503173828,0.591846650390625,-0.0141736738281235,0.604045721713214,0.84911800000009,
-0.117555301513672,0.589452448730469,-0.0141736738281235,0.601227354050115,0.852131999999983,
-0.148679923095703,0.632548078613281,-0.00699106884765577,0.649824334980409,0.855054000000109,
-0.160650931396485,0.594240852050781,-0.00459686718749985,0.615590808242404,0.85803900000019,
-0.129526309814453,0.60142345703125,0.00497993945312558,0.615233321105519,0.86098899999979,
-0.148679923095703,0.627759675292969,-0.0357214887695303,0.646114505498514,0.863897000000179,
-0.146285721435547,0.594240852050781,0.0289219560546883,0.612664820341422,0.866919999999936,
-0.100795889892578,0.589452448730469,0.00258573779296967,0.598013951989012,0.8698559999998,
-0.15107412475586,0.584664045410156,0.0265277543945324,0.604449467630947,0.872878000000128,
-0.175016141357422,0.632548078613281,-0.00220266552734216,0.656317433280894,0.875806000000011,
-0.119949503173828,0.575087238769531,0.0432871660156255,0.589056019618573,0.878740999999991,
-0.129526309814453,0.594240852050781,0.0504697709960951,0.610283911769421,0.881759999999758,
-0.115161099853516,0.587058247070313,0.0408929643554696,0.599642976200437,0.884690999999748,
-0.163045133056641,0.596635053710938,-0.00938527050781168,0.618583208657183,0.887690999999904,
-0.0888248815917971,0.6205770703125,0.0361045610351578,0.627940521956486,0.89062899999999,
-0.11276689819336,0.575087238769531,0.0361045610351578,0.587150104190791,0.893548999999894,
-0.160650931396485,0.579875642089844,0.0337103593750001,0.602661489044105,0.89656100000002,
-0.103190091552735,0.613394465332031,0.0624407792968764,0.625139837167518,0.899491000000125,
-0.127132108154297,0.603817658691406,-0.0620577070312489,0.620168926078455,0.902486999999837,
-0.146285721435547,0.627759675292969,-0.0165678754882812,0.644791607201929,0.905431000000135,
-0.148679923095703,0.606211860351563,0.0361045610351578,0.62522162349857,0.908343999999943,
-0.124737906494141,0.555933625488281,0.0456813676757815,0.571584227054785,0.911344000000099,
-0.136708914794922,0.596635053710938,0.00497993945312558,0.61211723917728,0.914283000000069,
-0.119949503173828,0.591846650390625,0.0720175859375001,0.608158592453084,0.91728699999976,
-0.110372696533203,0.594240852050781,-0.0237504804687489,0.604870571038586,0.920204000000012,
-0.136708914794922,0.599029255371094,0.0073741411132815,0.614475185936756,0.923131000000012,
-0.124737906494141,0.58226984375,-0.021356278808593,0.595863916428693,0.926120000000083,
-0.158256729736328,0.587058247070313,-0.0452982954101557,0.609700347324135,0.92904499999986,
-0.134314713134766,0.622971271972656,-0.00938527050781168,0.637355262918734,0.932033999999931,
-0.107978494873047,0.58226984375,0.014556746093751,0.592376084217228,0.9349729999999,
-0.141497318115235,0.575087238769531,0.0217393510742188,0.592637682411856,0.937965000000077,
-0.146285721435547,0.603817658691406,0.0648349809570323,0.624658988568314,0.94090099999994,
-0.153468326416016,0.60142345703125,-0.0165678754882812,0.62091641658,0.943812999999864,
-0.119949503173828,0.615788666992188,0.00497993945312558,0.627382152682574,0.946912999999768,
-0.134314713134766,0.594240852050781,-0.00220266552734216,0.609235163254665,0.949928999999884,
-0.17022773803711,0.63973068359375,0.0552581743164069,0.664293832695547,0.953022000000146,
-0.119949503173828,0.572693037109375,-0.00699106884765577,0.585161578633492,0.956009999999878,
-0.141497318115235,0.555933625488281,0.0432871660156255,0.575289027988552,0.958940999999868,
-0.110372696533203,0.60142345703125,0.0073741411132815,0.611511802637193,0.961949000000004,
-0.155862528076172,0.649307490234375,0.0121625444335951,0.667863213554885,0.964907000000039,
-0.15107412475586,0.596635053710938,0.0361045610351578,0.616522763419928,0.967944999999872,
-0.155862528076172,0.584664045410156,-0.0189620771484371,0.605379826244192,0.970863999999892,
-0.127132108154297,0.630153876953125,0.0672291826171882,0.646356128274642,0.973801999999978,
-0.117555301513672,0.60142345703125,0.0241335527343765,0.613279587096272,0.976834000000053,
-0.124737906494141,0.642124885253906,0.00258573779296967,0.654133472327183,0.979772000000139,
-0.13192051147461,0.6205770703125,0.00976834277343741,0.634518984795497,0.98279599999978,
-0.124737906494141,0.611000263671875,0.0169509477539069,0.623833473094701,0.985743000000184,
-0.0864306799316408,0.606211860351563,0.052863972656251,0.614619948967937,0.988694000000123,
-0.117555301513672,0.608606062011719,-0.00938527050781168,0.619926343152061,0.991707000000133,
-0.119949503173828,0.565510432128906,0.0217393510742188,0.578500243339101,0.994650000000092,
-0.167833536376953,0.551145222167969,0.0600465776367187,0.579253608825406,0.997655000000123,
-0.153468326416016,0.591846650390625,0.00258573779296967,0.611425932416568,1.00058899999976,
-0.0984016882324221,0.584664045410156,0.0552581743164069,0.595456466982384,1.00350200000003,
-0.11276689819336,0.611000263671875,0.0289219560546883,0.621992102102014,1.00651000000016,
-0.110372696533203,0.596635053710938,-0.0141736738281235,0.606923728722522,1.00942600000008,
