X,Y,Z,Magnitude,Seconds,
-0.385705887451172,0.292571442871094,0.0193451494140628,0.484501099693305,0.0,
-0.392888492431641,0.292571442871094,-0.0285388837890626,0.490687155483824,0.00389699999959703,
-0.36176387084961,0.287783039550781,0.000191536132813752,0.462268550510707,0.0079329999998663,
-0.392888492431641,0.285388837890625,-0.00220266552734216,0.48560581546476,0.0118460000003324,
-0.402465299072266,0.318907661132813,-0.00459686718749985,0.513518786875873,0.0158179999998538,
-0.402465299072266,0.3141192578125,-0.0309330854492185,0.511474418579671,0.019666999999572,
-0.356975467529297,0.302148249511719,-0.0261446821289049,0.468410710279321,0.0236269999995784,
-0.407253702392578,0.318907661132813,-0.0117794721679676,0.51739388323232,0.0275430000001506,
-0.409647904052735,0.302148249511719,-0.0692403120117184,0.513711193945854,0.0313759999999093,
-0.416830509033203,0.311725056152344,0.0193451494140628,0.520859307970889,0.0353500000001077,
-0.378523282470703,0.302148249511719,-0.0357214887695303,0.485643351457943,0.039335000000392,
-0.337821854248047,0.330878669433594,0.0289219560546883,0.473751811221618,0.0432849999997416,
-0.373734879150391,0.330878669433594,-0.0237504804687489,0.499722462074899,0.0471960000004401,
-0.40007109741211,0.271023627929688,-0.021356278808593,0.483701127273081,0.0510329999997339,
-0.352187064208985,0.2375048046875,0.0265277543945324,0.425614828452919,0.054892000000109,
-0.368946475830078,0.29496564453125,-0.0333272871093744,0.473536631684647,0.0588760000000548,
-0.38091748413086,0.297359846191406,-0.021356278808593,0.483711792794129,0.0628239999996367,
-0.359369669189453,0.273417829589844,-0.0405098920898439,0.4533706210465,0.0666970000002038,
-0.347398660888672,0.285388837890625,0.0504697709960951,0.452415534839601,0.070676999999705,
-0.397676895751953,0.321301862792969,0.0121625444335951,0.511399773109297,0.0747490000003381,
-0.385705887451172,0.345243879394531,0.115113215820314,0.530295597125203,0.0787270000000717,
-0.392888492431641,0.273417829589844,-0.059663505371093,0.482367506053211,0.0825830000003407,
-0.392888492431641,0.285388837890625,0.014556746093751,0.485818953041775,0.0864830000000438,
-0.368946475830078,0.316513459472656,0.0408929643554696,0.48782630780695,0.0904010000003836,
-0.40007109741211,0.340455476074219,0.0504697709960951,0.5277442675746,0.0942649999997229,
-0.373734879150391,0.335667072753906,0.0408929643554696,0.504006327498486,0.0981970000002548,
-0.390494290771485,0.299754047851563,0.00497993945312558,0.492303849391286,0.102084000000104,
-0.356975467529297,0.292571442871094,0.0720175859375001,0.467136025463354,0.105988999999681,
-0.340216055908203,0.304542451171875,0.0193451494140628,0.457020025895321,0.109921999999642,
-0.368946475830078,0.29496564453125,0.014556746093751,0.472586640033347,0.113905000000159,
-0.359369669189453,0.309330854492188,-0.021356278808593,0.474645370059326,0.117798000000221,
-0.368946475830078,0.321301862792969,0.00497993945312558,0.489265969446704,0.121623,
-0.392888492431641,0.271023627929688,0.0863827958984373,0.485053772079558,0.125460999999632,
-0.402465299072266,0.309330854492188,0.000191536132813752,0.507606078750329,0.129289999999855,
-0.385705887451172,0.340455476074219,-0.0237504804687489,0.515017522154262,0.133141000000251,
-0.378523282470703,0.254264216308594,-0.0452982954101557,0.458238041452786,0.136967999999797,
-0.388100089111328,0.290177241210938,0.0121625444335951,0.484739556846881,0.141023000000132,
-0.407253702392578,0.330878669433594,-0.00459686718749985,0.524745084004174,0.145024999999805,
-0.376129080810547,0.354820686035156,-0.00459686718749985,0.51709954153701,0.148920999999973,
-0.368946475830078,0.323696064453125,-0.0141736738281235,0.491020913199899,0.152962000000116,
-0.364158072509766,0.266235224609375,-0.059663505371093,0.45502970284367,0.156858999999713,
-0.352187064208985,0.311725056152344,0.0552581743164069,0.473562777948297,0.16079499999978,
-0.388100089111328,0.259052619628906,-0.0285388837890626,0.467487333296578,0.164732999999615,
-0.373734879150391,0.309330854492188,0.088776997558595,0.493198431394447,0.168743999999606,
-0.388100089111328,0.280600434570313,0.00976834277343741,0.479013260327737,0.172738000000209,
-0.352187064208985,0.297359846191406,0.0504697709960951,0.463687183462643,0.176684000000023,
-0.371340677490235,0.29496564453125,0.0624407792968764,0.478327796737596,0.180672000000413,
-0.349792862548828,0.318907661132813,0.0744117875976578,0.479159949445677,0.184588000000076,
-0.388100089111328,0.268629426269531,0.0576523759765628,0.475507354603335,0.188517999999931,
-0.368946475830078,0.330878669433594,-0.00699106884765577,0.495631991458595,0.192417000000205,
-0.392888492431641,0.306936652832031,0.0384987626953137,0.500053628190026,0.196264999999585,
-0.395282694091797,0.330878669433594,0.0456813676757815,0.517509313430536,0.200111000000106,
-0.38091748413086,0.290177241210938,0.0624407792968764,0.482907664002732,0.203996000000188,
-0.383311685791016,0.321301862792969,0.00497993945312558,0.500187500138837,0.20787399999972,
-0.395282694091797,0.271023627929688,0.0289219560546883,0.480144451896165,0.21172899999965,
-0.373734879150391,0.266235224609375,0.0504697709960951,0.461634219378026,0.215804999999818,
-0.349792862548828,0.302148249511719,0.014556746093751,0.46245054895625,0.219793999999638,
-0.366552274169922,0.29496564453125,0.00497993945312558,0.470521095116717,0.223703999999998,
-0.388100089111328,0.282994636230469,-0.00699106884765577,0.480371229724542,0.227697999999691,
-0.356975467529297,0.328484467773438,0.00976834277343741,0.485210212698268,0.231603000000177,
-0.364158072509766,0.302148249511719,-0.00220266552734216,0.473190784137275,0.235439000000042,
-0.388100089111328,0.287783039550781,-0.021356278808593,0.483628832541917,0.239346000000296,
-0.373734879150391,0.27581203125,0.0193451494140628,0.46489167693309,0.243378000000121,
-0.364158072509766,0.292571442871094,-0.00220266552734216,0.467133816687603,0.247301999999763,
-0.364158072509766,0.25665841796875,0.052863972656251,0.448641555022771,0.25117500000033,
-0.373734879150391,0.297359846191406,-0.0740287153320303,0.483302067773608,0.255175000000236,
-0.433589920654297,0.29496564453125,-0.0476924970703116,0.526573380473735,0.259124999999585,
-0.383311685791016,0.263841022949219,0.0121625444335951,0.465497434302209,0.263066999999864,
-0.383311685791016,0.316513459472656,0.00497993945312558,0.497125153546123,0.267095000000154,
-0.368946475830078,0.335667072753906,-0.0189620771484371,0.499152728258991,0.270982000000004,
-0.345004459228516,0.311725056152344,-0.00938527050781168,0.465068458211528,0.274827999999616,
-0.356975467529297,0.263841022949219,0.0911711992187509,0.453161954907554,0.278776000000107,
-0.395282694091797,0.278206232910156,-0.0165678754882812,0.483654433223479,0.28273100000024,
-0.404859500732422,0.282994636230469,0.0169509477539069,0.494251468483683,0.286621999999625,
-0.371340677490235,0.330878669433594,-0.0859997236328116,0.504748001590865,0.290734999999586,
-0.388100089111328,0.309330854492188,0.0073741411132815,0.496348299751542,0.294796000000133,
-0.364158072509766,0.326090266113281,0.0313161577148442,0.489823095782426,0.298870999999963,
-0.38091748413086,0.29496564453125,0.0121625444335951,0.481924048639844,0.302835000000414,
-0.388100089111328,0.136948334960938,0.0744117875976578,0.418226780288246,0.306840000000193,
-0.388100089111328,1.06111017578125,-0.449918375976562,1.21614268462057,0.310731999999916,
-0.507810172119141,-0.320344182128906,1.20208076953125,1.34368513514452,0.314429000000018,
-0.210929166259766,-1.82869122802734,-0.718068961914062,1.9759113731915,0.317447999999786,
-0.069671268310547,1.271799921875,-1.43872366162109,1.92152410898684,0.320405999999821,
-0.900459244384766,2.32046024902344,0.948295393554689,2.66357405970492,0.323435999999674,
-0.474291348876953,-0.229364519042969,1.59233564013672,1.67722781907079,0.326411000000007,
0.0548272180175779,-0.990720646972656,-1.36929181347656,1.69100369444522,0.329475999999886,
-0.412042105712891,0.0675164868164063,-0.888057279785155,0.981316923858828,0.3324190000003,
-0.201352359619141,0.864785639648438,1.50375017871094,1.74632802624236,0.33535000000029,
-0.637097061767578,0.9270348828125,-0.129095353515625,1.13223316960924,0.338408999999956,
-0.51499277709961,0.045968671875,-0.761164591796874,0.920164232658508,0.341357999999673,
-0.124737906494141,-0.308373173828125,0.610712959472657,0.695430714393047,0.344406000000163,
-0.359369669189453,0.397916315917969,0.129478425781251,0.55158736057841,0.347337999999581,
-0.479079752197266,0.668461103515625,-0.435553166015625,0.930625712252222,0.350260999999591,
-0.43837832397461,0.594240852050781,0.306649348632813,0.799582120981801,0.353285999999571,
-0.371340677490235,-0.0545877978515625,0.0504697709960951,0.37870955126269,0.356243000000177,
-0.306697232666016,-0.104866032714844,-0.275141654785156,0.425162330810547,0.359327000000121,
-0.373734879150391,0.567904633789063,0.256371113769532,0.726580746337306,0.362275000000409,
-0.414436307373047,0.682826313476563,0.0289219560546883,0.799278241157001,0.36520500000006,
-0.431195718994141,0.177649763183594,-0.169796781738281,0.49630649152186,0.368199999999888,
-0.318668240966797,-0.0450109912109375,0.0265277543945324,0.322922837352641,0.371156000000155,
-0.313879837646485,0.249475812988281,0.0265277543945324,0.401823911061007,0.374211000000287,
-0.390494290771485,0.565510432128906,-0.0692403120117184,0.690711271646284,0.377123000000211,
-0.404859500732422,0.417069929199219,0.0744117875976578,0.585999705895,0.380127000000357,
-0.41922471069336,0.093852705078125,-0.0189620771484371,0.430020056132497,0.383112999999867,
-0.36176387084961,0.0962469067382813,-0.0668461103515625,0.380269598808416,0.386107000000266,
-0.388100089111328,0.397916315917969,0.107930610839844,0.566222650905288,0.389145000000099,
-0.409647904052735,0.438617744140625,-0.0141736738281235,0.600331428295734,0.39205899999979,
-0.392888492431641,0.280600434570313,0.0456813676757815,0.484958512368827,0.395069000000149,
-0.376129080810547,0.168072956542969,0.0121625444335951,0.412152316067229,0.398028999999951,
-0.349792862548828,0.242293208007813,-0.0141736738281235,0.425748679817808,0.400964999999815,
-0.395282694091797,0.433829340820313,-0.00699106884765577,0.586945636536033,0.404023000000052,
-0.383311685791016,0.376368500976563,0.0480755693359374,0.539344377330727,0.407052999999905,
-0.402465299072266,0.203985981445313,-0.0117794721679676,0.451361666015283,0.410117999999784,
-0.390494290771485,0.208774384765625,-0.0117794721679676,0.442957436808488,0.413102000000436,
-0.371340677490235,0.326090266113281,0.0839885942382814,0.501281202894004,0.416070999999647,
-0.390494290771485,0.383551105957031,-0.00459686718749985,0.547374070626227,0.419122000000243,
-0.412042105712891,0.268629426269531,-0.0333272871093744,0.493002204461888,0.422109000000091,
-0.36176387084961,0.213562788085938,-0.0381156904296862,0.421823385511121,0.425253000000339,
-0.390494290771485,0.29496564453125,-0.059663505371093,0.49300127429047,0.428186000000096,
-0.402465299072266,0.362003291015625,0.00258573779296967,0.541323734657373,0.431128999999601,
-0.435984122314453,0.29496564453125,-0.0237504804687489,0.526925964141583,0.434191000000283,
-0.36176387084961,0.211168586425781,0.0959596025390628,0.429736565193853,0.437173999999686,
-0.36176387084961,0.278206232910156,0.00497993945312558,0.456395230123092,0.440214000000196,
-0.40007109741211,0.330878669433594,0.00258573779296967,0.519176523843874,0.44314200000008,
-0.462320340576172,0.366791694335938,0.0169509477539069,0.590392732826253,0.446063999999751,
-0.388100089111328,0.261446821289062,0.0169509477539069,0.468255757209809,0.449117000000115,
-0.368946475830078,0.263841022949219,-0.0237504804687489,0.454200036042294,0.45203599999968,
-0.412042105712891,0.311725056152344,0.0480755693359374,0.518905066346889,0.455135999999584,
-0.378523282470703,0.290177241210938,-0.00938527050781168,0.477043803011517,0.458157000000028,
-0.409647904052735,0.316513459472656,0.0480755693359374,0.519907141410004,0.461100000000442,
-0.388100089111328,0.25665841796875,-0.021356278808593,0.465780327329303,0.464157000000341,
-0.376129080810547,0.280600434570313,0.0432871660156255,0.471257326790894,0.46711200000027,
-0.378523282470703,0.323696064453125,0.014556746093751,0.498267916257585,0.470151000000442,
-0.404859500732422,0.3141192578125,0.0073741411132815,0.512480732729671,0.473117999999886,
-0.392888492431641,0.292571442871094,-0.00699106884765577,0.48990641117719,0.476147999999739,
-0.366552274169922,0.266235224609375,0.0672291826171882,0.457997300775148,0.479119999999966,
-0.366552274169922,0.287783039550781,0.0241335527343765,0.466649842944162,0.482095000000299,
-0.407253702392578,0.328484467773438,0.0169509477539069,0.523493035589412,0.485118999999941,
-0.364158072509766,0.271023627929688,0.052863972656251,0.457011496874202,0.48806599999989,
-0.409647904052735,0.271023627929688,0.00976834277343741,0.491284675836228,0.491108000000168,
-0.366552274169922,0.302148249511719,-0.0524809003906235,0.47792089229071,0.494042999999692,
-0.376129080810547,0.335667072753906,0.00976834277343741,0.504223055485469,0.497027000000344,
-0.366552274169922,0.328484467773438,0.0384987626953137,0.493705144794553,0.500103000000308,
-0.414436307373047,0.273417829589844,0.0600465776367187,0.500120339410936,0.503074999999626,
-0.41922471069336,0.297359846191406,0.0361045610351578,0.515243413844805,0.506089000000429,
-0.395282694091797,0.328484467773438,0.000191536132813752,0.513955728154632,0.509055000000444,
-0.41922471069336,0.299754047851563,0.0384987626953137,0.516801704707326,0.512004000000161,
-0.354581265869141,0.266235224609375,0.0241335527343765,0.444062492556791,0.515026000000034,
-0.390494290771485,0.27581203125,-0.0285388837890626,0.478928528692227,0.517963999999665,
-0.354581265869141,0.25665841796875,-0.0285388837890626,0.43865235153537,0.521015000000261,
-0.392888492431641,0.304542451171875,-0.0117794721679676,0.497238602700492,0.523989000000256,
-0.390494290771485,0.3141192578125,0.0432871660156255,0.503021349443008,0.526957000000039,
-0.388100089111328,0.273417829589844,-0.0189620771484371,0.475119510308328,0.530021999999917,
-0.388100089111328,0.273417829589844,0.00497993945312558,0.4747670886896,0.533006999999998,
-0.32345664428711,0.299754047851563,-0.0476924970703116,0.443566527381943,0.536014999999679,
-0.364158072509766,0.299754047851563,0.00976834277343741,0.4717616045186,0.539017000000058,
-0.378523282470703,0.287783039550781,0.0217393510742188,0.475995328349565,0.541997999999694,
-0.321062442626953,0.235110603027344,0.014556746093751,0.398208471253821,0.545084000000315,
-0.378523282470703,0.302148249511719,-0.0285388837890626,0.485167917265061,0.548085999999785,
-0.34261025756836,0.25665841796875,0.0265277543945324,0.428904481042686,0.551182999999583,
-0.414436307373047,0.306936652832031,0.0480755693359374,0.517956390140823,0.554173000000446,
-0.354581265869141,0.297359846191406,0.0193451494140628,0.463168421892287,0.557141000000229,
-0.390494290771485,0.292571442871094,0.0121625444335951,0.488089917736371,0.560193000000254,
-0.368946475830078,0.280600434570313,-0.0261446821289049,0.464264633923482,0.563207999999577,
-0.371340677490235,0.297359846191406,0.0361045610351578,0.477095709699243,0.566321000000244,
-0.390494290771485,0.304542451171875,-0.0548751020507812,0.498240075180612,0.569255999999768,
-0.404859500732422,0.304542451171875,0.0217393510742188,0.507079795775979,0.572282000000087,
-0.397676895751953,0.249475812988281,0.0121625444335951,0.469609435774211,0.575308999999834,
-0.368946475830078,0.290177241210938,0.00497993945312558,0.469413605620014,0.578301999999894,
-0.412042105712891,0.323696064453125,-0.0117794721679676,0.524115058920568,0.581307000000379,
-0.371340677490235,0.27581203125,0.0696233842773442,0.467775150023372,0.584243999999671,
-0.40007109741211,0.290177241210938,0.0432871660156255,0.496118426429602,0.587236000000303,
-0.373734879150391,0.3141192578125,-0.00938527050781168,0.488299858001964,0.590208999999959,
-0.366552274169922,0.338061274414063,-0.0429040937499998,0.50048651951687,0.59313099999963,
-0.395282694091797,0.27581203125,-0.0189620771484371,0.482369407405262,0.596236000000317,
-0.378523282470703,0.338061274414063,0.000191536132813752,0.507508952942651,0.599271000000044,
-0.376129080810547,0.29496564453125,-0.00938527050781168,0.478085661976625,0.602329999999711,
-0.364158072509766,0.366791694335938,0.088776997558595,0.524431696318381,0.605308999999579,
-0.364158072509766,0.278206232910156,-0.0309330854492185,0.459311077135634,0.608245000000352,
-0.435984122314453,0.388339509277344,-0.021356278808593,0.584248080887411,0.611300999999912,
-0.383311685791016,0.3907337109375,-0.0692403120117184,0.551719949008934,0.614238000000114,
-0.443166727294922,0.151313544921875,0.201304475585939,0.509721520978903,0.617342000000463,
-0.309091434326172,-0.0737414111328125,0.088776997558595,0.329934335565712,0.620337000000291,
-0.328245047607422,0.496078583984375,-0.325419889648437,0.678038993971248,0.623281000000134,
-0.536540592041016,0.90788126953125,-0.0644519086914048,1.05654070201169,0.62632399999984,
-0.402465299072266,0.132159931640625,0.395234810058595,0.579357505837835,0.62927800000034,
-0.234871182861328,-0.289219560546875,-0.105153336914062,0.387130018218388,0.632330999999795,
-0.395282694091797,0.304542451171875,-0.287112663085937,0.575698006005355,0.63528099999985,
-0.459926138916016,0.83126681640625,0.275524727050781,0.989166542364219,0.638270999999804,
-0.47668555053711,0.469742365722656,0.103142207519532,0.677144976513588,0.641325999999935,
-0.349792862548828,-0.0761356127929688,-0.236834428222656,0.429234463454435,0.644274999999652,
-0.311485635986328,0.06512228515625,0.0552581743164069,0.322982475187992,0.64731699999993,
-0.424013114013672,0.570298835449219,0.103142207519532,0.718099016530665,0.650289000000157,
-0.450349332275391,0.591846650390625,-0.100364933593749,0.750446599402496,0.653245999999854,
-0.340216055908203,0.194409174804688,0.0384987626953137,0.393730931824061,0.656291999999667,
-0.330639249267578,0.0339976635742187,0.0337103593750001,0.334087627148814,0.659233999999742,
-0.378523282470703,0.299754047851563,-0.0237504804687489,0.483421606776413,0.662338000000091,
-0.41922471069336,0.522414802246094,0.119901619140625,0.680472616594011,0.665364000000409,
-0.409647904052735,0.366791694335938,0.0648349809570323,0.55367059438291,0.668373000000429,
-0.330639249267578,0.101035310058594,-0.0309330854492185,0.347112809919589,0.671317000000272,
-0.352187064208985,0.182438166503906,0.0792001909179696,0.404465181486483,0.674261000000115,
-0.424013114013672,0.431435139160156,0.0361045610351578,0.605992524281658,0.677278000000115,
-0.390494290771485,0.460165559082031,0.0217393510742188,0.603912851556855,0.680277999999817,
-0.347398660888672,0.282994636230469,0.0384987626953137,0.449726526292955,0.683310000000347,
-0.359369669189453,0.158496149902344,-0.0333272871093744,0.394180538247735,0.686367000000246,
-0.345004459228516,0.304542451171875,-0.0405098920898439,0.461968865628914,0.689309000000321,
-0.378523282470703,0.37158009765625,0.0265277543945324,0.531088849534464,0.692418999999973,
-0.378523282470703,0.335667072753906,0.0576523759765628,0.509191570589415,0.695420000000013,
-0.41922471069336,0.201591779785156,-0.0285388837890626,0.466050503294228,0.698484000000462,
-0.371340677490235,0.273417829589844,0.0241335527343765,0.461772277929403,0.701490000000376,
-0.364158072509766,0.335667072753906,0.0408929643554696,0.496946395538776,0.70455099999981,
-0.373734879150391,0.3141192578125,0.0313161577148442,0.48921301061629,0.707583000000341,
-0.349792862548828,0.273417829589844,-0.0165678754882812,0.444282399748088,0.710544999999911,
-0.383311685791016,0.225533796386719,-0.0548751020507812,0.448112283475515,0.713600000000042,
-0.383311685791016,0.297359846191406,0.00497993945312558,0.48515515702493,0.716612000000168,
-0.366552274169922,0.328484467773438,0.0696233842773442,0.497101630359196,0.719562999999653,
-0.383311685791016,0.316513459472656,-0.00220266552734216,0.497105089721202,0.722584000000097,
-0.378523282470703,0.285388837890625,0.0337103593750001,0.475250515511713,0.725521999999728,
-0.383311685791016,0.285388837890625,-0.0117794721679676,0.478030745058378,0.728599000000031,
-0.40007109741211,0.328484467773438,0.0241335527343765,0.518209761506392,0.731526999999915,
-0.385705887451172,0.292571442871094,0.0241335527343765,0.484715905624885,0.734489000000394,
-0.354581265869141,0.282994636230469,0.000191536132813752,0.45366714111413,0.737629000000197,
-0.359369669189453,0.282994636230469,0.000191536132813752,0.457419457341555,0.74058100000002,
-0.40007109741211,0.316513459472656,0.0193451494140628,0.51050160412846,0.743672999999944,
-0.354581265869141,0.29496564453125,0.0576523759765628,0.464818676490996,0.746602999999595,
-0.383311685791016,0.29496564453125,-0.00459686718749985,0.483687617275474,0.749536000000262,
-0.373734879150391,0.280600434570313,0.0241335527343765,0.467970930873049,0.752618000000439,
-0.390494290771485,0.306936652832031,0.052863972656251,0.49949023972632,0.755591000000095,
-0.378523282470703,0.304542451171875,-0.00699106884765577,0.485875349222208,0.758668000000398,
-0.349792862548828,0.318907661132813,-0.0692403120117184,0.478384117448295,0.761631000000307,
-0.397676895751953,0.25665841796875,0.0648349809570323,0.477727989220676,0.764632999999776,
-0.373734879150391,0.297359846191406,-0.021356278808593,0.478076069956534,0.767585999999937,
-0.352187064208985,0.290177241210938,0.0672291826171882,0.461257327864078,0.770594999999958,
-0.354581265869141,0.309330854492188,-0.0165678754882812,0.47083749441227,0.773578000000271,
-0.371340677490235,0.342849677734375,0.0241335527343765,0.505986391762717,0.776590999999826,
-0.378523282470703,0.285388837890625,0.014556746093751,0.474276884342675,0.779620999999679,
-0.395282694091797,0.225533796386719,0.0337103593750001,0.456344485986482,0.78261300000031,
-0.385705887451172,0.302148249511719,-0.021356278808593,0.490427045483875,0.785520000000361,
-0.40007109741211,0.3141192578125,0.0241335527343765,0.509225116702612,0.788574000000153,
-0.426407315673828,0.397916315917969,-0.021356278808593,0.583623752068436,0.791508999999678,
-0.390494290771485,0.247081611328125,0.153420442382814,0.486901371863507,0.794560000000274,
-0.378523282470703,0.163284553222656,0.0241335527343765,0.412945697472563,0.79750200000035,
-0.397676895751953,0.33327287109375,-0.124306950195312,0.533544691557175,0.800460999999814,
-0.412042105712891,0.3907337109375,0.00497993945312558,0.567869993519872,0.80349600000045,
-0.392888492431641,0.321301862792969,-0.021356278808593,0.507988528575193,0.806469000000106,
-0.354581265869141,0.184832368164063,-0.109941740234374,0.414702380837463,0.809519999999793,
-0.371340677490235,0.27581203125,-0.00459686718749985,0.462587620380287,0.812493000000359,
-0.40007109741211,0.397916315917969,0.0337103593750001,0.565270435975074,0.815416000000369,
-0.404859500732422,0.326090266113281,0.0815943925781255,0.526216421149445,0.818465999999717,
-0.364158072509766,0.268629426269531,-0.00699106884765577,0.452572364904838,0.82141700000011,
-0.340216055908203,0.230322199707031,-0.0357214887695303,0.412397023674433,0.824497999999949,
-0.390494290771485,0.311725056152344,-0.0165678754882812,0.499932791739552,0.827497000000221,
-0.385705887451172,0.359609089355469,0.0265277543945324,0.528007055364587,0.830509000000347,
-0.364158072509766,0.290177241210938,-0.0309330854492185,0.46665917848707,0.833553000000393,
-0.354581265869141,0.259052619628906,-0.0381156904296862,0.440782190768743,0.836522999999943,
-0.392888492431641,0.302148249511719,-0.00220266552734216,0.495640781114336,0.839562000000114,
-0.383311685791016,0.326090266113281,0.0456813676757815,0.505321182487446,0.842596000000412,
-0.392888492431641,0.340455476074219,0.000191536132813752,0.51987626927974,0.845613999999841,
-0.378523282470703,0.254264216308594,0.0313161577148442,0.457067685142409,0.848643999999695,
-0.392888492431641,0.268629426269531,-0.00220266552734216,0.475949564427293,0.851572999999917,
-0.392888492431641,0.335667072753906,0.0313161577148442,0.517701123188278,0.854677999999694,
-0.390494290771485,0.321301862792969,0.00976834277343741,0.505782659528671,0.857705000000351,
-0.385705887451172,0.268629426269531,-0.0141736738281235,0.470246417638859,0.860709999999926,
-0.404859500732422,0.290177241210938,-0.00938527050781168,0.498198885940747,0.863664000000426,
-0.349792862548828,0.287783039550781,0.0576523759765628,0.456615725746424,0.866594000000077,
-0.38091748413086,0.323696064453125,-0.0381156904296862,0.501328313299735,0.869635000000017,
-0.364158072509766,0.299754047851563,0.014556746093751,0.471885038790448,0.872604999999567,
-0.426407315673828,0.287783039550781,0.0408929643554696,0.516056693830265,0.875691999999617,
-0.34261025756836,0.27581203125,0.0480755693359374,0.442453755256166,0.878741999999875,
-0.333033450927735,0.280600434570313,0.0241335527343765,0.436153999964997,0.881704999999783,
-0.368946475830078,0.330878669433594,-0.059663505371093,0.499161226245335,0.884761999999682,
-0.371340677490235,0.29496564453125,0.0384987626953137,0.475794897977807,0.887741999999889,
-0.376129080810547,0.292571442871094,0.0073741411132815,0.476576869531264,0.890798000000359,
-0.325850845947266,0.259052619628906,-0.00220266552734216,0.41628341941107,0.893723000000136,
-0.404859500732422,0.280600434570313,-0.0405098920898439,0.494255875606436,0.896724000000177,
-0.359369669189453,0.311725056152344,0.014556746093751,0.475952695783265,0.899811999999656,
-0.38091748413086,0.290177241210938,0.00976834277343741,0.47895342315711,0.902774000000136,
-0.383311685791016,0.280600434570313,-0.0452982954101557,0.477196382962051,0.905791999999565,
-0.383311685791016,0.316513459472656,0.0839885942382814,0.504145517141055,0.908801999999923,
-0.359369669189453,0.309330854492188,0.0337103593750001,0.475361467731026,0.911737999999787,
-0.371340677490235,0.318907661132813,0.0624407792968764,0.493451969301277,0.914762000000337,
-0.36176387084961,0.304542451171875,-0.0716345136718743,0.478278900189913,0.91773000000012,
-0.371340677490235,0.261446821289062,0.000191536132813752,0.45414576493363,0.92078599999968,
-0.40007109741211,0.311725056152344,-0.0524809003906235,0.509885907359207,0.923730000000432,
-0.368946475830078,0.302148249511719,0.0361045610351578,0.478245340842932,0.926666999999725,
-0.366552274169922,0.330878669433594,0.0265277543945324,0.494514899005585,0.929701000000023,
-0.392888492431641,0.297359846191406,-0.0524809003906235,0.495518405831706,0.932647999999972,
-0.354581265869141,0.285388837890625,-0.0429040937499998,0.457182047064878,0.935661000000437,
-0.395282694091797,0.299754047851563,0.0169509477539069,0.496375092124516,0.938586999999643,
-0.373734879150391,0.292571442871094,0.014556746093751,0.474855460044495,0.94157499999983,
-0.38091748413086,0.309330854492188,-0.00699106884765577,0.490746963618812,0.944674999999734,
-0.38091748413086,0.292571442871094,0.0361045610351578,0.481663490652757,0.947659999999814,
-0.378523282470703,0.297359846191406,0.0337103593750001,0.482534083592614,0.950705000000198,
-0.390494290771485,0.247081611328125,0.0456813676757815,0.464351053766821,0.953676000000087,
-0.388100089111328,0.263841022949219,0.0552581743164069,0.472532782342023,0.956662999999935,
-0.38091748413086,0.309330854492188,-0.0141736738281235,0.490901823471085,0.959687999999915,
-0.356975467529297,0.323696064453125,0.0121625444335951,0.482035843114701,0.962680999999975,
-0.376129080810547,0.282994636230469,0.0241335527343765,0.471318870759686,0.965779000000111,
-0.38091748413086,0.309330854492188,0.0456813676757815,0.492818926797846,0.968772000000172,
-0.335427652587891,0.3141192578125,0.0648349809570323,0.464097180561353,0.971896000000015,
-0.397676895751953,0.290177241210938,0.0265277543945324,0.493004529882756,0.974917999999889,
-0.412042105712891,0.299754047851563,-0.059663505371093,0.513021364035531,0.977893000000222,
-0.371340677490235,0.335667072753906,0.0217393510742188,0.501037804836332,0.980994999999893,
-0.359369669189453,0.292571442871094,0.0361045610351578,0.464809797276856,0.984078999999838,
-0.371340677490235,0.273417829589844,-0.0381156904296862,0.462713749691382,0.987103999999817,
-0.368946475830078,0.278206232910156,-0.0452982954101557,0.464297475358805,0.990077000000383,
-0.40007109741211,0.304542451171875,0.0432871660156255,0.504655096369756,0.993056000000252,
-0.36176387084961,0.271023627929688,0.0121625444335951,0.452188934667095,0.996140999999625,
-0.373734879150391,0.27581203125,-0.0141736738281235,0.464705207099721,0.999109999999746,
-0.383311685791016,0.282994636230469,-0.0165678754882812,0.476747634600698,1.00214500000038,
-0.36176387084961,0.297359846191406,-0.00938527050781168,0.468384521180594,1.00508600000012,
-0.373734879150391,0.287783039550781,-0.0452982954101557,0.473865775630304,1.0080369999996,
-0.36176387084961,0.271023627929688,0.014556746093751,0.452259664357878,1.01107899999988,
-0.376129080810547,0.304542451171875,0.00976834277343741,0.48406054426869,1.01405400000021,
-0.376129080810547,0.271023627929688,-0.0381156904296862,0.465166312392125,1.01717100000042,
-0.371340677490235,0.299754047851563,0.0193451494140628,0.477619747045865,1.02015399999982,
-0.352187064208985,0.302148249511719,0.0863827958984373,0.472007712125947,1.02317200000016,
-0.335427652587891,0.338061274414063,-0.00220266552734216,0.47623732226119,1.0262130000001,
-0.364158072509766,0.311725056152344,-0.0117794721679676,0.479502208933145,1.0291930000003,
