X,Y,Z,Magnitude,Seconds,
-1.02016932739258,1.34123177001953,-0.327814091308593,1.71671494311747,0.0,
-0.148679923095703,1.53755630615234,0.74239405078125,1.71386523412898,0.00303600000006554,
-0.292332022705078,0.235110603027344,0.455089851562501,0.589781129021524,0.00610299999971176,
-1.18776344360352,-0.77763669921875,-0.562445854003906,1.52703836645282,0.00905099999999948,
-1.39366478637695,0.0507570751953125,-0.703703751953125,1.56207451422216,0.0120850000002974,
-0.890882437744141,1.20236807373047,-0.0812113203124998,1.49865132073947,0.0150519999997414,
-0.40007109741211,1.51361428955078,-0.0812113203124998,1.56769907158987,0.0179840000000695,
-0.275572611083985,1.07547538574219,0.476637666503906,1.20820984702461,0.0210539999998218,
-1.08002436889648,1.0802637890625,-0.138672160156249,1.53383586454755,0.0240130000001955,
-1.1829750402832,1.35320277832031,-0.452312577636718,1.85342234071871,0.0270520000003671,
-0.471897147216797,1.6931794140625,-0.124306950195312,1.76209978821383,0.029964000000291,
0.0308852014160155,1.98527201660156,0.718452034179688,2.11149998839325,0.0329460000002655,
-0.325850845947266,1.25982891357422,0.368898591796876,1.35256564953863,0.0359829999997601,
-0.900459244384766,-0.097683427734375,-0.351756107910155,0.971648734010404,0.0389519999998811,
-1.54210528930664,0.242293208007813,-0.646242912109374,1.68950425374008,0.0420180000000983,
-1.32183873657227,1.28855933349609,-0.0189620771484371,1.84607756115843,0.0449550000003001,
-0.115161099853516,1.08744639404297,0.119901619140625,1.10008096843327,0.0479130000003352,
0.0308852014160155,0.321301862792969,0.368898591796876,0.490178491705274,0.0509490000004007,
-1.11354319213867,0.316513459472656,0.0241335527343765,1.15790398529123,0.0538749999996071,
-1.63547915405273,0.848026228027344,-0.715674760253906,1.97639340952853,0.0569329999998445,
-0.414436307373047,1.6548721875,0.222852290527344,1.72047160779343,0.059863999999834,
-0.0720654699707033,2.28933562744141,0.629866572753906,2.37549635792341,0.0628660000002128,
-0.512598575439453,1.38432739990234,0.131872627441407,1.48206276504446,0.0658700000003591,
-0.608366641845703,0.156101948242188,-0.368515519531249,0.728204282664563,0.0688760000002731,
-1.31705033325195,0.90788126953125,-0.181767790039062,1.60994084033558,0.0718999999999141,
-1.00580411743164,1.76739966552734,0.440724641601562,2.08076469358345,0.0748629999998229,
0.0835576379394529,0.725921943359375,0.280313130371095,0.782636568125407,0.0778909999999087,
-0.206140762939453,-0.332315190429688,-0.059663505371093,0.395584546979209,0.0808340000003227,
-1.5444994909668,-0.181480485839844,-0.737222575195313,1.72102032809464,0.0838149999999587,
-1.70251680053711,0.529597407226563,-0.473860392578125,1.84487954661179,0.086898999999903,
-0.615549246826172,1.56149832275391,0.0863827958984373,1.68066649715485,0.0899289999997563,
-0.0505176550292971,2.08104008300781,0.409600020019532,2.12156829655678,0.0929960000003121,
-0.565271011962891,1.30771294677734,0.0504697709960951,1.42554960135347,0.0959999999995489,
-0.919612857666016,0.599029255371094,-0.536109635742188,1.22144889304085,0.0989980000003925,
-1.39605898803711,1.425028828125,-0.253593839843749,2.01096934205204,0.102042000000438,
-1.02735193237305,2.09540529296875,0.265947920410158,2.34880898140368,0.105054999999993,
0.392409652099609,0.385945307617188,0.265947920410158,0.611283413731429,0.108223999999609,
-0.481473953857422,-0.344286198730469,-0.325419889648437,0.675461515897224,0.111165999999685,
-1.27395470336914,-0.109654436035156,-0.471466190917969,1.36281511980064,0.11413100000027,
-1.26916630004883,0.632548078613281,-0.373303922851562,1.46637511836274,0.117196999999578,
-0.670615885009766,1.39869260986328,0.321014558593751,1.58401926406933,0.120200000000295,
-0.546117398681641,1.42024042480469,-0.236834428222656,1.53994078580436,0.123231999999916,
-0.622731851806641,0.895910261230469,-0.483437199218749,1.19338245379302,0.126167000000351,
-0.833421597900391,1.14251303222656,-0.52174442578125,1.50736353760073,0.129076999999597,
-1.03932294067383,2.31567184570313,0.258765315429688,2.55136978120821,0.132157000000007,
-0.53414639038086,2.30848924072266,0.716057832519532,2.47531286111508,0.135070999999698,
0.28945898071289,0.654095893554688,0.457484053222657,0.849069843083289,0.13814100000036,
-0.306697232666016,-0.487938298339844,-0.334996696289062,0.666610652507415,0.141166000000339,
-1.35056915649414,-0.253306535644531,-0.720463163574218,1.55153743671911,0.144118000000162,
-1.0081983190918,0.424252534179688,0.0217393510742188,1.09404143557844,0.147211999999854,
-0.991438907470703,0.86957404296875,0.194121870605469,1.33296414959259,0.15013799999997,
-0.900459244384766,0.941400092773438,0.165391450683595,1.31316994994214,0.153185000000121,
-0.752018741455078,0.630153876953125,-0.351756107910155,1.04228520837189,0.156127999999626,
-0.816662186279297,1.75303445556641,-0.270353251464844,1.95273085945788,0.159161999999924,
-0.64906807006836,2.93816427734375,0.462272456542969,3.04430525807112,0.162148999999772,
-0.301908829345703,2.32524865234375,0.325802961914063,2.36729335031704,0.165073999999549,
-0.0385466467285158,0.63973068359375,0.265947920410158,0.693880024122202,0.168104000000312,
-0.926795462646485,-0.1455674609375,-0.346967704589844,1.00026311703184,0.171070999999756,
-1.47267344116211,0.177649763183594,-0.773135600097655,1.67274180876841,0.174087999999756,
-0.584424625244141,0.433829340820313,0.15581464404297,0.744337452266496,0.177026999999725,
-0.766383951416016,0.625365473632813,0.189333467285158,1.00711146276578,0.179994000000079,
-1.25001268676758,0.4290409375,-0.2344402265625,1.34222578687844,0.183019000000058,
-0.82145058959961,0.306936652832031,-0.502590812499999,1.01073671389471,0.185991000000286,
-0.845392606201172,1.731486640625,-0.184161991699218,1.93562658704335,0.188997000000199,
-0.330639249267578,2.69395570800781,0.189333467285158,2.72076585389084,0.19194299999981,
0.38522704711914,2.05230966308594,0.265947920410158,2.10501855749505,0.194902000000184,
-0.143891519775391,0.886333454589844,0.189333467285158,0.917681275837455,0.197938999999678,
-1.52534587768555,0.567904633789063,-0.569628458984374,1.72443390738419,0.200850999999602,
-1.50858646606445,0.584664045410156,-0.425976359374999,1.67305739003018,0.203891000000112,
-0.627520255126953,0.733104548339844,0.119901619140625,0.972419841253615,0.206862000000001,
-0.586818826904297,0.7738059765625,0.340168171875002,1.02900262882558,0.209805999999844,
-0.558088406982422,0.203985981445313,0.0456813676757815,0.595952798455645,0.212875999999596,
-0.881305631103516,0.393127912597656,-0.330208292968749,1.01994445330297,0.215841000000182,
-1.06087075561523,1.68360260742188,0.0265277543945324,1.99014276412286,0.218872999999803,
-0.512598575439453,1.87035033691406,0.26355371875,1.95714798750735,0.221848000000136,
0.0117315881347655,1.07786958740234,-0.275141654785156,1.11249422821198,0.224823999999899,
-0.565271011962891,0.611000263671875,-0.117124345214844,0.840577629618263,0.227912999999717,
-1.5061922644043,0.785776984863281,-0.449918375976562,1.75740921595784,0.230886000000282,
-1.11114899047852,0.965342109375,-0.239228629882811,1.49123029895775,0.233973000000333,
2.70520845581055,-0.480755693359375,0.507762288085939,2.79411906820175,23.0118089999996,
3.40910374389648,-1.0649408984375,2.03526294726563,4.11076424990856,23.0161660000003,
3.04757929321289,-0.887769975585938,3.1365957109375,4.46252257493935,23.0191260000001,
1.35009031616211,-1.36900450927734,1.38643429736328,2.37046773214098,23.0221549999997,
1.31417729125977,-1.85023904296875,0.349744978515625,2.29625086151005,23.0252780000001,
2.23355072875977,-1.80953761474609,0.179756660644532,2.88018882960308,23.0283319999999,
2.33650140014648,-0.760877287597656,0.962660603515626,2.63910751528419,23.0313960000003,
2.26706955200195,0.800142194824219,1.67373849658203,2.92937406974479,23.0343359999997,
2.1114464440918,1.28855933349609,2.39678739794922,3.44429689097441,23.0372539999998,
2.06356241088867,1.80810109375,3.64895486621094,4.56534675621656,23.0402629999999,
2.51846072631836,2.49284276855469,4.47256023730469,5.70619878509874,23.0432220000002,
2.76745769897461,2.37552688720703,3.68726209277344,5.18631389796851,23.0462280000002,
3.27742265258789,1.87753294189453,3.27545940722656,4.99952632956207,23.0491570000004,
3.62937029663086,1.13054202392578,3.1365957109375,4.92835537190655,23.0520989999995,
3.36600811401367,0.359609089355469,2.66493798388672,4.3082738746179,23.0551139999998,
2.52564333129883,-0.499909306640625,1.92273546923828,3.21336198341661,23.0581009999996,
0.258334359130859,-1.55575223876953,-0.00220266552734216,1.57705628348496,23.0611390000004,
0.694079061279297,-1.86460425292969,-1.12747744580078,2.28685376754599,23.0641299999998,
1.7116147668457,-1.19901619140625,-0.117124345214844,2.09307980009856,23.0670790000004,
1.76189300170898,0.101035310058594,1.49896177539063,2.31546139838952,23.0700900000002,
0.55760956665039,0.479319172363281,3.41192890185547,3.49026275932511,23.073034,
-1.90602394165039,0.438617744140625,2.78225386523438,3.40091889968449,23.0760140000002,
-2.32261503051758,0.759440766601563,1.89400504931641,3.09168982674501,23.0789260000001,
0.318189400634766,1.16406084716797,1.34573286914063,1.80756164643732,23.0819279999996,
2.59028677612305,0.838449421386719,1.7359877397461,3.22896832553842,23.084871,
3.53599643188477,-0.0282515795898438,2.29144252490235,4.21364186458483,23.0878149999999,
3.24150962768555,-0.135990654296875,3.1916623491211,4.55110829087063,23.0908479999998,
2.17369568725586,-0.997903251953125,4.01047931689453,4.66955117675052,23.0938210000004,
3.25348063598633,-1.70419274169922,2.52846848925781,4.45898666187375,23.0968389999998,
3.44980517211914,-1.88136366455078,2.23158748339844,4.51892328546663,23.0998140000002,
3.20080819946289,-1.51265660888672,1.00336203173828,3.67967913178466,23.1027560000002,
2.96378223510742,-0.746512077636719,1.21884018115234,3.29041894086259,23.1057879999998,
2.09708123413086,-0.0761356127929688,1.719228328125,2.7128015737069,23.1087559999996,
0.801818135986328,-0.672291826171875,1.34094446582031,1.70088820418869,23.1117880000002,
1.93666972290039,-1.56772324707031,0.629866572753906,2.57005402559489,23.114748,
2.77464030395508,-0.995509050292969,0.354533381835939,2.96906736272237,23.1176930000001,
2.93984021850586,-0.926077202148438,-0.813837028320313,3.18788491061847,23.1206990000001,
2.77464030395508,-0.849462749023438,-1.78348870068359,3.40603108085884,23.1236740000004,
2.10426383911133,-0.813549724121094,-2.56160424023437,3.41344484967837,23.1267029999999,
0.722809481201172,-1.18704518310547,-2.05642768994141,2.48202027727534,23.1296730000004,
-0.412042105712891,-1.66349131347656,-3.260711125,3.68364209547983,23.1325909999996,
-1.64984436401367,-1.28281324951172,-5.18804346142578,5.59315574753942,23.1356089999999,
-1.35056915649414,-0.887769975585938,-5.81532429638672,6.03574098584182,23.1385389999996,
-0.443166727294922,-0.1838746875,-5.12818841992187,5.15058473564947,23.1415559999996,
0.160172091064453,0.807324799804688,-1.83376693554687,2.01000736442447,23.1444979999997,
-0.258813199462891,1.48009546630859,-2.13543634472656,2.61108315531747,23.1474029999999,
-0.627520255126953,1.95175319335938,-1.96544802685547,2.84008946067781,23.1503849999999,
-0.526963785400391,2.37313268554688,-2.04924508496094,3.17944256003643,23.1533129999998,
0.231998140869141,2.40904571044922,-1.86010315380859,3.05242659456525,23.156309,
1.28065846801758,1.30292454345703,-1.83855533886719,2.59190744659698,23.1593009999997,
2.35326081176758,0.529597407226563,-0.552869047363281,2.47466645135753,23.1623120000004,
2.59986358276367,0.261446821289062,0.191727668945314,2.6200008756453,23.1653969999998,
2.5711331628418,0.577481440429688,0.536492708007813,2.68924431408735,23.1684290000003,
2.34847240844727,1.15208983886719,0.93393018359375,2.77756354344713,23.1714430000002,
2.73872727905273,0.733104548339844,1.24517639941406,3.09653575039623,23.1743770000003,
3.21996181274414,0.500866987304688,1.84851521777344,3.74646904762901,23.1773640000001,
3.55993844848633,0.472136567382813,2.50931487597656,4.38095147679914,23.1803280000004,
3.50726601196289,0.266235224609375,2.32256714648438,4.21498685922287,23.1832480000003,
3.93103970581055,0.201591779785156,4.48931964892578,5.97056976548865,23.1862680000004,
1.6134524987793,-1.12719014160156,-0.787500810058592,2.11989247533545,23.1892129999997,
-0.0553060583496096,-1.103248125,-0.133883756835937,1.11271741504781,23.1922169999998,
0.0763750329589842,0.560722028808594,-0.993402152832031,1.14328044525481,23.1951829999998,
-2.51175696166992,0.551145222167969,2.32017294482422,3.46350784383552,23.1980890000004,
-2.51415116333008,0.484107575683594,-0.710886356933592,2.65719318631193,23.2010979999995,
-4.06559383911133,-0.827914934082031,-0.0285388837890626,4.14913374942095,23.2040589999997,
-3.03369292358398,0.745075556640625,0.55085791796875,3.17204583597018,23.2070679999997,
-2.77511914428711,2.86394402587891,1.84133261279297,4.39248989063052,23.2099989999997,
-0.967496890869141,5.1408298046875,1.79823698291016,5.53153121308292,23.2129260000002,
-0.0816422766113283,4.91577484863281,2.025686140625,5.31741592919921,23.2159300000003,
0.667742843017578,4.30046502197266,1.99695572070313,4.7882890535201,23.2188930000002,
1.93906392456055,2.24623999755859,1.78626597460938,3.4635688476211,23.221904,
2.97096484008789,0.718739338378906,1.54205740527344,3.42361787568801,23.2248600000003,
3.65331231323242,-0.531033928222656,1.05603446826172,3.8397782083209,23.2277990000002,
3.96934693237305,-0.550187541503906,2.71282201708985,4.83919669953318,23.2308569999996,
3.26305744262695,-0.487938298339844,1.89400504931641,3.80432422168589,23.233835,
4.24228592163086,-1.34506249267578,2.32974975146485,5.02333722285505,23.2368660000002,
4.22792071166992,-1.19662198974609,2.83732050341797,5.23044982478825,23.2398290000001,
3.47614139038086,-0.176692082519531,3.66571427783203,5.054922375729,23.2427760000001,
2.52803753295898,0.431435139160156,2.72239882373047,3.74012906231864,23.2457940000004,
2.31255938354492,-0.315555778808594,0.907593965332032,2.50424303091139,23.2487719999999,
1.56317426391602,-0.519062919921875,1.08715908984375,1.97353869504428,23.2518090000003,
-0.184592947998047,-0.102471831054688,0.107930610839844,0.237116109462373,23.2547910000003,
-1.7743428503418,-0.468784685058594,-0.512167619140625,1.90535227755938,23.2577289999999,
-2.83497418579102,-0.914106193847656,-1.39562803173828,3.28944469032476,23.260749,
-3.1917102331543,-1.01705686523438,-2.20726239453125,4.01166127157491,23.2636949999996,
-2.69611048950195,0.0244208569335937,-2.95664751416016,4.00142133158272,23.2667090000004,
-1.50379806274414,1.61417075927734,-1.90080458203125,2.91204634452991,23.2696139999998,
-0.359369669189453,1.9996372265625,-0.153037370117186,2.03742878001669,23.2726110000003,
0.181719906005859,0.345243879394531,0.105536409179688,0.404170006508037,23.2755530000004,
-0.512598575439453,-0.468784685058594,-0.469071989257811,0.83817952229479,23.2784750000001,
-0.828633194580078,-0.47117888671875,-1.68532643261719,1.93622511576719,23.2815119999996,
-0.900459244384766,0.484107575683594,-2.26232903271484,2.48260340124973,23.284455,
0.579157381591797,0.464953962402344,-1.97023643017578,2.10557285568505,23.2874540000003,
1.73316258178711,-0.0569819995117188,-0.816231229980469,1.9165940895168,23.2904250000001,
1.51289602905273,-0.01149216796875,0.732817244140627,1.68107334104078,23.2933819999998,
0.849702169189453,-0.523851323242187,0.644231782714845,1.18804401225199,23.2964249999995,
0.124259066162109,-1.01945106689453,-0.437947367675781,1.11647601414899,23.2994790000002,
-0.550905802001953,-1.04099888183594,-1.10832383251953,1.61726855914343,23.3025909999997,
0.363679232177734,-1.16789156982422,-0.622300895507811,1.37240362406024,23.3056530000004,
1.45064678588867,-1.54138702880859,0.237217500488281,2.12991131564824,23.3086579999999,
0.777876119384766,-1.81193181640625,0.795066487304688,2.12610415635015,23.3116849999997,
-1.35775176147461,-2.11360122558594,-0.0931823286132811,2.5138581767776,23.3146189999998,
-2.41120049194336,-1.73771156494141,-1.07480500927734,3.16049602171031,23.317626,
-2.41838309692383,-1.64194349853516,-1.12508324414062,3.13215062889937,23.3206270000001,
-1.94193696655273,-0.978749638671875,-1.86249735546875,2.86320911503027,23.3235779999995,
-1.09678378051758,0.00526724365234374,-1.55125113964844,1.89982696667952,23.3265540000002,
-0.737653531494141,0.936611689453125,-1.11071803417969,1.62943816722145,23.3295230000003,
-1.26916630004883,1.01801454589844,-0.291901066406249,1.65298001966435,23.3324839999996,
-1.95390797485352,0.79295958984375,-0.876086271484374,2.28343347623808,23.335462,
-1.97784999145508,0.414675727539063,-2.32697247753906,3.08198758254039,23.3383780000004,
-1.49422125610352,1.39151000488281,-3.09311700878906,3.70626093063356,23.3413979999996,
-1.09678378051758,2.46650655029297,-2.55442163525391,3.71640405694776,23.3443289999996,
-1.09917798217773,2.40904571044922,-1.70448004589844,3.14911824141362,23.3473089999998,
-1.3912705847168,1.731486640625,-1.37168601513672,2.6105942524036,23.3502310000003,
-0.838210001220703,1.77937067382813,-1.22803391552734,2.31879781324534,23.353153,
-0.61076084350586,2.58142822998047,-1.32380198193359,2.96466730036802,23.3561369999998,
-0.483868155517578,2.50481377685547,-1.87446836376953,3.1657308943468,23.3590599999998,
-0.244447989501953,1.92541697509766,-1.98939004345703,2.77932691358388,23.3620510000001,
0.248757552490234,1.77458227050781,-0.844961649902343,1.98115692072266,23.3649859999996,
0.873644185791015,1.21912748535156,0.474243464843751,1.57303301073216,23.3680020000002,
0.777876119384766,0.718739338378906,0.368898591796876,1.1215006307052,23.3709419999996,
-0.53414639038086,-0.107260234375,-0.449918375976562,0.706571772204685,23.3738599999997,
-0.756807144775391,-0.763271489257813,-0.873692069824218,1.38516361978311,23.3768929999997,
0.243969149169922,-0.746512077636719,-0.224863419921874,0.816923977750162,23.3798559999996,
0.576763179931641,0.450588752441406,0.438330439941407,0.85312341670522,23.3828759999997,
0.0667982263183592,0.986889924316406,0.936324385253908,1.36202682799482,23.3858270000001,
-0.390494290771485,0.634942280273438,1.40319370898438,1.58889586673806,23.3887400000003,
-1.16621562866211,1.01083194091797,1.73838194140625,2.3246100489164,23.3917250000004,
-1.83898629516602,2.36355587890625,1.28827202929688,3.26004782296049,23.3946640000004,
-1.55647049926758,3.02674973876953,0.658596992675783,3.4666358901669,23.3976499999999,
-0.854969412841797,3.26616990478516,0.78788388232422,3.46692941316168,23.4005859999998,
-0.431195718994141,3.52474368408203,1.63303706835938,3.90852374346003,23.4035100000001,
-0.452743533935547,2.30370083740234,2.10948319873047,3.15625309845311,23.4065140000002,
-1.40563579467773,0.575087238769531,1.17335034960938,1.91918950664162,23.4094480000003,
-1.79828486694336,-1.11521913330078,-0.282324259765625,2.13477145512344,23.4124609999999,
-0.64906807006836,-1.12240173828125,-1.26873534375,1.81404641455489,23.4154339999996,
1.24474544311523,-0.732146867675781,-1.14184265576172,1.84098748081582,23.4183780000003,
1.87681468139648,-0.746512077636719,-1.01973837109375,2.26264888479053,23.4214300000003,
0.471418306884765,-1.06015249511719,-0.373303922851562,1.2188167835182,23.4244010000002,
-1.43676041625977,-1.42885955078125,-1.06762240429688,2.29035755019743,23.4274180000002,
-2.46147872680664,-1.41928274414063,-1.86010315380859,3.3960601839699,23.4303630000004,
-2.10474267944336,-1.22774661132813,-3.26310532666016,4.07248816587304,23.433301,
-1.84377469848633,0.0818816967773438,-3.70363843212891,4.13801249236729,23.4363329999996,
-0.716105716552735,1.52797949951172,-1.63744239941406,2.35132863709148,23.4393849999997,
-0.696952103271485,2.81845419433594,0.186939265625,2.90935947742055,23.4424849999996,
-0.957920084228516,3.20152645996094,1.5827588334961,3.69763547238074,23.4455170000001,
-1.3362039465332,2.08343428466797,0.162997249023439,2.48046517985035,23.4484110000003,
-1.70251680053711,0.9270348828125,-1.91516979199219,2.72503806619682,23.4513900000002,
-1.28353151000977,0.960553706054688,-3.03326196728516,3.43085918125212,23.4543130000002,
-0.99383310913086,1.96133,-1.8433437421875,2.86922215409796,23.457343,
-0.0481234533691408,1.25025210693359,-0.0692403120117184,1.25309234235293,23.4602889999996,
0.0787692346191404,-0.217393510742188,0.186939265625,0.297339569966248,23.463315,
-0.445560928955078,-1.17267997314453,-1.05804559765625,1.64108602685701,23.4662550000003,
-0.773566556396485,-0.818338127441406,-1.41238744335937,1.80635566767972,23.4692089999999,
-1.67857478393555,0.273417829589844,-1.54406853466797,2.29706731606925,23.472213,
-0.919612857666016,0.848026228027344,-1.22563971386719,1.75129352183333,23.4751690000003,
0.502542928466797,1.34362597167969,0.435936238281251,1.49930668996406,23.4781979999998,
1.22080342651367,2.11695310791016,1.64500807666016,2.9458280736586,23.481178,
1.6733075402832,2.26299940917969,3.06716386279297,4.1627657406512,23.4841020000004,
1.66851913696289,0.481713374023438,2.50213227099609,3.04576259525993,23.4871190000003,
0.801818135986328,-0.0952892260742188,1.4295299272461,1.64181246575078,23.4900870000001,
1.7116147668457,0.943794294433594,1.93710067919922,2.75185970239105,23.4931070000002,
2.01088997436523,1.70275622070313,2.178915046875,3.41917066225775,23.496056,
3.0308198815918,0.893516059570313,2.77028285693359,4.20222645876949,23.498998,
2.71478526245117,-0.138384855957031,1.08955329150391,2.92853816171265,23.5020420000001,
2.34368400512695,-0.657926616210938,0.670568000976564,2.52495219601093,23.5050259999998,
1.3285425012207,-0.459207878417969,0.378475398437502,1.45572685637565,23.5080690000004,
0.421140072021484,1.31250135009766,-1.18014988232422,1.81459981787178,23.511031,
0.528879146728515,2.01639663818359,-1.16339047070312,2.38726746336585,23.5139550000004,
0.938287630615234,2.037944453125,-1.52730912304687,2.71408813952877,23.5169939999996,
1.32614829956055,2.46171814697266,-0.241622831542967,2.80661845292242,23.5199499999999,
1.25432224975586,2.10019369628906,-0.907210893066406,2.60905528355826,23.5229820000004,
0.339737215576172,1.85837932861328,-1.25197593212891,2.2663712933442,23.5259400000004,
-0.661039078369141,1.02519715087891,-2.67413171826172,2.93921457330266,23.5288650000002,
-0.641885465087891,1.3867216015625,-3.41872843457031,3.74469195794137,23.5318880000004,
-0.0840364782714846,2.01160823486328,-2.08036970654297,2.89509376983747,23.5348320000003,
0.95983544555664,1.59741134765625,-1.51773231640625,2.40343888635258,23.5378700000001,
1.32614829956055,1.44897084472656,-0.861721061523436,2.14493566550795,23.5408280000001,
2.06835081420898,0.958159504394531,0.15581464404297,2.28482448555656,23.5437760000004,
1.69246115356445,1.48967227294922,0.553252119628906,2.32155899020298,23.5467950000002,
0.885615194091797,1.61177655761719,-0.603147282226562,1.93543912013472,23.5497409999998,
1.50092502075195,1.43699983642578,0.419176826660157,2.11977679481021,23.552764,
1.89836249633789,0.960553706054688,0.953083796875001,2.33126839158071,23.5557040000003,
1.8816030847168,0.0890643017578125,0.151026240722658,1.88975436066442,23.5587029999997,
-0.397676895751953,-1.99867954589844,1.09194749316406,2.31197235460007,23.5616410000002,
-1.99221520141602,-2.22373450195313,-2.21683920117187,3.71864122869928,23.5645850000001,
-3.31860292114258,-2.30753156005859,-2.51132600537109,4.75863273999325,23.5675979999996,
-1.75997764038086,-0.473573088378906,-1.59674097119141,2.42309192845806,23.5705520000001,
-0.53414639038086,1.54952731445313,0.658596992675783,1.76637970531673,23.573547,
0.437899483642578,1.73627504394531,-0.145854765136718,1.79657468492541,23.5765940000001,
-0.107978494873047,1.36996218994141,0.778307075683594,1.57930923548343,23.5796069999997,
0.488177718505859,2.31567184570313,1.09194749316406,2.60633898594465,23.5827200000003,
1.2686874597168,2.71310932128906,1.88442824267578,3.53858726916582,23.5857079999996,
2.03004358764648,1.76261126220703,0.924353376953126,2.84293942863514,23.5887149999999,
3.00927206665039,0.421858332519531,0.426359431640625,3.06846300104586,23.5916450000004,
3.14095315795898,-0.231758720703125,-0.100364933593749,3.15109059930205,23.5945789999996,
3.04997349487305,-0.569341154785156,-0.481042997558593,3.1397277008461,23.5976449999998,
2.53522013793945,-0.940442412109375,-1.13944845410156,2.93429989228475,23.6006189999998,
1.33572510620117,-1.24211182128906,-3.20803868847656,3.69032729750148,23.6036409999997,
0.686896456298828,-1.20619879638672,-3.1457894453125,3.43842020589691,23.6066279999995,
1.27108166137695,-0.997903251953125,-3.67011960888672,4.01014182214074,23.6095569999998,
1.10588174682617,-1.25168862792969,-2.85369684277344,3.30655175820777,23.6126329999997,
-0.110372696533203,-1.87896946289063,-2.19768558789062,2.89353249814784,23.6155680000002,
-1.19734025024414,-1.9076998828125,-3.47140087109375,4.13806313697217,23.6186129999996,
-2.2555773840332,-1.97952593261719,-3.68448481884766,4.75200806329123,23.621572,
-2.34176864379883,-1.61321307861328,-4.19684397412109,5.06950058301652,23.6244999999999,
-2.1574151159668,-0.507091911621094,-3.48337187939453,4.12861500258745,23.6275100000003,
-1.20931125854492,1.87753294189453,-1.81700752392578,2.87907624246833,23.6304399999999,
-0.364158072509766,3.34996696289063,-0.861721061523436,3.47813929308556,23.6334299999999,
-0.143891519775391,3.2254684765625,-1.46745408154297,3.54651563428089,23.6363460000002,
0.145806881103515,3.08181637695313,-1.35971500683594,3.3715985418861,23.6392560000004,
0.0380678063964842,2.04033865478516,-3.11227062207031,3.72164740526239,23.6422640000001,
0.531273348388672,1.04435076416016,-3.17691406689453,3.38610438081025,23.6452040000004,
1.06757452026367,0.788171186523438,-2.58794045849609,2.90832683725591,23.6482239999996,
2.16172467895508,-0.00430956298828126,-1.01255576611328,2.38711988375654,23.6511840000003,
2.67168963256836,-0.389776030273438,0.170179854003907,2.70533029947505,23.6542129999998,
2.2646753503418,-0.411323845214844,0.385658003417969,2.33381101284753,23.6571809999996,
1.51529023071289,-0.85425115234375,-0.306266276367186,1.76625268481448,23.6601250000003,
1.58711628051758,-1.22056400634766,-1.29028315869141,2.38192048798403,23.6631539999998,
2.25509854370117,-1.42407114746094,-0.682155937011718,2.75295927998113,23.6661249999997,
2.96857063842773,-1.22056400634766,0.378475398437502,3.23193931814153,23.6691469999996,
3.34924870239258,-1.13197854492188,0.775912874023438,3.61951420562444,23.6721170000001,
2.78900551391602,-1.66827971679688,0.883651948730469,3.36787020780566,23.6750609999999,
0.773087716064453,-1.96755492431641,-0.548080644042969,2.18387943561591,23.6780829999998,
1.39558014770508,-1.84545063964844,-1.01734416943359,2.52751284292046,23.6810519999999,
2.10665804077148,-0.945230815429688,1.57797043017578,2.79668733928091,23.6840940000002,
1.81217123657227,-0.0952892260742188,1.16856194628906,2.15837477041884,23.6870529999997,
1.14897737670898,-0.346680400390625,1.43910673388672,1.87386352323806,23.6900100000003,
1.1920730065918,-0.669897624511719,1.41995312060547,1.97131117408908,23.6930220000004,
0.943076033935547,0.460165559082031,2.29144252490235,2.52028839470401,23.6959690000003,
0.631829818115234,2.3827094921875,1.32897345751953,2.8004792257775,23.6989750000002,
1.23756283813477,2.55748621337891,1.26911841601563,3.1117453404521,23.7019140000002,
1.87202627807617,2.17920235107422,1.11110110644531,3.0802517659242,23.7048240000004,
2.80337072387695,2.11216470458984,2.36805697802735,4.23412576643509,23.7078309999997,
3.24869223266602,1.13772462890625,1.98259051074219,3.97228947674881,23.7107679999999,
3.31572987915039,0.000478840332031241,1.52050959033203,3.64774098245344,23.7138180000002,
3.2606632409668,-0.487938298339844,1.15659093798828,3.49395351311598,23.7168869999996,
3.25348063598633,-0.392170231933594,1.19968656787109,3.48972514686804,23.7199330000003,
3.57669786010742,-0.408929643554688,1.54205740527344,3.91636720405958,23.7230499999996,
2.87280257202148,-0.396958635253906,1.13025471972656,3.11256269131725,23.7260420000002,
