X,Y,Z,Magnitude,Seconds,
4.79137213037109,6.27616023193359,-4.72763848217774,9.20315162141586,0.0,
4.89192860009766,6.40305291992188,-4.72285007885743,9.33998741921728,0.00293300000001295,
4.83446776025391,6.56825283447266,-4.64862982739258,9.38742686227789,0.00594300000000203,
5.14331977441406,6.36474569335938,-4.61511100415039,9.39483771140542,0.00890599999999608,
5.10980095117188,6.40305291992188,-4.60792839916993,9.39905083440843,0.0119550000000004,
5.20556901757813,6.37671670166016,-4.67257184399414,9.46537861510504,0.0149089999999887,
5.28936607568359,6.22348779541016,-4.57440957592774,9.36132558938909,0.0178319999999985,
5.32049069726563,6.19236317382813,-4.40202705639649,9.27528032684293,0.0208709999999996,
5.38752834375,6.16123855224609,-4.39005604809571,9.2875677256112,0.0238160000000107,
5.47132540185547,6.10856611572266,-4.26316336010743,9.24253988241903,0.0268639999999891,
5.49047901513672,6.13729653564453,-4.14824168041993,9.22061156438466,0.0298349999999914,
5.42104716699219,6.19475737548828,-4.10993445385743,9.20077890957743,0.0328049999999962,
5.35879792382813,6.19475737548828,-3.91600411938477,9.07892187391375,0.0358170000000086,
5.28697187402344,6.30010224853516,-3.90163890942383,9.10308442882096,0.0387739999999894,
5.14331977441406,6.39347611328125,-3.93755193432618,9.10135101776063,0.0417930000000126,
5.00206187646484,6.33122687011719,-4.03092579907227,9.01961304571894,0.0447499999999934,
4.95417784326172,6.26658342529297,-4.12429966381836,8.99020542845347,0.0476749999999981,
4.83207355859375,6.18518056884766,-4.35174882153321,8.97458140252943,0.0506870000000106,
4.74348809716797,6.07265309082031,-4.46906470288086,8.90788045541471,0.0536299999999983,
4.64532582910156,5.84999233642578,-4.52652554272461,8.73446597587379,0.0566540000000089,
4.57589398095703,5.73746485839844,-4.72763848217774,8.72971215702349,0.059597999999994,
4.50406793115234,5.56029393554688,-4.74679209545899,8.58693960475013,0.0626279999999895,
4.42505927636719,5.41424763427734,-4.77552251538086,8.46763499092578,0.0655749999999955,
4.42745347802734,5.37354620605469,-4.89044419506836,8.5084538873863,0.0685139999999933,
4.36041583154297,5.28735494628906,-4.88086738842774,8.41381096860604,0.0715289999999982,
4.30056079003906,5.20834629150391,-4.89762680004883,8.34316741253587,0.0744860000000074,
4.28380137841797,5.23947091308594,-4.91917461499024,8.36667727306209,0.0774979999999914,
4.20479272363281,5.25623032470703,-4.87847318676758,8.31310650172939,0.0804559999999981,
4.23591734521484,5.35439259277344,-4.85453117016602,8.37729005557003,0.0833800000000053,
4.10663045556641,5.378334609375,-4.80904133862305,8.30167305219688,0.0864119999999957,
4.08987104394531,5.38312301269531,-4.87368478344727,8.33413834144344,0.0893550000000118,
4.04916961572266,5.46213166748047,-4.80425293530274,8.32535303732818,0.092378999999994,
4.03241020410156,5.50522729736328,-4.82340654858399,8.35662075139821,0.0953299999999899,
4.00367978417969,5.45973746582031,-4.83298335522461,8.31840808819869,0.0982689999999877,
4.14493768212891,5.42861284423828,-4.73003268383789,8.30804158580924,0.10127700000001,
4.13296667382813,5.58184175048828,-4.6366588190918,8.35086677292422,0.104244999999992,
4.21676373193359,5.50522729736328,-4.57680377758789,8.30877588969201,0.107260999999994,
4.25746516015625,5.60338956542969,-4.4068154597168,8.30325277875542,0.110230000000001,
4.37717524316406,5.58663015380859,-4.33259520825196,8.31513564672156,0.113161999999988,
4.43703028466797,5.62254317871094,-4.24879815014649,8.32781575590009,0.116189999999989,
4.47294330957031,5.73985906005859,-4.2535865534668,8.42889093818399,0.119144000000006,
4.5064621328125,5.75183006835938,-4.31344159497071,8.48513573745167,0.122173000000004,
4.49927952783203,5.73028225341797,-4.31344159497071,8.4667248311628,0.125118000000015,
4.51125053613281,5.75183006835938,-4.31104739331055,8.48646334832192,0.128133999999989,
4.53758675439453,5.80689670654297,-4.28710537670899,8.52578532600507,0.131240999999989,
4.57110557763672,5.72549385009766,-4.33498940991211,8.51283849332629,0.134298000000001,
4.57589398095703,5.74464746337891,-4.42596907299805,8.57490422329018,0.137371999999999,
4.57110557763672,5.684792421875,-4.28949957836914,8.46236832775187,0.140331000000003,
4.60462440087891,5.64887939697266,-4.27034596508789,8.44678986220529,0.143257000000006,
4.65011423242188,5.684792421875,-4.22485613354493,8.47288832710146,0.146293000000014,
4.64532582910156,5.69915763183594,-4.25119235180664,8.49306106083615,0.149270000000001,
4.69320986230469,5.70155183349609,-4.19133731030274,8.49124375874421,0.152298999999999,
4.67884465234375,5.71591704345703,-4.13627067211914,8.46593349852698,0.155255000000011,
4.63096061914063,5.71112864013672,-4.09317504223633,8.41527590317796,0.158285000000006,
4.48012591455078,5.69915763183594,-4.0620504206543,8.30976410872662,0.161241999999987,
4.39872305810547,5.71352284179688,-4.14824168041993,8.31871485536177,0.164208000000002,
4.42027087304688,5.62254317871094,-4.13627067211914,8.26199258415356,0.167229999999989,
4.37478104150391,5.62014897705078,-4.18654890698243,8.26147537888377,0.170227000000011,
4.32210860498047,5.57944754882813,-4.29907638500977,8.26395277742553,0.173248999999998,
4.37238683984375,5.51959250732422,-4.25119235180664,8.22534525331355,0.176220000000001,
4.28858978173828,5.53874612060547,-4.23443294018555,8.18536091015421,0.179161999999991,
4.42745347802734,5.38072881103516,-4.32780680493164,8.20271287921337,0.18219400000001,
4.43224188134766,5.46213166748047,-4.28231697338868,8.2351617536171,0.185145000000006,
4.44660709130859,5.43100704589844,-4.22246193188477,8.19129641285739,0.188173000000006,
4.48252011621094,5.48128528076172,-4.24879815014649,8.25770916429121,0.191117999999989,
4.56871137597656,5.47170847412109,-4.22246193188477,8.28504085861756,0.194062000000002,
4.71954608056641,5.39988242431641,-4.22485613354493,8.32359626316553,0.197078000000005,
4.78658372705078,5.41424763427734,-4.25598075512696,8.38682498978941,0.200049000000007,
4.83446776025391,5.34960418945313,-4.2535865534668,8.37157942544789,0.203060999999991,
4.93741843164063,5.26820133300781,-4.33259520825196,8.4204172873307,0.206019999999995,
4.99966767480469,5.22749990478516,-4.33259520825196,8.43177403347502,0.208946999999995,
5.14571397607422,5.16525066162109,-4.30865319165039,8.4689243146259,0.211970000000008,
5.22472263085938,5.07905940185547,-4.29907638500977,8.46029720170274,0.214917000000014,
5.28218347070313,5.12454923339844,-4.3302010065918,8.53891725110289,0.217937000000006,
5.40428775537109,5.08384780517578,-4.20091411694336,8.52640100317705,0.220877000000002,
5.51681523339844,5.08145360351563,-4.19612571362305,8.59441051199369,0.223828999999995,
5.57427607324219,5.19876948486328,-4.02853159741211,8.62141663120475,0.226862000000011,
5.65807313134766,5.27298973632813,-4.08120403393555,8.74496647710624,0.229820999999987,
5.72032237451172,5.30650855957031,-4.06923302563477,8.79998741919834,0.232834999999994,
-1.68254915869141,-0.939963571777344,1.32250911303711,2.33742027495009,14.958554,
-1.890844703125,-0.956722983398438,1.11660777026367,2.39529235604172,14.96285,
-1.97464176123047,-0.973482395019531,1.03759911547851,2.43382209354959,14.965749,
-2.05843881933594,-0.951934580078125,0.910706427490231,2.4439181685911,14.968633,
-2.05604461767578,-0.944751975097656,0.728747101318357,2.3771722911906,14.971623,
-2.09195764257813,-0.892079538574219,0.465384918701169,2.32135214994156,14.97454,
-2.05125621435547,-0.916021555175781,0.309761810791013,2.26775217471026,14.977519,
-1.98421856787109,-0.92320416015625,0.0942836613769504,2.19050648371943,14.980435,
-1.82620125830078,-0.968693991699219,-0.0541568415527376,2.06792457523491,14.983314,
-1.63945352880859,-1.03573163818359,-0.288788604248049,1.96059857120242,14.986314,
-1.37130294287109,-1.01178962158203,-0.446805913818363,1.76176772705459,14.989323,
-1.11033496191406,-1.01178962158203,-0.4611711237793,1.57138180319032,14.992376,
-0.880491602539063,-1.05249104980469,-0.655101458251956,1.52057909779946,14.995387,
-0.581216395019531,-1.03094323486328,-0.738898516357425,1.39521592193648,14.998318,
-0.322642615722656,-1.06925046142578,-0.980712884033206,1.48633528103464,15.001304,
-0.0784340463867188,-1.00460701660156,-1.06929834545899,1.46928081354077,15.004221,
0.172957127929687,-1.05009684814453,-1.32547792309571,1.69985566540188,15.007256,
0.366887462402344,-1.08361567138672,-1.47631262768555,1.86770669753223,15.010229,
0.524904771972656,-1.09798088134766,-1.71333859204102,2.10157468732894,15.013158,
0.544058385253906,-1.00700121826172,-1.68460817211914,2.03665305678613,15.016172,
1.02768712060547,-1.25120978759766,-2.07486304272461,2.63186690326524,15.019149,
1.00135090234375,-1.19374894775391,-2.16584270581055,2.66807323853768,15.022173,
0.996562499023438,-1.14825911621094,-2.37413825024414,2.81924958875473,15.025137,
1.26710728662109,-1.3254300390625,-2.54412656811524,3.13606531482482,15.028162,
1.13782039697266,-1.28951701416016,-2.65904824780274,3.16670601251811,15.031126,
1.35090434472656,-1.32782424072266,-2.84100757397461,3.41458398611499,15.034055,
1.53765207421875,-1.46429373535156,-2.96790026196289,3.64924129233714,15.037055,
1.48258543603516,-1.46908213867188,-3.05409152172852,3.69915354215019,15.039993,
1.54004627587891,-1.52175457519531,-3.17859000805664,3.84589572899395,15.042989,
1.65496795556641,-1.53133138183594,-3.2192914362793,3.93036029985146,15.045922,
1.68609257714844,-1.64385885986328,-3.31745370434571,4.06825259913186,15.048834,
1.69806358544922,-1.72526171630859,-3.39885656079102,4.17278969645259,15.05185,
1.73637081201172,-1.84497179931641,-3.46110580395508,4.28930739435292,15.054775,
1.82974467675781,-1.94792247070312,-3.43955798901368,4.35579231527187,15.057779,
1.82256207177734,-2.05326734375,-3.52335504711914,4.46672923719935,15.060715,
1.87284030664063,-2.10115137695313,-3.54250866040039,4.52457020412564,15.063627,
1.86805190332031,-2.17297742675781,-3.49462462719727,4.51927539498439,15.066634,
1.88720551660156,-2.27113969482422,-3.53293185375977,4.6044790865643,15.069567,
1.93030114648438,-2.31423532470703,-3.48025941723633,4.60368909305384,15.072567,
1.939877953125,-2.38127297119141,-3.5257492487793,4.67594858842727,15.075511,
2.01170400292969,-2.41239759277344,-3.48265361889649,4.68993511364872,15.078423,
1.96142576806641,-2.46507002929688,-3.46828840893555,4.68538000385553,15.08143,
1.92072433984375,-2.5129540625,-3.45392319897461,4.68334341836241,15.084359,
1.86805190332031,-2.57280910400391,-3.46828840893555,4.70510245230651,15.087361,
1.82256207177734,-2.63505834716797,-3.49941303051758,4.74459234883432,15.090297,
1.77707224023438,-2.69970179199219,-3.55926807202149,4.80778168402113,15.093226,
1.70764039208984,-2.75476843017578,-3.53532605541993,4.79617713712921,15.096229,
1.633420140625,-2.79307565673828,-3.51138403881836,4.77484563605272,15.09915,
1.60947812402344,-2.86729590820313,-3.49701882885743,4.8000985767265,15.102138,
1.59032451074219,-2.85293069824219,-3.43237538403321,4.73809522860792,15.105059,
1.54004627587891,-2.87208431152344,-3.31984790600586,4.65209640305949,15.107955,
1.54483467919922,-2.90320893310547,-3.26956967114258,4.63737233029389,15.110941,
1.52089266259766,-2.86969010986328,-3.23605084790039,4.58478580829981,15.113854,
1.48258543603516,-2.83138288330078,-3.23605084790039,4.54827590381114,15.116838,
1.480191234375,-2.82898868164063,-3.13549437817383,4.47498246328754,15.119756,
1.48737383935547,-2.88166111816406,-3.09000454663086,4.47932805632017,15.122749,
1.52807526757813,-2.81462347167969,-3.03254370678711,4.41060547366099,15.125756,
1.53286367089844,-2.78349885009766,-2.96790026196289,4.34809945229115,15.128778,
1.54244047753906,-2.74758582519531,-2.84340177563477,4.24420595061645,15.131868,
1.54483467919922,-2.72124960693359,-2.73326849926758,4.15481290774702,15.134879,
1.58553610742188,-2.71646120361328,-2.69496127270508,4.14196843059611,15.137868,
1.56638249414063,-2.64463515380859,-2.61595261791993,4.03619341879357,15.140813,
1.5184984609375,-2.57041490234375,-2.63750043286133,3.98362634786498,15.143726,
1.52328686425781,-2.51534826416016,-2.58482799633789,3.91519035699238,15.14677,
1.47779703271484,-2.49858885253906,-2.51060774487305,3.83796581180054,15.149703,
1.47779703271484,-2.42436860107422,-2.35737883862305,3.69034987129447,15.152718,
1.46343182275391,-2.40042658447266,-2.34540783032227,3.66123181153951,15.155658,
1.4418840078125,-2.33099473632813,-2.26639917553711,3.55656170699317,15.158582,
1.44906661279297,-2.31902372802734,-2.19936152905274,3.50925294542048,15.161601,
1.38681736962891,-2.35493675292969,-2.04134421948243,3.4111692642579,15.164552,
1.41075938623047,-2.33578313964844,-1.90248052319336,3.32649320793435,15.167586,
1.34851014306641,-2.34057154296875,-1.81628926342774,3.25509776230315,15.170537,
1.36048115136719,-2.36211935791016,-1.72052119702149,3.22346242628009,15.173448,
1.30780871484375,-2.39084977783203,-1.61757052563477,3.16907884095412,15.176486,
1.24555947167969,-2.40042658447266,-1.52419666088868,3.10429406564491,15.179437,
1.173733421875,-2.44352221435547,-1.37096775463868,3.03776291733474,15.182457,
1.14021459863281,-2.49619465087891,-1.26801708325196,3.02306870405399,15.185404,
1.08035955712891,-2.52013666748047,-1.14112439526368,2.96992095533286,15.188342,
0.994168297363281,-2.56802070068359,-1.02141431225586,2.9370713508362,15.191351,
0.927130650878906,-2.59675112060547,-0.937617254150394,2.91235535974672,15.194312,
0.876852416015625,-2.69730759033203,-0.841849187744144,2.95855512898454,15.197332,
0.759536534667969,-2.68773078369141,-0.741292718017581,2.88968984613985,15.200282,
0.704469896484375,-2.71406700195313,-0.707773894775393,2.89195114278735,15.203202,
0.678133678222656,-2.70688439697266,-0.667072466552737,2.86915912764464,15.20621,
0.630249645019531,-2.742797421875,-0.643130449951174,2.88682681990898,15.209147,
0.558423595214844,-2.71167280029297,-0.571304400146488,2.82690555292676,15.21215,
0.500962755371094,-2.71885540527344,-0.549756585205081,2.81875339468176,15.21509,
0.546452586914063,-2.78349885009766,-0.451594317138674,2.87235333925198,15.21809,
0.548846788574219,-2.75716263183594,-0.382162468994144,2.83711591734078,15.22104,
0.539269981933594,-2.73322061523438,-0.240904571044926,2.79630864843407,15.223963,
0.5225105703125,-2.66618296875,-0.147530706298831,2.72090320082172,15.226955,
0.546452586914063,-2.58478011230469,-0.0445800349121122,2.6422880308974,15.229887,
0.548846788574219,-2.47225263427734,0.0176692082519505,2.53250431113942,15.232883,
0.493780150390625,-2.42197439941406,0.0679474431152318,2.47273041057103,15.23583,
0.529693175292969,-2.26874549316406,0.0823126530761691,2.33121349205958,15.238747,
0.488991747070312,-2.15142961181641,0.101466266357418,2.20863254221065,15.241761,
0.5225105703125,-2.04847894042969,0.139773492919918,2.1186835287025,15.244681,
0.496174352050781,-1.91919205078125,0.111043072998044,1.98540113817732,15.247709,
0.517722166992188,-1.78751095947266,0.0990720646972623,1.8636112648386,15.25065,
0.520116368652344,-1.64146465820313,0.0703416447753877,1.723332587767,15.253581,
0.565606200195313,-1.53372558349609,0.0200634099121064,1.63481713949515,15.256589,
0.594336620117188,-1.4020444921875,-0.0182438166503935,1.52292403386761,15.259535,
0.654191661621094,-1.22487356933594,-0.0469742365722681,1.3894202279706,15.262564,
0.778690147949219,-1.09798088134766,-0.121194488037112,1.35152079756426,15.265602,
0.783478551269531,-1.05488525146484,-0.161895916259768,1.32394555090421,15.268626,
0.891217625976562,-0.956722983398438,-0.240904571044926,1.32951973891494,15.271747,
0.998956700683594,-0.925598361816406,-0.363008855712893,1.40940492640116,15.274726,
1.08754216210938,-0.829830295410156,-0.389345073974612,1.42230652820492,15.277747,
1.20964644677734,-0.932780966796875,-0.439623308837893,1.58952619100572,15.28068,
1.27189568994141,-0.987847604980469,-0.341461040771488,1.64625550238167,15.283609,
1.39399997460938,-1.06925046142578,-0.427652300537112,1.80815346932302,15.286638,
1.51131585595703,-1.18656634277344,-0.382162468994144,1.95909761241689,15.289593,
1.65496795556641,-1.30627642578125,-0.463565325439456,2.15874265382729,15.292589,
1.68369837548828,-1.30867062744141,-0.403710283935549,2.17035504563311,15.295544,
1.74115921533203,-1.48105314697266,-0.315124822509768,2.30747860034607,15.298451,
1.83213887841797,-1.5552733984375,-0.2696349909668,2.41832819155127,15.301483,
1.78425484521484,-1.64864726318359,-0.137953899658205,2.43323538308695,15.304436,
1.82735047509766,-1.75159793457031,0.0679474431152318,2.53217731177272,15.307485,
1.81059106347656,-1.84736600097656,0.312156012451169,2.60546397342484,15.310422,
1.66933316552734,-2.00777751220703,0.714381891357419,2.70706210544812,15.313396,
1.56159409082031,-2.09396877197266,0.805361554443357,2.73347554513608,15.316328,
1.35569274804688,-2.29029330810547,1.08308894702148,2.87340006463069,15.319261,
1.10908997705078,-2.49140624755859,1.34166272631836,3.03928355682067,15.322257,
0.872064012695312,-2.75955683349609,1.4541902043457,3.23887614921414,15.325205,
0.54166418359375,-3.01813061279297,1.69839877368164,3.50529183922104,15.328212,
0.280696202636719,-3.29106960205078,1.66487995043945,3.69888560692172,15.331162,
-0.0209732065429687,-3.54485497802734,1.77501322680664,3.96448087975922,15.334069,
-0.274758582519531,-3.80821716064453,1.81332045336914,4.2268358482324,15.337091,
-0.566851185058594,-3.98059968017578,1.89232910815429,4.44380507373871,15.340039,
-0.7799351328125,-4.11706917480469,1.93063633471679,4.61366601071761,15.343013,
-1.00499008886719,-4.32297051757813,2.04316381274414,4.88595922417268,15.345927,
-1.10794076025391,-4.40916177734375,2.1054130559082,5.01009026296032,15.348828,
-1.23243924658203,-4.44507480224609,2.22512313891601,5.12140307703058,15.351816,
-1.19413202001953,-4.58393849853516,2.39271725512695,5.30693313530243,15.354738,
-1.23243924658203,-4.55520807861328,2.57228237963867,5.37451986474875,15.357719,
-1.09836395361328,-4.48817043212891,2.72551128588867,5.36455859991665,15.360646,
-0.906827820800781,-4.36846034912109,2.84761557055664,5.2928911717603,15.363548,
-0.655436646484375,-4.22720245117188,3.0247864934082,5.23910021773328,15.366522,
-0.420804883789063,-4.00454169677734,3.18519800463867,5.13409361817675,15.369435,
-0.269970179199219,-3.85849539550781,3.33603270922851,5.10783563281498,15.372431,
0.00296881005859373,-3.56879699462891,3.38391674243164,4.91804974785886,15.375354,
0.295061412597656,-3.25515657714844,3.48926161547851,4.78100953776591,15.378264,
0.520116368652344,-2.93193935302734,3.55629926196289,4.63832446551643,15.381256,
0.747565526367187,-2.54407868408203,3.59700069018554,4.46873634624023,15.384201,
0.934313255859375,-2.26395708984375,3.54432825366211,4.3082137521757,15.387205,
1.12584938867188,-1.88806742919922,3.58981808520508,4.20940961989223,15.390145,
1.25274207666016,-1.66780087646484,3.62812531176758,4.18499889510861,15.393046,
1.48737383935547,-1.52654297851563,3.62094270678711,4.20164735420396,15.39603,
1.51371005761719,-1.12431709960938,3.57066447192383,4.03795144226185,15.398934,
1.62384333398438,-0.937569370117188,3.47968480883789,3.95273447956786,15.401998,
1.77946644189453,-0.772369455566406,3.44377178393554,3.95254595084628,15.405007,
1.88481131494141,-0.686178195800781,3.43419497729492,3.97706541955261,15.408082,
1.92072433984375,-0.511401474609375,3.26420665942383,3.82174810437942,15.411069,
1.89438812158203,-0.432392819824219,3.18998640795898,3.73519520089509,15.41399,
1.80580266015625,-0.367749375,3.04872851000976,3.56243012254088,15.41696,
1.76510123193359,-0.441969626464844,2.83564456225586,3.36924317809537,15.419895,
1.67890997216797,-0.516189877929688,2.71354027758789,3.23241264736015,15.422877,
1.46343182275391,-0.57843912109375,2.48369691821289,2.94023381692693,15.425811,
1.23598266503906,-0.738850632324219,2.28497818041992,2.70086628513114,15.42873,
1.03247552392578,-0.983059201660156,2.09583624926758,2.53474667081713,15.431721,
0.788266954589844,-1.19135474609375,1.91866532641601,2.39206345181927,15.43465,
0.565606200195313,-1.50260096191406,1.67206255541992,2.3180839531134,15.437658,
0.342945445800781,-1.69413709472656,1.51883364916992,2.30099277017006,15.440583,
0.204081749511719,-1.91679784912109,1.47094961596679,2.42475898340266,15.443522,
0.0843716665039063,-2.11072818359375,1.34166272631836,2.50246896370717,15.44652,
-0.145471692871094,-2.38845557617188,1.29138449145507,2.71910940521782,15.449437,
-0.325036817382813,-2.66618296875,1.11181936694336,2.90694390386489,15.452437,
-0.4734773203125,-2.95827557128906,0.996897687255856,3.1574325214313,15.455358,
-0.698532276367188,-3.24557977050781,0.889158612548826,3.43690826559657,15.458225,
-0.827819166015625,-3.52330716308594,0.786207941162106,3.70366046821544,15.461199,
-0.959500257324219,-3.76990993408203,0.800573151123045,3.97162171224737,15.464114,
-1.08399874365234,-4.08115614990234,0.676074664794919,4.27644311882003,15.467059,
-1.17258420507813,-4.32775892089844,0.659315253173824,4.53201363617569,15.46996,
-1.25159285986328,-4.5432370703125,0.582700800048825,4.74837108767838,15.472856,
-1.277929078125,-4.71322538818359,0.465384918701169,4.90552539602949,15.475824,
-1.31144790136719,-4.96222236083984,0.422289288818357,5.14993928118284,15.478726,
-1.26116966650391,-5.04362521728516,0.345674835693357,5.21039301321656,15.481692,
-1.36651453955078,-5.06517303222656,0.20920534106445,5.25043871575784,15.484597,
-1.3928507578125,-5.11305706542969,0.24751256762695,5.30515299110333,15.487468,
-1.25638126318359,-5.18009471191406,0.17089811450195,5.33301802626047,15.490427,
-1.26595806982422,-5.10348025878906,0.103860468017576,5.25917746260949,15.493324,
-1.21089143164063,-5.02926000732422,0.0918894597167945,5.17379531420586,15.496298,
-1.17497840673828,-4.94546294921875,0.084706854736325,5.08383253949577,15.499209,
-1.13427697851563,-4.86166589111328,0.0751300480956996,4.99279721448125,15.502171,
-1.04090311376953,-4.73956160644531,0.0344286198730437,4.85263936877777,15.505072,
-0.959500257324219,-4.58633270019531,0.00330399829101324,4.68562688410961,15.507963,
-0.8948568125,-4.37564295410156,0.048793829833981,4.46647521144875,15.510926,
-0.789511939453125,-4.20086623291016,-0.0517626398925817,4.27472637489611,15.51382,
-0.727262696289063,-3.99257068847656,-0.0589452448730494,4.05869514422912,15.516782,
-0.638677234863281,-3.83455337890625,-0.0924640681152376,3.88847757225194,15.519688,
-0.617129419921875,-3.69090127929688,-0.133165496337893,3.74450718037278,15.522576,
-0.504601941894531,-3.46345212158203,-0.212174151123049,3.50644286830109,15.525568,
-0.485448328613281,-3.25515657714844,-0.226539361083987,3.29894293730984,15.528485,
-0.468688916992188,-3.06362044433594,-0.264846587646486,3.11055995647929,15.531472,
-0.427987488769531,-2.92236254638672,-0.358220452392581,2.97518033664843,15.534391,
-0.363344043945313,-2.69970179199219,-0.4611711237793,2.76280427561639,15.537298,
-0.341796229003906,-2.53689607910156,-0.532997173583988,2.61471841033995,15.540364,
-0.2819411875,-2.38127297119141,-0.695802886474613,2.49681666394673,15.543365,
-0.190961524414063,-2.24001507324219,-0.789176751220706,2.38263169139211,15.546435,
-0.183778919433594,-2.13706440185547,-0.954376665771488,2.34769115708927,15.54938,
-0.0927992563476563,-2.04608473876953,-1.08605775708008,2.31831747435895,15.552257,
-0.0688572397460938,-1.95989347900391,-1.22252725170899,2.31095145982745,15.555237,
-0.00900219824218751,-1.87849062255859,-1.33266052807618,2.30321343815679,15.558164,
0.0125456166992187,-1.77553995117188,-1.4188517878418,2.27284841258005,15.561177,
0.0771890615234375,-1.77075154785156,-1.50983145092774,2.32832777023514,15.564112,
0.137044103027344,-1.74441532958984,-1.61996472729492,2.3845443266927,15.567024,
0.15859191796875,-1.76835734619141,-1.74446321362305,2.48905423885422,15.57004,
0.223235362792969,-1.74202112792969,-1.85938489331055,2.55769111090964,15.572961,
0.225629564453125,-1.73483852294922,-1.93599934643555,2.60934222946374,15.575987,
0.271119395996094,-1.72526171630859,-2.06768043774414,2.70653581341078,15.578927,
0.304638219238281,-1.78032835449219,-2.10598766430664,2.77444724884819,15.581865,
0.342945445800781,-1.78751095947266,-2.12992968090821,2.80167939897557,15.584858,
0.371675865722656,-1.81863558105469,-2.25921657055664,2.92397637447989,15.587784,
0.42674250390625,-1.83778919433594,-2.24245715893555,2.93056178865408,15.590781,
0.498568553710937,-1.89764423583984,-2.28315858715821,3.01038824450931,15.593705,
0.591942418457031,-1.85694280761719,-2.23766875561524,2.96745579198522,15.596688,
0.5991250234375,-1.93595146240234,-2.21851514233399,3.00477425029767,15.599623,
0.651797459960938,-1.92876885742188,-2.34061942700196,3.10217480749086,15.602548,
0.647009056640625,-2.03890213378906,-2.32386001538086,3.15849141230913,15.605536,
0.635038048339844,-2.09396877197266,-2.48427152661133,3.31052617551466,15.608479,
0.615884435058594,-2.17776583007813,-2.55609757641602,3.41403170286439,15.611493,
0.608701830078125,-2.14664120849609,-2.65904824780274,3.47118480926856,15.614435,
0.568000401855469,-2.15382381347656,-2.66383665112305,3.47240654012072,15.617351,
0.560817796875,-2.18494843505859,-2.78354673413086,3.58282691268324,15.620358,
0.493780150390625,-2.19452524169922,-2.7979119440918,3.58999597775072,15.623299,
0.5225105703125,-2.21607305664063,-2.87692059887696,3.66887846905555,15.626304,
0.48420334375,-2.21846725830078,-2.9128336237793,3.69332500249714,15.629241,
0.558423595214844,-2.18734263671875,-2.88889160717774,3.66633324182655,15.632162,
0.625461241699219,-2.20410204833984,-2.83143076733399,3.64228881262447,15.635183,
0.673345274902344,-2.17776583007813,-2.83861337231446,3.64057464521353,15.638138,
0.711652501464844,-2.17058322509766,-2.85058438061524,3.65290461563453,15.641149,
0.745171324707031,-2.17776583007813,-2.88889160717774,3.69372969122586,15.644097,
0.783478551269531,-2.18016003173828,-2.86016118725586,3.68068722134513,15.647019,
0.838545189453125,-2.22564986328125,-2.84579597729492,3.70880440210411,15.650027,
0.939101659179688,-2.21367885498047,-2.86734379223633,3.7421847124558,15.652967,
0.9821972890625,-2.24719767822266,-2.84340177563477,3.75493576207822,15.655971,
1.00613930566406,-2.27353389648438,-2.86494959057617,3.7933110652052,15.6589,
1.00374510400391,-2.28789910644531,-2.82424816235352,3.7707246303121,15.661813,
1.05641754052734,-2.283110703125,-2.85776698559571,3.80728835874281,15.664806,
1.08514796044922,-2.28550490478516,-2.79072933911133,3.76686195792212,15.667735,
