X,Y,Z,Magnitude,Seconds,
0.00282515795898436,0.0210210905761718,0.0148440502929681,0.0258884838413724,0.0,
0.0171903679199219,0.0282036955566406,-0.0258573779296878,0.0419471236877173,0.00381999999996196,
0.000430956298828111,0.0473573088378906,0.0579396801757799,0.0748325261004231,0.00756599999999708,
0.0387381828613281,0.0545399138183594,-0.00670376464843869,0.067232354347988,0.011289999999974,
-0.0163284553222656,0.0569341154785156,0.0124498486328122,0.0605236374444903,0.0150429999999915,
-0.0426646735839844,0.0377805021972656,0.000478840332030828,0.0569900869131563,0.0187719999999558,
0.00761356127929686,0.0042616789550781,-0.00430956298828278,0.00973142106887482,0.0225579999999468,
0.00521935961914061,0.0377805021972656,0.0316034619140613,0.0495316753811642,0.0262929999999528,
-0.0354820686035156,0.0305978972167968,-0.00909796630859461,0.0477282044228209,0.029988000000003,
0.0243729729003906,0.0234152922363281,-0.0282515795898455,0.0440507601278025,0.0336909999999762,
-0.0139342536621094,0.0401747038574219,-0.0402225878906251,0.0585322717120275,0.0373949999999468,
-0.00196324536132814,0.0305978972167968,0.0244208569335935,0.0391977537597435,0.0411169999999856,
-0.0211168586425781,0.0042616789550781,0.0148440502929681,0.0261616026945397,0.0448669999999538,
-0.0211168586425781,0.0377805021972656,0.0124498486328122,0.0450365051506903,0.0485860000000002,
0.0219787712402344,0.0856645354003906,-0.01867477294922,0.0903893033234588,0.0525269999999978,
-0.00675164868164064,0.0617225187988281,-0.00430956298828278,0.0622400708542493,0.0564169999999535,
0.0243729729003906,0.0353863005371094,-0.00909796630859461,0.043920440169221,0.0602129999999761,
0.0147961662597656,0.0497515104980469,0.00287304199218674,0.0519845525431619,0.0640339999999924,
0.00282515795898436,0.0473573088378906,0.132159931640624,0.140417035110114,0.0678739999999607,
-0.0282994636230469,0.0449631071777343,0.0124498486328122,0.054566834060705,0.0717039999999542,
0.0459207878417969,-0.00292092602539065,0.0196324536132799,0.0500268307984297,0.0755059999999617,
-0.00196324536132814,0.00186747729492185,-0.0378283862304691,0.037925303012598,0.0792339999999854,
0.0339497795410156,0.0401747038574219,0.0435744702148426,0.0683032123360191,0.0829880000000003,
0.0124019645996094,0.0497515104980469,0.0339976635742172,0.0615212374003716,0.0867629999999622,
0.000430956298828111,0.0329920988769531,-0.0665588061523454,0.0742882156742484,0.0905099999999948,
-0.00675164868164064,0.0377805021972656,0.017238251953124,0.0420726566382166,0.094353999999953,
0.0100077629394531,0.0329920988769531,0.00766144531249857,0.0353175827547037,0.0980879999999615,
0.0100077629394531,0.0449631071777343,0.0459686718749985,0.0650765327908609,0.101806999999951,
0.0195845695800781,0.0234152922363281,0.0124498486328122,0.0329671049249021,0.10552899999999,
0.0100077629394531,0.0497515104980469,0.00766144531249857,0.0513231513078256,0.109249999999975,
-0.00914585034179689,0.0449631071777343,0.0363918652343749,0.0585636016719248,0.112942999999973,
0.0147961662597656,0.0617225187988281,0.0794874951171867,0.101719505223252,0.116715999999997,
-0.0282994636230469,0.0282036955566406,-0.0330399829101573,0.051845429452434,0.120489999999961,
-0.00914585034179689,0.0353863005371094,0.0292092602539054,0.0467869397242174,0.12450199999995,
0.0195845695800781,0.0401747038574219,-0.01867477294922,0.0484387173692016,0.128284999999948,
-0.0474530769042969,0.0712993254394531,0.0363918652343749,0.09305781090829,0.132114000000001,
0.0100077629394531,0.0162326872558594,-0.0234631762695319,0.0302353451320463,0.135943999999995,
0.0171903679199219,0.0449631071777343,-0.0402225878906251,0.0627299476559463,0.139879999999948,
-0.00675164868164064,0.0305978972167968,-0.0234631762695319,0.0391450726741577,0.143755999999996,
0.0554975944824219,0.0641167204589844,-0.01867477294922,0.0868313536716767,0.14759399999997,
0.000430956298828111,0.0449631071777343,0.0435744702148426,0.0626147042228272,0.151424999999961,
0.0435265861816406,0.0377805021972656,0.0770932934570308,0.0962564592479759,0.155214000000001,
0.0339497795410156,0.0497515104980469,0.0363918652343749,0.07037164331574,0.158999999999992,
-0.0139342536621094,0.0545399138183594,-0.0809240161132827,0.0985771880727834,0.162730999999951,
0.000430956298828111,0.0162326872558594,0.017238251953124,0.0236821280563513,0.166617999999971,
-0.0306936652832031,0.0449631071777343,-0.0497993945312505,0.0737818527232332,0.17035599999997,
-0.00914585034179689,0.0521457121582031,-0.021068974609376,0.0569800277821207,0.174088999999981,
0.0243729729003906,0.0521457121582031,-0.0282515795898455,0.0641199567514726,0.177831999999967,
-0.00435744702148439,0.0593283171386719,-0.0138863696289064,0.061087378569738,0.181539999999984,
0.0147961662597656,0.0186268889160156,-0.00191536132812509,0.0238653752472801,0.185277999999983,
0.0387381828613281,0.0401747038574219,0.0244208569335935,0.0609182394263022,0.189068999999961,
-0.00914585034179689,0.0545399138183594,0.0507570751953121,0.0750635028503945,0.192942999999957,
0.0291613762207031,0.0377805021972656,-0.0114921679687505,0.0490899392338691,0.196866,
-0.0282994636230469,0.0449631071777343,0.0316034619140613,0.0618168217670732,0.200617999999963,
0.00521935961914061,0.0569341154785156,0.017238251953124,0.0597150948299862,0.204372999999975,
-0.00196324536132814,0.0952413420410156,0.0196324536132799,0.0972635635836981,0.208100999999999,
-0.0139342536621094,0.0449631071777343,0.0196324536132799,0.0510027221535677,0.211883,
-0.00435744702148439,0.0473573088378906,0.0387860668945308,0.0613682412169309,0.215801999999996,
0.00282515795898436,-0.00770932934570315,0.0411802685546867,0.0419908298880821,0.21955399999996,
0.0291613762207031,0.0234152922363281,-0.0761356127929691,0.0848250747654192,0.223292999999956,
0.00282515795898436,0.0760877287597656,-0.0258573779296878,0.0804109941407988,0.227073999999959,
0.0267671745605469,0.0521457121582031,0.0459686718749985,0.0744901048756963,0.230822999999987,
0.000430956298828111,0.0282036955566406,0.017238251953124,0.0330573970055501,0.234561999999983,
0.000430956298828111,0.0521457121582031,0.00287304199218674,0.0522265774305242,0.238378999999952,
0.00761356127929686,0.0593283171386719,0.0986411083984358,0.115359801473184,0.242139999999949,
0.00521935961914061,0.0569341154785156,0.00766144531249857,0.0576839055927325,0.245857999999998,
-0.00435744702148439,0.0521457121582031,-0.0426167895507827,0.0674859495943187,0.249543999999958,
-0.0163284553222656,0.0569341154785156,-0.01867477294922,0.0621036158628231,0.253233999999964,
0.0243729729003906,0.0282036955566406,0.0196324536132799,0.042129840801176,0.256934999999999,
-0.0211168586425781,0.0377805021972656,0.000478840332030828,0.0432841466737164,0.260733999999957,
0.0339497795410156,0.0282036955566406,0.0220266552734358,0.0493275735919578,0.264738999999963,
-0.0115400520019531,0.102423947021484,0.0603338818359358,0.119432051900067,0.268579999999986,
0.00521935961914061,0.0521457121582031,-0.00670376464843869,0.0528332988917193,0.272372999999959,
0.00521935961914061,0.0090500822753906,0.0459686718749985,0.0471409004790589,0.27619199999998,
-0.00196324536132814,-0.0148919343261719,0.00766144531249857,0.0168618440450681,0.279922999999997,
0.0507091911621094,0.0305978972167968,0.0124498486328122,0.0605198489207049,0.283744999999954,
0.0387381828613281,0.0617225187988281,0.00287304199218674,0.072928530141216,0.287634999999966,
0.0339497795410156,0.0377805021972656,-0.0497993945312505,0.071133210055784,0.291404,
0.000430956298828111,0.188615206787109,-0.17190367919922,0.255199445291137,0.295165999999995,
-0.0570298835449219,0.791954025146484,-0.00909796630859461,0.794056898813818,0.298978999999974,
-0.0953371101074219,-0.907929153564453,0.699585725097656,1.1501498594602,0.302526999999998,
0.692355236083984,-2.19600964672852,-0.272460148925783,2.31863077574034,0.305478999999991,
-0.0570298835449219,1.2181219206543,0.484107575683593,1.31203413295154,0.30842899999999,
-0.981191724365235,1.7759709074707,-3.36816289550781,3.93208992201612,0.311425999999983,
0.0866222160644531,0.509438229248047,2.191173359375,2.25128216991341,0.31439499999999,
0.345195995361328,-1.22875217602539,2.83042520263672,3.10488309168344,0.317421999999965,
0.469694481689453,-0.876804531982422,-1.84066223632813,2.09223243490748,0.320357000000001,
-0.349122486083984,0.736887386962891,-3.12634852783203,3.23093556865995,0.323284000000001,
-0.0450588752441407,0.222134030029297,2.16962554443359,2.18143274766702,0.326302999999996,
0.124929442626953,-0.433877224853516,1.96611840332031,2.01729481924593,0.329245999999955,
0.0914106193847656,0.128760165283203,-1.76404778320313,1.77110125710642,0.332281999999964,
-0.327574671142578,0.734493185302734,-0.938048210449219,1.23560505403519,0.335221999999987,
-0.119279126708984,0.171855795166016,1.36996218994141,1.38584210004952,0.338146999999992,
0.330830785400391,-0.292619326904297,0.462559760742186,0.639559701126042,0.341147999999976,
0.254216332275391,-0.168120840576172,-0.679474431152345,0.744698639196684,0.344083999999953,
-0.131250135009766,0.198192013427734,-0.463996281738282,0.521343669371339,0.34709799999996,
-0.0761834968261719,0.0090500822753906,0.38355110595703,0.391148667463812,0.350058999999987,
0.117746837646484,-0.304590335205078,0.0675164868164053,0.333463740259896,0.352987999999982,
0.0267671745605469,-0.0484107575683594,-0.277248552246094,0.282713358023374,0.356038999999953,
-0.169557361572266,0.277200668212891,0.0842758984374985,0.335696792326749,0.359079999999949,
0.0100077629394531,0.0832703337402343,0.017238251953124,0.08562278394599,0.362215999999989,
0.156054064208984,0.00186747729492185,0.0244208569335935,0.157964352563988,0.365253999999993,
-0.0163284553222656,0.176644198486328,0.101035310058593,0.204151721008481,0.368290000000002,
-0.0259052619628906,0.123971761962891,-0.107260234375001,0.165966376834978,0.371229999999969,
0.0602859978027344,-0.0508049592285157,-0.109654436035157,0.135054214134439,0.37417099999999,
0.0578917961425781,-0.163332437255859,0.0507570751953121,0.180569171795563,0.377179999999953,
-0.0378762702636719,0.0210210905761718,0.0363918652343749,0.0565761959956238,0.380180999999993,
-0.0282994636230469,0.119183358642578,-0.138384855957032,0.184813151525875,0.383166999999958,
0.0387381828613281,0.0928471403808594,-0.0521935961914064,0.11333759205,0.386148999999989,
0.0315555778808594,0.102423947021484,0.163284553222656,0.195315807706333,0.389098999999987,
-0.0522414802246094,0.109606552001953,0.0244208569335935,0.123851309041068,0.392117999999982,
0.00521935961914061,0.133548568603516,-0.0809240161132827,0.156240706202912,0.395101999999952,
0.0339497795410156,-0.0101035310058594,0.0124498486328122,0.0375455403563441,0.398145,
-0.0354820686035156,0.0138384855957031,0.0842758984374985,0.0924819330108029,0.40111399999995,
-0.0378762702636719,0.00665588061523435,-0.0474051928710946,0.0610423206226356,0.404038999999955,
0.0291613762207031,0.00186747729492185,-0.0785298144531268,0.0837902446146027,0.407074999999963,
0.0147961662597656,0.0545399138183594,0.0459686718749985,0.0728467400042855,0.410037999999986,
-0.00435744702148439,0.116789156982422,0.0244208569335935,0.119394609537369,0.413050999999996,
0.000430956298828111,0.0856645354003906,-0.0306457812500014,0.0909822084647279,0.416003999999987,
0.0339497795410156,0.0736935270996094,-0.0497993945312505,0.0952013821482838,0.418947000000003,
0.0483149895019531,0.0114442839355468,0.017238251953124,0.0525591778452692,0.421987999999999,
0.000430956298828111,-0.000526724365234398,-0.0641646044921877,0.0641682135603549,0.424909999999954,
0.0195845695800781,0.0138384855957031,-0.0306457812500014,0.0389130178429062,0.427949999999953,
-0.00196324536132814,0.0258094938964844,0.0435744702148426,0.0506825291599151,0.430898999999954,
-0.00196324536132814,0.0090500822753906,0.0699106884765612,0.0705213633220949,0.433824999999956,
-0.0187226569824219,0.0090500822753906,0.017238251953124,0.0270110940924679,0.43685099999999,
0.0100077629394531,0.0234152922363281,0.0459686718749985,0.0525504521723288,0.439797999999996,
0.0531033928222656,0.0377805021972656,0.0483628735351562,0.0811560485243765,0.442823999999973,
0.0507091911621094,-0.0316513459472656,-0.0641646044921877,0.0876945051769364,0.445750999999973,
0.0291613762207031,-0.0053151276855469,-0.0354341845703132,0.0461975960582591,0.448666000000003,
0.00761356127929686,0.0401747038574219,0.0483628735351562,0.0633319878257636,0.451698999999962,
-0.0235110603027344,0.0976355437011719,0.00526724365234266,0.100564472882203,0.454641999999978,
-0.0546356818847657,0.162278988525391,-0.0545877978515641,0.179720214572875,0.457708999999966,
-0.0163284553222656,0.0856645354003906,0.0220266552734358,0.0899455647662005,0.460673999999983,
0.0124019645996094,0.0784819304199219,0.0411802685546867,0.0894932212326919,0.463694999999973,
0.0674686027832031,0.00665588061523435,-0.00430956298828278,0.0679329481285177,0.466658999999993,
-0.00675164868164064,-0.0531991608886719,-0.0521935961914064,0.0748325261004243,0.469589999999982,
0.0195845695800781,-0.0555933625488282,0.017238251953124,0.0614111932429403,0.472626999999989,
-0.0139342536621094,-0.000526724365234398,0.0483628735351562,0.0503329752771923,0.475545999999952,
-0.0211168586425781,0.0186268889160156,0.00526724365234266,0.0286465803423961,0.478554999999972,
0.00521935961914061,0.0856645354003906,0.0100556469726545,0.0864104760792194,0.481527999999969,
0.00521935961914061,0.114394955322266,0.0387860668945308,0.120904121117372,0.484465,
0.0171903679199219,0.0832703337402343,0.0603338818359358,0.10425753942917,0.487509999999986,
0.0411323845214844,0.0449631071777343,-0.0114921679687505,0.0620130952954426,0.490455999999995,
0.0554975944824219,0.0473573088378906,0.0196324536132799,0.0755521735529844,0.493501999999978,
0.0483149895019531,-0.0316513459472656,0.017238251953124,0.0602768881184713,0.496493999999984,
0.00761356127929686,0.0186268889160156,0.000478840332030828,0.0201285020333549,0.499536999999975,
-0.0378762702636719,0.0353863005371094,0.00287304199218674,0.0519139334387042,0.50264599999997,
0.00521935961914061,0.0425689055175781,0.0435744702148426,0.0611399042058672,0.505688999999961,
0.0124019645996094,0.116789156982422,-0.0162805712890641,0.118568853060545,0.50871699999999,
-0.00914585034179689,0.0736935270996094,0.0363918652343749,0.0826967373606257,0.511680999999953,
0.0219787712402344,0.0617225187988281,0.017238251953124,0.0677487493796131,0.514623999999969,
0.0195845695800781,0.0521457121582031,0.0244208569335935,0.060820300192404,0.517671999999948,
0.0171903679199219,0.0114442839355468,-0.0114921679687505,0.0236336689627673,0.520632999999975,
0.0100077629394531,0.0282036955566406,0.0363918652343749,0.0471165747624004,0.523664999999994,
-0.0139342536621094,0.0234152922363281,0.0124498486328122,0.0299572706802972,0.526612999999998,
-0.00435744702148439,0.0282036955566406,0.0363918652343749,0.0462472014594788,0.529557999999952,
0.0195845695800781,0.0617225187988281,-0.01867477294922,0.0673941528414263,0.532611999999972,
-0.00435744702148439,0.0473573088378906,0.00287304199218674,0.0476440596003454,0.535567999999955,
-0.00675164868164064,0.0760877287597656,0.0316034619140613,0.0826662327234856,0.538614999999993,
0.0195845695800781,0.0497515104980469,0.017238251953124,0.0561776244858535,0.541606000000002,
-0.00435744702148439,0.0234152922363281,-0.0306457812500014,0.0388127190941401,0.54452299999997,
0.0363439812011719,0.0162326872558594,-0.0426167895507827,0.0583144566699663,0.547562999999968,
0.0124019645996094,0.0186268889160156,0.000478840332030828,0.0223830070518491,0.550524999999993,
0.00282515795898436,0.0401747038574219,-0.0330399829101573,0.0520925025145485,0.553553999999963,
0.0195845695800781,0.0138384855957031,-0.0306457812500014,0.0389130178429062,0.556511999999998,
0.0219787712402344,0.0377805021972656,0.0411802685546867,0.0600520378483883,0.55953999999997,
-0.00435744702148439,0.0641167204589844,0.0459686718749985,0.0790130367781917,0.562484999999981,
-0.0235110603027344,0.0473573088378906,-0.00670376464843869,0.0532956388214629,0.565399999999954,
0.0387381828613281,0.0641167204589844,0.115400520019531,0.137582268750705,0.568450999999982,
0.0291613762207031,0.0353863005371094,0.0507570751953121,0.0684021696378893,0.571418999999992,
0.0171903679199219,0.0665109221191406,0.0746990917968748,0.101484805885603,0.574435999999992,
0.0219787712402344,0.0186268889160156,0.0268150585937494,0.0393582868441495,0.577406999999994,
-0.00914585034179689,0.0114442839355468,0.0411802685546867,0.0437084972460514,0.580324999999959,
0.0291613762207031,0.0712993254394531,-0.00430956298828278,0.077152783516581,0.583372999999995,
-0.0163284553222656,0.0401747038574219,0.0316034619140613,0.053660079092341,0.586328999999978,
-0.0402704719238282,0.0712993254394531,0.0220266552734358,0.0847966877868685,0.589351999999963,
-0.0163284553222656,0.0569341154785156,0.0699106884765612,0.0916275958529905,0.592302999999959,
0.0171903679199219,0.0497515104980469,-0.00430956298828278,0.0528137660010108,0.595253999999954,
-0.0115400520019531,0.0593283171386719,-0.01867477294922,0.0632595380904692,0.598259999999982,
-0.0426646735839844,0.00665588061523435,0.00526724365234266,0.0435007928029517,0.601210999999978,
-0.00675164868164064,0.0162326872558594,0.00287304199218674,0.0178140187985672,0.60422299999999,
0.0100077629394531,0.0425689055175781,-0.0593762011718759,0.0737414422263347,0.607171999999991,
-0.0163284553222656,0.0449631071777343,-0.00430956298828278,0.0480299051991322,0.610089999999957,
0.00282515795898436,0.0521457121582031,0.0339976635742172,0.0623137058959346,0.613129999999956,
0.0243729729003906,0.0425689055175781,0.0411802685546867,0.0640466083661249,0.616073999999969,
-0.0187226569824219,0.00665588061523435,-0.01867477294922,0.0272687692415812,0.619083999999987,
-0.0235110603027344,0.0210210905761718,0.0794874951171867,0.0855156014162048,0.622018999999966,
-0.0187226569824219,0.0521457121582031,0.0268150585937494,0.0615529085287919,0.624946999999963,
0.0363439812011719,0.0329920988769531,-0.00430956298828278,0.0492740894487941,0.62796899999995,
0.00521935961914061,0.0449631071777343,0.0579396801757799,0.0735250247247969,0.630926999999986,
0.0171903679199219,0.0425689055175781,0.017238251953124,0.0490385337931932,0.63394999999997,
0.0554975944824219,0.0138384855957031,0.0842758984374985,0.101852411529455,0.636987999999974,
-0.00196324536132814,0.0665109221191406,0.0770932934570308,0.101837777811277,0.639996999999994,
0.00282515795898436,0.0258094938964844,0.000478840332030828,0.0259680723341078,0.643120999999951,
0.0315555778808594,0.0305978972167968,0.0124498486328122,0.045683525919795,0.646120999999994,
0.00761356127929686,-0.000526724365234398,0.0148440502929681,0.0166910030558594,0.649141999999983,
0.0435265861816406,0.0712993254394531,-0.00909796630859461,0.0840293431112082,0.652095999999972,
-0.00914585034179689,0.0090500822753906,-0.0258573779296878,0.0288817340383951,0.655084999999985,
-0.00435744702148439,0.0258094938964844,0.0316034619140613,0.0410353033946531,0.658067999999957,
0.00521935961914061,0.0497515104980469,-0.0114921679687505,0.0513276186501298,0.660995999999955,
-0.00914585034179689,0.0401747038574219,-0.0162805712890641,0.0443024876277212,0.664018999999996,
0.0147961662597656,0.0545399138183594,-0.0521935961914064,0.0769265898028262,0.666972999999984,
0.00761356127929686,0.0138384855957031,-0.0713472094726573,0.0730745803851882,0.669983000000002,
-0.0211168586425781,0.00665588061523435,-0.0138863696289064,0.0261352965769569,0.672943999999973,
0.00521935961914061,0.0473573088378906,0.00526724365234266,0.0479343329034046,0.675887999999986,
0.0219787712402344,0.0665109221191406,-0.0402225878906251,0.0807751553572508,0.678953999999976,
0.000430956298828111,0.0593283171386719,0.0196324536132799,0.062493745068734,0.681912999999952,
0.0267671745605469,0.0569341154785156,0.00766144531249857,0.0633772268528069,0.684949999999958,
-0.0139342536621094,0.0353863005371094,-0.01867477294922,0.0423686303239502,0.687872999999968,
-0.0282994636230469,0.0593283171386719,0.00526724365234266,0.0659427987846446,0.690801999999962,
0.00521935961914061,0.0521457121582031,0.00526724365234266,0.052670303464222,0.693824999999947,
0.000430956298828111,0.0521457121582031,-0.0282515795898455,0.0593086230588693,0.696766999999966,
0.0531033928222656,0.0353863005371094,-0.0114921679687505,0.0648400379361429,0.699799999999982,
0.0100077629394531,0.0186268889160156,-0.0497993945312505,0.0541026432387644,0.702758999999958,
0.0291613762207031,0.0162326872558594,0.0363918652343749,0.0493786781300272,0.705703999999969,
0.000430956298828111,0.0521457121582031,0.0435744702148426,0.0679565705014745,0.708736999999985,
-0.0115400520019531,0.0521457121582031,0.017238251953124,0.0561204546230101,0.71166999999997,
-0.00914585034179689,0.0258094938964844,-0.0665588061523454,0.0719711833311966,0.714683999999977,
0.00282515795898436,0.0353863005371094,0.017238251953124,0.0394630094340918,0.717634999999973,
0.0171903679199219,0.0449631071777343,0.0244208569335935,0.0539774768738754,0.720577999999989,
0.0267671745605469,-0.000526724365234398,0.0842758984374985,0.0884261620221034,0.723603999999966,
-0.0187226569824219,0.0497515104980469,0.0196324536132799,0.0566673090608358,0.726540999999997,
-0.0139342536621094,0.0425689055175781,0.017238251953124,0.0479940878909464,0.729561999999987,
0.00521935961914061,0.0282036955566406,-0.0162805712890641,0.0329810121036921,0.732528000000002,
-0.0259052619628906,0.0234152922363281,0.0339976635742172,0.0487360199070902,0.73548199999999,
-0.0330878669433594,0.0305978972167968,0.0411802685546867,0.0610479546847168,0.738501999999983,
-0.0259052619628906,0.0186268889160156,0.0746990917968748,0.0812280610585622,0.741450999999984,
0.0267671745605469,0.0329920988769531,0.0244208569335935,0.049003453711269,0.74448799999999,
0.0124019645996094,0.0712993254394531,-0.00670376464843869,0.0726797289105612,0.747433000000001,
-0.0259052619628906,0.0521457121582031,0.0339976635742172,0.0674247656455535,0.750459999999975,
-0.0306936652832031,0.0832703337402343,-0.0378283862304691,0.0964729826144546,0.753402999999992,
-0.00914585034179689,0.0736935270996094,-0.0354341845703132,0.0822797906597873,0.756332999999984,
-0.0187226569824219,0.0282036955566406,-0.00430956298828278,0.0341256305536334,0.759349999999984,
-0.0211168586425781,0.0665109221191406,0.0651222851562494,0.0954491304519893,0.762312999999949,
0.0626801994628906,0.0329920988769531,0.0124498486328122,0.0719185979006428,0.765336999999988,
-0.0330878669433594,0.0377805021972656,0.017238251953124,0.0530973691960198,0.768295999999964,
-0.00196324536132814,0.0473573088378906,0.0866701000976562,0.0987839829307053,0.771233999999993,
-0.0139342536621094,0.0234152922363281,0.0603338818359358,0.0662013340728517,0.774299999999982,
-0.0163284553222656,0.0186268889160156,0.00766144531249857,0.0259283086254622,0.777344999999968,
-0.0139342536621094,0.0449631071777343,0.017238251953124,0.0501298490182827,0.780470999999977,
-0.0354820686035156,0.0521457121582031,0.0148440502929681,0.0647958202199102,0.783516999999961,
-0.0211168586425781,0.0234152922363281,0.00287304199218674,0.0316615223849414,0.786462999999969,
-0.00435744702148439,0.0258094938964844,-0.0282515795898455,0.0385132323891293,0.789490999999998,
0.0147961662597656,0.0353863005371094,0.0363918652343749,0.0528723430247436,0.792457999999954,
-0.00435744702148439,0.0186268889160156,-0.0330399829101573,0.038178381394948,0.795497999999952,
-0.0282994636230469,0.0282036955566406,-0.01867477294922,0.0441027802877409,0.798473999999999,
-0.0139342536621094,0.0353863005371094,-0.00909796630859461,0.0391040494293744,0.801400000000001,
0.0650744011230469,0.0904529387207031,0.0100556469726545,0.111881758302116,0.804457999999954,
-0.0259052619628906,0.0760877287597656,-0.0162805712890641,0.0820090364940593,0.807406999999955,
-0.00675164868164064,0.104818148681641,-0.0258573779296878,0.108171313417031,0.810459999999978,
0.0147961662597656,0.0329920988769531,0.0770932934570308,0.0851515180155065,0.81343499999997,
-0.0330878669433594,0.0449631071777343,0.0411802685546867,0.0693707608735409,0.816411999999957,
0.0195845695800781,0.0689051237792969,0.0316034619140613,0.0782959146675653,0.819487999999978,
0.0147961662597656,0.0641167204589844,-0.021068974609376,0.0690925616075472,0.822454999999991,
0.00521935961914061,0.0689051237792969,-0.00430956298828278,0.0692367686350548,0.825519999999983,
-0.00675164868164064,0.0186268889160156,0.0268150585937494,0.0333405626526623,0.828494999999975,
-0.00914585034179689,0.0928471403808594,0.0220266552734358,0.0958614187142686,0.831445999999971,
0.0435265861816406,0.0665109221191406,0.0124498486328122,0.0804566044321168,0.83448999999996,
-0.00196324536132814,0.0377805021972656,0.0603338818359358,0.0712137485041971,0.837436999999966,
-0.0139342536621094,0.0329920988769531,0.0387860668945308,0.0527920543128763,0.84047099999998,
0.0674686027832031,0.0425689055175781,0.0148440502929681,0.0811447466419256,0.843434999999999,
-0.0115400520019531,0.0329920988769531,0.0435744702148426,0.0558604139173587,0.846449999999948,
0.0411323845214844,0.0665109221191406,0.00287304199218674,0.078254905199933,0.849450999999988,
-0.0474530769042969,0.0377805021972656,0.0387860668945308,0.0719966654721573,0.852399999999989,
0.0100077629394531,0.0497515104980469,0.0244208569335935,0.0563182596433928,0.85545099999996,
0.0267671745605469,0.0569341154785156,-0.00670376464843869,0.0632685988444299,0.858407999999997,
0.0554975944824219,0.0377805021972656,-0.0234631762695319,0.0711187034490088,0.861441999999954,
0.0291613762207031,0.0569341154785156,-0.0234631762695319,0.0681351598593667,0.864418999999998,
0.0124019645996094,0.0425689055175781,-0.01867477294922,0.0481109923780353,0.867379999999969,
0.0219787712402344,0.0497515104980469,0.017238251953124,0.057056432700154,0.870443999999964,
0.0219787712402344,0.0569341154785156,-0.0282515795898455,0.0672511088374971,0.873411999999973,
0.0124019645996094,0.0377805021972656,0.0363918652343749,0.0539030882922719,0.876458999999954,
-0.00435744702148439,0.0856645354003906,-0.0330399829101573,0.0919186620910754,0.87940199999997,
-0.00914585034179689,0.0377805021972656,-0.0138863696289064,0.0412776475374112,0.882354999999961,
0.0267671745605469,0.0353863005371094,0.00526724365234266,0.0446812685065068,0.885403999999994,
0.0124019645996094,0.0665109221191406,-0.0857124194335945,0.109197666331423,0.888368999999955,
-0.0163284553222656,0.0305978972167968,0.0435744702148426,0.0556918685429489,0.891418999999985,
-0.0354820686035156,0.0473573088378906,0.0363918652343749,0.0694698477613766,0.894378999999958,
0.00761356127929686,0.0138384855957031,0.00287304199218674,0.0160537961001428,0.897333000000003,
0.000430956298828111,0.0689051237792969,0.00287304199218674,0.0689663408965605,0.900389999999959,
-0.0259052619628906,0.0760877287597656,-0.01867477294922,0.0825177084624299,0.903328999999985,
-0.00914585034179689,0.0808761320800781,-0.0234631762695319,0.0847060562142041,0.906367999999986,
0.0243729729003906,0.00665588061523435,-0.0258573779296878,0.036151715701556,0.909328999999957,
0.000430956298828111,0.0617225187988281,0.0316034619140613,0.0693443137910868,0.912291999999979,
-0.0211168586425781,0.0473573088378906,-0.021068974609376,0.055969081736156,0.915391999999997,
0.00761356127929686,0.00665588061523435,-0.00430956298828278,0.0109926973608773,0.918448999999953,
0.0124019645996094,0.0641167204589844,0.0435744702148426,0.0785079424189025,0.92159799999996,
-0.0235110603027344,0.0425689055175781,0.0148440502929681,0.0508451325361973,0.92460699999998,
0.0411323845214844,0.0593283171386719,0.017238251953124,0.0742218269872782,0.927577999999983,
0.0100077629394531,0.0234152922363281,-0.0330399829101573,0.0417141666615603,0.930622999999969,
-0.0354820686035156,0.0329920988769531,0.00766144531249857,0.049052558801429,0.933619999999962,
0.0291613762207031,0.0329920988769531,-0.0234631762695319,0.0498937380043544,0.936706999999956,
0.0195845695800781,0.0736935270996094,0.0220266552734358,0.0793691680978991,0.939681999999948,
-0.0235110603027344,0.0545399138183594,-0.0378283862304691,0.0704156158864951,0.942714999999964,
0.0147961662597656,0.0234152922363281,-0.0282515795898455,0.0395645573186488,0.945697999999993,
0.0219787712402344,0.0617225187988281,-0.00191536132812509,0.065546962714679,0.948672999999985,
0.0147961662597656,0.0641167204589844,0.0651222851562494,0.0925785742079345,0.951760999999976,
-0.0282994636230469,0.0401747038574219,0.00287304199218674,0.0492252053492169,0.954727999999989,
0.0124019645996094,0.0114442839355468,0.0292092602539054,0.033733681170423,0.957807000000003,
0.0100077629394531,0.0377805021972656,0.0675164868164053,0.0780128044449097,0.960790999999972,
0.0100077629394531,0.0210210905761718,0.0268150585937494,0.0355118140264635,0.963756999999987,
-0.00914585034179689,0.0665109221191406,0.0220266552734358,0.0706577871302783,0.966808999999955,
-0.0139342536621094,0.00665588061523435,0.0268150585937494,0.0309436833500874,0.969773999999973,
-0.00435744702148439,0.0353863005371094,0.00766144531249857,0.0364674561016268,0.972847000000002,
0.0195845695800781,0.0569341154785156,0.0244208569335935,0.0649725105281373,0.97580899999997,
0.0291613762207031,0.0234152922363281,0.0507570751953121,0.0630471447091826,0.97877299999999,
-0.0115400520019531,0.0186268889160156,0.0746990917968748,0.0778465677225098,0.981802999999957,
0.0147961662597656,0.0042616789550781,-0.0306457812500014,0.0342965355673969,0.984781999999996,
0.0171903679199219,0.0401747038574219,0.0866701000976562,0.0970629786797807,0.98786199999995,
0.0243729729003906,0.0329920988769531,-0.00909796630859461,0.042015394646036,0.990824999999973,
0.0459207878417969,0.0090500822753906,0.0387860668945308,0.0607863613843572,0.993790999999987,
-0.00675164868164064,0.0282036955566406,-0.021068974609376,0.0358459885351555,0.996830999999986,
0.0100077629394531,0.0712993254394531,0.0531512768554681,0.0894919401875943,0.999805999999978,
-0.00914585034179689,0.0353863005371094,-0.0258573779296878,0.0447709820930464,1.00284999999997,
-0.0187226569824219,0.0425689055175781,-0.0258573779296878,0.053209525414578,1.00581299999999,
0.0100077629394531,0.0689051237792969,-0.00430956298828278,0.0697613340987863,1.00877499999996,
0.00282515795898436,0.0210210905761718,0.00526724365234266,0.0218543273105803,1.01185499999997,
-0.0163284553222656,0.0042616789550781,0.00766144531249857,0.0185331623044689,1.01481299999995,
