X,Y,Z,Magnitude,Seconds,
-0.0259052619628906,0.0808761320800781,0.017238251953124,0.0866555749389479,0.0,
0.00761356127929686,0.0258094938964844,0.0435744702148426,0.0512135796937734,0.00390600000002905,
0.0171903679199219,0.0234152922363281,-0.0138863696289064,0.0321965203275997,0.00776400000000876,
0.0339497795410156,0.0401747038574219,0.0603338818359358,0.080042311675187,0.0116330000000175,
-0.0187226569824219,0.0138384855957031,0.00766144531249857,0.0245099839318658,0.0154150000000186,
0.000430956298828111,0.0329920988769531,-0.021068974609376,0.0391480012609671,0.0191960000000222,
-0.0115400520019531,0.00665588061523435,0.000478840332030828,0.0133305226842617,0.0230060000000094,
0.0171903679199219,0.0689051237792969,0.0292092602539054,0.0767893593985708,0.0268760000000157,
0.00282515795898436,0.0689051237792969,0.000478840332030828,0.0689646785579184,0.0306550000000243,
0.0291613762207031,0.0138384855957031,0.00766144531249857,0.0331751004662273,0.0344350000000304,
-0.0115400520019531,0.0186268889160156,0.0244208569335935,0.0328102429778935,0.0381740000000264,
-0.0211168586425781,0.0305978972167968,0.00766144531249857,0.03795854024191,0.0419420000000059,
0.0243729729003906,0.0617225187988281,0.0316034619140613,0.073501632225607,0.045722000000012,
-0.00435744702148439,0.0497515104980469,-0.0330399829101573,0.0598818888486811,0.0495370000000435,
0.00521935961914061,0.0353863005371094,0.017238251953124,0.0397062880528503,0.0533320000000117,
-0.00196324536132814,0.0329920988769531,-0.0306457812500014,0.0450721291828816,0.0570950000000039,
-0.00914585034179689,0.0186268889160156,-0.0402225878906251,0.0452599618402754,0.0611130000000344,
-0.0282994636230469,0.0545399138183594,0.0244208569335935,0.0661198918181001,0.0649830000000406,
-0.0187226569824219,0.0449631071777343,0.0316034619140613,0.0580602936309435,0.068805999999995,
0.0411323845214844,0.0329920988769531,0.0124498486328122,0.054178873887428,0.072652000000005,
-0.00196324536132814,0.0234152922363281,0.00766144531249857,0.0247149344959243,0.0765660000000139,
-0.00914585034179689,0.0162326872558594,0.00526724365234266,0.0193620910470494,0.0804239999999936,
0.0243729729003906,0.0305978972167968,0.0268150585937494,0.0474270016918533,0.0842440000000124,
0.00521935961914061,0.0305978972167968,0.124977326660156,0.128774241244291,0.0880160000000387,
-0.00675164868164064,0.0162326872558594,0.00766144531249857,0.0191776599131188,0.0918159999999943,
0.0267671745605469,0.0401747038574219,0.00526724365234266,0.0485616342360868,0.0956250000000409,
0.0124019645996094,0.0258094938964844,-0.0282515795898455,0.0402254950304406,0.0994520000000421,
-0.0306936652832031,0.0497515104980469,0.0459686718749985,0.0743668789133029,0.103231999999991,
0.0100077629394531,0.0377805021972656,-0.0282515795898455,0.0482252362840376,0.107004000000018,
-0.0115400520019531,0.0305978972167968,-0.0234631762695319,0.0402482888450251,0.110744000000011,
-0.0378762702636719,0.0425689055175781,0.0196324536132799,0.0602673775846336,0.114505000000008,
0.0195845695800781,0.0880587370605469,-0.021068974609376,0.0926379956034562,0.118263000000013,
-0.0139342536621094,0.0425689055175781,0.017238251953124,0.0479940878909464,0.122056000000043,
0.0243729729003906,0.0353863005371094,0.017238251953124,0.0462967537102245,0.125939000000017,
-0.00435744702148439,0.0258094938964844,0.0292092602539054,0.0392211448624091,0.129841999999996,
0.00521935961914061,0.0090500822753906,-0.00670376464843869,0.0124131448266308,0.133865000000014,
0.0171903679199219,0.0353863005371094,-0.0474051928710946,0.061603176266087,0.137657999999988,
0.0219787712402344,0.0832703337402343,0.0196324536132799,0.0883314672204541,0.141478000000006,
0.0124019645996094,0.0712993254394531,0.0244208569335935,0.0763791908010425,0.145269000000042,
0.0291613762207031,0.0689051237792969,0.0244208569335935,0.078706290723783,0.149165000000039,
0.000430956298828111,0.0258094938964844,-0.0450109912109387,0.0518874264953983,0.153016000000036,
0.00521935961914061,0.0449631071777343,-0.0234631762695319,0.0509847365646373,0.156813,
0.0243729729003906,0.0473573088378906,0.0459686718749985,0.0703553502039597,0.16061000000002,
0.0124019645996094,0.0401747038574219,-0.0138863696289064,0.044279191698044,0.164395000000013,
0.0147961662597656,0.0521457121582031,-0.0162805712890641,0.0565964560195344,0.168155000000013,
0.00282515795898436,0.0282036955566406,-0.021068974609376,0.0353175827547046,0.171965,
-0.0235110603027344,0.0784819304199219,0.000478840332030828,0.0819293149431865,0.175747000000001,
0.00761356127929686,0.0617225187988281,0.0531512768554681,0.0818088862752202,0.17951800000003,
0.0124019645996094,0.0665109221191406,0.0292092602539054,0.0736932315185643,0.18327400000004,
0.0100077629394531,0.0401747038574219,0.0435744702148426,0.0601073756172073,0.187014000000033,
0.0195845695800781,0.0305978972167968,0.0435744702148426,0.0567320115475451,0.190764999999999,
-0.00435744702148439,0.0641167204589844,-0.0545877978515641,0.0843194453328757,0.194489000000033,
-0.00914585034179689,0.0808761320800781,0.0459686718749985,0.0934757407708549,0.198365000000024,
-0.0163284553222656,0.0329920988769531,0.0148440502929681,0.0396918489191174,0.202354000000014,
-0.0163284553222656,0.0904529387207031,-0.0234631762695319,0.0948623909517234,0.206237000000044,
-0.0115400520019531,0.0617225187988281,0.0579396801757799,0.0854391518330509,0.210053000000016,
0.0339497795410156,0.0305978972167968,0.0794874951171867,0.0916901342837821,0.21387100000004,
0.0171903679199219,0.0473573088378906,0.0579396801757799,0.0767804010699429,0.217669999999998,
0.00761356127929686,0.0473573088378906,0.0435744702148426,0.0648028970820377,0.221627000000012,
0.0435265861816406,0.0593283171386719,0.0339976635742172,0.0810571036223246,0.225472000000025,
0.0243729729003906,0.0617225187988281,0.091458503417968,0.112997207851917,0.229281000000015,
-0.00435744702148439,0.0329920988769531,-0.00909796630859461,0.0344998394750471,0.233045000000004,
0.00521935961914061,0.0114442839355468,0.017238251953124,0.0213394161126942,0.23687799999999,
0.0315555778808594,0.0593283171386719,0.0220266552734358,0.0707161739097682,0.240642000000037,
0.0100077629394531,0.0569341154785156,-0.021068974609376,0.0615268276076686,0.24437800000004,
0.0171903679199219,0.0186268889160156,-0.0114921679687505,0.0278305527170022,0.248264000000006,
0.0267671745605469,0.0449631071777343,0.0148440502929681,0.0543921728756204,0.252042000000017,
0.0147961662597656,0.0689051237792969,0.0699106884765612,0.0992690635711531,0.255792000000042,
-0.00914585034179689,0.0497515104980469,0.000478840332030828,0.0505874358252659,0.259530000000041,
0.0267671745605469,0.0689051237792969,0.0651222851562494,0.0985155304556945,0.26329400000003,
0.0171903679199219,0.0928471403808594,0.0651222851562494,0.11470402020024,0.26705000000004,
0.0195845695800781,0.0353863005371094,0.0363918652343749,0.0544069249873254,0.270909000000017,
0.0100077629394531,0.0736935270996094,-0.00430956298828278,0.0744947218840578,0.27493000000004,
-0.0282994636230469,0.0521457121582031,-0.021068974609376,0.0629598016906729,0.278776999999991,
0.0147961662597656,0.0401747038574219,-0.00430956298828278,0.043029126172491,0.282632000000035,
0.0243729729003906,0.0377805021972656,-0.00191536132812509,0.0450008529174508,0.286456000000044,
0.0124019645996094,0.0689051237792969,-0.143173259277345,0.159374737587449,0.290351000000044,
0.0698628044433594,0.523803439208984,-0.191057292480469,0.561919694780152,0.294329000000005,
0.0339497795410156,0.0377805021972656,0.268629426269531,0.273389324105859,0.29821000000004,
0.0842280144042969,-0.378810586669922,0.943794294433593,1.02046042999673,0.302002000000016,
-0.641215088623047,0.0784819304199219,-0.375410820312501,0.747160951394012,0.305621000000031,
-0.377852906005859,0.602812093994141,-0.861433757324219,1.11723916754668,0.308605,
0.831218932373047,-0.0101035310058594,-0.667503422851563,1.06610872540878,0.311534999999992,
1.19274338305664,-0.613442349365235,1.12814782226562,1.75261684423687,0.314581000000032,
0.122535240966797,-0.575135122802735,0.745075556640623,0.949174841566843,0.317533000000026,
-0.784867188232422,0.164673190185547,-1.03381627685547,1.30839973135929,0.32056,
-1.21582348706055,0.569293270751953,-0.88058737060547,1.60553906744164,0.323527000000013,
0.0554975944824219,0.368180331298828,1.20955067871094,1.26556295130615,0.326480000000004,
0.484059691650391,0.260441256591797,0.512837995605468,0.751762091989493,0.329523999999992,
0.304494567138672,0.229316635009766,-0.935654008789063,1.01032246568718,0.332496999999989,
0.223091710693359,0.0282036955566406,0.0483628735351562,0.230009407111359,0.335551000000009,
0.215909105712891,-0.328532351806641,0.5439626171875,0.671152424573447,0.338503000000003,
-0.0163284553222656,-0.383598989990234,-0.272460148925783,0.470796491413646,0.341404000000011,
-0.428131140869141,-0.0460165559082032,-0.260489140625001,0.503257776475552,0.344403999999997,
-0.404189124267578,0.162278988525391,0.189620771484375,0.475036162067,0.347352999999998,
-0.0426646735839844,0.167067391845703,0.141736738281249,0.223206386039381,0.350369999999998,
0.239851122314453,0.255652853271484,0.0124498486328122,0.350773347038132,0.353352000000029,
0.225485912353516,0.284383273193359,0.0675164868164053,0.369156089932289,0.35630900000001,
0.0938048210449219,0.109606552001953,0.055545478515624,0.154590558820894,0.359352000000001,
0.0938048210449219,-0.122631009033203,-0.0450109912109387,0.160821945509817,0.362303999999995,
-0.0977313117675781,-0.168120840576172,-0.0785298144531268,0.209721143650069,0.365289000000018,
-0.207864588134766,-0.0867179841308594,-0.0114921679687505,0.225521098118951,0.368222000000003,
-0.159980554931641,-0.0531991608886719,-0.0713472094726573,0.183069257318179,0.371225000000038,
0.0554975944824219,0.0234152922363281,-0.0138863696289064,0.0618149671626428,0.37429000000003,
0.100987426025391,0.205374618408203,0.122583124999998,0.25962245017778,0.377368999999987,
0.153659862548828,0.224528231689453,-0.0402225878906251,0.275031155981893,0.380501000000038,
0.0746512077636719,0.114394955322266,-0.00909796630859461,0.136900626787135,0.383567000000028,
-0.0690008918457031,0.0210210905761718,0.0675164868164053,0.0988002293344701,0.386609000000021,
-0.109702320068359,-0.0101035310058594,-0.0402225878906251,0.117279737993339,0.389544999999998,
-0.0977313117675781,-0.0747469758300782,-0.0665588061523454,0.13988779207629,0.392463000000021,
0.0100077629394531,-0.0172861359863282,-0.00670376464843869,0.0210690834364425,0.395531000000005,
0.124929442626953,0.0234152922363281,0.0603338818359358,0.140697614915771,0.398511000000042,
0.122535240966797,0.104818148681641,-0.0234631762695319,0.162948612183389,0.401553000000035,
0.0602859978027344,0.133548568603516,0.0411802685546867,0.152201958677789,0.404544000000044,
0.0171903679199219,0.121577560302734,0.0148440502929681,0.123680870580246,0.407509000000005,
-0.133644336669922,0.126365963623047,0.0244208569335935,0.185541218438641,0.410539000000028,
-0.0929429084472657,0.0401747038574219,-0.0545877978515641,0.115031381522398,0.413493000000017,
-0.0498472785644531,-0.0268629426269532,0.0938527050781239,0.109611582952453,0.416562999999996,
0.0363439812011719,-0.0531991608886719,-0.0330399829101573,0.0724063267920243,0.419555000000003,
0.0794396110839844,-0.0196803376464844,0.0794874951171867,0.11408869084646,0.422503000000006,
0.100987426025391,0.00186747729492185,-0.0521935961914064,0.113693092006825,0.425559000000021,
0.0435265861816406,0.0425689055175781,0.00766144531249857,0.0613626365622329,0.428551000000027,
-0.0187226569824219,0.0473573088378906,0.0220266552734358,0.0554835662821304,0.431589000000031,
-0.0905487067871094,0.0760877287597656,0.0244208569335935,0.120767499858234,0.434539000000029,
-0.0642124885253906,0.0689051237792969,0.0363918652343749,0.10097290538011,0.437493000000018,
-0.0522414802246094,0.0928471403808594,0.0675164868164053,0.126127870532215,0.440517999999997,
0.0459207878417969,0.0473573088378906,0.0100556469726545,0.0667274268379752,0.443497000000036,
0.0938048210449219,0.0305978972167968,0.0124498486328122,0.0994513674935615,0.446567000000016,
0.0626801994628906,0.0425689055175781,0.0100556469726545,0.0764332071661977,0.449551000000042,
0.0387381828613281,-0.0148919343261719,-0.0713472094726573,0.082539934691687,0.452473999999995,
-0.100125513427734,-0.0244687409667969,-0.0617704028320318,0.120164139366531,0.455462000000011,
-0.0594240852050781,0.00665588061523435,0.0723048901367171,0.0938270738481563,0.458439999999996,
-0.0426646735839844,0.0784819304199219,0.00287304199218674,0.0893752882219367,0.461468000000025,
0.00521935961914061,0.0808761320800781,0.00287304199218674,0.0810952823865669,0.464447000000007,
0.0507091911621094,0.0641167204589844,-0.0402225878906251,0.0911056117226044,0.467472000000043,
0.0531033928222656,0.0545399138183594,0.017238251953124,0.0780495346491528,0.470472000000029,
0.0195845695800781,0.0425689055175781,0.0866701000976562,0.0985260033368814,0.473442000000034,
-0.0115400520019531,-0.0148919343261719,0.0124498486328122,0.022581878556992,0.476436000000035,
-0.0354820686035156,0.0329920988769531,-0.0282515795898455,0.056085715917804,0.479398000000003,
-0.0354820686035156,0.0186268889160156,-0.0234631762695319,0.0464376875364105,0.482409000000018,
0.0124019645996094,0.0617225187988281,0.0579396801757799,0.0855598304794564,0.485406000000012,
0.0100077629394531,0.0808761320800781,-0.0378283862304691,0.0898448154546943,0.488357000000008,
0.0363439812011719,0.0808761320800781,-0.00909796630859461,0.0891325232490234,0.491416000000015,
0.0291613762207031,0.0377805021972656,-0.0138863696289064,0.0497049642473827,0.494394,
-0.0259052619628906,0.0641167204589844,-0.00909796630859461,0.0697481858598047,0.497432000000003,
0.00521935961914061,0.0042616789550781,0.0124498486328122,0.0141563538148072,0.50041600000003,
0.00761356127929686,0.0353863005371094,-0.0330399829101573,0.0490081325063476,0.503369000000021,
-0.0259052619628906,0.0090500822753906,-0.00670376464843869,0.0282476025003713,0.506393000000003,
0.0219787712402344,0.0090500822753906,-0.0306457812500014,0.0387831700979282,0.509373000000039,
0.0195845695800781,0.0329920988769531,-0.0258573779296878,0.0462670287282669,0.512444000000016,
0.0267671745605469,0.0736935270996094,0.0363918652343749,0.0864383330795576,0.515543000000036,
0.0267671745605469,0.0162326872558594,-0.0162805712890641,0.0352851069291227,0.51858900000002,
-0.0139342536621094,0.0305978972167968,0.017238251953124,0.0377829600429752,0.521756000000039,
-0.0211168586425781,-0.0053151276855469,-0.00909796630859461,0.0235996883919389,0.524721,
-0.0235110603027344,0.0282036955566406,0.0435744702148426,0.0569820397503871,0.527769000000035,
-0.00435744702148439,0.0401747038574219,0.000478840332030828,0.0404131595231079,0.530732999999998,
-0.0163284553222656,0.0234152922363281,0.0627280834960935,0.0689181167967955,0.533706999999993,
-0.00435744702148439,0.0186268889160156,-0.0306457812500014,0.0361263372577067,0.536752000000035,
0.0507091911621094,0.0569341154785156,-0.0450109912109387,0.0885375903412076,0.539733000000012,
-0.0235110603027344,0.0258094938964844,0.0292092602539054,0.0455201144147491,0.54278400000004,
-0.0235110603027344,0.0401747038574219,-0.0617704028320318,0.0773457138607037,0.545769000000007,
-0.0139342536621094,0.0641167204589844,0.0196324536132799,0.068487593784664,0.548731000000032,
-0.0115400520019531,0.0473573088378906,0.0675164868164053,0.0832728256552218,0.551778000000013,
-0.0330878669433594,0.0186268889160156,-0.00670376464843869,0.0385578576948032,0.554767000000027,
0.00761356127929686,0.0114442839355468,0.00766144531249857,0.0157364447836044,0.557853000000023,
0.00521935961914061,0.0593283171386719,0.0459686718749985,0.075234365307963,0.560840000000042,
0.0291613762207031,0.0521457121582031,0.0316034619140613,0.0675894959629459,0.563873999999998,
-0.00435744702148439,0.0665109221191406,0.0244208569335935,0.07098639559137,0.566842000000008,
0.00282515795898436,0.0521457121582031,0.00766144531249857,0.0527811951196237,0.569816000000003,
0.0195845695800781,0.0712993254394531,-0.00909796630859461,0.0744977997306651,0.572849000000019,
0.0219787712402344,0.0473573088378906,-0.00909796630859461,0.0529957930080325,0.575842000000023,
0.0219787712402344,0.0425689055175781,-0.0234631762695319,0.0533450910848427,0.578879000000029,
-0.0235110603027344,0.0186268889160156,-0.00191536132812509,0.0300566058673576,0.58184,
0.0219787712402344,0.0210210905761718,0.0507570751953121,0.0591712203408443,0.584815999999989,
0.00521935961914061,0.0114442839355468,0.0411802685546867,0.0430584238897274,0.587865000000022,
0.0507091911621094,0.0473573088378906,0.0387860668945308,0.0794889662395336,0.590839000000017,
-0.0211168586425781,0.0760877287597656,0.0459686718749985,0.0913694860481418,0.593870000000038,
0.000430956298828111,0.0377805021972656,0.017238251953124,0.0415296207544504,0.596847000000025,
0.0363439812011719,0.0497515104980469,-0.00909796630859461,0.062280580900797,0.599807999999996,
0.000430956298828111,0.0042616789550781,0.0268150585937494,0.0271550179199696,0.602858000000026,
-0.00435744702148439,0.0593283171386719,0.0100556469726545,0.0603320196503525,0.605820999999992,
0.0100077629394531,0.0449631071777343,0.0268150585937494,0.0532999408396945,0.608867000000032,
0.0315555778808594,0.0401747038574219,0.00287304199218674,0.0511665486007743,0.611862000000031,
-0.0282994636230469,0.0760877287597656,0.0339976635742172,0.0880116085393141,0.614806000000044,
0.0315555778808594,0.0808761320800781,0.055545478515624,0.103063104063282,0.61785900000001,
0.0171903679199219,0.0712993254394531,-0.01867477294922,0.0756825587704872,0.620838999999989,
-0.00914585034179689,0.0832703337402343,-0.00191536132812509,0.0837929810228866,0.623874000000001,
0.00521935961914061,0.0377805021972656,-0.00909796630859461,0.0392094510553748,0.626854000000037,
-0.0211168586425781,0.0305978972167968,0.0124498486328122,0.0392065270586445,0.629819999999995,
0.00282515795898436,0.0401747038574219,0.0316034619140613,0.0511934288017347,0.632861999999989,
-0.0235110603027344,0.0617225187988281,0.0268150585937494,0.0712845470688895,0.635825000000011,
0.00282515795898436,0.0305978972167968,-0.0114921679687505,0.032806748638121,0.638869,
-0.0211168586425781,0.0138384855957031,0.0483628735351562,0.0545563281305718,0.641849000000036,
0.0147961662597656,0.0449631071777343,-0.0306457812500014,0.0563894622379571,0.644804000000022,
-0.0282994636230469,0.0186268889160156,0.0148440502929681,0.0369887342462797,0.647847000000013,
-0.0115400520019531,0.0521457121582031,-0.0497993945312505,0.0730227895411638,0.650805999999989,
0.00282515795898436,0.0353863005371094,0.0244208569335935,0.0430877016858277,0.653931,
-0.00435744702148439,0.0138384855957031,0.0699106884765612,0.0714002478384656,0.65697700000004,
0.0219787712402344,0.0617225187988281,-0.021068974609376,0.0688232330190378,0.660124999999994,
0.00761356127929686,0.0473573088378906,-0.00430956298828278,0.0481586269412962,0.663177000000019,
0.0243729729003906,0.0569341154785156,0.0292092602539054,0.0684742009657981,0.666149000000019,
-0.0211168586425781,0.0234152922363281,0.0100556469726545,0.0330955233450376,0.669167000000016,
0.0219787712402344,0.0760877287597656,0.017238251953124,0.0810528604273137,0.672151000000042,
0.0195845695800781,0.0449631071777343,-0.0258573779296878,0.0554422254794309,0.675198000000023,
-0.0163284553222656,0.0401747038574219,0.017238251953124,0.0466667184794705,0.678188000000034,
0.0578917961425781,0.0401747038574219,-0.0713472094726573,0.100279066560178,0.681145000000015,
-0.0115400520019531,0.0473573088378906,-0.0114921679687505,0.0500795110319291,0.684178000000031,
-0.0139342536621094,0.0593283171386719,0.00287304199218674,0.0610103844432708,0.687149000000034,
0.00521935961914061,0.0377805021972656,-0.0162805712890641,0.0414688444812465,0.690210000000036,
0.0315555778808594,0.0114442839355468,-0.0162805712890641,0.0373066097587371,0.69319200000001,
-0.0115400520019531,0.0258094938964844,-0.0114921679687505,0.0305183993686173,0.696178000000032,
-0.0187226569824219,0.0401747038574219,0.0148440502929681,0.0467428127481984,0.699228000000005,
-0.00196324536132814,0.0329920988769531,-0.0617704028320318,0.0700565170893252,0.70219000000003,
0.0147961662597656,0.0329920988769531,0.0411802685546867,0.0548016390496616,0.705240000000003,
-0.0163284553222656,0.0784819304199219,0.0459686718749985,0.0924075248537691,0.708206000000018,
-0.00196324536132814,0.0114442839355468,-0.0497993945312505,0.0511351705074436,0.711141999999995,
0.0100077629394531,0.0545399138183594,0.0651222851562494,0.0855316873581845,0.71419400000002,
-0.00435744702148439,0.0497515104980469,0.00766144531249857,0.0505262098881236,0.717141000000026,
0.0100077629394531,0.0353863005371094,0.0268150585937494,0.045512558180585,0.720189000000005,
-0.0163284553222656,0.0473573088378906,-0.00909796630859461,0.0509127306725037,0.723129000000029,
0.000430956298828111,0.0329920988769531,0.055545478515624,0.0646062264427183,0.726120000000037,
0.00282515795898436,0.0521457121582031,0.055545478515624,0.0762394713879171,0.729154999999992,
0.00521935961914061,0.0425689055175781,0.00526724365234266,0.0432099211696984,0.732129000000043,
0.00761356127929686,0.0569341154785156,-0.00670376464843869,0.0578307900787825,0.735157000000015,
-0.0330878669433594,0.0353863005371094,-0.0545877978515641,0.0729851003893761,0.738125000000025,
0.0411323845214844,0.0234152922363281,0.0148440502929681,0.0496033748452266,0.741093000000035,
-0.0259052619628906,0.0377805021972656,0.0196324536132799,0.0498385611602218,0.744114000000025,
-0.00435744702148439,0.0832703337402343,0.0316034619140613,0.0891723871538077,0.747072000000003,
0.00521935961914061,0.0641167204589844,0.0316034619140613,0.0716726890956589,0.750134000000003,
-0.00435744702148439,0.0665109221191406,0.0124498486328122,0.0678062595684452,0.753100000000018,
-0.00435744702148439,0.0353863005371094,-0.00191536132812509,0.0357049887167738,0.756117000000017,
-0.00675164868164064,0.0042616789550781,-0.00191536132812509,0.00821068063279363,0.759069000000011,
-0.0235110603027344,0.0449631071777343,-0.0402225878906251,0.0647480311689421,0.762006000000042,
0.000430956298828111,0.0282036955566406,0.00526724365234266,0.0286945643297875,0.765056000000016,
-0.00196324536132814,0.0114442839355468,-0.00191536132812509,0.0117683718569507,0.768009000000006,
0.0100077629394531,0.0210210905761718,-0.0450109912109387,0.0506757426966306,0.771045000000015,
0.0746512077636719,0.0449631071777343,-0.00191536132812509,0.087167381724293,0.774025999999992,
-0.0115400520019531,0.0497515104980469,-0.00430956298828278,0.0512538577103717,0.776971000000003,
-0.00196324536132814,0.0305978972167968,-0.0234631762695319,0.0386083706868545,0.779987000000006,
-0.00196324536132814,0.0234152922363281,0.00526724365234266,0.0240805751292316,0.782968000000039,
-0.00196324536132814,0.0377805021972656,-0.00430956298828278,0.0380761475437884,0.785987000000034,
0.0100077629394531,0.0449631071777343,0.0100556469726545,0.0471481957466812,0.788966000000016,
-0.0330878669433594,0.0473573088378906,-0.0234631762695319,0.0623541681035352,0.791923999999995,
-0.0259052619628906,0.0377805021972656,0.00287304199218674,0.0458988378276885,0.795073000000002,
0.0195845695800781,0.0545399138183594,0.00766144531249857,0.0584538733466602,0.798160999999993,
-0.00675164868164064,0.0521457121582031,-0.0258573779296878,0.0585949148800916,0.80128000000002,
0.0124019645996094,0.0617225187988281,0.0339976635742172,0.0715494177565919,0.804307999999992,
-0.00435744702148439,0.0497515104980469,0.0220266552734358,0.054583639342912,0.807241000000033,
-0.0163284553222656,0.0569341154785156,0.017238251953124,0.0616868648006329,0.810272999999995,
0.0124019645996094,0.0329920988769531,-0.0258573779296878,0.0437137427777046,0.813241000000005,
0.0363439812011719,0.0545399138183594,0.0100556469726545,0.0663068865571583,0.816327000000001,
-0.0187226569824219,0.0329920988769531,0.0603338818359358,0.0712684626618306,0.819277999999997,
-0.00435744702148439,0.0832703337402343,-0.00430956298828278,0.0834955577195879,0.822220000000016,
0.0171903679199219,0.0880587370605469,0.0699106884765612,0.113742491115623,0.825278000000026,
0.0339497795410156,0.0569341154785156,-0.00670376464843869,0.0666259821441018,0.828249000000028,
0.0219787712402344,0.0377805021972656,0.0507570751953121,0.066982933750999,0.831328000000042,
-0.0115400520019531,0.0353863005371094,-0.00430956298828278,0.0374691259447079,0.83429799999999,
-0.00435744702148439,0.0617225187988281,0.0483628735351562,0.0785342231641356,0.837282000000016,
-0.0115400520019531,0.0808761320800781,-0.00430956298828278,0.0818088862752207,0.840313000000037,
0.0267671745605469,0.0617225187988281,0.0411802685546867,0.0788794363510706,0.843297000000007,
0.0291613762207031,0.0808761320800781,0.00526724365234266,0.0861340725788162,0.846356000000014,
0.0267671745605469,-0.000526724365234398,0.017238251953124,0.0318420539995632,0.849315999999988,
-0.00914585034179689,0.0880587370605469,0.0459686718749985,0.0997552331716204,0.852341000000024,
-0.0163284553222656,0.0569341154785156,0.0100556469726545,0.0600768507377911,0.85530399999999,
-0.0354820686035156,0.0186268889160156,-0.01867477294922,0.044211823393512,0.858242000000018,
-0.0163284553222656,0.0545399138183594,-0.0521935961914064,0.077235951058538,0.861278000000027,
0.00761356127929686,0.0569341154785156,0.0196324536132799,0.0607033199714163,0.864271000000031,
0.0483149895019531,0.0545399138183594,0.0124498486328122,0.0739184627875055,0.867306000000042,
0.0243729729003906,-0.000526724365234398,0.0148440502929681,0.0285423383005015,0.87026400000002,
0.0100077629394531,0.0593283171386719,0.0435744702148426,0.0742882156742462,0.873221000000001,
0.00282515795898436,0.0617225187988281,0.0244208569335935,0.0664381599514612,0.876264999999989,
0.0315555778808594,0.0401747038574219,0.0339976635742172,0.0613645048373421,0.879235999999992,
-0.0139342536621094,0.0617225187988281,0.0435744702148426,0.0768281667521483,0.88226800000001,
0.0124019645996094,0.0521457121582031,0.0268150585937494,0.0599335581273326,0.885243000000003,
0.0411323845214844,0.0353863005371094,-0.0354341845703132,0.0648046661768186,0.888193999999999,
-0.00914585034179689,0.0473573088378906,0.0339976635742172,0.0590101890129794,0.891256999999996,
0.000430956298828111,0.0353863005371094,0.0962469067382798,0.102546784667883,0.894240000000025,
0.0147961662597656,0.0712993254394531,0.00766144531249857,0.0732203393080371,0.897280000000023,
-0.0115400520019531,0.0258094938964844,-0.01867477294922,0.0338828853568489,0.900240999999994,
-0.0187226569824219,0.0353863005371094,0.0363918652343749,0.0541026432387639,0.903194000000042,
0.0100077629394531,0.0521457121582031,0.00766144531249857,0.0536472586421233,0.906240000000025,
-0.0402704719238282,0.0210210905761718,0.00766144531249857,0.0460683720382635,0.909194000000014,
0.0100077629394531,0.0377805021972656,-0.0306457812500014,0.0496657384295534,0.912239999999997,
0.00521935961914061,0.0497515104980469,-0.01867477294922,0.0533966446172052,0.915210000000002,
-0.00914585034179689,0.0353863005371094,0.00766144531249857,0.0373434678150487,0.918181000000004,
0.0291613762207031,0.0377805021972656,-0.0114921679687505,0.0490899392338691,0.92121400000002,
-0.0211168586425781,0.0353863005371094,0.0244208569335935,0.0479008375501337,0.924194,
0.000430956298828111,0.0377805021972656,0.0292092602539054,0.0477570199466996,0.927232000000004,
0.0363439812011719,0.0353863005371094,0.0196324536132799,0.0543921728756201,0.930205999999998,
0.0291613762207031,0.0808761320800781,-0.0114921679687505,0.0867375612289255,0.933214000000021,
-0.0187226569824219,0.0258094938964844,0.0411802685546867,0.0520814974622486,0.936367000000018,
-0.00435744702148439,0.0473573088378906,-0.0378283862304691,0.0607674983006043,0.939420000000041,
-0.00675164868164064,0.0282036955566406,-0.0282515795898455,0.0404868491277519,0.942539000000011,
-0.0259052619628906,0.0617225187988281,0.0770932934570308,0.102098618111557,0.945494999999994,
0.0171903679199219,0.0760877287597656,0.0339976635742172,0.0850922578472777,0.948533999999995,
0.0243729729003906,0.0329920988769531,0.0387860668945308,0.0564524523954172,0.951502000000005,
-0.0426646735839844,0.0353863005371094,-0.021068974609376,0.0592989572321562,0.954463000000032,
0.00521935961914061,0.0521457121582031,0.00766144531249857,0.0529633340679804,0.957515999999998,
0.00521935961914061,0.0545399138183594,0.0387860668945308,0.0671282570851873,0.960500000000025,
0.0195845695800781,0.0641167204589844,-0.00191536132812509,0.0670684562001373,0.963513000000034,
-0.00435744702148439,0.0401747038574219,-0.00191536132812509,0.0404556891375474,0.966493000000014,
0.0435265861816406,0.0282036955566406,0.00287304199218674,0.0519448411102424,0.969456000000037,
0.0339497795410156,0.0545399138183594,0.0531512768554681,0.0833801412901432,0.972509000000002,
0.000430956298828111,0.0473573088378906,0.000478840332030828,0.0473616903389483,0.975512000000037,
-0.0139342536621094,0.0497515104980469,0.0459686718749985,0.0691555855727399,0.978563000000008,
0.0147961662597656,0.0305978972167968,0.0100556469726545,0.035443954154622,0.98154500000004,
-0.00196324536132814,0.0401747038574219,-0.01867477294922,0.0443464576610719,0.984485000000006,
0.0243729729003906,0.0617225187988281,-0.0162805712890641,0.068328384558492,0.987522000000013,
0.0195845695800781,0.0258094938964844,-0.00430956298828278,0.0326842113868388,0.990501999999992,
-0.00435744702148439,0.0138384855957031,-0.0234631762695319,0.027586439943977,0.993523000000039,
-0.0235110603027344,0.0832703337402343,0.0148440502929681,0.0877898870421246,0.996501000000023,
0.0171903679199219,0.0305978972167968,0.0363918652343749,0.0505579659257455,0.999459000000002,
0.00282515795898436,0.0282036955566406,0.0723048901367171,0.0776622630254078,1.002501,
0.0171903679199219,0.0305978972167968,0.017238251953124,0.0391011175506702,1.00549100000001,
0.00282515795898436,0.0258094938964844,0.0148440502929681,0.0299074793619596,1.008531,
0.00761356127929686,0.0545399138183594,-0.01867477294922,0.0581490813287071,1.01148900000004,
-0.00675164868164064,0.0449631071777343,0.0100556469726545,0.0465658866879541,1.014456,
-0.0259052619628906,0.0569341154785156,0.0244208569335935,0.0671487479857814,1.01747700000004,
0.0339497795410156,0.0473573088378906,-0.0234631762695319,0.0628157852128431,1.02045600000002,
