X,Y,Z,Magnitude,Seconds,
0.00148440502929703,0.0151313544921874,0.0116358200683599,0.0191455910256772,0.0,
0.049368438232422,-0.0255700737304688,0.0523372482910176,0.0763561321883561,0.00375099999996564,
-0.017669208251953,-0.0399352836914064,-0.0147003981933587,0.046077429516058,0.00747000000001208,
0.00866701000976578,0.0175255561523436,0.0427604416503922,0.047018268269843,0.0112719999999626,
0.0326090266113283,0.000766144531249902,0.0499430466308599,0.0596510142474822,0.0151089999999385,
-0.000909796630859216,-0.0399352836914064,-0.00751779321288915,0.0406469165892617,0.0188249999998789,
-0.0224576115722654,-0.0279642753906251,0.0547314499511735,0.0654360499221284,0.0225590000000011,
0.00387860668945328,-0.0375410820312502,-0.0147003981933587,0.0405028164078972,0.0262889999999061,
0.0182438166503908,0.0055545478515624,-0.0147003981933587,0.0240788611618505,0.0300319999998919,
-0.00569819995117171,0.0271023627929686,-0.012306196533201,0.0303059404203036,0.0337440000000697,
0.020638018310547,-0.0279642753906251,-0.0218830031738264,0.0410706017220942,0.0374400000000605,
-0.0224576115722654,-0.0159932670898438,0.0355778366699226,0.0450101252147728,0.0412440000000061,
0.00627280834960953,-0.0207816704101563,0.047548844970704,0.0522696719683158,0.0450479999999516,
0.00627280834960953,0.0366791694335936,0.0427604416503922,0.0566847860105848,0.0490449999999782,
-0.0224576115722654,0.0271023627929686,0.047548844970704,0.0591588965798086,0.0527999999999338,
0.0254264216308596,-0.0279642753906251,-0.00512359155273323,0.0381412480848779,0.056566999999859,
-0.00809240161132796,-0.0112048637695313,0.0331836350097667,0.0359470383814049,0.0603289999999106,
0.00627280834960953,0.0223139594726561,0.0188184250488295,0.0298562226890255,0.0642119999999977,
0.0182438166503908,-0.00162805712890635,0.00924161840820403,0.0205157238914671,0.0680219999999281,
0.00148440502929703,0.0223139594726561,-0.0314598098144518,0.0385983921841289,0.0717939999999544,
-0.00330399829101546,-0.00881066210937509,0.0283952316894549,0.0299137652964389,0.0755289999999604,
-0.0200634099121092,0.0127371528320311,0.047548844970704,0.0531570140020664,0.079289000000017,
0.00387860668945328,-0.0519062919921877,0.00684741674804812,0.0524994652768118,0.0830329999998867,
0.0373974299316408,0.0223139594726561,0.026001030029299,0.0507201549231056,0.0867670000000089,
0.00627280834960953,-0.0159932670898438,-0.012306196533201,0.0211323257099587,0.0905740000000606,
-0.0224576115722654,0.0199197578124999,-0.0147003981933587,0.033425181762897,0.0942849999998998,
0.0158496149902345,-0.0327526787109377,-0.0194888015136705,0.041276647665718,0.0979849999998805,
-0.00809240161132796,-0.0231758720703126,0.0451546433105481,0.0513960097922139,0.101684999999861,
0.0302148249511721,0.0175255561523436,0.064308256591799,0.0731821879363795,0.105407999999898,
0.0230322199707033,0.0175255561523436,-0.00512359155273323,0.0293918265105633,0.109113999999863,
0.0541568415527345,-0.00162805712890635,0.0188184250488295,0.0573563176842917,0.112912000000051,
0.0254264216308596,-0.0135990654296876,-0.0147003981933587,0.032365710320561,0.116807999999992,
0.0350032282714846,-0.0351468803710939,-0.00272938989257732,0.0496787556046983,0.120689999999968,
0.0326090266113283,-0.0303584770507814,0.00924161840820403,0.0455015742165477,0.124459999999999,
0.0326090266113283,-0.0207816704101563,0.00924161840820403,0.0397571874304199,0.128226000000041,
0.0613394465332033,0.0103429511718749,0.0499430466308599,0.0797735059196707,0.132000000000062,
0.00866701000976578,-0.00881066210937509,0.0810676682128921,0.0820043392680565,0.135870000000068,
0.0182438166503908,-0.0183874687500001,-0.0194888015136705,0.0324152624151734,0.139666000000034,
0.011061211669922,-0.0207816704101563,-0.0386424147949214,0.0452489165596917,0.14340500000003,
0.011061211669922,-0.0159932670898438,0.0236068283691413,0.0305845932041607,0.147148000000016,
0.039791631591797,-0.0183874687500001,0.0451546433105481,0.0629318263223971,0.150926000000027,
-0.0128808049316405,-0.0112048637695313,0.0283952316894549,0.0331323601706633,0.154624000000013,
0.00148440502929703,-0.0447236870117189,0.0523372482910176,0.0688592709581566,0.158398000000034,
0.00627280834960953,-0.00162805712890635,0.0044532150878922,0.0078631939582427,0.162131999999929,
0.0445800349121095,-0.0303584770507814,0.0236068283691413,0.0588752833305949,0.165866000000051,
0.020638018310547,0.0055545478515624,0.100221281494141,0.102474806981763,0.169611999999915,
0.00387860668945328,-0.0231758720703126,0.0188184250488295,0.0301047796435944,0.173315999999886,
0.0302148249511721,-0.0375410820312502,-0.0290656081542959,0.0562767986321725,0.177011999999877,
-0.0104866032714842,-0.0135990654296876,-0.00991199487304506,0.0198280374999065,0.180773000000045,
0.0421858332519533,-0.0207816704101563,-0.0386424147949214,0.0608667279667696,0.184526999999889,
0.039791631591797,-0.0112048637695313,0.0307894333496108,0.0515452434548638,0.188509000000067,
0.0278206232910158,-0.0375410820312502,0.0283952316894549,0.0546773179945349,0.192328999999972,
-0.000909796630859216,-0.0159932670898438,-0.000335188232421402,0.0160226300359135,0.196060999999872,
0.0302148249511721,0.00316034619140615,-0.00991199487304506,0.031955767511402,0.199875999999904,
0.0350032282714846,-0.0207816704101563,0.00684741674804812,0.0412794250272878,0.203681999999844,
0.0182438166503908,-0.0112048637695313,0.0212126267089854,0.0301390336600494,0.207636999999977,
0.0326090266113283,0.0055545478515624,-0.00512359155273323,0.0334731655027255,0.211440999999922,
0.0421858332519533,0.0271023627929686,-0.0194888015136705,0.0537958732670318,0.215224999999919,
0.0661278498535158,-0.0279642753906251,0.026001030029299,0.0763606363708184,0.219008000000031,
0.0254264216308596,-0.0112048637695313,0.0379720383300786,0.0470523919050345,0.22280899999987,
-0.000909796630859216,-0.00641646044921884,-0.0554018264160145,0.0557795756960926,0.226525999999922,
0.0469742365722658,-0.0231758720703126,0.0762792648925803,0.0925322981467505,0.230338999999958,
0.0350032282714846,-0.0135990654296876,-0.0194888015136705,0.0423080837952492,0.234065999999984,
0.039791631591797,-0.00162805712890635,0.026001030029299,0.04756130861674,0.237793999999894,
0.0302148249511721,-0.0423294853515627,-0.0170945998535146,0.0547443725063125,0.24149599999987,
0.011061211669922,-0.0447236870117189,0.0116358200683599,0.0475179007553181,0.245212999999922,
0.0326090266113283,-0.0614830986328126,-0.00272938989257732,0.0696489023834273,0.248906000000034,
0.011061211669922,0.0438617744140624,0.0403662399902363,0.0606270483308091,0.252712999999858,
-0.00569819995117171,-0.0159932670898438,0.0355778366699226,0.0394212701089438,0.256541999999854,
-0.00330399829101546,-0.0207816704101563,0.0307894333496108,0.0372932089760794,0.260469999999941,
0.0230322199707033,-0.0112048637695313,0.0379720383300786,0.0458029237474375,0.264208999999937,
0.0182438166503908,0.0247081611328124,0.0978270798339853,0.102535201864448,0.267976999999973,
0.0158496149902345,-0.0159932670898438,-0.0913148513183586,0.0940499705414078,0.271702999999889,
0.0254264216308596,0.0318907661132811,0.105009684814455,0.112652375851881,0.275505000000067,
0.0254264216308596,-0.0734541069335939,-0.0817380446777332,0.112796793793535,0.279391999999916,
-0.000909796630859216,-0.147674358398438,0.0283952316894549,0.150382289652065,0.283122999999932,
0.049368438232422,0.2497631171875,-0.0554018264160145,0.260553679250467,0.286859999999933,
0.0804930598144533,0.175542865722656,0.19120094458008,0.27175767071553,0.290647000000035,
-0.0607648381347655,-0.219500408203125,-0.0961032546386704,0.247201598512283,0.294341000000031,
0.00387860668945328,-0.281749651367188,0.160076322998048,0.324071502634771,0.298052999999982,
-0.0487938298339842,-0.150068560058594,-0.208630732666014,0.261587830681562,0.301588999999922,
0.0158496149902345,0.527490509765625,0.193595146240236,0.562117895850965,0.304548000000068,
0.0254264216308596,0.381444208496094,0.179229936279299,0.422219797227514,0.307479000000058,
-0.0487938298339842,-0.442161162597656,-0.127227876220703,0.46268160113323,0.310451000000057,
0.00387860668945328,-0.736647966796875,-0.376224848876952,0.827170120040797,0.313376000000062,
0.00148440502929703,0.331165973632813,0.272603801025392,0.428935820238822,0.316399999999931,
0.12119448803711,0.776487482421875,0.351612455810548,0.860960064909844,0.31934699999988,
-0.0224576115722654,-0.42061334765625,-0.299610395751952,0.516900688514505,0.322226999999884,
-0.146956097900391,-0.602572673828125,-0.105680061279296,0.629172629177781,0.325204999999869,
0.0709162531738283,0.673536811035156,0.19120094458008,0.703732017171265,0.328160000000025,
0.166684319580078,0.379050006835937,0.107403886474611,0.42778284783994,0.331187,
-0.0200634099121092,-0.767772588378906,-0.0769496413574213,0.771879870956863,0.334079999999858,
-0.213993744384765,-0.411036541015625,0.0331836350097667,0.464591771686029,0.336992999999893,
0.0565510432128908,0.781275885742188,-0.0458250197753891,0.784659137822355,0.340016999999989,
0.288788604248047,0.446087653320312,0.133740104736329,0.547977616334137,0.342979999999898,
0.0373974299316408,-0.676792925292969,0.0164242233886736,0.678024325969229,0.346064999999953,
-0.142167694580078,-0.480468389160156,0.0116358200683599,0.501195489477941,0.349083999999948,
-0.113437274658203,0.472423871582031,0.0140300217285176,0.48605469983546,0.352114999999912,
0.15950171459961,0.359896393554687,0.083461869873048,0.402407871166297,0.355211000000054,
0.25526978100586,-0.437372759277344,-0.0386424147949214,0.507888597897058,0.358128999999963,
-0.0679474431152342,-0.202740996582031,0.085856071533204,0.230417082136043,0.361130999999887,
-0.333703827392578,0.359896393554687,-0.00991199487304506,0.490899079396661,0.364062999999987,
0.10204087475586,0.0869574042968749,-0.0194888015136705,0.135475989265369,0.367097999999942,
0.384556670654297,-0.394277129394531,0.047548844970704,0.552810257110301,0.370036000000027,
-0.017669208251953,-0.159645366699219,0.0116358200683599,0.16104110139167,0.372955999999931,
-0.357645843994141,0.292858747070312,-0.0601902297363264,0.466154115306929,0.375976000000037,
0.114011883056641,0.266522528808594,0.0379720383300786,0.292360810533132,0.37894899999992,
0.288788604248047,-0.193164189941406,0.12655749975586,0.369767579654719,0.381961000000047,
-0.211599542724609,-0.463708977539063,-0.0410366164550773,0.511355440199542,0.38488099999995,
-0.221176349365234,0.0510443793945311,-0.0961032546386704,0.246496129256526,0.387834999999995,
0.37019146069336,0.580162946289063,0.128951701416018,0.700185192013638,0.390879000000041,
0.363008855712891,0.177937067382812,0.0619140549316413,0.4089870162644,0.393820999999889,
-0.407924078857422,-0.616937883789063,-0.048219221435545,0.741174405846325,0.396815000000061,
-0.281031390869141,-0.224288811523438,-0.0793438430175772,0.368211296748535,0.399729999999863,
0.346249444091797,0.587345551269531,0.0786734665527362,0.686333001151345,0.402675999999929,
0.221750957763672,0.0869574042968749,0.0355778366699226,0.240833676825455,0.40569400000004,
-0.309761810791016,-0.595390068847656,-0.0386424147949214,0.672261072596152,0.408590999999888,
-0.168503912841797,-0.0399352836914064,-0.0721612380371077,0.187605010065182,0.411573999999973,
0.360614654052735,0.501154291503906,0.0714908615722667,0.621538008410347,0.414520999999922,
0.0948582697753907,-0.0423294853515627,0.0810676682128921,0.131764348381436,0.417457000000013,
-0.314550214111328,-0.451737969238281,-0.0554018264160145,0.553243519997513,0.420435999999881,
0.0326090266113283,0.00316034619140615,0.0355778366699226,0.0483644380376692,0.423387000000048,
0.27442339428711,0.364684796875,0.105009684814455,0.468327059124977,0.426412000000028,
-0.0918894597167967,0.0534385810546874,0.0355778366699226,0.112094322845963,0.429335000000037,
-0.182869122802734,-0.274567046386719,-0.0625844313964823,0.335775207675298,0.432223000000022,
0.200203142822266,-0.164433770019531,0.0331836350097667,0.261191341263852,0.435234999999921,
0.240904571044922,0.137235639160156,0.0690966599121108,0.285732359765296,0.43818199999987,
-0.12780248461914,0.242580512207031,0.0331836350097667,0.276188221345358,0.441192999999885,
-0.216387946044922,-0.147674358398438,-0.0218830031738264,0.262888427188866,0.444109000000026,
0.214568352783203,-0.308085869628906,-0.0147003981933587,0.375729401016396,0.44701699999996,
0.233721966064453,0.0462559760742186,0.064308256591799,0.246781532148353,0.450055999999904,
-0.190051727783203,0.323983368652344,0.109798088134767,0.391331703998987,0.452988999999889,
-0.223570551025391,0.0318907661132811,-0.0242772048339823,0.227134750585726,0.455995999999914,
0.245692974365235,-0.262596038085938,0.0140300217285176,0.359886868863772,0.458947999999964,
0.228933562744141,-0.0255700737304688,0.047548844970704,0.235213302088456,0.461955999999873,
-0.123014081298828,0.23060950390625,-0.02667140649414,0.262725277455476,0.464887999999974,
-0.211599542724609,0.185119672363281,-0.00751779321288915,0.281247536508223,0.467809999999872,
0.226539361083985,-0.221894609863281,-0.00272938989257732,0.317119456318756,0.470810000000029,
0.154713311279297,-0.147674358398438,-0.000335188232421402,0.213878557051767,0.473741000000018,
-0.199628534423828,0.1731486640625,-0.00512359155273323,0.264307137272593,0.476734999999962,
-0.046399628173828,0.0725921943359373,0.0140300217285176,0.087289138401514,0.479679000000033,
0.267240789306641,-0.15246276171875,-0.00991199487304506,0.307832390794906,0.482616000000007,
0.0254264216308596,-0.0159932670898438,-0.00751779321288915,0.0309645720776033,0.485723000000007,
-0.245118365966797,0.185119672363281,-0.0434308181152332,0.310223374993374,0.488767000000053,
0.039791631591797,0.0151313544921874,0.0236068283691413,0.0486786830055583,0.491910999999845,
0.272029192626953,-0.135703350097656,-0.0338540114746078,0.305878039358699,0.494866999999886,
0.0230322199707033,-0.0399352836914064,-0.00272938989257732,0.0461818103746235,0.497785000000022,
-0.218782147705078,0.11568782421875,0.0283952316894549,0.249109594374871,0.50080899999989,
0.00148440502929703,0.0151313544921874,0.064308256591799,0.0660811108633617,0.503758999999945,
0.238510369384766,-0.0973961235351564,-0.0147003981933587,0.25804903195086,0.506791999999905,
0.039791631591797,-0.0447236870117189,0.00684741674804812,0.0602533753476181,0.509738999999854,
-0.151744501220703,0.0510443793945311,0.0116358200683599,0.160522006675583,0.512645999999904,
0.00627280834960953,0.0390733710937499,0.0116358200683599,0.0412488637647641,0.515691000000061,
0.171472722900391,-0.0734541069335939,0.064308256591799,0.19731688318581,0.518612999999959,
-0.0152750065917967,-0.0207816704101563,-0.0530076247558586,0.0589492318327704,0.521618999999873,
-0.046399628173828,0.0055545478515624,-0.012306196533201,0.0483241240957201,0.52457000000004,
0.0757046564941408,-0.0231758720703126,-0.0673728347167959,0.103958717378063,0.527511999999888,
0.087675664794922,-0.0471178886718752,-0.0147003981933587,0.100614210413689,0.530520000000024,
-0.0511880314941405,-0.00162805712890635,0.0044532150878922,0.0514071615913496,0.533451999999897,
0.00148440502929703,0.0199197578124999,-0.0410366164550773,0.0456399397423,0.536475999999993,
0.0900698664550782,-0.0159932670898438,0.0762792648925803,0.119108738923704,0.539424000000054,
0.0254264216308596,-0.0590888969726564,0.0283952316894549,0.070315644383688,0.542342999999846,
-0.0128808049316405,-0.0207816704101563,0.0619140549316413,0.0665668322725487,0.545327999999927,
0.039791631591797,0.0127371528320311,0.0571256516113294,0.0707739293739072,0.548285999999962,
0.0302148249511721,-0.0112048637695313,0.0307894333496108,0.0445698757560962,0.551275999999916,
0.00387860668945328,-0.0710599052734376,-0.0170945998535146,0.0731900202997183,0.554208999999901,
0.00387860668945328,0.0294965644531249,0.0547314499511735,0.0622946427724458,0.557236999999986,
0.0373974299316408,0.0869574042968749,-0.0362482131347637,0.101361190220939,0.56017299999985,
0.00866701000976578,-0.0758483085937501,0.0379720383300786,0.08526405264813,0.563108000000057,
-0.0152750065917967,-0.0590888969726564,-0.0218830031738264,0.0648358650727384,0.566082000000051,
0.049368438232422,-0.0135990654296876,0.0547314499511735,0.0749513768240931,0.569029,
0.0469742365722658,0.0821690009765624,0.026001030029299,0.0981548632805223,0.572055999999975,
0.00148440502929703,-0.00641646044921884,0.0164242233886736,0.0176954665637401,0.574994000000061,
0.0230322199707033,-0.0950019218750001,0.0379720383300786,0.104870033907039,0.577919000000065,
-0.0128808049316405,0.00316034619140615,-0.012306196533201,0.0180926890442045,0.580944999999929,
0.0373974299316408,0.106111017578125,-0.00751779321288915,0.112759181585132,0.583899999999858,
0.0278206232910158,-0.0447236870117189,0.0188184250488295,0.0559314614643782,0.58692300000007,
0.00387860668945328,-0.0614830986328126,-0.00272938989257732,0.0616657488118757,0.589856999999938,
-0.017669208251953,0.0438617744140624,-0.0194888015136705,0.0511455722369026,0.592772999999852,
0.011061211669922,0.0486501777343749,0.0523372482910176,0.0723075221250784,0.595814000000018,
0.039791631591797,-0.0590888969726564,0.0978270798339853,0.121016565969405,0.598754999999983,
-0.00569819995117171,-0.0135990654296876,0.047548844970704,0.0497824941248678,0.601742000000058,
-0.017669208251953,0.0414675727539061,0.0355778366699226,0.0574242368034881,0.604689000000008,
-0.00569819995117171,-0.0327526787109377,-0.0147003981933587,0.0363498164021326,0.607576999999992,
0.039791631591797,-0.0662715019531251,0.047548844970704,0.0907533942831254,0.610603999999967,
0.058945244873047,0.0103429511718749,0.0044532150878922,0.0600112460852655,0.613554999999906,
0.0158496149902345,0.0558327827148436,0.0283952316894549,0.0646126853158064,0.616577000000007,
-0.0344286198730467,-0.00402225878906259,0.0116358200683599,0.036563653274696,0.619480999999951,
0.0230322199707033,-0.0638773002929689,-0.0506134230957009,0.0846906798116618,0.622474999999895,
0.0302148249511721,0.0151313544921874,-0.0314598098144518,0.046169396456524,0.625606000000062,
0.00866701000976578,0.0510443793945311,0.00684741674804812,0.0522257871784013,0.628668000000062,
-0.0703416447753905,-0.0447236870117189,0.0451546433105481,0.0948003005381958,0.631728000000066,
-0.0128808049316405,-0.0471178886718752,-0.000335188232421402,0.048847957170524,0.634634999999889,
0.0613394465332033,0.0151313544921874,-0.00751779321288915,0.0636239169224884,0.637569999999869,
0.0373974299316408,0.0438617744140624,0.0140300217285176,0.0593233894003432,0.64059199999997,
0.00148440502929703,0.000766144531249902,0.0188184250488295,0.0188924206244774,0.64358100000004,
0.00148440502929703,-0.0447236870117189,-0.0362482131347637,0.0575877121760923,0.646577999999863,
0.049368438232422,-0.0231758720703126,0.0331836350097667,0.0638397789171405,0.649537999999893,
0.00148440502929703,0.0151313544921874,0.0379720383300786,0.0409027754804023,0.652552000000014,
-0.0200634099121092,-0.0135990654296876,0.0523372482910176,0.0576772273652078,0.655469999999923,
0.0254264216308596,-0.0183874687500001,0.00684741674804812,0.0321168030803803,0.658418999999867,
0.0709162531738283,-0.0112048637695313,0.047548844970704,0.0861136260667051,0.661442999999963,
0.049368438232422,0.0103429511718749,0.0667024582519549,0.0836267736392242,0.664440999999897,
-0.0248518132324217,-0.0327526787109377,0.0164242233886736,0.0442730809589996,0.667433999999957,
0.049368438232422,-0.00402225878906259,-0.0601902297363264,0.0779505292797067,0.670357999999851,
0.0373974299316408,0.00316034619140615,0.0236068283691413,0.0443377705708306,0.673313000000007,
0.0182438166503908,-0.00881066210937509,0.047548844970704,0.0516851745747917,0.676322999999911,
0.011061211669922,-0.0303584770507814,0.00684741674804812,0.0330283915528912,0.679259000000002,
0.0158496149902345,-0.00881066210937509,0.0164242233886736,0.0244661639017092,0.682276000000002,
0.0254264216308596,0.00316034619140615,0.0738850632324226,0.0782016193813073,0.685218999999961,
0.058945244873047,0.000766144531249902,-0.00751779321288915,0.0594276542139937,0.688143999999966,
0.00387860668945328,-0.0231758720703126,0.064308256591799,0.0684669007765623,0.691166000000067,
-0.00569819995117171,-0.0135990654296876,0.047548844970704,0.0497824941248678,0.694105000000036,
0.0421858332519533,-0.0112048637695313,0.00684741674804812,0.0441823563809901,0.697124000000031,
0.039791631591797,-0.0183874687500001,0.0499430466308599,0.0664513420371762,0.700064999999995,
0.00627280834960953,-0.0112048637695313,-0.0338540114746078,0.0362076123157488,0.702984000000015,
0.00627280834960953,-0.00402225878906259,0.026001030029299,0.0270477402557336,0.706005000000005,
0.039791631591797,0.0271023627929686,-0.0194888015136705,0.0519396322487774,0.708961000000045,
0.0445800349121095,-0.0303584770507814,-0.00272938989257732,0.0540043165940782,0.71196800000007,
0.00148440502929703,-0.0303584770507814,-0.0147003981933587,0.0337630314719684,0.714890999999852,
-0.00330399829101546,-0.0543004936523439,0.0595198532714853,0.0806354323424536,0.717818999999963,
0.0541568415527345,0.0055545478515624,0.0427604416503922,0.0692262367815836,0.720855999999912,
0.0254264216308596,-0.0135990654296876,0.0667024582519549,0.072668118417673,0.723793999999998,
0.0134554133300783,-0.00162805712890635,-0.0434308181152332,0.0454965348137273,0.726793999999927,
-0.000909796630859216,-0.0255700737304688,-0.0314598098144518,0.0405509066982801,0.729706999999962,
0.0134554133300783,-0.0303584770507814,0.00205901342773629,0.0332704796031207,0.732631999999967,
0.00866701000976578,-0.0255700737304688,0.0331836350097667,0.0427796606526093,0.735639999999876,
0.0230322199707033,-0.0327526787109377,-0.00272938989257732,0.0401331619574944,0.738560999999891,
0.00387860668945328,-0.00402225878906259,-0.000335188232421402,0.00559772335586681,0.741567999999916,
0.0373974299316408,-0.0471178886718752,0.00205901342773629,0.0601905535336136,0.744507999999996,
0.0445800349121095,0.0055545478515624,-0.0290656081542959,0.0535074022166959,0.747523999999885,
0.0182438166503908,0.00316034619140615,-0.0506134230957009,0.0538938144083998,0.750471999999945,
0.0278206232910158,-0.0255700737304688,0.0547314499511735,0.0665082503501636,0.753400000000056,
-0.036822821533203,-0.0375410820312502,-0.00991199487304506,0.0535116872104258,0.756368000000066,
0.00387860668945328,0.0103429511718749,0.0236068283691413,0.026063433665681,0.759342999999944,
0.020638018310547,-0.0423294853515627,0.0236068283691413,0.052678225820207,0.762440999999853,
0.0445800349121095,-0.00881066210937509,0.0523372482910176,0.0693122993288068,0.765482999999904,
0.0350032282714846,0.0438617744140624,-0.0194888015136705,0.0594045000704071,0.768522999999959,
0.0421858332519533,-0.0566946953125002,0.0116358200683599,0.0716193082373886,0.771583999999848,
-0.00330399829101546,-0.0447236870117189,0.0499430466308599,0.0671225185120573,0.774499999999989,
0.0517626398925783,0.0055545478515624,0.0116358200683599,0.0533443174025808,0.777536000000055,
-0.0248518132324217,0.0247081611328124,0.0164242233886736,0.0387022087409135,0.780455999999958,
0.0445800349121095,0.0103429511718749,0.0188184250488295,0.0494822116828574,0.783422999999857,
-0.0248518132324217,-0.0279642753906251,0.0595198532714853,0.0703009690724177,0.786401000000069,
0.0445800349121095,-0.0159932670898438,0.0283952316894549,0.0552218551632396,0.789342999999917,
-0.0128808049316405,0.0271023627929686,0.0714908615722667,0.0775331960710615,0.792372999999998,
0.0373974299316408,0.0151313544921874,-0.000335188232421402,0.0403439959028772,0.795314999999846,
0.0326090266113283,-0.0327526787109377,0.0355778366699226,0.0583255436442038,0.798266999999896,
0.0637336481933595,-0.00162805712890635,0.00924161840820403,0.0644207729917358,0.801296999999977,
0.0373974299316408,-0.0135990654296876,-0.0147003981933587,0.0424217403355427,0.804255999999896,
0.0182438166503908,-0.0279642753906251,0.0331836350097667,0.0470743154656253,0.807284999999865,
0.0469742365722658,-0.0375410820312502,0.0331836350097667,0.0686808952626978,0.81021799999985,
0.0254264216308596,0.0055545478515624,0.0379720383300786,0.0460351128349491,0.813161000000036,
0.0350032282714846,-0.00641646044921884,0.0667024582519549,0.0756016857680821,0.816160999999965,
0.0541568415527345,-0.0231758720703126,-0.0242772048339823,0.0637139482981445,0.81908199999998,
0.0302148249511721,0.0103429511718749,0.0212126267089854,0.0383391160261751,0.822108999999955,
-0.00330399829101546,-0.0279642753906251,0.0451546433105481,0.053215213194467,0.825018999999884,
0.0230322199707033,-0.0183874687500001,0.0164242233886736,0.0337392542557204,0.82794899999999,
0.0134554133300783,-0.0399352836914064,-0.0147003981933587,0.0446315666142212,0.83095000000003,
0.0134554133300783,0.0199197578124999,-0.0362482131347637,0.0434945727034437,0.833912000000055,
-0.0320344182128905,0.0127371528320311,-0.0506134230957009,0.0612385304360688,0.836920999999847,
0.0254264216308596,0.000766144531249902,0.0140300217285176,0.0290504974844784,0.839888999999857,
0.00148440502929703,-0.0471178886718752,0.0236068283691413,0.0527217340082467,0.842893999999887,
0.020638018310547,-0.00641646044921884,0.00205901342773629,0.0217103270536964,0.845833999999968,
0.020638018310547,-0.0135990654296876,0.0523372482910176,0.0578796159197953,0.848770000000059,
-0.00809240161132796,-0.00881066210937509,0.0236068283691413,0.0264650160834014,0.851762000000008,
0.020638018310547,0.0055545478515624,0.0523372482910176,0.056532896266664,0.854718999999932,
0.00866701000976578,0.000766144531249902,-0.000335188232421402,0.0087072608266491,0.857737000000043,
0.0326090266113283,0.000766144531249902,0.00684741674804812,0.0333290070374521,0.860692999999856,
0.0302148249511721,0.0151313544921874,0.047548844970704,0.0583334054693042,0.863619999999855,
0.039791631591797,-0.0495120903320314,-0.00272938989257732,0.0635788534260429,0.866610999999921,
0.00627280834960953,-0.0159932670898438,0.0212126267089854,0.0272966710185102,0.869556999999986,
0.00387860668945328,-0.0159932670898438,-0.000335188232421402,0.0164602713589329,0.872558000000026,
0.0326090266113283,-0.0159932670898438,-0.0147003981933587,0.0391820739087239,0.875493000000006,
0.0373974299316408,-0.0231758720703126,0.00684741674804812,0.0445261263510866,0.878420000000006,
0.0373974299316408,0.0127371528320311,0.083461869873048,0.0923400592942419,0.881443999999874,
0.049368438232422,0.0103429511718749,0.0379720383300786,0.0631355290418415,0.884395999999924,
0.011061211669922,-0.0159932670898438,-0.000335188232421402,0.0194485821325117,0.887383999999884,
0.0134554133300783,-0.0112048637695313,0.0140300217285176,0.0224374381264814,0.89032700000007,
0.00866701000976578,-0.0351468803710939,-0.00272938989257732,0.036302476933607,0.893231000000014,
0.0350032282714846,-0.0112048637695313,-0.0290656081542959,0.0468570649838259,0.896232999999938,
0.0373974299316408,0.0318907661132811,-0.00991199487304506,0.0501381727942618,0.899257999999918,
0.0254264216308596,-0.0207816704101563,0.0307894333496108,0.0450152190706292,0.902376000000004,
-0.000909796630859216,-0.0255700737304688,-0.0362482131347637,0.0443687880830025,0.905383000000029,
-0.0152750065917967,0.00794874951171864,-0.00751779321288915,0.0187889770868784,0.908384000000069,
0.0302148249511721,0.0055545478515624,-0.00751779321288915,0.0316276123578279,0.911403999999948,
0.00387860668945328,0.00794874951171864,0.0164242233886736,0.0186542574918588,0.914362999999867,
0.0158496149902345,-0.0255700737304688,0.0188184250488295,0.035484814882407,0.917361999999912,
0.011061211669922,0.0103429511718749,-0.00751779321288915,0.0169069292700469,0.920335000000023,
0.0278206232910158,-0.0159932670898438,0.0427604416503922,0.0534623890472946,0.923271999999997,
0.0182438166503908,-0.0351468803710939,0.0595198532714853,0.0714895305569438,0.926288999999997,
0.00148440502929703,-0.0112048637695313,0.00684741674804812,0.0132151256712227,0.929222999999865,
0.0158496149902345,-0.00881066210937509,0.0283952316894549,0.0336916494823579,0.932252999999946,
0.0421858332519533,0.0055545478515624,0.0164242233886736,0.0456097867010794,0.93521399999986,
0.011061211669922,-0.00881066210937509,0.0116358200683599,0.018313123138221,0.938216000000011,
0.0230322199707033,0.00794874951171864,0.0116358200683599,0.0270010756126892,0.941204999999854,
0.0158496149902345,0.0151313544921874,-0.000335188232421402,0.0219153036770669,0.94416299999989,
0.0134554133300783,0.0271023627929686,-0.0314598098144518,0.0436498092825893,0.947185999999874,
0.0158496149902345,-0.00162805712890635,0.0523372482910176,0.0547087600300836,0.950147000000015,
0.011061211669922,0.0055545478515624,-0.0242772048339823,0.0272504326569919,0.953158999999914,
0.0182438166503908,0.0247081611328124,0.00684741674804812,0.0314677166101951,0.956118999999944,
0.0230322199707033,0.0055545478515624,-0.0170945998535146,0.0292157748958665,0.95904500000006,
0.00148440502929703,-0.0183874687500001,0.0212126267089854,0.0281118835587015,0.962062999999944,
0.058945244873047,0.00794874951171864,0.026001030029299,0.0649136201003151,0.965015999999878,
0.0230322199707033,-0.0159932670898438,0.047548844970704,0.0552010906326495,0.968035999999984,
0.020638018310547,-0.0183874687500001,-0.000335188232421402,0.027643067086882,0.970980000000054,
0.0254264216308596,-0.0183874687500001,0.0283952316894549,0.0423189213789801,0.973915000000034,
0.00627280834960953,-0.00641646044921884,0.0283952316894549,0.0297793262513635,0.976926999999932,
0.0254264216308596,0.0127371528320311,0.0523372482910176,0.0595644653958414,0.979898000000048,
0.0230322199707033,-0.00881066210937509,0.0212126267089854,0.0325282408912502,0.982907999999952,
0.0302148249511721,-0.00402225878906259,0.00684741674804812,0.0312410199692265,0.985846000000038,
0.0302148249511721,-0.00162805712890635,0.0116358200683599,0.0324187989522777,0.988783999999896,
0.020638018310547,-0.0399352836914064,-0.0170945998535146,0.0480934509829703,0.991778000000068,
0.0254264216308596,-0.00641646044921884,-0.0314598098144518,0.0409559948628783,0.994719999999916,
0.0350032282714846,0.00316034619140615,0.0212126267089854,0.0410510573477706,0.997767000000067,
0.00387860668945328,-0.0447236870117189,0.00684741674804812,0.0454107794019781,1.00069299999996,
0.0278206232910158,-0.00641646044921884,0.0403662399902363,0.0494428091429517,1.00362500000006,
0.0445800349121095,-0.0135990654296876,0.0427604416503922,0.0632516360536423,1.00663199999985,
0.00148440502929703,0.0151313544921874,-0.0194888015136705,0.0247179030562564,1.00958500000002,
