X,Y,Z,Magnitude,Seconds,
0.0230322199707033,-0.0112048637695313,0.0714908615722667,0.0759406045355028,0.0,
0.00148440502929703,0.0175255561523436,0.0116358200683599,0.0210888806104829,0.00400000000013279,
0.0278206232910158,-0.00162805712890635,0.00684741674804812,0.0286971212221199,0.00790500000016436,
0.0326090266113283,-0.0183874687500001,0.0283952316894549,0.0469865598471347,0.0119100000001708,
0.0158496149902345,0.0318907661132811,0.0164242233886736,0.0392171693592452,0.0157850000000508,
0.00387860668945328,0.0055545478515624,0.0283952316894549,0.029192221127975,0.0197070000001531,
-0.000909796630859216,-0.0327526787109377,0.0116358200683599,0.0347700733579134,0.0236270000000331,
-0.0152750065917967,-0.00162805712890635,-0.0721612380371077,0.0737781856068753,0.0274590000001353,
-0.0272460148925779,-0.00162805712890635,0.0331836350097667,0.0429668422158643,0.0313860000001114,
0.0230322199707033,-0.00881066210937509,-0.000335188232421402,0.0246621830894103,0.0353529999999864,
0.020638018310547,-0.0112048637695313,0.0355778366699226,0.0426293236398599,0.0392120000001341,
0.0326090266113283,-0.0112048637695313,-0.00991199487304506,0.0358768063098619,0.0430479999999989,
0.00387860668945328,-0.0135990654296876,0.0283952316894549,0.0317217173732794,0.0468359999999848,
0.00866701000976578,0.0438617744140624,-0.02667140649414,0.0520608897507057,0.0506219999999757,
-0.0104866032714842,0.0151313544921874,0.00205901342773629,0.0185247475890318,0.0545240000001286,
-0.00569819995117171,-0.0375410820312502,0.0619140549316413,0.0726302452208367,0.0583100000001195,
0.020638018310547,-0.0519062919921877,0.0212126267089854,0.0597508701196851,0.062261000000035,
0.0302148249511721,-0.0399352836914064,-0.0338540114746078,0.0604471390825567,0.0661860000000161,
0.0158496149902345,0.000766144531249902,0.0714908615722667,0.0732307350852525,0.070229000000154,
0.020638018310547,-0.00641646044921884,-0.0147003981933587,0.0261381038242288,0.0740780000000996,
0.0445800349121095,-0.0135990654296876,0.0547314499511735,0.0718877298784962,0.0780490000001919,
0.0254264216308596,0.000766144531249902,0.00924161840820403,0.0270646892684151,0.0820200000000568,
-0.00569819995117171,0.0199197578124999,0.0212126267089854,0.0296520111609136,0.0859750000001895,
0.0182438166503908,0.0055545478515624,-0.0242772048339823,0.0308718726733495,0.0898720000000139,
-0.0128808049316405,-0.0207816704101563,-0.0577960280761705,0.0627548709034193,0.0938410000001113,
-0.0104866032714842,-0.0112048637695313,0.0164242233886736,0.0224782769399327,0.0977570000000014,
0.0158496149902345,-0.00641646044921884,0.00924161840820403,0.0194367891082327,0.101696000000175,
-0.0104866032714842,-0.0135990654296876,0.0116358200683599,0.0207435709895301,0.10570400000006,
0.00387860668945328,-0.0279642753906251,-0.0769496413574213,0.0819651852496531,0.109814000000142,
-0.000909796630859216,-0.0159932670898438,0.0379720383300786,0.0412127166910598,0.113829000000123,
-0.00569819995117171,-0.00641646044921884,0.047548844970704,0.0483170063789963,0.11774800000012,
0.0278206232910158,0.0199197578124999,0.0882502731933599,0.0946514371275572,0.121673000000101,
0.0661278498535158,-0.0183874687500001,-0.0625844313964823,0.0928859654980361,0.125549999999976,
-0.00809240161132796,-0.0423294853515627,0.0140300217285176,0.0453223322840943,0.129466000000093,
0.049368438232422,-0.0327526787109377,0.0499430466308599,0.0774873445345924,0.133457000000135,
0.00627280834960953,-0.0135990654296876,-0.0434308181152332,0.0459403816626541,0.137335000000121,
-0.00809240161132796,-0.0112048637695313,0.0571256516113294,0.0587739398709306,0.141334000000143,
-0.000909796630859216,-0.00162805712890635,0.0451546433105481,0.0451931423163662,0.145194000000174,
-0.0344286198730467,-0.0135990654296876,0.0451546433105481,0.0583884086050176,0.149188000000095,
0.0278206232910158,-0.0183874687500001,-0.0745554396972636,0.08167373920536,0.15302900000006,
0.0254264216308596,0.00794874951171864,0.0116358200683599,0.0290702226412791,0.157044000000042,
0.0278206232910158,0.00794874951171864,0.00205901342773629,0.0290070549245568,0.160923000000139,
0.00387860668945328,-0.0231758720703126,0.0403662399902363,0.0467075793316279,0.164825000000064,
0.0421858332519533,-0.0471178886718752,-0.00512359155273323,0.0634506985813085,0.168822000000091,
0.0182438166503908,0.0127371528320311,0.0044532150878922,0.0226914748938588,0.172774000000118,
0.0134554133300783,-0.0255700737304688,0.0619140549316413,0.0683244247435948,0.176705000000084,
0.00627280834960953,-0.0159932670898438,0.0595198532714853,0.0619495411626039,0.180618000000095,
0.0326090266113283,-0.0159932670898438,-0.00512359155273323,0.0366794819912255,0.184537000000091,
0.00387860668945328,0.000766144531249902,-0.00991199487304506,0.0106713733726033,0.188436000000138,
-0.00809240161132796,-0.0638773002929689,0.0140300217285176,0.0658986947234907,0.192211000000043,
0.0278206232910158,-0.0207816704101563,0.026001030029299,0.043381084217911,0.19604900000013,
0.00627280834960953,0.0127371528320311,-0.0218830031738264,0.0260854176651083,0.19991600000003,
0.0158496149902345,0.000766144531249902,0.00684741674804812,0.0172824879257265,0.203766000000087,
0.011061211669922,0.0175255561523436,-0.0386424147949214,0.0438489651330397,0.207642000000078,
-0.0248518132324217,-0.0207816704101563,0.0331836350097667,0.0463750372338066,0.211590000000115,
0.011061211669922,-0.0375410820312502,-0.00991199487304506,0.0403724025300346,0.215589000000136,
0.00148440502929703,-0.0279642753906251,0.0331836350097667,0.0434207069135814,0.219430000000102,
0.00387860668945328,-0.0159932670898438,0.0307894333496108,0.0349115652477611,0.223364000000174,
0.0230322199707033,-0.0399352836914064,-0.0147003981933587,0.0483881364317255,0.227204000000029,
0.0254264216308596,0.0271023627929686,0.0044532150878922,0.0374282261205492,0.23109599999998,
0.0134554133300783,-0.0375410820312502,-0.00272938989257732,0.0399728727657396,0.234893000000056,
-0.0104866032714842,-0.0159932670898438,-0.012306196533201,0.0227419417265622,0.238772000000154,
-0.000909796630859216,-0.0112048637695313,0.0547314499511735,0.0558740397301027,0.242685000000165,
0.0230322199707033,0.0103429511718749,0.0212126267089854,0.0329762843209694,0.24655000000007,
0.00148440502929703,0.00794874951171864,-0.00512359155273323,0.00957273563252893,0.250504000000092,
0.0637336481933595,0.000766144531249902,0.0571256516113294,0.0855915005213524,0.254429000000073,
-0.0104866032714842,-0.0183874687500001,-0.0170945998535146,0.0272083295951353,0.258417000000009,
-0.0104866032714842,-0.0135990654296876,0.0164242233886736,0.0237625449532553,0.262259000000086,
0.00627280834960953,-0.0183874687500001,0.0954328781738294,0.0973903556219204,0.266082999999981,
0.0302148249511721,0.0127371528320311,0.0044532150878922,0.0330908119228815,0.269901000000118,
-0.0128808049316405,0.0151313544921874,0.0762792648925803,0.0788251183126778,0.273762000000033,
0.0326090266113283,-0.00402225878906259,-0.00272938989257732,0.0329693304677273,0.27761200000009,
0.0302148249511721,0.0103429511718749,0.0738850632324226,0.0804917067444395,0.281557000000021,
0.0445800349121095,-0.0112048637695313,0.0547314499511735,0.0714734922794211,0.285495000000083,
0.039791631591797,0.0055545478515624,0.0283952316894549,0.0491987411350171,0.289490999999998,
-0.0104866032714842,-0.00881066210937509,0.0116358200683599,0.0179718926004561,0.293456999999989,
0.00866701000976578,-0.0112048637695313,-0.0458250197753891,0.0479645543293997,0.297308000000157,
0.0182438166503908,-0.0614830986328126,-0.012306196533201,0.0653027620899684,0.301204000000098,
0.0445800349121095,-0.0566946953125002,0.239084977783204,0.249726439511192,0.305020000000013,
0.078098858154297,-0.264990239746094,-0.989140473876953,1.02699471072991,0.30896400000006,
-0.24272416430664,0.716632440917969,0.854394804443361,1.14125700750279,0.312951999999996,
0.185837932861328,-1.22745930712891,-0.445656697021484,1.31901553423288,0.315941000000066,
0.348643645751953,-0.683975530273438,-0.591702998291014,0.969271559431421,0.318893000000116,
-0.0894952580566405,1.22420319287109,0.0954328781738294,1.23117435519383,0.321968000000197,
-0.716776093017578,1.5522088203125,0.981287492431642,1.97130548930911,0.324899000000187,
0.226539361083985,-2.35991669238281,-0.165535102783203,2.37653713359603,0.327943000000005,
1.05972153881836,-1.44293745654297,-1.01308249047851,2.05704019791651,0.330918000000111,
-0.336098029052734,3.28082241894531,0.703560099853517,3.37220320323275,0.333879000000024,
-1.20758743334961,0.72860344921875,0.0116358200683599,1.41041333931086,0.33691500000009,
0.300759612548828,-3.66236239550781,0.15289371801758,3.67787046394778,0.339887999999974,
1.32308372143555,-0.176404778320313,-0.562972578369139,1.44865706906002,0.342902999999978,
-0.415106683837891,3.78839317089844,0.294151615966799,3.82240258861527,0.345843000000059,
-1.06393533374023,-0.437372759277344,0.303728422607422,1.1897496709974,0.348809000000074,
0.537785576904297,-3.57377693408203,-0.234966950927733,3.62164387665758,0.351888000000145,
0.609611626708985,0.853101935546875,-0.342706025634765,1.10311226439514,0.354853000000048,
-0.312156012451172,3.00548922802734,0.447380522216799,3.05459591559289,0.357897000000094,
-0.345674835693359,-1.00479855273438,0.0762792648925803,1.06533081709921,0.360859000000119,
0.183443731201172,-2.34315728076172,-0.469598713623046,2.39678129931374,0.363802000000078,
0.142742302978516,0.869861347167969,-0.0218830031738264,0.881766972722606,0.366861000000199,
0.104435076416016,1.83951301953125,0.471322538818361,1.90180434582771,0.369807000000037,
-0.111043072998047,-0.65045670703125,-0.00512359155273323,0.659886916807104,0.372869000000037,
-0.16610971118164,-1.3591403984375,-0.290033589111326,1.39963371695115,0.375864000000092,
0.0302148249511721,0.280887738769531,-0.0170945998535146,0.283024880146679,0.378918999999996,
0.209779949462891,1.01830185009766,0.356400859130861,1.0990759107078,0.381898999999976,
0.087675664794922,-0.116549736816406,-0.0386424147949214,0.150877763671085,0.384846000000152,
-0.103860468017578,-0.782137798339844,-0.263697370849608,0.831903140877425,0.387838000000102,
-0.182869122802734,-0.00162805712890635,0.0355778366699226,0.186304989484362,0.390834000000041,
0.039791631591797,0.448481854980469,0.064308256591799,0.454813038574463,0.39387499999998,
0.262452385986328,0.0989284125976562,0.0307894333496108,0.282163206203429,0.396903000000066,
0.149924907958985,-0.403853936035156,-0.0362482131347637,0.432307081405176,0.399863000000096,
-0.304973407470703,-0.102184526855469,-0.000335188232421402,0.321637325483406,0.402991000000156,
-0.230753156005859,0.371867401855469,0.0547314499511735,0.441053188610125,0.40600500000005,
0.291182805908203,0.0223139594726561,0.0236068283691413,0.292989115138382,0.409099000000197,
0.310336419189453,-0.437372759277344,-0.00991199487304506,0.536378477640157,0.412060999999994,
-0.302579205810547,0.0223139594726561,-0.00991199487304506,0.303562738521466,0.415130999999974,
-0.0918894597167967,0.278493537109375,-0.0170945998535146,0.293759337490551,0.41818000000012,
0.341461040771485,-0.308085869628906,0.047548844970704,0.462356397260591,0.421142000000145,
0.0804930598144533,-0.178798979980469,-0.0242772048339823,0.197579327347019,0.424207000000024,
-0.187657526123047,0.182725470703125,0.0547314499511735,0.267580784751182,0.427203000000191,
-0.017669208251953,0.120476227539062,0.0283952316894549,0.125032041913234,0.430186000000049,
0.125982891357422,-0.169222173339844,-0.0577960280761705,0.218742345525547,0.43320800000015,
0.058945244873047,-0.111761333496094,0.0212126267089854,0.12812147786325,0.436148000000003,
0.020638018310547,0.0989284125976562,0.0427604416503922,0.109732465519623,0.439227000000074,
-0.130196686279297,0.0510443793945311,-0.0625844313964823,0.153210694271332,0.442150000000083,
-0.144561896240234,-0.0782425102539064,-0.0697670363769518,0.178570634820588,0.445071999999982,
0.238510369384766,-0.0471178886718752,0.0499430466308599,0.248196695473016,0.448225000000093,
0.0469742365722658,0.0558327827148436,0.047548844970704,0.0870905918298766,0.451199000000088,
-0.228358954345703,0.0414675727539061,-0.0530076247558586,0.23806969547219,0.454318000000058,
0.0158496149902345,-0.0830309135742189,0.0379720383300786,0.0926672466368189,0.457276999999976,
0.250481377685547,-0.0351468803710939,0.00684741674804812,0.253027885584161,0.460271000000148,
-0.00809240161132796,0.0582269843749998,0.0188184250488295,0.0617252119847629,0.463331000000153,
-0.192445929443359,0.0294965644531249,-0.0673728347167959,0.206020828878132,0.466292000000067,
0.020638018310547,-0.0519062919921877,-0.0386424147949214,0.0679222141081066,0.469376000000011,
0.17865532788086,-0.0255700737304688,0.0810676682128921,0.197847218025108,0.472377000000051,
-0.0511880314941405,-0.0423294853515627,-0.02667140649414,0.0715776768465485,0.475374999999985,
-0.137379291259766,0.00794874951171864,-0.00272938989257732,0.137636121185615,0.478352000000086,
0.0637336481933595,0.0534385810546874,0.0571256516113294,0.100900941170994,0.481378000000177,
0.0996466730957034,0.0773805976562499,0.0571256516113294,0.13849388587479,0.484403000000157,
-0.0224576115722654,-0.0638773002929689,-0.0577960280761705,0.0890226638088883,0.487385000000131,
-0.0775242497558592,-0.116549736816406,0.0882502731933599,0.165474956325376,0.490435000000161,
0.128377093017578,-0.0183874687500001,0.0619140549316413,0.143708479975103,0.493441000000075,
0.068522051513672,0.0342849677734374,0.0547314499511735,0.0941608314142657,0.496393000000126,
-0.132590887939453,-0.0351468803710939,0.0164242233886736,0.13814992536485,0.49941600000011,
-0.0200634099121092,0.0247081611328124,0.0212126267089854,0.0382493029447741,0.50239600000009,
0.209779949462891,0.0534385810546874,0.131345903076173,0.253209508898633,0.505470000000059,
-0.0511880314941405,-0.178798979980469,-0.139198884521482,0.232305013424864,0.508379000000104,
-0.182869122802734,-0.111761333496094,-0.00272938989257732,0.214334228038016,0.511336000000028,
0.0948582697753907,0.280887738769531,0.0499430466308599,0.30064983126989,0.514407000000119,
0.185837932861328,0.149206647460937,0.00205901342773629,0.238332961364977,0.517401000000064,
-0.094283661376953,-0.391882927734375,-0.0530076247558586,0.406535910018497,0.520434000000023,
-0.103860468017578,-0.219500408203125,-0.0913148513183586,0.259433667995237,0.523407000000134,
0.130771294677735,0.359896393554687,-0.00272938989257732,0.382928185401058,0.526354000000083,
0.130771294677735,0.137235639160156,0.0810676682128921,0.206171576597898,0.529432000000043,
-0.0775242497558592,-0.384700322753906,0.0236068283691413,0.393143269016295,0.532423999999992,
-0.0918894597167967,-0.106972930175781,-0.0673728347167959,0.156288129604312,0.535503000000062,
0.087675664794922,0.254551520507812,0.0571256516113294,0.275221436051209,0.538559000000078,
0.068522051513672,0.0773805976562499,0.0212126267089854,0.105513051179347,0.541560000000118,
-0.0296402165527342,-0.296114861328125,-0.00272938989257732,0.297607128788699,0.544609000000037,
-0.0487938298339842,-0.0399352836914064,0.026001030029299,0.0682035063318993,0.547587000000021,
0.0661278498535158,0.237792108886719,0.026001030029299,0.248181452041902,0.550666000000092,
0.133165496337891,-0.00402225878906259,-0.00991199487304506,0.133594444581525,0.553686000000198,
0.011061211669922,-0.200346794921875,0.0236068283691413,0.202035816093892,0.556714000000056,
-0.0871010563964843,-0.0782425102539064,0.0499430466308599,0.127290189500167,0.559737000000041,
0.068522051513672,0.144418244140625,0.0595198532714853,0.170571139756298,0.562719000000016,
0.183443731201172,-0.00162805712890635,0.0810676682128921,0.200564752427984,0.565802000000076,
-0.0799184514160154,-0.164433770019531,0.026001030029299,0.184665852723655,0.568817000000081,
-0.175686517822265,-0.0902135185546876,-0.0410366164550773,0.201713250344669,0.57182499999999,
0.068522051513672,0.108505219238281,-0.0218830031738264,0.130182640830087,0.574804000000086,
0.204991546142578,0.0630153876953123,-0.02667140649414,0.216110705428239,0.577754000000141,
-0.0104866032714842,-0.0878193168945314,-0.0194888015136705,0.0905649747553372,0.58079900000007,
-0.173292316162109,-0.0902135185546876,0.0212126267089854,0.196516363956644,0.583744000000024,
0.068522051513672,0.0989284125976562,0.00684741674804812,0.120536257942811,0.586841000000049,
0.169078521240235,0.0534385810546874,-0.0170945998535146,0.178144474048663,0.589894000000186,
-0.0272460148925779,-0.102184526855469,-0.0147003981933587,0.106771365839564,0.592812000000094,
-0.0966778630371092,-0.0734541069335939,-0.0386424147949214,0.127418017752658,0.59586800000011,
0.0996466730957034,0.0271023627929686,0.0930386765136735,0.138997096571906,0.598856000000069,
0.097252471435547,0.0989284125976562,-0.0362482131347637,0.143383426430244,0.60192700000016,
-0.0416112248535155,-0.0902135185546876,0.026001030029299,0.102693848532477,0.604882000000089,
-0.0799184514160154,-0.0686657036132814,-0.0362482131347637,0.111426525948287,0.607839000000013,
0.0924640681152345,0.0558327827148436,0.0044532150878922,0.10810520173757,0.610937000000149,
0.123588689697266,0.0582269843749998,0.0236068283691413,0.138642808238089,0.613905000000159,
-0.0727358464355467,-0.104578728515625,-0.00751779321288915,0.127607723235829,0.616901999999982,
-0.0440054265136717,-0.121338140136719,-0.0338540114746078,0.13343731077705,0.619859000000133,
0.0661278498535158,0.0701979926757811,0.0116358200683599,0.0971392969432113,0.622833000000128,
0.0613394465332033,0.0821690009765624,-0.0147003981933587,0.103587519178371,0.625860999999986,
-0.0535822331542967,-0.0686657036132814,0.026001030029299,0.0908960292042118,0.628854000000047,
-0.0224576115722654,-0.102184526855469,0.0403662399902363,0.112140336976291,0.631907000000183,
0.058945244873047,0.0294965644531249,0.0164242233886736,0.0679289652622641,0.634894000000031,
0.0900698664550782,0.0606211860351561,-0.012306196533201,0.10926550925456,0.637838000000102,
-0.046399628173828,-0.0997903251953126,0.0116358200683599,0.110663574883152,0.640879000000041,
-0.0392170231933592,-0.0590888969726564,0.0331836350097667,0.0782983159847969,0.643825000000106,
0.011061211669922,0.0534385810546874,-0.0721612380371077,0.0904725186108651,0.64687200000003,
0.0254264216308596,0.0294965644531249,0.0523372482910176,0.0652360160506696,0.649842000000035,
-0.036822821533203,-0.0566946953125002,0.00205901342773629,0.067634667135567,0.652802000000065,
-0.0200634099121092,-0.0566946953125002,-0.0314598098144518,0.0678715590467762,0.655864000000065,
0.0613394465332033,-0.00162805712890635,-0.00512359155273323,0.0615745845411394,0.658824000000095,
0.0350032282714846,0.0103429511718749,0.0499430466308599,0.0618587951316682,0.661893000000191,
-0.0344286198730467,-0.0303584770507814,-0.02667140649414,0.05308795456204,0.66483200000016,
-0.0511880314941405,-0.0279642753906251,0.00924161840820403,0.0590560985603578,0.667821000000004,
0.049368438232422,0.0127371528320311,-0.00751779321288915,0.0515363461119116,0.67086200000017,
0.0517626398925783,-0.0638773002929689,0.0188184250488295,0.0843434259600905,0.67384200000015,
-0.00330399829101546,0.0103429511718749,-0.0434308181152332,0.0447674994366369,0.676935000000185,
-0.017669208251953,0.00794874951171864,0.0212126267089854,0.0287290631755665,0.679937000000109,
0.0517626398925783,-0.0135990654296876,-0.0338540114746078,0.0633277155922471,0.683048999999983,
0.00627280834960953,-0.0375410820312502,-0.0218830031738264,0.0439038357387334,0.68607800000018,
0.0326090266113283,-0.0159932670898438,0.0044532150878922,0.0365918615728201,0.689070000000129,
-0.000909796630859216,-0.00641646044921884,0.0523372482910176,0.0527369533940058,0.692104000000199,
0.0469742365722658,0.0151313544921874,0.0140300217285176,0.0513067081385866,0.695212000000083,
0.0254264216308596,-0.0303584770507814,0.0164242233886736,0.0428706794874319,0.698289000000159,
0.00387860668945328,-0.0112048637695313,0.0116358200683599,0.0166127923784196,0.701256000000058,
0.00866701000976578,0.0103429511718749,0.0236068283691413,0.0271914701166241,0.704240000000027,
0.00866701000976578,-0.0495120903320314,0.026001030029299,0.0565916753077794,0.707307000000128,
-0.0200634099121092,-0.0303584770507814,-0.0434308181152332,0.0566605110134264,0.710269000000153,
0.039791631591797,-0.0183874687500001,0.0212126267089854,0.0486975203030328,0.713310000000092,
0.068522051513672,0.0103429511718749,-0.0218830031738264,0.0726712736264599,0.716261000000031,
-0.000909796630859216,-0.0135990654296876,-0.00512359155273323,0.0145606833929485,0.719174000000066,
-0.0296402165527342,-0.00881066210937509,-0.0817380446777332,0.0873915221965933,0.722175000000107,
-0.000909796630859216,-0.0399352836914064,0.047548844970704,0.0621011052355002,0.725130000000036,
0.0565510432128908,0.00316034619140615,-0.0314598098144518,0.064789875058355,0.728277000000162,
0.00866701000976578,-0.00402225878906259,0.0140300217285176,0.0169746027340332,0.731255000000147,
-0.0272460148925779,-0.0231758720703126,0.0116358200683599,0.0376146073010117,0.734288000000106,
0.0134554133300783,0.0223139594726561,-0.0314598098144518,0.0408494867628966,0.737362000000076,
0.0373974299316408,-0.0135990654296876,0.00924161840820403,0.0408522931652039,0.740365000000111,
0.020638018310547,0.0127371528320311,-0.0170945998535146,0.0296713364411645,0.743444000000181,
-0.00569819995117171,0.0151313544921874,0.047548844970704,0.050222704322844,0.746433000000025,
0.00866701000976578,-0.0279642753906251,0.0044532150878922,0.0296133227661323,0.749445000000151,
0.049368438232422,0.0318907661132811,-0.00991199487304506,0.0596029470677729,0.752545000000055,
0.0278206232910158,-0.0112048637695313,0.0403662399902363,0.0502888594357012,0.755510000000186,
-0.00569819995117171,-0.00881066210937509,0.100221281494141,0.100769055338517,0.758539000000155,
0.0134554133300783,-0.0159932670898438,0.0451546433105481,0.049757155792842,0.761555000000044,
0.0278206232910158,-0.0543004936523439,0.0164242233886736,0.0631845377059127,0.764552000000094,
0.011061211669922,0.000766144531249902,-0.02667140649414,0.0288842743621029,0.767577000000074,
-0.0200634099121092,0.0151313544921874,0.0523372482910176,0.0580576081555655,0.770584000000099,
-0.000909796630859216,0.0151313544921874,0.047548844970704,0.0499066957103534,0.773666000000048,
-0.0344286198730467,-0.00881066210937509,-0.00272938989257732,0.0356427720913235,0.7765780000002,
0.049368438232422,0.0127371528320311,-0.0218830031738264,0.0554828224199228,0.779592999999977,
0.0254264216308596,-0.0351468803710939,-0.00512359155273323,0.0436813153095173,0.782574000000068,
0.0182438166503908,-0.00881066210937509,0.0403662399902363,0.0451652293664939,0.785545000000184,
0.0373974299316408,-0.00402225878906259,0.0044532150878922,0.0378758162404087,0.788574000000153,
-0.0248518132324217,-0.00402225878906259,0.0307894333496108,0.0397716028429266,0.791531000000077,
0.0254264216308596,-0.0183874687500001,0.026001030029299,0.0407511409235003,0.794607000000042,
-0.0320344182128905,-0.0375410820312502,-0.0386424147949214,0.0626799251076306,0.797571000000062,
0.0230322199707033,-0.00641646044921884,-0.00751779321288915,0.0250633464698355,0.800539000000072,
0.00866701000976578,0.0151313544921874,0.0044532150878922,0.0179973908080213,0.803632000000107,
0.0661278498535158,-0.00641646044921884,0.0140300217285176,0.0679036449732133,0.806580000000167,
-0.0128808049316405,0.00316034619140615,-0.0147003981933587,0.0197991068177282,0.809631000000081,
-0.000909796630859216,-0.00641646044921884,0.0044532150878922,0.00786319395824262,0.812614000000167,
0.0373974299316408,0.0486501777343749,-0.0386424147949214,0.0725165069502179,0.815628000000061,
0.00866701000976578,-0.0112048637695313,-0.0506134230957009,0.0525583925940241,0.818756000000121,
-0.0152750065917967,-0.0159932670898438,-0.00991199487304506,0.0242354711311702,0.821704000000182,
0.049368438232422,-0.00641646044921884,0.00205901342773629,0.0498262299848228,0.824804000000086,
0.0230322199707033,0.0223139594726561,0.0116358200683599,0.0341143408669939,0.827801000000136,
-0.00330399829101546,0.0151313544921874,-0.00991199487304506,0.0183880922294441,0.830773000000136,
0.00387860668945328,-0.0207816704101563,0.00205901342773629,0.0212405496911788,0.83392200000003,
0.00387860668945328,-0.0375410820312502,0.0427604416503922,0.057033602376714,0.83696800000007,
-0.0128808049316405,-0.0112048637695313,-0.0386424147949214,0.0422457137348097,0.839991000000055,
0.011061211669922,-0.0495120903320314,0.0355778366699226,0.0619643442212193,0.84296600000016,
0.0517626398925783,-0.0423294853515627,0.026001030029299,0.0717440574637468,0.845972000000074,
0.0326090266113283,0.00316034619140615,0.064308256591799,0.0721726282635218,0.84909400000015,
-0.0128808049316405,0.0127371528320311,0.0283952316894549,0.0336814397057388,0.852047000000084,
-0.0128808049316405,-0.0303584770507814,0.00684741674804812,0.0336814397057377,0.855065000000195,
0.0230322199707033,-0.0279642753906251,-0.000335188232421402,0.036229769610815,0.857989000000089,
-0.00569819995117171,-0.0135990654296876,0.0307894333496108,0.0341378568342329,0.861033000000134,
-0.00330399829101546,-0.0255700737304688,0.0212126267089854,0.0333874318746352,0.863974999999982,
0.0134554133300783,-0.0231758720703126,-0.00512359155273323,0.027284068327542,0.866946999999982,
-0.0344286198730467,-0.0112048637695313,0.0571256516113294,0.0676329720659642,0.870072000000164,
0.0350032282714846,-0.00641646044921884,-0.0290656081542959,0.0459478675403018,0.873010000000022,
0.00148440502929703,-0.0327526787109377,0.0164242233886736,0.0366701041033969,0.876083999999992,
0.00627280834960953,-0.0327526787109377,0.0164242233886736,0.0371731247173801,0.879057999999986,
-0.00330399829101546,-0.0255700737304688,0.0571256516113294,0.0626744377502314,0.882007000000158,
-0.000909796630859216,-0.00402225878906259,-0.00512359155273323,0.00657704235009578,0.885044999999991,
0.00627280834960953,-0.0279642753906251,0.0427604416503922,0.051476248822639,0.888031000000183,
-0.0152750065917967,-0.0375410820312502,0.0188184250488295,0.0446854762509576,0.891106000000036,
-0.0152750065917967,-0.0495120903320314,-0.000335188232421402,0.0518158785178619,0.894050000000107,
0.039791631591797,0.0247081611328124,0.0619140549316413,0.077635155499172,0.897014000000127,
0.0326090266113283,-0.0159932670898438,0.0140300217285176,0.0389355200099867,0.900088000000096,
-0.0104866032714842,0.0294965644531249,-0.0434308181152332,0.0535373899706487,0.903065000000197,
0.011061211669922,0.0199197578124999,-0.0314598098144518,0.0388441345440589,0.906098000000156,
-0.000909796630859216,-0.0183874687500001,0.026001030029299,0.0318587554610387,0.90910400000007,
0.0541568415527345,0.0103429511718749,0.0331836350097667,0.0643513306651323,0.912090000000035,
0.020638018310547,-0.0543004936523439,0.0331836350097667,0.0669001124299214,0.91516700000011,
0.0278206232910158,-0.00641646044921884,-0.00512359155273323,0.0290070549245566,0.91811800000005,
0.068522051513672,-0.00641646044921884,0.0164242233886736,0.0707544883541657,0.921190000000024,
0.0134554133300783,0.0103429511718749,-0.0242772048339823,0.0296210644875935,0.92417300000011,
0.011061211669922,0.0199197578124999,-0.0290656081542959,0.0369317848511894,0.927153000000089,
0.00148440502929703,-0.0279642753906251,0.00924161840820403,0.0294891788155685,0.930186000000049,
0.0350032282714846,0.000766144531249902,0.0188184250488295,0.0397485356734916,0.933203000000049,
0.00627280834960953,0.0055545478515624,-0.0506134230957009,0.0513022389754157,0.936329999999998,
0.0182438166503908,-0.0255700737304688,0.00205901342773629,0.031478644393466,0.939318000000185,
0.0278206232910158,-0.00402225878906259,-0.0290656081542959,0.0404348268630629,0.942242000000078,
0.0421858332519533,-0.0112048637695313,0.0140300217285176,0.0458479553410841,0.945292999999992,
0.0134554133300783,-0.0279642753906251,0.0499430466308599,0.0587992921111999,0.948243000000048,
0.0326090266113283,-0.00881066210937509,0.0212126267089854,0.0398867385886419,0.951326000000108,
0.068522051513672,-0.0327526787109377,-0.00512359155273323,0.0761200413608891,0.954288000000133,
0.0302148249511721,-0.0135990654296876,0.0236068283691413,0.0406835663756386,0.957358000000113,
0.068522051513672,-0.00402225878906259,0.0212126267089854,0.071843062582989,0.960347000000183,
0.039791631591797,-0.0351468803710939,-0.00272938989257732,0.0531613272383506,0.963335000000143,
0.020638018310547,0.00794874951171864,-0.0147003981933587,0.0265558303509761,0.966433000000052,
0.0302148249511721,-0.0495120903320314,0.0355778366699226,0.068045317237771,0.969432999999981,
0.0134554133300783,-0.0112048637695313,-0.000335188232421402,0.017513122826274,0.972435000000132,
0.020638018310547,0.0103429511718749,0.0307894333496108,0.038482380964805,0.975500000000011,
0.0517626398925783,0.0151313544921874,0.0212126267089854,0.0579508784170847,0.978477999999996,
0.020638018310547,0.000766144531249902,0.0188184250488295,0.027940076924512,0.981533000000127,
-0.0152750065917967,0.0151313544921874,-0.0218830031738264,0.0306781606856306,0.984483000000182,
0.0134554133300783,0.0247081611328124,0.0140300217285176,0.0314385572848206,0.987567000000126,
0.0350032282714846,0.0055545478515624,0.00684741674804812,0.0360966218278442,0.990559000000076,
-0.0128808049316405,-0.00881066210937509,0.0571256516113294,0.0592189410113988,0.99345900000003,
0.0469742365722658,-0.0135990654296876,0.00684741674804812,0.0493801640158229,0.99648000000002,
-0.00330399829101546,-0.0351468803710939,0.0140300217285176,0.0379876442311141,0.999400000000151,
0.00148440502929703,-0.0112048637695313,0.047548844970704,0.0488737668737821,1.00243900000009,
0.00148440502929703,-0.00881066210937509,0.0571256516113294,0.0578201634130825,1.00539900000012,
0.00387860668945328,0.0055545478515624,0.00684741674804812,0.00963243000536303,1.00846000000001,
0.0350032282714846,-0.00162805712890635,0.0236068283691413,0.0422511408732443,1.01151000000004,
0.0421858332519533,-0.0135990654296876,-0.0147003981933587,0.0466977602756903,1.01453100000003,
0.0158496149902345,-0.0207816704101563,0.0140300217285176,0.0296636078398719,1.01758100000006,
0.00866701000976578,0.0199197578124999,-0.0170945998535146,0.0276430670868811,1.020579,
-0.00569819995117171,0.0127371528320311,0.0307894333496108,0.0338037535037188,1.02355499999999,
-0.0200634099121092,-0.0303584770507814,0.0379720383300786,0.0525932813302716,1.02654900000016,
0.0182438166503908,-0.0183874687500001,0.0379720383300786,0.0459653298470299,1.02955300000008,
