X,Y,Z,Magnitude,Seconds,
0.0296881005859375,0.0130244570312501,0.00450109912109475,0.0327304092650481,0.0,
-0.0014365209960937,-0.00612915624999988,0.0236547124023456,0.02447806299009,0.00376700000015262,
-0.0253785375976563,-0.0228885678710937,-0.0122583124999984,0.0363073399622299,0.00748500000008789,
0.0320823022460938,0.0321780703125001,-0.0242293208007798,0.0514952649562366,0.0112469999999121,
0.0320823022460938,-0.0181001645507812,-0.038594530761717,0.0533519247908845,0.0151339999997617,
0.00814028564453129,-0.0181001645507812,0.0404141240234388,0.0450242337827287,0.0188920000000508,
0.00814028564453129,-0.0252827695312499,-0.0122583124999984,0.0292531863374313,0.0226199999997334,
-0.00383072265624995,-0.0252827695312499,-0.0529597407226543,0.0588100927447846,0.0263270000000375,
-0.00622492431640631,-0.0181001645507812,0.0691445439453133,0.0717449203561876,0.0300459999998566,
0.0416591088867188,0.00105344873046875,0.0308373173828134,0.0518414047922274,0.0337709999998879,
-0.00861912597656256,-0.0109175595703124,0.0475967290039083,0.0495876098581356,0.0375319999998283,
0.0177170922851563,-0.0348595761718749,0.0332315190429711,0.0513168516944175,0.0412719999999354,
-0.0110133276367188,-0.0228885678710937,-0.0505655390624984,0.0565866915935578,0.0449439999997594,
0.0177170922851563,-0.0276769711914062,0.0332315190429711,0.0467358957469954,0.0486919999998463,
0.00335188232421879,-0.0228885678710937,0.0452025273437524,0.0507778508068996,0.052654000000075,
0.0201112939453125,-0.0492247861328126,-0.0242293208007798,0.058434610467111,0.056463999999778,
0.0105344873046875,-0.0276769711914062,0.0523851323242202,0.060176342907563,0.0602410000001328,
-0.00861912597656256,0.0345722719726562,0.0308373173828134,0.0471218788390226,0.0641200000000026,
0.00574608398437504,-0.0420421811523437,-0.0625365473632797,0.0755736874402838,0.067939000000024,
0.03447650390625,-0.0109175595703124,0.0811155522460947,0.0888119093633163,0.0717810000001009,
-0.0253785375976563,-0.0564073911132812,0.0691445439453133,0.0927730127796208,0.075554000000011,
0.0177170922851563,-0.0204943662109374,-0.0481713374023425,0.0552665554613192,0.079323999999815,
0.0201112939453125,-0.00852335791015624,0.0859039555664083,0.0886374715127572,0.0831199999997807,
-0.00622492431640631,-0.0324653745117187,-0.0433829340820289,0.0545419947792231,0.0869299999999384,
-0.0205901342773438,0.00105344873046875,-0.0242293208007798,0.0318138864374328,0.090708000000177,
0.015322890625,-0.0492247861328126,0.0164721074218761,0.0541220922530225,0.094445000000178,
-0.00383072265624995,0.0393606752929687,-0.0170467158203103,0.0430642277980929,0.098182000000179,
0.00335188232421879,-0.00612915624999988,0.00928950244140836,0.0116231031597098,0.101904000000104,
0.0201112939453125,-0.0181001645507812,0.0140779057617202,0.0305002874012032,0.105622000000039,
0.00574608398437504,-0.0372537778320312,-0.0242293208007798,0.0448098363128112,0.10939499999995,
-0.00383072265624995,-0.0348595761718749,0.0140779057617202,0.0377895741916699,0.113108999999895,
-0.0014365209960937,-0.0204943662109374,0.0475967290039083,0.0518414047922287,0.116775999999845,
0.03447650390625,-0.0228885678710937,0.0380199223632829,0.0561963553737909,0.120617000000038,
0.0272938989257813,-0.00612915624999988,0.0164721074218761,0.0324631144196841,0.124557000000095,
0.0225054956054688,0.00584185205078125,-0.0290177241210916,0.0371840406760585,0.128325000000132,
0.0512359155273437,-0.0588015927734374,-0.0122583124999984,0.0789494305107129,0.13206799999989,
-0.0301669409179688,-0.00612915624999988,0.0188663090820338,0.0361046880482848,0.135971000000154,
0.0656011254882812,-0.0324653745117187,0.00928950244140836,0.0737821324110676,0.13975500000015,
0.024899697265625,-0.0276769711914062,-0.0194409174804662,0.0419995110772971,0.143559000000096,
0.0368707055664063,-0.00612915624999988,-0.00986411083984251,0.0386563858626519,0.147297999999864,
0.00814028564453129,-0.0420421811523437,0.00928950244140836,0.0438189924807723,0.151049999999941,
-0.032561142578125,-0.0755610043945312,-0.00986411083984251,0.0828673281442333,0.15477699999974,
0.0177170922851563,-0.0133117612304687,-0.0074699091796866,0.023385848054978,0.158590000000004,
0.00814028564453129,-0.0659841977539062,-0.00268150585937299,0.0665384781707172,0.162323999999899,
-0.0014365209960937,0.0321780703125001,0.00928950244140836,0.0335229273366356,0.16605699999991,
0.0177170922851563,-0.0396479794921876,0.0308373173828134,0.0532615976123702,0.169770999999855,
0.0201112939453125,0.00823605371093761,0.109845972167971,0.111975150486217,0.173502999999982,
0.0296881005859375,-0.0204943662109374,0.00928950244140836,0.0372518082567503,0.177209999999832,
0.0464475122070312,-0.0659841977539062,-0.0074699091796866,0.0810375547916007,0.18092200000001,
0.000957680664062543,-0.0468305844726562,0.00928950244140836,0.0477526507108646,0.184746999999788,
-0.00861912597656256,-0.0276769711914062,-0.0242293208007798,0.0377804718524913,0.188431999999921,
-0.032561142578125,-0.00373495458984374,0.0595677373046897,0.0679889198280257,0.192320999999993,
-0.0014365209960937,0.00105344873046875,-0.0266235224609357,0.0266830525807654,0.196182000000135,
-0.00861912597656256,-0.0157059628906249,0.0499909306640642,0.0531042347801079,0.199936999999863,
0.0105344873046875,-0.0228885678710937,0.0188663090820338,0.0314769690462903,0.203720999999859,
0.0320823022460938,-0.00612915624999988,0.0188663090820338,0.0377197334577732,0.207527999999911,
-0.0229843359375,-0.0372537778320312,-0.0170467158203103,0.0469756764879934,0.211338999999953,
0.0105344873046875,-0.00612915624999988,0.00210689746093884,0.0123685486626542,0.215110999999979,
0.0272938989257813,-0.0252827695312499,-0.040988732421873,0.0553556820867827,0.218866000000162,
-0.0134075292968751,-0.0396479794921876,-0.0194409174804662,0.0461483845019713,0.222584999999981,
0.0320823022460938,-0.0779552060546874,-0.0074699091796866,0.0846291191705978,0.226352000000134,
-0.0229843359375,0.00584185205078125,-0.0338061274414052,0.0412948082264055,0.230160999999953,
0.00574608398437504,-0.0420421811523437,0.00450109912109475,0.0426710952577959,0.233925999999883,
0.000957680664062543,-0.0468305844726562,-0.0170467158203103,0.0498458756023337,0.237635999999839,
-0.00861912597656256,-0.00134075292968738,0.0164721074218761,0.0186391328643836,0.241363000000092,
0.0392649072265625,-0.0396479794921876,0.00689530078125244,0.0562249089833628,0.245076000000154,
-0.0158017309570313,-0.0157059628906249,0.0452025273437524,0.0503948454687855,0.248756999999841,
0.0320823022460938,-0.0468305844726562,0.0499909306640642,0.0756404052614711,0.252474999999777,
0.00574608398437504,-0.00852335791015624,-0.0457771357421866,0.0469170679814786,0.256301999999778,
-0.00622492431640631,-0.0372537778320312,0.0116837041015643,0.0395360922074531,0.260057999999844,
0.044053310546875,-0.0133117612304687,-0.0433829340820289,0.0632453644685686,0.264044000000013,
0.0129286889648438,-0.0228885678710937,-0.0362003291015611,0.0447381421675137,0.267827000000125,
-0.00861912597656256,-0.0109175595703124,-0.0433829340820289,0.04555832974481,0.271588000000065,
0.015322890625,-0.0276769711914062,0.0236547124023456,0.0395012801092993,0.27541599999995,
0.0536301171875,-0.0204943662109374,0.100269165527346,0.115542693717445,0.279337999999825,
0.00814028564453129,-0.0348595761718749,-0.0122583124999984,0.0378380830196896,0.283160999999836,
-0.0205901342773438,0.0848505068359375,0.0643561406250015,0.108467852269783,0.286976999999752,
0.0392649072265625,-0.10189722265625,-0.0601423457031238,0.124667071318941,0.290739000000031,
-0.0158017309570313,-0.209636297363281,-0.105632177246092,0.235276919274233,0.294500999999855,
-0.0397437475585938,0.525383612304688,0.0619619389648456,0.530515586414392,0.298303999999916,
-0.0373495458984375,-0.444268060058594,-0.0745075556640611,0.452018222661519,0.301894000000175,
0.4367023828125,-0.0588015927734374,-0.076901757324217,0.447303564423939,0.304822999999942,
-0.535343491210938,0.0226012636718751,0.0212605107421897,0.536241997626538,0.307772999999997,
-0.0445321508789063,0.0728794985351564,0.0308373173828134,0.0908045919103538,0.310795999999755,
0.673728347167969,-0.0875320126953125,0.0404141240234388,0.68059168408434,0.313759000000118,
-0.418027609863281,-0.0420421811523437,-0.0936611689453102,0.430449813767245,0.316745000000083,
-0.434787021484375,0.0824563051757814,0.0308373173828134,0.44360989220019,0.319696000000022,
0.709641372070313,-0.303010162109375,0.0404141240234388,0.772683205923338,0.322619000000032,
-0.0924161840820312,0.0609084902343751,0.0212605107421897,0.112705832058211,0.325644000000011,
-0.530555087890625,0.278780841308594,-0.0745075556640611,0.603952675810274,0.328580999999758,
0.285867678222656,-0.235972515625,-0.00986411083984251,0.370810811958691,0.331603000000086,
0.3600879296875,-0.286250750488281,0.0452025273437524,0.462218647114109,0.33454699999993,
-0.372537778320313,0.209348993164063,0.00450109912109475,0.427354252474383,0.337485000000015,
-0.147482822265625,0.163859161621094,-0.0218351191406239,0.221535053972248,0.340506000000005,
0.391212551269531,-0.422720245117188,0.0212605107421897,0.576360716235735,0.343460999999934,
-0.08044517578125,-0.0779552060546874,0.0308373173828134,0.116186834886201,0.34646100000009,
-0.238462485351563,0.295540252929688,0.0116837041015643,0.379927502246574,0.349423999999999,
0.125456166992188,-0.106685625976563,0.00928950244140836,0.164946559473035,0.352369000000181,
0.0991199487304688,-0.0947146176757813,0.0188663090820338,0.138389163796083,0.355473999999958,
-0.171424838867188,0.223714203125,-0.0170467158203103,0.282356353887695,0.358506000000034,
0.063206923828125,-0.173723272460937,-0.0338061274414052,0.18793015954587,0.361633999999867,
0.07278373046875,-0.113868230957031,0.0236547124023456,0.137196905435469,0.364661999999953,
-0.08044517578125,0.1854069765625,-0.000287304199217076,0.202107040471693,0.367671999999857,
0.00335188232421879,-0.195271087402344,0.0260489140625015,0.197029385154207,0.370610999999826,
0.0895431420898437,-0.1210508359375,0.0236547124023456,0.152416615220675,0.373553999999785,
-0.0301669409179688,0.118369330078125,-0.00268150585937299,0.122182376393513,0.376599000000169,
-0.0541089575195313,-0.144992852539062,-0.0242293208007798,0.156645352812434,0.379527000000053,
0.120667763671875,-0.0683783994140624,0.035625720703127,0.14319743947298,0.382526999999754,
-0.00861912597656256,0.111186725097656,-0.0218351191406239,0.113637800042182,0.38546899999983,
-0.070868369140625,0.0393606752929687,-0.0050757075195289,0.0812240808565675,0.388407999999799,
0.0368707055664063,-0.116262432617187,-0.0266235224609357,0.124840755025187,0.391438999999991,
0.0751779321289062,0.00823605371093761,0.00450109912109475,0.0757615598651836,0.39441399999987,
-0.0828393774414062,0.00584185205078125,0.0284431157226575,0.0877809804130454,0.397469000000001,
-0.00861912597656256,-0.0707726010742187,0.0116837041015643,0.0722465178188075,0.400405999999748,
0.0991199487304688,-0.0611957944335937,0.0236547124023456,0.118866458311532,0.403349000000162,
0.024899697265625,-0.00612915624999988,0.100269165527346,0.103496217495167,0.406390000000101,
-0.0493205541992188,0.0417548769531251,0.00210689746093884,0.0646562126388455,0.409337999999934,
0.0296881005859375,-0.0564073911132812,0.0332315190429711,0.0718854014839645,0.412366999999904,
-0.00383072265624995,-0.0228885678710937,0.0284431157226575,0.036709287752165,0.415294999999787,
0.0201112939453125,0.0130244570312501,-0.0194409174804662,0.0308553058256751,0.418239999999969,
-0.00383072265624995,-0.0444363828125001,0.0547793339843761,0.0706402292274025,0.421254999999746,
0.0368707055664063,-0.0683783994140624,0.00210689746093884,0.0777141779362337,0.424204999999802,
-0.0158017309570313,0.0106302553710937,0.0140779057617202,0.0236829994115809,0.427240999999867,
-0.00622492431640631,-0.0540131894531251,-0.0314119257812475,0.0627923832875514,0.43015400000013,
-0.00383072265624995,-0.0396479794921876,-0.0146525141601543,0.0424421121658142,0.433054999999968,
0.0201112939453125,0.0249954653320312,-0.000287304199217076,0.0320830169251962,0.436090000000149,
0.0225054956054688,-0.0420421811523437,-0.0266235224609357,0.0546155131507725,0.439021000000139,
0.00574608398437504,-0.0300711728515624,-0.00986411083984251,0.0321650991057813,0.4420369999998,
-0.0014365209960937,0.00105344873046875,0.0428083256835947,0.0428453742501178,0.444990999999845,
0.0416591088867188,-0.00852335791015624,0.0667503422851574,0.0791437753615898,0.447927000000163,
-0.0134075292968751,-0.00134075292968738,-0.0433829340820289,0.0454272872823228,0.450910000000022,
-0.0014365209960937,-0.0420421811523437,-0.0649307490234357,0.0773667290077789,0.453840000000127,
0.0129286889648438,-0.0420421811523437,0.00450109912109475,0.044214883101667,0.456862999999885,
0.00335188232421879,-0.0396479794921876,0.0404141240234388,0.0567141852935421,0.459812000000056,
0.0272938989257813,-0.0133117612304687,-0.00268150585937299,0.0304852485524003,0.462797000000137,
-0.0181959326171875,-0.0109175595703124,-0.000287304199217076,0.0212218664231834,0.465717999999924,
0.000957680664062543,-0.0181001645507812,0.00689530078125244,0.019392737864562,0.468653999999788,
-0.00622492431640631,-0.0157059628906249,-0.0625365473632797,0.0647784432445424,0.471642999999858,
-0.00383072265624995,-0.0204943662109374,-0.000287304199217076,0.0208512835614503,0.474554999999782,
0.00335188232421879,0.0130244570312501,-0.0242293208007798,0.027711578492417,0.47757700000011,
-0.0110133276367188,-0.0157059628906249,-0.0122583124999984,0.0227648167421356,0.480498999999782,
0.0392649072265625,-0.0324653745117187,-0.0170467158203103,0.0537245195600215,0.48341500000015,
0.000957680664062543,-0.00852335791015624,0.00689530078125244,0.0110049968279361,0.486442999999781,
-0.00622492431640631,-0.0109175595703124,-0.0481713374023425,0.0497837376745321,0.489353999999821,
0.0512359155273437,-0.0372537778320312,-0.0601423457031238,0.0873502418391472,0.49239099999977,
0.0368707055664063,-0.0252827695312499,0.0140779057617202,0.0468706176060311,0.495450999999775,
-0.00383072265624995,-0.0228885678710937,0.00450109912109475,0.023639392305148,0.498462999999902,
-0.0229843359375,-0.0516189877929687,-0.0577481440429679,0.0807938595418357,0.501564000000144,
-0.00622492431640631,-0.0468305844726562,0.00450109912109475,0.0474564349492616,0.504538000000139,
0.015322890625,-0.0252827695312499,0.0452025273437524,0.0540118310237553,0.50756599999977,
-0.0253785375976563,0.0417548769531251,-0.0242293208007798,0.054539892798147,0.510495999999875,
0.0272938989257813,-0.0276769711914062,-0.0146525141601543,0.041541158194184,0.513438999999835,
0.024899697265625,-0.0516189877929687,-0.0362003291015611,0.0677862718531692,0.516475999999784,
0.00574608398437504,-0.0157059628906249,0.0428083256835947,0.045959193849652,0.519424999999956,
-0.0541089575195313,-0.0492247861328126,-0.00268150585937299,0.0731986975795705,0.522429999999986,
0.0895431420898437,0.0130244570312501,0.0763271489257829,0.118378395154772,0.525409999999738,
-0.0373495458984375,-0.0396479794921876,-0.0553539423828102,0.0776595763183903,0.528315999999904,
-0.0684741674804688,-0.0157059628906249,0.00450109912109475,0.0703963690524084,0.531344999999874,
0.0679953271484375,-0.0851378110351562,0.0739329472656269,0.131673429640391,0.534325999999965,
0.0225054956054688,-0.00852335791015624,0.0260489140625015,0.0354639378291242,0.53738199999998,
-0.0684741674804688,0.0345722719726562,-0.0146525141601543,0.0780938523361994,0.540333999999802,
0.0560243188476562,-0.0492247861328126,0.00450109912109475,0.0747132101134927,0.543264999999792,
0.0584185205078125,-0.0803494077148437,0.035625720703127,0.105536452631615,0.546306000000186,
-0.032561142578125,0.0321780703125001,0.0260489140625015,0.0526706952570856,0.549242000000049,
-0.0373495458984375,0.0226012636718751,0.00689530078125244,0.0441967291917519,0.552268999999797,
0.0943315454101562,-0.113868230957031,0.00210689746093884,0.147881214147244,0.555210999999872,
-0.00861912597656256,-0.0228885678710937,0.035625720703127,0.0432130518177868,0.558199000000059,
-0.0349553442382813,0.0489374819335937,-0.0338061274414052,0.0689899085475701,0.561134999999922,
0.0536301171875,-0.0755610043945312,-0.0314119257812475,0.0978384583685881,0.564057000000048,
0.0272938989257813,0.0130244570312501,-0.0290177241210916,0.0419120712050529,0.567105999999967,
-0.0636857641601563,0.00105344873046875,0.0164721074218761,0.0657899432573748,0.570064000000002,
0.0129286889648438,-0.0683783994140624,0.00450109912109475,0.0697353310602068,0.573065999999926,
0.0584185205078125,-0.0300711728515624,0.0787213505859388,0.102538041784815,0.576019999999971,
-0.0397437475585938,0.0130244570312501,0.0499909306640642,0.0651789467513812,0.578954000000067,
0.03447650390625,-0.0540131894531251,-0.000287304199217076,0.0640791424739731,0.581975999999941,
0.00574608398437504,-0.0157059628906249,0.0523851323242202,0.0549899703591776,0.584917000000132,
-0.0229843359375,0.0202070620117187,-0.0242293208007798,0.0390341522272535,0.587938000000122,
-0.00383072265624995,-0.0492247861328126,0.0308373173828134,0.0582124913507282,0.590877999999975,
0.03447650390625,-0.0444363828125001,-0.0122583124999984,0.0575629018066701,0.593800000000101,
-0.00622492431640631,-0.00852335791015624,0.0452025273437524,0.0464183777298636,0.596803999999793,
0.03447650390625,-0.0516189877929687,-0.0074699091796866,0.0625215863963887,0.599738999999772,
0.063206923828125,-0.0492247861328126,-0.000287304199217076,0.0801141518917751,0.602750999999898,
0.024899697265625,-0.0372537778320312,-0.0050757075195289,0.0450954730932265,0.605684999999994,
-0.0014365209960937,-0.0133117612304687,0.0547793339843761,0.0563918612159685,0.608596999999918,
0.044053310546875,-0.00852335791015624,-0.0122583124999984,0.0465146001332017,0.611606999999822,
-0.0014365209960937,-0.0204943662109374,-0.0649307490234357,0.0681034860172709,0.614513999999872,
-0.0110133276367188,-0.0157059628906249,0.0236547124023456,0.0304551485761124,0.617529999999988,
-0.0301669409179688,-0.0348595761718749,0.0116837041015643,0.0475577892333514,0.620450999999775,
0.00814028564453129,-0.0420421811523437,0.00928950244140836,0.0438189924807723,0.623398000000179,
0.00814028564453129,-0.0444363828125001,-0.0505655390624984,0.0678065639043497,0.626409999999851,
-0.00383072265624995,-0.0300711728515624,-0.00986411083984251,0.0318786849697152,0.62933299999986,
0.0943315454101562,-0.00373495458984374,0.0188663090820338,0.0962721557026505,0.632424999999785,
0.0272938989257813,-0.0492247861328126,0.102663367187501,0.117080329050903,0.635482000000138,
0.0296881005859375,-0.0252827695312499,-0.000287304199217076,0.0389959522934615,0.6384979999998,
0.024899697265625,-0.0516189877929687,0.0308373173828134,0.0650803731401318,0.641615999999885,
-0.0277727392578125,-0.0109175595703124,0.0116837041015643,0.0320472634461458,0.644542999999885,
-0.00622492431640631,-0.0109175595703124,-0.0122583124999984,0.0175558826341464,0.647543999999925,
0.0296881005859375,-0.0540131894531251,-0.0146525141601543,0.0633522227117048,0.650486999999885,
0.00574608398437504,-0.0755610043945312,-0.0290177241210916,0.0811450009515906,0.653512999999748,
-0.0349553442382813,-0.0420421811523437,-0.00986411083984251,0.0555582736370014,0.65644599999996,
0.0129286889648438,-0.0300711728515624,0.0475967290039083,0.0577656909150207,0.659397999999783,
0.0392649072265625,-0.0372537778320312,-0.0314119257812475,0.0625802363654493,0.662405999999919,
0.00814028564453129,-0.0516189877929687,-0.0912669672851543,0.10516864299103,0.665372999999818,
0.0129286889648438,0.0130244570312501,-0.00268150585937299,0.0185466426337061,0.668415000000095,
-0.0277727392578125,-0.0396479794921876,0.0140779057617202,0.0504130415104191,0.671371999999792,
-0.0110133276367188,-0.0109175595703124,0.0212605107421897,0.026315315115419,0.674321999999847,
-0.0301669409179688,0.0202070620117187,0.0475967290039083,0.0598650005542901,0.677381999999852,
0.0105344873046875,-0.0228885678710937,-0.00986411083984251,0.0270585041091149,0.680315999999948,
0.0272938989257813,-0.0252827695312499,0.0380199223632829,0.0531948291683611,0.683363999999983,
-0.0110133276367188,-0.0396479794921876,-0.0290177241210916,0.0503516035158208,0.686279000000013,
0.00574608398437504,-0.0204943662109374,0.0978749638671896,0.100162593214968,0.689213999999993,
-0.00383072265624995,-0.0133117612304687,-0.0433829340820289,0.0455407113766548,0.692203000000063,
0.0129286889648438,-0.0420421811523437,0.0404141240234388,0.0597327164540342,0.695153000000118,
0.000957680664062543,-0.0348595761718749,-0.00268150585937299,0.0349756726427229,0.698171999999886,
0.000957680664062543,-0.0109175595703124,-0.0745075556640611,0.0753092697498708,0.701109000000088,
0.024899697265625,-0.0372537778320312,-0.0314119257812475,0.0547224631021367,0.704033999999865,
-0.0181959326171875,-0.0516189877929687,-0.0338061274414052,0.0643309110549852,0.707034000000021,
0.0105344873046875,-0.0611957944335937,0.0236547124023456,0.0664488231496161,0.709978999999748,
0.0201112939453125,-0.0564073911132812,-0.0242293208007798,0.0646012221465549,0.713006999999834,
-0.0014365209960937,-0.0420421811523437,-0.0362003291015611,0.0554984001182019,0.715917999999874,
-0.00622492431640631,-0.0109175595703124,0.0116837041015643,0.0171595958941117,0.718839000000116,
0.0536301171875,-0.0133117612304687,-0.0194409174804662,0.0585776555444505,0.721846999999798,
0.0225054956054688,0.00823605371093761,-0.0433829340820289,0.0495621718929153,0.724807999999939,
0.00814028564453129,-0.0204943662109374,-0.0194409174804662,0.029397832730405,0.727808000000095,
-0.0134075292968751,0.00823605371093761,-0.0266235224609357,0.0309258204548232,0.730768999999782,
0.015322890625,-0.0109175595703124,-0.0266235224609357,0.0326005526380302,0.73368500000015,
0.0225054956054688,-0.0204943662109374,-0.0170467158203103,0.0348870591924026,0.736695000000054,
0.0296881005859375,-0.0204943662109374,-0.038594530761717,0.0528293494897096,0.739622999999938,
-0.0014365209960937,-0.0204943662109374,0.0595677373046897,0.0630110939959048,0.742644999999811,
0.0608127221679687,-0.0228885678710937,-0.0194409174804662,0.0678234693093071,0.745573000000149,
0.0177170922851563,-0.00852335791015624,0.0260489140625015,0.0326356999762677,0.748592999999801,
0.0368707055664063,0.0369664736328126,0.0188663090820338,0.0555149234007296,0.751557999999932,
0.0129286889648438,-0.0133117612304687,0.0116837041015643,0.0219285869800038,0.754492000000027,
-0.0349553442382813,-0.0611957944335937,0.00689530078125244,0.0708120506696377,0.757492000000184,
0.0177170922851563,-0.0396479794921876,-0.0122583124999984,0.0451234291937269,0.760423000000173,
-0.00861912597656256,-0.0444363828125001,-0.0697191523437475,0.083124254303961,0.763406000000032,
0.00814028564453129,-0.0659841977539062,0.0188663090820338,0.0691094510322575,0.766368000000057,
0.044053310546875,-0.0133117612304687,-0.000287304199217076,0.0460215134572876,0.769302000000152,
-0.00622492431640631,-0.0444363828125001,0.0260489140625015,0.0518834050929546,0.77243099999987,
0.0296881005859375,0.0178128603515626,-0.0314119257812475,0.0467481592321197,0.775486999999885,
-0.00622492431640631,0.00584185205078125,0.00450109912109475,0.00965074149618171,0.778624000000036,
-0.0014365209960937,-0.0300711728515624,0.00210689746093884,0.0301790994920602,0.781590999999935,
-0.00861912597656256,-0.00612915624999988,0.0428083256835947,0.0440954491616707,0.784503999999743,
0.0129286889648438,-0.0516189877929687,0.0380199223632829,0.0654001941559074,0.787523999999848,
0.024899697265625,-0.00373495458984374,0.0164721074218761,0.0300877904244528,0.790492999999969,
0.0272938989257813,-0.0372537778320312,0.00689530078125244,0.046694175805908,0.793537999999899,
-0.00383072265624995,-0.0468305844726562,0.0260489140625015,0.0537245195600229,0.796455000000151,
0.0225054956054688,-0.0252827695312499,-0.0649307490234357,0.0732237525422076,0.799395999999888,
0.0105344873046875,-0.0276769711914062,0.0164721074218761,0.0338868776965417,0.802454000000125,
0.0177170922851563,-0.0300711728515624,-0.0481713374023425,0.0594865408545463,0.805405999999948,
-0.0134075292968751,-0.0444363828125001,-0.00986411083984251,0.0474516031548599,0.808423999999832,
-0.00622492431640631,-0.0300711728515624,0.00689530078125244,0.0314733266795467,0.811369999999897,
0.015322890625,-0.0228885678710937,0.0260489140625015,0.0379107298812746,0.814342000000124,
-0.0205901342773438,-0.0109175595703124,0.035625720703127,0.0425715716429119,0.817363000000114,
-0.0158017309570313,-0.0444363828125001,-0.0481713374023425,0.0674148690262599,0.820275000000038,
0.044053310546875,0.00344765039062511,0.0188663090820338,0.0480470403015026,0.823338000000149,
-0.0110133276367188,-0.0564073911132812,-0.00986411083984251,0.0583128445584769,0.826244999999744,
0.0536301171875,-0.0348595761718749,-0.0122583124999984,0.0651279183282818,0.829159999999774,
0.0416591088867188,-0.0157059628906249,0.00450109912109475,0.0447483912208595,0.832190000000082,
0.000957680664062543,-0.0157059628906249,0.0116837041015643,0.0195985551536054,0.835129000000052,
-0.00622492431640631,-0.0348595761718749,0.0260489140625015,0.0439600461494676,0.838138000000072,
0.015322890625,-0.0204943662109374,0.109845972167971,0.112787178460233,0.841077000000041,
-0.00383072265624995,-0.00852335791015624,0.0260489140625015,0.0276743200452933,0.844083999999839,
0.015322890625,-0.0133117612304687,0.0164721074218761,0.0261404722046207,0.847034999999778,
0.000957680664062543,-0.0372537778320312,0.0380199223632829,0.0532379151688223,0.849980999999843,
-0.0134075292968751,-0.0133117612304687,-0.0194409174804662,0.0271092991681059,0.852968000000146,
0.00574608398437504,-0.0396479794921876,-0.000287304199217076,0.0400632288098614,0.855907000000116,
-0.00622492431640631,-0.00373495458984374,-0.0314119257812475,0.0322398611941768,0.858886999999868,
0.0105344873046875,-0.0133117612304687,-0.0050757075195289,0.0177183864009519,0.861829999999827,
0.0105344873046875,-0.0324653745117187,-0.0146525141601543,0.0371439380810961,0.864751000000069,
-0.0253785375976563,-0.0324653745117187,0.00689530078125244,0.0417805682781571,0.867784999999913,
0.0177170922851563,0.00823605371093761,0.0212605107421897,0.0288745087713879,0.870742000000064,
-0.0181959326171875,-0.0396479794921876,-0.0218351191406239,0.0487834671739043,0.873723000000155,
0.0225054956054688,-0.0157059628906249,-0.0314119257812475,0.0417119129752648,0.876647000000048,
0.0129286889648438,-0.00373495458984374,-0.0122583124999984,0.0182034916838909,0.879569000000174,
-0.0134075292968751,-0.0396479794921876,-0.0146525141601543,0.0443443377543629,0.88256999999976,
0.0320823022460938,0.00344765039062511,0.00928950244140836,0.0335776006622662,0.885534999999891,
0.0296881005859375,-0.0300711728515624,0.0236547124023456,0.0484273081216267,0.888548999999784,
0.00335188232421879,-0.0109175595703124,0.0667503422851574,0.0677202806939871,0.891501000000062,
0.0105344873046875,0.0154186586914062,-0.0745075556640611,0.0768120193045845,0.894443000000138,
-0.00383072265624995,-0.0109175595703124,0.0260489140625015,0.0285028676956551,0.897460000000137,
0.00574608398437504,-0.0540131894531251,-0.000287304199217076,0.0543187321258289,0.900389999999788,
0.015322890625,0.00344765039062511,0.00689530078125244,0.0171529135480137,0.903443000000152,
0.00335188232421879,-0.0276769711914062,0.0547793339843761,0.0614656430961001,0.906386000000111,
0.044053310546875,-0.0181001645507812,0.0380199223632829,0.0609411570567447,0.909376000000066,
-0.0110133276367188,0.00823605371093761,0.00928950244140836,0.0165958073612613,0.912492999999813,
0.000957680664062543,-0.0444363828125001,0.0380199223632829,0.0584895184304284,0.915525999999772,
-0.0158017309570313,-0.0516189877929687,-0.0146525141601543,0.0559366675198172,0.918595000000096,
-0.0373495458984375,0.00344765039062511,-0.0242293208007798,0.0446534977185726,0.921531999999843,
0.00574608398437504,0.00344765039062511,-0.0122583124999984,0.0139703256840736,0.92448400000012,
-0.0134075292968751,-0.00852335791015624,0.0116837041015643,0.0197210145135613,0.927505999999994,
-0.0014365209960937,-0.0228885678710937,0.0380199223632829,0.0444011782306724,0.930456999999933,
-0.0014365209960937,-0.0396479794921876,-0.0338061274414052,0.0521237002041267,0.933469999999943,
0.000957680664062543,-0.0444363828125001,-0.038594530761717,0.0588646504655425,0.936423000000104,
-0.0181959326171875,-0.0707726010742187,0.0116837041015643,0.0740024456903462,0.939432000000124,
-0.00622492431640631,-0.0181001645507812,-0.0601423457031238,0.0631147160825778,0.942384999999831,
0.03447650390625,-0.0204943662109374,-0.038594530761717,0.0556613525949811,0.945334000000003,
0.0105344873046875,-0.0252827695312499,-0.00986411083984251,0.0291117594900002,0.94836499999974,
0.00814028564453129,-0.0181001645507812,0.0140779057617202,0.0243324400292242,0.951359000000139,
0.0177170922851563,0.0154186586914062,-0.0290177241210916,0.0373317386154275,0.954405999999835,
-0.0277727392578125,-0.0611957944335937,-0.0673249506835916,0.095125702556087,0.957335999999941,
-0.0229843359375,-0.0276769711914062,0.0236547124023456,0.0430562405657469,0.960258999999951,
0.00814028564453129,-0.00373495458984374,0.0140779057617202,0.0166853698430281,0.963291000000027,
0.00574608398437504,-0.00373495458984374,-0.0074699091796866,0.0101374015455861,0.966221000000132,
-0.00622492431640631,0.00584185205078125,-0.0553539423828102,0.0560083552289092,0.969238000000132,
-0.0014365209960937,-0.00373495458984374,-0.0362003291015611,0.0364208361439128,0.972143999999844,
0.03447650390625,0.00344765039062511,0.00689530078125244,0.0353279038109763,0.975105999999869,
0.00814028564453129,-0.00852335791015624,-0.0218351191406239,0.024812986686903,0.978107999999793,
0.03447650390625,-0.0228885678710937,-0.00986411083984251,0.0425419386423331,0.981049999999868,
0.0464475122070312,0.0154186586914062,0.0260489140625015,0.0554405298486584,0.98408900000004,
0.0105344873046875,0.00105344873046875,-0.00986411083984251,0.0144701713763538,0.987035000000105,
-0.00861912597656256,-0.0348595761718749,-0.112814782226561,0.118391952734588,0.989939999999933,
0.015322890625,0.00105344873046875,0.00928950244140836,0.0179498074346878,0.992984999999862,
-0.0158017309570313,-0.0540131894531251,-0.0194409174804662,0.0595404787402644,0.995883999999933,
0.00335188232421879,0.0130244570312501,-0.0625365473632797,0.0639663298321392,0.998923999999988,
0.0177170922851563,-0.0204943662109374,-0.0050757075195289,0.0275622425113153,1.00185099999999,
0.00814028564453129,-0.0109175595703124,-0.0362003291015611,0.0386771403338873,1.00476900000012,
-0.0181959326171875,-0.0324653745117187,-0.0122583124999984,0.0391836538794304,1.00777599999992,
0.0272938989257813,-0.0228885678710937,0.0164721074218761,0.0392450478491013,1.01072900000008,
