X,Y,Z,Magnitude,Seconds,
0.0158496149902345,-0.0112048637695313,0.0738850632324226,0.0763921582120279,0.0,
0.049368438232422,-0.0423294853515627,-0.0314598098144518,0.0722409001687971,0.00384099999996579,
0.020638018310547,-0.0423294853515627,-0.0242772048339823,0.0529820328457277,0.00768300000004274,
0.011061211669922,-0.00402225878906259,0.0355778366699226,0.0374741435056854,0.0115329999998721,
0.0134554133300783,0.0151313544921874,0.0427604416503922,0.0473123811151804,0.015519999999924,
-0.0104866032714842,-0.00402225878906259,0.107403886474611,0.107989546919092,0.0193429999999353,
-0.0152750065917967,-0.0112048637695313,0.0355778366699226,0.0403070373580704,0.0234029999999166,
0.0158496149902345,-0.00162805712890635,0.0714908615722667,0.0732448233918183,0.0273429999999735,
0.0158496149902345,-0.00881066210937509,0.0044532150878922,0.0186726855798323,0.0312449999998989,
0.0230322199707033,0.0127371528320311,0.0331836350097667,0.0423541243742189,0.0350869999999759,
0.0230322199707033,0.00316034619140615,0.0116358200683599,0.0259973701264503,0.0390720000000329,
0.0230322199707033,-0.0375410820312502,0.0714908615722667,0.0839687994745722,0.0430320000000393,
0.0350032282714846,-0.0255700737304688,-0.00751779321288915,0.0439951346719047,0.0470490000000154,
0.0637336481933595,-0.0303584770507814,-0.048219221435545,0.0854909840669054,0.051001000000042,
0.020638018310547,0.0151313544921874,0.00205901342773629,0.0256734342239271,0.0550020000000586,
0.00387860668945328,-0.00402225878906259,0.0355778366699226,0.0360139503210819,0.0589290000000346,
0.00148440502929703,0.0127371528320311,0.0379720383300786,0.0400788499772446,0.0627839999999651,
-0.00569819995117171,-0.00641646044921884,0.0379720383300786,0.0389296306471161,0.066620999999941,
0.0254264216308596,-0.0399352836914064,0.0451546433105481,0.065423784764917,0.0705089999999018,
0.0421858332519533,0.0175255561523436,-0.00991199487304506,0.0467443824215684,0.0745339999998578,
0.020638018310547,-0.0303584770507814,0.0236068283691413,0.0436445560669299,0.0784069999999701,
0.020638018310547,-0.0159932670898438,0.00684741674804812,0.0269925824647255,0.0823379999999361,
0.0158496149902345,0.000766144531249902,-0.0170945998535146,0.0233242924208477,0.0863329999999678,
0.0517626398925783,-0.0112048637695313,0.0140300217285176,0.0547883324298629,0.0903399999999692,
0.0278206232910158,-0.0399352836914064,0.0140300217285176,0.050652299785068,0.0942039999999906,
0.068522051513672,0.000766144531249902,0.026001030029299,0.0732933290529881,0.0981910000000425,
-0.00809240161132796,0.0151313544921874,0.0044532150878922,0.0177278305843184,0.102063999999928,
0.00866701000976578,0.0318907661132811,0.0236068283691413,0.0406130566622542,0.106006999999863,
0.0541568415527345,-0.0614830986328126,0.0331836350097667,0.0883984645620136,0.109993999999915,
-0.00809240161132796,-0.0231758720703126,0.0116358200683599,0.0271661612805668,0.113841999999977,
0.0254264216308596,-0.0279642753906251,0.00205901342773629,0.037851593775805,0.117856000000074,
0.00387860668945328,-0.0327526787109377,0.0140300217285176,0.0358416386664457,0.121875999999929,
0.0373974299316408,-0.00162805712890635,0.0403662399902363,0.0550513548103615,0.125806000000011,
0.0541568415527345,0.0247081611328124,0.0044532150878922,0.0596932813485073,0.129670999999917,
-0.0128808049316405,-0.00402225878906259,0.0379720383300786,0.0402985036495664,0.133530000000064,
-0.0152750065917967,-0.00641646044921884,0.0331836350097667,0.0370897617077441,0.137377999999899,
0.0302148249511721,-0.0159932670898438,0.0619140549316413,0.0707253168046305,0.141300000000001,
-0.0152750065917967,-0.0351468803710939,0.0427604416503922,0.0574202437850625,0.145141999999851,
-0.00330399829101546,-0.00402225878906259,0.0762792648925803,0.0764566623848155,0.149231999999984,
-0.00809240161132796,-0.0112048637695313,-0.00991199487304506,0.0170083384931054,0.153274999999894,
0.0158496149902345,0.0175255561523436,-0.0170945998535146,0.0291647176900343,0.157218000000057,
0.020638018310547,-0.0135990654296876,0.0331836350097667,0.0413765152327841,0.161188999999922,
0.0421858332519533,0.00316034619140615,0.0331836350097667,0.0537660296811338,0.165146999999934,
0.0278206232910158,-0.00641646044921884,0.0738850632324226,0.0792095992532224,0.169003999999859,
-0.0224576115722654,-0.0303584770507814,0.0762792648925803,0.0851146738167163,0.172925999999961,
0.0302148249511721,-0.00402225878906259,-0.0170945998535146,0.0349476688313819,0.177034999999933,
0.011061211669922,-0.0112048637695313,0.0355778366699226,0.0389060642806782,0.18099600000005,
0.0326090266113283,-0.0471178886718752,0.047548844970704,0.0744603028967891,0.185027999999875,
0.0134554133300783,-0.0135990654296876,0.00684741674804812,0.0203191989154499,0.189022000000023,
0.0230322199707033,0.00794874951171864,0.0571256516113294,0.0621047972993866,0.192997999999989,
-0.00809240161132796,-0.0255700737304688,-0.0242772048339823,0.0361759354954612,0.196893999999929,
-0.00809240161132796,0.0199197578124999,-0.00272938989257732,0.0216733311775873,0.200878999999986,
0.0421858332519533,-0.0159932670898438,-0.00991199487304506,0.0461917391070304,0.204746999999998,
0.011061211669922,-0.0375410820312502,0.0283952316894549,0.0483525844850272,0.208677999999964,
0.0254264216308596,-0.0207816704101563,0.00684741674804812,0.0335450124177658,0.21254799999997,
0.0182438166503908,-0.00162805712890635,-0.0147003981933587,0.023485934578623,0.216425999999956,
0.0254264216308596,0.0247081611328124,0.0786734665527362,0.0862931659109791,0.220436000000063,
0.00866701000976578,-0.0566946953125002,0.00684741674804812,0.0577606497124821,0.224334999999883,
0.0373974299316408,-0.0135990654296876,0.0547314499511735,0.0676685596108763,0.228350999999975,
0.0230322199707033,-0.0112048637695313,0.047548844970704,0.0540085621630558,0.232230999999956,
-0.0296402165527342,-0.0183874687500001,-0.00991199487304506,0.0362613994033391,0.236036999999897,
0.0445800349121095,-0.0159932670898438,-0.0147003981933587,0.0495909851889967,0.239867000000004,
-0.0200634099121092,-0.0231758720703126,-0.0147003981933587,0.0339965170357806,0.243784000000005,
0.00148440502929703,-0.0399352836914064,0.00205901342773629,0.0400158703279051,0.247728000000052,
0.0182438166503908,0.000766144531249902,-0.0386424147949214,0.0427394436627174,0.251653999999917,
-0.00569819995117171,0.0103429511718749,0.00924161840820403,0.014995120287286,0.255615999999918,
-0.0248518132324217,-0.0327526787109377,-0.00751779321288915,0.041795547591494,0.259436000000051,
0.020638018310547,0.0127371528320311,0.0379720383300786,0.0450559491853623,0.263324000000011,
0.0302148249511721,-0.0135990654296876,0.026001030029299,0.0421179746661138,0.267167999999856,
0.00387860668945328,-0.0471178886718752,0.0427604416503922,0.0637463284659069,0.270968000000039,
0.0182438166503908,0.0199197578124999,0.128951701416018,0.131750426547194,0.275051000000076,
0.0134554133300783,-0.0638773002929689,0.0451546433105481,0.0793744256867676,0.278925000000072,
0.00148440502929703,-0.0566946953125002,0.0595198532714853,0.0822137754170636,0.282754999999952,
0.0350032282714846,-0.0327526787109377,-0.000335188232421402,0.0479382551134135,0.286779000000024,
0.0182438166503908,-0.0207816704101563,-0.00991199487304506,0.0293762202022778,0.290692999999919,
0.00627280834960953,-0.00162805712890635,0.0164242233886736,0.0176565514335888,0.29476899999986,
0.00627280834960953,-0.0159932670898438,-0.00512359155273323,0.0179271834708426,0.298796999999922,
-0.00330399829101546,-0.0183874687500001,-0.0362482131347637,0.0407792639364974,0.878334999999879,
0.0278206232910158,-0.123732341796875,0.289363212646485,0.315934721611814,0.884532000000036,
-0.0296402165527342,-0.624120488769531,-0.261303169189452,0.677262337036146,0.888404999999921,
0.0996466730957034,-0.0566946953125002,-0.17990031274414,0.213325737924561,0.892124999999851,
0.0134554133300783,0.857890338867188,0.342035649169922,0.923658631190458,0.895085999999992,
0.00866701000976578,0.675931012695312,0.255844389404299,0.722782264984053,0.898036000000047,
0.0828872614746095,-1.08620140917969,-0.488752326904295,1.19397765325531,0.901055999999926,
-0.0104866032714842,-0.961702922851563,-0.0841322463378891,0.965432916127926,0.903996000000006,
-0.16610971118164,1.31278865429687,0.636522453369142,1.46838936275176,0.907007999999905,
0.221750957763672,0.841130927246094,-0.0362482131347637,0.870625440125915,0.909954999999854,
0.23611616772461,-1.2825259453125,-0.340311823974607,1.34775212208982,0.91287699999998,
-0.192445929443359,-0.674398723632813,0.083461869873048,0.706268332802477,0.915894999999864,
-0.300185004150391,1.00872504345703,0.193595146240236,1.07010108431958,0.918818999999985,
0.358220452392578,0.46045286328125,-0.00272938989257732,0.583391962050756,0.92185500000005,
0.23611616772461,-0.552294438964844,0.0164242233886736,0.600874152453215,0.924792999999909,
-0.206811139404297,-0.427795952636719,-0.0625844313964823,0.479267185948801,0.927682000000004,
-0.319338617431641,0.103716815917969,-0.0338540114746078,0.337461737950003,0.930691999999908,
0.118800286376953,0.259339923828125,0.0523372482910176,0.29001705414182,0.933647000000065,
0.559333391845704,0.233003705566406,0.0714908615722667,0.610127456626598,0.936682000000019,
-0.00569819995117171,0.0127371528320311,-0.148775691162108,0.149428614481005,0.939615999999887,
-0.683257269775391,-0.444555364257813,0.026001030029299,0.815564848527634,0.942549999999983,
-0.0583706364746092,-0.26738444140625,0.0882502731933599,0.287558135734822,0.945557999999892,
0.863397002685547,0.407780426757812,0.0188184250488295,0.955035807608536,0.948513000000048,
0.181049529541016,0.482000678222656,0.0714908615722667,0.519821632141708,0.951551999999992,
-0.757477521240234,-0.403853936035156,-0.0745554396972636,0.861643029579994,0.954436999999871,
-0.170898114501953,-0.736647966796875,-0.0386424147949214,0.757198539847691,0.957445999999891,
0.655101458251953,0.388626813476562,0.0379720383300786,0.762647098238578,0.960534999999936,
0.245692974365235,0.824371515625,0.0714908615722667,0.863171116705512,0.963606999999911,
-0.498903741943359,-0.513987212402344,-0.0410366164550773,0.717475994112904,0.966709000000037,
-0.264271979248047,-0.894665276367188,-0.086526447998045,0.936884444291832,0.969675000000052,
0.437229107177735,0.663960004394531,0.112192289794923,0.802869409984247,0.972690000000057,
0.272029192626953,0.702267230957031,0.150499516357423,0.768003417792621,0.975660000000062,
-0.403135675537109,-0.782137798339844,-0.124833674560545,0.888730192345769,0.978574999999864,
-0.182869122802734,-0.561871245605469,-0.0745554396972636,0.59556605536358,0.981585999999879,
0.264846587646485,0.80521790234375,0.0690966599121108,0.850466891568311,0.984539999999924,
0.149924907958985,0.446087653320312,0.172047331298829,0.501070810044232,0.987585999999965,
-0.20441693774414,-0.734253765136719,-0.108074262939452,0.769801872148961,0.990500999999995,
-0.0751300480957029,-0.339210491210938,-0.0673728347167959,0.353903066293872,0.993430999999873,
0.118800286376953,0.640017987792969,0.133740104736329,0.664547175418488,0.996495999999979,
0.0254264216308596,0.225821100585937,0.064308256591799,0.236172022586654,0.999501999999893,
-0.0871010563964843,-0.571448052246094,-0.0410366164550773,0.579502781987558,1.00248299999998,
0.087675664794922,-0.185981584960938,0.0427604416503922,0.210011017596579,1.00542599999994,
0.0804930598144533,0.400597821777344,0.11458649145508,0.42436754295661,1.008374,
-0.137379291259766,0.0749863959960937,0.0164242233886736,0.157371485236175,1.01137999999992,
-0.0296402165527342,-0.264990239746094,0.0427604416503922,0.270049671297933,1.01429400000006,
0.15950171459961,-0.126126543457031,0.085856071533204,0.220725999700417,1.01733300000001,
0.142742302978516,0.216244293945312,0.0116358200683599,0.25936914240553,1.02029100000004,
-0.20441693774414,0.110899420898437,0.0499430466308599,0.237863981928902,1.02322200000003,
-0.0272460148925779,-0.238654021484375,0.0427604416503922,0.243980619452299,1.02622799999995,
0.231327764404297,-0.0997903251953126,-0.0314598098144518,0.253890455158199,1.02915899999994,
0.011061211669922,0.221032697265625,0.083461869873048,0.236524179285818,1.032197,
-0.249906769287109,0.0701979926757811,0.0667024582519549,0.268011883035218,1.03512299999988,
0.106829278076172,-0.274567046386719,-0.0386424147949214,0.297141033579991,1.03803300000004,
0.269634990966797,-0.0830309135742189,0.0188184250488295,0.282756598656782,1.04104600000005,
-0.101466266357422,0.254551520507812,0.0547314499511735,0.279441248592817,1.04397599999993,
-0.245118365966797,0.156389252441406,0.0379720383300786,0.293227705560636,1.04698800000006,
0.209779949462891,-0.274567046386719,0.0331836350097667,0.34712511259003,1.04992700000003,
0.286394402587891,-0.205135198242188,-0.0362482131347637,0.354141407275399,1.05291899999997,
-0.120619879638672,0.259339923828125,-0.012306196533201,0.286282716782448,1.05586700000003,
-0.206811139404297,0.1731486640625,0.0523372482910176,0.274755336266664,1.0588009999999,
0.14034810131836,-0.207529399902344,-0.00272938989257732,0.250546384800662,1.06181900000001,
0.269634990966797,-0.181193181640625,-0.0170945998535146,0.325309426194307,1.06479799999988,
-0.0990720646972655,0.149206647460937,0.0164242233886736,0.179854532230446,1.06795199999988,
-0.249906769287109,0.120476227539062,0.0403662399902363,0.280352185774454,1.07102699999996,
0.116406084716797,-0.116549736816406,0.00205901342773629,0.16473754049203,1.07407499999999,
0.240904571044922,-0.0662715019531251,0.109798088134767,0.272914903366436,1.07712100000003,
-0.065553241455078,0.0701979926757811,0.0714908615722667,0.119732739588309,1.08006899999987,
-0.16610971118164,-0.00402225878906259,-0.0434308181152332,0.171740649459505,1.0830739999999,
0.0517626398925783,-0.102184526855469,0.0667024582519549,0.132552881349967,1.08603500000004,
0.147530706298828,0.00316034619140615,0.0164242233886736,0.148475763015388,1.08903800000007,
-0.0272460148925779,0.0821690009765624,-0.00751779321288915,0.0868942303251756,1.09204999999997,
-0.0703416447753905,-0.0758483085937501,-0.0434308181152332,0.112192463509803,1.09499299999993,
0.0565510432128908,-0.147674358398438,0.0164242233886736,0.158982677455053,1.09803899999997,
0.0757046564941408,0.0247081611328124,0.0523372482910176,0.0952936293785502,1.10102099999995,
-0.0296402165527342,0.118082025878906,0.047548844970704,0.130701185652647,1.10398399999985,
-0.0703416447753905,-0.0303584770507814,-0.048219221435545,0.0905244576586911,1.10702399999991,
0.0326090266113283,-0.183587383300781,0.0427604416503922,0.191301153404528,1.11002000000008,
0.0924640681152345,0.0342849677734374,-0.00512359155273323,0.0987487422605655,1.11307999999985,
-0.0392170231933592,0.120476227539062,0.0451546433105481,0.134504416740475,1.11606000000006,
-0.017669208251953,-0.00162805712890635,0.0283952316894549,0.0334834387864163,1.11901199999988,
0.0661278498535158,-0.0997903251953126,0.0116358200683599,0.120276322846596,1.12207199999989,
0.109223479736328,0.0247081611328124,0.00684741674804812,0.112192463509804,1.12506299999995,
0.0134554133300783,0.0390733710937499,0.0212126267089854,0.0464516093198922,1.12810899999999,
-0.0751300480957029,0.0199197578124999,0.0188184250488295,0.0799715824495783,1.13104699999985,
0.00148440502929703,-0.0255700737304688,0.0044532150878922,0.0259973701264502,1.13399600000002,
0.116406084716797,-0.0566946953125002,0.0738850632324226,0.1490760463808,1.13704400000006,
-0.0272460148925779,-0.0255700737304688,0.0164242233886736,0.0408157948842019,1.13998399999991,
-0.115831476318359,-0.00402225878906259,0.0283952316894549,0.119328951451668,1.14297999999985,
0.087675664794922,-0.00881066210937509,0.0355778366699226,0.0950285874153078,1.14591900000005,
0.12119448803711,-0.0543004936523439,-0.0194888015136705,0.134225410879999,1.14890700000001,
-0.055976434814453,0.0438617744140624,0.00924161840820403,0.0717120911708036,1.15186799999992,
-0.046399628173828,-0.00162805712890635,0.0212126267089854,0.051044603990816,1.15477199999987,
0.10204087475586,-0.0447236870117189,0.0906444748535176,0.143627884208928,1.15781700000002,
0.00866701000976578,-0.00402225878906259,0.0499430466308599,0.0508488302230034,1.160797,
0.00627280834960953,0.0510443793945311,0.0164242233886736,0.0539873309794512,1.16384999999991,
0.0350032282714846,-0.0686657036132814,0.0499430466308599,0.0918396033795057,1.16682300000002,
0.0326090266113283,-0.0782425102539064,0.0140300217285176,0.0859190347773626,1.16977999999995,
-0.0583706364746092,0.0271023627929686,-0.012306196533201,0.065521841736374,1.17282499999988,
0.0182438166503908,0.0606211860351561,0.00684741674804812,0.0636761506248888,1.17579599999999,
0.011061211669922,-0.0447236870117189,-0.00512359155273323,0.0463552561629019,1.1788039999999,
0.039791631591797,-0.0423294853515627,-0.0218830031738264,0.0620807949592397,1.18174299999987,
-0.0511880314941405,0.0462559760742186,-0.0290656081542959,0.074864140068546,1.18466799999987,
-0.00569819995117171,0.0199197578124999,0.0140300217285176,0.0250221450658184,1.18769199999997,
0.0350032282714846,-0.0710599052734376,-0.012306196533201,0.0801634492771447,1.19063200000005,
0.0445800349121095,-0.0375410820312502,0.0810676682128921,0.0998432730949738,1.193669,
-0.0200634099121092,-0.0231758720703126,0.00684741674804812,0.0314093708889921,1.19659499999989,
-0.00809240161132796,-0.0519062919921877,-0.012306196533201,0.0539554685396303,1.19950399999993,
0.0182438166503908,-0.00402225878906259,0.0140300217285176,0.023363581091989,1.20253899999989,
0.087675664794922,0.000766144531249902,0.0331836350097667,0.0937484016244315,1.20556999999985,
0.0230322199707033,-0.0231758720703126,-0.0242772048339823,0.0407061036891213,1.20867599999997,
-0.0487938298339842,-0.0303584770507814,-0.0386424147949214,0.0692510734927148,1.21168999999986,
0.0350032282714846,0.0127371528320311,0.00924161840820403,0.0383779697547308,1.2147359999999,
0.128377093017578,-0.00881066210937509,0.0236068283691413,0.130826557411329,1.21776699999987,
-0.0104866032714842,-0.0327526787109377,-0.0362482131347637,0.0499663863650221,1.22067900000002,
-0.036822821533203,-0.0183874687500001,0.0164242233886736,0.0443144931892423,1.2236969999999,
0.0421858332519533,0.0294965644531249,0.0379720383300786,0.0639653620066354,1.22667999999999,
0.106829278076172,-0.0327526787109377,0.0164242233886736,0.112937981790623,1.22963000000004,
0.0158496149902345,-0.0159932670898438,0.0547314499511735,0.0591821468122234,1.23265500000002,
-0.0631590397949217,-0.0303584770507814,0.00684741674804812,0.0704101452404465,1.23557800000003,
0.0948582697753907,-0.0255700737304688,-0.00751779321288915,0.0985314022540742,1.23861099999999,
0.097252471435547,-0.0279642753906251,0.0379720383300786,0.108082929241326,1.24158399999988,
0.0134554133300783,0.000766144531249902,-0.0338540114746078,0.036438018857354,1.24460599999998,
-0.0487938298339842,-0.0135990654296876,-0.012306196533201,0.0521269113178836,1.24755899999991,
0.0421858332519533,-0.0806367119140626,0.026001030029299,0.0946465921101106,1.25053699999989,
0.0709162531738283,0.000766144531249902,-0.000335188232421402,0.0709211836675646,1.25357499999996,
-0.00809240161132796,-0.0303584770507814,-0.02667140649414,0.0412127166910591,1.25650100000007,
-0.036822821533203,0.0151313544921874,0.0236068283691413,0.0462834789107782,1.25951699999996,
0.011061211669922,-0.00162805712890635,0.0427604416503922,0.0441979223918771,1.26248199999986,
0.0709162531738283,-0.0231758720703126,0.0762792648925803,0.106699401418126,1.26541299999985,
0.00148440502929703,-0.0207816704101563,0.0547314499511735,0.0585628969321462,1.26844400000004,
-0.00569819995117171,0.000766144531249902,0.00684741674804812,0.00894111717000439,1.271387,
0.0613394465332033,0.000766144531249902,0.0164242233886736,0.0635048800673107,1.27443199999993,
0.0230322199707033,0.0151313544921874,0.0619140549316413,0.0677701353372221,1.27740300000005,
-0.0104866032714842,0.0223139594726561,0.0307894333496108,0.0394445286638207,1.28033299999993,
0.039791631591797,-0.0399352836914064,-0.0338540114746078,0.0657593713562811,1.28334700000005,
0.011061211669922,0.00316034619140615,-0.012306196533201,0.0168457907137101,1.28631399999995,
0.0134554133300783,-0.00641646044921884,0.0619140549316413,0.0636833519112957,1.28934699999991,
0.0182438166503908,-0.0159932670898438,0.0283952316894549,0.0373485022574933,1.29229800000007,
0.0254264216308596,0.00794874951171864,0.0140300217285176,0.0301085875698773,1.29524100000003,
0.0350032282714846,-0.0471178886718752,-0.0434308181152332,0.0730175142310346,1.29823799999986,
0.049368438232422,-0.00641646044921884,0.0403662399902363,0.0640924877747323,1.30119599999989,
0.058945244873047,0.0175255561523436,-0.00991199487304506,0.0622891214736225,1.30424999999991,
-0.00809240161132796,-0.0327526787109377,0.0283952316894549,0.0440966451023063,1.307186,
0.0134554133300783,-0.0303584770507814,0.00684741674804812,0.0339053446059396,1.31012599999985,
0.039791631591797,0.00794874951171864,0.047548844970704,0.0625095930364723,1.31316700000002,
-0.0224576115722654,-0.0375410820312502,0.0307894333496108,0.0534945451761012,1.31608699999992,
0.00627280834960953,-0.00402225878906259,-0.0338540114746078,0.0346644022489931,1.31909900000005,
0.011061211669922,-0.00641646044921884,0.064308256591799,0.0655673183390923,1.32205799999997,
0.0254264216308596,0.0151313544921874,0.0283952316894549,0.0410091451802681,1.32500099999993,
0.039791631591797,-0.0231758720703126,0.0714908615722667,0.0850378637978506,1.32801799999993,
0.00387860668945328,-0.0135990654296876,0.0331836350097667,0.0360712046218838,1.330962,
0.011061211669922,-0.0351468803710939,0.0523372482910176,0.064006571241572,1.33398999999986,
0.020638018310547,-0.0255700737304688,0.085856071533204,0.0919294375566539,1.33693300000004,
-0.0128808049316405,-0.0327526787109377,-0.0530076247558586,0.0636275206234441,1.33990500000004,
0.00387860668945328,-0.0279642753906251,0.0667024582519549,0.0724310860392689,1.34287100000006,
0.0254264216308596,-0.0543004936523439,0.0667024582519549,0.0896898236406576,1.34591299999988,
-0.00330399829101546,0.000766144531249902,0.0283952316894549,0.0285970726622083,1.34904299999994,
0.020638018310547,-0.0207816704101563,-0.0338540114746078,0.0447649384870092,1.35207999999989,
-0.0104866032714842,-0.0375410820312502,0.0619140549316413,0.0731618198675296,1.35512599999993,
0.0373974299316408,0.000766144531249902,0.0738850632324226,0.0828139922464425,1.35809799999993,
0.00148440502929703,0.0223139594726561,0.0283952316894549,0.0361442309136073,1.36103800000001,
0.0230322199707033,-0.0279642753906251,0.0523372482910176,0.0636527408174794,1.36405100000002,
0.049368438232422,-0.00641646044921884,-0.00751779321288915,0.0503480970146501,1.36701399999993,
0.0613394465332033,-0.0519062919921877,-0.0625844313964823,0.101850880715873,1.37002699999994,
0.00387860668945328,0.00316034619140615,-0.00512359155273323,0.00716118483913426,1.37299200000007,
-0.00809240161132796,-0.0279642753906251,-0.00272938989257732,0.0292393096899952,1.37589800000001,
0.049368438232422,0.0151313544921874,0.0212126267089854,0.0558227204117774,1.37893699999995,
0.0373974299316408,0.00794874951171864,0.0164242233886736,0.0416113626094254,1.38191899999993,
-0.00330399829101546,-0.0207816704101563,0.0427604416503922,0.0476576289787899,1.38492900000006,
0.00627280834960953,-0.0112048637695313,0.026001030029299,0.0289991492852669,1.38791399999991,
0.0302148249511721,-0.00402225878906259,-0.0314598098144518,0.0438044957299778,1.39084200000002,
0.039791631591797,0.0247081611328124,0.0667024582519549,0.0815051232018951,1.39388699999995,
-0.0152750065917967,-0.0231758720703126,0.0355778366699226,0.0451245978897388,1.39680599999997,
-0.00569819995117171,-0.0159932670898438,0.0236068283691413,0.0290781089574393,1.39981699999998,
0.011061211669922,-0.0303584770507814,0.026001030029299,0.0414733781483273,1.40275999999994,
0.0541568415527345,-0.0135990654296876,-0.0147003981933587,0.0577407981809415,1.40568600000006,
-0.0272460148925779,0.0175255561523436,0.0140300217285176,0.0353034269679051,1.40872999999988,
-0.0248518132324217,-0.00402225878906259,0.0188184250488295,0.0314312632266629,1.41165599999999,
0.00866701000976578,-0.0255700737304688,0.026001030029299,0.0374833202328115,1.41468800000007,
0.0852814631347658,-0.0303584770507814,-0.0769496413574213,0.118809984379618,1.41764399999988,
0.00866701000976578,-0.0159932670898438,-0.0242772048339823,0.0303361884433031,1.42056699999989,
0.00387860668945328,-0.00881066210937509,-0.0386424147949214,0.0398234551218225,1.42358300000001,
0.0302148249511721,-0.0207816704101563,-0.00512359155273323,0.0370278903296633,1.42652199999998,
0.0421858332519533,0.0223139594726561,0.00684741674804812,0.0482124924747767,1.42958199999998,
-0.0104866032714842,-0.00402225878906259,-0.00991199487304506,0.014979821637889,1.43249500000002,
0.011061211669922,-0.0255700737304688,0.0547314499511735,0.0614142547617916,1.43550699999992,
0.0254264216308596,-0.00881066210937509,0.0212126267089854,0.0342652333371682,1.43847499999993,
0.00387860668945328,-0.0279642753906251,0.0499430466308599,0.0573703076054716,1.441417,
-0.0128808049316405,-0.0303584770507814,-0.00751779321288915,0.0338240961345837,1.44441200000006,
0.0254264216308596,-0.0423294853515627,-0.00991199487304506,0.0503640336891484,1.44735500000002,
0.0230322199707033,-0.0351468803710939,-0.02667140649414,0.049770978300356,1.45036899999991,
-0.00330399829101546,-0.00162805712890635,0.00924161840820403,0.00994859213782893,1.45331299999998,
0.00148440502929703,-0.0207816704101563,0.0164242233886736,0.0265299151383569,1.45624599999996,
0.0709162531738283,-0.0207816704101563,-0.0147003981933587,0.0753464962443124,1.45926499999996,
0.0230322199707033,-0.0135990654296876,-0.02667140649414,0.037772763490582,1.46219900000006,
-0.017669208251953,-0.0375410820312502,-0.00272938989257732,0.0415810453153073,1.465191,
-0.00809240161132796,-0.00641646044921884,0.0379720383300786,0.0393514119629318,1.46812499999987,
0.0541568415527345,-0.0159932670898438,0.00205901342773629,0.0565065271935081,1.47105799999986,
0.0254264216308596,0.0151313544921874,0.0188184250488295,0.0350655661160189,1.47409799999991,
-0.0128808049316405,-0.00641646044921884,-0.0338540114746078,0.0367855976342133,1.47700699999996,
0.0302148249511721,-0.0231758720703126,0.0116358200683599,0.0398176970920307,1.48003500000004,
0.0278206232910158,-0.0112048637695313,-0.0170945998535146,0.0345218973485837,1.48302699999999,
-0.000909796630859216,-0.0183874687500001,0.0212126267089854,0.0280874040957243,1.48605299999986,
-0.0320344182128905,0.0127371528320311,0.0690966599121108,0.0772190871709501,1.4891869999999,
-0.00330399829101546,-0.0159932670898438,-0.0458250197753891,0.0486480568402163,1.49219399999993,
0.0254264216308596,0.0199197578124999,-0.0410366164550773,0.0522235919708709,1.49523799999997,
-0.017669208251953,-0.00881066210937509,0.0283952316894549,0.0345849370355692,1.49817099999996,
0.00866701000976578,-0.00641646044921884,0.0140300217285176,0.0176954665637402,1.50111199999992,
0.0278206232910158,-0.00402225878906259,0.0140300217285176,0.0314166700299296,1.50415499999986,
-0.0200634099121092,-0.0351468803710939,0.00924161840820403,0.0415120600298776,1.50709600000005,
0.011061211669922,0.0175255561523436,0.0188184250488295,0.0279933678462271,1.51014599999985,
-0.00569819995117171,-0.0423294853515627,0.064308256591799,0.0771997841880944,1.51306399999999,
0.0278206232910158,-0.00402225878906259,0.00205901342773629,0.0281851943822,1.51601200000005,
0.0326090266113283,0.0055545478515624,0.0307894333496108,0.045190605487908,1.51906299999996,
-0.0344286198730467,-0.0112048637695313,-0.00512359155273323,0.0365667886046306,1.52197699999988,
0.0230322199707033,-0.0303584770507814,0.026001030029299,0.0461321346591093,1.52504899999985,
0.011061211669922,-0.0519062919921877,0.0595198532714853,0.0797447583571748,1.52802199999996,
0.00387860668945328,-0.0135990654296876,-0.00751779321288915,0.0160154733056553,1.53102699999999,
0.00866701000976578,-0.0159932670898438,-0.0362482131347637,0.0405565606305529,1.53396599999996,
0.020638018310547,-0.0375410820312502,0.0379720383300786,0.0572462779122318,1.5369169999999,
0.020638018310547,-0.00162805712890635,-0.0218830031738264,0.0301238144614382,1.53992500000004,
0.0302148249511721,-0.0686657036132814,0.0283952316894549,0.0802134881565114,1.54287499999987,
0.0182438166503908,0.0151313544921874,0.0499430466308599,0.0552820281964542,1.54589499999997,
-0.0152750065917967,-0.0399352836914064,0.0044532150878922,0.0429881824983515,1.54881899999987,
-0.017669208251953,-0.00162805712890635,0.0427604416503922,0.0462958622384599,1.55173599999989,
0.0254264216308596,0.0223139594726561,0.026001030029299,0.0426669575536163,1.55478999999991,
-0.00330399829101546,0.00316034619140615,-0.012306196533201,0.0131280869082413,1.55771299999992,
0.0278206232910158,-0.0279642753906251,0.0906444748535176,0.0988554935240997,1.56074799999988,
0.0350032282714846,-0.0375410820312502,-0.02667140649414,0.0578439517484617,1.56367999999998,
0.0158496149902345,0.0223139594726561,0.0236068283691413,0.0361442309136064,1.5666369999999,
0.0254264216308596,-0.0375410820312502,0.00924161840820403,0.0462735698626133,1.569659,
0.0230322199707033,-0.0255700737304688,-0.0170945998535146,0.038425735796628,1.57260300000007,
0.0278206232910158,-0.0303584770507814,-0.012306196533201,0.0429775136816592,1.57561399999986,
0.0517626398925783,0.0127371528320311,0.0355778366699226,0.0640889102187496,1.57859200000007,
0.020638018310547,-0.0231758720703126,0.047548844970704,0.0567797631560225,1.58153799999991,
0.0302148249511721,0.0103429511718749,0.0786734665527362,0.0849083424947058,1.58458999999993,
0.0733104548339845,-0.0303584770507814,0.0212126267089854,0.0821342525911283,1.58753999999999,
-0.0152750065917967,-0.00881066210937509,-0.02667140649414,0.0319737004045616,1.59053900000004,
0.0182438166503908,-0.0207816704101563,0.0116358200683599,0.0300017829415635,1.59348999999997,
-0.0248518132324217,-0.0112048637695313,0.0307894333496108,0.0411236039157933,1.59640300000001,
-0.00330399829101546,-0.0231758720703126,-0.0290656081542959,0.0373208658568582,1.59940499999993,
0.0517626398925783,-0.0279642753906251,0.0212126267089854,0.0625407636559246,1.60236600000007,
