X,Y,Z,Magnitude,Seconds,
-0.018770541015625,0.0123540805664062,-0.0651222851562459,0.0688902644836839,0.0,
-0.0235589443359375,-0.0211647426757813,0.0162805712890677,0.0356093694447719,0.00379699999939476,
0.0123540805664062,0.0123540805664062,0.0114921679687541,0.020912114620587,0.00765299999966373,
0.0291134921875,0.0147482822265624,-0.0268150585937459,0.0422392545314425,0.0115139999998064,
-0.0331357509765625,-0.0115879360351563,-0.0100556469726509,0.0365153979900838,0.0153000000000247,
-0.00679953271484374,-0.0163763393554688,-0.00766144531249502,0.0193162077049833,0.0190869999996721,
0.0051714755859375,0.0482671054687499,0.00909796630859816,0.0493885677158162,0.0230480000000171,
-0.0427125576171875,-0.0115879360351563,0.00430956298828633,0.0444658877444996,0.026836999999432,
0.0410845004882813,0.0219308872070312,-0.00287304199218319,0.0466599867589775,0.0306489999993573,
-0.0522893642578125,0.0362960971679687,-0.0723048901367136,0.0963305840415963,0.034404999999424,
-0.0139821376953125,-0.00919373437500004,-0.081881696777339,0.0835741418946365,0.038180999999895,
0.0315076938476563,0.0482671054687499,0.0258573779296913,0.0631747753088838,0.0419539999993503,
-0.0858081875,-0.0139821376953125,-0.0052672436523391,0.0870993058081345,0.0457449999994424,
0.04826710546875,-0.0211647426757813,-0.0938527050781204,0.107638236948327,0.0494949999992969,
-0.00201112939453124,0.0267192905273437,-0.0339976635742136,0.0432874838288339,0.0532290000001012,
-0.0834139858398437,-0.02834734765625,-0.0052672436523391,0.0882564955599703,0.0569259999992937,
0.0722091220703125,0.0123540805664062,-0.0220266552734323,0.0764980663764855,0.0607949999994162,
-0.0498951625976562,0.00517147558593745,-0.0531512768554645,0.0730844008099453,0.0647869999993418,
-0.0211647426757812,-0.0211647426757813,-0.0651222851562459,0.0716715054190678,0.068543999999747,
0.0123540805664062,0.0458729038085937,-0.0339976635742136,0.0584190699941308,0.0724849999996877,
-0.0475009609375,0.0195366855468749,0.00430956298828633,0.0515421740450806,0.0763019999994867,
0.0315076938476563,-0.0139821376953125,-0.0435744702148391,0.0555605021632474,0.0801269999992655,
0.0410845004882813,0.0195366855468749,0.00191536132813042,0.0455333599852499,0.0839849999993021,
-0.0786255825195312,-0.0020111293945313,-0.0507570751953086,0.0936071981759916,0.0877219999993031,
0.0147482822265625,0.00517147558593745,0.00909796630859816,0.0180839425823761,0.0915129999993951,
-0.02834734765625,0.000383072265624951,-0.0268150585937459,0.0390226374158772,0.0953489999992598,
-0.0475009609375,-0.0115879360351563,-0.0316034619140577,0.0582185568053183,0.0991229999999632,
0.0171424838867188,0.00756567724609369,0.0474051928710981,0.0509740771092963,0.102895999999419,
-0.0738371791992187,-0.037924154296875,-0.0435744702148391,0.0937491598134864,0.106601999999839,
0.0219308872070313,-0.00440533105468754,-0.000478840332027275,0.0223740931313986,0.110329000000092,
-0.018770541015625,0.0027772739257812,-0.0363918652343695,0.0410416168750038,0.11406899999929,
-0.0235589443359375,-0.0139821376953125,-0.0196324536132764,0.0337039651618608,0.117862000000059,
-0.018770541015625,-0.00440533105468754,0.00909796630859816,0.0213193138415157,0.121624999999767,
-0.00201112939453124,0.0147482822265624,-0.0746990917968695,0.076167649204587,0.125350999999682,
-0.0331357509765625,-0.0163763393554688,0.0114921679687541,0.038707007222056,0.129081999999471,
0.0123540805664062,0.0147482822265624,0.0210689746093795,0.0285313306098098,0.13303999999971,
0.0219308872070313,0.0267192905273437,-0.0316034619140577,0.0468365573556108,0.136904999999388,
0.000383072265625006,0.0291134921874999,0.0258573779296913,0.0389402897409765,0.140699999999924,
-0.0139821376953125,-0.0211647426757813,-0.0651222851562459,0.0698881859188956,0.144567999999708,
-0.018770541015625,-0.0020111293945313,-0.0339976635742136,0.0388872598670338,0.148300999999265,
-0.0211647426757812,0.0243250888671874,-0.0196324536132764,0.0377503578235498,0.152134999999362,
-0.0235589443359375,-0.00919373437500004,-0.0316034619140577,0.040476257422533,0.155898999999408,
-0.0307415493164062,0.00756567724609369,-0.0292092602539018,0.043075088057313,0.159673999999541,
-0.0259531459960937,-0.0020111293945313,-0.0292092602539018,0.0391253282812588,0.163402000000133,
-0.0858081875,-0.00919373437500004,-0.0124498486328086,0.0871927091262398,0.167253999999957,
0.0291134921875,0.00756567724609369,0.0186747729492236,0.0354059605751452,0.171062999999776,
-0.0331357509765625,0.0123540805664062,-0.045968671874995,0.0579975869616398,0.174811999999292,
0.019536685546875,-0.0355299526367188,-0.0435744702148391,0.0595213749087574,0.178583999999319,
-0.00440533105468749,0.0482671054687499,-0.10103531005859,0.112059155318377,0.182319999999891,
-0.0690487758789062,-0.00679953271484379,-0.0268150585937459,0.0743842353116686,0.186050999999679,
0.0339018955078125,0.0267192905273437,-0.0699106884765577,0.082163029207628,0.189812999999958,
-0.0858081875,0.0123540805664062,-0.0435744702148391,0.097027845504166,0.193653999999697,
-0.02834734765625,-0.0163763393554688,0.0689530078125049,0.0763300327277615,0.197377999999844,
0.00995987890625,0.0722091220703125,0.00670376464844225,0.0732003890594453,0.201195999999982,
-0.00919373437499998,-0.0139821376953125,-0.045968671874995,0.0489197681948687,0.205156999999417,
0.00995987890625,0.000383072265624951,0.0378283862304727,0.0391194674936875,0.208990999999514,
-0.0307415493164062,0.0315076938476562,-0.0411802685546832,0.0602792845362857,0.212815999999293,
-0.0139821376953125,-0.0211647426757813,-0.0172382519531205,0.0306692653557593,0.216653999999835,
0.0530555087890625,0.0386902988281249,0.0162805712890677,0.0676526661542197,0.220538999999917,
-0.0451067592773437,-0.00679953271484379,0.0713472094726608,0.0846833967031331,0.224357000000055,
-0.0618661708984375,0.0123540805664062,0.0210689746093795,0.0665127664389823,0.228182999999262,
0.0722091220703125,0.0458729038085937,0.00670376464844225,0.0858103785940808,0.232009999999718,
-0.0642603725585937,-0.00440533105468754,0.0186747729492236,0.0670637723944584,0.235802000000149,
0.0506613071289063,-0.00679953271484379,-0.0268150585937459,0.0577221712389237,0.23967999999968,
-0.076231380859375,0.0171424838867187,0.0138863696289118,0.0793594319725403,0.243455999999242,
0.0458729038085938,-0.0475009609375001,0.0162805712890677,0.068012657611042,0.247191999999814,
0.00995987890625,0.0482671054687499,-0.0100556469726509,0.0502993905946899,0.250946999999542,
-0.02834734765625,-0.0594719692382814,-0.00766144531249502,0.066326352142265,0.254645999999411,
0.0410845004882813,-0.00679953271484379,-0.00766144531249502,0.0423422669420069,0.25837700000011,
-0.0427125576171875,0.0506613071289062,-0.045968671874995,0.080647686961015,0.26210699999956,
0.0219308872070313,-0.0522893642578126,-0.0316034619140577,0.0649147150739109,0.26596199999949,
-0.0163763393554687,0.06742071875,0.00909796630859816,0.0699750726930988,0.269718999999895,
-0.00440533105468749,-0.0810197841796876,0.0138863696289118,0.0823191571366915,0.273599999999533,
0.0267192905273438,0.0626323154296875,-0.0746990917968695,0.101077602551928,0.27755900000011,
0.0123540805664062,0.0410845004882812,-0.0244208569335882,0.049365349592438,0.28135199999997,
0.00995987890625,0.0243250888671874,-0.0148440502929645,0.0301869999391094,0.285176999999749,
0.0219308872070313,0.0458729038085937,-0.0770932934570272,0.0923507607633599,0.289044999999533,
-0.0451067592773437,-0.0235589443359375,0.0402225878906304,0.0648652462212819,0.292871999999988,
0.0243250888671875,-0.0666545742187501,-0.184832368164058,0.197983702697503,0.296695999999429,
0.0530555087890625,0.495982815917969,0.365834013671879,0.618585779223917,0.300500999999713,
0.127275760253906,-1.64443346826172,0.437660063476567,1.70643103635916,0.304102999999486,
0.311629288085938,-0.588590536132813,-0.0579396801757763,0.668512257895793,0.307068000000072,
-0.720271627441406,3.81434631689453,-0.0483628735351509,3.88205718788899,0.310040999999728,
-0.0714429775390625,-2.17115783349609,-0.0603338818359322,2.17317063625673,0.313083999999435,
1.21184911230469,-3.32037463037109,-0.105823713378902,3.53619352062623,0.316076000000066,
-0.672387594238281,3.81913472021484,0.15514426757813,3.88097472702392,0.3191369999995,
-0.480851461425781,1.34831860693359,-0.175255561523432,1.44218435215598,0.322121999999581,
0.505559622558594,-3.31558622705078,-0.0316034619140577,3.35405744431657,0.325071999999636,
-0.452121041503906,-0.392266,-0.0124498486328086,0.598699465222374,0.328125,
0.582174075683594,2.83511783789063,0.219787712402349,2.90260683656032,0.331106999999975,
0.6420291171875,-0.397054403320313,-0.0244208569335882,0.755281381185834,0.33415100000002,
-1.77372035791016,-2.25734909326172,-0.28538883789062,2.8849879767006,0.33711299999959,
0.0650265170898438,1.25255054052734,0.164721074218754,1.26500764297768,0.340099999999438,
2.29402826269531,1.24297373388672,0.0976834277343794,2.61095603663315,0.34316200000012,
-1.05545985986328,-1.71147111474609,-0.113006318359369,2.01392634432891,0.346093999999539,
-2.23819547998047,0.172765591796875,-0.115400520019527,2.24781766082899,0.349124999999731,
2.0977037265625,1.12805205419922,0.126413847656254,2.38512951897723,0.352109999999811,
1.34592440527344,-0.940538180175781,0.0928950244140676,1.64461365026559,0.355066000000079,
-2.45367362939453,-0.0858081875000001,-0.103429511718746,2.45735121391358,0.358071999999993,
-0.243825497070313,0.711460965332031,-0.0938527050781204,0.757915502192198,0.361016999999265,
2.27248044775391,-0.425784823242188,0.152750065917973,2.31706553290258,0.364055999999437,
-0.693935409179688,-0.100173397460938,-0.00287304199218319,0.701134306707735,0.366970999999467,
-1.69231750146484,0.376272732910156,-0.184832368164058,1.74346858291654,0.369995999999446,
1.37226062353516,-0.380294991699219,0.0976834277343794,1.42732811633154,0.372958999999355,
0.66118273046875,0.172765591796875,0.0761356127929727,0.687609761648566,0.375929999999244,
-1.33318725244141,0.345148111328125,-0.0866701000976509,1.37986491189412,0.379047999999784,
0.0793917270507813,-0.586196334472656,-0.0675164868164018,0.595388667061537,0.382079999999405,
0.895814493164063,0.0913627353515625,0.00670376464844225,0.900486366378841,0.385212000000138,
-0.471274654785156,0.4888002109375,-0.0316034619140577,0.679723638885956,0.388215999999375,
-0.397054403320312,-0.418602218261719,-0.0507570751953086,0.579185891585822,0.391146999999364,
0.46964659765625,-0.160028438964844,-0.0746990917968695,0.501753906096299,0.394164999999703,
0.100939541992188,0.479223404296875,-0.0148440502929645,0.489963476386331,0.397159999999531,
-0.392266,-0.0498951625976564,-0.0746990917968695,0.402420298098796,0.40020099999947,
0.0219308872070313,-0.332410958496094,-0.0124498486328086,0.33336617685806,0.403139999999439,
0.27811046484375,0.246985843261719,-0.0339976635742136,0.373501376912876,0.406097999999474,
-0.126509615722656,0.170371390136719,-0.0292092602539018,0.214206149146079,0.409147999999732,
-0.207912472167969,-0.270161715332031,-0.0339976635742136,0.342594205500688,0.412078999999721,
0.0698149204101563,-0.0020111293945313,-0.0124498486328086,0.0709448129485014,0.41512799999964,
0.0841801303710938,0.1823423984375,0.0474051928710981,0.206354784117985,0.41811400000006,
-0.126509615722656,-0.0905965908203126,-0.0148440502929645,0.156309855631874,0.421047999999246,
-0.112144405761719,-0.0355299526367188,-0.0746990917968695,0.13935099423145,0.424078999999438,
0.0362960971679688,0.115304751953125,0.00670376464844225,0.121068298712173,0.42704700000013,
0.0506613071289063,0.0147482822265624,-0.00287304199218319,0.0528425419423835,0.43009499999971,
-0.133692220703125,-0.0762313808593751,-0.0292092602539018,0.156646143230021,0.4330259999997,
-0.018770541015625,0.103333743652344,-0.0244208569335882,0.107826592455657,0.435963999999331,
0.117698953613281,0.0410845004882812,0.00430956298828633,0.124737934066518,0.439021000000139,
-0.0403183559570312,-0.0594719692382814,-0.0555454785156204,0.0908173173777238,0.441938999999365,
-0.057077767578125,0.0410845004882812,-0.0531512768554645,0.0881525153551518,0.444971999999325,
-0.00201112939453124,0.0506613071289062,0.00909796630859816,0.05151102476561,0.447924999999486,
0.0171424838867188,-0.0139821376953125,0.0402225878906304,0.0459044824059326,0.450874000000113,
-0.0498951625976562,-0.00440533105468754,0.0186747729492236,0.0534572851635116,0.453881999999794,
-0.00201112939453124,0.0339018955078124,0.0186747729492236,0.0387573258258259,0.456835999999385,
0.00277727392578125,0.0530555087890624,-0.0172382519531205,0.0558547902486829,0.459882000000107,
-0.0307415493164062,-0.0235589443359375,0.0402225878906304,0.0558383675371722,0.462819999999738,
-0.0139821376953125,-0.00919373437500004,0.00909796630859816,0.0190472548479072,0.465815999999904,
0.0171424838867188,0.0554497104492186,-0.0627280834960899,0.0854596255655326,0.468793999999434,
0.00277727392578125,0.0267192905273437,0.0138863696289118,0.0302401223247226,0.471757999999681,
-0.0498951625976562,-0.02834734765625,-0.0483628735351509,0.0750470979210246,0.474773999999343,
-0.00679953271484374,-0.018770541015625,-0.0292092602539018,0.0353800471980982,0.477702999999565,
0.019536685546875,0.0027772739257812,-0.0555454785156204,0.0589465479578368,0.480724000000009,
-0.018770541015625,-0.00679953271484379,0.0114921679687541,0.0230355546879503,0.483678999999938,
0.0219308872070313,0.00517147558593745,-0.0387860668945272,0.0448560693615727,0.4866320000001,
0.0123540805664062,0.0219308872070312,-0.0244208569335882,0.0350708621750245,0.489677999999913,
-0.00440533105468749,0.0243250888671874,-0.0651222851562459,0.0696565066168937,0.492632999999842,
-0.0355299526367187,0.0530555087890624,-0.0052672436523391,0.0640703394943937,0.495657999999821,
0.0219308872070313,0.0027772739257812,-0.0292092602539018,0.036631379290528,0.498619999999391,
0.0602381137695312,0.000383072265624951,-0.00766144531249502,0.0607245818359257,0.501578999999765,
-0.00919373437499998,0.0219308872070312,-0.0292092602539018,0.0376652286602079,0.504605000000083,
-0.02834734765625,0.00756567724609369,-0.0052672436523391,0.0298086471854975,0.507544999999482,
0.0123540805664062,-0.00440533105468754,-0.0387860668945272,0.0409437325300148,0.510567999999694,
-0.0427125576171875,0.0530555087890624,-0.00766144531249502,0.0685415737734712,0.513514999999643,
-0.0403183559570312,-0.0427125576171875,-0.0124498486328086,0.0600410787399701,0.516477000000123,
0.057843912109375,-0.162422640625,-0.0603338818359322,0.182666936398209,0.519591999999648,
-0.0786255825195312,0.43133937109375,-0.0411802685546832,0.440376486429877,0.522629000000052,
-0.0403183559570312,-0.0953849941406251,0.0114921679687541,0.104191827217431,0.525733999999829,
0.27811046484375,-0.442544234863281,-0.0220266552734323,0.523140520327826,0.528677999999672,
-0.1241154140625,0.464858194335938,-0.0124498486328086,0.481303205453853,0.531607999999324,
-0.260584908691406,0.223043826660156,-0.144130939941402,0.372057483592665,0.534630999999536,
0.333177103027344,-0.593378939453125,-0.0603338818359322,0.683187913436414,0.537579999999252,
-0.00919373437499998,0.12488155859375,-0.0172382519531205,0.126400497463268,0.540621000000101,
-0.284526925292969,0.634846512207031,0.0234631762695354,0.696086335104172,0.543589999999313,
0.12488155859375,-0.514370284667969,-0.0316034619140577,0.530255572560218,0.546502999999575,
0.112910550292969,-0.155240035644531,-0.000478840332027275,0.191959605965526,0.549530999999661,
-0.121721212402344,0.551049454101562,-0.0651222851562459,0.568077870048023,0.552482000000055,
0.00756567724609375,-0.289315328613281,-0.0316034619140577,0.291134638350981,0.555510999999569,
0.0243250888671875,-0.251008102050781,0.0186747729492236,0.252874523011388,0.558486999999332,
0.0602381137695312,0.448098782714844,-0.0316034619140577,0.453232752816904,0.561534999999822,
0.0243250888671875,-0.0642603725585938,-0.00287304199218319,0.0687703409912638,0.564481999999771,
-0.1241154140625,-0.267767513671875,-0.0292092602539018,0.296575889563706,0.567395000000033,
0.00277727392578125,0.263745254882813,-0.0387860668945272,0.266596383525368,0.5704539999997,
0.0674207187500001,0.0434787021484374,0.0138863696289118,0.0814173330363376,0.573429000000033,
-0.102567599121094,-0.198335665527344,0.0114921679687541,0.223582688359949,0.576414999999542,
-0.0546835659179687,0.0937569370117187,0.0162805712890677,0.109752961786107,0.579380999999557,
0.122487356933594,0.0554497104492186,-0.0268150585937459,0.137101678927961,0.582331999999951,
-0.057077767578125,-0.0905965908203126,0.028251579589849,0.110741887148843,0.58536599999934,
-0.114538607421875,0.0219308872070312,0.0234631762695354,0.11895619800786,0.588327999999819,
0.0889685336914063,0.0291134921874999,0.00430956298828633,0.0937100194627048,0.591384999999718,
0.0434787021484375,0.0123540805664062,-0.0292092602539018,0.0538163704808673,0.594336000000112,
-0.0498951625976562,-0.00919373437500004,-0.0124498486328086,0.0522403171256115,0.597253999999339,
0.019536685546875,0.0650265170898438,-0.000478840332027275,0.0678996266194211,0.60029299999951,
0.0530555087890625,0.0458729038085937,0.00191536132813042,0.0701632305820939,0.603268999999273,
-0.0211647426757812,-0.0020111293945313,-0.045968671874995,0.0506469127185906,0.606264999999439,
-0.0355299526367187,-0.0020111293945313,-0.0268150585937459,0.0445586079584523,0.609182000000146,
-0.00201112939453124,0.0243250888671874,-0.0483628735351509,0.054173075659548,0.612118999999439,
-0.0115879360351562,-0.0618661708984376,0.0186747729492236,0.0656540212621787,0.615164999999251,
-0.0642603725585937,0.0267192905273437,-0.0268150585937459,0.0745812532412797,0.618112999999539,
-0.0259531459960937,0.0626323154296875,-0.0148440502929645,0.069402583181597,0.621149999999943,
0.0291134921875,0.0123540805664062,-0.0363918652343695,0.0482139667443926,0.624119999999493,
-0.00201112939453124,0.0267192905273437,-0.0339976635742136,0.0432874838288339,0.627063999999336,
-0.0834139858398437,0.0123540805664062,-0.0387860668945272,0.0928163526835528,0.630090999999993,
0.0315076938476563,-0.02834734765625,0.0138863696289118,0.0445997550689766,0.633052999999563,
0.0267192905273438,0.00756567724609369,-0.0268150585937459,0.038603203569946,0.63610399999925,
-0.0498951625976562,0.0315076938476562,-0.0148440502929645,0.0608490579330875,0.639062999999624,
-0.0235589443359375,0.000383072265624951,0.0162805712890677,0.0286396159904931,0.642007999999805,
0.057843912109375,-0.00440533105468754,-0.0292092602539018,0.064950026900677,0.64502099999936,
0.0291134921875,0.00517147558593745,-0.0124498486328086,0.0320833027923781,0.647989999999481,
-0.057077767578125,0.0171424838867187,-0.00287304199218319,0.0596656574236613,0.651017000000138,
-0.00919373437499998,-0.0115879360351563,-0.0292092602539018,0.032741195730961,0.653945000000022,
-0.00201112939453124,0.0147482822265624,0.00909796630859816,0.0174450411586867,0.657068999999865,
-0.0259531459960937,0.0243250888671874,-0.0579396801757763,0.0679873684912306,0.660111999999572,
0.0123540805664062,0.00756567724609369,-0.00287304199218319,0.0147687896972692,0.663161999999829,
0.0123540805664062,0.0506613071289062,-0.0316034619140577,0.060975160119543,0.666257999999289,
-0.0211647426757812,-0.0139821376953125,-0.0483628735351509,0.0546114827086732,0.669178000000102,
0.00756567724609375,0.0123540805664062,-0.0651222851562459,0.0667141274604166,0.672212999999829,
0.0051714755859375,0.057843912109375,-0.0124498486328086,0.0593941163654524,0.675215999999637,
0.0051714755859375,0.00756567724609369,-0.0603338818359322,0.0610259037566855,0.678204999999252,
0.0219308872070313,-0.0163763393554688,-0.0627280834960899,0.0684394678783042,0.681223999999929,
-0.00440533105468749,-0.0259531459960938,-0.0052672436523391,0.0268461651728708,0.684150999999474,
-0.0163763393554687,-0.0115879360351563,-0.0723048901367136,0.07503640376459,0.687172999999348,
0.00756567724609375,0.0171424838867187,-0.0244208569335882,0.030781203345049,0.690154999999322,
-0.0690487758789062,0.0339018955078124,-0.0268150585937459,0.0814623798865714,0.693115000000034,
0.0123540805664062,0.0243250888671874,-0.0411802685546832,0.0493978519095077,0.696173999999701,
-0.0546835659179687,0.0123540805664062,-0.0268150585937459,0.0621446945083175,0.699161999999887,
-0.0139821376953125,-0.0163763393554688,0.0306457812500049,0.0374546201908297,0.702187999999296,
-0.00919373437499998,0.0362960971679687,0.0138863696289118,0.0399344798746076,0.705145999999331,
-0.0211647426757812,0.0123540805664062,-0.0124498486328086,0.0274876039361953,0.708083999999872,
0.00756567724609375,0.00517147558593745,0.0234631762695354,0.0251893682450215,0.711143999999877,
-0.0163763393554687,-0.00919373437500004,-0.0052672436523391,0.0195052069493414,0.714057000000139,
-0.0115879360351562,-0.00440533105468754,-0.0603338818359322,0.0615943544543532,0.717068999999356,
-0.0522893642578125,0.0027772739257812,-0.0148440502929645,0.054426433780334,0.720002999999451,
0.0554497104492188,0.0291134921874999,-0.0268150585937459,0.0681271838816184,0.722969999999805,
-0.0115879360351562,0.000383072265624951,0.0234631762695354,0.0261715044766413,0.726017999999385,
0.0434787021484375,0.00756567724609369,-0.0962469067382763,0.105882501242609,0.729002999999466,
0.00756567724609375,0.0339018955078124,-0.0220266552734323,0.0411309072808918,0.73204799999985,
-0.0139821376953125,-0.0020111293945313,-0.0435744702148391,0.04580697840369,0.734978999999839,
0.0123540805664062,0.0171424838867187,0.0186747729492236,0.0281999149848491,0.737936999999874,
-0.00440533105468749,0.0123540805664062,-0.0411802685546832,0.0432185696961211,0.740953999999874,
0.000383072265625006,0.0410845004882812,0.00191536132813042,0.0411309072808948,0.743918999999551,
-0.0355299526367187,-0.0211647426757813,-0.0196324536132764,0.0457794397276437,0.746913999999379,
-0.0211647426757812,0.0243250888671874,0.028251579589849,0.0428696632859435,0.74986699999954,
0.0051714755859375,-0.00919373437500004,-0.0651222851562459,0.0659710613486353,0.752880999999434,
-0.0235589443359375,-0.00679953271484379,-0.0363918652343695,0.0438819479809243,0.755808999999317,
-0.0211647426757812,-0.0331357509765625,0.0186747729492236,0.0435278240900904,0.758734999999433,
-0.0115879360351562,-0.0020111293945313,-0.0220266552734323,0.0249699508515944,0.761736999999812,
-0.02834734765625,-0.00679953271484379,-0.000478840332027275,0.0291553606108398,0.764666000000034,
-0.00919373437499998,-0.0331357509765625,-0.0363918652343695,0.0500686588573664,0.767643000000135,
-0.0475009609375,-0.018770541015625,-0.0579396801757763,0.0772378212980947,0.770580999999765,
-0.0307415493164062,0.00756567724609369,0.0641646044921913,0.0715498343548357,0.77351599999929,
-0.0427125576171875,-0.00440533105468754,-0.0100556469726509,0.0441008566350081,0.776519999999437,
0.0219308872070313,-0.0020111293945313,-0.0435744702148391,0.0488235896840142,0.779459999999744,
-0.018770541015625,0.0219308872070312,-0.0555454785156204,0.0625986997248028,0.782484999999724,
-0.0355299526367187,0.0722091220703125,-0.0244208569335882,0.0841006129460633,0.785419999999249,
-0.00919373437499998,-0.018770541015625,-0.0052672436523391,0.0215546240391807,0.788335999999617,
-0.00201112939453124,0.000383072265624951,-0.0842758984374949,0.0843007618189136,0.791358999999829,
0.000383072265625006,0.0123540805664062,0.0474051928710981,0.0489900230878488,0.794374000000062,
0.0171424838867188,0.0291134921874999,-0.0100556469726509,0.0352501945696278,0.797501000000011,
-0.018770541015625,0.0147482822265624,-0.0794874951171831,0.0829946198175388,0.8005349999994,
-0.00679953271484374,0.0243250888671874,0.0474051928710981,0.0537140196287972,0.80357499999991,
-0.0451067592773437,-0.0235589443359375,-0.120188923339839,0.130518277970243,0.806580999999824,
0.000383072265625006,0.0506613071289062,0.00191536132813042,0.0506989486418342,0.809546999999839,
0.0219308872070313,0.0267192905273437,0.0306457812500049,0.0461957596365216,0.812591999999313,
-0.0451067592773437,0.00756567724609369,0.00430956298828633,0.0459394333644452,0.815538999999262,
0.000383072265625006,0.00756567724609369,-0.0100556469726509,0.0125897677735268,0.818496999999297,
-0.0235589443359375,0.0219308872070312,0.0138863696289118,0.0350545137376357,0.821538999999575,
0.0243250888671875,0.000383072265624951,0.00191536132813042,0.0244033870963553,0.824510999999802,
0.0051714755859375,0.0219308872070312,-0.0292092602539018,0.0368902271340749,0.827548999999635,
-0.00919373437499998,0.0291134921874999,0.0737414111328167,0.0798117528623998,0.83053899999959,
-0.00679953271484374,0.000383072265624951,-0.0890643017578086,0.0893242981338611,0.833472999999685,
-0.00201112939453124,0.00995987890624994,0.0162805712890677,0.019191165435354,0.836542999999438,
-0.0139821376953125,0.0147482822265624,-0.00287304199218319,0.0205247746261406,0.839511999999559,
-0.00201112939453124,0.0506613071289062,-0.0148440502929645,0.0528295230960016,0.842540999999983,
0.00277727392578125,-0.00679953271484379,-0.000478840332027275,0.0073604472461007,0.845480999999381,
-0.0211647426757812,-0.018770541015625,-0.0244208569335882,0.0373718850999261,0.848476999999548,
0.00995987890625,0.0530555087890624,0.0306457812500049,0.062074552830581,0.851455999999416,
0.019536685546875,0.0291134921874999,-0.0770932934570272,0.0846915190887518,0.854392999999618,
0.0339018955078125,0.0171424838867187,-0.0244208569335882,0.0451617263421122,0.857449999999517,
-0.0259531459960937,0.000383072265624951,0.00670376464844225,0.026807703965781,0.860399999999572,
-0.0139821376953125,0.0195366855468749,-0.0483628735351509,0.0540013869568657,0.863409999999931,
0.00995987890625,0.0434787021484374,0.00430956298828633,0.0448125993610023,0.866406000000097,
-0.00919373437499998,0.0195366855468749,-0.0723048901367136,0.0754599494539835,0.86932699999943,
0.0051714755859375,0.00517147558593745,0.0330399829101609,0.0338397516269788,0.8723829999999,
-0.0163763393554687,-0.0163763393554688,0.0210689746093795,0.0313092745438413,0.875307999999677,
-0.0498951625976562,-0.018770541015625,-0.0723048901367136,0.0898323861329979,0.878310999999485,
-0.00919373437499998,-0.00440533105468754,-0.0531512768554645,0.0541201434294634,0.881233999999495,
-0.02834734765625,-0.00440533105468754,0.028251579589849,0.0402632687466787,0.884168999999929,
0.0051714755859375,0.00995987890624994,-0.00287304199218319,0.0115843738653394,0.88720899999953,
0.0051714755859375,-0.0163763393554688,-0.0914585034179645,0.0930568992491972,0.890158999999585,
-0.0259531459960937,0.0219308872070312,-0.0316034619140577,0.0464037542202716,0.89321099999961,
0.0291134921875,0.0362960971679687,-0.0220266552734323,0.0514798566384258,0.896179999999731,
-0.02834734765625,0.0554497104492186,-0.0483628735351509,0.0788492868999047,0.899116999999933,
-0.0331357509765625,0.00995987890624994,-0.0435744702148391,0.0556409169147294,0.90215199999966,
-0.0139821376953125,0.0195366855468749,-0.0627280834960899,0.0671713831611392,0.905099999999948,
-0.0139821376953125,-0.0355299526367188,-0.045968671874995,0.0597578154122882,0.908104999999523,
0.00995987890625,0.0219308872070312,-0.0842758984374949,0.0876503853896927,0.911079999999856,
-0.0139821376953125,0.0243250888671874,-0.0100556469726509,0.0298048009382017,0.914017000000058,
0.00995987890625,0.0195366855468749,-0.0052672436523391,0.0225527188089982,0.917070999999851,
-0.00679953271484374,0.0506613071289062,-0.0148440502929645,0.0532273192472592,0.920020999999906,
-0.0139821376953125,-0.0139821376953125,-0.0363918652343695,0.0414170038063821,0.923021999999946,
-0.018770541015625,0.0530555087890624,-0.0411802685546832,0.0697354625791022,0.925976999999875,
0.0051714755859375,0.0195366855468749,0.00191536132813042,0.0203001194802079,0.928938999999446,
-0.0307415493164062,0.00517147558593745,-0.0124498486328086,0.0335676294231337,0.931953999999678,
0.000383072265625006,0.0195366855468749,-0.0507570751953086,0.0543885053012157,0.935000999999829,
0.0171424838867188,0.0339018955078124,-0.0220266552734323,0.04391328745794,0.938149999999951,
-0.00919373437499998,0.00517147558593745,-0.0292092602539018,0.0310555920258199,0.941189000000122,
-0.0259531459960937,0.0339018955078124,0.00670376464844225,0.0432185696961259,0.944268999999622,
-0.0355299526367187,0.00517147558593745,-0.0507570751953086,0.0621723602293305,0.947215999999571,
0.000383072265625006,-0.00919373437500004,-0.0866701000976509,0.0871572013493754,0.950151999999434,
-0.0307415493164062,-0.00679953271484379,0.0450109912109422,0.0549296443580767,0.953197999999247,
-0.0139821376953125,0.0123540805664062,0.0521935961914117,0.0554282866825602,0.956183999999666,
-0.00919373437499998,0.0147482822265624,0.028251579589849,0.0331690869593055,0.959192999999686,
0.0339018955078125,-0.018770541015625,-0.0124498486328086,0.040702216893208,0.962155999999595,
-0.0163763393554687,-0.018770541015625,0.00191536132813042,0.024983720894255,0.965103999999883,
-0.00440533105468749,0.00756567724609369,0.0210689746093795,0.0228155233335581,0.968144999999822,
-0.0331357509765625,-0.0139821376953125,-0.000478840332027275,0.0359681450088133,0.971088999999665,
-0.0451067592773437,0.0219308872070312,-0.0124498486328086,0.0516776767780016,0.974123999999392,
-0.0259531459960937,-0.0163763393554688,-0.00287304199218319,0.0308221454163866,0.977080999999998,
-0.0259531459960937,0.0410845004882812,-0.0052672436523391,0.0488799122662801,0.980035999999927,
-0.0139821376953125,-0.0307415493164063,0.0114921679687541,0.0356737011470043,0.983054999999695,
-0.00679953271484374,-0.018770541015625,-0.0100556469726509,0.022353587881995,0.985979000000043,
-0.0115879360351562,-0.0211647426757813,-0.0100556469726509,0.0261408230575377,0.98898299999928,
-0.0163763393554687,0.0123540805664062,-0.0435744702148391,0.048161626341213,0.991935999999441,
-0.02834734765625,0.0171424838867187,-0.0339976635742136,0.0474687054958962,0.994864999999663,
-0.0307415493164062,0.0554497104492186,-0.00766144531249502,0.0638624380019396,0.997886999999537,
0.00277727392578125,-0.0163763393554688,-0.0363918652343695,0.0400033198169954,1.00083199999972,
0.00277727392578125,0.0267192905273437,-0.0555454785156204,0.0617003559169043,1.00388099999964,
0.000383072265625006,0.0362960971679687,-0.0651222851562459,0.0745551167791904,1.00685999999951,
0.00756567724609375,-0.02834734765625,0.00430956298828633,0.0296544081796682,1.0098109999999,
-0.0259531459960937,0.00517147558593745,-0.0938527050781204,0.0975122566517212,1.0128279999999,
0.0147482822265625,0.0147482822265624,-0.0435744702148391,0.0483089858284416,1.01580299999932,
