X,Y,Z,Magnitude,Seconds,
-0.65505357421875,-0.0779552060546874,-0.000287304199217076,0.659675891473602,0.0,
-0.657447775878906,-0.092320416015625,-0.0577481440429679,0.666404895961776,0.00392000000010739,
-0.657447775878906,-0.0540131894531251,0.0284431157226575,0.660275710196152,0.00781300000016927,
-0.688572397460938,-0.10189722265625,-0.0074699091796866,0.69611119088355,0.0116690000004382,
-0.688572397460938,-0.0492247861328126,0.0164721074218761,0.690526144644678,0.0156040000001667,
-0.662236179199219,-0.0707726010742187,0.0523851323242202,0.668064158739126,0.0195260000000417,
-0.657447775878906,-0.0444363828125001,0.00928950244140836,0.659013250990592,0.0234230000005482,
-0.647870969238281,-0.0348595761718749,-0.0290177241210916,0.64945670459685,0.0274910000007367,
-0.69336080078125,-0.0348595761718749,0.035625720703127,0.695150042858746,0.0313160000005155,
-0.647870969238281,-0.0875320126953125,0.0643561406250015,0.656917315089492,0.0352870000006078,
-0.652659372558594,-0.0611957944335937,0.0475967290039083,0.657247769457461,0.039162000000033,
-0.671812985839844,-0.0875320126953125,-0.0649307490234357,0.680595726814592,0.0429739999999583,
-0.695755002441406,-0.092320416015625,-0.0218351191406239,0.70219289021139,0.0469229999998788,
-0.667024582519531,-0.0875320126953125,-0.0673249506835916,0.676103761205627,0.0508740000004764,
-0.683783994140625,-0.0348595761718749,0.0260489140625015,0.685167342054205,0.0547839999999269,
-0.638294162597656,-0.0875320126953125,-0.0074699091796866,0.644311330643726,0.0587050000003728,
-0.664630380859375,-0.0731668027343749,-0.0673249506835916,0.672026467609868,0.0626560000000609,
-0.686178195800781,-0.0851378110351562,0.0595677373046897,0.694000921172209,0.0665470000003552,
-0.676601389160156,-0.0707726010742187,-0.0314119257812475,0.681017554808648,0.0705360000001747,
-0.671812985839844,-0.0731668027343749,-0.0122583124999984,0.675896689732066,0.0744310000000041,
-0.6742071875,-0.0492247861328126,0.0188663090820338,0.676264998994374,0.078272000000652,
-0.6742071875,-0.0611957944335937,0.0164721074218761,0.677179139708199,0.0822090000001481,
-0.69336080078125,-0.0611957944335937,0.0236547124023456,0.696457946135452,0.0861469999999827,
-0.643082565917969,-0.0588015927734374,-0.0266235224609357,0.646313875642911,0.0900050000000192,
-0.645476767578125,-0.0779552060546874,-0.00986411083984251,0.650241933680683,0.094054000000142,
-0.645476767578125,-0.0755610043945312,0.0212605107421897,0.650232060256363,0.09808300000077,
-0.645476767578125,-0.0635899960937499,0.0140779057617202,0.648754292869761,0.102131999999983,
-0.686178195800781,-0.0540131894531251,0.00210689746093884,0.688303988107163,0.106107999999949,
-0.690966599121094,-0.0611957944335937,-0.0529597407226543,0.695689945661672,0.110026000000289,
-0.664630380859375,-0.0803494077148437,0.0236547124023456,0.669887390462189,0.113924000000225,
-0.65505357421875,-0.0564073911132812,0.0475967290039083,0.65919832181282,0.117967000000135,
-0.638294162597656,-0.0707726010742187,-0.038594530761717,0.643364388875986,0.122025000000576,
-0.652659372558594,-0.0564073911132812,0.0428083256835947,0.656489606245687,0.126031000000694,
-0.652659372558594,-0.0659841977539062,0.00928950244140836,0.656052182221363,0.130061000000751,
-0.69336080078125,-0.0588015927734374,0.0523851323242202,0.697818765483801,0.134045000000697,
-0.619140549316406,-0.0444363828125001,0.0380199223632829,0.621896395247464,0.137994000000617,
-0.686178195800781,-0.0731668027343749,0.00210689746093884,0.690071254604694,0.141856000000189,
-0.662236179199219,-0.0755610043945312,-0.0074699091796866,0.666574843486193,0.145811000000322,
-0.652659372558594,-0.0611957944335937,0.0332315190429711,0.65636385922965,0.149733000000197,
-0.638294162597656,-0.0995030209960938,0.0452025273437524,0.647582857765595,0.153604000000087,
-0.650265170898438,-0.0492247861328126,0.0547793339843761,0.654422376974662,0.157484000000295,
-0.678995590820313,-0.0516189877929687,-0.0194409174804662,0.681232325661869,0.161374000000251,
-0.683783994140625,-0.0659841977539062,-0.0481713374023425,0.68864718306493,0.165451000000758,
-0.698149204101563,-0.0611957944335937,0.0332315190429711,0.701613547689829,0.169445000000451,
-0.698149204101563,-0.0947146176757813,-0.0314119257812475,0.705244552669782,0.173430000000735,
-0.686178195800781,-0.0444363828125001,0.0212605107421897,0.687944124058701,0.177341999999953,
-0.667024582519531,-0.0803494077148437,0.0140779057617202,0.671994053869614,0.181199000000561,
-0.659841977539063,-0.0707726010742187,-0.0290177241210916,0.664260660207,0.185108000000582,
-0.686178195800781,-0.0540131894531251,-0.0314119257812475,0.689017162419487,0.18905900000027,
-0.705331809082031,-0.0611957944335937,-0.00268150585937299,0.707986635914099,0.192915000000539,
-0.695755002441406,-0.0564073911132812,0.0332315190429711,0.698828413169035,0.196992000000137,
-0.647870969238281,-0.0588015927734374,-0.0529597407226543,0.652686106970153,0.200909000000138,
-0.678995590820313,-0.0444363828125001,-0.0050757075195289,0.680467021447556,0.204784000000473,
-0.652659372558594,-0.0588015927734374,0.0140779057617202,0.655454095518448,0.208639000000403,
-0.667024582519531,-0.0731668027343749,0.00928950244140836,0.671089762672129,0.212510000000293,
-0.700543405761719,-0.0396479794921876,0.0499909306640642,0.703443045869884,0.216395000000375,
-0.667024582519531,-0.0971088193359375,-0.0122583124999984,0.674167770442582,0.220312000000376,
-0.710120212402344,-0.0947146176757813,0.00450109912109475,0.716422944047102,0.224343000000772,
-0.671812985839844,-0.0851378110351562,-0.0146525141601543,0.677344691410598,0.228368000000046,
-0.688572397460938,-0.0611957944335937,0.0523851323242202,0.69326839960443,0.232504999999946,
-0.6358999609375,-0.0348595761718749,-0.0745075556640611,0.641198351699558,0.236443000000691,
-0.671812985839844,-0.0348595761718749,0.0859039555664083,0.678179450865244,0.240461000000323,
-0.686178195800781,-0.0683783994140624,0.00450109912109475,0.689591460063234,0.244449000000714,
-0.566468112792969,-0.0540131894531251,-0.00268150585937299,0.569043704753686,0.825958000000355,
-0.741244833984375,-0.0779552060546874,0.00210689746093884,0.745335734469013,0.830206999999973,
-0.719697019042969,-0.111474029296875,-0.0194409174804662,0.728538405095777,0.83397100000002,
-0.619140549316406,-0.0228885678710937,0.0236547124023456,0.620014880277763,0.837700000000041,
-0.710120212402344,0.00584185205078125,-0.0074699091796866,0.710183527576419,0.841486000000259,
-0.698149204101563,-0.0875320126953125,-0.0553539423828102,0.705789078529455,0.845178999999916,
-0.607169541015625,-0.0540131894531251,-0.0218351191406239,0.609958235127545,0.848963000000367,
-0.726879624023438,-0.0779552060546874,-0.000287304199217076,0.731047935853173,0.852662000000237,
-0.678995590820313,-0.0324653745117187,-0.0601423457031238,0.682426636820608,0.856336000000738,
-0.614352145996094,-0.10189722265625,0.0140779057617202,0.622904319061683,0.860007000000223,
-0.698149204101563,-0.176117474121094,-0.000287304199217076,0.720020665274367,0.863648000000467,
-0.695755002441406,0.0944273134765625,0.0667503422851574,0.705299333012465,0.86733600000025,
-0.580833322753906,-0.113868230957031,-0.0290177241210916,0.592600498781257,0.871095000000423,
-0.722091220703125,-0.250337725585937,0.0859039555664083,0.769067095545002,0.87514900000042,
-0.80828248046875,0.0680910952148439,0.0212605107421897,0.811424041298562,0.878959000000577,
-0.489853659667969,0.156676556640625,0.0188663090820338,0.514645595443354,0.882706000000326,
-0.719697019042969,-0.48496948828125,-0.0314119257812475,0.868415748857884,0.886429000000135,
-0.882502731933594,-0.00852335791015624,0.0212605107421897,0.882799937028396,0.890095000000656,
-0.422816013183594,0.1854069765625,0.0428083256835947,0.463661170155912,0.893090000000484,
-0.434787021484375,-0.192876885742188,0.0308373173828134,0.476646816047509,0.895999000000302,
-0.815465085449219,-0.422720245117188,0.0428083256835947,0.919515233134541,0.898995000000468,
-0.918415756835938,0.14709975,0.0188663090820338,0.930312730469152,0.901951000000736,
-0.465911643066406,0.171041766601563,0.0212605107421897,0.496770524874454,0.904943999999887,
-0.499430466308594,-0.276673943847656,0.0523851323242202,0.573344106074233,0.907892000000174,
-0.935175168457031,-0.276673943847656,-0.0074699091796866,0.975272713883663,0.910811000000649,
-0.762792648925781,0.0680910952148439,0.0236547124023456,0.766190947428645,0.913846000000376,
-0.410845004882813,0.0513316835937501,0.093086560546876,0.424374442600134,0.916810000000623,
-0.671812985839844,-0.224001507324219,-0.0146525141601543,0.708324826190486,0.919781999999941,
-0.916021555175781,-0.161752264160156,-0.0362003291015611,0.930897281301571,0.922724000000017,
-0.597592734375,0.0345722719726562,0.00928950244140836,0.598664023491265,0.925639000000047,
-0.461123239746094,-0.0228885678710937,0.0452025273437524,0.463898477310915,0.928638000000319,
-0.741244833984375,-0.149781255859375,-0.040988732421873,0.757336388073944,0.931551000000582,
-0.82743609375,-0.1593580625,-0.0481713374023425,0.844017748078287,0.934533000000556,
-0.537737692871094,0.0249954653320312,0.00689530078125244,0.538362465996986,0.937494000000697,
-0.573650717773438,-0.00134075292968738,0.0260489140625015,0.574243406182634,0.940413000000262,
-0.817859287109375,-0.152175457519531,-0.0170467158203103,0.832070774575452,0.943397000000004,
-0.710120212402344,-0.118656634277344,-0.0218351191406239,0.720296387154803,0.946321000000353,
-0.619140549316406,0.0226012636718751,0.00928950244140836,0.619622572041235,0.949357000000418,
-0.652659372558594,-0.0492247861328126,-0.0266235224609357,0.655054309280251,0.952295000000049,
-0.753215842285156,-0.161752264160156,-0.0816901606445288,0.774707159110075,0.955320000000029,
-0.683783994140625,-0.0779552060546874,0.0452025273437524,0.689696189109522,0.95837500000016,
-0.599986936035156,0.0297838686523437,0.0332315190429711,0.601644193940786,0.961448000000019,
-0.683783994140625,-0.0755610043945312,-0.000287304199217076,0.687946290470208,0.964553000000706,
-0.743639035644531,-0.168934869140625,-0.0074699091796866,0.762622976895557,0.967494999999872,
-0.7125144140625,-0.0947146176757813,0.0164721074218761,0.718970777828428,0.970500000000357,
-0.65505357421875,-0.0276769711914062,0.0380199223632829,0.656739456959607,0.973457000000053,
-0.671812985839844,-0.0851378110351562,0.00689530078125244,0.677221293214979,0.976413000000321,
-0.7125144140625,-0.092320416015625,0.0691445439453133,0.72179000922535,0.979471999999987,
-0.683783994140625,-0.0492247861328126,0.0140779057617202,0.685698051363254,0.982433000000128,
-0.633505759277344,-0.0300711728515624,0.0523851323242202,0.636378837299653,0.985468000000765,
-0.7125144140625,-0.109079827636719,-0.0074699091796866,0.720854353241511,0.988421000000017,
-0.683783994140625,-0.0588015927734374,-0.0314119257812475,0.687026118162102,0.991354000000683,
-0.657447775878906,-0.0468305844726562,-0.0122583124999984,0.659227538772099,0.994411000000582,
-0.69336080078125,-0.0420421811523437,0.0428083256835947,0.69595208010602,0.997393000000557,
-0.705331809082031,-0.0659841977539062,0.0380199223632829,0.709431032414475,1.0004370000006,
-0.688572397460938,-0.0755610043945312,-0.0050757075195289,0.692724458018509,1.00337600000057,
-0.640688364257813,-0.0540131894531251,0.0308373173828134,0.643700197975439,1.00630799999999,
-0.652659372558594,-0.0731668027343749,-0.0074699091796866,0.656790253546824,1.00933000000077,
-0.681389792480469,-0.0540131894531251,-0.0170467158203103,0.683739763690641,1.01229200000034,
-0.678995590820313,-0.0995030209960938,-0.0338061274414052,0.687079848193322,1.01530300000013,
-0.678995590820313,-0.0899262143554688,-0.0290177241210916,0.68553903221837,1.01824300000044,
-0.686178195800781,-0.0683783994140624,0.00689530078125244,0.689611243434813,1.0211530000006,
-0.669418784179688,-0.0827436093749999,0.0212605107421897,0.674848147972588,1.02414900000076,
-0.717302817382813,-0.0779552060546874,0.0332315190429711,0.722291270772569,1.02710900000056,
-0.645476767578125,-0.0803494077148437,0.00689530078125244,0.650495065297267,1.0301300000001,
-0.710120212402344,-0.0827436093749999,-0.0290177241210916,0.715513276793604,1.03305200000068,
-0.69336080078125,-0.0588015927734374,-0.0218351191406239,0.696192214694042,1.03596300000027,
-0.6742071875,-0.0157059628906249,-0.0122583124999984,0.67450150123801,1.03894000000037,
-0.676601389160156,-0.0683783994140624,0.0260489140625015,0.680546538631796,1.04188299999987,
-0.638294162597656,-0.0755610043945312,0.0859039555664083,0.648466184911217,1.04487100000006,
-0.6742071875,-0.0468305844726562,0.0260489140625015,0.676333483750839,1.04781300000013,
-0.69336080078125,-0.0468305844726562,-0.0170467158203103,0.695149548099059,1.05081300000074,
-0.6742071875,-0.0420421811523437,-0.00268150585937299,0.675522070066094,1.05376800000067,
-0.688572397460938,-0.10189722265625,0.0140779057617202,0.69621345718163,1.05671100000018,
-0.686178195800781,-0.0635899960937499,-0.0529597407226543,0.691150445368466,1.05972199999997,
-0.676601389160156,-0.0564073911132812,0.0428083256835947,0.680296836927449,1.06269000000066,
-0.683783994140625,-0.0827436093749999,-0.0266235224609357,0.689286491586435,1.06568300000072,
-0.683783994140625,-0.0635899960937499,0.00689530078125244,0.68676909032001,1.06862700000056,
-0.669418784179688,-0.0276769711914062,0.0523851323242202,0.672035509058537,1.07155500000044,
-0.683783994140625,-0.0875320126953125,-0.0266235224609357,0.689877681794118,1.07454000000052,
-0.678995590820313,-0.0635899960937499,-0.000287304199217076,0.681966848534686,1.0774650000003,
-0.669418784179688,-0.092320416015625,-0.0050757075195289,0.675773875370107,1.08046000000013,
-0.652659372558594,-0.0444363828125001,-0.040988732421873,0.65545322097888,1.08339700000033,
-0.681389792480469,-0.0731668027343749,0.0188663090820338,0.685566457710211,1.08631100000002,
-0.647870969238281,-0.0707726010742187,-0.0338061274414052,0.652601262714948,1.08930200000032,
-0.678995590820313,-0.0683783994140624,-0.000287304199217076,0.682429996705565,1.09222600000066,
-0.65505357421875,-0.0875320126953125,-0.0577481440429679,0.6633942164985,1.09529600000042,
-0.681389792480469,-0.0803494077148437,-0.0338061274414052,0.686943178777755,1.0983210000004,
-0.6742071875,-0.0468305844726562,-0.0601423457031238,0.678502422298834,1.10133100000076,
-0.683783994140625,-0.0181001645507812,0.0475967290039083,0.685677486294791,1.10443300000043,
-0.640688364257813,-0.0851378110351562,-0.038594530761717,0.647471671015749,1.10736200000065,
-0.681389792480469,-0.106685625976563,-0.038594530761717,0.690770157064783,1.11034999999993,
-0.664630380859375,-0.0564073911132812,-0.00268150585937299,0.667025132515379,1.11327100000017,
-0.7125144140625,-0.0588015927734374,-0.0338061274414052,0.715735476144718,1.11621700000069,
-0.676601389160156,-0.0683783994140624,0.0188663090820338,0.680309475855115,1.11923800000022,
-0.623928952636719,-0.0468305844726562,0.0212605107421897,0.626045086952547,1.12217500000042,
-0.683783994140625,-0.0468305844726562,0.00689530078125244,0.685420454507903,1.12518799999998,
-0.647870969238281,-0.0947146176757813,0.00450109912109475,0.654773175593287,1.12813100000039,
-0.681389792480469,-0.0755610043945312,-0.0074699091796866,0.685607259460429,1.13105600000017,
-0.652659372558594,-0.0947146176757813,-0.0146525141601543,0.659658859988449,1.1340450000007,
-0.681389792480469,-0.0588015927734374,-0.0242293208007798,0.684351325413882,1.13701100000071,
-0.662236179199219,-0.0635899960937499,0.0116837041015643,0.665384816166642,1.14003700000012,
-0.628717355957031,-0.0683783994140624,0.0260489140625015,0.632961029694455,1.14298400000007,
-0.678995590820313,-0.0420421811523437,-0.000287304199217076,0.680295994323923,1.14596900000015,
-0.662236179199219,-0.0635899960937499,0.0116837041015643,0.665384816166642,1.14891400000033,
-0.643082565917969,-0.0372537778320312,-0.0625365473632797,0.647189192050143,1.1518130000004,
-0.678995590820313,-0.0731668027343749,0.0236547124023456,0.683335890170152,1.15482100000008,
-0.647870969238281,-0.0827436093749999,-0.0433829340820289,0.654572667198775,1.15773600000011,
-0.671812985839844,-0.0731668027343749,0.0164721074218761,0.675986241937168,1.16073300000062,
-0.619140549316406,-0.10189722265625,-0.0218351191406239,0.627849373831625,1.16366800000014,
-0.647870969238281,-0.0899262143554688,0.0308373173828134,0.65480871783554,1.16661300000032,
-0.729273825683594,-0.0516189877929687,-0.0266235224609357,0.731582971833122,1.16960500000005,
-0.702937607421875,-0.0827436093749999,-0.00268150585937299,0.707795857076083,1.17254800000046,
-0.669418784179688,-0.0731668027343749,-0.00986411083984251,0.673477683607737,1.17554500000006,
-0.657447775878906,-0.0396479794921876,0.035625720703127,0.659604981986606,1.17849300000034,
-0.640688364257813,-0.0157059628906249,0.0212605107421897,0.641233394859229,1.181423,
-0.667024582519531,-0.0683783994140624,-0.0433829340820289,0.671922226274254,1.18441200000052,
-0.662236179199219,-0.0731668027343749,-0.0074699091796866,0.666307689889516,1.18733200000042,
-0.650265170898438,-0.106685625976563,-0.0314119257812475,0.659706998867582,1.19033200000013,
-0.690966599121094,-0.0779552060546874,0.00210689746093884,0.695353359284983,1.19328700000005,
-0.702937607421875,-0.0731668027343749,-0.0266235224609357,0.707236504218065,1.19618900000023,
-0.633505759277344,-0.0731668027343749,-0.0050757075195289,0.637737164407688,1.19918400000006,
-0.659841977539063,-0.0444363828125001,0.0188663090820338,0.661605596302282,1.20212400000037,
-0.678995590820313,-0.0659841977539062,-0.0074699091796866,0.682235096026146,1.20512000000053,
-0.650265170898438,-0.0683783994140624,-0.0050757075195289,0.653870140621842,1.20805400000063,
-0.678995590820313,-0.0420421811523437,-0.0362003291015611,0.681258409985912,1.21096000000034,
-0.702937607421875,-0.0803494077148437,0.0140779057617202,0.707654926273217,1.21396800000002,
-0.722091220703125,-0.0683783994140624,-0.0290177241210916,0.725901759769272,1.21689400000014,
-0.645476767578125,-0.0396479794921876,0.0236547124023456,0.647125772303774,1.21991000000071,
-0.659841977539063,-0.0683783994140624,0.0332315190429711,0.664207328088898,1.22283800000059,
-0.700543405761719,-0.0779552060546874,-0.0721133540039052,0.708546691004163,1.22573700000066,
-0.695755002441406,-0.0396479794921876,0.0452025273437524,0.698348232745181,1.22873400000026,
-0.65505357421875,-0.0683783994140624,-0.0433829340820289,0.660040051491388,1.23167900000044,
-0.707726010742188,-0.0659841977539062,-0.0194409174804662,0.711061157641704,1.23478000000068,
-0.662236179199219,-0.0588015927734374,0.0308373173828134,0.665556402190259,1.23782500000016,
-0.676601389160156,-0.0396479794921876,-0.0194409174804662,0.678040818361069,1.2409090000001,
-0.683783994140625,-0.0683783994140624,0.0236547124023456,0.687601411842772,1.24389599999995,
-0.69336080078125,-0.0827436093749999,0.035625720703127,0.699188741991772,1.24681099999998,
-0.671812985839844,-0.0564073911132812,0.0140779057617202,0.674323860727091,1.24981300000036,
-0.695755002441406,-0.0683783994140624,0.0380199223632829,0.700140088428866,1.2527570000002,
-0.690966599121094,-0.0707726010742187,0.0882981572265642,0.700171526651426,1.25578000000041,
-0.659841977539063,-0.0516189877929687,-0.0314119257812475,0.662602946193811,1.25869700000021,
-0.686178195800781,-0.0540131894531251,0.00689530078125244,0.688335300707568,1.26164300000073,
-0.681389792480469,-0.00134075292968738,-0.0074699091796866,0.681432055643222,1.26464100000067,
-0.695755002441406,-0.0324653745117187,0.0308373173828134,0.697194351746911,1.26759500000026,
-0.643082565917969,-0.0492247861328126,0.0308373173828134,0.645700554669754,1.2706160000007,
-0.686178195800781,-0.0731668027343749,-0.00268150585937299,0.690073248205189,1.27356300000065,
-0.626323154296875,-0.0564073911132812,-0.0673249506835916,0.632451686981023,1.2765100000006,
-0.667024582519531,-0.0420421811523437,-0.0170467158203103,0.668565575842535,1.27952200000072,
-0.702937607421875,-0.0635899960937499,0.0308373173828134,0.706481356919319,1.28247600000032,
-0.669418784179688,-0.0492247861328126,0.00689530078125244,0.671261598302254,1.28549999999996,
-0.647870969238281,-0.0851378110351562,0.0428083256835947,0.654841807154553,1.28844500000014,
-0.671812985839844,-0.0947146176757813,0.0284431157226575,0.679052691310864,1.29136300000027,
-0.650265170898438,-0.0659841977539062,-0.0194409174804662,0.653893459295383,1.29435000000012,
-0.676601389160156,-0.0755610043945312,0.00450109912109475,0.680822418176621,1.29730000000018,
-0.647870969238281,-0.0635899960937499,-0.000287304199217076,0.65098430313538,1.30030299999999,
-0.662236179199219,-0.0731668027343749,0.00689530078125244,0.666301495747694,1.30325100000027,
-0.645476767578125,-0.0516189877929687,-0.0170467158203103,0.647761814175654,1.30616400000054,
-0.621534750976562,-0.0995030209960938,0.0595677373046897,0.632261506962465,1.30917700000009,
-0.667024582519531,-0.0731668027343749,0.0188663090820338,0.671290631787831,1.31212899999991,
-0.6358999609375,-0.0683783994140624,-0.038594530761717,0.6407291967996,1.31511500000033,
-0.662236179199219,-0.0899262143554688,-0.000287304199217076,0.668313970834359,1.31804600000032,
-0.698149204101563,-0.0611957944335937,-0.038594530761717,0.701888006913297,1.32095699999991,
-0.664630380859375,-0.0707726010742187,-0.0266235224609357,0.668917869526832,1.32393600000069,
-0.698149204101563,-0.0779552060546874,-0.0290177241210916,0.703087017126502,1.32686100000046,
-0.690966599121094,-0.0947146176757813,-0.0577481440429679,0.699814652635144,1.32986000000074,
-0.659841977539063,-0.092320416015625,0.0547793339843761,0.668517217405603,1.3327960000006,
-0.69336080078125,-0.0683783994140624,0.0164721074218761,0.696919031085651,1.33578300000045,
-0.645476767578125,-0.0588015927734374,0.0140779057617202,0.648302454280742,1.33872599999995,
-0.698149204101563,-0.0396479794921876,-0.0457771357421866,0.700770875266814,1.34163100000023,
-0.645476767578125,-0.0659841977539062,-0.000287304199217076,0.648840700310973,1.34462299999996,
-0.671812985839844,-0.0564073911132812,0.0428083256835947,0.67553462861876,1.34756999999991,
-0.688572397460938,-0.0611957944335937,-0.040988732421873,0.692500503961559,1.35054700000001,
-0.678995590820313,-0.0851378110351562,-0.00986411083984251,0.68438348891827,1.35347900000033,
-0.671812985839844,-0.0755610043945312,-0.0242293208007798,0.676482973410731,1.35639700000047,
-0.683783994140625,-0.0683783994140624,-0.0242293208007798,0.687621419195041,1.35939700000017,
-0.683783994140625,-0.0899262143554688,-0.0146525141601543,0.689827493539092,1.36232199999995,
-0.686178195800781,-0.0731668027343749,0.0236547124023456,0.690473346939347,1.36533600000075,
-0.695755002441406,-0.0564073911132812,-0.0577481440429679,0.700422490597536,1.36826199999996,
-0.683783994140625,-0.0324653745117187,-0.0146525141601543,0.68471106852183,1.37123100000008,
-0.681389792480469,-0.0540131894531251,0.0571735356445338,0.685914198066764,1.37433300000066,
-0.6742071875,-0.0635899960937499,0.0380199223632829,0.678265828253476,1.37737800000014,
-0.657447775878906,-0.0851378110351562,0.0260489140625015,0.663448996381647,1.38046400000076,
-0.626323154296875,-0.0803494077148437,0.0571735356445338,0.634039063549408,1.38341800000035,
-0.647870969238281,-0.0564073911132812,-0.040988732421873,0.651612356190019,1.38633100000061,
-0.664630380859375,-0.0564073911132812,-0.0050757075195289,0.667039054134245,1.38932800000021,
-0.662236179199219,-0.0540131894531251,0.035625720703127,0.665389640474584,1.39229599999999,
-0.7125144140625,-0.0947146176757813,0.0236547124023456,0.719171185787595,1.39532800000052,
-0.686178195800781,-0.0683783994140624,0.00928950244140836,0.689639338172101,1.39828300000045,
-0.669418784179688,-0.0707726010742187,0.0284431157226575,0.673750161786574,1.40120100000058,
-0.61674634765625,-0.0875320126953125,-0.040988732421873,0.624273967725203,1.4041930000003,
-0.705331809082031,-0.0779552060546874,-0.0050757075195289,0.709644796965907,1.40712800000074,
-0.667024582519531,-0.0899262143554688,-0.0577481440429679,0.675531913275804,1.4101270000001,
-0.678995590820313,-0.0396479794921876,0.00450109912109475,0.680167063686956,1.41310500000054,
-0.643082565917969,-0.0396479794921876,-0.00268150585937299,0.644309195448215,1.41603600000053,
-0.662236179199219,-0.0659841977539062,-0.000287304199217076,0.665515404733286,1.41902600000049,
-0.695755002441406,-0.0324653745117187,0.0116837041015643,0.696610029288956,1.42196899999999,
-0.688572397460938,-0.0635899960937499,-0.0338061274414052,0.692328309691934,1.42496100000062,
-0.640688364257813,-0.0731668027343749,-0.0218351191406239,0.645222235780516,1.42788400000063,
-0.688572397460938,-0.0516189877929687,-0.0362003291015611,0.691452767926295,1.43085599999995,
-0.676601389160156,-0.0875320126953125,0.00210689746093884,0.682243161986147,1.43379100000038,
-0.667024582519531,-0.0803494077148437,-0.0194409174804662,0.672127793115241,1.43669900000077,
-0.690966599121094,-0.092320416015625,0.0140779057617202,0.697248942448036,1.43971400000009,
-0.6742071875,-0.0492247861328126,0.0380199223632829,0.677070104009172,1.44265600000017,
-0.662236179199219,-0.0396479794921876,-0.0266235224609357,0.663955970879411,1.44563199999993,
-0.707726010742188,-0.0372537778320312,-0.0050757075195289,0.708724003439021,1.44856600000003,
-0.657447775878906,-0.0588015927734374,-0.0194409174804662,0.660358353163868,1.45148400000016,
-0.647870969238281,-0.0635899960937499,-0.0122583124999984,0.651099644148498,1.45448300000044,
-0.7125144140625,-0.0540131894531251,0.00928950244140836,0.714619136139899,1.45743200000015,
-0.626323154296875,-0.0564073911132812,-0.0170467158203103,0.629089085822392,1.46044100000017,
-0.650265170898438,-0.0731668027343749,-0.0362003291015611,0.65536908481634,1.46337900000071,
-0.698149204101563,-0.0635899960937499,-0.0194409174804662,0.701308739474513,1.46629699999994,
-0.659841977539063,-0.0707726010742187,0.0140779057617202,0.663775853595253,1.46932800000013,
-0.633505759277344,-0.0851378110351562,-0.0314119257812475,0.639972423614259,1.47225100000014,
-0.69336080078125,-0.0420421811523437,-0.000287304199217076,0.69463431213824,1.47525100000075,
-0.6742071875,-0.0348595761718749,0.00928950244140836,0.675171694151311,1.47818300000017,
-0.678995590820313,-0.106685625976563,0.0116837041015643,0.687425155260534,1.48110300000008,
-0.659841977539063,-0.0683783994140624,0.00689530078125244,0.663411324897272,1.48410800000056,
-0.640688364257813,-0.0611957944335937,-0.0314119257812475,0.644370401580486,1.48703600000044,
-0.657447775878906,-0.0540131894531251,0.0116837041015643,0.659766255263599,1.49004599999989,
-0.678995590820313,-0.0779552060546874,0.00450109912109475,0.683470764844958,1.49299100000007,
-0.65505357421875,-0.0420421811523437,-0.076901757324217,0.660890770379159,1.49589000000014,
-0.688572397460938,-0.0276769711914062,-0.0266235224609357,0.689642496680462,1.49888100000044,
-0.631111557617188,-0.0468305844726562,0.0691445439453133,0.636612809922522,1.50181300000077,
-0.678995590820313,-0.0683783994140624,0.0212605107421897,0.682761032263026,1.50481300000047,
-0.676601389160156,-0.0516189877929687,-0.000287304199217076,0.678567640149401,1.50774300000012,
-0.657447775878906,-0.0779552060546874,0.00689530078125244,0.6620892215797,1.51077400000031,
-0.645476767578125,-0.0803494077148437,0.00210689746093884,0.650461931107534,1.51387599999998,
-0.6742071875,-0.0635899960937499,-0.0314119257812475,0.677927524416253,1.51690600000074,
-0.659841977539063,-0.0707726010742187,-0.0242293208007798,0.664068713592154,1.51994400000058,
-0.683783994140625,-0.0444363828125001,0.0164721074218761,0.685424301497462,1.52287700000034,
-0.667024582519531,-0.0875320126953125,0.00210689746093884,0.67274667293771,1.52586700000029,
-0.659841977539063,-0.0348595761718749,0.035625720703127,0.661721857995609,1.52879500000017,
-0.652659372558594,-0.0635899960937499,-0.00986411083984251,0.655824095984923,1.53173100000004,
-0.638294162597656,-0.0635899960937499,-0.0362003291015611,0.642474582716319,1.53471100000024,
-0.695755002441406,-0.0588015927734374,-0.0050757075195289,0.698253831741551,1.53763900000013,
-0.676601389160156,-0.0468305844726562,0.0212605107421897,0.678553279243806,1.54065300000002,
-0.657447775878906,-0.0516189877929687,0.00689530078125244,0.659507121327553,1.54359600000043,
-0.688572397460938,-0.0683783994140624,-0.0625365473632797,0.694779369158046,1.54652600000009,
-0.662236179199219,-0.0731668027343749,-0.0266235224609357,0.66679753299707,1.54953400000068,
-0.669418784179688,-0.0731668027343749,0.0475967290039083,0.675085430332231,1.55251399999997,
-0.671812985839844,-0.109079827636719,0.0116837041015643,0.680711102951785,1.55552700000044,
-0.710120212402344,-0.0588015927734374,0.0140779057617202,0.712689645501939,1.55847100000028,
-0.669418784179688,-0.0755610043945312,-0.0050757075195289,0.673688902093945,1.56140700000014,
-0.659841977539063,-0.0803494077148437,-0.0505655390624984,0.666636584942252,1.56440800000018,
-0.678995590820313,-0.0827436093749999,0.0236547124023456,0.684427543765347,1.56734400000005,
-0.659841977539063,-0.104291424316406,-0.0170467158203103,0.668250497215575,1.5703309999999,
-0.659841977539063,-0.0468305844726562,0.0284431157226575,0.662112943384075,1.57327800000076,
-0.683783994140625,-0.0348595761718749,-0.0362003291015611,0.685628328266015,1.57618400000047,
-0.645476767578125,-0.0635899960937499,-0.0074699091796866,0.648644544129881,1.57917200000065,
-0.664630380859375,-0.104291424316406,0.0260489140625015,0.673267250258809,1.58212800000001,
-0.702937607421875,-0.0372537778320312,0.0116837041015643,0.704021045731078,1.5851360000006,
-0.667024582519531,-0.10189722265625,0.00450109912109475,0.674777813479156,1.58808399999998,
-0.678995590820313,-0.0516189877929687,0.071538745605471,0.684702361889457,1.59100200000012,
-0.695755002441406,-0.0516189877929687,-0.0314119257812475,0.698374006105825,1.59400499999992,
-0.688572397460938,-0.0588015927734374,-0.00268150585937299,0.691083760720414,1.59693599999991,
