X,Y,Z,Magnitude,Seconds,
0.011061211669922,-0.0112048637695313,-0.00272938989257732,0.0159796415756511,0.0,
-0.0272460148925779,-0.0231758720703126,0.0619140549316413,0.0715039619309613,0.00370599999996557,
0.00387860668945328,0.0127371528320311,0.0188184250488295,0.0230523702346722,0.00743199999988065,
0.0469742365722658,-0.0112048637695313,0.0044532150878922,0.0484969998892713,0.011152999999922,
0.0254264216308596,-0.0135990654296876,0.0116358200683599,0.0310938869582819,0.0149909999997817,
0.0278206232910158,-0.0279642753906251,0.0212126267089854,0.0447879817620541,0.0187299999997776,
0.00627280834960953,0.00794874951171864,-0.0290656081542959,0.0307788940797107,0.022469000000001,
0.0230322199707033,0.000766144531249902,-0.00991199487304506,0.0250862068991089,0.0262189999998554,
0.011061211669922,-0.00162805712890635,0.0810676682128921,0.0818350035320911,0.0301789999998618,
-0.00330399829101546,-0.00402225878906259,0.0619140549316413,0.0621324807854275,0.0340209999999388,
0.0278206232910158,-0.0279642753906251,-0.00991199487304506,0.0406722930357584,0.0378699999998844,
0.011061211669922,-0.0255700737304688,0.0236068283691413,0.0365165910215963,0.0416859999997996,
0.0637336481933595,-0.0303584770507814,0.0331836350097667,0.0780049272375737,0.0454819999999927,
0.00387860668945328,-0.0327526787109377,-0.000335188232421402,0.03298323670813,0.0493229999999585,
0.00627280834960953,-0.0183874687500001,0.00924161840820403,0.0215140568565302,0.0531159999998181,
0.0182438166503908,-0.0303584770507814,0.0499430466308599,0.0612272968665786,0.0569029999999202,
-0.00330399829101546,-0.00881066210937509,-0.0434308181152332,0.0444384983282635,0.0607259999999314,
-0.000909796630859216,0.00316034619140615,0.0164242233886736,0.0167502427409309,0.0645609999999124,
0.0230322199707033,-0.0351468803710939,0.0188184250488295,0.0460425833106404,0.0683239999998477,
0.0302148249511721,-0.0303584770507814,0.0140300217285176,0.0450712134890494,0.0720749999998134,
0.0350032282714846,-0.0231758720703126,-0.00751779321288915,0.0426481447478892,0.07583499999987,
-0.0104866032714842,-0.0112048637695313,0.0571256516113294,0.0591511444714829,0.079578999999967,
0.00148440502929703,-0.0255700737304688,0.0140300217285176,0.0292040003865103,0.0833279999999377,
0.00866701000976578,-0.0112048637695313,-0.0194888015136705,0.0240931404977097,0.0871479999998428,
0.011061211669922,-0.0423294853515627,0.109798088134767,0.118193721879738,0.0908979999999247,
0.00148440502929703,-0.0183874687500001,0.0283952316894549,0.0338613592169756,0.0946309999999357,
0.00866701000976578,0.0318907661132811,0.0595198532714853,0.0680790052751986,0.098453999999947,
0.039791631591797,-0.0303584770507814,0.0451546433105481,0.0674088487224263,0.102456999999958,
0.0350032282714846,-0.0279642753906251,0.047548844970704,0.06533084528457,0.106247999999823,
-0.017669208251953,0.00794874951171864,0.0188184250488295,0.0270095660899864,0.110111999999845,
0.0278206232910158,0.0055545478515624,0.0810676682128921,0.0858883397884222,0.1139569999998,
0.00627280834960953,-0.00162805712890635,-0.000335188232421402,0.00648930240912439,0.117754999999988,
0.0326090266113283,0.000766144531249902,0.026001030029299,0.0417131772533044,0.121609999999919,
-0.0248518132324217,-0.0327526787109377,0.0427604416503922,0.0593195242211,0.12537199999997,
-0.0104866032714842,-0.0207816704101563,-0.012306196533201,0.0263303844697269,0.129117999999835,
0.0278206232910158,-0.00402225878906259,0.0116358200683599,0.0304229839879334,0.132928999999876,
0.00627280834960953,-0.0183874687500001,0.0595198532714853,0.0626103830453249,0.136825999999928,
0.0565510432128908,-0.0207816704101563,-0.0362482131347637,0.0703123834681051,0.14058,
-0.000909796630859216,-0.0231758720703126,0.0547314499511735,0.0594430852991904,0.144304999999804,
-0.000909796630859216,0.000766144531249902,0.0451546433105481,0.0451703057312557,0.14805199999978,
0.0278206232910158,-0.0279642753906251,-0.086526447998045,0.095093711577484,0.151772999999821,
-0.0152750065917967,-0.0327526787109377,0.0140300217285176,0.038767322564552,0.155500999999958,
0.0134554133300783,-0.0303584770507814,-0.00512359155273323,0.0335996498065874,0.159286999999949,
0.0134554133300783,-0.0327526787109377,0.083461869873048,0.0906623948135651,0.163038999999799,
0.00627280834960953,-0.0135990654296876,0.0307894333496108,0.0342384566115645,0.16677199999981,
0.0182438166503908,-0.0375410820312502,-0.00272938989257732,0.041828450308801,0.170665999999983,
0.00387860668945328,-0.00162805712890635,-0.0147003981933587,0.0152903847861902,0.174564999999802,
-0.00330399829101546,0.0271023627929686,0.0403662399902363,0.0487328206101193,0.178349999999909,
0.068522051513672,-0.0303584770507814,0.0595198532714853,0.0957053896389555,0.182183999999779,
0.020638018310547,-0.0159932670898438,-0.0194888015136705,0.0325810646915168,0.185958999999912,
0.0182438166503908,-0.0519062919921877,-0.012306196533201,0.0563785639003433,0.189758999999867,
0.0613394465332033,-0.0495120903320314,-0.012306196533201,0.0797835651193948,0.193571999999904,
0.00866701000976578,-0.0375410820312502,0.0619140549316413,0.072923248012309,0.197342999999819,
0.00148440502929703,-0.0279642753906251,0.083461869873048,0.0880345834267382,0.201107999999977,
0.0613394465332033,-0.0207816704101563,0.0762792648925803,0.100064638002586,0.204909999999927,
-0.0248518132324217,-0.0159932670898438,0.0283952316894549,0.0409839773063093,0.208783999999923,
0.0254264216308596,-0.00402225878906259,0.00205901342773629,0.0258248140169882,0.212561999999934,
0.068522051513672,-0.0614830986328126,-0.00512359155273323,0.0922046319418592,0.216315999999779,
0.00866701000976578,0.00316034619140615,0.00684741674804812,0.0114887756823939,0.220069999999851,
0.00148440502929703,-0.0135990654296876,0.0188184250488295,0.023265235012145,0.223823999999922,
0.020638018310547,-0.0806367119140626,0.0212126267089854,0.085896348234327,0.227576999999883,
0.0182438166503908,0.0462559760742186,-0.0338540114746078,0.0601543536369117,0.231386999999813,
0.00387860668945328,-0.00162805712890635,-0.0218830031738264,0.0222836260014422,0.235124999999925,
0.00627280834960953,-0.0207816704101563,-0.0170945998535146,0.0276306223921771,0.238889999999856,
0.020638018310547,0.0127371528320311,-0.012306196533201,0.0271956859661006,0.242898999999852,
-0.0344286198730467,-0.0351468803710939,0.128951701416018,0.138018746423334,0.246726999999964,
0.0302148249511721,-0.0231758720703126,0.0667024582519549,0.0768067355764014,0.250562999999829,
0.0134554133300783,0.0175255561523436,0.00205901342773629,0.022190826992877,0.254395999999815,
-0.00809240161132796,-0.0159932670898438,-0.0362482131347637,0.0404376620430677,0.258290999999872,
-0.0152750065917967,0.0199197578124999,-0.0194888015136705,0.0317794896454825,0.262157999999999,
0.039791631591797,-0.0375410820312502,-0.0170945998535146,0.0573143274318572,0.26596799999993,
0.020638018310547,0.0223139594726561,0.0714908615722667,0.0776838713986295,0.269786999999951,
0.00148440502929703,-0.00881066210937509,0.0499430466308599,0.0507359747306468,0.273592999999892,
-0.0128808049316405,-0.0231758720703126,-0.0362482131347637,0.0449106795469599,0.277372999999898,
-0.0152750065917967,-0.0112048637695313,0.0044532150878922,0.019460368010195,0.281218999999965,
-0.036822821533203,-0.0112048637695313,0.0379720383300786,0.0540679651244693,0.284992999999986,
0.0254264216308596,-0.0231758720703126,0.0738850632324226,0.0815023099797105,0.288776999999982,
0.039791631591797,-0.0519062919921877,-0.13441048120117,0.149478475205782,0.292521999999963,
-0.055976434814453,0.319194965332031,0.236690776123048,0.40129952734782,0.296275999999807,
0.0828872614746095,-0.691158135253906,0.272603801025392,0.747584576068761,0.300009999999929,
0.020638018310547,-0.109367131835938,-0.73535509790039,0.743729935752151,0.303590999999869,
0.058945244873047,0.675931012695312,-0.167929304443359,0.69896890281849,0.306554999999889,
-0.106254669677734,1.02548445507813,1.0219889206543,1.45167826200413,0.309509999999818,
-0.0679474431152342,-1.08141300585938,-0.21820753930664,1.10529881682646,0.312546999999995,
0.097252471435547,-1.74700106738281,-0.606068208251951,1.85169906996,0.315591999999924,
0.104435076416016,1.42771033398437,0.318093632568361,1.46644026200604,0.318741999999929,
0.0302148249511721,2.18427805859375,0.385131279052736,2.2181771063208,0.321807999999919,
-0.0894952580566405,-1.79967350390625,-0.237361152587889,1.81746373791465,0.324739999999792,
0.020638018310547,-2.3551282890625,-0.0386424147949214,2.35553569745046,0.327743999999939,
-0.142167694580078,1.98316511914063,0.128951701416018,1.99243170132789,0.330725999999913,
0.327095830810547,2.23455629345703,0.0188184250488295,2.25844806101079,0.333769999999959,
0.154713311279297,-1.89065316699219,0.102615483154299,1.89974617881642,0.336771999999883,
-0.403135675537109,-2.17077476123047,-0.206236531005858,2.21750196022626,0.339660999999978,
-0.0631590397949217,1.76289856640625,0.148105314697267,1.77023603058649,0.342695999999933,
0.492295745361328,2.02386654736328,0.0212126267089854,2.08298844883233,0.345671999999922,
0.106829278076172,-1.72784745410156,0.0619140549316413,1.73225363890442,0.348681999999826,
-0.467779120361328,-1.84037493212891,-0.251726362548826,1.91550603179853,0.351649999999836,
-0.065553241455078,1.69346671826172,0.0236068283691413,1.69489941756761,0.354610999999977,
0.497084148681641,1.54742041699219,0.318093632568361,1.6561359113537,0.357661999999891,
0.0326090266113283,-1.61053157275391,-0.0745554396972636,1.61258606252261,0.360601999999972,
-0.553970380126953,-1.23943031542969,-0.357071235595702,1.40377012226147,0.363622999999961,
0.166684319580078,1.25293361279297,0.260632792724611,1.29056412204266,0.366614999999911,
0.571304400146485,1.0159076484375,0.22950817114258,1.18791037894353,0.369634999999789,
-0.175686517822265,-0.95691451953125,-0.208630732666014,0.995026599065068,0.372563999999784,
-0.606642816650391,-0.885088469726563,-0.0817380446777332,1.07614042493727,0.375490999999784,
0.245692974365235,0.527490509765625,0.143316911376955,0.599292092916188,0.378521999999975,
0.67664927319336,0.723815045898437,0.133740104736329,0.999824422184687,0.381481999999778,
-0.170898114501953,-0.221894609863281,-0.0721612380371077,0.289224182429043,0.384456,
-0.642555841552734,-0.691158135253906,-0.0386424147949214,0.944495004572487,0.387405999999828,
0.188232134521485,0.0821690009765624,0.0188184250488295,0.206245519489076,0.390353999999888,
0.664678264892578,0.582557147949219,0.0762792648925803,0.887123752753746,0.393386999999848,
-0.0966778630371092,-0.0638773002929689,-0.0530076247558586,0.127423416122776,0.396295999999893,
-0.522845758544922,-0.473285784179688,-0.105680061279296,0.713116677751259,0.399298999999928,
0.0373974299316408,0.0294965644531249,0.0523372482910176,0.0707658295980833,0.402259999999842,
0.410892888916016,0.376655805175781,0.0619140549316413,0.560835013112095,0.405202999999801,
0.0230322199707033,-0.0686657036132814,0.0164242233886736,0.0742645078311768,0.408209999999826,
-0.345674835693359,-0.353575701171875,-0.0697670363769518,0.499373915874305,0.411139999999932,
-0.055976434814453,0.00794874951171864,-0.00991199487304506,0.0574002745263472,0.414144999999962,
0.288788604248047,0.297647150390625,0.0379720383300786,0.416454751172484,0.417110999999977,
0.200203142822266,-0.0279642753906251,0.00684741674804812,0.202262666377551,0.420028999999886,
-0.271454584228515,-0.2865380546875,-0.0147003981933587,0.394978163687331,0.42301499999985,
-0.273848785888672,-0.116549736816406,-0.0218830031738264,0.298422292251398,0.425935999999865,
0.0661278498535158,0.23060950390625,0.0116358200683599,0.240185403650595,0.428986999999779,
0.31273062084961,0.0678037910156248,0.0236068283691413,0.320866136634458,0.431946999999809,
0.0326090266113283,-0.147674358398438,0.0236068283691413,0.153063212727875,0.434879999999794,
-0.352857440673828,-0.0950019218750001,-0.086526447998045,0.375527049361276,0.437858999999889,
0.00148440502929703,0.0510443793945311,0.00924161840820403,0.0518954683654237,0.440824999999904,
0.37019146069336,0.0366791694335936,0.0738850632324226,0.379270459711115,0.443849,
-0.017669208251953,-0.0112048637695313,-0.00272938989257732,0.021099750271753,0.446764999999914,
-0.233147357666016,-0.0135990654296876,-0.06497863305664,0.242414619445931,0.449658999999883,
0.039791631591797,-0.0207816704101563,0.083461869873048,0.0947688529659364,0.452743999999939,
0.224145159423828,0.0438617744140624,0.0523372482910176,0.234316229285466,0.455791999999974,
0.0254264216308596,0.0558327827148436,0.00205901342773629,0.0613843797633305,0.458917999999812,
-0.218782147705078,-0.0782425102539064,0.0667024582519549,0.24173691588612,0.461907999999994,
0.0278206232910158,-0.0590888969726564,0.0044532150878922,0.0654623246636174,0.464927999999873,
0.243298772705078,0.106111017578125,0.00924161840820403,0.265592259604954,0.467893000000004,
0.0541568415527345,0.0271023627929686,-0.0314598098144518,0.0682438362747228,0.470835999999963,
-0.206811139404297,-0.0926077202148439,0.00205901342773629,0.22660820100206,0.473866999999927,
0.0541568415527345,-0.11415553515625,0.085856071533204,0.152760317860669,0.476818999999978,
0.183443731201172,0.0917458076171874,0.0762792648925803,0.218831949186791,0.479853999999932,
-0.000909796630859216,0.0965342109374999,-0.0386424147949214,0.103985180830818,0.482794999999896,
-0.0966778630371092,-0.0638773002929689,0.0283952316894549,0.119303008666328,0.485705999999936,
0.104435076416016,-0.0734541069335939,0.116980693115236,0.173166606403059,0.488752999999861,
0.049368438232422,-0.0351468803710939,-0.0338540114746078,0.0694164244703754,0.491684999999961,
-0.0966778630371092,0.0390733710937499,0.0236068283691413,0.10691407706987,0.494756999999936,
-0.00569819995117171,0.000766144531249902,0.0212126267089854,0.021977988807465,0.497715999999855,
0.123588689697266,0.0199197578124999,0.00205901342773629,0.12520064100751,0.500662999999804,
0.0158496149902345,-0.0231758720703126,0.00205901342773629,0.0281526353624978,0.50367499999993,
-0.118225677978515,-0.0662715019531251,0.0164242233886736,0.136524642532122,0.506602999999814,
0.0326090266113283,-0.128520745117188,0.0116358200683599,0.133102677849391,0.50961899999993,
0.181049529541016,0.11568782421875,0.0283952316894549,0.216723081378494,0.51258699999994,
-0.0679474431152342,0.189908075683594,0.0738850632324226,0.214804410579957,0.51549799999998,
-0.0894952580566405,-0.214712004882813,0.0116358200683599,0.232907789831265,0.518496999999797,
0.0852814631347658,-0.202740996582031,0.0188184250488295,0.220750929263729,0.521432999999888,
0.0373974299316408,0.197090680664062,-0.00512359155273323,0.200672756896682,0.524475999999822,
-0.0894952580566405,0.120476227539062,0.0331836350097667,0.153704509527632,0.527427999999873,
-0.000909796630859216,-0.197952593261719,0.0116358200683599,0.198296367131655,0.530338999999913,
0.039791631591797,-0.118943938476563,-0.012306196533201,0.126025699435343,0.533334999999852,
0.0326090266113283,0.149206647460937,0.100221281494141,0.182675333658923,0.536305999999968,
-0.0320344182128905,0.0199197578124999,0.0236068283691413,0.0445003713152724,0.539310999999998,
0.0182438166503908,-0.178798979980469,0.026001030029299,0.181598363568105,0.542252999999846,
0.0230322199707033,-0.0183874687500001,0.0164242233886736,0.0337392542557204,0.545180999999957,
0.0158496149902345,0.137235639160156,0.0236068283691413,0.140150323926437,0.54821899999979,
0.0517626398925783,-0.0662715019531251,-0.0769496413574213,0.113984780408647,0.551134999999931,
-0.0104866032714842,-0.174010576660156,-0.0338540114746078,0.177583061497139,0.554124999999885,
-0.0416112248535155,-0.102184526855469,-0.0194888015136705,0.112040104190085,0.557035999999925,
0.0852814631347658,0.156389252441406,0.047548844970704,0.184367618880421,0.560061999999789,
0.0637336481933595,0.0151313544921874,-0.0793438430175772,0.102890141537472,0.563012999999955,
-0.0128808049316405,-0.231471416503906,-0.00272938989257732,0.231845598110461,0.565923999999995,
0.0230322199707033,-0.0997903251953126,0.0116358200683599,0.103072714469099,0.568947999999864,
0.0565510432128908,0.146812445800781,0.0978270798339853,0.185262117766473,0.57191899999998,
0.00627280834960953,0.0055545478515624,-0.00991199487304506,0.0129787814832325,0.574923999999783,
0.0350032282714846,-0.212317803222656,0.0810676682128921,0.229947912328414,0.577888999999914,
0.0326090266113283,-0.0638773002929689,0.0140300217285176,0.0730787220670909,0.580812999999807,
-0.036822821533203,0.151600849121094,0.0403662399902363,0.161146427111655,0.583843999999999,
0.00148440502929703,-0.0112048637695313,0.0379720383300786,0.0396185325993494,0.586789999999837,
0.020638018310547,-0.157251165039063,-0.0242772048339823,0.160446998664606,0.589812999999822,
-0.00569819995117171,0.00794874951171864,0.0451546433105481,0.0462016657057557,0.592866999999842,
0.011061211669922,0.108505219238281,0.0882502731933599,0.140299122321763,0.595905999999786,
0.058945244873047,-0.0423294853515627,0.00924161840820403,0.0731555516285298,0.599002999999811,
0.0613394465332033,-0.145280156738281,0.0547314499511735,0.166926280904647,0.601991999999882,
-0.0128808049316405,0.0462559760742186,0.0236068283691413,0.0535052595911444,0.604999999999791,
-0.0296402165527342,0.113293622558594,0.0236068283691413,0.119462419594583,0.607954999999947,
0.0828872614746095,-0.0734541069335939,0.0283952316894549,0.114333254667529,0.610910999999987,
0.078098858154297,-0.121338140136719,-0.012306196533201,0.144823404082202,0.613939999999957,
-0.0248518132324217,0.000766144531249902,-0.0218830031738264,0.0331219779947942,0.616885999999795,
0.0350032282714846,0.0797747993164062,-0.0194888015136705,0.089269580372251,0.619922999999972,
0.0661278498535158,-0.0255700737304688,0.00205901342773629,0.070929265702715,0.62288999999987,
0.0637336481933595,-0.111761333496094,-0.0410366164550773,0.135042872699529,0.625819999999976,
-0.0200634099121092,-0.00402225878906259,0.00205901342773629,0.0205659553476884,0.62883799999986,
-0.0200634099121092,0.0917458076171874,0.00684741674804812,0.0941632664511631,0.631807999999864,
0.0661278498535158,0.0223139594726561,0.0140300217285176,0.0711874063532247,0.634866999999986,
0.0326090266113283,-0.0878193168945314,0.0595198532714853,0.110987359504673,0.63781999999992,
-0.0679474431152342,-0.0327526787109377,-0.0434308181152332,0.0870392379952764,0.640706999999793,
0.00627280834960953,0.0366791694335936,-0.0170945998535146,0.0409503960796593,0.643742999999859,
0.106829278076172,-0.0112048637695313,0.0762792648925803,0.1317443352821,0.646690999999919,
0.0302148249511721,-0.0782425102539064,-0.0338540114746078,0.090448439182694,0.649698999999828,
-0.0440054265136717,-0.0159932670898438,0.0140300217285176,0.0488784580828807,0.652628999999934,
0.0134554133300783,0.0366791694335936,-0.0601902297363264,0.0717584376497514,0.655642999999827,
0.0828872614746095,0.00794874951171864,0.0451546433105481,0.0947228723490961,0.658608999999842,
0.00387860668945328,-0.0327526787109377,-0.012306196533201,0.0352026139044695,0.661524999999983,
-0.0248518132324217,-0.0231758720703126,-0.0625844313964823,0.0712147788059449,0.664526999999907,
0.068522051513672,-0.00162805712890635,0.0427604416503922,0.0807859980676967,0.667482999999947,
0.0302148249511721,-0.0183874687500001,0.0140300217285176,0.0380509679714574,0.670489999999972,
-0.0200634099121092,-0.0399352836914064,0.0188184250488295,0.0484922717773961,0.673416999999972,
-0.000909796630859216,-0.0183874687500001,-0.00751779321288915,0.0198857725958413,0.676314999999931,
0.0278206232910158,0.00316034619140615,-0.0170945998535146,0.0328054905846861,0.67934699999978,
0.049368438232422,0.00316034619140615,-0.012306196533201,0.0509771807250242,0.682301999999936,
-0.0320344182128905,-0.00641646044921884,-0.0194888015136705,0.0380419281763425,0.685284999999794,
0.00627280834960953,-0.0351468803710939,0.047548844970704,0.0594604404832235,0.688248999999814,
-0.000909796630859216,0.0175255561523436,0.0140300217285176,0.0224680741956481,0.691181999999799,
0.0517626398925783,0.0366791694335936,0.0738850632324226,0.0973844696440151,0.694211999999879,
0.0230322199707033,-0.0255700737304688,0.0571256516113294,0.0666907182400929,0.697157999999945,
-0.046399628173828,0.00316034619140615,0.0451546433105481,0.0648217177743837,0.700162999999975,
0.0350032282714846,0.0127371528320311,0.0427604416503922,0.0567090506165353,0.703133999999864,
0.0302148249511721,-0.0207816704101563,0.0523372482910176,0.06390618929761,0.706052999999883,
0.0134554133300783,-0.0303584770507814,-0.0530076247558586,0.0625499285290078,0.709052999999813,
0.0254264216308596,-0.0495120903320314,0.0690966599121108,0.0887259737450504,0.712005999999974,
0.0278206232910158,0.0294965644531249,-0.0434308181152332,0.0594160782700813,0.715036999999938,
0.0350032282714846,0.0127371528320311,0.0619140549316413,0.0722551814735142,0.718002999999953,
0.00387860668945328,-0.0447236870117189,-0.0194888015136705,0.0489394028796114,0.720918999999867,
0.0158496149902345,-0.0112048637695313,0.0762792648925803,0.0787101360689007,0.723939999999857,
-0.00809240161132796,0.0175255561523436,0.047548844970704,0.0513178793437143,0.726894999999786,
0.049368438232422,-0.00162805712890635,0.0164242233886736,0.0520542829884776,0.729969999999867,
0.0326090266113283,-0.0159932670898438,0.00924161840820403,0.0374772026643966,0.733020999999781,
-0.00330399829101546,0.0247081611328124,0.0212126267089854,0.0327320204565318,0.73603799999978,
0.0182438166503908,-0.00162805712890635,0.026001030029299,0.0318047320154182,0.739128999999821,
-0.000909796630859216,0.0151313544921874,0.0188184250488295,0.0241644106072582,0.74207199999978,
0.00148440502929703,0.0055545478515624,0.0236068283691413,0.0242968888085778,0.745103999999856,
-0.00809240161132796,-0.00881066210937509,0.0140300217285176,0.0184379022762156,0.74802499999987,
0.0134554133300783,-0.0135990654296876,-0.0314598098144518,0.0368198636880374,0.751042999999981,
0.0445800349121095,-0.0159932670898438,0.0379720383300786,0.0607045286606604,0.753998999999794,
0.0445800349121095,0.000766144531249902,0.00924161840820403,0.0455343167403501,0.756960999999819,
0.0230322199707033,0.0151313544921874,-0.00272938989257732,0.0276927899412971,0.75997899999993,
-0.00569819995117171,-0.0231758720703126,0.0595198532714853,0.0641264646020828,0.762940999999955,
0.011061211669922,-0.0159932670898438,-0.00512359155273323,0.0201093556886624,0.76595199999997,
-0.00809240161132796,-0.00641646044921884,0.0044532150878922,0.0112467352220297,0.768906999999899,
-0.0535822331542967,-0.0231758720703126,0.0403662399902363,0.0709761233582834,0.771844999999985,
0.00627280834960953,-0.0135990654296876,0.0930386765136735,0.0942362883000377,0.774896999999783,
0.020638018310547,-0.00641646044921884,-0.0194888015136705,0.0291017550831923,0.777839999999969,
-0.0104866032714842,0.0103429511718749,-0.0314598098144518,0.0347370856676085,0.780862999999954,
0.0182438166503908,-0.00402225878906259,0.0212126267089854,0.0282664278541528,0.783816999999999,
-0.00330399829101546,-0.0231758720703126,0.026001030029299,0.034987012068924,0.786731999999802,
0.039791631591797,0.000766144531249902,0.0140300217285176,0.0421995548777797,0.789771999999857,
0.0230322199707033,0.0103429511718749,-0.0601902297363264,0.0652711540531834,0.792723999999907,
0.0373974299316408,-0.0112048637695313,0.0355778366699226,0.0528194963976128,0.795754999999872,
-0.0200634099121092,-0.0303584770507814,-0.0434308181152332,0.0566605110134264,0.798669999999902,
0.0302148249511721,0.000766144531249902,0.0403662399902363,0.0504277300224993,0.801618999999846,
0.0134554133300783,-0.0279642753906251,0.0379720383300786,0.0490400299851756,0.804630999999972,
-0.00569819995117171,-0.0159932670898438,0.0307894333496108,0.0351602514336963,0.807551999999987,
0.0134554133300783,-0.0135990654296876,0.0667024582519549,0.0693916469418182,0.810579999999845,
0.0278206232910158,0.0103429511718749,-0.00512359155273323,0.0301200084602186,0.813532999999779,
-0.0152750065917967,-0.00162805712890635,0.0547314499511735,0.0568463544139132,0.8164569999999,
-0.0248518132324217,-0.0159932670898438,0.0188184250488295,0.0350361289880127,0.81944899999985,
0.00627280834960953,-0.0447236870117189,0.0810676682128921,0.0927982927320793,0.822407999999996,
0.00387860668945328,-0.0183874687500001,0.0690966599121108,0.071606501156624,0.825425999999879,
-0.0128808049316405,-0.00881066210937509,0.0164242233886736,0.0226560812236715,0.828362999999854,
0.00866701000976578,-0.0447236870117189,-0.0194888015136705,0.0495493554637275,0.831274999999778,
0.0326090266113283,-0.00881066210937509,-0.012306196533201,0.0359502274882603,0.834274999999934,
0.0182438166503908,0.0151313544921874,0.0355778366699226,0.042750171892672,0.837244999999939,
0.0350032282714846,-0.0159932670898438,0.00924161840820403,0.0395780001065692,0.840248999999858,
0.00866701000976578,-0.0183874687500001,0.0307894333496108,0.0368945155210329,0.843191999999817,
0.0278206232910158,-0.0207816704101563,0.00924161840820403,0.0359342791236979,0.846203999999943,
0.0278206232910158,0.0199197578124999,0.0212126267089854,0.0402586557587809,0.849157999999989,
-0.00569819995117171,0.0055545478515624,0.0140300217285176,0.0161295999399088,0.852083999999877,
-0.000909796630859216,-0.0543004936523439,0.0212126267089854,0.0583039181590099,0.855070999999953,
0.011061211669922,-0.0159932670898438,0.0499430466308599,0.0535951761130248,0.858029999999872,
0.0158496149902345,0.0199197578124999,0.0379720383300786,0.0457152353334014,0.861047999999982,
0.0421858332519533,-0.0207816704101563,0.0714908615722667,0.0855714066761963,0.86399799999981,
-0.000909796630859216,-0.0112048637695313,0.0188184250488295,0.0219205342845856,0.866915999999947,
0.00866701000976578,-0.0279642753906251,0.00205901342773629,0.0293488891941023,0.87003199999981,
0.0134554133300783,-0.0159932670898438,0.0283952316894549,0.0352579341820838,0.87307399999986,
0.00866701000976578,-0.00402225878906259,0.0188184250488295,0.0211051830030915,0.876191999999946,
0.00627280834960953,-0.0135990654296876,0.047548844970704,0.0498515332081161,0.879182999999784,
0.0230322199707033,-0.0375410820312502,0.0116358200683599,0.0455544542884575,0.882111999999779,
0.0421858332519533,-0.00881066210937509,0.0164242233886736,0.0461197073699328,0.885126999999784,
0.0134554133300783,-0.0159932670898438,0.047548844970704,0.0519396322487787,0.88810199999989,
0.0158496149902345,-0.00641646044921884,0.0283952316894549,0.0331461980132395,0.891138999999839,
0.049368438232422,-0.00881066210937509,-0.0434308181152332,0.0663408352560662,0.894073999999819,
0.020638018310547,0.0127371528320311,-0.0170945998535146,0.0296713364411645,0.897012999999788,
0.0302148249511721,-0.00881066210937509,-0.0290656081542959,0.042841253378194,0.900022999999919,
-0.0152750065917967,-0.0734541069335939,0.00205901342773629,0.075053788632466,0.902977999999848,
0.0421858332519533,-0.0159932670898438,-0.000335188232421402,0.045116975414137,0.906000999999833,
0.0445800349121095,-0.00881066210937509,-0.012306196533201,0.0470791859815381,0.908955999999989,
0.0278206232910158,0.0271023627929686,-0.048219221435545,0.0619162213407151,0.911938999999848,
0.00627280834960953,-0.0303584770507814,-0.00751779321288915,0.0318983145044611,0.914949999999862,
0.0134554133300783,-0.0279642753906251,0.0307894333496108,0.0437154212148996,0.917908999999781,
0.00866701000976578,-0.0255700737304688,0.00684741674804812,0.0278537762109995,0.920942999999852,
-0.000909796630859216,-0.0112048637695313,0.0116358200683599,0.0161792771985193,0.923875999999836,
0.039791631591797,-0.0255700737304688,0.0403662399902363,0.0621822800021699,0.926806999999826,
0.0254264216308596,-0.0279642753906251,0.0571256516113294,0.0684970341481436,0.929813999999851,
0.0278206232910158,-0.0159932670898438,0.0212126267089854,0.0384674824287014,0.932762999999795,
0.00387860668945328,0.00794874951171864,0.0595198532714853,0.060173408928784,0.935802999999851,
0.0373974299316408,-0.0423294853515627,0.0906444748535176,0.106802499582595,0.938754999999901,
0.00148440502929703,-0.00641646044921884,0.0930386765136735,0.0932714841224442,0.941779999999881,
0.0230322199707033,-0.00641646044921884,0.0212126267089854,0.0319629418760228,0.944725999999946,
0.0230322199707033,-0.0112048637695313,0.0236068283691413,0.0348326639021869,0.947663999999804,
0.00148440502929703,-0.0183874687500001,0.0236068283691413,0.029959719807991,0.950667999999951,
0.0350032282714846,-0.0112048637695313,0.0595198532714853,0.069952754734739,0.95362299999988,
0.0254264216308596,-0.00402225878906259,-0.0434308181152332,0.0504868046609696,0.956606999999849,
0.00627280834960953,-0.0399352836914064,0.0164242233886736,0.0436340477382639,0.959562999999889,
0.0278206232910158,0.0103429511718749,0.00684741674804812,0.0304606440405624,0.962504999999965,
0.049368438232422,-0.0519062919921877,0.0212126267089854,0.0747093124970474,0.965532999999823,
0.00627280834960953,-0.0423294853515627,0.0451546433105481,0.0622099290083337,0.968491999999969,
0.0182438166503908,-0.0183874687500001,0.0738850632324226,0.0782939232754649,0.971506999999974,
0.0182438166503908,-0.00881066210937509,0.0212126267089854,0.0293332600416901,0.974456999999802,
0.0373974299316408,-0.0112048637695313,0.0307894333496108,0.0497202769861137,0.977387999999792,
-0.0104866032714842,0.00794874951171864,-0.00751779321288915,0.0151548237127758,0.980386999999837,
0.0254264216308596,-0.00641646044921884,0.0427604416503922,0.0501610332009143,0.983338999999887,
0.0278206232910158,-0.0351468803710939,0.00924161840820403,0.0457678685424988,0.986350999999786,
0.0254264216308596,-0.0255700737304688,0.0116358200683599,0.0378909474174915,0.989297999999962,
-0.0200634099121092,-0.0327526787109377,-0.02667140649414,0.0467615472842686,0.992190999999821,
0.0445800349121095,0.0055545478515624,0.0188184250488295,0.0487069362197892,0.995226999999886,
0.0182438166503908,-0.00162805712890635,0.0044532150878922,0.0188498949760228,0.998153000000002,
-0.0128808049316405,0.0127371528320311,-0.0218830031738264,0.028408027489764,1.00115399999981,
0.0254264216308596,-0.00162805712890635,-0.000335188232421402,0.0254806954009576,1.00408399999992,
0.0373974299316408,-0.0471178886718752,0.0283952316894549,0.0665203155516044,1.00707499999999,
0.058945244873047,-0.0183874687500001,-0.012306196533201,0.0629609670612632,1.01016499999992,
0.0350032282714846,0.0055545478515624,-0.0147003981933587,0.038369007001801,1.0132279999998,
