X,Y,Z,Magnitude,Seconds,
-0.652659372558594,-0.0659841977539062,-0.0362003291015611,0.656984501163357,0.0,
-0.698149204101563,-0.0588015927734374,-0.0194409174804662,0.700890781629221,0.00378199999977369,
-0.669418784179688,-0.0516189877929687,0.0284431157226575,0.672008213748459,0.00760099999934027,
-0.664630380859375,-0.0611957944335937,-0.0194409174804662,0.667724806855428,0.0113649999993868,
-0.686178195800781,-0.0875320126953125,0.0212605107421897,0.692065299632864,0.0151169999999183,
-0.643082565917969,-0.092320416015625,0.0428083256835947,0.651084325221219,0.0188499999994747,
-0.671812985839844,-0.0540131894531251,0.0380199223632829,0.675052314324198,0.022609999999986,
-0.631111557617188,-0.0635899960937499,0.0380199223632829,0.635445513209202,0.0263539999996283,
-0.645476767578125,-0.0324653745117187,0.0523851323242202,0.648412260921952,0.0302130000000034,
-0.647870969238281,-0.0683783994140624,0.00689530078125244,0.651505904394613,0.0339559999993071,
-0.678995590820313,-0.0683783994140624,-0.0194409174804662,0.682706794409091,0.0376569999998537,
-0.638294162597656,-0.0635899960937499,0.0595677373046897,0.644213816164359,0.0413769999995566,
-0.683783994140625,-0.149781255859375,0.0236547124023456,0.700395974194995,0.0450999999993655,
-0.65505357421875,-0.0659841977539062,-0.00986411083984251,0.658442404567512,0.0488029999996797,
-0.638294162597656,-0.0420421811523437,0.0116837041015643,0.639783941611403,0.0525920000000042,
-0.698149204101563,-0.0995030209960938,0.0380199223632829,0.706228487722992,0.0563849999998638,
-0.695755002441406,-0.0827436093749999,-0.0242293208007798,0.701076734959242,0.0603629999995974,
-0.686178195800781,-0.0516189877929687,-0.0505655390624984,0.689972398023187,0.0641999999998006,
-0.702937607421875,-0.0324653745117187,-0.0290177241210916,0.704284962769577,0.0679749999999331,
-0.628717355957031,-0.0875320126953125,-0.038594530761717,0.635953539759635,0.0717749999994339,
-0.6742071875,-0.0683783994140624,0.00689530078125244,0.67770087970723,0.0755970000000161,
-0.643082565917969,-0.0971088193359375,-0.038594530761717,0.65151734219833,0.0795359999992797,
-0.667024582519531,-0.0683783994140624,0.00689530078125244,0.670555698182223,0.0833370000000286,
-0.650265170898438,-0.0635899960937499,-0.0122583124999984,0.653482016823818,0.0870740000000296,
-0.669418784179688,-0.0133117612304687,-0.0433829340820289,0.670955133052303,0.0908639999997831,
-0.6358999609375,-0.092320416015625,0.0212605107421897,0.642918213189385,0.094637999999577,
-0.614352145996094,-0.0611957944335937,-0.0242293208007798,0.617867740323794,0.0983669999995982,
-0.657447775878906,-0.0707726010742187,0.0260489140625015,0.661758932689818,0.102162999999564,
-0.643082565917969,-0.0683783994140624,-0.0242293208007798,0.647161380244939,0.105917999999292,
-0.669418784179688,-0.0707726010742187,0.00210689746093884,0.673152812288809,0.10964199999944,
-0.688572397460938,-0.0492247861328126,0.0140779057617202,0.690473180902459,0.113362000000052,
-0.647870969238281,-0.0707726010742187,-0.0362003291015611,0.652729666609096,0.117050999999265,
-0.700543405761719,-0.0803494077148437,0.0643561406250015,0.708066948467798,0.120781999999963,
-0.681389792480469,-0.0707726010742187,-0.0050757075195289,0.685074136985342,0.124500999999327,
-0.652659372558594,-0.0779552060546874,-0.0074699091796866,0.657340908724506,0.12835399999949,
-0.633505759277344,-0.0827436093749999,0.0835097539062524,0.644321294795888,0.132300999999643,
-0.647870969238281,-0.0420421811523437,-0.000287304199217076,0.649233717794678,0.136011999999937,
-0.667024582519531,-0.0803494077148437,0.00210689746093884,0.671849879081921,0.139790999999605,
-0.683783994140625,-0.0228885678710937,0.0404141240234388,0.685359568841552,0.143534999999247,
-0.717302817382813,-0.0324653745117187,-0.143939403808591,0.73232225443194,0.147310999999718,
-0.602381137695312,-0.235972515625,0.0380199223632829,0.648067571845714,0.151247999999214,
-0.7891288671875,-0.0109175595703124,0.00450109912109475,0.789217221067113,0.154962999999952,
-0.537737692871094,0.00584185205078125,0.145758997070315,0.557172898476455,0.158727999999428,
-0.688572397460938,-0.353288396972656,0.0284431157226575,0.774437633907744,0.162458999999217,
-0.822647690429688,0.123157733398437,-0.0601423457031238,0.833986901343069,0.166206999999304,
-0.494642062988281,-0.111474029296875,-0.0242293208007798,0.507626131785442,0.169914000000063,
-0.707726010742188,-0.240760918945313,-0.0697191523437475,0.750801362928953,0.173681999999644,
-0.793917270507813,0.113580926757813,0.035625720703127,0.802791661210651,0.177450999999564,
-0.537737692871094,-0.135416045898437,0.0571735356445338,0.557465824063853,0.181179999999586,
-0.741244833984375,-0.113868230957031,-0.0290177241210916,0.750501103425555,0.184863999999834,
-0.729273825683594,0.0441490786132812,0.0763271489257829,0.734585112585822,0.18861299999935,
-0.556891306152344,-0.0396479794921876,-0.0481713374023425,0.560375201889776,0.192297999999937,
-0.633505759277344,-0.240760918945313,0.0547793339843761,0.67992362994731,0.196026999999958,
-0.82743609375,0.0369664736328126,-0.0457771357421866,0.829525500252924,0.200092000000041,
-0.513795676269531,-0.10189722265625,0.0499909306640642,0.526182605268344,0.203974000000017,
-0.796311472167969,-0.1210508359375,-0.0338061274414052,0.80616879115981,0.207715999999891,
-0.669418784179688,0.0273896669921876,0.0763271489257829,0.674312639755249,0.211536999999225,
-0.52097828125,-0.207242095703125,-0.0481713374023425,0.562750507341182,0.215279999999439,
-0.8657433203125,-0.0707726010742187,-0.0218351191406239,0.868905650894508,0.21914199999992,
-0.537737692871094,-0.00134075292968738,0.0882981572265642,0.544940536684832,0.222982999999658,
-0.633505759277344,-0.176117474121094,-0.0266235224609357,0.658069695151346,0.22678999999971,
-0.820253488769531,0.0824563051757814,0.0475967290039083,0.825760423315202,0.230579000000034,
-0.480276853027344,-0.238366717285156,-0.0697191523437475,0.540689659293278,0.23436700000002,
-0.643082565917969,0.0178128603515626,0.102663367187501,0.651469302073259,0.23815999999988,
-0.755610043945313,-0.0276769711914062,0.0906923588867201,0.761536379436862,0.241906999999628,
-0.528160886230469,-0.214424700683594,0.107451770507815,0.580067028016821,0.245726000000104,
-0.671812985839844,0.0465432802734376,0.0164721074218761,0.673624743610696,0.24953800000003,
-0.681389792480469,-0.0827436093749999,0.0404141240234388,0.687584071666557,0.253264999999374,
-0.643082565917969,-0.123445037597656,0.0475967290039083,0.656551073799287,0.256986999999754,
-0.647870969238281,0.0728794985351564,-0.0266235224609357,0.652500594663878,0.260725000000093,
-0.640688364257813,-0.142598650878906,0.100269165527346,0.663980316638518,0.264447999999902,
-0.695755002441406,-0.111474029296875,-0.0290177241210916,0.705225858107238,0.268239999999423,
-0.626323154296875,-0.00134075292968738,-0.0433829340820289,0.627825270434674,0.272342999999637,
-0.643082565917969,-0.154569659179687,-0.000287304199217076,0.661397799112052,0.276159999999436,
-0.760398447265625,-0.0731668027343749,-0.0122583124999984,0.764008799590484,0.279968999999255,
-0.599986936035156,-0.0588015927734374,-0.0218351191406239,0.60325676386878,0.283754999999474,
-0.719697019042969,-0.0324653745117187,0.00928950244140836,0.720488788682468,0.287630999999237,
-0.683783994140625,-0.0611957944335937,-0.0314119257812475,0.687235174434888,0.291455999999926,
-0.607169541015625,-0.0851378110351562,-0.0218351191406239,0.613498223985097,0.295311999999285,
-0.221703073730469,2.66101149316406,-3.01219299267578,4.02534980402671,0.299167999999554,
2.61303169189453,-4.16485743994141,9.37480784655762,10.5858865607827,0.302592000000004,
-3.51612455810547,-18.8293426083984,0.634176135742189,19.1653190514457,0.305578999999852,
-8.08665552734375,12.0486762026367,-7.00093295849609,16.1114139088803,0.308500999999524,
-1.27994020751953,18.5555177645264,-9.07909999951172,20.6972351594509,0.311581999999362,
18.5320785302734,-9.77686613134766,9.37480784655762,22.9545653010985,0.314556999999695,
-1.38049667724609,-20.6704836850586,-2.57644829052734,20.8761287753243,0.317583000000013,
-17.790354855957,0.882119659667969,-0.639539147460935,17.823688487964,0.320555999999669,
-10.0451124853516,18.5555177645264,-4.93234272412109,21.6688608168775,0.323499999999513,
16.1618188867188,1.15027024560547,3.82804115039063,16.6487660327758,0.326571999999942,
11.6966327905273,-13.5740699643555,-0.357023351562498,17.9218877272239,0.329529999999977,
-10.5646542456055,-3.78417937597656,1.5367901616211,11.3266789872235,0.332594999999856,
-15.4727676489258,9.99445117822266,-3.40963046826172,18.732890140115,0.33553799999936,
4.765418984375,2.06964368310547,1.80972915087891,5.50161455131136,0.338509999999587,
10.9017578393555,-6.17838103613281,-0.596443517578123,12.5449775243025,0.341575999999804,
-0.734062229003906,-2.16569905371094,0.349266138183596,2.3132415746256,0.344526999999289,
-9.92540240234375,4.70087130761719,-0.251678478515624,10.985223982959,0.347594999999274,
-2.33338893798828,1.20533688378906,0.181672021972657,2.63259295427836,0.350537999999688,
5.57465914550781,-3.92064887060547,-0.354629149902342,6.82452005558884,0.353485999999975,
1.92110741210938,-0.980569231933594,-0.0433829340820289,2.15732514620443,0.356536999999662,
-4.75392681640625,3.17815905175781,0.524042859375001,5.7423981098909,0.359493999999358,
-3.39880867675781,0.767197979980469,-0.00268150585937299,3.48432207928084,0.362554999999702,
2.16292177978516,-2.85522913183594,-0.443214611328123,3.60929400471177,0.365491999999904,
1.62422640625,-0.877618560546875,0.121816980468752,1.85017975702543,0.368526999999631,
-2.7811046484375,2.48623477197266,0.28222849169922,3.74106393001422,0.371523999999226,
-2.42676280273438,0.709737140136719,-0.129574193847654,2.53173734430251,0.374555999999757,
1.01131078125,-2.42187863134766,-0.0481713374023425,2.62498877692801,0.37768799999958,
0.482192214355469,-0.690870831054688,-0.040988732421873,0.843499800220947,0.380742999999711,
-2.01017171386719,2.07682628808594,0.0284431157226575,2.89046825980646,0.38378399999965,
-1.31345903076172,0.223714203125,0.0739329472656269,1.33442450174626,0.386780999999246,
0.305021291503906,-1.85684703955078,-0.153516210449217,1.88798467775295,0.389744000000064,
-0.389297189941406,-0.180905877441406,0.0332315190429711,0.430561926378801,0.392788999999539,
-1.47147634033203,1.48067007470703,0.155335803710939,2.09326436510165,0.395763999999872,
-0.626323154296875,-0.176117474121094,-0.0194409174804662,0.650903992591583,0.398783999999978,
-0.106781394042969,-1.28463284277344,-0.117603185546873,1.29441659294707,0.401742000000013,
-0.863349118652344,0.276386639648438,0.0140779057617202,0.906619800514289,0.404708999999457,
-0.980665,0.862966046386719,0.093086560546876,1.3096103799206,0.407772999999906,
-0.4060566015625,-0.465815875,-0.179852428710936,0.643594040671388,0.41071699999975,
-0.473094248046875,-0.755514275878906,-0.0194409174804662,0.891626568617349,0.413767000000007,
-1.03573163818359,0.422432940917969,0.131393787109376,1.12625660628385,0.416756999999961,
-0.73166802734375,0.333847479492188,-0.0433829340820289,0.805403203848822,0.419712999999319,
-0.31028853515625,-0.513699908203125,-0.0146525141601543,0.600317638345338,0.422737999999299,
-0.729273825683594,-0.288644952148437,0.0308373173828134,0.784924939960075,0.425701000000117,
-0.997424411621094,0.3386358828125,-0.0074699091796866,1.05336865226237,0.428781999999956,
-0.456334836425781,-0.00852335791015624,-0.000287304199217076,0.456414518951262,0.431701999999859,
-0.420421811523438,-0.372442010253906,-0.0362003291015611,0.562830360262913,0.434623000000101,
-0.904050546875,-0.0300711728515624,-0.0050757075195289,0.904564773550506,0.437675999999556,
-0.887291135253906,0.156676556640625,0.0404141240234388,0.9019237237824,0.440623999999843,
-0.398873996582031,-0.149781255859375,-0.040988732421873,0.428036173636862,0.443631000000096,
-0.516189877929688,-0.200059490722656,-0.0792959589843729,0.559252750566795,0.446584999999686,
-0.820253488769531,-0.00852335791015624,0.0452025273437524,0.821542270334835,0.449513999999908,
-0.734062229003906,-0.0420421811523437,0.00689530078125244,0.735297522244631,0.452562999999827,
-0.52097828125,-0.204847894042969,0.0164721074218761,0.560046747647874,0.455490999999711,
-0.638294162597656,-0.135416045898437,-0.0074699091796866,0.652543288246967,0.458528000000115,
-0.762792648925781,0.070485296875,0.0595677373046897,0.768354812348024,0.461494999999559,
-0.738850632324219,-0.0228885678710937,0.0236547124023456,0.73958345630762,0.464498999999705,
-0.566468112792969,-0.147387054199219,-0.0050757075195289,0.585350176700729,0.467450000000099,
-0.609563742675781,-0.0540131894531251,0.0619619389648456,0.615081021411073,0.470422999999755,
-0.686178195800781,-0.0109175595703124,-0.0888727656249984,0.691995721062799,0.473438999999416,
-0.599986936035156,0.08963891015625,-0.0984495722656238,0.614582602996651,0.476399999999558,
-0.525766684570313,0.0848505068359375,-0.0721133540039052,0.537429577656521,0.479405999999472,
-0.832224497070313,-0.475392681640625,0.533619666015626,1.09697117703248,0.482387999999446,
-1.12910550292969,-1.45462116064453,0.706002185546877,1.97211587989598,0.48534699999982,
-1.08600987304688,1.17900066552734,-1.314704015625,2.07313932536376,0.488414999999804,
0.508528432617187,1.87571334863281,-0.23491906689453,1.9575721445224,0.491383999999925,
0.37924154296875,-2.04838317236328,1.06513243457031,2.33970187671593,0.494478999999956,
-2.53450187744141,-1.62460947851563,-0.13915100048828,3.0137051490439,0.497426999999334,
-1.89285583251953,2.00021183496094,-0.385753771484373,2.78074748217731,0.500392999999349,
1.35847002197266,0.918032684570313,0.172095215332034,1.64858775128227,0.503466999999546,
0.616267507324219,-1.84487603125,0.0811155522460947,1.94677501116091,0.506437999999434,
-2.742797421875,-0.405960833496094,0.0308373173828134,2.77284922704433,0.509461999999985,
-1.94073986572266,1.32744116845703,-0.110420580566405,2.35388274702297,0.512507999999798,
1.32734540039063,-0.21681890234375,0.0739329472656269,1.34696782776838,0.515567999999803,
-0.901656345214844,-0.477786883300781,-0.0577481440429679,1.02205641667223,0.518716999999924,
-2.45788742431641,0.374548907714844,-0.110420580566405,2.48871255461448,0.521710999999414,
-0.38690298828125,0.0249954653320312,0.0260489140625015,0.38858363520864,0.524779999999737,
0.712035573730469,-0.288644952148437,0.107451770507815,0.775794076829487,0.527745999999752,
-1.0189722265625,0.0417548769531251,-0.0194409174804662,1.02001265557227,0.530726999999388,
-1.65582986816406,0.070485296875,0.0116837041015643,1.65737057965963,0.533824000000095,
-0.312682736816406,-0.257520330566406,0.0260489140625015,0.405913488913419,0.536855999999716,
-0.0110133276367188,-0.00852335791015624,-0.0122583124999984,0.01855282299398,0.539887999999337,
-0.875320126953125,0.101609918457031,0.0475967290039083,0.882482492058597,0.542942000000039,
-1.16262432617188,-0.180905877441406,0.0236547124023456,1.17685249955901,0.545900000000074,
-0.487459458007813,-0.188088482421875,-0.0529597407226543,0.525165435418636,0.548960000000079,
-0.312682736816406,0.08963891015625,0.0188663090820338,0.325824440052273,0.551947999999356,
-0.753215842285156,0.0609084902343751,-0.0529597407226543,0.757528008320075,0.555050999999366,
-0.92320416015625,-0.180905877441406,-0.000287304199217076,0.94076189355562,0.558066999999937,
-0.566468112792969,-0.0875320126953125,-0.0074699091796866,0.573239719141018,0.56107399999928,
-0.420421811523438,0.0273896669921876,0.071538745605471,0.427343521754333,0.564063999999235,
-0.758004245605469,-0.0635899960937499,0.035625720703127,0.761500699891167,0.5670369999998,
-0.870531723632813,-0.17851167578125,-0.000287304199217076,0.888646151617757,0.570091999999931,
-0.604775339355469,-0.0947146176757813,-0.00986411083984251,0.612226568009469,0.573021999999582,
-0.499430466308594,-0.0157059628906249,0.0236547124023456,0.500236957217656,0.57607999999982,
-0.758004245605469,-0.0516189877929687,0.00689530078125244,0.75979109064897,0.579077999999754,
-0.767581052246094,-0.0276769711914062,-0.0314119257812475,0.768721923443606,0.582032999999683,
-0.566468112792969,-0.0348595761718749,0.0164721074218761,0.567778692084361,0.585092999999688,
-0.626323154296875,-0.128233440917969,0.0619619389648456,0.642311288129309,0.588038999999299,
-0.793917270507813,-0.0731668027343749,-0.0146525141601543,0.79741627121859,0.591079999999238,
-0.702937607421875,-0.0516189877929687,-0.0433829340820289,0.706164201017247,0.594033999999738,
-0.568862314453125,-0.0564073911132812,0.0284431157226575,0.572359273017556,0.596977999999581,
-0.638294162597656,-0.0779552060546874,0.00928950244140836,0.643103993933237,0.600034000000051,
-0.758004245605469,-0.0492247861328126,-0.0338061274414052,0.760352793233721,0.603014999999687,
-0.688572397460938,-0.0396479794921876,-0.0146525141601543,0.689868541820925,0.606076999999459,
-0.583227524414063,-0.0803494077148437,0.0882981572265642,0.595320869047852,0.609040999999706,
-0.700543405761719,-0.0683783994140624,0.0619619389648456,0.706594615563224,0.611984999999549,
-0.743639035644531,-0.0516189877929687,0.0571735356445338,0.747617782301355,0.615047999999661,
-0.640688364257813,-0.0540131894531251,0.0332315190429711,0.643819336916929,0.618011999999908,
-0.61674634765625,-0.0779552060546874,-0.0242293208007798,0.622125494964497,0.621099999999387,
-0.724485422363281,-0.0444363828125001,0.0332315190429711,0.726607220712996,0.624104999999872,
-0.678995590820313,-0.0372537778320312,-0.000287304199217076,0.680016866599562,0.627136999999493,
-0.659841977539063,-0.0755610043945312,-0.0122583124999984,0.664267391140886,0.630212000000029,
-0.623928952636719,-0.0683783994140624,-0.00986411083984251,0.627742179662513,0.633232999999564,
-0.700543405761719,-0.0611957944335937,0.035625720703127,0.704113045318864,0.6363309999997,
-0.652659372558594,-0.0444363828125001,0.0428083256835947,0.655569524500544,0.639335999999275,
-0.652659372558594,-0.0779552060546874,0.035625720703127,0.658263216893686,0.642334999999548,
-0.595198532714844,-0.0468305844726562,-0.0338061274414052,0.597994357197907,0.645442000000003,
-0.664630380859375,-0.0779552060546874,0.0236547124023456,0.669604437508552,0.648411999999553,
-0.638294162597656,-0.0947146176757813,-0.0362003291015611,0.646297733737922,0.65144699999928,
-0.6358999609375,-0.0396479794921876,0.0260489140625015,0.63766705146335,0.654461000000083,
-0.678995590820313,-0.0851378110351562,-0.0266235224609357,0.684830103872129,0.657527999999729,
-0.678995590820313,-0.0635899960937499,0.0308373173828134,0.682663636134222,0.660507999999936,
-0.662236179199219,-0.0588015927734374,0.0236547124023456,0.665262301481086,0.663450000000012,
-0.623928952636719,-0.0851378110351562,-0.0218351191406239,0.630089324805695,0.666478000000097,
-0.631111557617188,-0.0611957944335937,-0.0170467158203103,0.634300649483043,0.669485999999779,
-0.6742071875,-0.0300711728515624,-0.0338061274414052,0.675723657544942,0.672490999999354,
-0.700543405761719,-0.111474029296875,-0.0433829340820289,0.710682489958402,0.675537000000077,
-0.647870969238281,-0.1210508359375,-0.0218351191406239,0.659444364666803,0.678557999999612,
-0.65505357421875,-0.0420421811523437,-0.0242293208007798,0.656848376780573,0.68163899999945,
-0.6742071875,-0.0707726010742187,0.035625720703127,0.678847026004451,0.684639000000061,
-0.671812985839844,-0.0420421811523437,0.0428083256835947,0.674487053757836,0.687715000000026,
-0.681389792480469,-0.0995030209960938,0.035625720703127,0.689537593217036,0.690718999999262,
-0.662236179199219,-0.0803494077148437,-0.0050757075195289,0.667112094904095,0.693677999999636,
-0.671812985839844,-0.0779552060546874,0.0308373173828134,0.67702336904825,0.696768999999222,
-0.669418784179688,-0.0635899960937499,-0.0266235224609357,0.672959143012443,0.699775999999474,
-0.678995590820313,-0.0420421811523437,-0.0194409174804662,0.680573659953097,0.702854000000116,
-0.671812985839844,-0.0731668027343749,-0.0338061274414052,0.676630566275277,0.705806999999368,
-0.650265170898438,-0.0540131894531251,0.0308373173828134,0.65323285072158,0.708799999999428,
-0.65505357421875,-0.0564073911132812,-0.0242293208007798,0.657924037298709,0.711890999999923,
-0.686178195800781,-0.0324653745117187,-0.0266235224609357,0.687461510837392,0.714834999999766,
-0.645476767578125,-0.0444363828125001,0.035625720703127,0.647984599798623,0.717945999999756,
-0.671812985839844,-0.0971088193359375,-0.0146525141601543,0.678953243535282,0.720910999999433,
-0.65505357421875,-0.0947146176757813,0.0260489140625015,0.662377981081848,0.723895999999513,
-0.647870969238281,-0.0971088193359375,-0.000287304199217076,0.655108386542466,0.72693899999922,
-0.623928952636719,-0.106685625976563,-0.00268150585937299,0.632990008769521,0.729927999999745,
-0.695755002441406,-0.0564073911132812,-0.0242293208007798,0.698458214341356,0.732991999999285,
-0.683783994140625,-0.0516189877929687,-0.0362003291015611,0.686684450363293,0.735944000000018,
-0.662236179199219,-0.0540131894531251,-0.0290177241210916,0.665068575402903,0.738881999999649,
-0.650265170898438,-0.0611957944335937,0.0284431157226575,0.653757392747451,0.741994999999406,
-0.628717355957031,-0.0252827695312499,0.0428083256835947,0.630680017809827,0.745014999999512,
-0.667024582519531,-0.0707726010742187,0.0140779057617202,0.670916345142076,0.748098000000027,
-0.643082565917969,-0.0683783994140624,0.0595677373046897,0.649445230501902,0.751110999999582,
-0.669418784179688,-0.0444363828125001,0.0547793339843761,0.673124710705113,0.754167999999481,
-0.669418784179688,-0.0755610043945312,0.0452025273437524,0.675184598814268,0.757133999999496,
-0.667024582519531,-0.0540131894531251,0.00210689746093884,0.669211220271422,0.760172999999668,
-0.652659372558594,-0.0635899960937499,0.0428083256835947,0.657145719714899,0.763256999999612,
-0.688572397460938,-0.0755610043945312,-0.00268150585937299,0.692711052606993,0.766252999999779,
-0.669418784179688,-0.0755610043945312,0.0595677373046897,0.676298225138379,0.769304999999804,
-0.65505357421875,-0.0755610043945312,-0.0194409174804662,0.659683711906208,0.77237199999945,
-0.671812985839844,-0.0971088193359375,0.0332315190429711,0.67960808161305,0.775418999999602,
-0.6742071875,-0.0372537778320312,-0.0122583124999984,0.675346904830966,0.77850799999942,
-0.6742071875,-0.0851378110351562,-0.0194409174804662,0.679839486803319,0.781481999999414,
-0.652659372558594,-0.0444363828125001,0.0739329472656269,0.658334967472804,0.784663999999793,
-0.700543405761719,-0.0444363828125001,0.0643561406250015,0.704895288897459,0.787655000000086,
-0.681389792480469,-0.0875320126953125,0.0499909306640642,0.688805484655667,0.79064500000004,
-0.681389792480469,-0.0611957944335937,0.0260489140625015,0.684628016134872,0.793706999999813,
-0.643082565917969,-0.0444363828125001,0.00450109912109475,0.644631707720304,0.796730000000025,
-0.681389792480469,-0.0947146176757813,-0.0338061274414052,0.688771197387514,0.799817999999505,
-0.69336080078125,-0.0516189877929687,-0.0457771357421866,0.696784949692188,0.802753999999368,
-0.662236179199219,-0.0588015927734374,-0.0146525141601543,0.665003068056296,0.805675999999949,
-0.659841977539063,-0.0588015927734374,-0.0170467158203103,0.662676129912352,0.808719999999994,
-0.640688364257813,-0.106685625976563,-0.00986411083984251,0.649585024125421,0.811651999999413,
-0.652659372558594,-0.0588015927734374,-0.0242293208007798,0.655750672045205,0.814712999999756,
-0.657447775878906,-0.0707726010742187,0.035625720703127,0.662205052114938,0.817763000000014,
-0.667024582519531,-0.0707726010742187,0.0571735356445338,0.673200837734374,0.820718999999372,
-0.662236179199219,-0.0588015927734374,0.0380199223632829,0.665927848080844,0.823870999999599,
-0.643082565917969,-0.0875320126953125,0.0380199223632829,0.650125029767845,0.826849999999467,
-0.681389792480469,-0.0875320126953125,0.0140779057617202,0.687133240335311,0.829925999999432,
-0.695755002441406,-0.0516189877929687,-0.00268150585937299,0.697672368520272,0.832877999999255,
-0.698149204101563,-0.104291424316406,-0.0050757075195289,0.705914141507601,0.835826999999881,
-0.695755002441406,-0.0899262143554688,-0.0242293208007798,0.701960687956964,0.838893999999527,
-0.645476767578125,-0.0588015927734374,0.0116837041015643,0.648254883311596,0.841856999999436,
-0.6742071875,-0.0731668027343749,0.0212605107421897,0.678498873997629,0.844903999999588,
-0.631111557617188,-0.0516189877929687,-0.0338061274414052,0.634120786846913,0.847848999999769,
-0.65505357421875,-0.0588015927734374,0.0332315190429711,0.658526496253079,0.85089699999935,
-0.669418784179688,-0.0468305844726562,-0.0266235224609357,0.671582775391753,0.853847999999743,
-0.65505357421875,-0.0659841977539062,0.035625720703127,0.659331700607216,0.856850999999551,
-0.681389792480469,-0.0851378110351562,0.0691445439453133,0.690160462589563,0.859918000000107,
-0.671812985839844,-0.0707726010742187,0.0571735356445338,0.677945618898709,0.862886999999319,
-0.6358999609375,-0.0540131894531251,0.0116837041015643,0.638296713054944,0.86588699999993,
-0.686178195800781,-0.0995030209960938,0.0619619389648456,0.696118272608935,0.86885699999948,
-0.6742071875,-0.0516189877929687,0.0236547124023456,0.67659396760263,0.871804999999767,
-0.707726010742188,-0.0396479794921876,-0.0050757075195289,0.708853885766092,0.874852999999348,
-0.619140549316406,-0.0827436093749999,0.0643561406250015,0.627951620378807,0.877805999999509,
-0.69336080078125,-0.0588015927734374,0.0619619389648456,0.698602969685209,0.880870999999388,
-0.664630380859375,-0.0588015927734374,0.0308373173828134,0.66793870273951,0.883841999999277,
-0.652659372558594,-0.0540131894531251,0.0523851323242202,0.656982407155704,0.886846999999761,
-0.623928952636719,-0.0564073911132812,-0.0194409174804662,0.626775143877804,0.889889000000039,
-0.678995590820313,-0.0492247861328126,0.0236547124023456,0.681188400768895,0.892871999999443,
-0.669418784179688,-0.0683783994140624,0.0906923588867201,0.678986169284381,0.895925999999236,
-0.657447775878906,-0.0564073911132812,-0.0625365473632797,0.662819878652147,0.89886899999965,
-0.669418784179688,-0.0947146176757813,0.0308373173828134,0.676788968259271,0.901850999999624,
-0.686178195800781,-0.0444363828125001,0.0643561406250015,0.690620605937891,0.904952999999296,
-0.657447775878906,-0.0468305844726562,0.0332315190429711,0.659950767488056,0.907985999999255,
-0.647870969238281,-0.0588015927734374,0.0547793339843761,0.652836270075595,0.911086999999497,
-0.643082565917969,-0.0516189877929687,0.0332315190429711,0.646006223148286,0.914078999999219,
-0.667024582519531,-0.0659841977539062,0.0236547124023456,0.670697587186222,0.917066999999406,
-0.659841977539063,-0.0731668027343749,-0.0194409174804662,0.664170735291396,0.920133999999962,
-0.669418784179688,-0.0540131894531251,-0.00986411083984251,0.671666758095241,0.923147999999856,
-0.626323154296875,-0.0875320126953125,-0.0122583124999984,0.632528902960353,0.926261999999952,
-0.705331809082031,-0.0444363828125001,0.0212605107421897,0.707049900882115,0.92924099999982,
-0.695755002441406,-0.0492247861328126,-0.0122583124999984,0.697601870136119,0.932181999999557,
-0.667024582519531,-0.0755610043945312,0.0284431157226575,0.671893049452424,0.935285999999905,
-0.690966599121094,-0.0516189877929687,0.0452025273437524,0.694364910893403,0.93828399999984,
-0.61674634765625,-0.0803494077148437,-0.0122583124999984,0.622079055179322,0.941334999999526,
-0.681389792480469,-0.104291424316406,0.0308373173828134,0.690014268421958,0.944294999999329,
-0.669418784179688,-0.0851378110351562,-0.00986411083984251,0.674883142598131,0.947277999999642,
-0.669418784179688,-0.0348595761718749,0.0332315190429711,0.671149038978227,0.950302999999622,
-0.623928952636719,-0.092320416015625,-0.00268150585937299,0.630727823728528,0.953242999999929,
-0.705331809082031,-0.0731668027343749,0.0212605107421897,0.709435234001188,0.956344999999601,
-0.652659372558594,-0.0420421811523437,-0.0122583124999984,0.654126950835976,0.959371999999348,
-0.65505357421875,-0.0731668027343749,-0.0122583124999984,0.659241103348751,0.962395999999899,
-0.671812985839844,-0.0611957944335937,-0.0481713374023425,0.676312125387779,0.965400000000045,
-0.667024582519531,-0.0707726010742187,-0.0577481440429679,0.673249881461982,0.968339999999444,
-0.650265170898438,-0.0731668027343749,0.0404141240234388,0.655615340673574,0.971419999999853,
-0.686178195800781,-0.0492247861328126,-0.0290177241210916,0.688553283541226,0.974379999999655,
-0.683783994140625,-0.0372537778320312,0.0212605107421897,0.685128020097473,0.977453999999852,
-0.686178195800781,-0.0611957944335937,0.00210689746093884,0.688904841517089,0.980459999999766,
-0.671812985839844,-0.0588015927734374,-0.0266235224609357,0.674906754451285,0.983416000000034,
-0.643082565917969,-0.0516189877929687,0.0499909306640642,0.647084847324575,0.986470999999256,
-0.652659372558594,-0.0540131894531251,-0.0050757075195289,0.654910256470534,0.989430999999968,
-0.662236179199219,-0.0755610043945312,0.0212605107421897,0.666871975526419,0.992535999999745,
-0.669418784179688,-0.106685625976563,0.0499909306640642,0.679707602246202,0.995469999999841,
-0.611957944335938,-0.0348595761718749,-0.0146525141601543,0.61312511925215,0.998451999999816,
-0.652659372558594,-0.0947146176757813,0.0523851323242202,0.661573365152099,1.00155899999936,
-0.621534750976562,-0.0396479794921876,0.0571735356445338,0.625416838698326,1.00454600000012,
-0.662236179199219,-0.0252827695312499,0.0140779057617202,0.662868133874443,1.00759099999959,
-0.664630380859375,-0.0779552060546874,0.00689530078125244,0.669222012851618,1.0105709999998,
-0.698149204101563,-0.0468305844726562,0.0212605107421897,0.700041016045999,1.01352399999996,
-0.6358999609375,-0.0659841977539062,0.00928950244140836,0.639381708785253,1.01658299999963,
-0.65505357421875,-0.0540131894531251,0.00928950244140836,0.657342303968996,1.01952699999947,
