X,Y,Z,Magnitude,Seconds,
-0.0377326181640625,0.685795123535156,-0.0103429511718769,0.686910240553348,0.0,
-0.0497036264648437,0.666641510253906,-0.115687824218753,0.678428350196124,0.00371499999994285,
-0.052097828125,0.683400921875,-0.082169000976565,0.69029178499851,0.00745199999994384,
-0.0281558115234375,0.642699493652344,-0.0247081611328142,0.643790246967199,0.0114770000000135,
-0.0712514414062499,0.683400921875,-0.0678037910156277,0.690442569659605,0.0153749999999491,
-0.0209732065429687,0.661853106933594,-0.0941400092773463,0.668843592999951,0.0191589999999451,
-0.080828248046875,0.673824115234375,-0.0989284125976582,0.685827219329189,0.0229769999999689,
-0.052097828125,0.688189325195312,-0.0893516059570327,0.695918415114317,0.0267279999999346,
-0.0401268198242187,0.671429913574219,-0.0318907661132837,0.673383480250875,0.0305529999999408,
-0.0281558115234375,0.738467560058594,-0.106111017578128,0.746583307496827,0.034452999999985,
-0.0209732065429687,0.649882098632813,-0.0630153876953141,0.653266834151615,0.0382590000000391,
-0.0497036264648437,0.692977728515625,-0.0678037910156277,0.698058691499879,0.0420369999999366,
-0.0401268198242187,0.676218316894531,-0.0510443793945328,0.679328272958406,0.0458360000000084,
-0.0927992563476562,0.652276300292969,-0.0199197578125023,0.65914556105148,0.0496140000000196,
-0.0712514414062499,0.676218316894531,-0.108505219238284,0.688564711997419,0.0533550000000105,
-0.0305500131835937,0.712131341796875,-0.00794874951172098,0.71283064881761,0.0571929999999838,
-0.03294421484375,0.661853106933594,-0.0965342109375023,0.669666865187944,0.0609509999999318,
-0.0353384165039062,0.690583526855469,-0.0271023627929718,0.692018026726258,0.0646869999999353,
-0.0473094248046875,0.671429913574219,-0.134841437500002,0.686468152054194,0.0684199999999464,
-0.042521021484375,0.661853106933594,-0.0558327827148464,0.665563574763079,0.0721340000000055,
-0.0473094248046875,0.709737140136719,-0.0630153876953141,0.714097982668478,0.0758459999999559,
-0.042521021484375,0.716919745117187,-0.0318907661132837,0.71888732021803,0.0796060000000125,
-0.0473094248046875,0.697766131835937,-0.0917458076171904,0.705360226854313,0.0837189999999737,
-0.0688572397460937,0.659458905273438,-0.0318907661132837,0.663810506223865,0.0875579999999445,
-0.0137906015624999,0.649882098632813,-0.0797747993164091,0.654905291947483,0.091352000000029,
-0.0544920297851562,0.681006720214844,-0.0199197578125023,0.683473723737199,0.0951579999999694,
-0.0209732065429687,0.695371930175781,-0.0893516059570327,0.701402670479794,0.0990009999999302,
-0.0401268198242187,0.642699493652344,-0.0247081611328142,0.644424777640299,0.102850999999987,
-0.0377326181640625,0.695371930175781,-0.0414675727539091,0.697628433580518,0.106755000000021,
-0.0233674082031249,0.726496551757812,-0.0342849677734396,0.72768037935439,0.110570999999936,
-0.042521021484375,0.697766131835937,-0.0247081611328142,0.699497037328913,0.114361000000031,
-0.00181959326171871,0.692977728515625,-0.0414675727539091,0.694219707821965,0.118178999999941,
-0.0233674082031249,0.695371930175781,-0.0462559760742209,0.697300345880527,0.121940999999993,
-0.104770264648437,0.70255453515625,-0.043861774414065,0.71167656872899,0.125670000000014,
-0.0377326181640625,0.666641510253906,-0.0893516059570327,0.673660421246658,0.129426999999964,
-0.0257616098632812,0.695371930175781,-0.082169000976565,0.700683613723502,0.133265999999935,
-0.0473094248046875,0.669035711914063,-0.0749863959960955,0.674885119910189,0.136980999999992,
-0.0568862314453125,0.688189325195312,-0.0797747993164091,0.695129203275767,0.140678999999977,
-0.0377326181640625,0.683400921875,-0.0797747993164091,0.68907516941121,0.144379999999956,
-0.0880108530273437,0.647487896972656,-0.0582269843750023,0.656031149173635,0.148074999999949,
-0.0161848032226562,0.657064703613281,-0.134841437500002,0.670953192001374,0.151904999999942,
-0.099981861328125,0.700160333496094,-0.122870429199221,0.717856536898285,0.155925000000025,
-0.0401268198242187,0.683400921875,-0.0941400092773463,0.691020493933099,0.159694999999942,
-0.0568862314453125,0.743255963378906,-0.0917458076171904,0.751054434539658,0.163460999999984,
-0.0544920297851562,0.649882098632813,-0.0941400092773463,0.658922199337853,0.167237999999998,
-0.0880108530273437,0.669035711914063,-0.0103429511718769,0.674879004493325,0.171023999999989,
-0.052097828125,0.709737140136719,-0.127658832519533,0.723006064500873,0.174833000000035,
-0.03294421484375,0.683400921875,-0.0773805976562532,0.688556387091798,0.178667000000019,
-0.0449152231445312,0.66424730859375,-0.0725921943359396,0.66971000509375,0.182426999999961,
-0.104770264648437,0.712131341796875,-0.120476227539065,0.72980982298539,0.186195999999995,
0.0316992299804688,0.635516888671875,-0.0797747993164091,0.641288215683485,0.189967000000024,
-0.0856166513671875,0.697766131835937,-0.00794874951172098,0.703044072834284,0.193711000000008,
-0.00660799658203121,0.695371930175781,-0.0510443793945328,0.697274203999397,0.197454999999991,
-0.0473094248046875,0.669035711914063,0.00402225878906037,0.670718379096229,0.201277000000005,
-0.0544920297851562,0.683400921875,-0.0773805976562532,0.689923153853634,0.20499899999993,
-0.0113963999023437,0.762409576660156,-0.0486501777343769,0.764045208287729,0.208723999999961,
-0.102376062988281,0.609180670410156,-0.0582269843750023,0.620461384119717,0.212454999999977,
-0.0209732065429687,0.692977728515625,-0.0941400092773463,0.699657308228899,0.216183000000001,
-0.00900219824218745,0.7217081484375,-0.13005303417969,0.733387675648848,0.21990500000004,
-0.0951934580078125,0.601998065429687,-0.118082025878909,0.620811428748085,0.223917000000029,
-0.0281558115234375,0.681006720214844,-0.0917458076171904,0.687735556675422,0.227804999999989,
-0.0568862314453125,0.676218316894531,-0.0869574042968768,0.684155571192527,0.231570000000033,
-0.0473094248046875,0.724102350097656,-0.0797747993164091,0.730018091349983,0.235340999999949,
-0.0377326181640625,0.692977728515625,-0.043861774414065,0.695388911291329,0.239112999999975,
-0.052097828125,0.697766131835937,-0.106111017578128,0.707708489764037,0.242924000000016,
-0.0161848032226562,0.704948736816406,-0.0103429511718769,0.705210355875002,0.246703000000025,
-0.0497036264648437,0.623545880371094,-0.0151313544921905,0.625706699101334,0.250578000000019,
-0.0832224497070312,0.716919745117187,-0.0869574042968768,0.726953566079831,0.254338999999959,
-0.0185790048828124,0.733679156738281,-0.082169000976565,0.738499850491602,0.258114999999975,
-0.0353384165039062,0.690583526855469,-0.113293622558595,0.700706683397262,0.261840000000007,
-0.0760398447265624,0.712131341796875,-0.0534385810546905,0.718170444881016,0.265566000000035,
-0.0281558115234375,0.695371930175781,-0.0294965644531278,0.696566521097212,0.26929999999993,
-0.061674634765625,0.673824115234375,0.0135990654296858,0.676777388382194,0.273118999999951,
-0.0257616098632812,0.671429913574219,-0.0965342109375023,0.67882298374934,0.276880000000006,
-0.00660799658203121,0.657064703613281,-0.0103429511718769,0.657179326357868,0.280606000000034,
-0.0592804331054687,0.647487896972656,-0.0294965644531278,0.650864650898927,0.284331999999949,
-0.0209732065429687,0.671429913574219,-0.0773805976562532,0.676199498024522,0.288058999999976,
-0.0497036264648437,0.690583526855469,-0.0223139594726582,0.692729363341299,0.291849999999954,
-0.0401268198242187,0.283569244628906,-0.259339923828128,0.386366243685694,0.295937999999978,
-0.248422364257813,1.15027024560547,0.729465361816404,1.38454144866762,0.299780999999939,
0.223235362792969,3.22125468164063,2.13965013964843,3.87355372639783,0.303451999999993,
-0.145471692871094,-1.81135720800781,-1.60966966015625,2.42759415126503,0.30638399999998,
-0.641071436523438,-1.91909628271484,-0.635229584472659,2.12071208655146,0.309304999999995,
-0.329825220703125,1.96669301171875,2.623278875,3.29518711677751,0.312317000000007,
0.354916454101563,3.0201417421875,-1.20744378125,3.27187137845831,0.315306999999962,
0.0580354482421875,-0.180905877441406,-0.395809418457034,0.43904458257085,0.318353999999999,
0.192110741210938,-0.71481284765625,-0.221032697265628,0.772476146766728,0.321336999999971,
-0.619523621582031,1.15266444726563,0.928184099609373,1.60435986251712,0.324267999999961,
-0.277152784179687,0.906061676269531,-0.637623786132815,1.142070715685,0.327277999999978,
0.443501915527344,0.810293609863281,0.0112048637695281,0.923793933858512,0.330257999999958,
0.117890489746094,1.25322091699219,-0.264128327148439,1.28616663289076,0.333284999999933,
-0.159836902832031,0.0273896669921875,0.193164189941404,0.252211089448101,0.33624599999996,
-0.564456983398438,-0.0827436093750001,-0.132447235839846,0.585662412385567,0.339167999999972,
0.199293346191406,1.61235116601563,-0.28328194042969,1.64913394791379,0.342208000000028,
0.436319310546875,1.49024688134766,-0.00794874951172098,1.55282757920553,0.345166999999947,
-0.00900219824218745,-0.360471001953125,0.190769988281248,0.407938195381493,0.348172999999974,
-0.669801856445313,0.197377984863281,-0.323983368652346,0.769777772457479,0.351130000000012,
-0.052097828125,1.59319755273438,-0.118082025878909,1.59841671367945,0.354062999999996,
0.431530907226563,0.994647137695312,0.0973961235351535,1.08858984805892,0.357102999999938,
0.0915542714843751,-0.0492247861328126,-0.0366791694335955,0.110229876472734,0.360023999999953,
-0.521361353515625,0.5684792421875,-0.11089942089844,0.779284923050182,0.363058000000024,
-0.255604969238281,1.10717461572266,-0.0606211860351582,1.13791232447681,0.366007999999965,
0.378858470703125,0.791139996582031,0.00402225878906037,0.877184366926984,0.36903499999994,
0.299849815917969,0.412856134277344,-0.043861774414065,0.51213665653927,0.371985999999993,
-0.382497657226562,0.554114032226563,-0.118082025878909,0.683586266194587,0.37495899999999,
-0.43517009375,0.898879071289062,-0.0749863959960955,1.00148866937193,0.377978999999982,
0.0508528432617188,0.752832770019531,-0.0654095893554718,0.757378112743386,0.380933000000027,
0.505751158691406,0.451163360839844,-0.0223139594726582,0.678108048521289,0.383962999999994,
0.0628238515625,0.712131341796875,-0.082169000976565,0.719603800028913,0.386932999999999,
-0.650648243164063,0.877331256347656,-0.0678037910156277,1.09437225100654,0.389841999999931,
-0.308277405761719,0.597209662109375,-0.0893516059570327,0.677995611274196,0.392878999999994,
0.596730821777344,0.479893780761719,-0.0654095893554718,0.768546764258683,0.395832000000041,
0.323791832519531,0.860571844726562,-0.00794874951172098,0.919504341132349,0.398887999999943,
-0.590793201660156,0.819870416503906,-0.0725921943359396,1.01316027047287,0.40184899999997,
-0.528543958496094,0.508624200683594,-0.180331269042972,0.75536524951734,0.404804000000013,
0.3309744375,0.604392267089844,-0.0390733710937532,0.690188973488473,0.407838999999967,
0.508145360351563,0.8749370546875,0.0447236870117163,1.01278169666122,0.410812999999962,
-0.305883204101562,0.688189325195312,-0.115687824218753,0.761940125296395,0.41381899999999,
-0.686561268066406,0.525383612304687,-0.211455890625002,0.89000444300424,0.41682400000002,
0.115496288085938,0.757621173339844,-0.0654095893554718,0.769160353394611,0.419880000000035,
0.560817796875,0.760015375,0.030358477050779,0.945019369461263,0.423033000000032,
-0.03294421484375,0.522989410644531,-0.0462559760742209,0.526063551541602,0.426026999999976,
-0.614735218261719,0.688189325195312,-0.0965342109375023,0.927805362005086,0.429041999999981,
-0.150260096191406,0.793534198242187,-0.0869574042968768,0.812303028708728,0.431984999999941,
0.429136705566406,0.659458905273438,-0.0151313544921905,0.786939208387533,0.434937999999988,
0.0891600698242188,0.661853106933594,-0.0294965644531278,0.668482685283058,0.437995999999998,
-0.404045472167969,0.690583526855469,-0.0247081611328142,0.800480383501145,0.440972999999985,
-0.265181775878906,0.649882098632813,-0.0989284125976582,0.708840565431164,0.443997999999965,
0.204081749511719,0.649882098632813,0.0088106621093722,0.681229572445265,0.446966999999972,
0.172957127929688,0.769592181640625,-0.0366791694335955,0.789640206432272,0.449908999999934,
-0.222086145996094,0.6450936953125,-0.106111017578128,0.690454690784848,0.452935000000025,
-0.337007825683594,0.563690838867188,-0.0271023627929718,0.657309800979522,0.455892999999946,
0.105919481445313,0.748044366699219,-0.0630153876953141,0.758129441577406,0.458975000000009,
0.199293346191406,0.764803778320313,-0.0462559760742209,0.791695820686059,0.461957999999981,
-0.1670195078125,0.647487896972656,-0.0606211860351582,0.671424620424595,0.464968999999996,
-0.291517994140625,0.62594008203125,-0.0701979926757836,0.694054382146508,0.467929000000026,
0.0484586416015626,0.755226971679688,-0.0869574042968768,0.761759547928604,0.470887999999945,
0.160986119628906,0.788745794921875,0.0183874687499976,0.80521708795029,0.473928999999998,
-0.104770264648437,0.637911090332031,-0.0366791694335955,0.647497281070309,0.476860999999985,
-0.305883204101562,0.618757477050781,-0.0175255561523464,0.690458177644479,0.479860000000031,
0.014939818359375,0.697766131835937,-0.0630153876953141,0.700765090452064,0.482829000000038,
0.163380321289063,0.714525543457031,-0.0630153876953141,0.735670320675963,0.485771999999997,
-0.0377326181640625,0.774380584960937,-0.0749863959960955,0.778917197410894,0.488805999999954,
-0.246028162597656,0.791139996582031,-0.163571857421877,0.844504649793853,0.491745000000037,
-0.14786589453125,0.451163360839844,-0.00794874951172098,0.474843009371129,0.494777999999997,
0.153803514648438,0.527777813964844,-0.0654095893554718,0.55360938974278,0.497748000000001,
0.117890489746094,1.08323259912109,-0.0701979926757836,1.09188771837901,0.50070299999993,
-0.265181775878906,0.688189325195312,-0.0271023627929718,0.738011151433386,0.50371999999993,
-0.289123792480469,0.273992437988281,-0.108505219238284,0.412841139005065,0.506669999999986,
0.168168724609375,0.822264618164063,-0.115687824218753,0.847221042522968,0.509702999999945,
0.247177379394531,1.00661814599609,-0.0151313544921905,1.03663190507611,0.512689000000023,
-0.0736456430664062,0.657064703613281,-0.0606211860351582,0.663952282678042,0.515620000000013,
-0.277152784179687,0.384125714355469,-0.0797747993164091,0.480343885995882,0.51863800000001,
-0.131106482910156,0.728890753417969,0.0135990654296858,0.740712882876926,0.521617999999989,
0.149015111328125,0.822264618164063,-0.0510443793945328,0.837215703601168,0.524653999999941,
0.0771890615234376,0.66424730859375,-0.13005303417969,0.681246232938028,0.527617999999961,
-0.152654297851562,0.561296637207031,-0.127658832519533,0.595528359620871,0.530559000000039,
-0.200538331054688,0.654670501953125,-0.0701979926757836,0.688285439716304,0.533570999999938,
0.0652180532226563,0.738467560058594,-0.0582269843750023,0.743624981717567,0.53654199999994,
0.146620909667969,0.678612518554687,-0.0582269843750023,0.696708707567521,0.539579000000003,
-0.0305500131835937,0.697766131835937,-0.0701979926757836,0.701953443056243,0.542527999999947,
-0.272364380859375,0.640305291992187,-0.0941400092773463,0.702164912439272,0.545447999999965,
-0.0880108530273437,0.669035711914063,-0.16836026074219,0.695485349568296,0.548463999999967,
0.146620909667969,0.695371930175781,-0.0678037910156277,0.713888763396893,0.551423,
0.0293050283203126,0.671429913574219,-0.0127371528320328,0.672189815892359,0.554484000000002,
-0.210115137695312,0.597209662109375,-0.0773805976562532,0.637805227713879,0.557537000000025,
-0.111952869628906,0.714525543457031,-0.0869574042968768,0.728451636989556,0.560654,
0.0891600698242188,0.745650165039062,-0.043861774414065,0.752241677872604,0.563713000000007,
0.0939484731445313,0.616363275390625,-0.0725921943359396,0.627693897958993,0.566698999999971,
-0.119135474609375,0.652276300292969,-0.0749863959960955,0.667293483273115,0.569710999999984,
-0.164625306152344,0.805505206542969,-0.0558327827148464,0.82404940920995,0.572658999999931,
0.0173340200195313,0.793534198242187,0.00402225878906037,0.793733689971438,0.575716999999941,
0.115496288085938,0.532566217285156,-0.0510443793945328,0.547331432518564,0.578694000000041,
-0.107164466308594,0.613969073730469,-0.0893516059570327,0.629623662058341,0.581629000000021,
-0.219691944335937,0.848600836425781,-0.0845632026367209,0.880646844784457,0.58466999999996,
-0.0113963999023437,0.764803778320313,-0.0654095893554718,0.767680344703062,0.587619000000018,
0.0747948598632813,0.532566217285156,-0.0845632026367209,0.544400571358597,0.590671000000043,
-0.0640688364257812,0.621151678710937,-0.0151313544921905,0.624630436062107,0.593637999999942,
-0.157442701171875,0.846206634765625,-0.0247081611328142,0.861083251550177,0.596587999999997,
-0.0305500131835937,0.719313946777344,-0.0342849677734396,0.720778271279832,0.599642000000017,
0.108313683105469,0.5684792421875,-0.113293622558595,0.589691400359879,0.602625999999987,
-0.0497036264648437,0.654670501953125,-0.0773805976562532,0.66109883792437,0.605650999999966,
-0.202932532714844,0.791139996582031,-0.0917458076171904,0.821888922082058,0.608606000000009,
-0.0113963999023437,0.712131341796875,-0.103716815917972,0.719734745447456,0.611541999999986,
0.0580354482421875,0.618757477050781,-0.0558327827148464,0.6239761440028,0.614583000000039,
-0.052097828125,0.647487896972656,-0.0558327827148464,0.651975505710988,0.617531999999983,
-0.0904050546875,0.707342938476562,-0.0941400092773463,0.719283982772067,0.62055399999997,
-0.0568862314453125,0.673824115234375,-0.106111017578128,0.684495821499959,0.62350600000002,
-0.0113963999023437,0.6450936953125,-0.0103429511718769,0.64527725072376,0.626438000000007,
-0.03294421484375,0.683400921875,-0.0965342109375023,0.690971052355015,0.629468999999972,
-0.0592804331054687,0.728890753417969,-0.0845632026367209,0.73617038476671,0.632417000000032,
-0.00421379492187496,0.678612518554687,-0.0534385810546905,0.680726368192035,0.635441000000014,
-0.0233674082031249,0.66424730859375,-0.0414675727539091,0.665950510421212,0.638380999999981,
-0.0544920297851562,0.716919745117187,-0.106111017578128,0.726775653348724,0.641311999999971,
-0.123923877929687,0.685795123535156,-0.082169000976565,0.7017291669207,0.644318999999996,
-0.0688572397460937,0.66424730859375,-0.0390733710937532,0.668948828213431,0.647258999999963,
-0.0113963999023437,0.659458905273438,-0.0606211860351582,0.662337416934514,0.650269999999978,
-0.0257616098632812,0.728890753417969,-0.0893516059570327,0.734798680216604,0.653232000000003,
-0.0927992563476562,0.724102350097656,-0.0773805976562532,0.734114209295301,0.65623400000004,
-0.0688572397460937,0.683400921875,-0.0606211860351582,0.689531049106101,0.659179999999992,
-0.0281558115234375,0.6450936953125,-0.0318907661132837,0.646494892800997,0.662106999999992,
-0.0209732065429687,0.743255963378906,-0.0654095893554718,0.746423282642397,0.665126999999984,
-0.080828248046875,0.678612518554687,-0.0893516059570327,0.689225554886471,0.668066999999951,
-0.0568862314453125,0.661853106933594,-0.0893516059570327,0.670275531384521,0.671078999999963,
-0.0904050546875,0.659458905273438,-0.0917458076171904,0.671919946774034,0.674015999999938,
-0.0161848032226562,0.731284955078125,-0.0965342109375023,0.737806537827022,0.676942999999937,
-0.0233674082031249,0.726496551757812,-0.0725921943359396,0.730488125954577,0.67996299999993,
-0.0305500131835937,0.654670501953125,-0.0893516059570327,0.661445749037799,0.682916999999975,
-0.080828248046875,0.666641510253906,-0.0582269843750023,0.674043389245338,0.685944999999947,
-0.0592804331054687,0.695371930175781,-0.0917458076171904,0.703898845176559,0.688900999999987,
-0.0473094248046875,0.716919745117187,-0.0366791694335955,0.719414667687963,0.691825999999992,
-0.0473094248046875,0.719313946777344,-0.0678037910156277,0.724049784047921,0.694926000000009,
-0.0544920297851562,0.666641510253906,-0.00555454785156506,0.668887985768582,0.697977000000037,
-0.0497036264648437,0.671429913574219,-0.0462559760742209,0.674854202512379,0.701095000000009,
0.00296881005859378,0.714525543457031,0.0519062919921858,0.716414565202375,0.704142999999931,
0.00536301171875003,0.709737140136719,-0.0630153876953141,0.712549302905093,0.707079000000022,
-0.0592804331054687,0.671429913574219,-0.101322614257814,0.681614679090388,0.710099000000014,
-0.0664630380859375,0.678612518554687,-0.0342849677734396,0.682720839572057,0.713038999999981,
-0.0281558115234375,0.695371930175781,-0.0725921943359396,0.699717441312879,0.716074999999933,
-0.0305500131835937,0.709737140136719,-0.0869574042968768,0.715696654705761,0.71904399999994,
-0.0975876596679687,0.66424730859375,-0.0989284125976582,0.678627047141951,0.72200799999996,
-0.0401268198242187,0.642699493652344,-0.106111017578128,0.652634927705873,0.725019999999972,
-0.0401268198242187,0.728890753417969,-0.0558327827148464,0.732126486143687,0.727983999999992,
-0.00900219824218745,0.661853106933594,-0.0486501777343769,0.66369979246978,0.731011999999964,
-0.0137906015624999,0.70255453515625,-0.0510443793945328,0.704541399938884,0.733980999999972,
-0.0449152231445312,0.692977728515625,-0.0893516059570327,0.700156567473233,0.736950999999976,
-0.0784340463867187,0.712131341796875,-0.0223139594726582,0.716785086611991,0.740000000000009,
0.00775721337890628,0.695371930175781,-0.127658832519533,0.707035411529046,0.742974000000004,
-0.0161848032226562,0.652276300292969,0.0207816704101536,0.652807933165855,0.746035000000006,
-0.0305500131835937,0.700160333496094,-0.0797747993164091,0.705352262711939,0.74897999999996,
-0.0257616098632812,0.681006720214844,-0.0893516059570327,0.687326358440899,0.752007999999933,
0.00536301171875003,0.678612518554687,-0.0366791694335955,0.679624215066069,0.754973999999947,
-0.0377326181640625,0.669035711914063,-0.0462559760742209,0.671693493799404,0.75791300000003,
-0.0640688364257812,0.685795123535156,-0.0558327827148464,0.691040568194977,0.760939000000008,
-0.0592804331054687,0.6450936953125,-0.0558327827148464,0.650213307389807,0.763897000000043,
-0.0353384165039062,0.669035711914063,-0.0869574042968768,0.675588023620468,0.766920000000027,
0.014939818359375,0.669035711914063,-0.0558327827148464,0.671527573234823,0.769892000000027,
-0.0233674082031249,0.690583526855469,-0.108505219238284,0.699446228049174,0.772805999999946,
-0.0377326181640625,0.707342938476562,-0.0390733710937532,0.709425479817862,0.775823999999943,
-0.0473094248046875,0.661853106933594,-0.0654095893554718,0.666757925496692,0.778763000000026,
-0.052097828125,0.683400921875,-0.0534385810546905,0.687463952262285,0.781783000000019,
-0.0233674082031249,0.688189325195312,-0.0342849677734396,0.689438932824465,0.784719999999993,
-0.0449152231445312,0.681006720214844,-0.0725921943359396,0.686336037904472,0.787646999999993,
-0.0736456430664062,0.688189325195312,-0.0989284125976582,0.699153101169219,0.790678999999955,
-0.03294421484375,0.692977728515625,-0.0366791694335955,0.69472931058124,0.793651999999952,
-0.03294421484375,0.681006720214844,-0.0678037910156277,0.685166277881173,0.796671999999944,
-0.0449152231445312,0.676218316894531,-0.0582269843750023,0.680205094867131,0.799633999999969,
-0.0760398447265624,0.6450936953125,-0.122870429199221,0.661078721552568,0.802573999999936,
-0.0544920297851562,0.676218316894531,-0.0414675727539091,0.679676506143827,0.805594000000042,
-0.0568862314453125,0.676218316894531,-0.0151313544921905,0.678775524986347,0.808537000000001,
-0.0209732065429687,0.661853106933594,-0.120476227539065,0.673055667796052,0.811562999999978,
-0.0592804331054687,0.657064703613281,-0.0845632026367209,0.665130911718708,0.814510000000041,
-0.0233674082031249,0.719313946777344,-0.0725921943359396,0.723345157219593,0.817445000000021,
-0.080828248046875,0.661853106933594,0.00162805712890446,0.666772368511168,0.820480999999972,
-0.0568862314453125,0.685795123535156,-0.0725921943359396,0.691968656422498,0.82342600000004,
-0.0497036264648437,0.695371930175781,-0.0223139594726582,0.697503035511313,0.826440999999932,
-0.0592804331054687,0.733679156738281,0.00402225878906037,0.736081145898422,0.829394999999977,
-0.052097828125,0.692977728515625,-0.0462559760742209,0.696471055562682,0.832327999999961,
-0.0305500131835937,0.647487896972656,-0.0271023627929718,0.648774551058033,0.835448000000042,
-0.0473094248046875,0.671429913574219,-0.0366791694335955,0.674093222030879,0.838493999999969,
-0.0832224497070312,0.745650165039062,-0.0414675727539091,0.751425115595773,0.841626000000019,
-0.0161848032226562,0.659458905273438,-0.0414675727539091,0.660959571524535,0.844609999999989,
-0.0568862314453125,0.676218316894531,-0.0342849677734396,0.679472379458465,0.847625999999991,
-0.0401268198242187,0.678612518554687,-0.0606211860351582,0.682495450684216,0.850569999999948,
-0.052097828125,0.695371930175781,-0.043861774414065,0.698698905270707,0.853533999999968,
-0.061674634765625,0.678612518554687,-0.0534385810546905,0.683501567560564,0.856562999999937,
-0.0113963999023437,0.685795123535156,-0.0797747993164091,0.690513466922483,0.85951399999999,
-0.0856166513671875,0.671429913574219,-0.0582269843750023,0.679366411844904,0.86253099999999,
-0.0544920297851562,0.700160333496094,-0.0534385810546905,0.704307855881649,0.86550299999999,
-0.102376062988281,0.649882098632813,-0.0223139594726582,0.658274648747555,0.868415000000027,
-0.03294421484375,0.712131341796875,-0.0175255561523464,0.713108346872716,0.871466999999939,
-0.0473094248046875,0.673824115234375,-0.082169000976565,0.680462243381825,0.874421999999981,
-0.080828248046875,0.676218316894531,-0.082169000976565,0.685970963312214,0.877476000000001,
-0.0353384165039062,0.661853106933594,-0.000766144531251456,0.662796292850298,0.880428999999936,
-0.042521021484375,0.695371930175781,-0.0534385810546905,0.698717282231952,0.883359000000041,
-0.0377326181640625,0.683400921875,-0.0414675727539091,0.685696820820409,0.886384000000021,
-0.0592804331054687,0.681006720214844,-0.0366791694335955,0.684565325003603,0.889328999999975,
-0.0497036264648437,0.652276300292969,-0.0893516059570327,0.660241267942819,0.892336999999998,
-0.0473094248046875,0.673824115234375,-0.0223139594726582,0.675851339226376,0.895281999999952,
-0.0281558115234375,0.676218316894531,-0.0917458076171904,0.682994330167935,0.898206999999957,
-0.0904050546875,0.681006720214844,-0.0271023627929718,0.687515647065425,0.901233999999931,
-0.061674634765625,0.707342938476562,0.0183874687499976,0.710264663483383,0.904181999999992,
-0.0377326181640625,0.673824115234375,-0.0678037910156277,0.678277261023097,0.907224000000042,
-0.0401268198242187,0.66424730859375,-0.0845632026367209,0.670809648025,0.910165000000006,
-0.0401268198242187,0.709737140136719,-0.0318907661132837,0.71158554701592,0.913095999999996,
-0.0664630380859375,0.709737140136719,-0.043861774414065,0.714190449933217,0.916109000000006,
-0.0401268198242187,0.704948736816406,-0.082169000976565,0.710854857147181,0.91905799999995,
-0.0281558115234375,0.673824115234375,-0.0941400092773463,0.680950827402883,0.92207499999995,
-0.0736456430664062,0.714525543457031,-0.043861774414065,0.719648725594634,0.925016000000028,
-0.0473094248046875,0.700160333496094,-0.144418244140628,0.716463051048254,0.927945000000022,
-0.052097828125,0.704948736816406,-0.0294965644531278,0.707486362093946,0.93096700000001,
-0.0640688364257812,0.637911090332031,-0.0247081611328142,0.641596343658627,0.933904999999982,
-0.03294421484375,0.709737140136719,0.0112048637695281,0.710589669466995,0.936924999999974,
-0.0473094248046875,0.724102350097656,-0.0797747993164091,0.730018091349983,0.939857999999958,
-0.00660799658203121,0.681006720214844,-0.0342849677734396,0.681901222767515,0.942862999999988,
-0.0305500131835937,0.690583526855469,-0.0199197578125023,0.691545882513203,0.94580099999996,
-0.0449152231445312,0.726496551757812,-0.0247081611328142,0.728302897298013,0.94873599999994,
-0.0736456430664062,0.673824115234375,-0.0127371528320328,0.677956380659051,0.95174899999995,
-0.0736456430664062,0.697766131835937,-0.0749863959960955,0.705637452991573,0.95469700000001,
-0.03294421484375,0.647487896972656,-0.0773805976562532,0.652926990490808,0.957701000000043,
-0.052097828125,0.661853106933594,-0.0606211860351582,0.666662318606131,0.960656999999969,
-0.0161848032226562,0.671429913574219,-0.0582269843750023,0.674144241544082,0.963581999999974,
-0.00660799658203121,0.690583526855469,-0.0917458076171904,0.696682543486125,0.966609999999946,
-0.0401268198242187,0.678612518554687,-0.0917458076171904,0.685960935639685,0.969550000000027,
-0.0473094248046875,0.673824115234375,-0.0223139594726582,0.675851339226376,0.972629999999981,
-0.0592804331054687,0.659458905273438,-0.0534385810546905,0.664270953330605,0.975675000000024,
-0.0257616098632812,0.724102350097656,-0.0534385810546905,0.726528427458166,0.978710999999976,
-0.0449152231445312,0.683400921875,-0.0654095893554718,0.687991723547147,0.981812999999988,
-0.0544920297851562,0.7217081484375,-0.0845632026367209,0.728685781439003,0.984773000000018,
-0.0473094248046875,0.685795123535156,-0.0151313544921905,0.687591514657299,0.987783000000036,
-0.061674634765625,0.671429913574219,-0.11089942089844,0.683315864715115,0.990737999999965,
-0.0281558115234375,0.671429913574219,-0.0773805976562532,0.676460372422853,0.993677999999932,
-0.0568862314453125,0.704948736816406,-0.0582269843750023,0.70963310701834,0.99671699999999,
-0.0640688364257812,0.700160333496094,-0.0845632026367209,0.708152697970214,0.999675000000025,
-0.0712514414062499,0.695371930175781,-0.0701979926757836,0.702528751977148,1.00268900000003,
-0.0664630380859375,0.695371930175781,-0.0558327827148464,0.700768689607125,1.00564399999996,
-0.0688572397460937,0.671429913574219,-0.043861774414065,0.676375120449063,1.008599,
-0.0137906015624999,0.700160333496094,-0.0175255561523464,0.700515394842444,1.01161200000001,
-0.0568862314453125,0.704948736816406,-0.0701979926757836,0.710715500775666,1.01460599999996,
