X,Y,Z,Magnitude,Seconds,
-0.69336080078125,-0.0875320126953125,-0.0194409174804662,0.699134466736543,0.0,
-0.683783994140625,-0.0875320126953125,0.00689530078125244,0.689398251420949,0.00380800000039017,
-0.681389792480469,-0.0731668027343749,-0.0050757075195289,0.685325611024257,0.00762900000063382,
-0.659841977539063,-0.0947146176757813,-0.0697191523437475,0.670241041960026,0.0114739999999074,
-0.671812985839844,-0.0635899960937499,-0.0314119257812475,0.675546508115863,0.015266000000338,
-0.686178195800781,-0.0731668027343749,-0.0697191523437475,0.69358103896972,0.0190670000001774,
-0.705331809082031,-0.0947146176757813,0.0116837041015643,0.71175861683996,0.0228649999999107,
-0.652659372558594,-0.0683783994140624,-0.0481713374023425,0.65799721871915,0.0265960000006089,
-0.669418784179688,-0.0252827695312499,-0.000287304199217076,0.669896118507552,0.0303190000004179,
-0.662236179199219,-0.0564073911132812,-0.0505655390624984,0.666554892378165,0.0340220000007321,
-0.707726010742188,-0.0779552060546874,0.0308373173828134,0.712673880940959,0.0378730000002179,
-0.676601389160156,-0.0564073911132812,-0.0074699091796866,0.678989715039052,0.0415660000007847,
-0.695755002441406,-0.0947146176757813,-0.0074699091796866,0.70221199204148,0.0452680000007604,
-0.683783994140625,-0.0875320126953125,-0.0505655390624984,0.69121579671625,0.0489410000000134,
-0.702937607421875,-0.0827436093749999,-0.0074699091796866,0.707830194583097,0.0526420000005601,
-0.741244833984375,-0.0731668027343749,0.0308373173828134,0.745485227938329,0.0565220000007685,
-0.698149204101563,-0.0516189877929687,0.0667503422851574,0.703230004538772,0.0604920000005222,
-0.650265170898438,-0.0731668027343749,-0.0314119257812475,0.655122036407898,0.0642190000007758,
-0.681389792480469,-0.0779552060546874,0.0404141240234388,0.687024282589915,0.0679939999999988,
-0.690966599121094,-0.092320416015625,-0.000287304199217076,0.697106866167571,0.0717100000001665,
-0.695755002441406,-0.0492247861328126,-0.0194409174804662,0.697765040873032,0.0755230000004303,
-0.676601389160156,-0.116262432617187,-0.0242293208007798,0.686945014566658,0.0792890000002444,
-0.676601389160156,-0.0947146176757813,0.0404141240234388,0.684392869655657,0.0830210000003717,
-0.681389792480469,-0.0444363828125001,-0.0314119257812475,0.683559324781194,0.0868650000002162,
-0.717302817382813,-0.10189722265625,-0.0194409174804662,0.724765013699517,0.090610000000197,
-0.714908615722656,-0.113868230957031,-0.0146525141601543,0.724068366265909,0.0943430000006629,
-0.707726010742188,-0.0683783994140624,-0.0697191523437475,0.714431572644302,0.0980440000003,
-0.695755002441406,-0.0324653745117187,-0.000287304199217076,0.696512100762169,0.101769000000786,
-0.690966599121094,-0.0611957944335937,-0.0242293208007798,0.694094248891169,0.105497999999898,
-0.678995590820313,-0.0779552060546874,-0.0218351191406239,0.683804649686107,0.109279000000242,
-0.688572397460938,-0.0827436093749999,-0.038594530761717,0.694599157242667,0.112981000000218,
-0.683783994140625,-0.0540131894531251,0.0140779057617202,0.686058425142088,0.116687000000638,
-0.6742071875,-0.0803494077148437,-0.0074699091796866,0.679019262274598,0.120373000000654,
-0.6742071875,-0.0516189877929687,0.00928950244140836,0.676244147060098,0.124141000000236,
-0.695755002441406,-0.0492247861328126,-0.0338061274414052,0.698312936472358,0.128106000000116,
-0.6742071875,-0.0611957944335937,0.00450109912109475,0.67699373470241,0.132011000000603,
-0.676601389160156,-0.0324653745117187,-0.0218351191406239,0.677731667242667,0.135814000000209,
-0.714908615722656,-0.0444363828125001,-0.0074699091796866,0.716327243998926,0.13959000000068,
-0.681389792480469,-0.0875320126953125,-0.0266235224609357,0.687504701432141,0.143434000000525,
-0.686178195800781,-0.0516189877929687,0.00689530078125244,0.688151568672229,0.14730899999995,
-0.667024582519531,-0.0396479794921876,-0.0122583124999984,0.66831431391862,0.151108000000022,
-0.671812985839844,-0.092320416015625,-0.0457771357421866,0.679669988533481,0.15496500000063,
-0.714908615722656,-0.0779552060546874,-0.0362003291015611,0.720056808045431,0.158766999999898,
-0.690966599121094,-0.0995030209960938,0.0380199223632829,0.699128891396164,0.162600000000566,
-0.683783994140625,-0.0731668027343749,-0.0194409174804662,0.687962121731829,0.166318000000501,
-0.700543405761719,-0.0420421811523437,0.0116837041015643,0.701901073723219,0.170063999999911,
-0.717302817382813,-0.0947146176757813,0.0619619389648456,0.726177301013377,0.17377900000065,
-0.702937607421875,-0.0755610043945312,-0.0050757075195289,0.70700530982442,0.177576000000045,
-0.664630380859375,-0.0827436093749999,-0.038594530761717,0.670872257481555,0.181293000000551,
-0.714908615722656,-0.0779552060546874,0.0164721074218761,0.719334882588375,0.185009000000719,
-0.690966599121094,-0.0731668027343749,0.0475967290039083,0.696457946135452,0.188715000000229,
-0.681389792480469,-0.0564073911132812,-0.0577481440429679,0.686155005235108,0.192404000000352,
-0.698149204101563,-0.0611957944335937,0.0164721074218761,0.701019662182825,0.196265999999923,
-0.647870969238281,-0.0827436093749999,0.0380199223632829,0.654239109325224,0.200196000000687,
-0.645476767578125,-0.0396479794921876,-0.0074699091796866,0.646736437278796,0.204047000000173,
-0.681389792480469,-0.0995030209960938,-0.0314119257812475,0.689332727763024,0.207788000000619,
-0.690966599121094,-0.0827436093749999,-0.000287304199217076,0.695903318383434,0.2115330000006,
-0.688572397460938,-0.0803494077148437,-0.0050757075195289,0.693263107825632,0.215297000000646,
-0.710120212402344,-0.113868230957031,-0.038594530761717,0.720226511514503,0.219063999999889,
-0.710120212402344,-0.0635899960937499,0.0212605107421897,0.71327863628639,0.222811000000547,
-0.688572397460938,-0.0659841977539062,-0.0577481440429679,0.694133062920026,0.226598000000195,
-0.6742071875,-0.0635899960937499,-0.0745075556640611,0.681285839520312,0.230338000000302,
-0.65505357421875,-0.0899262143554688,0.0164721074218761,0.661402479166795,0.234075000000303,
-0.714908615722656,-0.104291424316406,-0.0242293208007798,0.722881795321266,0.237787000000026,
-0.698149204101563,-0.0707726010742187,-0.0338061274414052,0.7025410496925,0.241510000000744,
-0.638294162597656,-0.0611957944335937,-0.0146525141601543,0.64138838423674,0.245222999999896,
-0.686178195800781,-0.0899262143554688,-0.0146525141601543,0.692200792105827,0.249013999999988,
-0.690966599121094,-0.0659841977539062,-0.0529597407226543,0.696127495213059,0.252748000000793,
-0.700543405761719,-0.0540131894531251,0.00210689746093884,0.702625737507557,0.25648799999999,
-0.695755002441406,-0.0659841977539062,0.0164721074218761,0.699071003617219,0.260215000000244,
-0.755610043945313,-0.190482684082031,-0.000287304199217076,0.779249814879564,0.263937000000624,
-0.590410129394531,0.0585142885742187,0.114634375488283,0.604275667971666,0.267902999999933,
-0.65505357421875,0.0154186586914062,-0.0433829340820289,0.656669627059275,0.271783000000141,
-0.734062229003906,-0.326952178710938,-0.112814782226561,0.811463035697153,0.275665000000117,
-0.851378110351563,-0.0252827695312499,0.0811155522460947,0.855607175073443,0.279457999999977,
-0.52097828125,0.0728794985351564,0.0882981572265642,0.53341011933647,0.283253999999943,
-0.535343491210938,-0.128233440917969,-0.0529597407226543,0.553029115950497,0.287091000000146,
-1.01178962158203,0.0249954653320312,0.0188663090820338,1.01227414727763,0.290911000000051,
-0.647870969238281,-0.281462347167969,0.0499909306640642,0.708136243108423,0.294699000000037,
-0.415633408203125,0.0656968935546876,-0.0338061274414052,0.422149340980021,0.298558000000412,
-0.623928952636719,0.137522943359375,0.0595677373046897,0.641676096809114,0.302048999999897,
-0.963905588378906,-0.125839239257812,-0.0290177241210916,0.97251813646751,0.304998000000523,
-0.825041892089844,-0.192876885742188,-0.0314119257812475,0.847869285820687,0.30790800000068,
-0.410845004882813,-0.0683783994140624,0.0523851323242202,0.419777828895493,0.310928000000786,
-0.506613071289063,0.0920331118164064,0.0452025273437524,0.516885060869252,0.313898000000336,
-0.894473740234375,0.0226012636718751,0.0284431157226575,0.895211204085634,0.316956000000573,
-0.88489693359375,-0.17851167578125,-0.0290177241210916,0.903189365408506,0.319886000000224,
-0.509007272949219,-0.224001507324219,0.0643561406250015,0.559827466309815,0.322807000000466,
-0.511401474609375,-0.0300711728515624,0.0188663090820338,0.512632111057911,0.325851000000512,
-0.825041892089844,0.175830169921875,-0.0697191523437475,0.846446178183513,0.328808000000208,
-0.82743609375,-0.1593580625,0.0571735356445338,0.844579359505138,0.331838000000062,
-0.504218869628906,-0.365259405273437,-0.0314119257812475,0.6234082215626,0.334763000000748,
-0.626323154296875,0.080062103515625,-0.0601423457031238,0.634277333486235,0.337711000000127,
-0.80828248046875,0.209348993164063,-0.00986411083984251,0.835011898031509,0.340748000000531,
-0.65505357421875,-0.269491338867187,0.0236547124023456,0.708717371199568,0.34369500000048,
-0.6742071875,-0.307798565429688,-0.0721133540039052,0.744644629593826,0.346699000000626,
-0.753215842285156,0.240473614746094,-0.0433829340820289,0.791860936925137,0.349652000000788,
-0.623928952636719,0.0369664736328126,0.0859039555664083,0.630898841093526,0.352596000000631,
-0.690966599121094,-0.322163775390625,-0.0649307490234357,0.765140733096635,0.355596000000332,
-0.786734665527344,-0.0683783994140624,-0.0625365473632797,0.792172872045597,0.358523000000787,
-0.61674634765625,0.106398321777344,0.0164721074218761,0.626073470566576,0.361558000000514,
-0.530555087890625,-0.123445037597656,0.0380199223632829,0.546052097414364,0.364505000000463,
-0.762792648925781,-0.235972515625,0.0188663090820338,0.798681157286173,0.36759500000062,
-0.76997525390625,0.0249954653320312,-0.0362003291015611,0.771230917911244,0.370633000000453,
-0.542526096191406,-0.0348595761718749,0.0260489140625015,0.544268592721834,0.373653999999988,
-0.628717355957031,-0.1210508359375,-0.0840843623046865,0.645762339059002,0.376709000000119,
-0.837012900390625,-0.0683783994140624,-0.000287304199217076,0.839801335716048,0.379638000000341,
-0.700543405761719,-0.0204943662109374,-0.0314119257812475,0.701546713686197,0.382613000000674,
-0.552102902832031,-0.0755610043945312,-0.0218351191406239,0.557677194377313,0.385544000000664,
-0.722091220703125,-0.104291424316406,-0.038594530761717,0.73060383930499,0.388486000000739,
-0.765186850585938,-0.0707726010742187,-0.000287304199217076,0.768452835192987,0.391495000000759,
-0.652659372558594,-0.0324653745117187,-0.0314119257812475,0.654220884879144,0.394420000000537,
-0.607169541015625,-0.0947146176757813,-0.0242293208007798,0.614990057094472,0.397445999999945,
-0.746033237304688,-0.10189722265625,0.0308373173828134,0.753591119435293,0.400382000000718,
-0.781946262207031,-0.0755610043945312,0.0212605107421897,0.785876219058496,0.40332699999999,
-0.650265170898438,-0.00852335791015624,0.0116837041015643,0.650425975077235,0.406340000000455,
-0.657447775878906,-0.0516189877929687,-0.0242293208007798,0.659916023366124,0.409293000000616,
-0.760398447265625,-0.0731668027343749,-0.0362003291015611,0.764767705550781,0.412301000000298,
-0.73166802734375,-0.0683783994140624,-0.0122583124999984,0.734958484520637,0.415224000000308,
-0.614352145996094,-0.111474029296875,-0.0218351191406239,0.62476538870649,0.418145999999979,
-0.662236179199219,-0.0516189877929687,-0.0912669672851543,0.670485597353575,0.421159000000443,
-0.738850632324219,-0.0683783994140624,-0.0505655390624984,0.743728939959316,0.424081000000115,
-0.645476767578125,-0.0851378110351562,0.00928950244140836,0.651133626229342,0.427097000000686,
-0.645476767578125,-0.0755610043945312,0.0667503422851574,0.653303398937585,0.430038000000422,
-0.707726010742188,-0.0204943662109374,-0.0290177241210916,0.708617071231428,0.432951000000685,
-0.671812985839844,-0.109079827636719,-0.0218351191406239,0.680960989461355,0.435965000000579,
-0.698149204101563,-0.0635899960937499,0.0619619389648456,0.703772179523411,0.43891000000076,
-0.667024582519531,-0.0540131894531251,-0.0338061274414052,0.670061245389434,0.441917000000103,
-0.700543405761719,-0.092320416015625,0.0236547124023456,0.706996229118914,0.444873000000371,
-0.6742071875,-0.10189722265625,-0.0122583124999984,0.681974077137149,0.447777000000315,
-0.681389792480469,-0.0851378110351562,-0.0290177241210916,0.68730089806256,0.450779000000693,
-0.667024582519531,-0.0516189877929687,-0.000287304199217076,0.669018980395795,0.453708000000006,
-0.69336080078125,-0.0731668027343749,-0.0362003291015611,0.698149729577724,0.456715000000258,
-0.6742071875,-0.0827436093749999,-0.0529597407226543,0.681327065884274,0.459632000000056,
-0.688572397460938,-0.0899262143554688,-0.0242293208007798,0.694842234294862,0.462635000000773,
-0.724485422363281,-0.0300711728515624,-0.040988732421873,0.726266809677492,0.465567000000192,
-0.717302817382813,-0.0372537778320312,-0.0673249506835916,0.721417926567276,0.468488000000434,
-0.638294162597656,-0.0611957944335937,-0.0457771357421866,0.642852945407704,0.47150000000056,
-0.736456430664063,-0.0803494077148437,-0.0194409174804662,0.741081676240251,0.474422000000231,
-0.746033237304688,-0.0899262143554688,-0.0146525141601543,0.751576350986932,0.477405000000545,
-0.671812985839844,-0.10189722265625,-0.0266235224609357,0.680018046728417,0.480335000000196,
-0.65505357421875,-0.104291424316406,-0.0314119257812475,0.664047133390387,0.483238000000711,
-0.6358999609375,-0.0348595761718749,-0.038594530761717,0.638023109437201,0.486241999999947,
-0.664630380859375,-0.106685625976563,-0.0673249506835916,0.676496869864035,0.489148999999998,
-0.722091220703125,-0.0611957944335937,0.0188663090820338,0.724925233311179,0.492170000000442,
-0.69336080078125,-0.0659841977539062,-0.0122583124999984,0.696601306802241,0.495095000000219,
-0.683783994140625,-0.0731668027343749,-0.0362003291015611,0.688639525072689,0.498006000000714,
-0.736456430664063,-0.0444363828125001,0.00689530078125244,0.737828036575444,0.501022000000376,
-0.657447775878906,-0.0899262143554688,-0.0505655390624984,0.665493182367113,0.503966000000219,
-0.623928952636719,-0.0851378110351562,0.0116837041015643,0.629819254824544,0.507078000000547,
-0.681389792480469,-0.0492247861328126,-0.0481713374023425,0.684861742699596,0.510093000000779,
-0.729273825683594,-0.0372537778320312,0.035625720703127,0.731093255861084,0.513123000000633,
-0.65505357421875,-0.0995030209960938,-0.00986411083984251,0.662641182667339,0.516144000000168,
-0.65505357421875,-0.0947146176757813,-0.0457771357421866,0.663446749976957,0.51905700000043,
-0.669418784179688,-0.0468305844726562,0.0308373173828134,0.671763018033912,0.522052000000258,
-0.729273825683594,-0.0372537778320312,0.00928950244140836,0.7302838158179,0.525008000000525,
-0.690966599121094,-0.092320416015625,0.00210689746093884,0.697109990841603,0.527947999999924,
-0.6742071875,-0.0420421811523437,-0.00986411083984251,0.675588763491051,0.530939000000217,
-0.671812985839844,-0.0133117612304687,-0.0529597407226543,0.674028653001869,0.533856000000014,
-0.69336080078125,-0.0540131894531251,0.0140779057617202,0.695603918998126,0.536880999999994,
-0.681389792480469,-0.0875320126953125,-0.0074699091796866,0.687029622422659,0.539788000000044,
-0.667024582519531,-0.0324653745117187,0.00928950244140836,0.667878798198558,0.542738000000099,
-0.671812985839844,-0.0420421811523437,-0.0170467158203103,0.673343020650954,0.545759000000544,
-0.683783994140625,-0.0899262143554688,0.0308373173828134,0.690360930828636,0.548725999999988,
-0.729273825683594,-0.0731668027343749,0.0619619389648456,0.735549437991654,0.551740000000791,
-0.681389792480469,-0.0683783994140624,0.0260489140625015,0.685307376822139,0.554667000000336,
-0.676601389160156,-0.0899262143554688,-0.0074699091796866,0.682592091504811,0.557646000000204,
-0.690966599121094,-0.0276769711914062,-0.0050757075195289,0.691539310988265,0.560566000000108,
-0.698149204101563,-0.0516189877929687,-0.0146525141601543,0.700208202793733,0.563464000000749,
-0.719697019042969,-0.0252827695312499,-0.0122583124999984,0.720245294243464,0.56646500000079,
-0.676601389160156,-0.0947146176757813,-0.0457771357421866,0.684730490610489,0.569385000000693,
-0.667024582519531,-0.0731668027343749,0.0260489140625015,0.671530878390236,0.572370000000774,
-0.678995590820313,-0.0324653745117187,-0.0673249506835916,0.683097110138931,0.575289000000339,
-0.6742071875,-0.0611957944335937,-0.0170467158203103,0.677193360461602,0.578198000000157,
-0.7125144140625,-0.0731668027343749,-0.0146525141601543,0.716411102259319,0.581195000000662,
-0.676601389160156,-0.0611957944335937,0.0428083256835947,0.680710597697468,0.58414300000004,
-0.671812985839844,-0.0588015927734374,0.00689530078125244,0.674416681606115,0.587145000000419,
-0.6742071875,-0.0875320126953125,0.0116837041015643,0.679965950518616,0.590069000000767,
-0.681389792480469,-0.092320416015625,0.0188663090820338,0.68787429529548,0.592977000000246,
-0.683783994140625,-0.0803494077148437,-0.00268150585937299,0.688493840521981,0.595976999999948,
-0.664630380859375,-0.0899262143554688,-0.0194409174804662,0.670968118811964,0.598895000000084,
-0.705331809082031,-0.0875320126953125,-0.000287304199217076,0.710742496754715,0.601905000000443,
-0.710120212402344,-0.0420421811523437,0.0811155522460947,0.715973458917707,0.604851000000053,
-0.667024582519531,-0.0635899960937499,-0.0170467158203103,0.670265672557395,0.607758000000103,
-0.671812985839844,-0.0659841977539062,-0.038594530761717,0.676148016414298,0.610757000000376,
-0.726879624023438,-0.104291424316406,-0.00986411083984251,0.734389535389128,0.613671000000068,
-0.695755002441406,-0.0683783994140624,-0.0338061274414052,0.699923912422811,0.616671000000679,
-0.6742071875,-0.0731668027343749,-0.00268150585937299,0.678170998475093,0.619580999999926,
-0.678995590820313,-0.0420421811523437,0.0260489140625015,0.680794464778693,0.622495999999956,
-0.702937607421875,-0.0995030209960938,0.00689530078125244,0.709978644952229,0.625507000000653,
-0.669418784179688,-0.125839239257812,-0.0146525141601543,0.681301489005279,0.62841600000047,
-0.688572397460938,-0.0540131894531251,0.0499909306640642,0.692494378553835,0.631429000000026,
-0.669418784179688,-0.092320416015625,-0.0625365473632797,0.678642311959716,0.634334000000308,
-0.705331809082031,-0.104291424316406,-0.000287304199217076,0.713000522182543,0.63722400000006,
-0.669418784179688,-0.0755610043945312,-0.040988732421873,0.674915587450218,0.640201000000161,
-0.7125144140625,-0.0324653745117187,-0.0601423457031238,0.715784808818746,0.643194000000221,
-0.676601389160156,-0.0683783994140624,-0.00268150585937299,0.680053112479868,0.646289000000252,
-0.6742071875,-0.0995030209960938,0.0212605107421897,0.681841764767331,0.649314000000231,
-0.664630380859375,-0.0396479794921876,-0.0577481440429679,0.668311569239601,0.652346000000762,
-0.705331809082031,-0.0611957944335937,-0.0697191523437475,0.711406105092457,0.655268000000433,
-0.667024582519531,-0.0803494077148437,-0.0338061274414052,0.672696569976439,0.658151000000544,
-0.69336080078125,-0.0396479794921876,-0.0170467158203103,0.694702636282667,0.661145000000033,
-0.717302817382813,-0.0611957944335937,-0.10084377392578,0.726937221375597,0.664084000000003,
-0.710120212402344,-0.0755610043945312,0.035625720703127,0.715017044148654,0.667086000000381,
-0.698149204101563,-0.0827436093749999,-0.0338061274414052,0.703847760764096,0.670022000000245,
-0.690966599121094,-0.0588015927734374,0.0739329472656269,0.697394113184966,0.672967000000426,
-0.662236179199219,-0.0899262143554688,0.0523851323242202,0.670363843861907,0.675977000000785,
-0.698149204101563,-0.0635899960937499,0.0164721074218761,0.70123272108036,0.678929000000608,
-0.626323154296875,-0.0468305844726562,0.0188663090820338,0.628354784233252,0.681943000000501,
-0.760398447265625,-0.0803494077148437,-0.00268150585937299,0.764636525675941,0.684901000000536,
-0.69336080078125,-0.0707726010742187,0.0260489140625015,0.69745000325949,0.68784500000038,
-0.662236179199219,-0.0468305844726562,-0.0170467158203103,0.664108764588067,0.690847000000758,
-0.676601389160156,-0.0564073911132812,0.0308373173828134,0.679648566340744,0.693782000000283,
-0.698149204101563,-0.0875320126953125,-0.0170467158203103,0.703821536296238,0.696775000000343,
-0.676601389160156,-0.0731668027343749,0.0859039555664083,0.685946288289236,0.699711000000207,
-0.681389792480469,-0.0779552060546874,-0.0194409174804662,0.686110058751573,0.702605000000403,
-0.6742071875,-0.0731668027343749,0.00689530078125244,0.678200750421212,0.705609999999979,
-0.65505357421875,-0.0444363828125001,-0.0122583124999984,0.656673467896767,0.708532999999989,
-0.683783994140625,-0.0611957944335937,0.0284431157226575,0.687105877380828,0.711549000000559,
-0.698149204101563,-0.0803494077148437,0.0452025273437524,0.704209916847267,0.714480000000549,
-0.698149204101563,-0.0635899960937499,-0.0505655390624984,0.702860492936919,0.717374000000746,
-0.722091220703125,-0.10189722265625,0.0763271489257829,0.733228892409952,0.720393999999942,
-0.681389792480469,-0.0731668027343749,-0.0457771357421866,0.686834023964819,0.723307000000204,
-0.686178195800781,-0.0444363828125001,0.00210689746093884,0.687618751581707,0.726322000000437,
-0.686178195800781,-0.0755610043945312,0.0475967290039083,0.691964905460817,0.729247000000214,
-0.710120212402344,-0.0659841977539062,-0.0242293208007798,0.713590702295121,0.732136000000537,
-0.681389792480469,-0.0564073911132812,-0.0170467158203103,0.683933062213724,0.73512699999992,
-0.681389792480469,-0.0659841977539062,-0.040988732421873,0.685803207804801,0.738052000000607,
-0.678995590820313,-0.0611957944335937,-0.0314119257812475,0.682470985970151,0.741048000000774,
-0.690966599121094,-0.0635899960937499,0.00210689746093884,0.693889737437501,0.743975000000319,
-0.729273825683594,-0.111474029296875,-0.0553539423828102,0.739818106680409,0.746961000000738,
-0.7125144140625,-0.0468305844726562,-0.0936611689453102,0.72016825010346,0.749901000000136,
-0.676601389160156,-0.0875320126953125,-0.0338061274414052,0.683076970269479,0.752808000000186,
-0.6742071875,-0.0731668027343749,-0.0122583124999984,0.678276476758835,0.755810999999994,
-0.698149204101563,-0.0851378110351562,0.0212605107421897,0.703642499691798,0.758741000000555,
-0.686178195800781,-0.0755610043945312,-0.00268150585937299,0.69033120474972,0.761710000000676,
-0.678995590820313,-0.0540131894531251,0.00450109912109475,0.681155413163268,0.764649000000645,
-0.705331809082031,-0.0755610043945312,-0.040988732421873,0.710550844397214,0.767547000000377,
-0.688572397460938,-0.104291424316406,-0.0649307490234357,0.699445959241879,0.770550000000185,
-0.676601389160156,-0.0683783994140624,0.00450109912109475,0.680062721528816,0.773474000000533,
-0.69336080078125,-0.0611957944335937,-0.038594530761717,0.697125285096655,0.776464000000487,
-0.688572397460938,-0.0683783994140624,-0.0290177241210916,0.692567383266567,0.779401000000689,
-0.690966599121094,-0.0731668027343749,-0.0074699091796866,0.694869787562025,0.782393000000411,
-0.650265170898438,-0.0635899960937499,0.035625720703127,0.654337582645529,0.785493000000315,
-0.667024582519531,-0.0875320126953125,0.0452025273437524,0.674260272750894,0.788511000000653,
-0.669418784179688,-0.0588015927734374,0.00450109912109475,0.67201145512454,0.791537000000062,
-0.669418784179688,-0.0971088193359375,-0.0122583124999984,0.67653669348438,0.794447000000218,
-0.664630380859375,-0.0683783994140624,0.0212605107421897,0.668476744535459,0.797362000000248,
-0.7125144140625,-0.116262432617187,-0.0074699091796866,0.721976137436721,0.80035399999997,
-0.664630380859375,-0.0611957944335937,0.00210689746093884,0.667445059487706,0.803321000000324,
-0.698149204101563,-0.0851378110351562,0.0404141240234388,0.704481411732123,0.806321000000025,
-0.722091220703125,-0.0707726010742187,-0.0290177241210916,0.726131200536451,0.809229000000414,
-0.695755002441406,-0.0683783994140624,-0.0338061274414052,0.699923912422811,0.812143000000106,
-0.686178195800781,-0.0779552060546874,-0.0122583124999984,0.690700945973575,0.815142000000378,
-0.683783994140625,-0.106685625976563,-0.0266235224609357,0.692568542009486,0.818072000000029,
-0.686178195800781,-0.0540131894531251,-0.0146525141601543,0.688456706844031,0.8210880000006,
-0.657447775878906,-0.0875320126953125,0.0428083256835947,0.664629207906518,0.824039000000084,
-0.662236179199219,-0.0779552060546874,-0.040988732421873,0.668067247645745,0.826955000000453,
-0.688572397460938,-0.0707726010742187,-0.0314119257812475,0.69291227200072,0.829947000000175,
-0.702937607421875,-0.0635899960937499,-0.0338061274414052,0.70661716776751,0.832873000000291,
-0.664630380859375,-0.106685625976563,-0.0194409174804662,0.673419123001249,0.835869000000457,
-0.698149204101563,-0.0875320126953125,0.0236547124023456,0.704012577908219,0.838792999999896,
-0.69336080078125,-0.0468305844726562,-0.0362003291015611,0.695882725413649,0.841766999999891,
-0.640688364257813,-0.0995030209960938,0.0404141240234388,0.649627379890413,0.844703000000663,
-0.676601389160156,-0.0851378110351562,0.0236547124023456,0.682347002704745,0.847618000000693,
-0.662236179199219,-0.0588015927734374,0.00928950244140836,0.664906519150386,0.850620000000163,
-0.667024582519531,-0.10189722265625,0.0380199223632829,0.675833080107006,0.8535609999999,
-0.714908615722656,-0.0947146176757813,-0.0074699091796866,0.72119413972876,0.856549000000086,
-0.698149204101563,-0.0803494077148437,-0.0266235224609357,0.703261793684258,0.859480000000076,
-0.678995590820313,-0.0899262143554688,-0.0266235224609357,0.685441863566823,0.862377000000379,
-0.707726010742188,-0.0564073911132812,-0.0074699091796866,0.71000964753756,0.865373000000545,
-0.722091220703125,-0.109079827636719,0.00689530078125244,0.730316154132339,0.868304999999964,
-0.695755002441406,-0.0468305844726562,-0.110420580566405,0.706017585954425,0.871297000000595,
-0.710120212402344,-0.0492247861328126,0.0284431157226575,0.712392312187732,0.874227000000246,
-0.669418784179688,-0.0707726010742187,0.00928950244140836,0.673213609882503,0.877162000000681,
-0.686178195800781,-0.0731668027343749,0.0140779057617202,0.69021162323263,0.88017900000068,
-0.6742071875,-0.0779552060546874,0.0140779057617202,0.678844999435309,0.883100000000013,
-0.671812985839844,-0.0396479794921876,0.0284431157226575,0.673582705428867,0.88611100000071,
-0.61674634765625,-0.0827436093749999,-0.0338061274414052,0.623189711478223,0.889028000000508,
-0.659841977539063,-0.106685625976563,-0.0553539423828102,0.670699125577178,0.891942000000199,
-0.65505357421875,-0.0468305844726562,0.00689530078125244,0.656761626400077,0.894952999999987,
-0.686178195800781,-0.0611957944335937,-0.040988732421873,0.690119930037038,0.897864999999911,
-0.7125144140625,-0.0707726010742187,-0.0194409174804662,0.716284510918755,0.900867000000289,
-0.686178195800781,-0.0611957944335937,-0.0745075556640611,0.692919055517892,0.903787000000193,
-0.698149204101563,-0.0444363828125001,-0.0745075556640611,0.703518499512371,0.906691000000137,
-0.652659372558594,-0.0516189877929687,0.0332315190429711,0.655540319390998,0.909699000000728,
-0.686178195800781,-0.0276769711914062,-0.0314119257812475,0.687454173169406,0.912604000000101,
-0.6742071875,-0.0588015927734374,-0.0457771357421866,0.678312984650974,0.915596000000733,
-0.678995590820313,-0.0516189877929687,0.0332315190429711,0.68176525733723,0.91858400000001,
-0.647870969238281,-0.0540131894531251,0.00928950244140836,0.65018498311808,0.921588000000156,
-0.700543405761719,-0.0659841977539062,0.00689530078125244,0.703677854477685,0.924671000000671,
-0.719697019042969,-0.0731668027343749,0.0428083256835947,0.72467215552244,0.927671000000373,
-0.681389792480469,-0.0851378110351562,0.0284431157226575,0.687276877973097,0.930679000000055,
-0.657447775878906,-0.0731668027343749,0.0284431157226575,0.662117791531465,0.933600000000297,
-0.686178195800781,-0.0827436093749999,-0.0242293208007798,0.691573626789863,0.93656700000065,
-0.669418784179688,-0.0588015927734374,0.00450109912109475,0.67201145512454,0.939556000000266,
-0.695755002441406,-0.0755610043945312,0.0547793339843761,0.701986655314133,0.942469999999958,
-0.662236179199219,-0.0683783994140624,0.0404141240234388,0.66698250649278,0.945480000000316,
-0.643082565917969,-0.0899262143554688,-0.0433829340820289,0.650787207607456,0.948394000000008,
-0.65505357421875,-0.109079827636719,-0.0074699091796866,0.664115497061444,0.951371000000108,
-0.650265170898438,-0.0827436093749999,-0.000287304199217076,0.655508489586275,0.954304000000775,
-0.659841977539063,-0.0516189877929687,0.00689530078125244,0.661893873967946,0.957220000000234,
-0.690966599121094,-0.0611957944335937,0.0140779057617202,0.693814062835256,0.960262999999941,
-0.690966599121094,-0.0516189877929687,-0.0122583124999984,0.693000452544649,0.963181000000077,
-0.671812985839844,-0.0372537778320312,0.00450109912109475,0.67286015768442,0.966201000000183,
-0.698149204101563,-0.0827436093749999,0.0284431157226575,0.703610564809867,0.969129000000066,
-0.662236179199219,-0.0564073911132812,-0.0050757075195289,0.664653529005459,0.972029999999904,
-0.645476767578125,-0.0899262143554688,-0.0314119257812475,0.65246738661231,0.975026000000071,
-0.683783994140625,-0.0468305844726562,-0.0122583124999984,0.685495383288833,0.977941000000101,
-0.676601389160156,-0.1210508359375,-0.0266235224609357,0.687860128691036,0.980945000000247,
-0.671812985839844,-0.0707726010742187,-0.000287304199217076,0.675530555600233,0.983858999999939,
-0.698149204101563,-0.0659841977539062,0.0523851323242202,0.703214353970038,0.986783000000287,
-0.676601389160156,-0.0803494077148437,-0.0601423457031238,0.684004801796196,0.989787000000433,
-0.671812985839844,-0.0611957944335937,0.0212605107421897,0.67492934631443,0.992719000000761,
-0.676601389160156,-0.0372537778320312,-0.0577481440429679,0.680082444940773,0.995714000000589,
-0.702937607421875,-0.0540131894531251,0.0523851323242202,0.706953256341263,0.998649000000114,
-0.681389792480469,-0.0803494077148437,-0.0194409174804662,0.686386207531288,1.00154999999995,
-0.667024582519531,-0.0803494077148437,-0.0194409174804662,0.672127793115241,1.00455600000078,
-0.714908615722656,-0.0468305844726562,-0.0218351191406239,0.716773468331816,1.0074680000007,
