X,Y,Z,Magnitude,Seconds,
-1.05014473217773,0.340455476074219,-0.0176692082519558,1.10409514564181,0.0,
-1.07887515209961,0.302148249511719,-0.0392170231933626,1.12107231408554,0.00372800000059215,
-1.0740867487793,0.318907661132813,-0.111043072998049,1.12591962603613,0.00748100000055274,
-1.04056792553711,0.328484467773438,-0.0535822331542999,1.09249929470678,0.0113730000002761,
-1.10760557202148,0.328484467773438,0.00866701000976278,1.15532128250281,0.0153879999998026,
-1.05253893383789,0.323696064453125,-0.0631590397949235,1.10299882760358,0.0191899999999805,
-1.06929834545898,0.290177241210937,0.00627280834960686,1.10798968002536,0.0230110000002242,
-1.0573273371582,0.33327287109375,-0.0152750065917999,1.10871332197981,0.0268059999998513,
-1.10281716870117,0.328484467773438,-0.000909796630862658,1.15069917045263,0.0306390000005194,
-1.04056792553711,0.330878669433594,-0.0775242497558626,1.09465625236554,0.034483000000364,
-1.03099111889648,0.335667072753906,-0.0200634099121118,1.08444345698238,0.0382879999997385,
-1.08126935375977,0.304542451171875,-0.0176692082519558,1.12347751239893,0.0421999999998661,
-1.10281716870117,0.29496564453125,-0.0440054265136745,1.1424302677181,0.0460300000004281,
-1.0573273371582,0.381156904296875,-0.0392170231933626,1.12461533801713,0.0498250000000553,
-1.07648095043945,0.362003291015625,-0.0487938298339863,1.1367666678765,0.0536179999999149,
-1.09084616040039,0.342849677734375,-0.0607648381347676,1.14506926110886,0.0574040000001332,
-1.10521137036133,0.3141192578125,-0.0392170231933626,1.14965258065765,0.0612080000000788,
-1.04775053051758,0.309330854492188,-0.0320344182128931,1.09292861417888,0.0650249999998778,
-1.03099111889648,0.342849677734375,-0.0487938298339863,1.08759800781164,0.068793999999798,
-1.11957658032227,0.318907661132813,-0.0320344182128931,1.16455142414817,0.0725370000000112,
-1.06450994213867,0.37158009765625,-0.115831476318363,1.13343289029055,0.0762740000000122,
-1.05014473217773,0.342849677734375,-0.0392170231933626,1.10539035410635,0.0800380000000587,
-1.06690414379883,0.352426484375,-0.0559764348144558,1.12499877342092,0.0840379999999641,
-1.09084616040039,0.330878669433594,-0.0296402165527372,1.14030898531219,0.0878810000003796,
-1.04296212719727,0.335667072753906,-0.115831476318363,1.10175283680375,0.0917870000002949,
-1.09324036206055,0.338061274414063,-0.0416112248535185,1.14507266517481,0.0956020000003264,
-1.06929834545898,0.3141192578125,-0.0751300480957049,1.11701136245647,0.0994179999997868,
-1.07169254711914,0.309330854492188,-0.0990720646972676,1.11983291927633,0.10327899999993,
-1.02859691723633,0.335667072753906,-0.0224576115722677,1.08221455645209,0.107101000000512,
-1.08605775708008,0.335667072753906,-0.0368228215332049,1.13734328838335,0.110896000000139,
-1.08126935375977,0.316513459472656,0.0373974299316373,1.12726339121472,0.114784000000327,
-1.04296212719727,0.345243879394531,-0.0463996281738304,1.09959822686375,0.118645999999899,
-1.05972153881836,0.340455476074219,-0.051188031494144,1.11424408707999,0.122444999999971,
-1.04056792553711,0.347638081054688,-0.00330399829101857,1.09710745119186,0.126218999999764,
-1.08126935375977,0.330878669433594,-0.0799184514160185,1.13358328681352,0.130022000000281,
-1.0357795222168,0.338061274414063,-0.0487938298339863,1.09064452583414,0.133797000000413,
-1.09084616040039,0.366791694335938,-0.0583706364746117,1.15234049824544,0.137639999999919,
-1.06690414379883,0.304542451171875,-0.0966778630371117,1.11372221214372,0.141421999999693,
-1.06690414379883,0.338061274414063,-0.0248518132324236,1.11945856999467,0.14516999999978,
-1.0357795222168,0.282994636230469,-0.0368228215332049,1.07437474977986,0.148920000000544,
-1.07169254711914,0.359609089355469,-0.0440054265136745,1.13127365843125,0.152806000000055,
-1.07169254711914,0.330878669433594,0.0110612116699187,1.12166303310774,0.156797000000552,
-1.05493313549805,0.311725056152344,-0.0128808049316422,1.10010106178506,0.160651000000144,
-1.05972153881836,0.357214887695313,-0.0535822331542999,1.11959067142261,0.164463000000069,
-1.05014473217773,0.306936652832031,-0.0176692082519558,1.09422404848944,0.168268999999782,
-1.09084616040039,0.335667072753906,-0.0775242497558626,1.14395268201603,0.172126999999819,
-1.04056792553711,0.338061274414063,-0.0918894597167998,1.09795751544498,0.175987999999961,
-1.0740867487793,0.328484467773438,-0.101466266357424,1.1277676146619,0.179790000000139,
-1.05253893383789,0.335667072753906,-0.0463996281738304,1.1057411616063,0.183665999999903,
-1.09084616040039,0.326090266113281,-0.0535822331542999,1.13980316854442,0.187506000000212,
-1.10042296704102,0.359609089355469,-0.0655532414550812,1.15954587274661,0.191305999999713,
-1.07169254711914,0.326090266113281,-0.0200634099121118,1.12038489708753,0.195085999999719,
-1.10521137036133,0.318907661132813,-0.00330399829101857,1.15030656170861,0.198825000000397,
-1.08605775708008,0.299754047851563,-0.0751300480957049,1.12916715549296,0.202562999999827,
-1.03817372387695,0.335667072753906,-0.0320344182128931,1.09156001604582,0.206310000000485,
-1.02380851391602,0.340455476074219,-0.0871010563964862,1.08244186836117,0.21015400000033,
-1.03338532055664,0.304542451171875,-0.0128808049316422,1.07740300744123,0.213891000000331,
-1.08845195874023,0.340455476074219,-0.0799184514160185,1.14325174679556,0.217612000000372,
-1.07169254711914,0.352426484375,-0.0463996281738304,1.12910684522516,0.221354000000247,
-1.0740867487793,0.287783039550781,-0.0607648381347676,1.11363090263781,0.225314000000253,
-1.08126935375977,0.340455476074219,-0.0583706364746117,1.13510372996103,0.229186000000482,
-1.08605775708008,0.316513459472656,0.00866701000976278,1.13127244234255,0.233040000000074,
-1.03099111889648,0.302148249511719,-0.0799184514160185,1.07732224093033,0.236901000000216,
-1.05014473217773,0.323696064453125,0.0302148249511696,1.09931616758325,0.240703000000394,
-1.06450994213867,0.33327287109375,-0.0368228215332049,1.11606816266069,0.244590000000244,
-1.06690414379883,0.29496564453125,0.00627280834960686,1.106945586573,0.248438999999962,
-1.0573273371582,0.290177241210937,-0.0272460148925813,1.09676172186413,0.25224900000012,
-1.09084616040039,0.316513459472656,-0.0440054265136745,1.13668931254335,0.256126000000222,
-1.06929834545898,0.306936652832031,-0.0918894597167998,1.11626732159465,0.25998299999992,
-1.07648095043945,0.323696064453125,-0.12301408129883,1.13080628004945,0.263772000000245,
-1.08366355541992,0.328484467773438,-0.072735846435549,1.13468905444198,0.267547000000377,
-1.03817372387695,0.347638081054688,-0.0942836613769558,1.098884127263,0.271357999999964,
-1.0956345637207,0.37158009765625,-0.0463996281738304,1.15786000522013,0.275142000000415,
-1.09084616040039,0.335667072753906,-0.0535822331542999,1.142579881278,0.278919999999744,
-1.06211574047852,0.321301862792969,-0.0368228215332049,1.11026152477339,0.28280199999972,
-1.08845195874023,0.318907661132813,-0.0200634099121118,1.13438631128551,0.286565000000337,
-1.08366355541992,0.311725056152344,-0.0703416447753931,1.12979961009386,0.290302000000338,
-1.12915338696289,0.330878669433594,-0.0894952580566439,1.18003282428521,0.294123000000582,
-1.0573273371582,0.462559760742188,0.200203142822263,1.17131717675267,0.298150000000533,
-1.21534464672852,-0.104866032714844,-0.2068111394043,1.23726728823271,0.301930999999968,
-0.889733220947266,0.455377155761719,-0.297790802490237,1.04291558646643,0.305573999999979,
-1.00704910229492,1.23588689697266,0.513843560302732,1.67499239431297,0.308552000000418,
-1.46673582104492,-0.01149216796875,-0.213993744384767,1.48230879417777,0.311483000000408,
-0.987895489013672,-0.921288798828125,-0.340886432373049,1.39316693466209,0.314523000000008,
-0.719744903076172,1.55192151611328,0.410892888916013,1.75935388249244,0.317490000000362,
-1.31590111645508,1.02759135253906,-0.213993744384767,1.68325074149296,0.320545999999922,
-1.35660254467773,-0.9883264453125,-0.405529877197267,1.72673510071168,0.323511000000508,
-0.65749565991211,0.055545478515625,0.348643645751951,0.746282945477117,0.32646399999976,
-0.937617254150391,1.42024042480469,-0.0799184514160185,1.70370065985978,0.329494000000523,
-1.60559951733398,0.285388837890625,-0.257089374267581,1.6509062799617,0.332470999999714,
-1.3254779230957,-0.361045610351563,0.039791631591795,1.37434676530815,0.335477999999966,
-0.640736248291016,0.017238251953125,0.0613394465332,0.643896439581277,0.338440999999875,
-0.451594317138672,0.883939252929687,-0.0847068547363303,0.99622350975128,0.341382999999951,
-1.64151254223633,0.285388837890625,-0.0272460148925813,1.66635907308097,0.344426000000567,
-1.69897338208008,-0.195845695800781,-0.194840131103518,1.72128695058922,0.347348000000238,
-0.609611626708984,0.848026228027344,0.0134554133300764,1.04448832783758,0.35040300000037,
-0.477930535400391,0.761834968261719,0.0733104548339814,0.902321748780557,0.353369000000384,
-1.34702573803711,-0.6052541796875,-0.197234332763674,1.48986990807397,0.356263000000581,
-1.57447489575195,0.0699106884765625,-0.0775242497558626,1.57793178275127,0.359304999999949,
-1.12675918530273,1.35080857666016,0.0206380183105441,1.75917480661886,0.362229999999727,
-0.602429021728516,0.385945307617187,-0.0128808049316422,0.715569997853592,0.365276999999878,
-0.813118767822266,-0.516668718261719,-0.0176692082519558,0.963546000944043,0.36819800000012,
-1.56010968579102,0.225533796386719,-0.156532904541018,1.58408026160785,0.371219000000565,
-1.40927498120117,0.934217487792969,0.0206380183105441,1.69092998522634,0.374158000000534,
-0.693408684814453,0.558327827148438,0.0230322199707,0.890548173823957,0.377120000000104,
-0.803541961181641,-0.00191536132812502,0.00866701000976278,0.803590983679611,0.380125000000589,
-1.29674750317383,-0.0545877978515625,-0.0631590397949235,1.29943179081076,0.383064000000559,
-1.25365187329102,0.481713374023438,-0.0871010563964862,1.34583705854182,0.386074000000008,
-1.0190201105957,0.769017573242188,-0.0559764348144558,1.27785890262122,0.389030999999704,
-0.956770867431641,0.25665841796875,-0.0487938298339863,0.991798807273927,0.391975999999886,
-0.975924480712891,-0.0450109912109375,-0.103860468017581,0.982467087591919,0.395013999999719,
-1.11957658032227,0.292571442871094,-0.108648871337893,1.16226259753671,0.397950999999921,
-1.23210405834961,0.615788666992187,-0.0463996281738304,1.37819774288462,0.400986999999986,
-1.08126935375977,0.436223542480469,-0.0176692082519558,1.16608172754508,0.403946999999789,
-0.896915825927735,0.113006318359375,-0.0368228215332049,0.904756512534967,0.406883999999991,
-0.999866497314453,0.220745393066406,-0.0631590397949235,1.02589015265755,0.409928000000036,
-1.26322867993164,0.474530769042969,-0.0607648381347676,1.35078440697392,0.412855000000491,
-1.1890084284668,0.460165559082031,-0.0607648381347676,1.276395608847,0.415887000000112,
-0.968741875732422,0.220745393066406,-0.0535822331542999,0.995017791834606,0.418923000000177,
-0.961559270751953,0.292571442871094,-0.00330399829101857,1.00508964612984,0.421965000000455,
-1.15309540356445,0.388339509277344,-0.0224576115722677,1.21693916384705,0.425110000000132,
-1.19858523510742,0.347638081054688,-0.0894952580566439,1.25118671765309,0.428132000000005,
-1.02380851391602,0.263841022949219,-0.0320344182128931,1.05774390213702,0.431158000000323,
-0.954376665771484,0.335667072753906,-0.0463996281738304,1.01274879876253,0.434113000000252,
-1.02620271557617,0.357214887695313,-0.0871010563964862,1.09008306264819,0.437046000000009,
-1.1890084284668,0.3141192578125,-0.051188031494144,1.23086642884677,0.440134000000398,
-1.12436498364258,0.328484467773438,-0.0248518132324236,1.17162975151321,0.443084000000454,
-1.01423170727539,0.3907337109375,-0.0559764348144558,1.08833457638737,0.446117999999842,
-1.00704910229492,0.299754047851563,-0.0679474431152371,1.05290894129659,0.449083999999857,
-1.10042296704102,0.302148249511719,-0.115831476318363,1.14701403739468,0.452029000000039,
-1.11718237866211,0.330878669433594,-0.0655532414550812,1.16699373971952,0.455090000000382,
-1.08845195874023,0.323696064453125,-0.0320344182128931,1.13601629063061,0.458048999999846,
-1.01183750561523,0.321301862792969,-0.0583706364746117,1.06322958762741,0.461119999999937,
-1.06211574047852,0.362003291015625,-0.0607648381347676,1.12375646580205,0.464104000000589,
-1.0956345637207,0.345243879394531,-0.0368228215332049,1.14933213374747,0.467114000000038,
-1.09324036206055,0.330878669433594,-0.0200634099121118,1.14239123050806,0.470100999999886,
-1.08126935375977,0.342849677734375,-0.072735846435549,1.13665290227902,0.473041000000194,
-1.06211574047852,0.33327287109375,-0.000909796630862658,1.11317630252768,0.476079000000027,
-1.08126935375977,0.338061274414063,-0.000909796630862658,1.13288554954524,0.47903099999985,
-1.12436498364258,0.345243879394531,-0.0942836613769558,1.17994888088578,0.482049000000188,
-1.0740867487793,0.33327287109375,-0.0152750065917999,1.12470728473534,0.485004000000117,
-1.06450994213867,0.357214887695313,-0.111043072998049,1.1283237376587,0.487946000000193,
-1.02620271557617,0.285388837890625,-0.0559764348144558,1.06661715882645,0.49099600000045,
-1.11478817700195,0.33327287109375,0.0373974299316373,1.16414004911604,0.493959000000359,
-1.12197078198242,0.299754047851563,0.00387860668945095,1.16132939703406,0.496979999999894,
-1.09324036206055,0.33327287109375,-0.0583706364746117,1.14440046620394,0.49992199999997,
-1.01423170727539,0.426646735839844,-0.0224576115722677,1.10054429150447,0.502867000000151,
-1.07648095043945,0.338061274414063,-0.0847068547363303,1.13149101329034,0.505901000000449,
-1.1123939753418,0.251870014648437,-0.103860468017581,1.14527108470989,0.50885500000004,
-1.08366355541992,0.400310517578125,-0.0416112248535185,1.155987329456,0.511883000000125,
-1.03338532055664,0.33327287109375,0.00866701000976278,1.08583200561207,0.514850999999908,
-1.0357795222168,0.239899006347656,-0.0751300480957049,1.06584955599611,0.517784000000574,
-1.0573273371582,0.414675727539063,-0.0583706364746117,1.13723532662091,0.520817000000534,
-1.11718237866211,0.383551105957031,-0.0918894597167998,1.18475803051975,0.523766000000251,
-1.15309540356445,0.273417829589844,-0.0775242497558626,1.18760108140709,0.526800999999978,
-1.02620271557617,0.328484467773438,-0.0368228215332049,1.07812335992222,0.529741000000286,
-1.00465490063477,0.364397492675781,-0.0272460148925813,1.06904599871351,0.532694000000447,
-1.06211574047852,0.342849677734375,-0.0559764348144558,1.11748338195667,0.535711000000447,
-1.21773884838867,0.271023627929687,-0.0655532414550812,1.24925535309496,0.538674000000356,
-1.04296212719727,0.381156904296875,-0.0703416447753931,1.11265382372539,0.541705000000547,
-1.01183750561523,0.299754047851563,-0.0703416447753931,1.05764624235269,0.54466500000035,
-1.00226069897461,0.290177241210937,-0.0487938298339863,1.04456219434543,0.547596999999769,
-1.13633599194336,0.323696064453125,-0.0463996281738304,1.18245150184818,0.550629999999728,
-1.16267221020508,0.362003291015625,-0.0080924016113304,1.21775142703802,0.553578000000016,
-1.03338532055664,0.318907661132813,-0.0655532414550812,1.08345952602597,0.556657000000087,
-0.973530279052735,0.316513459472656,-0.0368228215332049,1.02435242687539,0.559715999999753,
-1.15309540356445,0.388339509277344,-0.0703416447753931,1.218763525536,0.562832999999955,
-1.0956345637207,0.33327287109375,-0.0176692082519558,1.14533755057048,0.56589299999996,
-1.06211574047852,0.340455476074219,-0.0080924016113304,1.11537673649982,0.568866999999955,
-1.06929834545898,0.323696064453125,-0.00569819995117449,1.11723344168819,0.571888999999828,
-1.10042296704102,0.27581203125,-0.0487938298339863,1.13551037899416,0.574849999999969,
-1.10042296704102,0.340455476074219,-0.0942836613769558,1.15573787961757,0.577863999999863,
-1.05493313549805,0.345243879394531,-0.0200634099121118,1.11017106656967,0.580858999999691,
-1.02859691723633,0.309330854492188,-0.0751300480957049,1.07672731915551,0.583784000000378,
-1.04296212719727,0.290177241210937,0.00866701000976278,1.0826116326491,0.586828999999852,
-1.06690414379883,0.306936652832031,-0.106254669677737,1.11525092052648,0.589780000000246,
-1.09802876538086,0.345243879394531,-0.00569819995117449,1.1510399538443,0.592814000000544,
-1.10281716870117,0.33327287109375,-0.0894952580566439,1.15554572190103,0.595777000000453,
-1.06929834545898,0.287783039550781,-0.0823126530761744,1.11040236054812,0.598743000000468,
-1.03099111889648,0.318907661132813,-0.0416112248535185,1.07998901735455,0.60179799999969,
-1.06211574047852,0.340455476074219,-0.0440054265136745,1.11621514723811,0.604766000000382,
-1.10999977368164,0.33327287109375,-0.0463996281738304,1.15988069631106,0.607797000000573,
-1.06929834545898,0.311725056152344,-0.051188031494144,1.11498505676208,0.610752000000502,
-1.0740867487793,0.297359846191406,-0.0440054265136745,1.11535720717307,0.613691000000472,
-1.03338532055664,0.342849677734375,0.0110612116699187,1.08883124159262,0.616724000000431,
-1.07648095043945,0.347638081054688,-0.034428619873049,1.13174590872898,0.619665000000168,
-1.10521137036133,0.285388837890625,-0.0535822331542999,1.1427204459877,0.622710999999981,
-1.07169254711914,0.323696064453125,-0.0392170231933626,1.12019731860119,0.625654999999824,
-1.08845195874023,0.328484467773438,-0.0104866032714863,1.13698710674397,0.62861200000043,
-1.0956345637207,0.330878669433594,-0.0607648381347676,1.14611873584683,0.631634000000304,
-1.08605775708008,0.33327287109375,-0.0200634099121118,1.13621952048809,0.634591,
-1.06929834545898,0.330878669433594,-0.0775242497558626,1.12200251995603,0.637627000000066,
-1.09802876538086,0.3141192578125,-0.0296402165527372,1.14246077401799,0.640591999999742,
-1.08366355541992,0.318907661132813,-0.0703416447753931,1.13180243181584,0.643519000000197,
-1.09324036206055,0.347638081054688,-0.072735846435549,1.14948563627144,0.646563000000242,
-1.06929834545898,0.335667072753906,-0.0775242497558626,1.12342393807178,0.64950300000055,
-1.07648095043945,0.345243879394531,-0.051188031494144,1.13164693588003,0.652557999999772,
-1.06211574047852,0.357214887695313,-0.0631590397949235,1.12235528531353,0.655514000000039,
-1.04775053051758,0.359609089355469,-0.0847068547363303,1.11097935290727,0.658535000000484,
-1.0573273371582,0.345243879394531,-0.0487938298339863,1.11333520199054,0.661490999999842,
-1.10281716870117,0.330878669433594,-0.0655532414550812,1.15324916168774,0.664445999999771,
-1.10999977368164,0.354820686035156,-0.0535822331542999,1.16656258834301,0.667475000000195,
-1.10042296704102,0.369185895996094,-0.0823126530761744,1.16361690648178,0.670438000000104,
-1.07648095043945,0.350032282714844,-0.0104866032714863,1.13200874751469,0.67345000000023,
-1.09802876538086,0.347638081054688,-0.0535822331542999,1.15299196038524,0.676425000000563,
-1.06211574047852,0.335667072753906,-0.0655532414550812,1.11582232338696,0.679361999999855,
-1.08126935375977,0.352426484375,-0.000909796630862658,1.13725488347991,0.682418000000325,
-1.04056792553711,0.342849677734375,-0.0775242497558626,1.09833397401673,0.685382000000573,
-1.09324036206055,0.318907661132813,-0.0679474431152371,1.14083015413925,0.688436999999794,
-1.07887515209961,0.316513459472656,-0.108648871337893,1.12958264022085,0.69140200000038,
-1.05253893383789,0.335667072753906,-0.0703416447753931,1.10700430801578,0.694362000000183,
-1.09324036206055,0.3141192578125,-0.0847068547363303,1.14062292130497,0.697478000000046,
-1.0740867487793,0.318907661132813,-0.0272460148925813,1.12076169882808,0.700560000000223,
-1.05972153881836,0.280600434570312,-0.1301966862793,1.10394633965366,0.703704000000471,
-1.11478817700195,0.342849677734375,-0.0583706364746117,1.16777810919213,0.706750999999713,
-1.05493313549805,0.345243879394531,-0.0894952580566439,1.11359178240761,0.709694000000127,
-1.06211574047852,0.318907661132813,-0.051188031494144,1.11014060238768,0.712744999999813,
-1.09324036206055,0.340455476074219,-0.072735846435549,1.14733383275483,0.715691999999763,
-1.09324036206055,0.342849677734375,-0.103860468017581,1.15043791122236,0.718780000000152,
-1.09324036206055,0.29496564453125,-0.0104866032714863,1.13238208637376,0.721728999999868,
-1.04296212719727,0.297359846191406,-0.0559764348144558,1.08596788080926,0.724697999999989,
-1.06211574047852,0.33327287109375,-0.0918894597167998,1.11696209675456,0.727748000000247,
-1.08605775708008,0.302148249511719,-0.0463996281738304,1.12825880980007,0.730728000000454,
-1.05493313549805,0.29496564453125,-0.0487938298339863,1.09648050126546,0.733788999999888,
-1.06929834545898,0.328484467773438,-0.0655532414550812,1.1205347940314,0.736780000000181,
-1.07648095043945,0.354820686035156,-0.000909796630862658,1.1334503886926,0.739767000000029,
-1.0573273371582,0.328484467773438,-0.0655532414550812,1.10911693294067,0.742833000000246,
-1.07169254711914,0.381156904296875,-0.0152750065917999,1.13755827414259,0.74578399999973,
-1.03099111889648,0.309330854492188,-0.0894952580566439,1.08011002495066,0.748851000000286,
-1.07169254711914,0.309330854492188,-0.115831476318363,1.12143988871347,0.751806000000215,
-1.08126935375977,0.354820686035156,0.00387860668945095,1.13800535069409,0.75485099999969,
-1.09084616040039,0.321301862792969,-0.0368228215332049,1.13777684669718,0.757810000000063,
-1.04775053051758,0.318907661132813,-0.0104866032714863,1.09525943930068,0.760766000000331,
-1.08366355541992,0.362003291015625,0.0230322199707,1.14276137806992,0.763805999999931,
-1.04296212719727,0.306936652832031,-0.0823126530761744,1.09030063765735,0.766754000000219,
-1.0740867487793,0.304542451171875,0.0206380183105441,1.1166173813213,0.769804999999906,
-1.08845195874023,0.359609089355469,-0.0320344182128931,1.14676613465116,0.772770000000492,
-1.11478817700195,0.311725056152344,-0.0918894597167998,1.1611928621136,0.775722999999743,
-1.05972153881836,0.321301862792969,-0.0224576115722677,1.10758700389058,0.778777000000446,
-1.07648095043945,0.362003291015625,-0.0104866032714863,1.13576740057696,0.781735000000481,
-1.07887515209961,0.316513459472656,-0.0248518132324236,1.12461992533755,0.784789999999703,
-1.07648095043945,0.311725056152344,0.00148440502929503,1.12070779008201,0.78775399999995,
-1.0740867487793,0.347638081054688,-0.0535822331542999,1.13021486232153,0.790695000000596,
-1.08126935375977,0.29496564453125,-0.0607648381347676,1.12242617235493,0.793752999999924,
-1.0740867487793,0.323696064453125,-0.072735846435549,1.12415834712127,0.796734999999899,
-1.06450994213867,0.309330854492188,-0.0368228215332049,1.1091541437684,0.799780000000283,
-1.08845195874023,0.373974299316406,-0.0751300480957049,1.1533555250492,0.802746999999727,
-1.0740867487793,0.340455476074219,-0.0559764348144558,1.12814256029402,0.805696999999782,
-1.0573273371582,0.292571442871094,-0.0655532414550812,1.09901609385441,0.808745000000272,
-1.09324036206055,0.362003291015625,-0.0487938298339863,1.15264986434489,0.811709000000519,
-1.05253893383789,0.318907661132813,-0.0703416447753931,1.10203822554552,0.814755000000332,
-1.08366355541992,0.323696064453125,-0.0799184514160185,1.13379574984409,0.817704000000049,
-1.06690414379883,0.330878669433594,-0.0152750065917999,1.1171385195076,0.820668000000296,
-1.12197078198242,0.311725056152344,-0.0559764348144558,1.16581486845466,0.823715999999877,
-1.06211574047852,0.3141192578125,-0.0248518132324236,1.10787109670839,0.826686999999765,
-1.06690414379883,0.347638081054688,-0.0631590397949235,1.12388867409647,0.829732000000149,
-1.08366355541992,0.306936652832031,-0.101466266357424,1.13085463849497,0.832698000000164,
-1.05014473217773,0.316513459472656,-0.0416112248535185,1.09759565532203,0.835678000000371,
-1.04775053051758,0.306936652832031,-0.0368228215332049,1.0924043222348,0.838813999999729,
-1.08845195874023,0.27581203125,-0.0535822331542999,1.12413121955469,0.841883000000053,
-1.0740867487793,0.340455476074219,-0.034428619873049,1.12727884969007,0.845038000000386,
-1.07169254711914,0.350032282714844,-0.0440054265136745,1.12826592258028,0.848031000000447,
-1.08366355541992,0.335667072753906,-0.0607648381347676,1.1360860225485,0.851064000000406,
-1.09324036206055,0.381156904296875,-0.120619879638674,1.16404648974837,0.854033999999956,
-1.12197078198242,0.309330854492188,-0.0631590397949235,1.16554411219436,0.856991999999991,
-1.06690414379883,0.338061274414063,-0.0463996281738304,1.12014409912664,0.860067999999956,
-1.08126935375977,0.271023627929687,-0.0296402165527372,1.11511244487429,0.863033999999971,
-1.10042296704102,0.29496564453125,0.0421858332519509,1.14005047360731,0.866062000000056,
-1.06690414379883,0.335667072753906,-0.0368228215332049,1.11906780669089,0.869045999999798,
-1.1507012019043,0.3141192578125,-0.00569819995117449,1.19281877654376,0.871992000000319,
-1.08605775708008,0.328484467773438,-0.072735846435549,1.13697581356813,0.875074999999924,
-1.10042296704102,0.335667072753906,0.00387860668945095,1.15048604238051,0.87806400000045,
-1.05972153881836,0.328484467773438,-0.0631590397949235,1.11126092782558,0.881134000000202,
-1.07648095043945,0.369185895996094,-0.0535822331542999,1.13928947953155,0.88411300000007,
-1.08605775708008,0.326090266113281,-0.051188031494144,1.1351107998499,0.887072999999873,
-1.10521137036133,0.345243879394531,-0.0487938298339863,1.15890739373999,0.890120000000024,
-1.03099111889648,0.328484467773438,-0.0894952580566439,1.08575049344978,0.893108000000211,
-1.05493313549805,0.357214887695313,0.00866701000976278,1.1138049710005,0.896150000000489,
-1.08366355541992,0.369185895996094,-0.120619879638674,1.1511620574497,0.899113000000398,
-1.07648095043945,0.330878669433594,-0.0679474431152371,1.12823259373725,0.902065000000221,
-1.03817372387695,0.352426484375,-0.0918894597167998,1.10020579013406,0.905120000000352,
-1.09084616040039,0.302148249511719,-0.0966778630371117,1.13603940052478,0.908102999999755,
-1.04296212719727,0.321301862792969,-0.0080924016113304,1.09136170574467,0.911154000000352,
-1.07648095043945,0.330878669433594,-0.0128808049316422,1.12625833878416,0.914115999999922,
-1.10521137036133,0.316513459472656,-0.0463996281738304,1.15057632024042,0.917072000000189,
-1.08605775708008,0.316513459472656,-0.0392170231933626,1.13191881186298,0.920119000000341,
-1.07648095043945,0.381156904296875,-0.0416112248535185,1.14272626485349,0.923083000000588,
-1.08845195874023,0.342849677734375,-0.0631590397949235,1.14291847142123,0.926132000000507,
-1.07169254711914,0.362003291015625,-0.0655532414550812,1.13307922305641,0.929108999999698,
-1.10521137036133,0.335667072753906,-0.0679474431152371,1.1570572206823,0.932066999999734,
-1.07887515209961,0.323696064453125,0.0134554133300764,1.12646872309367,0.935129000000416,
-1.08366355541992,0.362003291015625,-0.0966778630371117,1.14661226805442,0.938079000000471,
-1.0573273371582,0.364397492675781,-0.0320344182128931,1.11881760556433,0.941131999999925,
-1.0956345637207,0.299754047851563,-0.0272460148925813,1.13622617983849,0.944102000000385,
-1.05493313549805,0.323696064453125,-0.0655532414550812,1.10542312712348,0.947145000000091,
-1.08126935375977,0.345243879394531,-0.0128808049316422,1.13512231357468,0.950108,
-1.05493313549805,0.326090266113281,-0.0368228215332049,1.10479622655548,0.953072000000247,
-1.06211574047852,0.338061274414063,-0.0463996281738304,1.11558424017434,0.956113000000187,
-1.07648095043945,0.321301862792969,-0.0966778630371117,1.12756052294087,0.95908800000052,
-1.07169254711914,0.299754047851563,-0.0248518132324236,1.11310153057798,0.962110000000393,
-1.08366355541992,0.352426484375,-0.0751300480957049,1.1420051017229,0.965089999999691,
-1.08845195874023,0.340455476074219,-0.0751300480957049,1.14292699758175,0.96803700000055,
-1.06690414379883,0.340455476074219,-0.0894952580566439,1.12347843079369,0.971091000000342,
-1.08366355541992,0.318907661132813,-0.101466266357424,1.13416233444911,0.974051000000145,
-1.04296212719727,0.350032282714844,-0.0272460148925813,1.10047032810428,0.977174000000559,
-1.06211574047852,0.299754047851563,-0.051188031494144,1.10479072676406,0.980225000000246,
-1.0956345637207,0.323696064453125,-0.0535822331542999,1.14370682216716,0.983294999999998,
-1.10281716870117,0.366791694335938,-0.00569819995117449,1.16222817213256,0.986418000000413,
-1.05253893383789,0.345243879394531,-0.0224576115722677,1.10794218613677,0.989402000000155,
-1.08126935375977,0.316513459472656,0.00627280834960686,1.12666034523809,0.992441999999755,
-1.04775053051758,0.326090266113281,-0.0320344182128931,1.09778970654854,0.995421999999962,
-1.08366355541992,0.342849677734375,-0.0128808049316422,1.13667872242054,0.998403000000508,
-1.06690414379883,0.3141192578125,-0.0631590397949235,1.11397685096756,1.00145900000007,
-1.05014473217773,0.3141192578125,-0.000909796630862658,1.09611846731055,1.00443600000017,
-1.05014473217773,0.366791694335938,0.0278206232910136,1.11270575294404,1.00749199999973,
-1.09084616040039,0.328484467773438,-0.0296402165527372,1.13961657309201,1.01046099999985,
-1.06450994213867,0.330878669433594,-0.0751300480957049,1.1172764362167,1.0134479999997,
-1.04535632885742,0.321301862792969,-0.051188031494144,1.09481731621524,1.01650599999994,
-1.06211574047852,0.330878669433594,-0.0224576115722677,1.11268813437364,1.01952299999994,
