X,Y,Z,Magnitude,Seconds,
-0.030214824951172,0.00766144531249998,0.039791631591795,0.0505470803889159,0.0,
-0.0134554133300782,-0.0162805712890625,0.0493684382324187,0.0536968140850985,0.00380800000039017,
-0.0158496149902345,0.00766144531249998,0.0637336481933577,0.0661202385934124,0.0075780000006489,
0.00330399829101552,-0.0234631762695313,0.00387860668945095,0.0240100111456364,0.0113260000007358,
0.00809240161132801,0.00287304199218748,0.00148440502929503,0.00871463093991325,0.0150780000003579,
0.0200634099121093,0.00766144531249998,-0.0152750065917999,0.0263545819158128,0.0188440000001719,
0.00330399829101552,0.02681505859375,0.0182438166503882,0.0326006229705241,0.0228560000005018,
-0.00387860668945322,-0.0330399829101563,-0.0320344182128931,0.0461832005256611,0.0266960000008112,
0.0535822331542968,-0.0426167895507813,-0.0176692082519558,0.0707067704089784,0.0304960000003121,
-0.00866701000976572,-0.0282515795898438,-0.00330399829101857,0.0297352520846505,0.0342900000005102,
0.00569819995117177,-0.021068974609375,0.0589452448730441,0.0628562890005221,0.0381300000008196,
-0.0230322199707032,-0.021068974609375,0.0589452448730441,0.066700275419315,0.0419640000000072,
-0.020638018310547,0.00047884033203123,0.0182438166503882,0.0275498445335547,0.0458120000002964,
-0.00387860668945322,0.00047884033203123,0.0541568415527323,0.054297664451455,0.0496880000000601,
0.00809240161132801,0.0124498486328125,0.0565510432128882,0.0584679928104678,0.0535640000007334,
0.000909796630859272,-0.04979939453125,0.0134554133300764,0.0515931737100153,0.0573900000008507,
-0.011061211669922,-0.0258573779296875,-0.00569819995117449,0.028695363383116,0.0611330000001544,
-0.00148440502929698,0.0100556469726562,0.0661278498535136,0.0669044992551213,0.0648900000005597,
0.0200634099121093,0.00047884033203123,0.0254264216308577,0.0323924778662432,0.0686920000007376,
-0.00387860668945322,0.00526724365234373,0.0517626398925763,0.0521743072229346,0.0724220000001878,
-0.011061211669922,-0.0450109912109375,-0.0248518132324236,0.052592322199511,0.0762670000003709,
-0.0230322199707032,0.0196324536132812,0.0373974299316373,0.0481090860144757,0.0800150000004578,
-0.00148440502929698,-0.00909796630859377,0.0661278498535136,0.0667672747346494,0.0837220000003072,
-0.020638018310547,-0.0426167895507813,-0.00330399829101857,0.0474661453681369,0.0874380000004749,
0.000909796630859272,-0.01149216796875,0.0254264216308577,0.0279177465330144,0.0912810000008903,
-0.020638018310547,0.00766144531249998,0.0302148249511696,0.0373839697048443,0.0952770000003511,
-0.011061211669922,0.00766144531249998,-0.0296402165527372,0.0325513530467844,0.0991070000000036,
-0.020638018310547,0.0100556469726562,0.00148440502929503,0.0230053753309125,0.102939000000333,
0.00809240161132801,-0.0186747729492188,-0.0104866032714863,0.0228954789580267,0.106732000000193,
-0.0134554133300782,0.00287304199218748,0.0230322199707,0.026828821721254,0.110565000000861,
0.000909796630859272,0.0220266552734375,0.0134554133300764,0.0258272999039306,0.114422000000559,
-0.0350032282714844,-0.0138863696289063,-0.0655532414550812,0.075599502089395,0.118165000000772,
-0.011061211669922,0.017238251953125,0.00866701000976278,0.0222401617915779,0.122029000000111,
-0.0134554133300782,0.00047884033203123,0.102040874755858,0.102925300858863,0.125828000000183,
-0.0326090266113282,-0.040222587890625,0.00387860668945095,0.0519254155785856,0.129611000000295,
0.0440054265136718,0.0100556469726562,-0.0248518132324236,0.0515286931682545,0.133362000000488,
-0.020638018310547,-0.01149216796875,0.0110612116699187,0.0260834838166833,0.137080000000424,
-0.00627280834960947,0.00047884033203123,-0.0128808049316422,0.0143350112780398,0.140820000000531,
0.0535822331542968,-0.0450109912109375,0.0350032282714814,0.0782449425139922,0.144563000000744,
0.00809240161132801,-0.01149216796875,-0.0104866032714863,0.0175364117377112,0.148379000000205,
-0.0373974299316407,-0.01149216796875,0.0158496149902323,0.0422119412660983,0.152108000000226,
-0.0182438166503907,0.0196324536132812,-0.0152750065917999,0.030847948185094,0.155816000000414,
0.0104866032714843,-0.00670376464843752,-0.0583706364746117,0.0596828326328972,0.159532000000581,
0.0200634099121093,-0.0713472094726563,0.0206380183105441,0.0769343389951637,0.163452000000689,
-0.0326090266113282,-0.00670376464843752,0.0182438166503882,0.0379621643610178,0.167318000000705,
0.0272460148925781,0.00526724365234373,-0.000909796630862658,0.0277653905632402,0.171161000000211,
-0.0182438166503907,-0.01149216796875,0.039791631591795,0.0452579353852137,0.174968000000263,
0.0104866032714843,0.00287304199218748,-0.0248518132324236,0.0271262942438078,0.178734000000077,
0.00330399829101552,0.00287304199218748,0.00148440502929503,0.00462322758329097,0.182566000000406,
0.0296402165527343,-0.00191536132812502,0.0134554133300764,0.0326076554537958,0.186382000000776,
0.00330399829101552,-0.0138863696289063,0.0134554133300764,0.0196162130407691,0.190165000000889,
0.0104866032714843,0.00047884033203123,0.0110612116699187,0.0152495422830926,0.193962000000283,
0.0128808049316406,-0.00909796630859377,-0.0152750065917999,0.0219548161690963,0.197852000000239,
-0.0278206232910157,0.0316034619140625,0.00627280834960686,0.0425689324489715,0.201638000000457,
-0.0134554133300782,-0.00670376464843752,0.00866701000976278,0.0173523966890518,0.205390000000079,
0.00569819995117177,-0.0234631762695313,0.0302148249511696,0.0386771996164206,0.209155000000464,
-0.0182438166503907,-0.0354341845703125,-0.0152750065917999,0.0426818943876157,0.212884000000486,
-0.0350032282714844,-0.0234631762695313,0.00387860668945095,0.0423177293806295,0.216601000000082,
-0.030214824951172,-0.0162805712890625,0.0517626398925763,0.0621076769568525,0.22041100000024,
-0.020638018310547,-0.021068974609375,0.0469742365722627,0.0554653801251183,0.2241410000006,
-0.00627280834960947,-0.00909796630859377,0.0517626398925763,0.0529291224581683,0.227856000000429,
0.00330399829101552,-0.00430956298828127,0.00148440502929503,0.00562958223565423,0.231642000000647,
-0.00627280834960947,-0.00191536132812502,0.00866701000976278,0.0108689372119603,0.235631000000467,
-0.0134554133300782,-0.0330399829101563,0.0661278498535136,0.0751370823550895,0.239458000000013,
-0.0158496149902345,-0.00670376464843752,0.0541568415527323,0.0568252958000929,0.243332000000009,
0.0104866032714843,-0.00909796630859377,0.0182438166503882,0.0229255029410217,0.247154000000592,
-0.0230322199707032,-0.0258573779296875,-0.034428619873049,0.0488304926919692,0.250967000000855,
-0.011061211669922,-0.00670376464843752,0.078098858154295,0.0791626332878912,0.254839000000175,
-0.0254264216308595,-0.00191536132812502,0.0613394465332,0.066428150862167,0.258671000000504,
-0.00627280834960947,-0.0258573779296875,0.0757046564941373,0.0802442965754261,0.262478000000556,
-0.0373974299316407,-0.00430956298828127,0.0517626398925763,0.0640039919637086,0.266308000000208,
0.000909796630859272,0.00526724365234373,-0.0320344182128931,0.0324773080140768,0.270269000000553,
-0.020638018310547,-0.0330399829101563,0.00148440502929503,0.0389842497527,0.274042000000009,
-0.00387860668945322,-0.0378283862304688,0.0685220515136695,0.0783664592685861,0.277825000000121,
-0.0421858332519532,0.093852705078125,0.118800286376951,0.157167053865906,0.281599000000824,
0.0344286198730468,-0.107260234375,0.123588689697263,0.167225153507566,0.285354000000552,
-0.0469742365722657,-0.097683427734375,-0.142167694580081,0.178774395084138,0.288997999999992,
-0.0134554133300782,0.251870014648437,0.121194488037107,0.279835052052926,0.29281600000013,
0.0200634099121093,0.0675164868164062,0.0326090266113255,0.0776167831455892,0.296575000000303,
0.0152750065917968,-0.322738383789063,0.0110612116699187,0.323288942899015,0.300300000000789,
-0.068522051513672,0.151313544921875,0.0589452448730441,0.176254368211428,0.303985000000466,
-0.0900698664550782,0.259052619628906,0.0541568415527323,0.279560018720135,0.307129000000714,
0.0272460148925781,-0.040222587890625,-0.0799184514160185,0.0935262571734812,0.310082000000875,
0.0200634099121093,-0.291613762207031,0.0421858332519509,0.295331629279699,0.313108000000284,
0.106254669677734,-0.119231242675781,-0.000909796630862658,0.159709022250607,0.316058000000339,
-0.0613394465332032,0.244687409667969,0.0852814631347627,0.266284404547893,0.319116000000577,
-0.137953899658203,0.129765729980469,0.0613394465332,0.199080262229255,0.322104000000763,
0.0583706364746093,-0.248518132324219,-0.0440054265136745,0.259046078640498,0.325040000000627,
0.134985089599609,-0.255700737304688,0.0302148249511696,0.290717693165045,0.328052000000753,
-0.068522051513672,0.297359846191406,0.00387860668945095,0.305177314459104,0.331037000000833,
-0.130771294677734,0.220745393066406,0.0613394465332,0.26380331266444,0.334074000000328,
0.0607648381347655,-0.31794998046875,-0.0080924016113304,0.323805562950147,0.33705000000009,
0.0823126530761717,-0.243729729003906,0.0278206232910136,0.258753822652065,0.340030000000297,
-0.118800286376953,0.227927998046875,0.0757046564941373,0.267947523503759,0.343062000000828,
0.00809240161132801,0.242293208007812,0.118800286376951,0.269972209039748,0.346044000000802,
0.0799184514160155,-0.162326872558594,-0.0176692082519558,0.181794316059768,0.349054000000251,
-0.0757046564941407,-0.315555778808594,-0.0272460148925813,0.325651638844211,0.352013000000625,
-0.097252471435547,0.0770932934570312,-0.0248518132324236,0.126566313517117,0.354943000000276,
0.0224576115722656,0.304542451171875,0.0302148249511696,0.306860529443157,0.357996000000639,
0.075130048095703,-0.0689530078125,0.0278206232910136,0.105702547242504,0.36095800000021,
-0.0421858332519532,-0.329920988769531,-0.0703416447753931,0.339963895652957,0.36397500000021,
-0.104435076416016,-0.0330399829101563,0.00387860668945095,0.109605516496999,0.366915000000517,
0.0152750065917968,0.302148249511719,-0.0152750065917999,0.302919488207271,0.369963000000098,
0.0966778630371094,0.0627280834960937,0.0637336481933577,0.131694341459873,0.372958000000835,
-0.0230322199707032,-0.31794998046875,-0.0320344182128931,0.320388634609744,0.375876000000062,
-0.140348101318359,-0.0641646044921875,-0.0152750065917999,0.155074213974106,0.378884000000653,
-0.0373974299316407,0.25665841796875,-0.0152750065917999,0.259818084640183,0.381855000000542,
0.0775242497558593,0.0100556469726562,0.00148440502929503,0.0781877790612991,0.384895000000142,
0.0535822331542968,-0.255700737304688,0.00627280834960686,0.261329812483293,0.387848000000304,
-0.0517626398925782,0.0148440502929687,0.0206380183105441,0.0576684013783569,0.390778000000864,
-0.0182438166503907,0.146525141601562,-0.00330399829101857,0.147693501455,0.393816000000697,
0.0583706364746093,-0.059376201171875,-0.0248518132324236,0.0868923304382684,0.396780000000035,
0.0823126530761717,-0.109654436035156,-0.0248518132324236,0.139345185849981,0.399805000000015,
-0.0158496149902345,0.045968671875,0.0733104548339814,0.0879701760669791,0.40277900000001,
-0.0709162531738282,0.00287304199218748,0.00866701000976278,0.0715016531068527,0.405726000000868,
0.0272460148925781,-0.0761356127929688,0.0828872614746068,0.115798423899668,0.408739000000423,
0.00809240161132801,-0.0617704028320313,-0.00569819995117449,0.0625582857226284,0.411710000000312,
0.0128808049316406,0.0339976635742187,-0.034428619873049,0.0500708111633479,0.414754000000357,
-0.0350032282714844,0.0100556469726562,0.0757046564941373,0.0840091485515694,0.417734000000564,
-0.0158496149902345,-0.078529814453125,-0.000909796630862658,0.0801184734208686,0.420631000000867,
-0.0158496149902345,0.00526724365234373,0.0373974299316373,0.040957562385029,0.423692000000301,
-0.020638018310547,0.0339976635742187,0.0254264216308577,0.0472045744101393,0.426671000000169,
0.0392170231933593,-0.040222587890625,0.0302148249511696,0.0637868883987717,0.429726000000301,
-0.00627280834960947,-0.0521935961914063,0.0421858332519509,0.0674029979685171,0.432677000000695,
-0.0469742365722657,-0.0234631762695313,0.0517626398925763,0.0737324245556242,0.435610000000452,
-0.0134554133300782,0.00526724365234373,0.111617681396481,0.112549095082559,0.438748000000487,
0.0176692082519531,-0.03064578125,0.078098858154295,0.0857367860004002,0.441821000000346,
-0.0182438166503907,0.00526724365234373,-0.0152750065917999,0.0243701975380948,0.444921000000249,
-0.020638018310547,0.0531512768554687,0.039791631591795,0.0695295618847861,0.447950000000674,
-0.020638018310547,-0.04979939453125,0.0158496149902323,0.0561882353416101,0.450884000000769,
0.000909796630859272,0.00526724365234373,0.039791631591795,0.0401490414622792,0.453928000000815,
-0.0326090266113282,0.0124498486328125,0.0373974299316373,0.0511557925655539,0.456879000000299,
-0.011061211669922,0.0100556469726562,0.0158496149902323,0.0217870772473984,0.459946000000855,
-0.0421858332519532,-0.01149216796875,0.00627280834960686,0.044170834001346,0.462897000000339,
-0.0373974299316407,-0.0378283862304688,0.0469742365722627,0.0709657203996437,0.465951000000132,
-0.00148440502929698,0.02681505859375,-0.0152750065917999,0.0308962239125881,0.468965000000026,
0.0104866032714843,-0.0450109912109375,0.0302148249511696,0.055216789337976,0.471928000000844,
-0.030214824951172,-0.0162805712890625,0.0302148249511696,0.0457266694081039,0.474966000000677,
-0.00627280834960947,0.0244208569335937,0.0278206232910136,0.0375461510445808,0.477975000000697,
-0.0326090266113282,-0.0282515795898438,0.039791631591795,0.0586930516381345,0.481022000000848,
-0.0373974299316407,-0.03064578125,0.0206380183105441,0.052570519054896,0.484000000000378,
0.0344286198730468,0.0100556469726562,-0.0392170231933626,0.0531452802283532,0.486966000000393,
0.0176692082519531,0.0220266552734375,0.0517626398925763,0.0589639326320275,0.490029000000504,
-0.011061211669922,-0.0426167895507813,-0.0080924016113304,0.0447663726368517,0.492999000000054,
-0.0182438166503907,-0.0450109912109375,-0.0128808049316422,0.0502468039924052,0.496028000000479,
-0.0326090266113282,-0.059376201171875,0.0637336481933577,0.0930099983559616,0.498996000000261,
-0.00866701000976572,0.0148440502929687,-0.0152750065917999,0.0229954064540963,0.501947000000655,
0.00569819995117177,0.00766144531249998,-0.0487938298339863,0.0497192624324614,0.504998000000342,
-0.0182438166503907,0.00047884033203123,-0.0224576115722677,0.0289380450543485,0.507978000000548,
-0.0565510432128907,-0.00191536132812502,0.00148440502929503,0.0566029376956224,0.511014000000614,
0.0152750065917968,-0.0138863696289063,0.0230322199707,0.0309296014301633,0.513988000000609,
-0.00148440502929698,-0.00430956298828127,0.0828872614746068,0.0830124924707167,0.516925000000811,
-0.0445800349121095,-0.01149216796875,0.0302148249511696,0.0550670962028749,0.519943000000239,
-0.020638018310547,-0.0521935961914063,-0.034428619873049,0.0658439758029613,0.522896000000401,
-0.0134554133300782,-0.00670376464843752,0.0421858332519509,0.0447842956348126,0.525920000000042,
-0.0134554133300782,0.045968671875,0.0230322199707,0.0531474373663808,0.528904000000693,
-0.030214824951172,0.00047884033203123,0.0350032282714814,0.0462427391524224,0.53186900000037,
-0.00148440502929698,-0.0474051928710938,0.0709162531738254,0.08531453998968,0.534923000000163,
-0.0373974299316407,-0.01149216796875,-0.0368228215332049,0.053726696118226,0.537880000000769,
-0.0373974299316407,0.00526724365234373,-0.0248518132324236,0.0452097803812891,0.540926000000582,
-0.00866701000976572,-0.0234631762695313,0.0421858332519509,0.0490436767619016,0.543900000000576,
0.0128808049316406,-0.0689530078125,0.0565510432128882,0.0901024578496259,0.546871000000465,
-0.0278206232910157,-0.059376201171875,0.00627280834960686,0.0658700878281977,0.549904000000424,
-0.011061211669922,0.00047884033203123,0.0541568415527323,0.055276967885713,0.552883000000293,
-0.0421858332519532,0.0100556469726562,-0.000909796630862658,0.043377278535079,0.555916000000252,
0.0104866032714843,-0.0450109912109375,0.00148440502929503,0.0462402599068776,0.558894000000691,
0.0128808049316406,-0.00670376464843752,-0.0416112248535185,0.0440720958199028,0.561896000000161,
-0.020638018310547,-0.00670376464843752,0.0110612116699187,0.0243560806341016,0.564863000000514,
-0.020638018310547,-0.01149216796875,0.0278206232910136,0.0364963670069903,0.56778900000063,
0.0296402165527343,0.017238251953125,0.00148440502929503,0.0343205947789865,0.570840000000317,
0.0272460148925781,-0.04979939453125,0.0373974299316373,0.0679771490186033,0.573812000000544,
-0.0134554133300782,0.02681505859375,0.0469742365722627,0.0557375494331819,0.57686300000023,
-0.0445800349121095,-0.00670376464843752,0.0206380183105441,0.0495807197710249,0.579909000000043,
0.0392170231933593,-0.00670376464843752,-0.0200634099121118,0.0445584535852799,0.582945000000109,
0.0296402165527343,0.02681505859375,-0.0176692082519558,0.0437011524439598,0.586082000000715,
-0.0230322199707032,-0.0234631762695313,0.0421858332519509,0.0534850289762973,0.589054000000033,
0.0272460148925781,-0.0665588061523438,0.0134554133300764,0.0731673981485952,0.592102000000523,
0.0607648381347655,0.00047884033203123,-0.0152750065917999,0.0626571677303352,0.595084000000497,
-0.020638018310547,0.00047884033203123,0.00627280834960686,0.0215755698057073,0.598056000000724,
-0.00627280834960947,-0.03064578125,-0.0751300480957049,0.081382038312374,0.601087000000007,
-0.0230322199707032,0.00766144531249998,0.0517626398925763,0.0571712496776468,0.60407000000032,
0.00809240161132801,-0.0234631762695313,-0.051188031494144,0.056887803374182,0.607091000000764,
-0.020638018310547,-0.0234631762695313,-0.0128808049316422,0.0337988694504504,0.610057000000779,
-0.0445800349121095,0.017238251953125,0.0421858332519509,0.0637509323094629,0.613024000000223,
0.00569819995117177,0.00047884033203123,0.0134554133300764,0.0146200861362138,0.616084000000228,
-0.0278206232910157,-0.00191536132812502,0.0350032282714814,0.0447535661008518,0.619055000000117,
-0.00866701000976572,-0.0186747729492188,0.0326090266113255,0.038564398397387,0.622100000000501,
-0.0326090266113282,0.017238251953125,-0.00330399829101857,0.0370327200141278,0.625059000000874,
-0.00148440502929698,-0.0138863696289063,-0.0440054265136745,0.0461683038719424,0.627999000000273,
-0.00866701000976572,0.017238251953125,-0.00330399829101857,0.0195752598352065,0.631037000000106,
-0.00148440502929698,-0.0138863696289063,-0.00330399829101857,0.0143509973335886,0.633986000000732,
-0.0445800349121095,-0.00670376464843752,0.0445800349121068,0.063401100037706,0.637012000000141,
-0.0134554133300782,0.00766144531249998,0.00148440502929503,0.0155547211627425,0.639986000000135,
0.00809240161132801,-0.0258573779296875,0.0110612116699187,0.0292650194061863,0.642948000000615,
0.0487938298339843,-0.0282515795898438,0.0158496149902323,0.0585679082307682,0.64597700000013,
-0.0254264216308595,-0.00670376464843752,0.0469742365722627,0.0538332822606869,0.648935000000165,
0.00809240161132801,-0.0545877978515625,-0.000909796630862658,0.0551918686767499,0.651991000000635,
0.0320344182128905,-0.01149216796875,-0.0296402165527372,0.0451311013842283,0.654952000000776,
0.0176692082519531,0.00047884033203123,0.0685220515136695,0.0707651167734248,0.658004000000801,
0.00330399829101552,-0.021068974609375,0.0373974299316373,0.0430509681806257,0.660965000000033,
-0.030214824951172,0.00047884033203123,0.0517626398925763,0.0599377662541913,0.663924000000407,
0.00569819995117177,-0.01149216796875,0.0421858332519509,0.0440929011799735,0.66696900000079,
-0.0134554133300782,0.0100556469726562,0.0182438166503882,0.0247992142999515,0.669936000000234,
0.0248518132324218,0.00766144531249998,0.0565510432128882,0.0622441230453249,0.672990000000027,
-0.00387860668945322,-0.0234631762695313,-0.0392170231933626,0.0458643558622086,0.675939000000653,
0.0176692082519531,-0.00670376464843752,0.0182438166503882,0.0262674366218995,0.678900000000795,
-0.00627280834960947,0.0220266552734375,0.0254264216308577,0.0342202364701931,0.681945000000269,
0.00569819995117177,-0.00430956298828127,0.039791631591795,0.040427908189401,0.684920000000602,
-0.020638018310547,-0.0426167895507813,0.0134554133300764,0.0492256711410342,0.6879540000009,
0.0272460148925781,-0.0234631762695313,0.00148440502929503,0.0359870730467577,0.690929000000324,
-0.0278206232910157,-0.0138863696289063,0.0445800349121068,0.0543525331013733,0.693870000000061,
-0.011061211669922,0.0220266552734375,0.0302148249511696,0.0389930710892524,0.696920000000318,
0.0128808049316406,-0.0330399829101563,0.0254264216308577,0.0436355190566188,0.699900000000525,
-0.0230322199707032,-0.0282515795898438,-0.0176692082519558,0.0405072317784259,0.702907000000778,
-0.0326090266113282,-0.01149216796875,-0.0104866032714863,0.0361301451607079,0.705854000000727,
0.055976434814453,-0.0186747729492188,-0.0224576115722677,0.0631383616890115,0.708792000000358,
0.00330399829101552,-0.0162805712890625,0.0373974299316373,0.0409211579955529,0.711832000000868,
-0.0373974299316407,-0.0162805712890625,0.00866701000976278,0.0416982233374463,0.714784000000691,
-0.00148440502929698,-0.0162805712890625,-0.00569819995117449,0.017312710431149,0.71788800000013,
0.00809240161132801,0.00047884033203123,0.0206380183105441,0.0221730478664743,0.720984000000499,
0.0128808049316406,-0.021068974609375,0.0589452448730441,0.0639089877867002,0.724041000000398,
-0.011061211669922,0.0148440502929687,0.0254264216308577,0.0314515365229928,0.727128000000448,
-0.0350032282714844,-0.0138863696289063,-0.0128808049316422,0.0397991505761527,0.730072000000291,
-0.00627280834960947,-0.0162805712890625,0.0541568415527323,0.0568978788098197,0.733088000000862,
0.000909796630859272,-0.00909796630859377,0.0326090266113255,0.0338666404799762,0.736062000000857,
-0.0182438166503907,0.00766144531249998,0.0589452448730441,0.0621777812678503,0.739054000000579,
-0.00866701000976572,0.017238251953125,0.00627280834960686,0.0202884823853263,0.742090000000644,
-0.011061211669922,-0.00670376464843752,0.0445800349121068,0.0464184271257991,0.745040000000699,
-0.0421858332519532,0.0196324536132812,0.0206380183105441,0.0509019210032942,0.74810300000081,
0.00330399829101552,-0.0186747729492188,0.0445800349121068,0.0484462904893302,0.751064000000042,
-0.0254264216308595,-0.00670376464843752,0.0493684382324187,0.0559346589416617,0.754108000000087,
0.00809240161132801,0.00287304199218748,0.0110612116699187,0.0140032759643821,0.757100000000719,
-0.00387860668945322,-0.021068974609375,-0.00330399829101857,0.02167629317132,0.760044000000562,
-0.0182438166503907,-0.0234631762695313,0.039791631591795,0.0496662000898529,0.763090000000375,
-0.0182438166503907,-0.0234631762695313,0.0110612116699187,0.0317128978530016,0.766055000000051,
-0.00387860668945322,-0.03064578125,0.0158496149902323,0.0347191272011973,0.769059000000198,
0.0272460148925781,-0.0234631762695313,-0.00330399829101857,0.0361079267320728,0.772029000000657,
0.00569819995117177,-0.00430956298828127,0.0637336481933577,0.0641328287842364,0.774994000000333,
-0.011061211669922,-0.0330399829101563,0.0373974299316373,0.0511131943807268,0.778020000000652,
-0.020638018310547,-0.0354341845703125,-0.0487938298339863,0.0637365441941862,0.780961000000389,
0.00330399829101552,-0.021068974609375,0.00387860668945095,0.0216762931713191,0.784006000000772,
-0.0326090266113282,0.0100556469726562,0.0278206232910136,0.0440278517858581,0.786984000000302,
0.0224576115722656,-0.0521935961914063,0.0613394465332,0.0836124602073258,0.789959000000636,
-0.0421858332519532,-0.0162805712890625,0.0565510432128882,0.0724066434598773,0.792960000000676,
0.00809240161132801,-0.00430956298828127,0.0493684382324187,0.0502125680531988,0.79594200000065,
0.0104866032714843,-0.0138863696289063,-0.00330399829101857,0.0177120443300927,0.798970000000736,
-0.011061211669922,-0.0138863696289063,0.0493684382324187,0.0524635526683579,0.801934000000074,
-0.00387860668945322,-0.03064578125,0.0613394465332,0.068678491533184,0.804867000000741,
-0.0182438166503907,0.00526724365234373,0.0278206232910136,0.0336833457656261,0.807917000000089,
0.00809240161132801,-0.0186747729492188,0.0565510432128882,0.0601020348824384,0.810889000000316,
0.0296402165527343,-0.03064578125,-0.000909796630862658,0.0426442736557368,0.813920000000508,
-0.00866701000976572,0.0148440502929687,-0.00569819995117449,0.0181089031775293,0.816894000000502,
0.0152750065917968,-0.0545877978515625,-0.0224576115722677,0.0609712868339954,0.819854000000305,
0.0104866032714843,0.02681505859375,0.0278206232910136,0.0400375235979979,0.822910000000775,
-0.0230322199707032,-0.00430956298828127,-0.0128808049316422,0.0267389346387593,0.825848000000406,
0.0104866032714843,0.017238251953125,0.0302148249511696,0.0363326550833096,0.828903000000537,
-0.0158496149902345,0.0148440502929687,0.0421858332519509,0.0474468191937063,0.831875000000764,
-0.011061211669922,0.0100556469726562,0.0350032282714814,0.0380616924094416,0.834820000000036,
0.00330399829101552,-0.00191536132812502,0.00627280834960686,0.00734391845782671,0.837855000000673,
-0.0158496149902345,0.017238251953125,0.0134554133300764,0.0270076984139945,0.840824000000794,
0.0104866032714843,-0.0258573779296875,-0.0176692082519558,0.033026864244478,0.843851000000541,
-0.0350032282714844,-0.0234631762695313,0.0278206232910136,0.0504948879628546,0.846812000000682,
-0.00866701000976572,-0.0138863696289063,0.0421858332519509,0.0452503353704853,0.849820000000364,
-0.00627280834960947,-0.0162805712890625,0.00387860668945095,0.0178731283199285,0.852770000000419,
0.0152750065917968,0.00047884033203123,0.0134554133300764,0.0203618089158653,0.85578600000008,
0.0152750065917968,-0.0162805712890625,0.0158496149902323,0.0273786983477352,0.85892000000058,
0.0152750065917968,0.0244208569335937,0.00866701000976278,0.0300802450498632,0.86201600000004,
-0.0182438166503907,0.00047884033203123,-0.034428619873049,0.0389666010886189,0.865116000000853,
0.0104866032714843,0.00526724365234373,-0.0104866032714863,0.015737901767396,0.868118000000322,
-0.0350032282714844,0.00526724365234373,0.0278206232910136,0.0450217383651419,0.871078000000125,
-0.00866701000976572,-0.0426167895507813,0.0110612116699187,0.0448738032456767,0.874113000000762,
-0.00387860668945322,-0.0569819995117188,-0.0320344182128931,0.0654843172709583,0.877059000000372,
0.0104866032714843,-0.021068974609375,-0.0104866032714863,0.0257650807768488,0.880116000000271,
0.00569819995117177,0.0244208569335937,-0.0080924016113304,0.0263502314960163,0.883096000000478,
-0.0350032282714844,0.0100556469726562,-0.0200634099121118,0.0415798321637517,0.886044000000766,
-0.0182438166503907,-0.00430956298828127,0.00627280834960686,0.0197675821413226,0.889076000000387,
0.00330399829101552,0.02681505859375,0.0182438166503882,0.0326006229705241,0.892070000000786,
-0.0182438166503907,-0.0354341845703125,-0.0320344182128931,0.0511333768919537,0.895090000000891,
-0.0613394465332032,-0.03064578125,-0.00569819995117449,0.0688052402953882,0.898063000000548,
-0.00148440502929698,-0.00909796630859377,-0.0296402165527372,0.0310406006149441,0.901013000000603,
0.0152750065917968,-0.0330399829101563,0.0589452448730441,0.0692784828805163,0.904050000000097,
-0.0565510432128907,0.00766144531249998,-0.0416112248535185,0.0706272770716296,0.907019000000219,
-0.0254264216308595,-0.00191536132812502,0.0206380183105441,0.0328039528982997,0.91005000000041,
-0.030214824951172,0.00287304199218748,0.0254264216308577,0.0395941022637082,0.913031000000046,
0.0152750065917968,-0.0234631762695313,0.0278206232910136,0.039469400139032,0.915992000000188,
0.0224576115722656,-0.0426167895507813,0.0757046564941373,0.089731433088086,0.919043000000784,
0.0152750065917968,-0.021068974609375,0.0206380183105441,0.033213782037827,0.92202400000042,
0.0104866032714843,-0.0450109912109375,0.0350032282714814,0.0579757204991023,0.925065000000359,
0.0320344182128905,0.00287304199218748,0.0541568415527323,0.0629874734172994,0.928054000000884,
0.0320344182128905,-0.0162805712890625,-0.0368228215332049,0.0514507642062087,0.930998000000727,
-0.0182438166503907,-0.03064578125,-0.00569819995117449,0.0361174505894241,0.934004000000641,
0.00809240161132801,-0.0378283862304688,-0.0200634099121118,0.0435776799054512,0.937013000000661,
-0.011061211669922,0.017238251953125,0.0350032282714814,0.0405553168330821,0.94007800000054,
-0.0421858332519532,-0.0162805712890625,0.104435076416014,0.11380415947881,0.943030000000363,
0.0416112248535155,0.00766144531249998,-0.0559764348144558,0.0701680342650646,0.946077000000514,
-0.039791631591797,0.0148440502929687,0.0326090266113255,0.0535450127497941,0.949054000000615,
0.00569819995117177,-0.0186747729492188,0.0373974299316373,0.0421874909526524,0.952034000000822,
0.0128808049316406,0.0220266552734375,0.0278206232910136,0.0377501756091587,0.955096000000594,
0.000909796630859272,-0.00670376464843752,-0.0559764348144558,0.0563837693393071,0.95804600000065,
0.0104866032714843,-0.00191536132812502,-0.0224576115722677,0.024859239222503,0.961059000000205,
0.0104866032714843,-0.0138863696289063,0.0230322199707,0.028866646262128,0.96404000000075,
-0.0326090266113282,0.00766144531249998,0.0110612116699187,0.0352760083402514,0.966996000000108,
-0.00627280834960947,0.0100556469726562,-0.0104866032714863,0.0158250753174564,0.970033000000512,
-0.00866701000976572,-0.021068974609375,0.0493684382324187,0.0543715131949443,0.973004000000401,
-0.0254264216308595,-0.00909796630859377,0.0158496149902323,0.0313127163184726,0.976024000000507,
-0.00627280834960947,0.00526724365234373,0.0685220515136695,0.0690098799008234,0.979001000000608,
0.00569819995117177,-0.03064578125,0.0685220515136695,0.0752788478574717,0.981958000000304,
0.0152750065917968,-0.0186747729492188,-0.0080924016113304,0.0254471989602662,0.984981000000516,
0.000909796630859272,-0.0354341845703125,0.0254264216308577,0.0436223805290661,0.987962000000152,
0.036822821533203,-0.0138863696289063,-0.0176692082519558,0.0431387571377261,0.990985000000364,
-0.00627280834960947,0.00526724365234373,-0.0368228215332049,0.0377228334825255,0.993950000000041,
0.0104866032714843,-0.00430956298828127,-0.00569819995117449,0.0126889977542371,0.996981000000233,
-0.0373974299316407,0.017238251953125,0.0469742365722627,0.0624684240031578,1.00013500000023,
0.00809240161132801,-0.0474051928710938,0.0900698664550763,0.102104456896944,1.00321900000017,
-0.00627280834960947,-0.0378283862304688,-0.0152750065917999,0.0412754255674243,1.00632800000039,
0.0272460148925781,0.00766144531249998,0.0517626398925763,0.0589950333541015,1.00933800000075,
0.0416112248535155,0.00047884033203123,-0.0248518132324236,0.0484699488633181,1.012291,
-0.00148440502929698,0.00047884033203123,0.0134554133300764,0.013545511959235,1.01536600000054,
-0.0326090266113282,-0.0186747729492188,-0.0440054265136745,0.0578668585970725,1.01832700000068,
