X,Y,Z,Magnitude,Seconds,
0.00258573779296867,-0.0133596452636718,0.013311761230467,0.0190359961273924,0.0,
-0.0213562788085938,-0.0205422502441406,-0.003447650390628,0.0298322138444213,0.00391800000033982,
-0.0429040937500001,-0.0229364519042968,-0.0226012636718771,0.0536438179665899,0.00799999999981083,
0.0145567460937499,-0.025330653564453,0.00852335791015335,0.0304333451481235,0.0119680000007065,
-0.0213562788085938,-0.00138863696289054,-0.0321780703125025,0.038645144147764,0.0158979999996518,
0.0241335527343749,-0.025330653564453,-0.0369664736328144,0.050897844261135,0.0198099999997794,
0.0313161577148437,-0.0109654436035155,-0.024995465332033,0.0415417377417906,0.0236640000002808,
-0.0141736738281251,-0.0492726701660156,0.034859576171872,0.0619990250403793,0.0275089999995544,
-0.0213562788085938,-0.0133596452636718,-0.0321780703125025,0.040865620944235,0.0314269999998942,
-0.00220266552734383,-0.0325132585449218,-0.00584185205078391,0.0331072643390771,0.0352750000001834,
-0.0165678754882813,0.012976572998047,-0.00584185205078391,0.0218406314091897,0.0392119999996794,
-0.0285388837890626,-0.0229364519042968,-0.0441490786132839,0.05735581798114,0.0431570000000647,
-0.0165678754882813,0.00818816967773445,0.0252827695312483,0.0313170729161711,0.047087000000829,
-0.0237504804687501,-0.0444842668457031,-0.0369664736328144,0.0625256386783994,0.050998000000618,
-0.0213562788085938,0.0057939680175782,0.0157059628906229,0.0271355482763982,0.0548780000008264,
-0.0644519086914064,0.0177649763183595,-0.0872447084960957,0.109914885607573,0.05876200000057,
-0.00220266552734383,-0.00857124194335929,-0.0489374819335957,0.0497312282361692,0.0627320000003238,
-0.0237504804687501,-0.00617704028320304,-0.0489374819335957,0.0547459431114105,0.0667090000006283,
-0.00220266552734383,-0.0205422502441406,0.010917559570311,0.0233672610181324,0.0706289999998262,
-0.0237504804687501,0.0010055646972657,-0.0154186586914093,0.0283342816866608,0.0745129999995697,
-0.0237504804687501,-0.0229364519042968,-0.0441490786132839,0.0551299128500719,0.0785959999993793,
-0.0452982954101563,-0.00378283862304679,0.0157059628906229,0.0480928550351861,0.0824499999998807,
0.0169509477539062,0.0057939680175782,0.00612915624999744,0.0189333370402911,0.0865319999993517,
-0.00220266552734383,-0.0205422502441406,-0.0226012636718771,0.0306211185309086,0.0903959999996005,
-0.0285388837890626,0.032130186279297,0.00852335791015335,0.0438116923701027,0.0942209999993793,
0.00497993945312492,-0.00617704028320304,-0.0561200869140652,0.0566782125587896,0.0980330000002141,
-0.00459686718750008,-0.0229364519042968,0.0181001645507788,0.0295774909460371,0.101939000000129,
-0.0452982954101563,-0.0301190568847655,0.00612915624999744,0.0547417547310133,0.105763999999908,
-0.0213562788085938,-0.0444842668457031,-0.041754876953128,0.0646406249252045,0.109635000000708,
-0.00459686718750008,0.0177649763183595,-0.0106302553710957,0.0212067890258308,0.113596000001053,
-0.00699106884765632,0.0249475812988282,-0.0202070620117212,0.0328569963849385,0.117410000000746,
-0.00220266552734383,0.0010055646972657,0.0468305844726533,0.0468931395604523,0.121258000001035,
0.0217393510742186,-0.0277248552246093,0.00134075292968561,0.0352571212774404,0.125115000000733,
-0.0381156904296876,-0.025330653564453,-0.0609084902343771,0.0761859045333539,0.128903999999238,
0.00976834277343741,-0.00617704028320304,0.0252827695312483,0.0277991867213755,0.132849999999962,
-0.0285388837890626,0.0345243879394532,0.00852335791015335,0.0455965884752802,0.136764999999286,
0.00019153613281242,-0.0325132585449218,0.0396479794921856,0.051274856851208,0.140701000000263,
-0.00938527050781257,-0.0444842668457031,-0.0178128603515653,0.048828590940236,0.144669999999678,
-0.0357214887695314,0.0010055646972657,0.0420421811523415,0.0551777211954104,0.148623999999472,
-0.0357214887695314,-0.0109654436035155,-0.0441490786132839,0.0578394921808236,0.152683000000252,
0.0193451494140624,0.00339976635742195,-0.0226012636718771,0.0299434523177133,0.156664000000092,
-0.00699106884765632,-0.0229364519042968,-0.0441490786132839,0.0502403922356575,0.160627999999633,
-0.0333272871093751,-0.034907460205078,0.0252827695312483,0.0544835505378462,0.164692000000286,
0.0217393510742186,-0.034907460205078,-0.0609084902343771,0.0734913215674371,0.168732000000091,
-0.0213562788085938,-0.00138863696289054,0.0204943662109347,0.0296317060520146,0.172828000000663,
-0.0165678754882813,-0.0157538469238281,-0.00823605371093983,0.0243004274000291,0.176808000000165,
0.0217393510742186,-0.0109654436035155,-0.024995465332033,0.0348943208232353,0.180942999999388,
-0.0452982954101563,-0.0133596452636718,0.049224786132811,0.068216532149164,0.185023000000001,
0.0337103593749999,-0.0229364519042968,0.00612915624999744,0.0412314893192891,0.189030999999886,
-0.0452982954101563,-0.00138863696289054,0.0181001645507788,0.0488004081585981,0.192890000000261,
-0.0357214887695314,0.0273417829589845,-0.0321780703125025,0.0553084628635105,0.196742000000086,
-0.00938527050781257,-0.0325132585449218,-0.0800621035156279,0.0869202836112542,0.200607000000673,
-0.0285388837890626,-0.0396958635253905,0.013311761230467,0.0506698377341887,0.204525999999532,
-0.0261446821289064,-0.0468784685058593,0.0420421811523415,0.0681812306219439,0.208408000000418,
0.0313161577148437,-0.00378283862304679,0.032465374511716,0.0452660153344091,0.212462999999843,
-0.0261446821289064,-0.0181480485839843,0.010917559570311,0.0336465329268782,0.216604999999618,
-0.0165678754882813,-0.0301190568847655,0.00852335791015335,0.0354160940235864,0.220617000000857,
-0.0117794721679688,-0.0205422502441406,-0.0345722719726584,0.0419044388937534,0.224532000000181,
0.0121625444335937,-0.0157538469238281,-0.0489374819335957,0.0528298052050124,0.228465000000142,
-0.00938527050781257,-0.0396958635253905,0.00134075292968561,0.0408122837139716,0.232328000000052,
-0.0261446821289064,-0.0109654436035155,0.0228885678710924,0.0364372322800873,0.236220000000685,
0.0193451494140624,-0.0229364519042968,0.0420421811523415,0.0516513371352264,0.240362000000459,
-0.0213562788085938,-0.00617704028320304,0.00612915624999744,0.02306107169122,0.244296000000759,
0.0193451494140624,0.0010055646972657,-0.0345722719726584,0.0396293824777052,0.248240999999325,
-0.0141736738281251,-0.0588494768066405,-0.0537258852539093,0.0809359295771515,0.252187000000049,
-0.0189620771484376,0.012976572998047,-0.0585142885742211,0.0628639307067588,0.256075999999666,
-0.00938527050781257,0.0057939680175782,0.0803494077148414,0.081102901847094,0.260002999999415,
-0.0165678754882813,-0.0301190568847655,0.0444363828124974,0.0561804610454716,0.263907000000472,
-0.0165678754882813,-0.0229364519042968,0.0204943662109347,0.0349370057466466,0.267804999999498,
-0.0452982954101563,0.0345243879394532,0.0516189877929669,0.0768660447169628,0.271694999999454,
-0.0165678754882813,-0.0133596452636718,0.032465374511716,0.0388197779740215,0.275574999999662,
-0.0165678754882813,-0.0373016618652343,-0.0202070620117212,0.0455437573246764,0.27947900000072,
-0.0285388837890626,-0.00617704028320304,0.0181001645507788,0.0343546164489025,0.283508000000438,
-0.00220266552734383,-0.00857124194335929,0.00612915624999744,0.0107649654069966,0.287366000000475,
-0.00459686718750008,-0.00617704028320304,0.0252827695312483,0.0264292536741022,0.291454000000158,
-0.0285388837890626,-0.0205422502441406,-0.0321780703125025,0.0476642438527548,0.295374999999694,
0.00497993945312492,-0.054061073486328,-0.00823605371093983,0.0549111286004981,0.299272000000201,
-0.00699106884765632,-0.00857124194335929,0.00134075292968561,0.0111417615529472,0.303127000001041,
-0.0117794721679688,-0.0564552751464843,-0.135128741699221,0.146920832047862,0.307108000000881,
0.0839885942382812,0.290703965576172,0.437085455078122,0.531607538137567,0.311020999999528,
-0.184161991699219,-0.726831739990234,-0.223714203125002,0.782462818365007,0.315028000000893,
0.0792001909179687,-0.358124684326172,0.0204943662109347,0.367349940535657,0.318091999999524,
0.081594392578125,1.2412020246582,-0.0178128603515653,1.24400860483749,0.321058999999877,
-0.0572693037109376,0.250002537353516,-0.355395294433595,0.438277146490977,0.324092999999266,
0.179756660644531,-1.42593862475586,0.721995452636717,1.60838143866584,0.32712999999967,
-0.543292240722656,-0.475440565673828,-0.659458905273439,0.977801737604376,0.330180000000837,
0.476637666503906,1.44470916577148,-0.360183697753909,1.563361869473,0.333214000000225,
0.32101455859375,0.295492368896485,1.05957788671875,1.14589326943157,0.33620399999927,
-0.756376188476563,-0.920762074462891,-0.788745794921878,1.42899533423678,0.339289999999892,
0.0624407792968749,-0.425162330810547,0.226395708984374,0.485712749993239,0.342287999999826,
0.28270733203125,0.434356065185547,-0.0848505068359398,0.525155439330123,0.345334999999977,
0.0935654008789062,0.546883543212891,0.0635899960937483,0.558461978725427,0.348328000000038,
-0.260776444824219,-0.0947625017089843,0.202453692382811,0.343470207535876,0.351295000000391,
-0.224863419921875,-0.547266615478516,-0.403279327636721,0.716029693612909,0.35432899999978,
0.253976912109375,-0.0851856950683593,0.0923204160156228,0.28334419659169,0.357363999999507,
0.208487080566406,0.417596653564453,0.125839239257811,0.48341425503218,0.360468999999284,
-0.244017033203125,0.151840269287109,-0.0752737001953143,0.297095792315426,0.36344199999985,
-0.222469218261719,-0.310240651123047,-0.0561200869140652,0.385864326983559,0.366438999999446,
0.227640693847656,-0.255174012939453,-0.0273896669921889,0.343051390075903,0.369509000000107,
0.103142207519531,0.199724302490234,0.070772601074216,0.235662625462806,0.372504000000845,
-0.167402580078125,0.130292454345703,-0.024995465332033,0.213598971821976,0.375559000000067,
-0.112335941894531,-0.0995509050292968,-0.0920331118164093,0.17606771482613,0.37858100000085,
0.112719014160156,-0.147434938232422,0.0181001645507788,0.186467834013271,0.381667999999991,
0.143843635742187,0.0010055646972657,-0.0106302553710957,0.144239401805284,0.384758000000147,
-0.0883939252929689,0.113533042724609,-0.0824563051757838,0.165838114081923,0.387753999999404,
-0.0788171186523438,0.0201591779785157,0.0995030209960923,0.128527747341871,0.390833999999813,
-0.0429040937500001,-0.104339308349609,-0.0178128603515653,0.114213617932749,0.393822,
0.0744117875976562,-0.0492726701660156,-0.024995465332033,0.0926805451318264,0.396978000000672,
0.0528639726562499,0.0345243879394532,0.010917559570311,0.0640759399038819,0.399986000000354,
-0.0476924970703126,0.022553379638672,0.0157059628906229,0.0550445862937443,0.40293500000007,
-0.0476924970703126,-0.0109654436035155,-0.041754876953128,0.0643295031816235,0.40602299999955,
0.0768059892578124,-0.104339308349609,0.0252827695312483,0.132004051785982,0.409058999999615,
0.0528639726562499,0.0010055646972657,-0.0226012636718771,0.0575015468046455,0.412118000000191,
-0.0812113203125001,0.022553379638672,0.0516189877929669,0.0988354864448798,0.415074000000459,
-0.0716345136718751,-0.0205422502441406,-0.0489374819335957,0.0891536019019981,0.418029000000388,
0.0361045610351562,-0.0444842668457031,-0.0202070620117212,0.060751252493151,0.421121999999741,
0.0504697709960937,-0.0492726701660156,-0.0656968935546889,0.096390225813737,0.424121000000014,
-0.0668461103515626,0.0105823713378907,-0.0537258852539093,0.0864109935053551,0.427246999999625,
-0.0500866987304688,-0.0396958635253905,0.0204943662109347,0.0671152591973769,0.430254999999306,
-0.0165678754882813,-0.00857124194335929,0.034859576171872,0.0395367011462684,0.433270999999877,
0.0408929643554687,-0.0133596452636718,0.0276769711914042,0.0511539772615835,0.436361000000034,
-0.00459686718750008,-0.00138863696289054,0.0157059628906229,0.0164236649647953,0.439346999999543,
-0.0692403120117189,-0.0468784685058593,-0.024995465332033,0.0872730479821799,0.442414000001008,
-0.0309330854492189,-0.0109654436035155,0.00134075292968561,0.0328465271718186,0.445431000000099,
0.0145567460937499,-0.00617704028320304,-0.0441490786132839,0.0468955842899962,0.448458999999275,
0.0145567460937499,-0.0612436784667968,-0.0273896669921889,0.0686504251037479,0.451553000000786,
-0.0524809003906251,-0.0516668718261718,-0.0226012636718771,0.077035885596769,0.454508000000715,
-0.0237504804687501,-0.0181480485839843,0.00373495458984152,0.030122863006217,0.457619000000705,
-0.00459686718750008,0.0010055646972657,0.00612915624999744,0.00772715372157074,0.460578000000169,
-0.0213562788085938,-0.0157538469238281,-0.041754876953128,0.0494746812705313,0.463513000000603,
0.00258573779296867,-0.0492726701660156,-0.0178128603515653,0.0524574118607401,0.466655000000173,
-0.0596635053710938,-0.00138863696289054,0.00612915624999744,0.0599935725067122,0.469650000000911,
0.00497993945312492,-0.0181480485839843,0.00852335791015335,0.0206591164967919,0.472739000000729,
0.0313161577148437,-0.0229364519042968,-0.00105344873047031,0.038831589128013,0.475693000000319,
0.0265277543945311,-0.0396958635253905,0.00852335791015335,0.0484987728123874,0.478758999999627,
-0.0237504804687501,0.00339976635742195,0.00134075292968561,0.0240300094090701,0.481739999999263,
0.0121625444335937,0.00339976635742195,0.0181001645507788,0.0220703841187567,0.484695000001011,
-0.0476924970703126,-0.0373016618652343,-0.0345722719726584,0.0697225232192691,0.487768999999389,
0.00976834277343741,-0.0373016618652343,-0.0321780703125025,0.050222133641294,0.490778999999748,
-0.0452982954101563,-0.0396958635253905,0.00134075292968561,0.0602452883345302,0.493859000000157,
-0.0117794721679688,-0.0277248552246093,-0.024995465332033,0.0391432861286116,0.496841000000131,
0.0337103593749999,0.0728316145019532,-0.0968215151367211,0.125758650571335,0.499814000000697,
-0.0500866987304688,0.0393127912597657,-0.0537258852539093,0.0833105257015396,0.502834999999322,
-0.00220266552734383,-0.109127711669922,0.0827436093749974,0.136967930852959,0.505865000000995,
-0.0309330854492189,-0.0444842668457031,-0.0776679018554702,0.0946995710171876,0.508985000000393,
0.0169509477539062,0.0249475812988282,0.0396479794921856,0.0498164502973673,0.512033999999403,
-0.00459686718750008,-0.0468784685058593,-0.0106302553710957,0.0482879314803302,0.51500599999963,
-0.0405098920898438,-0.0803972917480468,-0.0465432802734398,0.101346202771309,0.518114000000423,
-0.0429040937500001,-0.0516668718261718,0.00852335791015335,0.067696931502657,0.521103000000949,
0.0121625444335937,0.0153707746582032,0.00373495458984152,0.0199533978680469,0.524198000000979,
-0.0381156904296876,0.0297359846191407,0.0611957944335924,0.077986921304537,0.527234000001044,
-0.0572693037109376,-0.073214686767578,0.00134075292968561,0.0929621488802224,0.530273000000307,
-0.00938527050781257,-0.0420900651855468,-0.0465432802734398,0.0634502468745423,0.533335000000079,
0.0241335527343749,-0.054061073486328,-0.0513316835937516,0.0783579592297173,0.536326999999801,
-0.00220266552734383,-0.0181480485839843,0.0516189877929669,0.0547605999200381,0.539468999999372,
-0.0381156904296876,-0.0109654436035155,-0.0513316835937516,0.0648690107133035,0.542492000000493,
-0.00459686718750008,-0.0205422502441406,-0.0130244570312517,0.0247538222097382,0.545453000000634,
-0.0333272871093751,-0.0157538469238281,0.00134075292968561,0.0368875233295567,0.548509000000195,
-0.0141736738281251,-0.00138863696289054,-0.00823605371093983,0.0164515629388295,0.551510999999664,
0.0289219560546874,0.0177649763183595,0.0300711728515601,0.0453469884588773,0.554577000000791,
-0.0165678754882813,-0.00138863696289054,0.0611957944335924,0.0634140999082096,0.557587999999669,
-0.00459686718750008,-0.0229364519042968,0.00852335791015335,0.0248969806193885,0.560641000000032,
-0.0381156904296876,0.0345243879394532,-0.0465432802734398,0.0693614890132674,0.563711000000694,
0.0145567460937499,-0.0468784685058593,-0.0178128603515653,0.0522186524165179,0.566721999999572,
-0.00459686718750008,-0.0420900651855468,0.00373495458984152,0.0425047604516397,0.569809000000532,
0.0121625444335937,-0.0205422502441406,-0.0393606752929703,0.0460344902405867,0.572814999999537,
-0.0261446821289064,0.0153707746582032,0.00612915624999744,0.0309414232631872,0.575845999999729,
-0.00220266552734383,-0.00378283862304679,-0.024995465332033,0.0253758722143344,0.578858999999284,
-0.0117794721679688,-0.00138863696289054,-0.0130244570312517,0.0176159234254006,0.58184699999947,
-0.0165678754882813,-0.0229364519042968,-0.0226012636718771,0.0362131529104968,0.584929000000557,
-0.0237504804687501,-0.025330653564453,-0.0704852968750025,0.0785741968336683,0.587891000001036,
-0.0285388837890626,0.0105823713378907,0.00373495458984152,0.030666013057566,0.590959999999541,
-0.0644519086914064,-0.0109654436035155,0.00134075292968561,0.0653917969305457,0.593935000000783,
-0.0692403120117189,-0.0277248552246093,-0.0321780703125025,0.0812300228594211,0.596944000000803,
-0.0405098920898438,-0.025330653564453,-0.0537258852539093,0.0718968991921721,0.600012000000788,
-0.0261446821289064,0.0177649763183595,-0.0489374819335957,0.0582581833325966,0.602973000000929,
-0.0117794721679688,-0.00378283862304679,0.00134075292968561,0.0124444144507657,0.60603699999956,
0.00737414111328116,-0.0492726701660156,-0.0656968935546889,0.0824515360996001,0.609033000000636,
-0.0452982954101563,0.022553379638672,0.00373495458984152,0.0507399289118543,0.612009000000398,
-0.0117794721679688,-0.00617704028320304,-0.0489374819335957,0.050712808334949,0.615046000000802,
-0.00938527050781257,-0.0420900651855468,0.0228885678710924,0.0488215467700277,0.618027000000438,
-0.0213562788085938,0.0201591779785157,-0.041754876953128,0.0510485342658408,0.621096999999281,
-0.00938527050781257,-0.034907460205078,-0.0369664736328144,0.0517023621638265,0.624084000000948,
-0.0189620771484376,-0.0468784685058593,-0.0130244570312517,0.0522186524165174,0.627067999999781,
-0.0596635053710938,-0.0229364519042968,-0.0609084902343771,0.0882930285003061,0.630153000000064,
-0.0261446821289064,-0.00378283862304679,-0.0369664736328144,0.0454353875796733,0.633105000000796,
-0.00459686718750008,-0.025330653564453,0.0516189877929669,0.0576826932338663,0.636211999999432,
0.0361045610351562,0.0153707746582032,0.0181001645507788,0.0432136089432467,0.63920700000017,
-0.0117794721679688,-0.00857124194335929,0.00852335791015335,0.0168780858829468,0.642203999999765,
-0.0285388837890626,-0.034907460205078,-0.00823605371093983,0.0458348256964528,0.645268000000215,
-0.0165678754882813,-0.0229364519042968,-0.0345722719726584,0.0446745712179174,0.648317999999563,
-0.0213562788085938,-0.0229364519042968,-0.0561200869140652,0.0642778004115787,0.651407999999719,
0.0217393510742186,-0.0205422502441406,0.010917559570311,0.031839857681722,0.654413000000204,
-0.0117794721679688,0.00339976635742195,0.0516189877929669,0.0530550117954136,0.657382999999754,
-0.0165678754882813,-0.0420900651855468,-0.0226012636718771,0.0505656524241949,0.660519999999451,
0.0241335527343749,-0.034907460205078,-0.0106302553710957,0.0437488454111268,0.663493000000017,
0.00497993945312492,0.0057939680175782,0.034859576171872,0.0356869711971758,0.666576999999961,
-0.0285388837890626,-0.00617704028320304,0.032465374511716,0.0436649087571692,0.669576000000234,
-0.00459686718750008,0.0105823713378907,-0.0178128603515653,0.021223000847592,0.672634000000471,
-0.0429040937500001,-0.0157538469238281,-0.0106302553710957,0.046924911109803,0.675613999999769,
-0.0405098920898438,-0.0205422502441406,-0.0345722719726584,0.0570813226158535,0.678556999999273,
0.0408929643554687,-0.0420900651855468,-0.0537258852539093,0.0795630496362315,0.681613000000652,
0.0121625444335937,-0.00138863696289054,0.0276769711914042,0.030263352987461,0.684618999999657,
-0.00459686718750008,-0.00138863696289054,-0.0441490786132839,0.0444094656909554,0.687630000000354,
0.0193451494140624,-0.00378283862304679,-0.0154186586914093,0.025025581106991,0.690731000000596,
-0.0429040937500001,-0.0301190568847655,0.0444363828124974,0.0687205279781475,0.693690000000061,
-0.0309330854492189,-0.054061073486328,0.013311761230467,0.0636919023813844,0.69680100000005,
-0.0117794721679688,-0.0277248552246093,-0.0297838686523466,0.0423615674129479,0.699748999999429,
0.00258573779296867,0.0010055646972657,-0.0154186586914093,0.0156662770349738,0.702804000000469,
-0.0668461103515626,-0.00617704028320304,-0.0537258852539093,0.0859827252540289,0.70575800000006,
-0.0237504804687501,0.0010055646972657,-0.063302691894533,0.0676189861204014,0.708717999999863,
0.0145567460937499,0.0010055646972657,-0.00823605371093983,0.0167553751950762,0.711794000000737,
-0.00699106884765632,-0.025330653564453,-0.041754876953128,0.0493354517867817,0.714759000000413,
-0.0285388837890626,-0.00617704028320304,-0.00105344873047031,0.0292187177818203,0.717785000000731,
-0.0165678754882813,0.0057939680175782,-0.0345722719726584,0.0387724973781078,0.72075600000062,
-0.0213562788085938,0.0201591779785157,0.034859576171872,0.0455815001091716,0.723685000000842,
-0.0452982954101563,-0.0468784685058593,-0.0513316835937516,0.0829726950091996,0.726737000000867,
0.00019153613281242,0.012976572998047,-0.0226012636718771,0.0260623339789345,0.729741999999533,
-0.0141736738281251,-0.025330653564453,-0.00105344873047031,0.0290455641022195,0.732805999999982,
-0.00459686718750008,-0.0133596452636718,-0.0106302553710957,0.0176808834271756,0.735747000000629,
-0.0405098920898438,-0.0301190568847655,0.010917559570311,0.0516468977938639,0.738730999999461,
0.00019153613281242,-0.0492726701660156,-0.0273896669921889,0.0563739884106326,0.741798999999446,
-0.0237504804687501,-0.00138863696289054,-0.0273896669921889,0.0362795740473092,0.744775999999547,
0.00737414111328116,-0.0109654436035155,-0.0106302553710957,0.0169593997486696,0.747809000000416,
0.00976834277343741,-0.0444842668457031,0.049224786132811,0.0670622851322565,0.750831999999718,
0.00497993945312492,-0.0205422502441406,0.00373495458984152,0.0214647088924556,0.753865000000587,
-0.0117794721679688,-0.0420900651855468,-0.00823605371093983,0.0444765346290493,0.756919999999809,
0.0121625444335937,-0.0109654436035155,0.00612915624999744,0.0174852794332233,0.75989699999991,
-0.0261446821289064,-0.0109654436035155,-0.00823605371093983,0.0295231762819132,0.762939000000188,
-0.0381156904296876,-0.025330653564453,-0.0393606752929703,0.060363156200225,0.765896999999313,
-0.00220266552734383,-0.00857124194335929,0.0204943662109347,0.022323462326997,0.768968000000314,
-0.0117794721679688,0.00339976635742195,0.0204943662109347,0.0238816545119661,0.771966000000248,
0.00497993945312492,-0.025330653564453,-0.0106302553710957,0.0279185267557914,0.775012000000061,
-0.0237504804687501,-0.00617704028320304,0.0252827695312483,0.0352343523330146,0.778159999999843,
0.0337103593749999,-0.034907460205078,-0.0465432802734398,0.0672398397214979,0.781213000000207,
-0.0213562788085938,-0.0133596452636718,-0.0609084902343771,0.0659121760280507,0.784278000000995,
0.0169509477539062,-0.0157538469238281,-0.0321780703125025,0.0396351678650592,0.787303999999494,
-0.0357214887695314,0.0010055646972657,0.00612915624999744,0.0362574471882539,0.790364000000409,
0.00976834277343741,-0.0157538469238281,-0.0273896669921889,0.0330726181513012,0.793475000000399,
0.00258573779296867,-0.00857124194335929,-0.063302691894533,0.0639326444743197,0.796473000000333,
-0.0189620771484376,-0.0277248552246093,-0.00823605371093983,0.0345841083120315,0.799564000000828,
0.00258573779296867,-0.0133596452636718,-0.0202070620117212,0.0243616813182235,0.802611999999499,
-0.0189620771484376,-0.0205422502441406,-0.003447650390628,0.0281679020889414,0.805618000000322,
0.00737414111328116,-0.00138863696289054,-0.0752737001953143,0.0756467858594623,0.808691000000181,
-0.0476924970703126,-0.0516668718261718,0.00134075292968561,0.0703266488574729,0.811684000000241,
0.0169509477539062,-0.00857124194335929,-0.00823605371093983,0.0207034634526869,0.814770999999382,
-0.0261446821289064,0.0057939680175782,-0.0106302553710957,0.0288117475739495,0.817719000000579,
-0.0141736738281251,-0.034907460205078,0.0228885678710924,0.0440829938518788,0.820751999999629,
-0.00459686718750008,-0.0157538469238281,0.00612915624999744,0.017518031772314,0.823894999999538,
-0.0165678754882813,0.0105823713378907,0.0540131894531228,0.0574796113089428,0.826877999999851,
-0.0429040937500001,-0.0109654436035155,-0.0202070620117212,0.0486757390193125,0.829958000000261,
0.00976834277343741,-0.025330653564453,-0.0202070620117212,0.0338435796819316,0.832969999999477,
-0.0261446821289064,-0.0373016618652343,-0.0321780703125025,0.0557708399664752,0.835950000000594,
-0.00220266552734383,-0.00617704028320304,-0.003447650390628,0.00740903875692787,0.838990000000194,
-0.0117794721679688,-0.025330653564453,-0.00823605371093983,0.0291243979386317,0.842012000000977,
-0.0165678754882813,-0.0444842668457031,-0.0465432802734398,0.0664802334051775,0.845113999999739,
-0.0141736738281251,-0.0157538469238281,-0.041754876953128,0.0468246353115146,0.848070000000007,
-0.0141736738281251,-0.025330653564453,0.00134075292968561,0.0290574028124827,0.85103700000036,
-0.00220266552734383,-0.0325132585449218,-0.0824563051757838,0.08866231431604,0.854132000000391,
-0.0285388837890626,-0.0157538469238281,0.0181001645507788,0.0372862915505189,0.857085999999981,
0.00497993945312492,-0.0109654436035155,-0.0202070620117212,0.0235237349399328,0.860224000000017,
-0.0165678754882813,-0.0229364519042968,-0.0226012636718771,0.0362131529104968,0.863201000000117,
-0.0141736738281251,-0.063637880126953,0.00612915624999744,0.0654846499049617,0.866251999999804,
0.00737414111328116,0.032130186279297,-0.0130244570312517,0.0354452155933608,0.869214000000284,
-0.0357214887695314,-0.00857124194335929,0.0755610043945296,0.0840175953802147,0.872223000000304,
-0.00459686718750008,0.012976572998047,-0.0130244570312517,0.0189514937583315,0.875271999999313,
-0.0333272871093751,-0.034907460205078,0.00612915624999744,0.048649824258436,0.878237999999328,
-0.0165678754882813,0.0057939680175782,-0.0441490786132839,0.0475100589979199,0.881240000000616,
-0.0381156904296876,-0.034907460205078,-0.0130244570312517,0.0533007796927944,0.884244999999282,
0.00497993945312492,0.0105823713378907,0.0588015927734347,0.0599534293663227,0.887242000000697,
-0.0189620771484376,-0.0181480485839843,0.00852335791015335,0.0275963705449562,0.890339999999924,
-0.0165678754882813,-0.0516668718261718,0.0300711728515601,0.0620341484923076,0.893321999999898,
-0.0429040937500001,-0.0205422502441406,0.013311761230467,0.049395832745877,0.896366000000853,
0.0265277543945311,-0.0181480485839843,0.0204943662109347,0.0381194499830614,0.89938500000062,
-0.0213562788085938,-0.0612436784667968,0.0204943662109347,0.0680213043324125,0.902403000000049,
-0.00938527050781257,-0.0229364519042968,-0.0369664736328144,0.0445048795224579,0.905554999999367,
-0.0117794721679688,-0.00617704028320304,0.0204943662109347,0.0244321680905352,0.908588000000236,
0.00497993945312492,-0.0205422502441406,0.034859576171872,0.0407673140264628,0.911747000000105,
0.0169509477539062,-0.0420900651855468,0.0228885678710924,0.0508212038057821,0.914751000000251,
-0.0237504804687501,-0.00857124194335929,-0.0393606752929703,0.0467633860030123,0.917755000000398,
0.0217393510742186,-0.0109654436035155,-0.0728794985351584,0.0768391934190239,0.920892000000094,
-0.0357214887695314,0.0105823713378907,0.00373495458984152,0.0374427727182823,0.923934000000372,
-0.0381156904296876,0.00339976635742195,-0.0752737001953143,0.0844422536963036,0.926977000000988,
0.0193451494140624,-0.0325132585449218,0.0157059628906229,0.0409636919403385,0.929941000000326,
-0.00938527050781257,-0.0229364519042968,-0.0178128603515653,0.0305198643897266,0.932952999999543,
-0.0333272871093751,-0.0373016618652343,-0.0465432802734398,0.0683256831842241,0.936073000000761,
0.0121625444335937,0.0010055646972657,-0.0537258852539093,0.0550945495832007,0.939021000000139,
-0.0261446821289064,-0.00138863696289054,-0.0824563051757838,0.0865130913762666,0.942069000000629,
0.00737414111328116,-0.0229364519042968,0.013311761230467,0.0275256565802465,0.945062000000689,
-0.0285388837890626,0.0297359846191407,-0.0154186586914093,0.0440049054656133,0.947991000000911,
0.00497993945312492,0.022553379638672,0.0157059628906229,0.0279308431738907,0.951082999999926,
-0.0572693037109376,-0.0301190568847655,-0.00584185205078391,0.0649696696201127,0.954149000001053,
-0.00699106884765632,-0.0133596452636718,-0.00823605371093983,0.0171810286634213,0.957222000000911,
-0.0117794721679688,0.0153707746582032,-0.0106302553710957,0.0220911522425591,0.960211999999956,
-0.0381156904296876,-0.0516668718261718,-0.0106302553710957,0.0650789814801104,0.9632330000004,
0.0145567460937499,-0.0420900651855468,-0.0537258852539093,0.0697849782580586,0.966271999999663,
-0.0524809003906251,-0.0229364519042968,-0.00823605371093983,0.0578632725698981,0.969235000000481,
-0.0572693037109376,0.0010055646972657,0.00373495458984152,0.057399775205868,0.972326000000976,
-0.0261446821289064,-0.034907460205078,0.034859576171872,0.0558324747120635,0.975319000001036,
-0.0213562788085938,-0.0229364519042968,-0.0154186586914093,0.0349271600098074,0.978355999999621,
-0.00938527050781257,-0.0277248552246093,-0.0345722719726584,0.0452989281228798,0.98134200000095,
-0.00938527050781257,-0.073214686767578,0.0516189877929669,0.0900721575280056,0.984341999999742,
-0.00220266552734383,-0.00617704028320304,-0.00584185205078391,0.00878264182742927,0.987370000000737,
-0.0285388837890626,-0.0277248552246093,-0.0369664736328144,0.0543107324384115,0.990379999999277,
-0.0165678754882813,-0.054061073486328,-0.0489374819335957,0.0747794845040427,0.99348099999952,
0.00258573779296867,-0.0205422502441406,-0.0609084902343771,0.0643312852946223,0.996482000000469,
-0.0405098920898438,-0.0133596452636718,0.0252827695312483,0.0495857833846775,0.999454000000696,
-0.0309330854492189,0.0010055646972657,-0.00823605371093983,0.0320265439362187,1.00250600000072,
-0.00699106884765632,-0.0444842668457031,-0.0130244570312517,0.0468760228836802,1.00547299999926,
-0.00459686718750008,-0.0229364519042968,0.032465374511716,0.0400151540804683,1.00854199999958,
-0.0333272871093751,-0.0373016618652343,-0.0202070620117212,0.0539485625306601,1.01148099999955,
0.00976834277343741,-0.0468784685058593,0.0420421811523415,0.063722494662721,1.01450599999953,
0.0265277543945311,-0.0109654436035155,-0.0178128603515653,0.0337825502374053,1.01763700000083,
-0.0237504804687501,0.0010055646972657,-0.024995465332033,0.0344944889804405,1.02060600000004,
-0.0165678754882813,-0.0109654436035155,-0.003447650390628,0.0201648641164048,1.02366900000015,
-0.0429040937500001,0.00818816967773445,-0.0465432802734398,0.0638285541258153,1.02662799999962,
0.00258573779296867,-0.0373016618652343,-0.0345722719726584,0.0509248662952955,1.0296359999993,
-0.0117794721679688,-0.0133596452636718,0.0444363828124974,0.047873042556181,1.03276899999946,
-0.00938527050781257,-0.0277248552246093,-0.0106302553710957,0.0311408610829096,1.03579300000092,
