X,Y,Z,Magnitude,Seconds,
-0.024899697265625,0.0146046301269533,0.0557370146484359,0.0627686621411103,0.0,
0.032561142578125,-0.0356736047363279,-0.0256658417968758,0.0546952421698542,0.00395899999966787,
-0.00335188232421875,-0.0189141931152341,-0.0113006318359385,0.022286455442874,0.0077579999997397,
-0.024899697265625,-0.00933738647460913,-0.00172382519531311,0.0266487013454687,0.0116090000010445,
0.0229843359375,0.0217872351074222,-0.0376368500976572,0.0491883705502374,0.0153780000000552,
0.0086191259765625,-0.0332794030761716,-0.0041180268554708,0.0346232024354844,0.019125000000713,
0.0181959326171875,-0.0237025964355466,-0.0400310517578131,0.0499538801939582,0.0229419999996026,
-0.0105344873046875,-0.0404620080566404,-0.0113006318359385,0.0433111278846404,0.026676999999836,
-0.0201112939453125,0.000239420166015858,-0.0496078583984385,0.0535300016911095,0.0304180000002816,
-0.005746083984375,-0.00933738647460913,0.00306457812499872,0.0113840197828326,0.0342610000006971,
-0.0129286889648438,-0.0428562097167966,-0.0041180268554708,0.044952907078654,0.0380239999994956,
-0.0368707055664063,-0.00694318481445277,0.0222181914062478,0.0436039536475413,0.0417900000011286,
-0.00814028564453125,-0.0237025964355466,-0.0376368500976572,0.0452173618584108,0.0454869999994116,
-0.0105344873046875,0.0433350500488283,-0.00172382519531311,0.0446304106950751,0.049246000000494,
-0.005746083984375,-0.00694318481445277,0.00306457812499872,0.0095192928102543,0.0529729999998381,
0.0110133276367188,0.0241814367675783,-0.0663672700195335,0.0714888089117714,0.0567989999999554,
-0.0320823022460938,-0.00933738647460913,-0.0184832368164081,0.0381849570747087,0.06052500000078,
0.00383072265625,0.0289698400878908,-0.0184832368164081,0.0345768146884368,0.0642540000008012,
-0.015322890625,-0.0524330163574216,0.0270065947265614,0.0609374133038816,0.0679570000011154,
0.013407529296875,0.0122104284667972,-0.0256658417968758,0.0314259739758626,0.0717939999994996,
0.00622492431640626,-0.00933738647460913,0.017429788085936,0.0207300260887881,0.0757750000011583,
-0.0392649072265625,-0.0189141931152341,0.0581312163085919,0.0726547861481075,0.0795620000008057,
-0.000957680664062498,-0.0356736047363279,-0.0735498750000012,0.0817502742481875,0.0834109999996144,
-0.015322890625,0.0217872351074222,0.0198239897460919,0.0332033907934861,0.0872290000006615,
-0.024899697265625,0.00742202514648471,-0.00890643017578263,0.0274664500740616,0.0910519999997632,
-0.0320823022460938,-0.0117315881347655,-0.0328484467773453,0.0473911883503418,0.0948740000003454,
-0.00814028564453125,-0.0308852014160154,-0.0974918916015639,0.102590588481271,0.0986119999997754,
-0.00814028564453125,-0.00933738647460913,-0.0424252534179708,0.044196755131229,0.102365000000646,
-0.0105344873046875,-0.0213083947753905,0.0461602080078105,0.0519209775909588,0.106222000000344,
-0.0129286889648438,-0.00694318481445277,-0.0041180268554708,0.015241947346048,0.109991999999693,
-0.0129286889648438,-0.016519991455078,-0.00890643017578263,0.0227900332273039,0.113709999999628,
0.00143652099609375,-0.00933738647460913,-0.0280600434570317,0.0296077087522649,0.117454999999609,
0.0229843359375,0.0409408483886722,-0.00172382519531311,0.0469830218118853,0.121194000001196,
-0.0296881005859375,-0.0117315881347655,-0.0136948334960945,0.034735600484953,0.124942000000374,
-0.000957680664062498,0.0193930334472658,-0.0448194550781267,0.0488445539650154,0.128660000000309,
-0.015322890625,-0.016519991455078,-0.0424252534179708,0.048037518903047,0.132461000001058,
-0.0177170922851563,-0.0141257897949216,-0.020877438476564,0.0308107243295864,0.136136000000988,
-0.0272938989257813,-0.016519991455078,0.000670376464842803,0.031911070819564,0.139826000000539,
0.00383072265625,-0.0237025964355466,0.0150355864257801,0.0283294259211618,0.143721000000369,
-0.0392649072265625,-0.0117315881347655,0.0198239897460919,0.0455231113735374,0.147609999999986,
-0.015322890625,-0.0284909997558591,0.05334281298828,0.0623857655374741,0.151316999999835,
-0.0177170922851563,-0.0404620080566404,0.017429788085936,0.0474854395339983,0.155161000000589,
-0.0488417138671875,-0.0213083947753905,-0.020877438476564,0.0572313562545115,0.158891000000949,
-0.015322890625,0.0122104284667972,-0.0256658417968758,0.0322896419241642,0.162674999999581,
0.013407529296875,-0.0237025964355466,0.00306457812499872,0.0274037690604262,0.166484999999739,
-0.0129286889648438,0.00742202514648471,-0.0184832368164081,0.0237458943574704,0.170231000000058,
-0.0320823022460938,-0.016519991455078,-0.0160890351562522,0.0395100150258726,0.173957000000883,
-0.0225054956054688,0.0217872351074222,-0.0280600434570317,0.0420540959346931,0.177797000000282,
-0.0272938989257813,0.00742202514648471,0.05334281298828,0.0603779684433687,0.181585000000268,
-0.0201112939453125,-0.00215478149414028,0.0653138212890614,0.0683739897828239,0.185306000001219,
-0.0105344873046875,-0.016519991455078,-0.00890643017578263,0.0215223149062679,0.189007000000856,
-0.0129286889648438,0.0457292517089847,-0.0280600434570317,0.0551876933656758,0.192730000000665,
0.0110133276367188,0.00981622680664085,0.0629196196289055,0.0646260800961908,0.196465999999418,
-0.03447650390625,-0.0404620080566404,-0.0472136567382826,0.0710980506074089,0.200179999999818,
-0.00814028564453125,-0.0237025964355466,0.0317949980468732,0.0404845554373717,0.203992000000653,
-0.000957680664062498,-0.00694318481445277,0.0748906279296868,0.0752178909523842,0.207706999999573,
-0.0129286889648438,0.00502782348632835,-0.0160890351562522,0.0212435180612455,0.211452999999892,
-0.015322890625,-0.0284909997558591,-0.0113006318359385,0.034267073468353,0.215433000001212,
-0.015322890625,-0.0189141931152341,0.0150355864257801,0.0286113008699916,0.219229000000269,
0.00622492431640626,0.0193930334472658,0.0270065947265614,0.0338259602636273,0.223078999999416,
-0.000957680664062498,-0.0237025964355466,-0.0184832368164081,0.0300725834149999,0.226889999999912,
-0.0464475122070312,-0.0452504113769528,-0.00890643017578263,0.0654545309240076,0.23068400000011,
0.00143652099609375,0.0122104284667972,-0.0304542451171894,0.0328423385521318,0.234538000000612,
-0.0296881005859375,0.0265756384277347,-0.0280600434570317,0.0487341144687471,0.238378000000012,
-0.005746083984375,-0.0404620080566404,0.00545877978515463,0.0412309332161416,0.242167000000336,
-0.00814028564453125,0.0313640417480472,0.0294007963867173,0.0437535620643739,0.245984999999564,
-0.0392649072265625,-0.016519991455078,-0.0160890351562522,0.0455357014818651,0.249755000000732,
-0.0272938989257813,-0.0213083947753905,0.000670376464842803,0.0346331345835064,0.253606000000218,
-0.0296881005859375,0.0409408483886722,-0.0113006318359385,0.0518193078212785,0.257390000000669,
-0.0392649072265625,-0.0117315881347655,-0.00651222851562672,0.0414942432141384,0.261145000000397,
-0.00335188232421875,0.00742202514648471,-0.0520020600585944,0.0526358796138919,0.26485700000012,
0.04213794921875,-0.016519991455078,-0.0184832368164081,0.0488891289066315,0.268568999999843,
-0.0679953271484375,-0.016519991455078,-0.00651222851562672,0.0702757693087641,0.272254999999859,
-0.0392649072265625,0.0169988317871097,-0.020877438476564,0.0476084095405394,0.276052000001073,
-0.03447650390625,-0.00933738647460913,-0.0160890351562522,0.0391749047227048,0.279757000000245,
-0.0272938989257813,-0.00454898315429664,-0.0280600434570317,0.0394083265962835,0.283588000000236,
-0.03447650390625,0.0217872351074222,-0.095097689941408,0.103474071957259,0.287532000000283,
-0.00814028564453125,0.0146046301269533,-0.0160890351562522,0.0232038040799088,0.291263000000981,
0.00383072265625,0.0193930334472658,-0.0687614716796894,0.0715465175247028,0.295033000000331,
-1.90913640380859,7.38395734008789,-6.12369747021485,9.78096613404324,0.29887299999973,
8.41944955810547,-9.25095579467774,9.45477418200684,15.6799256633859,0.302326999999423,
-8.47403735595703,-20.6425672937012,-23.9245868134766,32.715604041202,0.305254000000787,
-7.59057694335938,18.5834341558838,-12.3486217866211,23.5679728315386,0.308172000000923,
8.34522930664063,18.5834341558838,-2.42465590527344,20.5150148297645,0.311193999999887,
12.7409835546875,-17.0177459802246,9.45477418200684,23.2664800737243,0.314156000000366,
-13.2504696679688,-20.6425672937012,-6.60972040722656,25.4043093737745,0.317159000000174,
-2.39515934082031,6.7758301184082,-9.25291904003907,11.7160220562682,0.320110000000568,
4.91673252929688,18.5834341558838,5.57676604296875,20.0154591076179,0.323059000000285,
-3.61859638916016,0.835815799560547,1.33902910449219,3.9478889068862,0.326089000000138,
4.24156766113281,-17.5875659753418,-0.557178610351563,18.1003817961059,0.329013000000486,
1.65822406982422,0.97467949584961,0.515423733398436,1.99132338165463,0.332062999999835,
-3.30016756835938,10.2857297521973,-0.154952731445315,10.8033028682653,0.335025000000314,
0.516189877929687,-0.0572214196777341,0.132351467773436,0.53595073651296,0.33796699999948,
-0.237983645019531,-4.72591465698242,0.797939529296874,4.79870951952633,0.340976999999839,
-1.38720044189453,-3.06194450317383,-0.159741134765627,3.36531520613523,0.343909999999596,
2.56323229736328,1.6426617590332,-0.274662814453126,3.05678542368934,0.346943000000465,
0.561679709472656,5.04721651977539,-0.0807324799804707,5.07901530090732,0.349926000000778,
-1.61943800292969,0.713711514892579,0.00545877978515463,1.76974387132712,0.352871999999479,
-0.235589443359375,-6.16004145141602,0.120380459472655,6.16572011398578,0.355868000000555,
-0.41754876953125,0.141497318115235,-0.0543962617187521,0.444215509927152,0.358814000001075,
-0.486980617675781,3.50056224731445,-0.00890643017578263,3.53428429725363,0.361855000001015,
1.54090818847656,0.701740506591797,0.158687686035154,1.70059388614831,0.364814000000479,
0.0205901342773438,-2.11862904907227,0.0581312163085919,2.11952641868695,0.367820999999822,
-0.6665457421875,-0.820971749267578,-0.0376368500976572,1.05815611892056,0.370748999999705,
-0.0751779321289062,0.97467949584961,-0.0639730683593758,0.979665450337074,0.373676000001069,
-0.0871489404296875,1.08002436889648,0.0509486113281241,1.08473191905859,0.376698000000033,
-0.168551796875,-0.720415279541015,0.0150355864257801,0.740022940242475,0.379648000000088,
0.322259543457031,-1.22798603149414,-0.133404916503908,1.27655700172036,0.382675000000745,
0.413239206542969,0.804691177978516,0.0724964262695291,0.907496702783303,0.385653999999704,
-0.135032973632813,1.13269680541992,0.132351467773436,1.1483696565124,0.388570999999502,
-0.168551796875,-0.76829931274414,-0.0759440766601571,0.790228476437463,0.391590999999607,
-0.182917006835938,-1.25671645141602,-0.131010714843752,1.27669835045454,0.394544000000678,
-0.151792385253906,0.175016141357422,-0.020877438476564,0.232610071566246,0.397563000000446,
0.185790048828125,0.594001431884766,-0.00651222851562672,0.622413088266104,0.400633000001108,
0.152271225585938,-0.42353427368164,-0.0400310517578131,0.451852068966509,0.403675999999905,
-0.07278373046875,-0.322977803955078,-0.020877438476564,0.33173483492985,0.406770999999935,
-0.0512359155273438,0.299514627685547,0.0341891997070292,0.305782655842584,0.409789999999703,
-0.0991199487304688,0.18938135131836,-0.0424252534179708,0.217921918565062,0.412807000000612,
-0.151792385253906,-0.330160408935547,0.00545877978515463,0.36342347492464,0.415746000000581,
0.08044517578125,-0.188902510986328,-0.0304542451171894,0.207564558653624,0.418692999999621,
0.11875240234375,0.333033450927735,0.0389776030273428,0.355714303953334,0.421782999999778,
-0.0296881005859375,0.0912190832519533,0.000670376464842803,0.0959309849336081,0.424780000001192,
-0.063206923828125,-0.334948812255859,-0.0280600434570317,0.342013432616667,0.42779100000007,
-0.09193734375,-0.0644040246582029,0.0413718046874987,0.11963268696757,0.430752000000211,
-0.0703895288085937,0.251630594482422,-0.0113006318359385,0.261534598333307,0.433688000000984,
0.0205901342773438,-0.026096798095703,-0.0352426484375012,0.048446266825177,0.436746999999741,
0.0588973608398438,-0.215238729248047,0.0485544096679682,0.228372810072516,0.439723999999842,
-0.0584185205078125,0.15107412475586,0.0509486113281241,0.169799516210545,0.442782000000079,
-0.0751779321289062,0.103190091552735,0.000670376464842803,0.127672886230573,0.445750000000771,
-0.0201112939453125,-0.160172091064453,0.0126413847656242,0.161923955945088,0.44867400000112,
-0.00335188232421875,-0.0141257897949216,0.0605254179687496,0.0622422627539966,0.451698000000761,
-0.005746083984375,0.0768538732910158,-0.0184832368164081,0.079253803468341,0.45466099999976,
0.0086191259765625,-0.0117315881347655,-0.0136948334960945,0.0199866945053297,0.457689000000755,
-0.0225054956054688,-0.0644040246582029,0.0341891997070292,0.0763103996925013,0.460645999999542,
-0.024899697265625,-0.0883460412597654,0.0509486113281241,0.104979897725499,0.463655999999901,
-0.00814028564453125,0.0385466467285158,0.00545877978515463,0.0397731882193315,0.466624000000593,
-0.03447650390625,0.0385466467285158,0.0605254179687496,0.0796102978006143,0.469581999999718,
0.0158017309570313,-0.0787692346191404,-0.0520020600585944,0.0957000589031232,0.472620000000461,
0.0181959326171875,0.0337582434082033,-0.0472136567382826,0.0608263129280175,0.475610999999844,
-0.0320823022460938,0.0720654699707033,-0.0113006318359385,0.0796894620348229,0.478650000000926,
-0.0129286889648438,-0.0500388146972653,-0.0280600434570317,0.0588081628132306,0.481605000000854,
0.0277727392578125,-0.00215478149414028,-0.0304542451171894,0.0412726201594687,0.484550999999556,
-0.00335188232421875,0.311485635986329,-0.262691806152345,0.40748192789436,0.487599000000046,
0.0828393774414063,0.47668555053711,-0.248326596191408,0.543835981635785,0.490579999999682,
0.341413156738281,-0.789847127685547,1.31748128955078,1.57358774049098,0.49362900000051,
0.149877023925781,-2.99730105834961,-0.0615788666992199,3.00167764983326,0.49659100000099,
-2.22277682128906,4.18530392211914,-2.6568934663086,5.43291713622425,0.499563999999737,
2.04847894042969,0.799902774658204,1.54493044726562,2.6875491633044,0.502623000000312,
0.971088193359375,-3.62937029663086,0.917649612304686,3.86748262314277,0.505594000000201,
-2.16292177978516,1.20931125854492,-1.30895793164063,2.80250516722403,0.508619000000181,
0.255221896972656,0.967496890869141,0.592038186523435,1.16262533295887,0.511602000000494,
1.18656634277344,-0.729992086181641,-0.142981723144533,1.40045417805937,0.514540000000125,
-1.29622077880859,0.421618912353516,-0.119039706542971,1.36825482509771,0.517587000000276,
0.255221896972656,-0.483389315185547,0.216148525878905,0.587812582350443,0.520560000000842,
1.61752264160156,-0.540850155029297,-0.181288949707033,1.71515715594076,0.523595000000569,
-1.00173397460938,1.4511256262207,0.0413718046874987,1.76378801594302,0.526562999999442,
-0.477403811035156,-0.40438066040039,-0.0256658417968758,0.626176375098813,0.529496999999537,
0.750821640625,-1.49613661743164,-0.0113006318359385,1.67400287285611,0.532537999999477,
-0.510922634277344,0.965102689208985,-0.0520020600585944,1.09323801305372,0.535490000000209,
-0.190099611816406,0.730470926513672,0.00785298144531055,0.754842570482131,0.538577999999688,
0.784340463867188,-1.16573678833008,0.000670376464842803,1.40503831703272,0.541647000000012,
-0.242772048339844,0.0624886633300783,-0.0687614716796894,0.259944687361485,0.544680000000881,
-0.460644399414063,0.713711514892579,0.0629196196289055,0.851784167342906,0.547812000000704,
0.3294421484375,-0.421140072021484,-0.0543962617187521,0.53744771161328,0.550778000000719,
-0.115879360351563,-0.291853182373047,0.00785298144531055,0.314114589814517,0.553804000001037,
-0.252348854980469,0.356975467529297,-0.00890643017578263,0.437253648956976,0.556746000000203,
0.415633408203125,0.0481234533691408,0.017429788085936,0.418772962703465,0.559823999999935,
0.0205901342773438,-0.100317049560547,-0.0424252534179708,0.110848392815012,0.562788999999611,
-0.271502468261719,-0.0117315881347655,-0.0136948334960945,0.272100659493606,0.565705999999409,
0.133117612304688,-0.100317049560547,0.0796790312499986,0.184749985545798,0.568766000000323,
-0.063206923828125,0.143891519775391,-0.0759440766601571,0.174549097570998,0.571729000001142,
-0.1302445703125,0.0648828649902347,-0.0136948334960945,0.146153969257474,0.574767000000065,
0.183395847167969,-0.23199814086914,0.0653138212890614,0.302858167095712,0.577763000001141,
0.0277727392578125,0.122343704833985,0.0844674345703105,0.151241709396837,0.580755000000863,
-0.161369191894531,0.0720654699707033,0.0389776030273428,0.180977074770672,0.583803999999873,
-0.0129286889648438,-0.239180745849609,-0.0376368500976572,0.242468786999066,0.586725000001024,
-0.000957680664062498,0.0744596716308596,-0.121433908203127,0.142447723439566,0.58976900000016,
0.0301669409179688,0.198958157958985,0.0485544096679682,0.20700706181429,0.592762000000221,
0.137906015625,-0.179325704345703,0.0437660063476546,0.23041536558196,0.595708000000741,
-0.0225054956054688,-0.0691924279785154,-0.0352426484375012,0.080846358550643,0.598718999999619,
-0.173340200195313,0.160650931396485,-0.00890643017578263,0.236505541712631,0.601692000000185,
-0.0225054956054688,-0.0380678063964841,-0.0041180268554708,0.0444141121882488,0.604691000000457,
-0.005746083984375,-0.0332794030761716,-0.0304542451171894,0.0454752371727696,0.607630000000427,
0.04213794921875,0.110372696533203,-0.0352426484375012,0.123287400707704,0.610603000000992,
0.0756567724609375,0.0289698400878908,0.0222181914062478,0.0840050408207073,0.613680000000386,
-0.0272938989257813,-0.0691924279785154,0.0389776030273428,0.0839750114372718,0.616621999999552,
-0.132638771972656,-0.0332794030761716,-0.0974918916015639,0.167944131864057,0.619630000001052,
0.051714755859375,0.0169988317871097,0.00306457812499872,0.0545230950589329,0.622626000000309,
0.00143652099609375,-0.0117315881347655,-0.00890643017578263,0.0147992652254117,0.625562000001082,
0.0205901342773438,-0.0356736047363279,-0.0041180268554708,0.0413946596751946,0.628603000001021,
0.00143652099609375,-0.0404620080566404,0.0317949980468732,0.0514797007503785,0.63157400000091,
-0.00814028564453125,0.0169988317871097,-0.00651222851562672,0.0199407535650174,0.634615000000849,
-0.0464475122070312,-0.0237025964355466,0.0102471831054682,0.0531431014300605,0.637587000001076,
0.0229843359375,-0.0332794030761716,-0.0352426484375012,0.0536455276466125,0.640543999999863,
0.0086191259765625,0.0481234533691408,-0.0304542451171894,0.0575987599035741,0.643594000001031,
-0.0201112939453125,0.00981622680664085,0.0294007963867173,0.036949009202513,0.646586000000752,
-0.015322890625,-0.0500388146972653,-0.00651222851562672,0.0527359751370231,0.649590999999418,
-0.0320823022460938,-0.0308852014160154,0.0389776030273428,0.0591812750933492,0.652567000001,
-0.0296881005859375,0.0553060583496097,0.00306457812499872,0.062845326362868,0.655667999999423,
0.00143652099609375,-0.0213083947753905,-0.00172382519531311,0.0214262188400124,0.658633999999438,
0.0181959326171875,-0.016519991455078,0.0150355864257801,0.0288109517484616,0.661603000000468,
-0.0368707055664063,-0.00933738647460913,0.017429788085936,0.0418381790696186,0.664643000000069,
-0.0201112939453125,0.00742202514648471,-0.0711556733398453,0.0743147391159828,0.667617000000973,
-0.0392649072265625,-0.026096798095703,0.00785298144531055,0.0477958693606345,0.670656000000236,
0.0086191259765625,0.00502782348632835,0.0629196196289055,0.0637059406637692,0.673646000001099,
-0.0201112939453125,-0.0117315881347655,-0.0400310517578131,0.0463096038544409,0.676558999999543,
-0.0225054956054688,-0.00694318481445277,-0.020877438476564,0.0314733631053012,0.679653999999573,
0.00383072265625,-0.0237025964355466,0.0485544096679682,0.0541665783676649,0.682721999999558,
-0.0392649072265625,0.0169988317871097,-0.020877438476564,0.0476084095405394,0.685885000000781,
0.0205901342773438,0.00742202514648471,-0.00172382519531311,0.0219547639508626,0.688940000000002,
-0.0105344873046875,0.0122104284667972,-0.0041180268554708,0.0166441620785719,0.691882000000987,
-0.00335188232421875,-0.0237025964355466,-0.0280600434570317,0.0368837936187739,0.69488199999978,
0.0181959326171875,0.00263362182617222,0.09165003955078,0.0934759737975062,0.697863999999754,
0.0086191259765625,-0.0332794030761716,0.0341891997070292,0.0484841147007273,0.700909000001047,
-0.03447650390625,-0.0141257897949216,-0.0136948334960945,0.0396952859092076,0.703860999999961,
0.013407529296875,-0.0117315881347655,0.00306457812499872,0.0180771579927419,0.706825000001118,
-0.0105344873046875,-0.0141257897949216,0.00306457812499872,0.0178858882694474,0.709854000000632,
-0.0177170922851563,0.0241814367675783,-0.0041180268554708,0.0302588067902142,0.712811999999758,
-0.0560243188476563,-0.0284909997558591,-0.00890643017578263,0.0634805944199352,0.715830999999525,
-0.0368707055664063,0.0146046301269533,0.00306457812499872,0.0397760705599982,0.718832000000475,
-0.0416591088867188,-0.0284909997558591,-0.0352426484375012,0.0615569873305473,0.721811999999773,
0.0349553442382813,0.00981622680664085,0.0126413847656242,0.0384452728996519,0.724894000000859,
-0.0201112939453125,-0.0332794030761716,-0.0376368500976572,0.05411575831987,0.727817000000869,
0.0205901342773438,0.0313640417480472,0.0246123930664055,0.0448712228135978,0.730886000001192,
-0.0105344873046875,-0.0237025964355466,0.0150355864257801,0.0299809499470265,0.733825000001161,
-0.0416591088867188,-0.0332794030761716,0.0102471831054682,0.0542955318966375,0.736769000001004,
-0.03447650390625,-0.0213083947753905,-0.0448194550781267,0.0604273163643875,0.739792000000307,
-0.0320823022460938,-0.00694318481445277,-0.0256658417968758,0.0416679417288593,0.74275200000011,
-0.0368707055664063,0.0217872351074222,0.0317949980468732,0.0533390517668939,0.745811000000685,
-0.0177170922851563,-0.0189141931152341,-0.0184832368164081,0.0318319352765825,0.748751000000993,
0.00143652099609375,-0.0237025964355466,-0.0424252534179708,0.048618708312106,0.75177900000017,
-0.0105344873046875,-0.0213083947753905,-0.0160890351562522,0.0287033127519391,0.754714000000604,
0.0205901342773438,-0.0117315881347655,-0.0591846650390639,0.063752712612947,0.757654999999431,
-0.0105344873046875,-0.026096798095703,-0.0543962617187521,0.0612451759944854,0.760667000000467,
0.0205901342773438,0.00502782348632835,0.00785298144531055,0.022603140404579,0.76365799999985,
-0.0488417138671875,-0.026096798095703,-0.0041180268554708,0.0555293978853947,0.766637000000628,
0.0205901342773438,0.0169988317871097,0.0461602080078105,0.0533261541366882,0.769635000000562,
0.00383072265625,0.00981622680664085,-0.0615788666992199,0.0624739111049469,0.77259100000083,
-0.015322890625,0.00742202514648471,-0.0472136567382826,0.0501897082775059,0.775638000000981,
-0.0608127221679688,0.0241814367675783,0.0102471831054682,0.0662414811369729,0.778594999999768,
-0.0201112939453125,-0.0213083947753905,0.000670376464842803,0.0293080404780543,0.781614999999874,
-0.0177170922851563,-0.00454898315429664,-0.0184832368164081,0.0260042044675518,0.784555000000182,
-0.044053310546875,0.00981622680664085,-0.0352426484375012,0.0572633979759159,0.787524000001213,
-0.0129286889648438,-0.0117315881347655,-0.0232716401367199,0.0290921019035482,0.79054300000098,
-0.0560243188476563,-0.0404620080566404,-0.0328484467773453,0.076517441501945,0.793485000000146,
-0.000957680664062498,-0.0428562097167966,-0.0424252534179708,0.0603114747881646,0.796497999999701,
-0.024899697265625,-0.0308852014160154,-0.056790463378908,0.0692751565946892,0.799450000000434,
0.00383072265625,-0.0141257897949216,-0.0280600434570317,0.0316477236497339,0.802397999999812,
0.00383072265625,0.0193930334472658,-0.0400310517578131,0.0446458204896336,0.805462000000261,
0.00143652099609375,-0.00215478149414028,-0.0352426484375012,0.0353376703356208,0.808414999999513,
-0.0512359155273438,0.000239420166015858,0.0294007963867173,0.0590726941159298,0.811450000001059,
-0.0225054956054688,-0.0141257897949216,-0.00172382519531311,0.0266271824097497,0.814384999999675,
0.00622492431640626,-0.026096798095703,-0.0256658417968758,0.037128533350176,0.817380000000412,
0.0158017309570313,0.0241814367675783,0.0222181914062478,0.0364428952574772,0.820550000000367,
0.0277727392578125,-0.026096798095703,-0.0280600434570317,0.0473258275737555,0.82360300000073,
-0.0608127221679688,0.00742202514648471,0.0198239897460919,0.0643914917066437,0.826742999999624,
-0.015322890625,-0.00694318481445277,0.0270065947265614,0.0318175258497278,0.829703999999765,
-0.00814028564453125,0.000239420166015858,-0.056790463378908,0.0573714066690155,0.832645000000412,
-0.00814028564453125,0.0193930334472658,-0.0136948334960945,0.0250978577003513,0.835676000000603,
0.0086191259765625,0.00263362182617222,0.0270065947265614,0.0284707122363997,0.838678000000073,
-0.000957680664062498,0.00981622680664085,0.0294007963867173,0.0310110027110854,0.841733000001113,
-0.005746083984375,-0.0284909997558591,0.00545877978515463,0.0295728393122248,0.844670000000406,
-0.0272938989257813,0.0146046301269533,-0.0184832368164081,0.0360538788887867,0.847700000000259,
-0.015322890625,0.0193930334472658,-0.056790463378908,0.0619357526327369,0.850666000000274,
0.0158017309570313,0.00981622680664085,-0.133404916503908,0.134695674605284,0.853654000000461,
0.0349553442382813,0.0169988317871097,-0.0113006318359385,0.0404788914476993,0.85671800000091,
0.0181959326171875,0.00502782348632835,-0.0496078583984385,0.0530783438673291,0.859732000000804,
0.0110133276367188,0.00502782348632835,0.000670376464842803,0.0121252546054919,0.862807999999859,
0.00383072265625,-0.00215478149414028,-0.0639730683593758,0.0641238722682119,0.865756999999576,
-0.00814028564453125,-0.0356736047363279,0.0629196196289055,0.0727856363543279,0.868700000000899,
0.0397437475585938,-0.026096798095703,-0.0280600434570317,0.05520846293513,0.871741000000839,
-0.0129286889648438,-0.00215478149414028,0.0150355864257801,0.0199465019691239,0.874692999999752,
-0.0320823022460938,-0.00694318481445277,-0.020877438476564,0.0389017913484723,0.877715000000535,
-0.015322890625,0.00263362182617222,-0.0448194550781267,0.0474395456821544,0.880688000001101,
-0.0129286889648438,-0.00694318481445277,-0.0160890351562522,0.0217764980191131,0.88361100000111,
-0.03447650390625,0.0169988317871097,0.0317949980468732,0.0498849827555828,0.886663000001136,
-0.0320823022460938,0.0217872351074222,-0.0280600434570317,0.0478677738133529,0.889650999999503,
-0.005746083984375,-0.00454898315429664,-0.00172382519531311,0.00752876498488044,0.892676999999821,
0.0158017309570313,-0.0284909997558591,-0.0280600434570317,0.0429976488559232,0.895636000001105,
-0.0105344873046875,0.00502782348632835,-0.095097689941408,0.0958114036217739,0.898586999999679,
-0.0105344873046875,0.00502782348632835,-0.0280600434570317,0.0303911248655394,0.90161900000021,
-0.03447650390625,0.0241814367675783,-0.0879150849609385,0.0974804255706298,0.904598000000988,
0.00622492431640626,-0.00454898315429664,-0.0472136567382826,0.0478390250013881,0.907645000001139,
-0.00335188232421875,-0.0356736047363279,0.00545877978515463,0.0362441645888269,0.910594000000856,
-0.00814028564453125,0.0146046301269533,-0.00651222851562672,0.0179434832671758,0.913550000001123,
0.0205901342773438,-0.0284909997558591,-0.0615788666992199,0.0709059061052583,0.916600000000471,
0.0229843359375,-0.00454898315429664,-0.0352426484375012,0.0423204113297028,0.919562999999471,
0.013407529296875,-0.0141257897949216,-0.0304542451171894,0.0361491469447721,0.922598999999536,
0.013407529296875,-0.016519991455078,-0.00172382519531311,0.0213458083198179,0.925563000000693,
0.00383072265625,-0.00694318481445277,-0.0280600434570317,0.0291590173059255,0.928504999999859,
-0.015322890625,0.00263362182617222,-0.0974918916015639,0.0987238363774428,0.931539999999586,
-0.0320823022460938,0.000239420166015858,0.0246123930664055,0.0404363862366663,0.934521999999561,
0.00143652099609375,-0.0237025964355466,-0.0280600434570317,0.0367592533815516,0.93755500000043,
-0.044053310546875,-0.0141257897949216,-0.0184832368164081,0.0498182913263908,0.940513999999894,
-0.000957680664062498,-0.0284909997558591,-0.0304542451171894,0.0417146888397905,0.943519000000379,
-0.0129286889648438,-0.00694318481445277,-0.0424252534179708,0.044891657814079,0.946463000000222,
-0.0201112939453125,-0.00694318481445277,-0.00890643017578263,0.0230650484065935,0.949383000001035,
-0.0105344873046875,0.0146046301269533,0.106015249511717,0.107533733186147,0.952440999999453,
-0.0129286889648438,-0.0213083947753905,0.0461602080078105,0.0524591602065635,0.955386999999973,
-0.0201112939453125,0.0289698400878908,-0.020877438476564,0.0409827185068956,0.958507999999711,
-0.044053310546875,0.0122104284667972,-0.0160890351562522,0.0484628289077443,0.961594000000332,
0.0205901342773438,-0.0189141931152341,0.0581312163085919,0.0645053380758191,0.964664000000994,
-0.015322890625,-0.0213083947753905,-0.056790463378908,0.0625619324813476,0.967727999999624,
-0.0320823022460938,0.0169988317871097,-0.0256658417968758,0.0444631289348649,0.970703000000867,
-0.0512359155273438,0.0122104284667972,0.000670376464842803,0.0526750700794265,0.973737000000256,
-0.015322890625,-0.00215478149414028,0.0294007963867173,0.0332241010196877,0.976690999999846,
-0.0201112939453125,-0.00215478149414028,-0.00651222851562672,0.0212489140353571,0.979636000000028,
0.00143652099609375,0.00502782348632835,-0.0496078583984385,0.0498826845354319,0.982676999999967,
-0.0201112939453125,-0.0213083947753905,-0.0400310517578131,0.0496084361464395,0.985630000001038,
0.00622492431640626,0.00981622680664085,0.0150355864257801,0.0190046533941428,0.988702000000558,
-0.005746083984375,0.0289698400878908,-0.0256658417968758,0.0391280532484778,0.991659999999683,
-0.000957680664062498,-0.0117315881347655,-0.0352426484375012,0.0371563128055974,0.994608000000881,
-0.005746083984375,-0.0476446130371091,-0.0424252534179708,0.0640541080664652,0.997623999999632,
-0.015322890625,0.00742202514648471,0.0365834013671869,0.0403512414923439,1.00064200000088,
-0.03447650390625,-0.0404620080566404,0.00306457812499872,0.0532465497159912,1.00368999999955,
-0.015322890625,-0.0117315881347655,-0.00651222851562672,0.0203673821957861,1.00663300000087,
-0.03447650390625,0.0122104284667972,0.0389776030273428,0.0534507008625478,1.00961900000038,
0.00622492431640626,-0.026096798095703,-0.0735498750000012,0.0782903357133476,1.0126450000007,
0.00143652099609375,-0.026096798095703,0.0102471831054682,0.0280733187389218,1.01561899999979,
