X,Y,Z,Magnitude,Seconds,
-0.0232716401367187,0.00699106884765632,0.0266714064941418,0.0360805793005234,0.0,
0.0102471831054687,0.0213562788085938,0.0482192214355486,0.0537232605302197,0.00375799999983428,
-0.0017238251953125,0.0117794721679688,0.0506134230957045,0.0519946741053806,0.00746499999968364,
0.00306457812499999,-0.0193451494140624,-0.0355778366699209,0.0406129155201667,0.0112019999996846,
-0.044819455078125,0.0117794721679688,0.02188300317383,0.0512484667669372,0.0152239999997619,
0.06052541796875,0.0213562788085938,0.019488801513674,0.0670763016965132,0.0191750000003594,
-0.0376368500976562,-0.0217393510742186,0.0242772048339859,0.0497846818303872,0.0229129999997895,
-0.0496078583984375,0.0692403120117189,-0.05473144995117,0.101245701321671,0.0267370000001392,
0.0461602080078125,-0.0337103593749999,0.0266714064941418,0.0630754869730858,0.0304969999997411,
-0.0903092866210938,-0.0265277543945311,0.00512359155273501,0.0942642042008879,0.0342959999998129,
0.120380459472656,-0.0169509477539062,0.0625844313964858,0.136731856953034,0.0381200000001627,
-0.0807324799804687,0.06205770703125,0.0386424147949231,0.108913399299426,0.0420000000003711,
-0.01608903515625,-0.05286397265625,0.0482192214355486,0.0733385981125237,0.0457379999998011,
0.02221819140625,-0.0361045610351562,0.000335188232423178,0.0423945716814929,0.0495590000000448,
0.02221819140625,0.06205770703125,0.00991199487304861,0.0666562425711543,0.0533320000004096,
-0.0328484467773437,-0.0121625444335937,0.0314598098144554,0.0470814993000948,0.05705399999988,
-0.00890643017578124,-0.0241335527343749,-0.0619140549316395,0.0670455297848931,0.0607730000001538,
0.0365834013671875,0.0117794721679688,0.0170945998535164,0.0420633636826696,0.0646200000001045,
0.0389776030273438,0.00459686718750008,0.043430818115235,0.0585373443867702,0.0683779999999388,
-0.0232716401367187,-0.0145567460937499,0.043430818115235,0.0513780503099277,0.072095000000445,
-0.0184832368164062,-0.0241335527343749,-0.00684741674804457,0.0311599988272723,0.0757869999997638,
-0.01608903515625,0.0572693037109375,-0.0307894333496073,0.0669822320155469,0.0795340000004217,
0.06052541796875,0.0548751020507813,-0.00924161840820226,0.082219283359674,0.0833259999999427,
-0.0496078583984375,-0.0768059892578125,0.0338540114746113,0.0974997112491813,0.0873910000000251,
0.0102471831054687,-0.0145567460937499,-0.0212126267089836,0.027692582947959,0.0912299999999959,
0.06052541796875,0.0716345136718751,0.0530076247558604,0.107724825604668,0.0950810000003912,
0.00545877978515624,-0.0265277543945311,0.0386424147949231,0.0471885182130388,0.0988409999999931,
-0.05439626171875,-0.00497993945312492,-0.0283952316894514,0.0615633191813856,0.102630999999747,
-0.01608903515625,0.0261446821289063,0.00991199487304861,0.0322590932644416,0.106469000000288,
0.0150355864257813,0.0476924970703125,-0.0212126267089836,0.0543195974567521,0.110265999999683,
0.0294007963867188,-0.00976834277343741,0.00512359155273501,0.0314018875087457,0.114139999999679,
-0.083126681640625,-0.043287166015625,0.0554018264160163,0.108872339519625,0.11791600000015,
0.00545877978515624,-0.00258573779296867,-0.00205901342773274,0.006381524345515,0.121707000000242,
0.0485544096679688,0.0117794721679688,0.0123061965332045,0.0514560893954714,0.125496999999996,
-0.0232716401367187,-0.0313161577148436,0.000335188232423178,0.0390177308390052,0.129219000000376,
-0.0496078583984375,-0.00737414111328116,-0.0140300217285141,0.0520783936171287,0.132956000000377,
0.031794998046875,0.0285388837890626,-0.0140300217285141,0.0449692261266411,0.136798999999883,
0.0174297880859375,0.0165678754882813,-0.00924161840820226,0.025762366384296,0.140583000000333,
-0.102280294921875,-0.0289219560546874,-0.0283952316894514,0.110018305086166,0.144295000000056,
-0.00411802685546875,-0.0313161577148436,0.00512359155273501,0.03199861043237,0.148025999999845,
0.0174297880859375,0.0189620771484376,-0.00684741674804457,0.0266504221097038,0.151767000000291,
0.012641384765625,-0.0121625444335937,0.0338540114746113,0.038129072750525,0.155674999999974,
-0.0232716401367187,-0.00976834277343741,-0.0499430466308581,0.0559579990882838,0.159599000000526,
0.0102471831054687,0.00938527050781257,0.000335188232423178,0.0138996552206512,0.163497000000461,
0.0581312163085937,0.033327287109375,0.0362482131347672,0.0761831958574248,0.167301999999836,
-0.0424252534179688,-0.0337103593749999,0.0530076247558604,0.0758030259226412,0.171075000000201,
-0.0520020600585938,-0.00019153613281242,0.0242772048339859,0.0573901874102104,0.174856999999975,
-0.0184832368164062,-0.0193451494140624,0.0147003981933604,0.0305281272944658,0.178678999999647,
0.0365834013671875,-0.00976834277343741,0.000335188232423178,0.0378665832533549,0.182444000000032,
-0.0208774384765625,-0.00497993945312492,-0.00445321508788865,0.021920272783851,0.186252000000422,
-0.05439626171875,0.0357214887695313,-0.0667024582519513,0.0931890336130803,0.190029999999751,
0.000670376464843747,-0.0241335527343749,-0.0283952316894514,0.0372715300851078,0.193796999999904,
0.012641384765625,-0.00737414111328116,0.0410366164550791,0.0435681816929789,0.197546999999759,
-0.0663672700195312,-0.0217393510742186,-0.0499430466308581,0.0858575670616491,0.201286000000437,
-0.0376368500976562,-0.0289219560546874,-0.0355778366699209,0.0593194275883903,0.205003000000033,
-0.00411802685546875,0.0285388837890626,0.0147003981933604,0.0323655332128382,0.208827000000383,
0.00306457812499999,0.0189620771484376,0.000335188232423178,0.01921104786363,0.212604999999712,
-0.0424252534179688,-0.0456813676757812,0.02188300317383,0.06607234904417,0.216331000000537,
0.0341891997070313,-0.00976834277343741,-0.00445321508788865,0.0358350808812487,0.220056000000113,
0.00306457812499999,0.0381156904296875,-0.090644474853514,0.0983799690866252,0.223805999999968,
-0.0017238251953125,-0.0193451494140624,0.0913148513183604,0.0933574231138084,0.227764000000207,
-0.0280600434570312,0.0261446821289063,-0.0236068283691395,0.0450354614507506,0.231638000000203,
0.00545877978515624,-0.0145567460937499,0.000335188232423178,0.0155502245878279,0.235545999999886,
0.000670376464843747,0.0381156904296875,-0.0188184250488259,0.0425133906299494,0.239370000000235,
-0.05439626171875,-0.00258573779296867,-0.0236068283691395,0.0593542051969256,0.243101000000024,
-0.006512228515625,0.0237504804687501,0.0123061965332045,0.027530654112281,0.246944999999869,
0.00306457812499999,-0.00497993945312492,-0.00445321508788865,0.00735000412653066,0.250735000000532,
0.00545877978515624,-0.0217393510742186,-0.0403662399902327,0.0461717553577945,0.254511000000093,
-0.0184832368164062,-0.00737414111328116,-0.00684741674804457,0.0210450734494166,0.258359000000382,
-0.00890643017578124,-0.0121625444335937,0.00512359155273501,0.0159217830651741,0.2621850000005,
-0.044819455078125,-0.0217393510742186,-0.0595198532714836,0.0776144050552933,0.265943000000334,
-0.00411802685546875,-0.00258573779296867,0.02188300317383,0.0224167351106757,0.26971500000036,
-0.0208774384765625,0.00459686718750008,-0.0427604416503886,0.0478064221148002,0.273494000000028,
-0.00411802685546875,-0.0408929643554687,-0.0355778366699209,0.0543596830479314,0.277242000000115,
-0.0136948334960937,-0.00258573779296867,-0.100221281494139,0.101185669779605,0.280950000000303,
0.0102471831054687,0.0213562788085938,-0.0236068283691395,0.0334421553102878,0.284827999999834,
-0.0208774384765625,0.00938527050781257,0.0266714064941418,0.0351470434634724,0.288577999999688,
-0.00890643017578124,0.0285388837890626,0.0649786330566418,0.0715263248064052,0.292325999999775,
-0.0520020600585938,-0.0337103593749999,0.0554018264160163,0.0831261989372763,0.296116999999867,
0.122774661132812,-0.541281111328125,-1.9413623581543,2.01914503306605,0.300140999999712,
-0.3417004609375,0.0836055219726564,2.76324390405274,2.78554590010537,0.30384099999992,
-0.152558529785156,2.08036970654297,-1.24225547338867,2.42784078598165,0.306837000000087,
0.469933901855469,-0.529310103027344,-0.679618083251952,0.981268462941198,0.309782000000268,
0.201783315917969,-1.76711236132813,1.02984190209961,2.05523160433603,0.312818999999763,
-0.650552475097656,-1.73359353808594,0.0290656081542977,1.85186659555336,0.315775000000031,
-0.214807772949219,1.29985996533203,-1.38590757299805,1.91220242382592,0.31881599999997,
0.53936575,4.33810187207031,1.13518677514649,4.5164911468086,0.321837999999843,
0.0533428129882813,-1.04885186328125,1.34827072290039,1.70902592989001,0.324802000000091,
0.261638357421875,-4.79338325976563,-2.43696210180664,5.38365693471618,0.327860000000328,
-0.581120626953125,0.366121317871094,0.61564501489258,0.922369116369442,0.330864000000474,
-0.564361215332031,3.36605599804688,0.823940559326173,3.51108453453646,0.333910000000287,
0.642316421386719,0.126701151855469,-0.397102287353514,0.76571129917609,0.336903000000348,
0.620768606445313,-1.11110110644531,0.275668379150392,1.30226433060092,0.339874000000236,
-0.0208774384765625,-0.725634639160156,-0.330064640869139,0.797448533849368,0.342889999999898,
-0.9546160859375,-0.493397078125,0.0530076247558604,1.0758914241294,0.345846000000165,
-0.305787436035156,0.890451481445313,-0.105009684814451,0.947331426033116,0.348880999999892,
0.814698940917969,1.19930349560547,0.117651069580079,1.45461507385208,0.351867000000311,
0.661470034667969,-0.62747237109375,0.333129218994141,0.970690094622018,0.354814999999689,
-0.540419198730469,-1.07758228320312,-0.535965983642576,1.31927859948219,0.357860000000073,
-0.97376969921875,0.114730143554687,-0.0188184250488259,0.980685763166761,0.3608320000003,
0.450780288574219,0.473860392578125,0.225390144287111,0.691771101856037,0.363884000000326,
0.721325076171875,0.538503837402344,-0.0140300217285141,0.900273897167475,0.366860000000088,
-0.176500546386719,-0.062440779296875,0.0123061965332045,0.187623922427619,0.369886999999835,
-0.372825082519531,-0.89562295703125,-0.282180607666014,1.01032911403159,0.372833999999784,
-0.128616513183594,-0.0935654008789062,-0.0810676682128886,0.178517950174796,0.375755000000026,
0.108409451171875,0.777924003417969,0.179900312744142,0.805780669117017,0.378805999999713,
0.206571719238281,0.2344402265625,-0.0140300217285141,0.312779373567757,0.381800000000112,
0.0820732329101563,-0.438330439941406,-0.116980693115233,0.461035869213309,0.384817000000112,
-0.123828109863281,-0.26355371875,0.0913148513183604,0.30517595831022,0.387784999999894,
-0.289028024414062,0.124306950195313,-0.0451546433105463,0.317849584829143,0.390739000000394,
0.0437660063476563,0.303872074707031,-0.0283952316894514,0.308318001876433,0.393794999999955,
0.400502053710938,0.0452982954101563,0.124833674560549,0.421944637242889,0.396794000000227,
0.012641384765625,-0.2252464921875,-0.0475488449707022,0.230557323695462,0.399814999999762,
-0.372825082519531,-0.146237837402344,-0.0475488449707022,0.403292623168162,0.402759999999944,
-0.073549875,0.0883939252929689,-0.00445321508788865,0.11507780527032,0.405711000000338,
0.244878945800781,0.205709806640625,0.0554018264160163,0.32457908899813,0.408771000000343,
0.129957266113281,-0.0193451494140624,-0.0283952316894514,0.134422524169829,0.411731000000145,
-0.138193319824219,-0.153420442382812,-0.033183635009765,0.209132444679055,0.414748000000145,
-0.157346933105469,-0.0241335527343749,0.0290656081542977,0.161818711225429,0.417712000000392,
0.0365834013671875,0.148248966796875,0.0386424147949231,0.157509801704899,0.420681000000513,
0.0820732329101563,0.0117794721679688,0.000335188232423178,0.0829149195020526,0.423770999999761,
0.050948611328125,-0.0672291826171875,-0.0571256516113259,0.10187671011403,0.42680399999972,
-0.0376368500976562,-0.0600465776367187,-0.00924161840820226,0.0714669957529961,0.429901999999856,
-0.0998860932617188,0.00220266552734383,0.00272938989257909,0.0999476509563874,0.432980000000498,
-0.006512228515625,0.0189620771484376,0.0338540114746113,0.0393454391632135,0.435937000000195,
0.113197854492187,0.0117794721679688,-0.033183635009765,0.11854814995879,0.438989999999649,
0.0246123930664063,-0.0384987626953125,-0.00445321508788865,0.0459103010896712,0.441952000000128,
-0.09270348828125,0.0237504804687501,0.0865264479980485,0.129014914894237,0.445018000000346,
-0.0879150849609375,-0.00258573779296867,0.000335188232423178,0.0879537409936269,0.447992999999769,
0.0653138212890625,0.0237504804687501,-0.0188184250488259,0.0720007895456318,0.450941000000057,
0.070102224609375,-0.0121625444335937,0.0649786330566418,0.0963559657529938,0.453991999999744,
-0.0328484467773437,0.00699106884765632,-0.05473144995117,0.0642139168177279,0.456951000000117,
-0.0567904633789063,0.0285388837890626,-0.0283952316894514,0.0696125980079334,0.460003000000142,
0.0150355864257813,-0.00019153613281242,-0.0690966599121072,0.0707138880013447,0.462962999999945,
0.00545877978515624,-0.00497993945312492,0.0170945998535164,0.0186231956938508,0.466032000000268,
-0.00890643017578124,0.00699106884765632,0.019488801513674,0.0225391420987606,0.469030000000203,
0.00545877978515624,0.0189620771484376,0.00512359155273501,0.0203865111513811,0.472005000000536,
-0.0376368500976562,-0.00976834277343741,-0.00684741674804457,0.0394821494087418,0.475002000000131,
0.00785298144531249,0.00220266552734383,0.0266714064941418,0.0278905894054163,0.477996999999959,
-0.0280600434570312,-0.00258573779296867,-0.0188184250488259,0.033884881585491,0.480967999999848,
-0.025665841796875,-0.0600465776367187,-0.0810676682128886,0.104097520385933,0.48391300000003,
-0.006512228515625,-0.0217393510742186,0.0889206496582045,0.0917708583429674,0.486839000000145,
-0.0184832368164062,0.0596635053710938,0.0075177932128927,0.0629116931195601,0.489888000000064,
-0.006512228515625,0.052480900390625,-0.0714908615722649,0.0889246721354382,0.492844000000332,
0.0461602080078125,-0.210881282226562,-0.00205901342773274,0.21588404186771,0.495882000000165,
-0.025665841796875,-0.184545063964844,0.0506134230957045,0.193073391917155,0.498843000000306,
-0.135799118164062,0.363727116210938,-0.00445321508788865,0.388276508027309,0.501792000000023,
0.000670376464843747,0.246411234863281,0.0554018264160163,0.2525634740846,0.50485000000026,
0.17544709765625,-0.352139180175781,0.019488801513674,0.39390798376691,0.507818000000043,
-0.0472136567382813,-0.213275483886719,-0.0858560715332022,0.234705829558681,0.510817999999745,
-0.241143991210938,0.162614176757813,0.0170945998535164,0.291352055637014,0.513799999999719,
0.113197854492187,0.121912748535156,-0.00445321508788865,0.166422064768016,0.516767000000073,
0.108409451171875,-0.0384987626953125,0.0697670363769554,0.134544428339789,0.519811000000118,
-0.0998860932617188,-0.112719014160156,-0.0475488449707022,0.157935747816554,0.522769000000153,
0.00306457812499999,-0.100748005859375,-0.0355778366699209,0.106889357682776,0.525792000000365,
-0.0472136567382813,0.0859997236328126,0.00991199487304861,0.0986069444303176,0.528785999999855,
0.0389776030273438,0.052480900390625,0.0817380446777349,0.10466425555703,0.531762999999955,
0.0341891997070313,-0.0241335527343749,0.019488801513674,0.0461643057852006,0.534791000000041,
0.02221819140625,-0.0672291826171875,-0.0140300217285141,0.0721820790393466,0.537763000000268,
-0.0687614716796875,-0.0600465776367187,0.0075177932128927,0.0915983006841872,0.540791999999783,
-0.0591846650390625,0.00459686718750008,0.0170945998535164,0.0617752467245367,0.543775000000096,
0.0174297880859375,0.0812113203125001,-0.00445321508788865,0.083179968647741,0.546742999999879,
0.0724964262695313,0.0285388837890626,0.0266714064941418,0.0823502497516246,0.549794000000475,
-0.0424252534179688,-0.0313161577148436,0.000335188232423178,0.0527324967430046,0.552735000000212,
-0.0352426484375,-0.0672291826171875,-0.00924161840820226,0.0764670829512097,0.555747000000338,
-0.0017238251953125,0.0165678754882813,0.0745554396972672,0.0763935838925759,0.55873900000006,
0.0102471831054687,0.112335941894531,0.00512359155273501,0.112918642363995,0.561778000000231,
-0.0424252534179688,-0.0169509477539062,0.079343843017579,0.0915569887126742,0.56479599999966,
-0.0184832368164062,-0.0887769975585937,0.00272938989257909,0.0907217444051624,0.567818000000443,
-0.01608903515625,0.0213562788085938,0.0530076247558604,0.0593696553726527,0.570945000000393,
-0.0304542451171875,0.0812113203125001,-0.00924161840820226,0.0872246931972825,0.57398000000012,
-0.00890643017578124,-0.0480755693359375,-0.0140300217285141,0.050866751175529,0.576963999999862,
0.0198239897460938,-0.0792001909179687,0.0123061965332045,0.0825657512774503,0.579937000000427,
0.000670376464843747,-0.0193451494140624,-0.0283952316894514,0.0343652934390882,0.582883000000038,
-0.0400310517578125,0.0381156904296875,-0.00684741674804457,0.0556971999106763,0.585957000000235,
0.0365834013671875,0.0141736738281251,-0.00684741674804457,0.0398261898943423,0.588932999999997,
0.0653138212890625,-0.0265277543945311,-0.0403662399902327,0.0812345390554118,0.591977000000043,
-0.0136948334960937,-0.00258573779296867,-0.00205901342773274,0.0140880815129421,0.594922000000224,
-0.073549875,0.0117794721679688,0.00512359155273501,0.07466318548971,0.597880999999688,
0.02221819140625,0.0500866987304688,-0.0236068283691395,0.0596624485311449,0.60094300000037,
0.0533428129882813,-0.0384987626953125,-0.052337248291014,0.0840642491505633,0.603912000000491,
-0.0472136567382813,-0.0217393510742186,0.019488801513674,0.0555116397899375,0.606980000000476,
-0.0376368500976562,-0.0289219560546874,-0.0427604416503886,0.0638863631570854,0.609932000000299,
-0.00411802685546875,-0.00976834277343741,0.0147003981933604,0.0181240274984641,0.612866000000395,
0.00545877978515624,-0.00019153613281242,0.0314598098144554,0.0319304650200198,0.615921999999955,
-0.006512228515625,-0.00258573779296867,0.00272938989257909,0.0075196229532749,0.618870999999672,
-0.0184832368164062,-0.0408929643554687,-0.0140300217285141,0.0470181463553336,0.621882000000369,
-0.0376368500976562,-0.00258573779296867,0.00272938989257909,0.0378241734132174,0.624837999999727,
0.0365834013671875,0.0213562788085938,-0.0307894333496073,0.0523681688254711,0.627808000000186,
0.0150355864257813,0.0165678754882813,-0.00205901342773274,0.022467819067678,0.630855999999767,
-0.0280600434570312,-0.00019153613281242,-0.0595198532714836,0.0658028544848898,0.633796000000075,
-0.025665841796875,0.033327287109375,-0.00684741674804457,0.0426184304888663,0.636841000000459,
0.012641384765625,-0.0265277543945311,-0.00445321508788865,0.0297213304989555,0.639807999999903,
-0.01608903515625,0.0237504804687501,-0.033183635009765,0.0438645187733415,0.642757999999958,
0.00545877978515624,0.0141736738281251,-0.00205901342773274,0.0153274538924275,0.645809999999983,
0.0270065947265625,0.0141736738281251,-0.00205901342773274,0.0305694083162638,0.648796000000402,
-0.0113006318359375,0.0165678754882813,-0.033183635009765,0.0387730887413925,0.651836000000003,
-0.0567904633789063,-0.00019153613281242,-0.01642422338867,0.059118089708667,0.654765999999654,
-0.025665841796875,-0.0169509477539062,0.02188300317383,0.0377483230462457,0.657787000000098,
0.012641384765625,-0.0169509477539062,0.0075177932128927,0.0224422916240754,0.660780000000159,
-0.0328484467773437,-0.0193451494140624,0.0745554396972672,0.0837363054474535,0.663722000000234,
-0.0400310517578125,-0.00258573779296867,0.0482192214355486,0.0627237152966971,0.666747000000214,
0.00545877978515624,-0.0265277543945311,-0.0355778366699209,0.0447135604942277,0.669719000000441,
-0.01608903515625,0.0285388837890626,0.0721612380371113,0.0792500423673912,0.672760999999809,
-0.0136948334960937,0.0117794721679688,-0.0140300217285141,0.0228723837573669,0.675734000000375,
0.00545877978515624,-0.0361045610351562,-0.00205901342773274,0.0365729017249074,0.678678000000218,
-0.00890643017578124,-0.00258573779296867,0.0386424147949231,0.0397397377896854,0.681714999999713,
-0.006512228515625,0.00938527050781257,0.0123061965332045,0.0167909170642461,0.68468699999994,
-0.00890643017578124,-0.00019153613281242,0.057796028076174,0.0584785605666567,0.687718000000132,
-0.0280600434570312,0.0309330854492188,0.019488801513674,0.0460872563585481,0.690698000000339,
0.0198239897460938,-0.0145567460937499,-0.0116358200683582,0.0272081189161313,0.693647000000055,
-0.006512228515625,-0.0193451494140624,0.00272938989257909,0.0205935304228739,0.696678000000247,
-0.0328484467773437,0.00459686718750008,-0.0307894333496073,0.0452563901522581,0.699649000000136,
-0.0280600434570312,0.0189620771484376,0.00272938989257909,0.0339761089264131,0.702728999999636,
-0.0113006318359375,0.00459686718750008,0.0362482131347672,0.0382461556668697,0.705789999999979,
0.00306457812499999,-0.00737414111328116,0.0386424147949231,0.0394589130289432,0.708830999999918,
-0.0136948334960937,0.0261446821289063,0.0386424147949231,0.0486243672379413,0.711981000000378,
-0.00411802685546875,-0.0265277543945311,-0.0283952316894514,0.0390764517465001,0.714931999999862,
-0.0208774384765625,-0.00258573779296867,-0.0283952316894514,0.0353389680094688,0.717940999999882,
-0.0136948334960937,-0.00976834277343741,-0.0260010300292954,0.0309680891824055,0.72087399999964,
0.031794998046875,0.00938527050781257,-0.0307894333496073,0.0452437223191849,0.723863000000165,
0.0294007963867188,-0.0600465776367187,-0.0283952316894514,0.0726380581840774,0.726905000000443,
0.000670376464843747,-0.00737414111328116,-0.033183635009765,0.0339997205021526,0.729870000000119,
0.00785298144531249,-0.0193451494140624,-0.033183635009765,0.0392053281569498,0.732895000000099,
-0.0328484467773437,-0.0121625444335937,0.00512359155273501,0.0354005527242497,0.735862999999881,
-0.0232716401367187,0.0381156904296875,-0.0260010300292954,0.0516761903991484,0.738812000000507,
-0.0232716401367187,-0.00737414111328116,-0.0212126267089836,0.0323407285586798,0.741821999999956,
-0.0400310517578125,-0.00019153613281242,0.00991199487304861,0.0412403859498208,0.744794000000184,
-0.006512228515625,-0.0121625444335937,-0.00205901342773274,0.0139490552954113,0.747833000000355,
-0.0376368500976562,-0.0121625444335937,-0.0283952316894514,0.0486903394429553,0.75077599999986,
-0.01608903515625,0.00459686718750008,-0.0379720383300768,0.0414953483554408,0.75380000000041,
-0.0113006318359375,0.00699106884765632,-0.0260010300292954,0.0291998781865335,0.75676999999996,
0.00306457812499999,-0.00737414111328116,0.00991199487304861,0.0127285992397496,0.759737999999743,
-0.0232716401367187,0.00459686718750008,-0.0283952316894514,0.0369998595306803,0.762772000000041,
-0.0280600434570312,-0.0217393510742186,0.000335188232423178,0.0354975742141596,0.765742999999929,
-0.00411802685546875,0.00938527050781257,0.0123061965332045,0.0160151153851926,0.768783999999869,
0.0102471831054687,-0.00258573779296867,0.00512359155273501,0.0117448708775468,0.77176000000054,
-0.0496078583984375,0.0548751020507813,0.0314598098144554,0.0803861684217179,0.774715999999898,
0.00545877978515624,0.033327287109375,-0.0667024582519513,0.0747644586663132,0.777769999999691,
-0.01608903515625,0.00938527050781257,0.043430818115235,0.0472564949707708,0.780753000000004,
-0.0184832368164062,0.0117794721679688,0.0386424147949231,0.0444254682468311,0.783798999999817,
0.0198239897460938,0.0237504804687501,0.0075177932128927,0.0318369770352263,0.786793999999645,
-0.0352426484375,-0.00258573779296867,-0.00205901342773274,0.0353973140946992,0.789710000000014,
0.00306457812499999,0.0141736738281251,0.00991199487304861,0.0175650878515779,0.792766000000483,
-0.05439626171875,0.0261446821289063,0.0458250197753927,0.0757788237571119,0.795734000000266,
0.0246123930664063,0.0261446821289063,-0.0140300217285141,0.0385506913787472,0.79877899999974,
-0.0304542451171875,0.00938527050781257,0.0123061965332045,0.0341611888153268,0.801787000000331,
-0.025665841796875,-0.00737414111328116,0.0482192214355486,0.0551199302262917,0.804718000000321,
0.00545877978515624,0.00459686718750008,0.0075177932128927,0.0103656490136489,0.807773999999881,
0.000670376464843747,-0.0217393510742186,0.0242772048339859,0.0325949607191672,0.81074499999977,
-0.0136948334960937,-0.00019153613281242,0.0266714064941418,0.0299824794663759,0.81376199999977,
-0.0352426484375,-0.00976834277343741,-0.0212126267089836,0.0422781305325019,0.816706000000522,
-0.0017238251953125,-0.0169509477539062,-0.0714908615722649,0.0734931935039184,0.819637999999941,
-0.006512228515625,0.0381156904296875,0.019488801513674,0.043301597679657,0.822686000000431,
0.00306457812499999,-0.0265277543945311,0.0170945998535164,0.0317070770720455,0.825663000000532,
-0.0280600434570312,0.0165678754882813,-0.0643082565917954,0.0720930815188383,0.828685999999834,
-0.0496078583984375,-0.00497993945312492,0.0314598098144554,0.0589530240564292,0.831648000000314,
-0.0376368500976562,0.0141736738281251,-0.0355778366699209,0.0536955117041554,0.834598999999798,
-0.0113006318359375,0.00220266552734383,0.02188300317383,0.0247269456913426,0.837650000000394,
0.000670376464843747,-0.043287166015625,0.00991199487304861,0.0444125634098307,0.840632999999798,
-0.0136948334960937,-0.0145567460937499,0.0147003981933604,0.0248102605461327,0.843722999999954,
0.00785298144531249,-0.00019153613281242,-0.0403662399902327,0.0411234645259815,0.846776000000318,
-0.00890643017578124,-0.00019153613281242,0.000335188232423178,0.00891479308326303,0.849890999999843,
0.0437660063476563,-0.0193451494140624,-0.00445321508788865,0.0480575617576931,0.852920000000267,
-0.0352426484375,0.00699106884765632,-0.0236068283691395,0.0429907159532369,0.855867000000217,
-0.025665841796875,0.0165678754882813,-0.00445321508788865,0.0308716869956341,0.858900000000176,
-0.0113006318359375,0.0237504804687501,-0.0140300217285141,0.0298099163381996,0.861872000000403,
0.031794998046875,-0.0169509477539062,0.0386424147949231,0.0528345791290073,0.864924999999857,
-0.01608903515625,0.00938527050781257,-0.00445321508788865,0.0191512787923643,0.86788499999966,
0.0198239897460938,0.0189620771484376,0.0123061965332045,0.0300664832055627,0.870861999999761,
0.000670376464843747,0.0716345136718751,-0.0283952316894514,0.0770599905029082,0.873919999999998,
-0.0304542451171875,-0.00258573779296867,-0.0882502731933581,0.0933930286707421,0.876863000000412,
-0.0208774384765625,0.00699106884765632,0.00272938989257909,0.0221854017353988,0.879925000000185,
-0.025665841796875,-0.00258573779296867,0.00991199487304861,0.0276345638185144,0.882870999999795,
-0.0304542451171875,-0.00019153613281242,-0.00924161840820226,0.0318261722887113,0.885830000000169,
0.031794998046875,-0.0121625444335937,-0.0403662399902327,0.0528041922469134,0.888872999999876,
0.0150355864257813,0.0572693037109375,-0.0403662399902327,0.0716608354518129,0.891864000000169,
-0.0232716401367187,-0.00258573779296867,0.0458250197753927,0.0514605451972873,0.894902000000002,
-0.0496078583984375,-0.0121625444335937,-0.0619140549316395,0.0802634244226886,0.897847000000183,
0.0102471831054687,0.0165678754882813,-0.0260010300292954,0.0324892724199315,0.900806999999986,
0.000670376464843747,0.00938527050781257,0.000335188232423178,0.00941515046404399,0.903865999999653,
-0.006512228515625,0.0189620771484376,-0.00445321508788865,0.0205377850471276,0.906818999999814,
-0.0113006318359375,-0.0217393510742186,-0.033183635009765,0.0412487247982387,0.909830000000511,
0.031794998046875,-0.00976834277343741,0.0147003981933604,0.0363654249031069,0.912803000000167,
0.0150355864257813,-0.00976834277343741,0.0266714064941418,0.0321380351621292,0.915782000000036,
-0.0280600434570312,0.0213562788085938,0.00512359155273501,0.0356329604967105,0.918822999999975,
-0.0208774384765625,-0.0121625444335937,0.0242772048339859,0.034251680236057,0.921774999999798,
0.0198239897460938,-0.0384987626953125,0.00512359155273501,0.0436050053196015,0.924823000000288,
-0.025665841796875,0.0309330854492188,-0.0260010300292954,0.0478711267167926,0.92779100000007,
-0.00890643017578124,-0.00497993945312492,0.0075177932128927,0.0126744431918989,0.930734000000484,
-0.0136948334960937,0.00699106884765632,0.0147003981933604,0.021272640060927,0.933764000000338,
-0.05439626171875,0.00699106884765632,0.0554018264160163,0.0779563384391405,0.936741999999867,
0.0246123930664063,-0.0576523759765625,0.0290656081542977,0.069096859013832,0.93979599999966,
-0.0400310517578125,-0.00976834277343741,0.0314598098144554,0.0518423114737155,0.94275800000014,
-0.0017238251953125,-0.0169509477539062,0.0170945998535164,0.0241356903197628,0.945768000000498,
0.00785298144531249,-0.0504697709960937,0.0458250197753927,0.0686206932302035,0.948750000000473,
-0.0328484467773437,0.0309330854492188,-0.033183635009765,0.0560091944554995,0.951702000000296,
-0.0232716401367187,-0.00497993945312492,0.00512359155273501,0.0243437922684405,0.954730000000382,
0.00306457812499999,-0.062440779296875,0.0338540114746113,0.0710938580413835,0.957717999999659,
-0.0376368500976562,0.00938527050781257,0.0147003981933604,0.0414815319729349,0.960745999999745,
0.0198239897460938,-0.062440779296875,-0.00445321508788865,0.0656633277657574,0.96371100000033,
-0.01608903515625,-0.00497993945312492,0.0314598098144554,0.0356844011127768,0.966663000000153,
0.0174297880859375,0.0309330854492188,-0.0379720383300768,0.0519858536822296,0.969718999999714,
0.00785298144531249,0.00459686718750008,0.00991199487304861,0.0134554133300794,0.972716999999648,
-0.0184832368164062,-0.0193451494140624,-0.0236068283691395,0.0356811882469427,0.975717999999688,
-0.00411802685546875,0.00459686718750008,-0.00205901342773274,0.00650606404959714,0.97868600000038,
-0.0280600434570312,0.0117794721679688,-0.0236068283691395,0.0385149886280191,0.981660999999804,
-0.0017238251953125,-0.0121625444335937,0.00272938989257909,0.0125836651889999,0.984768000000258,
-0.0328484467773437,0.0165678754882813,-0.0475488449707022,0.0601199435456076,0.987826000000496,
-0.0017238251953125,0.00699106884765632,-0.0188184250488259,0.0201489388865752,0.990945999999894,
0.00785298144531249,-0.0121625444335937,-0.0236068283691395,0.0276925829479587,0.99393500000042,
-0.01608903515625,0.04290409375,0.0530076247558604,0.0700673004690915,0.996903000000202,
-0.01608903515625,0.00459686718750008,-0.00684741674804457,0.018079694585915,0.999933000000055,
0.02221819140625,0.0141736738281251,0.0530076247558604,0.0591975450623499,1.00293899999997,
-0.063973068359375,-0.0169509477539062,-0.0140300217285141,0.0676515307644365,1.00596300000052,
0.0198239897460938,0.0189620771484376,-0.00924161840820226,0.0289475119835773,1.00893999999971,
0.0365834013671875,0.0117794721679688,-0.033183635009765,0.0507765187129837,1.01190899999983,
-0.01608903515625,-0.0121625444335937,-0.0379720383300768,0.0429960490545237,1.01492899999994,
0.00306457812499999,0.0189620771484376,0.0170945998535164,0.0257133691495177,1.01793400000042,
