X,Y,Z,Magnitude,Seconds,
-0.030214824951172,-0.01149216796875,0.0134554133300764,0.0350150498976529,0.0,
-0.00387860668945322,-0.0330399829101563,0.0541568415527323,0.063558221714603,0.00392499999998108,
0.0176692082519531,-0.0162805712890625,-0.0248518132324236,0.0345668995237987,0.00778600000012375,
-0.0421858332519532,-0.021068974609375,0.00866701000976278,0.047944376946222,0.0117439999994531,
-0.00627280834960947,-0.0162805712890625,0.0757046564941373,0.0776891249853189,0.0156689999994342,
0.0200634099121093,-0.0162805712890625,0.0637336481933577,0.0687719080063529,0.0197049999997034,
-0.0230322199707032,0.00526724365234373,-0.00569819995117449,0.0243042485001199,0.023548999999548,
0.00330399829101552,-0.00670376464843752,-0.034428619873049,0.0352304801490354,0.0274039999994784,
-0.0230322199707032,-0.0378283862304688,0.0206380183105441,0.0488610045063211,0.031315999999606,
-0.00866701000976572,-0.00430956298828127,0.00148440502929503,0.0097924896706782,0.0352549999997791,
-0.030214824951172,0.00526724365234373,-0.0440054265136745,0.0536391374387538,0.0391810000000987,
-0.011061211669922,-0.00191536132812502,0.0709162531738254,0.0717992616733501,0.0432270000001154,
-0.020638018310547,0.0196324536132812,0.0302148249511696,0.0415246514915409,0.0472719999997935,
0.000909796630859272,-0.0258573779296875,-0.00569819995117449,0.0264934181636077,0.0512099999996281,
-0.00866701000976572,0.00287304199218748,0.00387860668945095,0.00992043459984014,0.055116999999882,
-0.039791631591797,0.00526724365234373,0.0804930598144509,0.0899458196845369,0.0590059999994992,
-0.0326090266113282,-0.0138863696289063,-0.0128808049316422,0.0377106750628511,0.0627979999999297,
-0.0469742365722657,-0.0378283862304688,-0.0559764348144558,0.0822856424954301,0.0666919999994207,
-0.0158496149902345,-0.0234631762695313,-0.0296402165527372,0.0409911377408205,0.0707679999995889,
-0.0373974299316407,-0.00670376464843752,0.0302148249511696,0.0485432165475614,0.0746039999994537,
0.000909796630859272,-0.00430956298828127,0.0373974299316373,0.0376559135933682,0.0785310000001118,
-0.00148440502929698,-0.0186747729492188,0.0230322199707,0.0296889501292078,0.0823789999994915,
0.0128808049316406,-0.0354341845703125,-0.0248518132324236,0.0451564966841895,0.0862959999994928,
-0.0326090266113282,-0.00430956298828127,0.00148440502929503,0.0329260445237394,0.0901379999995697,
-0.0230322199707032,0.0124498486328125,0.0158496149902323,0.0306054273470801,0.0940669999999955,
-0.00627280834960947,-0.0354341845703125,0.00627280834960686,0.0365277659506409,0.09787199999937,
-0.0182438166503907,0.00287304199218748,-0.0631590397949235,0.0658039172396194,0.101719999999659,
-0.00148440502929698,-0.00191536132812502,0.0517626398925763,0.0518193299450776,0.10546499999964,
-0.00387860668945322,-0.0186747729492188,-0.0272460148925813,0.0332586238753666,0.109276000000136,
-0.00148440502929698,0.00287304199218748,0.00148440502929503,0.00355827020768113,0.113260000000082,
-0.0158496149902345,-0.00670376464843752,0.0302148249511696,0.0347719197432371,0.117137000000184,
-0.0421858332519532,0.00047884033203123,-0.00330399829101857,0.04231772938063,0.121114999999918,
0.00330399829101552,-0.00430956298828127,0.0182438166503882,0.0190348518205417,0.124995999999555,
-0.00627280834960947,-0.0521935961914063,-0.0248518132324236,0.0581475040644203,0.128832999999759,
-0.0182438166503907,0.0148440502929687,0.0972524714355441,0.100056113633274,0.132668999999623,
-0.020638018310547,-0.00909796630859377,0.00387860668945095,0.0228854622105439,0.136598000000049,
-0.030214824951172,-0.00191536132812502,0.0493684382324187,0.0579124075596532,0.140465999999833,
-0.0517626398925782,0.00526724365234373,-0.0416112248535185,0.0666228847930797,0.144470999999612,
-0.00387860668945322,-0.00670376464843752,-0.0128808049316422,0.0150299429806014,0.1483589999998,
0.00330399829101552,-0.00670376464843752,0.00387860668945095,0.00842024079347662,0.152247999999418,
-0.00148440502929698,-0.0354341845703125,0.0685220515136695,0.0771560525046218,0.1561329999995,
-0.0254264216308595,0.0244208569335937,0.00148440502929503,0.0352857567385523,0.159963000000062,
-0.00627280834960947,-0.0545877978515625,-0.0200634099121118,0.0584954375671762,0.163808999999674,
0.000909796630859272,-0.0521935961914063,0.0182438166503882,0.0552977039240698,0.167828999999983,
-0.0350032282714844,-0.0330399829101563,0.0613394465332,0.077970469801896,0.171768000000156,
-0.0158496149902345,-0.01149216796875,-0.0080924016113304,0.021184125750186,0.175609999999324,
0.0104866032714843,-0.0138863696289063,0.0350032282714814,0.0390899744061,0.1796089999998,
-0.0254264216308595,-0.0138863696289063,-0.0176692082519558,0.0339342761624855,0.183560999999827,
0.0104866032714843,0.0124498486328125,-0.000909796630862658,0.0163032300193237,0.187621000000036,
-0.0445800349121095,-0.00909796630859377,-0.0152750065917999,0.0479945656308789,0.191528999999719,
-0.030214824951172,-0.00909796630859377,0.0469742365722627,0.0565887580649123,0.195569999999861,
0.0176692082519531,-0.0641646044921875,0.0158496149902323,0.068414235983663,0.199448999999731,
-0.00866701000976572,-0.0138863696289063,0.0350032282714814,0.0386416137526039,0.203384999999798,
-0.0661278498535157,-0.03064578125,-0.0080924016113304,0.0733317352754661,0.207327000000078,
-0.0134554133300782,0.0244208569335937,-0.0128808049316422,0.0307138655486625,0.211212999999589,
0.0128808049316406,-0.0258573779296875,0.0733104548339814,0.078796839511816,0.215298999999504,
-0.00866701000976572,-0.0162805712890625,0.0350032282714814,0.0395651368433506,0.219396999999844,
-0.020638018310547,0.017238251953125,0.0254264216308577,0.0370079457297489,0.223300999999992,
0.000909796630859272,-0.0186747729492188,0.0206380183105441,0.0278478486494155,0.227191999999377,
-0.011061211669922,0.00047884033203123,0.0278206232910136,0.0299427248588182,0.231068999999479,
0.0272460148925781,-0.021068974609375,0.00627280834960686,0.0350085010134392,0.234959999999774,
-0.0158496149902345,-0.0186747729492188,-0.111043072998049,0.113712450949285,0.238846000000194,
-0.058945244873047,-0.0258573779296875,-0.0104866032714863,0.0652159086014732,0.242792000000009,
0.0152750065917968,-0.03064578125,0.0421858332519509,0.0543335463775714,0.246834999999919,
0.0152750065917968,0.0148440502929687,0.0254264216308577,0.0331688795775464,0.250938999999562,
-0.00148440502929698,0.0316034619140625,0.0206380183105441,0.0377744631071172,0.254824999999983,
-0.0182438166503907,0.0100556469726562,0.00627280834960686,0.0217554822194927,0.258784999999989,
0.00330399829101552,-0.0186747729492188,-0.0128808049316422,0.0229255029410246,0.262695999999778,
-0.00387860668945322,-0.04979939453125,0.0326090266113255,0.0596520905087885,0.84342099999958,
-0.0254264216308595,0.0387860668945312,0.0302148249511696,0.0553515812685339,0.847944000000098,
-0.0158496149902345,-0.021068974609375,0.0469742365722627,0.053867345284282,0.851720999999998,
0.0248518132324218,-0.0354341845703125,0.0517626398925763,0.0674726977802925,0.855485999999473,
-0.011061211669922,-0.00430956298828127,0.0110612116699187,0.0162256938330392,0.859246999999414,
-0.087675664794922,0.0196324536132812,-0.0272460148925813,0.0938871703676062,0.862995999999839,
-0.0421858332519532,-0.0426167895507813,-0.0104866032714863,0.0608753162369669,0.866763999999421,
-0.0158496149902345,-0.0186747729492188,-0.034428619873049,0.0422526603470887,0.870543999999427,
0.00569819995117177,-0.03064578125,-0.0679474431152371,0.0747561931682237,0.874268999999913,
0.0200634099121093,0.175255561523437,0.264846587646481,0.318214970185537,0.877982999999404,
-0.0326090266113282,-0.143173259277344,0.149924907958981,0.209855685686962,0.881636000000071,
0.036822821533203,-0.0713472094726563,-0.269060382568362,0.280784319279113,0.885309999999663,
-0.252875579345703,0.584664045410156,0.300759612548825,0.704439102524351,0.889161999999487,
0.312156012451172,-0.693839641113281,-0.0104866032714863,0.760897360054427,0.892358999999487,
-0.0661278498535157,-0.466390483398438,-0.2451183659668,0.531014113621391,0.895316000000093,
-0.288788604248047,1.0802637890625,0.272029192626951,1.15081214520202,0.898352999999588,
0.252300970947266,-0.100077629394531,-0.166109711181644,0.318219653690672,0.901305999999749,
0.221176349365234,-1.08648871337891,-0.173292316162112,1.12223300996679,0.904375000000073,
-0.568910198486328,0.503261188964844,0.231327764404295,0.794004516891655,0.907357000000047,
0.130196686279297,0.745075556640625,-0.0751300480957049,0.76008768332891,0.910286999999698,
0.609037018310547,-0.540610734863281,-0.072735846435549,0.817604158305665,0.913324000000102,
-0.492295745361328,-0.430477458496094,0.0661278498535136,0.657296611660497,0.916285999999673,
-0.470747930419922,0.352426484375,-0.0775242497558626,0.593142520970948,0.919313999999758,
0.589883405029297,0.0986411083984375,0.00148440502929503,0.598075834032208,0.922302999999374,
0.302579205810547,-0.1455674609375,0.0876756647949186,0.347031819391195,0.925271000000066,
-0.523420366943359,-0.0354341845703125,-0.146956097900393,0.544812405032589,0.928289999999834,
-0.288788604248047,-0.147961662597656,0.0876756647949186,0.336122795625987,0.931236999999783,
0.376799457275391,-0.0569819995117188,0.0158496149902323,0.381413148130372,0.934296999999788,
0.319338617431641,0.290177241210937,0.0589452448730441,0.43549342795625,0.937261000000035,
-0.386950872314453,0.0100556469726562,-0.0152750065917999,0.38738278155764,0.940189999999347,
-0.295971209228516,-0.373016618652344,-0.0871010563964862,0.484073288364894,0.943189999999959,
0.343280634033203,-0.0737414111328125,-0.0248518132324236,0.351990059574181,0.946162000000186,
0.182869122802734,0.278206232910156,0.0302148249511696,0.3342944207604,0.949233999999706,
-0.312730620849609,0.0890643017578125,-0.0224576115722677,0.325940539642002,0.952193999999508,
-0.0804930598144532,-0.27964275390625,-0.0320344182128931,0.292754857245449,0.955183000000034,
0.180474921142578,-0.0665588061523438,-0.0080924016113304,0.192527293653872,0.958158999999796,
0.0128808049316406,0.268629426269531,0.116406084716795,0.293049586849526,0.961127999999917,
-0.114011883056641,0.0196324536132812,0.0541568415527323,0.127738428830037,0.964153999999326,
0.0272460148925781,-0.248518132324219,0.0278206232910136,0.251550381637049,0.967118999999911,
-0.0469742365722657,0.0100556469726562,-0.0487938298339863,0.0684728615398384,0.970108999999866,
0.0272460148925781,0.101035310058594,0.0469742365722627,0.114704220095468,0.973081999999522,
0.0966778630371094,-0.0665588061523438,0.0565510432128882,0.130287007665052,0.976031000000148,
-0.058945244873047,-0.097683427734375,-0.0487938298339863,0.1240863883629,0.97903099999985,
-0.058945244873047,0.0100556469726562,0.0900698664550763,0.108112158300616,0.98199299999942,
0.0535822331542968,0.0148440502929687,0.0613394465332,0.0827884607895382,0.985036000000036,
0.065553241455078,-0.021068974609375,-0.0176692082519558,0.0710867784936779,0.987975999999435,
-0.00387860668945322,-0.03064578125,-0.0104866032714863,0.0326217158722203,0.990902999999889,
-0.0421858332519532,0.00526724365234373,0.0182438166503882,0.0462625683336728,0.994050999999672,
-0.00627280834960947,-0.0474051928710938,-0.0152750065917999,0.0501988671397678,0.997107000000142,
0.0272460148925781,-0.00670376464843752,0.0924640681152322,0.0966275823996778,1.00023400000009,
0.0176692082519531,0.0244208569335937,0.00387860668945095,0.0303911625883807,1.00324000000001,
-0.0565510432128907,-0.0330399829101563,0.0469742365722627,0.0805992547156396,1.00615500000004,
-0.0517626398925782,-0.01149216796875,0.0326090266113255,0.0622478066264895,1.00918899999942,
-0.030214824951172,-0.0354341845703125,0.0517626398925763,0.0696267762548394,1.01214999999956,
0.0248518132324218,0.0196324536132812,0.0613394465332,0.0690331337606523,1.01524400000017,
0.0320344182128905,0.00526724365234373,0.00866701000976278,0.0336015605060369,1.01822399999946,
0.0176692082519531,-0.0737414111328125,0.0230322199707,0.0792494781868505,1.02118999999948,
-0.0182438166503907,-0.0162805712890625,-0.0416112248535185,0.0482637325668187,1.02422200000001,
-0.011061211669922,0.0148440502929687,0.0493684382324187,0.0527251261374986,1.02722499999982,
0.0152750065917968,-0.0162805712890625,0.00627280834960686,0.0231890265528456,1.03030699999999,
-0.0373974299316407,-0.0569819995117188,-0.0176692082519558,0.0704110570443057,1.03328799999963,
-0.0565510432128907,0.0124498486328125,0.0469742365722627,0.0745627126719052,1.03627299999971,
-0.0230322199707032,-0.0569819995117188,-0.0416112248535185,0.074222135909326,1.03930299999956,
0.0416112248535155,-0.03064578125,-0.0200634099121118,0.0554364353068819,1.04225899999983,
-0.0158496149902345,0.00047884033203123,-0.0296402165527372,0.0336152052008522,1.04532000000017,
-0.020638018310547,0.0100556469726562,0.00866701000976278,0.024538966936986,1.04831399999966,
-0.00866701000976572,-0.0138863696289063,0.0230322199707,0.0282565298782194,1.05133699999988,
-0.011061211669922,0.0316034619140625,-0.0104866032714863,0.0350870069503508,1.05429899999945,
-0.0254264216308595,-0.00909796630859377,-0.0272460148925813,0.0383617157518965,1.05721600000015,
-0.030214824951172,-0.00909796630859377,0.0493684382324187,0.0585913929796042,1.06022500000017,
-0.0373974299316407,-0.00430956298828127,-0.0200634099121118,0.0426577134401665,1.06317299999955,
0.0248518132324218,-0.0186747729492188,0.00627280834960686,0.0317128978530021,1.06620999999996,
-0.039791631591797,-0.0186747729492188,0.039791631591795,0.0592916101499977,1.06914199999937,
-0.0350032282714844,-0.0378283862304688,0.0254264216308577,0.0574692588361579,1.07211699999971,
-0.0254264216308595,-0.0138863696289063,0.0302148249511696,0.0418601221361174,1.07514399999945,
-0.039791631591797,-0.00430956298828127,-0.00330399829101857,0.0401604616830324,1.07806699999946,
-0.0350032282714844,0.0196324536132812,0.0134554133300764,0.0423285644947532,1.08111399999962,
-0.00148440502929698,-0.0186747729492188,0.0326090266113255,0.037607169788938,1.08406500000001,
-0.00627280834960947,-0.03064578125,0.0350032282714814,0.0469439881394755,1.08700700000009,
-0.00627280834960947,-0.021068974609375,0.0637336481933577,0.0674183040999706,1.09003200000006,
-0.0350032282714844,-0.0162805712890625,-0.0128808049316422,0.0406964141738669,1.09297799999968,
0.0320344182128905,-0.021068974609375,0.00148440502929503,0.0383706802079382,1.09603299999981,
-0.0134554133300782,0.00526724365234373,0.0230322199707,0.0271896149357639,1.09901300000001,
-0.0134554133300782,-0.00670376464843752,0.0661278498535136,0.0678150509444159,1.10195000000022,
-0.0158496149902345,-0.102471831054688,0.0134554133300764,0.104559717878934,1.10498499999994,
0.0272460148925781,0.00047884033203123,0.00387860668945095,0.0275248652211345,1.10795599999983,
-0.049368438232422,0.0770932934570312,0.0685220515136695,0.114349858474781,1.11098499999935,
-0.00627280834960947,-0.0665588061523438,0.0134554133300764,0.0681943615623711,1.11393799999951,
0.046399628173828,-0.078529814453125,0.0709162531738254,0.115537752344962,1.11688999999933,
-0.0278206232910157,0.0220266552734375,-0.0104866032714863,0.0370017495668651,1.1199059999999,
-0.068522051513672,0.0387860668945312,0.0182438166503882,0.0808236807795979,1.12286399999994,
0.0296402165527343,-0.0617704028320313,0.0206380183105441,0.071554544950763,1.12590799999998,
-0.00627280834960947,-0.00670376464843752,0.00866701000976278,0.0126255949389286,1.12883199999942,
-0.020638018310547,-0.021068974609375,0.0637336481933577,0.07022682822762,1.13179200000013,
-0.00866701000976572,-0.01149216796875,0.0302148249511696,0.0334682332064476,1.13488999999936,
-0.00387860668945322,-0.04979939453125,0.0206380183105441,0.0540458239396618,1.1379339999994,
-0.0182438166503907,-0.0665588061523438,0.0254264216308577,0.0735487215344257,1.14106300000003,
-0.0158496149902345,0.00526724365234373,-0.0080924016113304,0.0185591248411902,1.14402799999971,
-0.011061211669922,-0.0186747729492188,-0.0176692082519558,0.02798746984925,1.14702299999954,
0.00809240161132801,0.00287304199218748,-0.0248518132324236,0.0262936105369187,1.14999499999976,
-0.011061211669922,-0.0450109912109375,0.0469742365722627,0.0659918073320077,1.15295799999967,
-0.0421858332519532,-0.00670376464843752,0.0469742365722627,0.0634914473702573,1.15599699999984,
-0.0541568415527345,-0.0330399829101563,0.0254264216308577,0.0683454963740959,1.15894099999969,
0.0200634099121093,-0.00909796630859377,-0.0296402165527372,0.0369304189733448,1.16193500000008,
-0.0230322199707032,0.0124498486328125,0.0469742365722627,0.0537778838306762,1.16491200000019,
0.00330399829101552,-0.0354341845703125,-0.0080924016113304,0.0364963670069922,1.16783599999962,
-0.020638018310547,-0.00670376464843752,-0.00330399829101857,0.021949593730982,1.17085499999939,
0.00809240161132801,-0.021068974609375,0.00627280834960686,0.0234251313661292,1.17383999999947,
-0.00627280834960947,-0.0186747729492188,0.0541568415527323,0.0576286279227916,1.17687699999988,
-0.0134554133300782,0.00766144531249998,0.0110612116699187,0.0190288280187304,1.17983599999934,
-0.0278206232910157,0.0220266552734375,0.0469742365722627,0.0588705318846565,1.18278199999986,
-0.0182438166503907,-0.0569819995117188,-0.034428619873049,0.06902981226028,1.18581699999959,
-0.011061211669922,0.00047884033203123,-0.000909796630862658,0.0111088893045132,1.18876600000021,
0.00569819995117177,-0.00670376464843752,-0.0320344182128931,0.0332206847217771,1.19178199999988,
0.0176692082519531,-0.00909796630859377,-0.000909796630862658,0.0198947641632848,1.19473199999993,
-0.0350032282714844,-0.0282515795898438,0.0326090266113255,0.0555583149068171,1.19766199999958,
-0.00148440502929698,-0.0426167895507813,0.118800286376951,0.126221639401301,1.20069799999965,
-0.00866701000976572,-0.021068974609375,0.00627280834960686,0.0236297879421455,1.20363999999972,
0.0152750065917968,-0.021068974609375,-0.000909796630862658,0.026039493992385,1.20666399999936,
-0.020638018310547,-0.01149216796875,0.0230322199707,0.0329921336258683,1.20960399999967,
-0.0158496149902345,-0.0330399829101563,0.0541568415527323,0.065389710605032,1.21252899999945,
-0.030214824951172,0.00287304199218748,-0.0583706364746117,0.0657899781089043,1.21554099999958,
-0.0158496149902345,-0.00670376464843752,0.0230322199707,0.0287512419310718,1.21848499999942,
-0.020638018310547,-0.0258573779296875,0.0469742365722627,0.0574552930088436,1.2214869999998,
0.0128808049316406,-0.00670376464843752,0.078098858154295,0.0794373164271887,1.22443999999996,
-0.0230322199707032,-0.0186747729492188,0.0230322199707,0.0375461510445804,1.22736299999997,
0.00569819995117177,0.0100556469726562,-0.0176692082519558,0.0211136552726715,1.23042299999997,
0.0344286198730468,-0.0258573779296875,0.00387860668945095,0.0432316718345809,1.23338400000011,
-0.00148440502929698,-0.00909796630859377,0.00866701000976278,0.012652806477325,1.23639099999946,
-0.00148440502929698,-0.0474051928710938,0.00387860668945095,0.0475867561332778,1.23935999999958,
-0.0278206232910157,0.017238251953125,0.0158496149902323,0.0363641953855522,1.24237699999958,
-0.011061211669922,-0.01149216796875,0.078098858154295,0.079711053017969,1.24530799999957,
-0.0278206232910157,-0.00909796630859377,-0.0272460148925813,0.0399888159212007,1.24822700000004,
0.0416112248535155,-0.0258573779296875,-0.0152750065917999,0.0513168963752491,1.25124499999947,
-0.0278206232910157,-0.0234631762695313,0.0206380183105441,0.0418382064713828,1.25420399999985,
-0.00627280834960947,-0.00191536132812502,-0.0392170231933626,0.0397616856000465,1.25719200000003,
-0.0230322199707032,-0.0330399829101563,0.0278206232910136,0.048950083838363,1.26014500000019,
-0.00148440502929698,-0.0282515795898438,0.0254264216308577,0.0380375883115955,1.2630709999994,
-0.011061211669922,-0.00191536132812502,-0.0368228215332049,0.0384959634025485,1.26607999999942,
-0.00387860668945322,-0.01149216796875,-0.0152750065917999,0.0195048542894574,1.26900299999943,
-0.0469742365722657,-0.00191536132812502,0.0350032282714814,0.0586129123998279,1.27210399999967,
0.0104866032714843,0.00526724365234373,-0.00330399829101857,0.0121913538449884,1.27516800000012,
0.0320344182128905,-0.00191536132812502,0.0182438166503882,0.0369148940839417,1.27821200000017,
-0.0134554133300782,-0.01149216796875,-0.0152750065917999,0.0233761395205612,1.28126100000009,
-0.020638018310547,-0.03064578125,0.0421858332519509,0.0560779478527053,1.28420499999993,
0.00330399829101552,-0.0186747729492188,0.0541568415527323,0.0573814171694953,1.28723300000001,
0.0224576115722656,-0.0258573779296875,0.039791631591795,0.0525006881446956,1.2902180000001,
-0.00866701000976572,-0.00430956298828127,0.0110612116699187,0.0146982923928628,1.29316800000015,
0.00330399829101552,-0.0354341845703125,0.0134554133300764,0.0380466291378514,1.29620799999975,
-0.0254264216308595,0.00287304199218748,0.00627280834960686,0.0263458803578474,1.29918399999951,
-0.0326090266113282,-0.0162805712890625,0.078098858154295,0.0861849015955883,1.3022119999996,
-0.00387860668945322,-0.01149216796875,-0.0416112248535185,0.04334290655094,1.30514399999993,
-0.0134554133300782,-0.0162805712890625,0.0350032282714814,0.0408819170148236,1.30810399999973,
0.00330399829101552,0.00047884033203123,-0.051188031494144,0.0512967860690715,1.31114600000001,
-0.0134554133300782,-0.0378283862304688,0.0182438166503882,0.0441007006594878,1.31418399999984,
-0.00866701000976572,0.00287304199218748,0.0110612116699187,0.0143430065329762,1.3172340000001,
0.0296402165527343,0.00047884033203123,0.0134554133300764,0.0325548747999399,1.32021799999984,
0.00330399829101552,-0.00670376464843752,0.0373974299316373,0.0381369195224312,1.32317299999977,
-0.020638018310547,-0.0138863696289063,-0.0224576115722677,0.0335127345763955,1.32617200000004,
-0.00627280834960947,0.00526724365234373,0.0278206232910136,0.0290013630814929,1.32913999999982,
0.0152750065917968,0.00047884033203123,-0.00330399829101857,0.0156355850274324,1.33218799999941,
0.0416112248535155,-0.0354341845703125,0.0350032282714814,0.064902245411066,1.3351590000002,
-0.0254264216308595,-0.040222587890625,0.0110612116699187,0.0488539650097721,1.33819099999982,
-0.030214824951172,-0.0330399829101563,0.00387860668945095,0.0449401792095318,1.34112699999969,
-0.00866701000976572,-0.00191536132812502,0.0254264216308577,0.0269311824559711,1.34407699999974,
-0.030214824951172,-0.00670376464843752,-0.0248518132324236,0.0396924265853181,1.34707999999955,
0.0152750065917968,-0.059376201171875,0.0804930598144509,0.101182961857593,1.35006599999997,
-0.0565510432128907,-0.0162805712890625,0.0278206232910136,0.0650927382298899,1.35305100000005,
-0.00387860668945322,-0.00670376464843752,0.0493684382324187,0.0499722597429939,1.35600199999953,
-0.0421858332519532,-0.0426167895507813,0.0350032282714814,0.0694338625470499,1.35894999999982,
-0.030214824951172,-0.0138863696289063,0.0517626398925763,0.0615234735442425,1.36196699999982,
-0.00866701000976572,-0.0138863696289063,0.0589452448730441,0.0611758957198268,1.36489299999994,
0.0152750065917968,0.00526724365234373,0.0158496149902323,0.0226336028376215,1.3679519999996,
-0.0326090266113282,0.0100556469726562,0.0350032282714814,0.0488844621736031,1.37089800000012,
-0.0469742365722657,-0.0234631762695313,0.00627280834960686,0.0528814491744807,1.3738199999998,
0.0200634099121093,-0.01149216796875,0.0134554133300764,0.0267517941418232,1.37686399999984,
-0.020638018310547,-0.021068974609375,0.0230322199707,0.0374207515645487,1.37979899999937,
0.00330399829101552,-0.0162805712890625,0.0421858332519509,0.0453389229400819,1.38283299999966,
-0.0445800349121095,-0.00430956298828127,-0.000909796630862658,0.0447970933858927,1.38576000000012,
-0.0278206232910157,-0.021068974609375,-0.0416112248535185,0.0543082204201277,1.38867299999947,
0.000909796630859272,-0.0138863696289063,-0.0104866032714863,0.017424920073093,1.39168900000004,
0.00330399829101552,-0.0138863696289063,-0.0416112248535185,0.0439913821104512,1.39464099999987,
-0.0158496149902345,0.00526724365234373,-0.0152750065917999,0.0226336028376251,1.39766499999951,
0.0200634099121093,-0.00909796630859377,0.0421858332519509,0.0475915742061033,1.40062399999988,
-0.0230322199707032,-0.0665588061523438,0.00148440502929503,0.0704468685712511,1.40356999999949,
0.0104866032714843,-0.0354341845703125,0.0373974299316373,0.0525748804071697,1.40660899999966,
-0.039791631591797,0.017238251953125,0.0278206232910136,0.0515220181615317,1.40959399999974,
-0.039791631591797,-0.0617704028320313,-0.0751300480957049,0.105087966664274,1.41271199999937,
0.00330399829101552,0.0316034619140625,-0.0104866032714863,0.0334613815888433,1.41575499999999,
0.0152750065917968,-0.0450109912109375,0.0230322199707,0.0528185413746844,1.41881899999953,
-0.0469742365722657,0.0124498486328125,-0.0679474431152371,0.0835370137030617,1.42183599999953,
-0.00627280834960947,-0.00670376464843752,-0.0104866032714863,0.0139376265277169,1.42476600000009,
-0.0254264216308595,-0.0258573779296875,0.0158496149902323,0.0395767255554009,1.42777800000022,
0.0487938298339843,-0.0138863696289063,-0.051188031494144,0.0720686038409507,1.43073499999991,
-0.011061211669922,-0.0258573779296875,0.0206380183105441,0.0348838386189345,1.43376900000021,
-0.0158496149902345,-0.021068974609375,0.0254264216308577,0.0366280616929057,1.43669599999976,
-0.011061211669922,-0.0450109912109375,0.0110612116699187,0.0476517590127023,1.43966099999943,
-0.011061211669922,0.00287304199218748,0.0326090266113255,0.0345536306404092,1.44269299999996,
0.0224576115722656,-0.0521935961914063,0.0254264216308577,0.0622496483353319,1.44566799999939,
0.0104866032714843,0.00047884033203123,0.0541568415527323,0.055164858589548,1.44870199999968,
0.0176692082519531,-0.0330399829101563,0.00148440502929503,0.0374972645568354,1.45167899999979,
-0.00866701000976572,-0.0354341845703125,0.0852814631347627,0.0927557354187774,1.4546249999994,
0.000909796630859272,0.0124498486328125,0.0110612116699187,0.0166786349710104,1.45768099999987,
-0.00148440502929698,-0.0258573779296875,0.0421858332519509,0.0495020401483727,1.46060799999941,
-0.00148440502929698,-0.01149216796875,0.0613394465332,0.0624243629035352,1.46362499999941,
-0.0254264216308595,-0.00430956298828127,-0.0248518132324236,0.0358146320801913,1.46654899999976,
0.00330399829101552,0.0196324536132812,0.0421858332519509,0.0466475526340459,1.46950299999935,
-0.0350032282714844,-0.021068974609375,0.0517626398925763,0.0659431464912365,1.47249499999998,
-0.0230322199707032,-0.0138863696289063,0.0206380183105441,0.0339004751889384,1.47543099999984,
-0.0326090266113282,-0.0234631762695313,-0.0200634099121118,0.0449044504976381,1.47842299999957,
0.00809240161132801,0.0339976635742187,-0.0272460148925813,0.0443133548704174,1.4814150000002,
-0.0350032282714844,-0.0330399829101563,-0.0224576115722677,0.0531150710971935,1.48432099999991,
0.0296402165527343,-0.00430956298828127,0.00148440502929503,0.0299886349928426,1.48736199999985,
-0.0158496149902345,-0.00670376464843752,0.0230322199707,0.0287512419310718,1.49029499999961,
-0.00387860668945322,-0.00430956298828127,0.00627280834960686,0.00854189953068594,1.49331100000018,
0.00809240161132801,-0.021068974609375,0.0158496149902323,0.0275789584696034,1.49626499999977,
-0.0278206232910157,-0.0450109912109375,0.00387860668945095,0.0530567620567177,1.49922400000014,
-0.00866701000976572,-0.00430956298828127,0.0182438166503882,0.0206525117511727,1.50222599999961,
-0.0278206232910157,-0.00909796630859377,0.0852814631347627,0.0901647826241421,1.50517499999933,
-0.00387860668945322,-0.00191536132812502,0.0350032282714814,0.035269507911143,1.50820599999952,
0.00569819995117177,-0.0569819995117188,0.0230322199707,0.061724394754552,1.5111909999996,
-0.0158496149902345,-0.00909796630859377,-0.0152750065917999,0.0238182516711555,1.51409499999954,
0.000909796630859272,-0.0234631762695313,0.0278206232910136,0.0364051569268024,1.51713399999971,
0.0176692082519531,-0.0282515795898438,0.0182438166503882,0.037989334234034,1.52010699999937,
-0.0134554133300782,-0.021068974609375,0.0493684382324187,0.0553370809898921,1.52311599999939,
0.0272460148925781,-0.00191536132812502,0.0110612116699187,0.0294680223318533,1.52609200000006,
-0.0134554133300782,-0.0162805712890625,0.0302148249511696,0.0368651705029464,1.52909600000021,
0.00569819995117177,-0.00191536132812502,0.0565510432128882,0.0568696630917289,1.53206200000022,
-0.00627280834960947,-0.0234631762695313,0.0493684382324187,0.0550191917311965,1.53498799999943,
0.00569819995117177,0.00047884033203123,0.0134554133300764,0.0146200861362138,1.53804599999967,
0.0344286198730468,-0.00909796630859377,-0.0104866032714863,0.0371223881975366,1.5409869999994,
-0.00866701000976572,-0.01149216796875,0.0541568415527323,0.0560370455511271,1.54399199999989,
-0.011061211669922,-0.01149216796875,0.00387860668945095,0.0164153561667189,1.54693499999939,
-0.00148440502929698,-0.0450109912109375,-0.00330399829101857,0.0451564966841888,1.54994600000009,
-0.049368438232422,-0.01149216796875,0.0302148249511696,0.0590105775684347,1.55305899999985,
-0.0158496149902345,-0.0258573779296875,-0.0176692082519558,0.0351000742020347,1.55607299999974,
-0.0254264216308595,-0.00430956298828127,0.0661278498535136,0.0709786431002245,1.55916499999967,
-0.0158496149902345,-0.01149216796875,0.0828872614746068,0.0851679419424966,1.56210699999974,
-0.00387860668945322,-0.00909796630859377,-0.0104866032714863,0.0144147642706125,1.56501799999933,
0.00569819995117177,-0.01149216796875,0.00627280834960686,0.0142789191431423,1.56806899999992,
0.00569819995117177,-0.00909796630859377,0.0565510432128882,0.0575609499756718,1.57104900000013,
-0.00148440502929698,-0.00670376464843752,0.0326090266113255,0.0333240534042721,1.57405399999971,
-0.0350032282714844,-0.01149216796875,-0.00569819995117449,0.0372795573569641,1.57698299999993,
-0.0350032282714844,0.0100556469726562,0.0110612116699187,0.0380616924094434,1.57994199999939,
0.0128808049316406,-0.01149216796875,0.118800286376951,0.120047878380063,1.58299399999942,
0.0128808049316406,-0.01149216796875,0.039791631591795,0.0433746355033224,1.58597000000009,
-0.0350032282714844,-0.00909796630859377,0.0350032282714814,0.0503311530744467,1.58898899999986,
-0.0469742365722657,-0.0665588061523438,-0.0128808049316422,0.0824776861560718,1.5919759999997,
-0.011061211669922,-0.01149216796875,0.0421858332519509,0.0451006081487843,1.59493699999985,
-0.00387860668945322,0.00047884033203123,0.130771294677732,0.130829677021711,1.59796099999949,
-0.0278206232910157,-0.0378283862304688,-0.0248518132324236,0.0531280199710227,1.60095300000012,
