X,Y,Z,Magnitude,Seconds,
0.408450803222656,-0.334948812255859,0.0413718046874987,0.529843742727933,0.0,
0.446758029785156,-0.387621248779297,-0.020877438476564,0.59184359177073,0.00409399999989546,
0.432392819824219,-0.354102425537109,-0.0472136567382826,0.560875394173611,0.00799200000074052,
0.429998618164063,-0.370861837158203,0.0653138212890614,0.571579573755693,0.011953999999605,
0.449152231445313,-0.351708223876953,0.0246123930664055,0.571001025960059,0.0158819999996922,
0.398873996582031,-0.387621248779297,0.0294007963867173,0.556969572313171,0.0198280000004161,
0.451546433105469,-0.375650240478515,-0.00172382519531311,0.587375736641498,0.02365699999973,
0.427604416503906,-0.366073433837891,-0.0280600434570317,0.563597961329103,0.0275949999995646,
0.444363828125,-0.387621248779297,0.0892558378906241,0.596385822139228,0.0314899999993941,
0.475488449707031,-0.282276375732422,-0.0472136567382826,0.55497598820492,0.0353620000005321,
0.365355173339844,-0.390015450439453,-0.00890643017578263,0.534486462659395,0.0393239999993966,
0.511401474609375,-0.437899483642578,-0.0472136567382826,0.674919665878599,0.04334899999958,
0.336624753417969,-0.394803853759765,0.000670376464842803,0.518832108645827,0.0472979999995005,
0.446758029785156,-0.366073433837891,-0.0280600434570317,0.578264526128129,0.0511910000004718,
0.451546433105469,-0.30861259399414,0.0150355864257801,0.547139820595459,0.0551479999994626,
0.382114584960938,-0.492966121826172,-0.0160890351562522,0.623927888750346,0.0590460000003077,
0.516189877929687,-0.318189400634765,0.0270065947265614,0.606980923021557,0.0629800000006071,
0.384508786621094,-0.387621248779297,0.0389776030273428,0.547372353185475,0.0669030000008206,
0.439575424804688,-0.370861837158203,0.0317949980468732,0.575999981122725,0.0709229999993113,
0.432392819824219,-0.370861837158203,0.0246123930664055,0.570182271548627,0.0749610000002576,
0.403662399902344,-0.399592257080078,0.0868616362304682,0.574597466807769,0.0788570000004256,
0.458729038085938,-0.378044442138672,0.0126413847656242,0.594566846724556,0.0828810000002704,
0.372537778320313,-0.375650240478515,0.017429788085936,0.529340435787898,0.0867739999994228,
0.451546433105469,-0.332554610595703,0.0102471831054682,0.560884796585117,0.0906950000007782,
0.432392819824219,-0.378044442138672,0.0557370146484359,0.577050921210077,0.0946189999995113,
0.441969626464844,-0.34691982055664,-0.0352426484375012,0.562967633955465,0.0985540000001492,
0.449152231445313,-0.34691982055664,0.0341891997070292,0.568559574964631,0.102608000001055,
0.418027609863281,-0.378044442138672,-0.00172382519531311,0.563620133080119,0.106540000000678,
0.389297189941406,-0.378044442138672,-0.0184832368164081,0.542965498325102,0.110527000000729,
0.42521021484375,-0.390015450439453,-0.00890643017578263,0.577057278688549,0.114536999999473,
0.429998618164063,-0.356496627197265,-0.0400310517578131,0.559992090953851,0.118528000000879,
0.401268198242188,-0.339737215576172,-0.0424252534179708,0.527482174765708,0.122518000000127,
0.401268198242188,-0.387621248779297,-0.0424252534179708,0.559523280617824,0.126401999999871,
0.437181223144531,-0.397198055419922,-0.00890643017578263,0.59073940244239,0.130332000000635,
0.420421811523438,-0.418745870361328,-0.0400310517578131,0.594731106176692,0.134239000000889,
0.413239206542969,-0.366073433837891,0.0509486113281241,0.554411545498821,0.138205000001108,
0.439575424804688,-0.366073433837891,-0.0352426484375012,0.57313031443379,0.142088000000513,
0.38690298828125,-0.354102425537109,0.0150355864257801,0.524698502924672,0.146212999999989,
0.429998618164063,-0.322977803955078,-0.00172382519531311,0.537788476116727,0.150308000000223,
0.427604416503906,-0.337343013916015,-0.00890643017578263,0.544724857657573,0.154211999999461,
0.408450803222656,-0.356496627197265,0.017429788085936,0.542425756550129,0.158276000000114,
0.453940634765625,-0.445082088623047,0.208965920898436,0.669198716078717,0.162216000000626,
0.465911643066406,-0.294247384033203,0.108409451171873,0.561611779843166,0.166113999999652,
0.394085593261719,-0.418745870361328,0.153899282714843,0.595261747453379,0.170051000000967,
0.446758029785156,-0.356496627197265,0.144322476074217,0.589501110669635,0.174075000000812,
0.429998618164063,-0.401986458740234,0.127563064453124,0.602299144982117,0.17805700000099,
0.427604416503906,-0.406774862060547,0.0820732329101546,0.595858490732781,0.181950000000143,
0.492247861328125,-0.332554610595703,-0.0855208833007826,0.600178596328725,0.185934999999517,
0.358172568359375,-0.42353427368164,0.017429788085936,0.55495285134947,0.18984300000011,
0.473094248046875,-0.354102425537109,0.0701022246093732,0.595080681253799,0.19372199999998,
0.391691391601563,-0.349314022216797,0.0701022246093732,0.529487256000773,0.197717999999441,
0.477882651367188,-0.38522704711914,0.0341891997070292,0.614768743257554,0.201554000001124,
0.451546433105469,-0.320583602294922,0.00545877978515463,0.55380305667936,0.20536600000014,
0.401268198242188,-0.351708223876953,-0.0424252534179708,0.535270720094787,0.209232000001066,
0.437181223144531,-0.354102425537109,0.00785298144531055,0.562652307343525,0.213138000000981,
0.427604416503906,-0.366073433837891,0.0294007963867173,0.563666304477821,0.216985999999451,
0.370143576660156,-0.361285030517578,-0.0304542451171894,0.518131838111226,0.220997000000352,
0.451546433105469,-0.32776620727539,0.017429788085936,0.558237104996333,0.225050999999439,
0.391691391601563,-0.440293685302734,0.0365834013671869,0.59043968432671,0.229029000000082,
0.468305844726563,-0.28945898071289,0.0198239897460919,0.550899134406524,0.232944999999745,
0.408450803222656,-0.425928475341797,0.0198239897460919,0.590457547440689,0.23685900000055,
0.485065256347656,-0.330160408935547,0.000670376464842803,0.586766263471844,0.240691999999399,
0.418027609863281,-0.397198055419922,0.0222181914062478,0.577067609441684,0.244628000000375,
0.377326181640625,-0.351708223876953,-0.0520020600585944,0.51843797733626,0.248596999999791,
0.473094248046875,-0.380438643798828,0.0126413847656242,0.60721621671306,0.252501000000848,
0.451546433105469,-0.349314022216797,-0.0304542451171894,0.571700908179448,0.256400000000212,
0.420421811523438,-0.344525618896484,0.000670376464842803,0.543555747909319,0.260333000000173,
0.439575424804688,-0.387621248779297,0.0270065947265614,0.586690840866097,0.264259999999922,
0.480276853027344,-0.387621248779297,0.0198239897460919,0.617502290383221,0.268157000000429,
0.418027609863281,-0.30861259399414,0.0389776030273428,0.521064361972259,0.272156999999424,
0.355778366699219,-0.397198055419922,-0.0232716401367199,0.533747234817366,0.27597699999933,
0.523372482910156,-0.30861259399414,0.0413718046874987,0.608992705426292,0.279813999999533,
0.377326181640625,-0.368467635498047,-0.0328484467773453,0.528415051088346,0.28365500000109,
0.46351744140625,-0.303824190673828,-0.0160890351562522,0.554451453581522,0.287474000000657,
0.461123239746094,-0.30861259399414,-0.0113006318359385,0.554981152549902,0.291414999999688,
0.4060566015625,-0.349314022216797,-0.020877438476564,0.536039287018318,0.295539000000645,
0.444363828125,-0.363679232177734,0.0581312163085919,0.577149056979917,0.299575000000914,
0.420421811523438,-0.390015450439453,0.0461602080078105,0.575323661941226,0.30344900000091,
0.494642062988281,-0.378044442138672,-0.020877438476564,0.622915915791678,0.307365000000573,
-4.34164529052734,4.35289803833008,-9.71260575878907,11.4948821562693,0.311213000000862,
19.583013348999,-20.6425672937012,9.45477418200684,29.9833745788362,0.314663000001019,
-17.5408790429688,18.3326415319824,-8.86505837109375,26.8767081887482,0.317730000000665,
3.42993329833984,15.6655008825684,-5.78611503613281,17.0485039679197,0.320729000000938,
-8.92654146972656,-19.5771475549316,2.22967212207031,21.6314420871622,0.323867999999493,
9.30769837402344,-2.0563798059082,-0.178894748046876,9.53383187699596,0.326821000000564,
1.11952869628906,17.8538011999512,0.424444070312498,17.8939016024459,0.329933999999412,
2.07242095703125,-18.3752583215332,1.43719137255859,18.5475218303571,0.332909000000654,
-5.67760981689453,7.05595171264649,-1.65851137402344,9.20719109076493,0.335884000000078,
1.99820070556641,0.203746561279297,0.345435415527342,2.03804915231693,0.338987999999517,
5.70921327880859,-4.67324222045898,1.228895828125,7.47960520819032,0.34196300000076,
-3.54437613769531,5.97377256225586,-0.925885666015626,7.00755485869059,0.344999000000826,
-1.24354834228516,-6.74183245483399,-0.0591846650390639,6.85581651980483,0.347985000000335,
2.589568515625,2.53809317993164,0.287974575683592,3.63740449268045,0.350942000000941,
1.77314574951172,1.58520091918945,0.0964384428710918,2.38037983869675,0.354011999999784,
-1.48775691162109,-4.53437852416992,-0.190865756347657,4.77602752980716,0.357022000000143,
-0.261925661621094,2.64104385131836,0.0270065947265614,2.65413771929056,0.360085000000254,
2.36451355957031,-1.37163813110352,0.0844674345703105,2.73485836627638,0.363079000000653,
-0.11109095703125,-0.61507040649414,-0.0639730683593758,0.628287640459606,0.366030000001047,
-0.70485296875,0.366552274169922,-0.0759440766601571,0.798088829664088,0.36911499999951,
1.37570827392578,-1.47937720581055,0.108409451171873,2.02308743783433,0.372101999999359,
0.621534750976562,0.866940421142578,-0.0328484467773453,1.06722544991115,0.375143000001117,
-0.24516625,-1.06278611694336,0.0629196196289055,1.09251073177377,0.37817300000097,
0.556891306152344,-0.528879146728515,0.0509486113281241,0.769699187805607,0.381277000000409,
0.793917270507813,0.289937821044922,-0.0759440766601571,0.848608316753151,0.384281000000556,
0.197761057128906,-0.933499227294922,0.0198239897460919,0.954422984659533,0.387300000000323,
0.145088620605469,-0.267911165771484,0.00785298144531055,0.304776590130892,0.390382999999929,
0.817859287109375,-0.265516964111328,-0.020877438476564,0.860133093875183,0.393374999999651,
0.394085593261719,-0.342131417236328,-0.00651222851562672,0.521919314259224,0.396445000000313,
0.15705962890625,-0.57676317993164,0.0126413847656242,0.597899069547544,0.399497000000338,
0.65505357421875,-0.30861259399414,-0.0184832368164081,0.724346980605126,0.402523000000656,
0.54013189453125,-0.229603939208984,-0.00651222851562672,0.586943644237196,0.405635000000984,
0.221703073730469,-0.583945784912109,0.0341891997070292,0.625550824469734,0.408653000000413,
0.465911643066406,-0.203267720947265,0.0557370146484359,0.511368790918896,0.411756999999852,
0.561679709472656,-0.291853182373047,0.0270065947265614,0.633554837605465,0.41477599999962,
0.204943662109375,-0.445082088623047,-0.0376368500976572,0.491443285371902,0.417827999999645,
0.518584079589844,-0.282276375732422,0.00545877978515463,0.590456770794797,0.420922999999675,
0.535343491210938,-0.42353427368164,-0.0136948334960945,0.682760194379722,0.423915999999736,
0.286346518554688,-0.406774862060547,-0.00651222851562672,0.497496257486432,0.426982000000862,
0.506613071289062,-0.370861837158203,-0.0113006318359385,0.627951439636208,0.429998999999953,
0.54013189453125,-0.342131417236328,0.0150355864257801,0.639548621301948,0.432992000000013,
0.341413156738281,-0.418745870361328,0.017429788085936,0.540569001193543,0.436051000000589,
0.396479794921875,-0.378044442138672,0.0150355864257801,0.548032751642088,0.439029999999548,
0.525766684570312,-0.337343013916015,0.0222181914062478,0.625079645862321,0.442113999999492,
0.377326181640625,-0.411563265380859,0.0270065947265614,0.559006909546898,0.445091999999931,
0.360566770019531,-0.387621248779297,0.0389776030273428,0.530827544203667,0.448143999999957,
0.509007272949219,-0.30861259399414,0.0365834013671869,0.596379478472042,0.451234000000113,
0.408450803222656,-0.32776620727539,-0.0136948334960945,0.523880037555749,0.454240000000937,
0.372537778320313,-0.382832845458984,0.0629196196289055,0.537870116638118,0.457327000000078,
0.470700046386719,-0.334948812255859,-0.0041180268554708,0.577725019923192,0.460321000000476,
0.415633408203125,-0.380438643798828,0.0150355864257801,0.563658372216012,0.463320000000749,
0.432392819824219,-0.382832845458984,0.00545877978515463,0.577541631810647,0.466405000001032,
0.429998618164063,-0.344525618896484,0.0126413847656242,0.551141105623416,0.469441999999617,
0.434787021484375,-0.387621248779297,-0.0903092866210944,0.589445293310997,0.472509000001082,
0.382114584960938,-0.401986458740234,-0.0136948334960945,0.554790246412885,0.475458000000799,
0.473094248046875,-0.349314022216797,-0.111857101562501,0.598623809100739,0.478506999999809,
0.42521021484375,-0.411563265380859,-0.0256658417968758,0.592323208775045,0.481520999999702,
0.42521021484375,-0.390015450439453,-0.0184832368164081,0.5772845125518,0.484472000000096,
0.408450803222656,-0.32776620727539,0.000670376464842803,0.523701436592962,0.487607999999454,
0.434787021484375,-0.334948812255859,-0.0136948334960945,0.549015490990328,0.490578000000824,
0.444363828125,-0.390015450439453,0.0557370146484359,0.593866885866954,0.493614000000889,
0.449152231445313,-0.373256038818359,-0.020877438476564,0.584374593017201,0.496579000000565,
0.439575424804688,-0.361285030517578,-0.0448194550781267,0.570755824255705,0.499528000000282,
0.439575424804688,-0.330160408935547,-0.0328484467773453,0.550737206094152,0.502614000000904,
0.432392819824219,-0.358890828857422,0.0246123930664055,0.562469508121073,0.505568000000494,
0.418027609863281,-0.378044442138672,0.0198239897460919,0.563966021502537,0.508668000000398,
0.461123239746094,-0.387621248779297,-0.0591846650390639,0.605299677279727,0.511705999999322,
0.422816013183594,-0.366073433837891,-0.0113006318359385,0.55938434394093,0.514677999999549,
0.389297189941406,-0.28945898071289,-0.111857101562501,0.497846175822999,0.517750000000888,
0.178607443847656,-0.0715866296386717,-0.260297604492189,0.323697555513152,0.520725000000311,
-0.07278373046875,0.275572611083985,-0.420709115722657,0.508167192420696,0.5237900000011,
1.09798088134766,-1.18967880493164,1.12355095507812,1.97060001607772,0.526837999999771,
2.16340062011719,-3.31333567749023,0.932014822265623,4.06535941630945,0.529845000000932,
-0.929907924804688,4.42951249145508,-1.34726515820313,4.72233343455111,0.532965000000331,
-0.257137258300781,-2.94462862182617,0.232907937499998,2.96499635706941,0.535937000000558,
1.4020444921875,1.87729352172852,-0.0520020600585944,2.34364330456823,0.539071999999578,
0.631111557617188,-0.354102425537109,0.0605254179687496,0.726191195312604,0.542075999999724,
-0.364876333007813,-1.75710459838867,-0.00890643017578263,1.79461155478458,0.545040999999401,
0.257616098632813,1.13030260375977,-0.121433908203127,1.16563125575903,0.548210000000836,
1.29669961914063,-1.41233955932617,0.0317949980468732,1.91758803057849,0.551249000000098,
-0.0225054956054688,0.426407315673828,0.0294007963867173,0.42801180243164,0.554314999999406,
0.11875240234375,-0.952652840576172,-0.102280294921876,0.965458868336485,0.55728900000031,
0.825041892089844,-0.282276375732422,0.0270065947265614,0.872412420910286,0.560306999999739,
0.470700046386719,0.105584293212891,-0.0280600434570317,0.483212109410076,0.563443000000916,
0.152271225585938,-1.09151653686523,-0.020877438476564,1.10228432984827,0.566412000000128,
0.523372482910156,0.153468326416016,-0.0520020600585944,0.547882740493632,0.569498000000749,
0.602381137695312,-0.552821163330078,0.00785298144531055,0.817640472942907,0.572501000000557,
0.212126267089844,-0.440293685302734,0.0150355864257801,0.488960275856947,0.575544999999693,
0.422816013183594,-0.299035787353515,0.017429788085936,0.518169451661642,0.578625000000102,
0.633505759277344,-0.397198055419922,0.05334281298828,0.749627439442043,0.581669000001057,
0.319865341796875,-0.279882174072265,-0.0400310517578131,0.426907897972252,0.58476200000041,
0.374931979980469,-0.478600911865234,0.0222181914062478,0.608380202241718,0.587779999999839,
0.580833322753906,-0.227209737548828,0.00545877978515463,0.62371581023339,0.590824999999313,
0.439575424804688,-0.42353427368164,-0.0232716401367199,0.610859561855186,0.593839000001026,
0.336624753417969,-0.339737215576172,-0.0328484467773453,0.479391928088952,0.596806999999899,
0.530555087890625,-0.363679232177734,0.0198239897460919,0.643540422796788,0.599922999999762,
0.439575424804688,-0.401986458740234,-0.0496078583984385,0.597729543119307,0.602926999999909,
0.336624753417969,-0.320583602294922,0.0365834013671869,0.46629220015961,0.605999999999767,
0.432392819824219,-0.392409652099609,0.0389776030273428,0.585207774413697,0.608996000000843,
0.492247861328125,-0.313400997314453,-0.00651222851562672,0.583584228042574,0.611983000000691,
0.360566770019531,-0.344525618896484,0.0341891997070292,0.499875183515775,0.615025000000969,
0.396479794921875,-0.334948812255859,-0.0113006318359385,0.519147993247392,0.618034000000989,
0.46351744140625,-0.339737215576172,-0.0424252534179708,0.576254888276729,0.621108999999706,
0.439575424804688,-0.394803853759765,0.05334281298828,0.593247075621352,0.624112999999852,
0.475488449707031,-0.46184150024414,0.0701022246093732,0.666559193956349,0.627073999999993,
0.525766684570312,-0.349314022216797,0.0892558378906241,0.63750882136555,0.630181000000448,
0.384508786621094,-0.299035787353515,-0.102280294921876,0.497725494460821,0.633168000000296,
0.317471140136719,-0.452264693603515,0.000670376464842803,0.552568301031279,0.636222000000998,
0.461123239746094,-0.284670577392578,-0.0543962617187521,0.544638350794297,0.639194999999745,
0.432392819824219,-0.337343013916015,-0.0424252534179708,0.550057962219491,0.642209999999977,
0.384508786621094,-0.42353427368164,-0.0520020600585944,0.57439751237466,0.645297999999457,
0.477882651367188,-0.301429989013672,-0.095097689941408,0.572953259338585,0.648289000000659,
0.487459458007813,-0.387621248779297,-0.0663672700195335,0.62631587097593,0.651369000001068,
0.391691391601563,-0.413957467041015,-0.0448194550781267,0.571656990097455,0.654332000000068,
0.379720383300781,-0.38522704711914,-0.0400310517578131,0.542392784272672,0.657315000000381,
0.456334836425781,-0.361285030517578,-0.0280600434570317,0.582714099924347,0.660386999999901,
0.4060566015625,-0.354102425537109,-0.0136948334960945,0.538941592297567,0.66338899999937,
0.42521021484375,-0.401986458740234,-0.0184832368164081,0.585438698636496,0.666481000000203,
0.453940634765625,-0.351708223876953,-0.0232716401367199,0.574719360965639,0.6695550000004,
0.427604416503906,-0.34691982055664,-0.00651222851562672,0.550673504019339,0.672638000000006,
0.408450803222656,-0.394803853759765,-0.0376368500976572,0.569314213841591,0.675670000000537,
0.485065256347656,-0.373256038818359,-0.0663672700195335,0.615640307289764,0.67868400000043,
0.439575424804688,-0.392409652099609,-0.00890643017578263,0.589314189250211,0.681827000000339,
0.398873996582031,-0.392409652099609,0.0126413847656242,0.559683486284035,0.684832000000824,
0.458729038085938,-0.378044442138672,0.017429788085936,0.594687924989157,0.687879000000976,
0.437181223144531,-0.361285030517578,-0.00172382519531311,0.567148363939754,0.690912000000026,
0.415633408203125,-0.363679232177734,0.0868616362304682,0.559069457027091,0.693943000000218,
0.473094248046875,-0.378044442138672,0.017429788085936,0.605837903468988,0.696993999999904,
0.410845004882813,-0.334948812255859,0.017429788085936,0.530366026797993,0.699963000000935,
0.398873996582031,-0.318189400634765,-0.0136948334960945,0.510423851607778,0.702989999999772,
0.413239206542969,-0.363679232177734,0.0557370146484359,0.553295436944467,0.705993999999919,
0.446758029785156,-0.38522704711914,0.0365834013671869,0.591042266056531,0.708952999999383,
0.439575424804688,-0.354102425537109,-0.0400310517578131,0.565877696121982,0.712084000000687,
0.451546433105469,-0.409169063720703,-0.0376368500976572,0.610516204896825,0.715056999999433,
0.437181223144531,-0.354102425537109,-0.0113006318359385,0.562710986138803,0.718163999999888,
0.444363828125,-0.375650240478515,0.00306457812499872,0.581877741932578,0.721138000000792,
0.420421811523438,-0.366073433837891,-0.0256658417968758,0.558052859504954,0.724120000000767,
0.456334836425781,-0.375650240478515,-0.00651222851562672,0.591098126564068,0.72719700000016,
0.456334836425781,-0.34691982055664,0.0653138212890614,0.576940846259108,0.730224999999336,
0.427604416503906,-0.349314022216797,0.000670376464842803,0.552146966427895,0.733325000001059,
0.401268198242188,-0.368467635498047,0.0270065947265614,0.545448367390331,0.736331000000064,
0.432392819824219,-0.390015450439453,-0.00172382519531311,0.582304536982439,0.739277000000584,
0.439575424804688,-0.373256038818359,-0.0280600434570317,0.577350838438297,0.742363999999725,
0.439575424804688,-0.358890828857422,-0.00172382519531311,0.567478768504596,0.745323000001008,
0.456334836425781,-0.399592257080078,-0.020877438476564,0.606919535269247,0.748405000000275,
0.437181223144531,-0.370861837158203,0.0437660063476546,0.574962074785919,0.751441000000341,
0.422816013183594,-0.378044442138672,-0.0543962617187521,0.569780602096442,0.754409000001033,
0.453940634765625,-0.366073433837891,-0.0376368500976572,0.584370080803729,0.757439999999406,
0.413239206542969,-0.344525618896484,-0.0472136567382826,0.540086727556666,0.760411999999633,
0.422816013183594,-0.351708223876953,-0.00651222851562672,0.550013149722249,0.763494000000719,
0.434787021484375,-0.342131417236328,-0.0136948334960945,0.553426787548162,0.766465000000608,
0.429998618164063,-0.373256038818359,-0.00651222851562672,0.569439453548501,0.769469000000754,
0.429998618164063,-0.351708223876953,-0.0280600434570317,0.55622374311467,0.772478000000774,
0.453940634765625,-0.344525618896484,-0.0472136567382826,0.571829634900137,0.77554500000042,
0.408450803222656,-0.332554610595703,-0.0328484467773453,0.527734448503579,0.778624000000491,
0.449152231445313,-0.361285030517578,-0.0974918916015639,0.584610356747502,0.781613999999536,
0.403662399902344,-0.382832845458984,0.0389776030273428,0.557694875532221,0.784660999999687,
0.451546433105469,-0.370861837158203,-0.0232716401367199,0.5847856468359,0.787621999999828,
0.4060566015625,-0.399592257080078,0.0557370146484359,0.572418160432352,0.79064500000095,
0.398873996582031,-0.356496627197265,0.00306457812499872,0.534976356478894,0.79376400000001,
0.429998618164063,-0.366073433837891,-0.0136948334960945,0.56488593454728,0.796803000001091,
0.401268198242188,-0.406774862060547,-0.020877438476564,0.571767280248049,0.799922000000151,
0.449152231445313,-0.34691982055664,-0.0232716401367199,0.568007621552747,0.802920000000086,
0.446758029785156,-0.332554610595703,-0.00172382519531311,0.556945489055507,0.805921999999555,
0.432392819824219,-0.354102425537109,0.0294007963867173,0.55965747134741,0.809025000000474,
0.408450803222656,-0.370861837158203,0.0389776030273428,0.553073064297429,0.812164999999368,
0.422816013183594,-0.354102425537109,0.0701022246093732,0.555946248005071,0.815253000000666,
0.429998618164063,-0.394803853759765,0.0150355864257801,0.583947740320769,0.818250000000262,
0.413239206542969,-0.315795198974609,0.017429788085936,0.520381635948461,0.821271000000706,
0.391691391601563,-0.344525618896484,0.0294007963867173,0.522479143276502,0.824397000000317,
0.384508786621094,-0.38522704711914,0.0389776030273428,0.545679519827083,0.827381999999488,
0.432392819824219,-0.342131417236328,-0.0136948334960945,0.551547827264475,0.830417000001034,
0.458729038085938,-0.368467635498047,-0.0113006318359385,0.588496757062146,0.833420999999362,
0.418027609863281,-0.32776620727539,0.0389776030273428,0.532632164610305,0.836396000000605,
0.408450803222656,-0.356496627197265,0.00545877978515463,0.542173129298199,0.839576000000307,
0.422816013183594,-0.373256038818359,0.0102471831054682,0.564090822723113,0.842558000000281,
0.449152231445313,-0.370861837158203,0.0437660063476546,0.58411616360471,0.845688999999766,
0.420421811523438,-0.411563265380859,0.0198239897460919,0.588669526631927,0.84867099999974,
0.401268198242188,-0.32776620727539,0.0413718046874987,0.519767717134612,0.851671000000351,
0.429998618164063,-0.38522704711914,0.0150355864257801,0.577516024292229,0.854726999999912,
0.444363828125,-0.380438643798828,-0.0304542451171894,0.585764657936149,0.857755999999426,
0.439575424804688,-0.413957467041015,0.00785298144531055,0.603861745707422,0.86086400000022,
0.401268198242188,-0.373256038818359,-0.0041180268554708,0.548044884640014,0.86381799999981,
0.42521021484375,-0.370861837158203,0.0341891997070292,0.565253156067644,0.866879999999583,
0.432392819824219,-0.392409652099609,-0.0687614716796894,0.587943046292779,0.869850000000952,
0.432392819824219,-0.373256038818359,0.0294007963867173,0.571968555060578,0.872886000001017,
0.403662399902344,-0.392409652099609,0.05334281298828,0.565485741511984,0.876002000000881,
0.453940634765625,-0.387621248779297,-0.0041180268554708,0.596933237926841,0.87896499999988,
0.441969626464844,-0.339737215576172,0.0509486113281241,0.559780570724983,0.882008000000496,
0.410845004882813,-0.337343013916015,-0.0352426484375012,0.532762584406965,0.885006000000431,
0.413239206542969,-0.349314022216797,-0.0879150849609385,0.548193387505931,0.887979000000996,
0.394085593261719,-0.378044442138672,0.0389776030273428,0.547485441437613,0.891035000000556,
0.451546433105469,-0.38522704711914,-0.0160890351562522,0.593761666104055,0.894034000000829,
0.439575424804688,-0.392409652099609,-0.0136948334960945,0.589406004056324,0.897171000000526,
0.427604416503906,-0.337343013916015,0.0198239897460919,0.545012693999911,0.900184000000081,
0.413239206542969,-0.394803853759765,-0.0543962617187521,0.574104239713312,0.903185000001031,
0.427604416503906,-0.370861837158203,-0.0974918916015639,0.574359389408805,0.90622600000097,
0.446758029785156,-0.370861837158203,0.00545877978515463,0.580655696359396,0.909267000000909,
0.379720383300781,-0.382832845458984,0.017429788085936,0.539492682590816,0.912405999999464,
0.413239206542969,-0.358890828857422,-0.0424252534179708,0.548971011065073,0.915415999999823,
0.432392819824219,-0.354102425537109,-0.056790463378908,0.561762614578075,0.918467999999848,
0.456334836425781,-0.368467635498047,-0.00172382519531311,0.5865260888644,0.921594999999797,
0.401268198242188,-0.356496627197265,0.000670376464842803,0.53675549510756,0.924607999999353,
0.413239206542969,-0.38522704711914,0.0102471831054682,0.565041170551308,0.927772000000914,
0.420421811523438,-0.337343013916015,0.0198239897460919,0.539395772334232,0.930829000000813,
0.449152231445313,-0.370861837158203,-0.020877438476564,0.582848262166066,0.933806000000914,
0.413239206542969,-0.40438066040039,-0.00651222851562672,0.578215158440488,0.936885000000984,
0.418027609863281,-0.342131417236328,-0.0232716401367199,0.540687117012047,0.939914000000499,
0.42521021484375,-0.325372005615234,-0.0232716401367199,0.535921858184755,0.94299300000057,
0.46351744140625,-0.366073433837891,0.0365834013671869,0.591774047002108,0.945959000000585,
0.446758029785156,-0.351708223876953,0.0389776030273428,0.569921630979166,0.948922999999922,
0.415633408203125,-0.378044442138672,0.05334281298828,0.564370610453794,0.951974999999948,
0.451546433105469,-0.382832845458984,0.00545877978515463,0.592017708425379,0.954959000000599,
0.418027609863281,-0.334948812255859,0.0246123930664055,0.536230882486335,0.958135000000766,
0.434787021484375,-0.375650240478515,0.0198239897460919,0.574931167873402,0.961123999999472,
0.403662399902344,-0.34691982055664,0.00306457812499872,0.532265052984935,0.964207000000897,
0.446758029785156,-0.325372005615234,-0.0232716401367199,0.553173795881771,0.967232000000877,
0.401268198242188,-0.322977803955078,0.0222181914062478,0.515581687802758,0.970240000000558,
0.398873996582031,-0.382832845458984,-0.0256658417968758,0.553462002441619,0.973312000000078,
0.444363828125,-0.337343013916015,-0.0448194550781267,0.559703764805406,0.976329000000987,
0.439575424804688,-0.334948812255859,0.0605254179687496,0.555950166061783,0.979364000000714,
0.427604416503906,-0.390015450439453,-0.00172382519531311,0.57875777331146,0.982363000000987,
0.434787021484375,-0.344525618896484,-0.00651222851562672,0.554779294176972,0.985375000000204,
0.453940634765625,-0.382832845458984,0.0198239897460919,0.594151561491758,0.988429999999425,
0.439575424804688,-0.356496627197265,0.0150355864257801,0.566164700554896,0.991453000000547,
0.444363828125,-0.366073433837891,0.0102471831054682,0.575824604779412,0.994547000000239,
0.408450803222656,-0.344525618896484,-0.0184832368164081,0.534669608985259,0.997500999999829,
0.461123239746094,-0.322977803955078,0.000670376464842803,0.562982906921856,1.00048699999934,
0.42521021484375,-0.375650240478515,-0.0232716401367199,0.567854205948752,1.00357600000098,
0.439575424804688,-0.370861837158203,-0.0759440766601571,0.580114263858718,1.00652699999955,
0.456334836425781,-0.337343013916015,0.0796790312499986,0.573053697304732,1.00961500000085,
0.420421811523438,-0.358890828857422,-0.0472136567382826,0.554784873644926,1.01261200000044,
0.413239206542969,-0.344525618896484,0.0126413847656242,0.538167584037779,1.01561100000072,
0.46351744140625,-0.349314022216797,-0.0280600434570317,0.581081810629006,1.01870299999973,
0.441969626464844,-0.344525618896484,0.000670376464842803,0.560388706344162,1.02169200000026,
0.403662399902344,-0.351708223876953,-0.00172382519531311,0.535392360247048,1.02474799999982,
0.441969626464844,-0.399592257080078,0.017429788085936,0.596082980925094,1.0277729999998,
0.398873996582031,-0.339737215576172,0.0126413847656242,0.524100796990011,1.03081500000008,
0.437181223144531,-0.363679232177734,0.0126413847656242,0.568814390110102,1.03393999999935,
0.413239206542969,-0.334948812255859,-0.0400310517578131,0.533441499848587,1.03695100000004,
