X,Y,Z,Magnitude,Seconds,
0.00785298144531249,-0.0241335527343749,0.0266714064941418,0.0368165942142809,0.0,
0.0102471831054687,-0.0265277543945311,0.0386424147949231,0.0479787738067207,0.00377100000059727,
0.031794998046875,-0.0361045610351562,0.0266714064941418,0.0550075008768609,0.00760600000012346,
0.0174297880859375,0.00220266552734383,0.0290656081542977,0.0339626092272843,0.0114560000001802,
0.0341891997070313,-0.00737414111328116,0.0123061965332045,0.0370772410904547,0.0152390000002924,
-0.0208774384765625,-0.00258573779296867,-0.00205901342773274,0.021137478884016,0.0191130000002886,
0.0341891997070313,-0.0121625444335937,0.00512359155273501,0.0366480566211316,0.0229120000003604,
-0.0113006318359375,0.00938527050781257,-0.090644474853514,0.0918270570358517,0.026704000000791,
0.0150355864257813,0.00699106884765632,0.02188300317383,0.0274555956173903,0.0304960000003121,
0.0174297880859375,-0.0169509477539062,-0.0260010300292954,0.0355975519531985,0.0342920000002778,
0.0246123930664063,-0.0121625444335937,-0.00445321508788865,0.0278123804118494,0.0380590000004304,
0.000670376464843747,-0.0193451494140624,0.00991199487304861,0.0217469964091678,0.0419200000005731,
-0.01608903515625,0.0117794721679688,-0.0116358200683582,0.0230869080969758,0.0456540000004679,
0.00545877978515624,0.00938527050781257,0.02188300317383,0.0244284139303701,0.0494100000005346,
0.00545877978515624,0.033327287109375,-0.0260010300292954,0.0426211204146239,0.053143000000091,
-0.0113006318359375,-0.00019153613281242,-0.0283952316894514,0.0305619068233512,0.0569120000000112,
0.00545877978515624,-0.0289219560546874,0.0482192214355486,0.0564922218948995,0.0609020000001692,
-0.0113006318359375,-0.043287166015625,-0.0307894333496073,0.0543090436994207,0.064792000000125,
0.012641384765625,-0.0145567460937499,0.0482192214355486,0.0519306920951468,0.068622000000687,
-0.00411802685546875,-0.00019153613281242,0.0386424147949231,0.0388616913226307,0.0724430000000211,
-0.00890643017578124,-0.0313161577148436,-0.0355778366699209,0.0482266388483439,0.076256000000285,
0.012641384765625,-0.00258573779296867,-0.01642422338867,0.0208864971368465,0.0801490000003469,
0.0270065947265625,-0.00258573779296867,-0.0643082565917954,0.0697968055467797,0.0839540000006309,
-0.0232716401367187,0.00938527050781257,-0.0403662399902327,0.0475298418691543,0.0877890000001571,
-0.01608903515625,0.0141736738281251,-0.0140300217285141,0.0256240432357523,0.0917420000005222,
0.0198239897460938,-0.0145567460937499,0.0075177932128927,0.0257178273009784,0.0955880000001343,
0.00545877978515624,-0.00737414111328116,-0.00924161840820226,0.0130224323651243,0.0993760000001203,
-0.0400310517578125,0.00459686718750008,-0.00924161840820226,0.0413403411159004,0.103151000000253,
-0.0280600434570312,0.04290409375,-0.0188184250488259,0.0546100761823086,0.106925000000047,
-0.00411802685546875,0.0309330854492188,-0.0140300217285141,0.0342148422514793,0.110688000000664,
-0.01608903515625,-0.0121625444335937,-0.0188184250488259,0.0275847360088232,0.114473999999973,
0.0174297880859375,0.0261446821289063,0.0314598098144554,0.0444641602856047,0.118267000000742,
0.0294007963867188,-0.00019153613281242,0.0314598098144554,0.0430599947494792,0.122016000000258,
-0.00890643017578124,-0.0217393510742186,0.00512359155273501,0.0240452713439349,0.125743000000512,
0.012641384765625,-0.00737414111328116,-0.00924161840820226,0.0173086705657593,0.129614000000402,
0.02221819140625,0.033327287109375,0.0075177932128927,0.040753813443987,0.133601000000453,
-0.0232716401367187,0.0213562788085938,0.019488801513674,0.0371143269323682,0.137384000000566,
-0.0017238251953125,0.0237504804687501,-0.00924161840820226,0.0255433828339806,0.141311000000314,
-0.0113006318359375,-0.0313161577148436,0.019488801513674,0.0385774467578111,0.145086000000447,
0.0270065947265625,0.0237504804687501,0.0362482131347672,0.0510624562343488,0.148932000000059,
-0.00411802685546875,0.0357214887695313,0.0290656081542977,0.0462362680422338,0.15274700000009,
0.0198239897460938,-0.0241335527343749,0.057796028076174,0.0656947471143468,0.156521000000794,
-0.0017238251953125,0.00220266552734383,0.0362482131347672,0.036355966005497,0.160278000000289,
0.00545877978515624,0.0309330854492188,0.000335188232423178,0.031412838192412,0.16415600000073,
0.00545877978515624,-0.0193451494140624,0.0147003981933604,0.0249025056899619,0.167924000000312,
-0.0208774384765625,-0.00737414111328116,0.0314598098144554,0.038470313594549,0.171649000000798,
-0.0304542451171875,0.0117794721679688,0.0697670363769554,0.0770302302673249,0.175407000000632,
0.00545877978515624,-0.00497993945312492,0.0075177932128927,0.0105411236825794,0.179166000000805,
-0.00411802685546875,-0.0265277543945311,0.0506134230957045,0.0572922202036517,0.182866000000104,
-0.00890643017578124,0.00938527050781257,-0.01642422338867,0.0209084412355828,0.186680000000706,
0.031794998046875,0.00220266552734383,0.043430818115235,0.0538703034925993,0.190449000000626,
0.0270065947265625,0.0189620771484376,0.000335188232423178,0.0330004375676937,0.194201000000248,
0.012641384765625,0.00459686718750008,0.0769496413574231,0.0781164713857976,0.197941000000355,
0.0246123930664063,-0.00737414111328116,-0.00445321508788865,0.0260764064670128,0.201886000000741,
-0.0017238251953125,0.00938527050781257,-0.00445321508788865,0.010530242182771,0.20573400000012,
-0.0304542451171875,-0.00737414111328116,-0.0140300217285141,0.0343319168197597,0.209510000000591,
-0.0017238251953125,0.00459686718750008,0.0170945998535164,0.0177856151255825,0.213305000000219,
-0.00890643017578124,-0.00737414111328116,-0.0212126267089836,0.0241594285431037,0.217056000000412,
-0.00411802685546875,-0.00976834277343741,-0.0140300217285141,0.0175846573871744,0.220874000000549,
-0.01608903515625,0.0165678754882813,-0.0260010300292954,0.0347765023117415,0.224660000000767,
-0.0232716401367187,-0.00976834277343741,0.0362482131347672,0.0441692507368624,0.228440000000774,
0.0150355864257813,0.00220266552734383,0.000335188232423178,0.0151997679503222,0.232342000000244,
0.00306457812499999,-0.0193451494140624,0.0314598098144554,0.0370586842521201,0.236171000000468,
-0.0328484467773437,-0.00497993945312492,0.0410366164550791,0.0527998498361694,0.239947000000029,
-0.00890643017578124,0.00699106884765632,0.0458250197753927,0.0472030929020956,0.243730000000141,
-0.00890643017578124,-0.0289219560546874,0.00512359155273501,0.0306929182533136,0.247497000000294,
0.0413718046875,0.0405098920898438,0.0362482131347672,0.0683125942685165,0.251291000000492,
-0.00890643017578124,0.00459686718750008,0.0506134230957045,0.0515962623053296,0.255038000000241,
0.0102471831054687,0.00220266552734383,0.0362482131347672,0.0377331346761154,0.258877000000211,
0.0102471831054687,0.0165678754882813,0.02188300317383,0.0292978683132075,0.262621000000763,
-0.01608903515625,-0.0193451494140624,0.0266714064941418,0.0366668212760146,0.266299000000799,
-0.044819455078125,-0.0313161577148436,-0.0140300217285141,0.0564475579385291,0.270077000000128,
0.0270065947265625,-0.0289219560546874,-0.0116358200683582,0.0412459453694211,0.274056000000201,
0.02221819140625,0.0500866987304688,0.02188300317383,0.0590016207149207,0.277866000000358,
0.00306457812499999,-0.0145567460937499,0.0673728347167977,0.0689955748849089,0.281734000000142,
-0.0496078583984375,-0.146237837402344,-0.13134590307617,0.202726887604699,0.285540000000765,
-0.00890643017578124,0.0405098920898438,-0.0116358200683582,0.0430786276971547,0.28936800000065,
0.0677080229492188,0.263170646484375,0.0410366164550791,0.274822068678585,0.293221000000813,
0.0413718046875,-0.2252464921875,0.0482192214355486,0.23403568484683,0.297011999999995,
0.00545877978515624,-0.24440010546875,-0.0619140549316395,0.252179618581592,0.300774000000274,
-0.138193319824219,0.239228629882813,0.12962207788086,0.305171450292779,0.304436000000351,
0.0270065947265625,0.308660478027344,-0.033183635009765,0.311611618023549,0.307474000000184,
0.208965920898438,-0.270736323730469,-0.00684741674804457,0.342069876195117,0.310432000000219,
0.0270065947265625,-0.443118843261719,-0.0355778366699209,0.445364398975086,0.313481000000138,
-0.257903402832031,0.0931823286132813,-0.00205901342773274,0.274228647472196,0.316446000000724,
-0.174106344726563,0.447524174316406,0.0075177932128927,0.480257663225084,0.319504000000052,
0.230513735839844,0.131489555175781,-0.0451546433105463,0.269193289930616,0.322496000000683,
0.311916592285156,-0.392840608398437,0.0123061965332045,0.501764034803963,0.325461000000359,
-0.102280294921875,-0.328197163574219,-0.0475488449707022,0.347038224934251,0.328477000000021,
-0.329729452636719,0.236834428222656,-0.0571256516113259,0.409969996950608,0.331464000000778,
0.02221819140625,0.351756107910156,0.112862666259767,0.370086461406966,0.334516000000804,
0.259244155761719,-0.0720175859375,0.096103254638674,0.285709468749318,0.33749700000044,
0.177841299316406,-0.35932178515625,-0.105009684814451,0.414447471864955,0.340429000000768,
-0.121433908203125,-0.26355371875,-0.100221281494139,0.30700335827604,0.343440999999984,
-0.166923739746094,0.208104008300781,0.117651069580079,0.291569181044585,0.346406999999999,
-0.0400310517578125,0.315843083007812,0.079343843017579,0.328107884107522,0.349449000000277,
0.0820732329101563,-0.124690022460937,-0.0188184250488259,0.150458467302283,0.352395000000797,
0.113197854492187,-0.287495735351562,-0.0355778366699209,0.311019829864724,0.355338000000302,
0.0461602080078125,0.033327287109375,0.043430818115235,0.0716080221173149,0.358392000000094,
-0.116645504882813,0.227257621582031,0.0290656081542977,0.257093387612103,0.361346000000594,
-0.107068698242188,0.0141736738281251,0.0554018264160163,0.121383530774537,0.364392000000407,
0.012641384765625,-0.218063887207031,-0.00445321508788865,0.21847538679964,0.367338000000018,
0.158687686035156,-0.134266829101562,0.0697670363769554,0.219264229779971,0.370380000000296,
0.0724964262695313,0.167402580078125,0.0625844313964858,0.192863077575487,0.373441000000639,
-0.1884715546875,0.141066361816406,0.110468464599611,0.260047163094382,0.376476000000366,
-0.114251303222656,-0.0696233842773437,-0.0116358200683582,0.134298802060812,0.379571000000396,
0.149110879394531,-0.112719014160156,0.000335188232423178,0.186921755978803,0.382581000000755,
0.189812307617188,0.0859997236328126,0.0362482131347672,0.211515005480333,0.385606000000735,
-0.147770126464844,0.165008378417969,0.0242772048339859,0.222829885558726,0.388563000000431,
-0.260297604492188,0.06205770703125,-0.0427604416503886,0.270987928285531,0.391522000000805,
0.0198239897460938,-0.1486320390625,-0.0355778366699209,0.15411118086447,0.39456600000085,
0.254455752441406,-0.0911711992187499,0.0410366164550791,0.273393345580299,0.397522000000208,
0.0533428129882813,0.133883756835938,-0.0212126267089836,0.145671862670531,0.400567000000592,
-0.154952731445313,0.0381156904296875,-0.0475488449707022,0.166505397802422,0.403529000000162,
-0.16931794140625,-0.12947842578125,0.00512359155273501,0.213212286736108,0.406471000000238,
0.0485544096679688,-0.062440779296875,-0.00205901342773274,0.0791240870639376,0.409512000000177,
0.21375432421875,0.0788171186523439,0.00991199487304861,0.228037928768956,0.412498000000596,
0.00306457812499999,0.0452982954101563,-0.0188184250488259,0.0491473328622042,0.415565000000242,
-0.164529538085938,-0.0361045610351562,0.02188300317383,0.169859865943133,0.418526000000384,
-0.0352426484375,-0.0744117875976562,-0.0499430466308581,0.0962988385658934,0.421444999999949,
0.146716677734375,-0.0121625444335937,0.0721612380371113,0.163954125558219,0.42448400000012,
0.134745669433594,0.0213562788085938,0.0266714064941418,0.139010251420654,0.427460000000792,
-0.0400310517578125,0.0452982954101563,0.00991199487304861,0.0612590263901231,0.430495999999948,
-0.13101071484375,-0.0672291826171875,-0.05473144995117,0.157095837032695,0.433421000000635,
-0.0017238251953125,-0.0384987626953125,0.0075177932128927,0.0392637685043832,0.436362000000372,
0.09883264453125,0.0285388837890626,0.0075177932128927,0.103144930693456,0.439401999999973,
0.00306457812499999,0.0237504804687501,0.0386424147949231,0.0454611172625971,0.44236600000022,
-0.0998860932617188,-0.0121625444335937,-0.01642422338867,0.10195545217451,0.445379000000685,
-0.025665841796875,-0.0217393510742186,-0.00684741674804457,0.0343252376013881,0.448312000000442,
-0.00890643017578124,-0.00497993945312492,-0.00684741674804457,0.0122886700482297,0.451225000000704,
0.0437660063476563,-0.00019153613281242,0.0290656081542977,0.0525386483942292,0.454257000000325,
-0.0304542451171875,0.0213562788085938,-0.0260010300292954,0.0453828740032234,0.457203000000845,
-0.0807324799804687,-0.0121625444335937,-0.00205901342773274,0.0816694578602767,0.460211999999956,
0.00306457812499999,-0.00497993945312492,-0.0140300217285141,0.0151997679503207,0.46314700000039,
0.0294007963867188,0.00938527050781257,0.0314598098144554,0.0440705090081771,0.466183000000456,
0.000670376464843747,-0.00497993945312492,-0.0140300217285141,0.0149027081855609,0.469128000000637,
-0.0184832368164062,-0.00737414111328116,0.0386424147949231,0.0434654370914734,0.472059000000627,
-0.0328484467773437,-0.0408929643554687,-0.01642422338867,0.0549637162442875,0.475064000000202,
0.0174297880859375,-0.00737414111328116,-0.0260010300292954,0.0321594314698441,0.478014000000258,
0.0102471831054687,0.0381156904296875,0.0482192214355486,0.062312951578137,0.481046000000788,
0.00306457812499999,0.0117794721679688,-0.0379720383300768,0.0398750962203353,0.484012000000803,
-0.0184832368164062,0.00220266552734383,0.0266714064941418,0.0325245400123115,0.486965000000055,
-0.0017238251953125,0.033327287109375,0.00991199487304861,0.0348127459666435,0.489999000000353,
-0.006512228515625,-0.00019153613281242,0.0601902297363299,0.0605418001222467,0.49293200000011,
0.012641384765625,-0.0313161577148436,0.0530076247558604,0.0628515284227173,0.495973000000049,
0.00785298144531249,-0.00976834277343741,0.0338540114746113,0.0360996389323066,0.498929000000317,
-0.01608903515625,0.0141736738281251,0.0290656081542977,0.036118688506427,0.501870000000054,
0.000670376464843747,-0.0408929643554687,-0.0283952316894514,0.0497892872120085,0.504878000000645,
0.0102471831054687,0.00220266552734383,0.02188300317383,0.0242636008236248,0.507853000000068,
0.0365834013671875,0.0261446821289063,0.0769496413574231,0.08912427819764,0.510928000000604,
0.0102471831054687,-0.0289219560546874,0.0362482131347672,0.0474912334972444,0.513973000000078,
0.00785298144531249,-0.00258573779296867,0.0338540114746113,0.0348489519273898,0.517006000000038,
0.000670376464843747,-0.0217393510742186,0.0625844313964858,0.066256017409396,0.52013800000077,
-0.0136948334960937,-0.00737414111328116,-0.0212126267089836,0.0263040292263181,0.52306900000076,
0.0270065947265625,-0.00737414111328116,0.057796028076174,0.0642192726310823,0.526109000000361,
0.00306457812499999,-0.0145567460937499,0.00512359155273501,0.0157334575450341,0.529069000000163,
-0.0280600434570312,0.033327287109375,0.0147003981933604,0.0459801675934805,0.532016000000112,
0.0174297880859375,-0.00497993945312492,0.02188300317383,0.0284158958610024,0.535076000000117,
-0.0184832368164062,0.0141736738281251,-0.0188184250488259,0.0299442180448198,0.538022000000637,
0.0102471831054687,0.00459686718750008,-0.0140300217285141,0.0179715736439271,0.541060000000471,
0.000670376464843747,-0.0241335527343749,-0.0283952316894514,0.0372715300851078,0.544017000000167,
-0.01608903515625,-0.0217393510742186,-0.0643082565917954,0.0697639470160869,0.546925999999985,
-0.00411802685546875,-0.0193451494140624,-0.0236068283691395,0.0307973261288179,0.549941000000217,
-0.025665841796875,0.0405098920898438,0.0625844313964858,0.0788454047202146,0.552941000000828,
0.00545877978515624,-0.00258573779296867,-0.0188184250488259,0.0197640440698531,0.555982000000768,
0.0174297880859375,-0.00019153613281242,0.019488801513674,0.0261466552975758,0.558942999999999,
0.00306457812499999,-0.00976834277343741,-0.01642422338867,0.019353740556919,0.561957000000803,
-0.0232716401367187,-0.00497993945312492,0.0697670363769554,0.0737143703522803,0.564909000000625,
0.012641384765625,-0.00737414111328116,0.00512359155273501,0.0155059264911974,0.567855000000236,
0.012641384765625,-0.0169509477539062,-0.0116358200683582,0.0241356903197617,0.570866000000024,
-0.0352426484375,-0.0145567460937499,-0.05473144995117,0.0667043832104349,0.57379100000071,
0.0102471831054687,0.00938527050781257,0.0290656081542977,0.0322164188183758,0.576825000000099,
-0.00890643017578124,0.0237504804687501,-0.052337248291014,0.0581601012692361,0.579765000000407,
-0.0184832368164062,0.033327287109375,-0.05473144995117,0.0666923513083734,0.58270900000025,
-0.0232716401367187,0.0141736738281251,0.0482192214355486,0.0553855177847917,0.585747000000083,
-0.0208774384765625,-0.0265277543945311,0.0506134230957045,0.0608383743045786,0.588666999999987,
-0.0208774384765625,0.0117794721679688,-0.0212126267089836,0.0320093569725055,0.591687000000093,
-0.0017238251953125,-0.0121625444335937,0.0290656081542977,0.0315548512559054,0.594634000000042,
-0.006512228515625,0.00938527050781257,-0.0571256516113259,0.0582566090221798,0.597565000000031,
-0.025665841796875,0.0189620771484376,-0.0140300217285141,0.0348588197538025,0.600590000000011,
0.012641384765625,-0.00019153613281242,-0.033183635009765,0.035510490384449,0.603532000000087,
0.031794998046875,0.0189620771484376,-0.0307894333496073,0.048150508580637,0.606587000000218,
-0.00411802685546875,-0.00737414111328116,-0.0283952316894514,0.029624741096566,0.609538000000612,
0.0150355864257813,-0.0193451494140624,0.043430818115235,0.0498652146007431,0.612489000000096,
-0.00890643017578124,-0.0193451494140624,0.112862666259767,0.114854432825172,0.615493000000242,
0.00306457812499999,0.00938527050781257,-0.0283952316894514,0.0300626699460754,0.618476000000555,
0.00306457812499999,-0.00976834277343741,0.019488801513674,0.0220142123198396,0.621517000000495,
-0.01608903515625,-0.0145567460937499,0.019488801513674,0.0291645211436145,0.624457000000803,
0.02221819140625,-0.00497993945312492,0.0242772048339859,0.0332840878029256,0.627415000000838,
-0.01608903515625,0.0213562788085938,0.000335188232423178,0.0267406067238684,0.630448000000797,
-0.0113006318359375,0.00699106884765632,-0.0499430466308581,0.0516806272242912,0.633407000000261,
0.0389776030273438,0.00699106884765632,0.0338540114746113,0.0520982022176676,0.636449999999968,
0.000670376464843747,-0.0193451494140624,-0.0355778366699209,0.0405026748816493,0.639399000000594,
-0.006512228515625,-0.00976834277343741,0.000335188232423178,0.0117448708775466,0.642328000000816,
-0.01608903515625,-0.00019153613281242,0.0123061965332045,0.0202567571803356,0.645335000000159,
0.0270065947265625,0.00938527050781257,-0.00445321508788865,0.0289356283126634,0.648301000000174,
0.012641384765625,0.00220266552734383,-0.0188184250488259,0.0227769503124585,0.651432000000568,
0.0365834013671875,-0.00497993945312492,0.0147003981933604,0.0397397377896846,0.654485000000022,
0.00545877978515624,0.0117794721679688,0.00512359155273501,0.013957271642339,0.657616000000417,
0.0341891997070313,-0.0337103593749999,0.0266714064941418,0.0549240715003418,0.660628999999972,
0.0174297880859375,-0.0361045610351562,0.0147003981933604,0.0427017393943779,0.663571000000047,
0.012641384765625,0.0237504804687501,0.00512359155273501,0.0273887042718036,0.666608000000451,
-0.0328484467773437,-0.0337103593749999,-0.0403662399902327,0.0620067908847465,0.669539000000441,
-0.00411802685546875,0.00220266552734383,0.043430818115235,0.0436811840815509,0.672581000000719,
-0.0184832368164062,0.0285388837890626,0.0170945998535164,0.0380568426868128,0.675535000000309,
-0.006512228515625,-0.0121625444335937,-0.033183635009765,0.0359373098575861,0.67845699999998,
-0.0232716401367187,-0.0313161577148436,-0.0116358200683582,0.0407144111751245,0.681485000000066,
0.00306457812499999,-0.00497993945312492,0.0242772048339859,0.0249714659279812,0.684449000000313,
0.0150355864257813,0.0141736738281251,-0.00445321508788865,0.0211374788840158,0.687520000000404,
0.0102471831054687,0.0309330854492188,-0.0451546433105463,0.0556848484734253,0.69049300000006,
-0.0113006318359375,0.0165678754882813,0.000335188232423178,0.0200576950130804,0.693496000000778,
0.00785298144531249,-0.00497993945312492,-0.00924161840820226,0.0131101725900171,0.696520000000419,
0.000670376464843747,0.0285388837890626,-0.0188184250488259,0.0341913792329077,0.699507000000267,
0.00545877978515624,0.0141736738281251,0.0075177932128927,0.0169472275408317,0.702549999999974,
0.0294007963867188,-0.0384987626953125,0.00272938989257909,0.048518152545506,0.705514000000221,
-0.0280600434570312,0.00699106884765632,0.0075177932128927,0.0298790611839624,0.708456000000297,
-0.0136948334960937,0.0237504804687501,0.0170945998535164,0.0323088088782928,0.711489000000256,
-0.0232716401367187,0.00220266552734383,-0.00684741674804457,0.024357916294291,0.71444800000063,
0.0461602080078125,0.0189620771484376,0.0458250197753927,0.0677514399147571,0.717500000000655,
0.0150355864257813,0.0237504804687501,-0.0379720383300768,0.0472443634373926,0.720460000000458,
-0.0232716401367187,0.0405098920898438,-0.0212126267089836,0.0513088308547214,0.723422000000028,
-0.0304542451171875,0.0309330854492188,-0.0260010300292954,0.0506001026051404,0.726444000000811,
0.00785298144531249,-0.00258573779296867,0.000335188232423178,0.00827452165780982,0.729415000000699,
0.0102471831054687,-0.00497993945312492,-0.00205901342773274,0.011577741353536,0.732438000000002,
0.012641384765625,-0.0241335527343749,0.00272938989257909,0.0273803313632458,0.735411000000568,
0.00545877978515624,-0.0384987626953125,-0.0260010300292954,0.0467761324651487,0.738348000000769,
-0.006512228515625,-0.00258573779296867,0.00991199487304861,0.0121384843591384,0.741370000000643,
-0.0113006318359375,0.0141736738281251,0.0362482131347672,0.0405281416443068,0.744324000000233,
0.012641384765625,-0.00976834277343741,0.0338540114746113,0.037434198565684,0.747376000000259,
-0.0232716401367187,-0.0193451494140624,-0.00445321508788865,0.0305881539999447,0.750299000000268,
-0.025665841796875,0.0189620771484376,0.0506134230957045,0.0598332215611888,0.753327000000354,
0.0198239897460938,0.00220266552734383,0.00512359155273501,0.020593530422874,0.756299000000581,
0.0102471831054687,0.00699106884765632,0.0075177932128927,0.0145050687699676,0.759250000000065,
0.0294007963867188,-0.0265277543945311,0.00512359155273501,0.039929685345481,0.76228700000047,
-0.0232716401367187,-0.0169509477539062,0.0625844313964858,0.0688891494912663,0.765231000000313,
0.0270065947265625,0.00938527050781257,0.0123061965332045,0.0311268683671112,0.768263000000843,
0.0270065947265625,-0.0361045610351562,0.0625844313964858,0.0771343408572833,0.771218000000772,
-0.0184832368164062,-0.0193451494140624,0.0673728347167977,0.0724911284699079,0.774142000000211,
0.0150355864257813,-0.0384987626953125,-0.033183635009765,0.0530035585663682,0.777160999999978,
-0.006512228515625,0.00220266552734383,0.00272938989257909,0.00739664956928345,0.780132000000776,
0.0389776030273438,-0.0217393510742186,0.0601902297363299,0.0749314131629553,0.783164000000397,
0.012641384765625,-0.00497993945312492,-0.0140300217285141,0.0195306404260573,0.786104000000705,
-0.00411802685546875,-0.00497993945312492,-0.0236068283691395,0.0244752995444216,0.789055000000189,
-0.00411802685546875,0.00220266552734383,0.000335188232423178,0.00468211829825621,0.792177000000265,
0.012641384765625,-0.00497993945312492,0.0601902297363299,0.0617046850851825,0.795227000000523,
0.0246123930664063,-0.00497993945312492,-0.0116358200683582,0.0276760184650047,0.798341000000619,
0.00306457812499999,-0.0241335527343749,0.0290656081542977,0.0379028967764505,0.801324000000022,
0.00306457812499999,0.00938527050781257,-0.00205901342773274,0.0100853595813252,0.804287000000841,
-0.0591846650390625,-0.0169509477539062,-0.00445321508788865,0.0617251191182381,0.807291000000077,
0.0198239897460938,0.00699106884765632,-0.0499430466308581,0.0541864698966261,0.810268000000178,
-0.0232716401367187,0.00220266552734383,0.0123061965332045,0.0264171051251295,0.813347000000249,
0.00306457812499999,-0.0313161577148436,0.0266714064941418,0.04124872479824,0.816303999999946,
-0.0280600434570312,0.00699106884765632,-0.00205901342773274,0.0289910437676662,0.819237000000612,
-0.006512228515625,0.0213562788085938,-0.090644474853514,0.0933537390052452,0.822276000000784,
0.0437660063476563,0.0141736738281251,0.0170945998535164,0.0490773031610439,0.82524900000044,
0.00545877978515624,-0.00497993945312492,-0.0619140549316395,0.0623534142752239,0.828287000000273,
-0.00411802685546875,0.0117794721679688,0.0338540114746113,0.0360805793005244,0.831296000000293,
-0.0113006318359375,0.0117794721679688,-0.00205901342773274,0.0164529565957897,0.834260999999969,
0.000670376464843747,-0.00976834277343741,0.0338540114746113,0.0352415098721252,0.837294000000838,
-0.0304542451171875,-0.00019153613281242,0.0075177932128927,0.0313690125209533,0.840231000000131,
-0.0280600434570312,0.0141736738281251,0.00272938989257909,0.0315548512559047,0.843292000000474,
-0.006512228515625,0.0381156904296875,0.0075177932128927,0.0393920320872548,0.846246000000065,
-0.0184832368164062,-0.0145567460937499,0.0338540114746113,0.0412264841209188,0.849246000000676,
-0.0208774384765625,0.0213562788085938,-0.0283952316894514,0.0412097957358523,0.852188000000751,
-0.00411802685546875,-0.0193451494140624,-0.0355778366699209,0.0407059628696623,0.855096000000231,
-0.025665841796875,-0.0193451494140624,0.0147003981933604,0.0353422119856407,0.858102000000144,
-0.0113006318359375,0.00459686718750008,0.0673728347167977,0.0684684914804456,0.861070000000836,
-0.00411802685546875,0.00938527050781257,0.019488801513674,0.0220194194320959,0.864098000000013,
-0.01608903515625,-0.0217393510742186,0.000335188232423178,0.0270475283258625,0.867038000000321,
-0.00411802685546875,-0.0193451494140624,0.0266714064941418,0.0332047718771039,0.869962000000669,
-0.0304542451171875,0.0405098920898438,0.0338540114746113,0.0609475716965954,0.872989000000416,
0.02221819140625,-0.0265277543945311,-0.05473144995117,0.0647526169072629,0.875935000000027,
-0.0400310517578125,0.0141736738281251,-0.00924161840820226,0.0434601615899615,0.878970000000663,
0.0389776030273438,-0.00976834277343741,-0.0571256516113259,0.0698427815190313,0.881909000000633,
0.0174297880859375,0.00459686718750008,0.00272938989257909,0.0182312443307065,0.884874000000309,
0.02221819140625,0.0165678754882813,0.0170945998535164,0.032563290247022,0.887932000000546,
0.0102471831054687,-0.0265277543945311,0.00991199487304861,0.0301160116412667,0.890890000000581,
0.0150355864257813,0.0117794721679688,-0.05473144995117,0.0579685814685896,0.893928000000415,
-0.00890643017578124,-0.00019153613281242,0.0410366164550791,0.0419924406845745,0.89687800000047,
0.00306457812499999,-0.0169509477539062,0.0147003981933604,0.0226457054622557,0.899812999999995,
0.00545877978515624,0.0165678754882813,0.0386424147949231,0.0423972758101381,0.902853000000505,
-0.01608903515625,0.00220266552734383,0.0386424147949231,0.0419159278659949,0.905809000000772,
0.00306457812499999,0.0117794721679688,0.00512359155273501,0.0132060135559312,0.908849000000373,
0.000670376464843747,-0.00737414111328116,-0.0140300217285141,0.0158640748695213,0.911789000000681,
-0.0232716401367187,-0.0193451494140624,-0.0643082565917954,0.0710728915014827,0.914700000000266,
-0.0184832368164062,-0.00737414111328116,0.0170945998535164,0.0262342018083604,0.917711000000054,
0.00545877978515624,-0.0169509477539062,-0.0260010300292954,0.0315148610830321,0.92066000000068,
0.00785298144531249,0.0117794721679688,0.0338540114746113,0.0366949502664807,0.923700000000281,
-0.0113006318359375,-0.00019153613281242,0.000335188232423178,0.0113072241126075,0.926633000000038,
-0.00890643017578124,0.0189620771484376,0.0075177932128927,0.0222576297716352,0.929647000000841,
0.0246123930664063,0.00699106884765632,0.0554018264160163,0.0610246450732682,0.93277500000022,
-0.0017238251953125,-0.00497993945312492,-0.0260010300292954,0.0265296990718912,0.935786000000007,
0.0174297880859375,-0.00976834277343741,-0.05473144995117,0.058264480148865,0.938874000000396,
0.012641384765625,0.00699106884765632,0.0338540114746113,0.0368072512604291,0.941845000000285,
0.012641384765625,0.0141736738281251,0.02188300317383,0.0289752215950889,0.944873000000371,
-0.0136948334960937,0.0165678754882813,-0.00684741674804457,0.0225594786908369,0.947809000000234,
0.02221819140625,-0.0552581743164062,0.0266714064941418,0.0652570132822737,0.950775000000249,
0.0174297880859375,-0.0217393510742186,-0.0403662399902327,0.0490492632849657,0.953789000000143,
0.000670376464843747,0.00220266552734383,-0.0475488449707022,0.0476045564844148,0.956767000000582,
-0.006512228515625,-0.00258573779296867,0.0123061965332045,0.014161131073737,0.959775000000263,
0.00306457812499999,-0.0337103593749999,0.00512359155273501,0.0342349406115321,0.962734000000637,
-0.0328484467773437,-0.00019153613281242,-0.00445321508788865,0.033149483651984,0.96564699999999,
-0.0017238251953125,-0.0145567460937499,-0.0667024582519513,0.0682941312778427,0.96865600000001,
-0.0208774384765625,0.0237504804687501,-0.00924161840820226,0.0329448064289647,0.971633000000111,
0.00306457812499999,0.0309330854492188,0.0458250197753927,0.0553730968242524,0.974694000000454,
-0.0304542451171875,0.0213562788085938,-0.0236068283691395,0.0440548979780698,0.977636999999959,
0.012641384765625,-0.0289219560546874,0.0290656081542977,0.0429079681201641,0.980581000000711,
0.00545877978515624,-0.00737414111328116,0.0147003981933604,0.0173285296821389,0.983616000000438,
0.00306457812499999,0.0189620771484376,0.0266714064941418,0.0328681598700517,0.986585000000559,
0.00545877978515624,0.0309330854492188,-0.0188184250488259,0.0366167608271101,0.989616000000751,
-0.00411802685546875,-0.00019153613281242,0.0147003981933604,0.0152674994126703,0.992570000000342,
0.0341891997070313,-0.00258573779296867,0.02188300317383,0.040674970736893,0.995505000000776,
0.00545877978515624,-0.0169509477539062,0.0458250197753927,0.0491636587726505,0.998539000000164,
-0.0520020600585938,-0.00497993945312492,0.02188300317383,0.0566381485855623,1.00150200000007,
0.02221819140625,-0.00976834277343741,-0.0116358200683582,0.0269158105686479,1.00452800000039,
0.00306457812499999,-0.0217393510742186,0.0242772048339859,0.032731845330865,1.00748800000019,
0.00785298144531249,-0.00737414111328116,-0.0116358200683582,0.0158568465781256,1.01042900000084,
0.0102471831054687,-0.0265277543945311,0.019488801513674,0.0344752070226265,1.01346400000057,
-0.0232716401367187,-0.0217393510742186,0.0314598098144554,0.0447648104356846,1.01641300000028,
