X,Y,Z,Magnitude,Seconds,
0.0152750065917968,-0.0617704028320313,-0.0128808049316422,0.0649216730229426,0.0,
0.00809240161132801,0.0220266552734375,-0.0272460148925813,0.0359583903129803,0.00376800000049116,
0.0272460148925781,-0.0234631762695313,-0.00330399829101857,0.0361079267320728,0.00751100000070437,
-0.030214824951172,-0.0569819995117188,0.0206380183105441,0.0677186216263284,0.0112660000004325,
0.0152750065917968,-0.0138863696289063,0.0326090266113255,0.0385941148931826,0.0149890000002415,
-0.0445800349121095,-0.040222587890625,0.0206380183105441,0.0634914473702585,0.0189840000002732,
0.00569819995117177,-0.04979939453125,0.0230322199707,0.0551627803427396,0.0228500000002896,
-0.0254264216308595,0.00766144531249998,0.0709162531738254,0.0757252641160186,0.0267370000001392,
-0.0278206232910157,-0.0426167895507813,0.0230322199707,0.0558628766596825,0.0305240000006961,
-0.039791631591797,-0.0138863696289063,-0.0296402165527372,0.0515242432598584,0.034258000000591,
-0.0230322199707032,-0.00670376464843752,0.0948582697753881,0.097844340470059,0.0380869999999049,
-0.0661278498535157,0.0627280834960937,0.0254264216308577,0.0946266764833901,0.04189100000076,
-0.00627280834960947,-0.0737414111328125,-0.00569819995117449,0.0742267695857295,0.0456080000003567,
0.0248518132324218,0.00047884033203123,0.0182438166503882,0.0308330789084668,0.0494870000002265,
-0.039791631591797,-0.0234631762695313,0.0230322199707,0.0516176107755009,0.0532720000001063,
0.0248518132324218,0.00047884033203123,-0.000909796630862658,0.0248730705565735,0.0570820000002641,
-0.00387860668945322,0.00047884033203123,0.0206380183105441,0.0210047774970697,0.0608550000006289,
-0.0182438166503907,-0.00191536132812502,0.0110612116699187,0.0214209210492242,0.0646150000002308,
-0.00387860668945322,-0.00430956298828127,0.0110612116699187,0.0124886479095289,0.0683490000001257,
0.0248518132324218,-0.03064578125,-0.0224576115722677,0.045399568796332,0.0721579999999449,
-0.0326090266113282,0.00766144531249998,-0.000909796630862658,0.0335093134922855,0.0759020000004966,
0.000909796630859272,-0.021068974609375,0.0110612116699187,0.0238134378997817,0.0796440000003713,
0.00330399829101552,-0.00670376464843752,0.0445800349121068,0.0452021722700728,0.0833550000006653,
-0.0158496149902345,-0.0258573779296875,-0.000909796630862658,0.0303420832944425,0.0871710000001258,
0.0176692082519531,-0.00191536132812502,-0.0463996281738304,0.0496869703638477,0.0911620000006224,
-0.0421858332519532,-0.00909796630859377,0.039791631591795,0.058700864242795,0.0949390000005224,
-0.0182438166503907,-0.00909796630859377,-0.00330399829101857,0.0206525117511753,0.0988370000004579,
0.0152750065917968,-0.00909796630859377,0.0302148249511696,0.0350575878257698,0.102664000000004,
-0.0182438166503907,-0.00670376464843752,-0.0176692082519558,0.0262674366219031,0.106450000000223,
-0.0182438166503907,-0.0138863696289063,-0.000909796630862658,0.0229454971040771,0.110287000000426,
0.00330399829101552,0.0148440502929687,0.039791631591795,0.0425985466717394,0.11410800000067,
-0.0230322199707032,-0.00670376464843752,-0.00569819995117449,0.0246554882313059,0.117862000000059,
-0.0134554133300782,-0.0450109912109375,0.0206380183105441,0.0513124280994448,0.1217400000005,
-0.00866701000976572,-0.0162805712890625,0.0110612116699187,0.0215063820205624,0.125520000000506,
-0.0158496149902345,0.00526724365234373,0.00387860668945095,0.0171463623221742,0.129282000000785,
-0.0134554133300782,0.0316034619140625,0.0733104548339814,0.0809583210102709,0.133011000000806,
-0.0469742365722657,-0.0282515795898438,0.0828872614746068,0.0993731793072371,0.136728000000403,
-0.0278206232910157,-0.00191536132812502,0.0182438166503882,0.0333240534042734,0.140445,
-0.0517626398925782,-0.03064578125,0.0182438166503882,0.0628599367088813,0.144150000000081,
-0.0254264216308595,-0.0162805712890625,0.00148440502929503,0.0302285192614438,0.147969000000558,
-0.0254264216308595,-0.0186747729492188,0.0421858332519509,0.0526772682360857,0.151679000000513,
0.00330399829101552,0.0100556469726562,0.0158496149902323,0.0190589279888539,0.155406000000767,
-0.0828872614746095,-0.01149216796875,0.0134554133300764,0.0847550363533958,0.159295000000384,
0.055976434814453,-0.0282515795898438,0.0158496149902323,0.0646739769860845,0.163178000000698,
-0.020638018310547,0.036391865234375,-0.0128808049316422,0.0437745450086052,0.166936999999962,
-0.0709162531738282,-0.0617704028320313,0.0493684382324187,0.10621647858856,0.170805000000655,
0.103860468017578,-0.0138863696289063,0.0302148249511696,0.109053948691145,0.174581000000217,
-0.104435076416016,0.0148440502929687,-0.0416112248535185,0.113395436631856,0.178364000000329,
0.0224576115722656,0.00047884033203123,-0.0392170231933626,0.045194562878106,0.182170000000042,
0.00330399829101552,-0.0713472094726563,0.0445800349121068,0.0841945379285782,0.185903000000508,
0.00330399829101552,0.0339976635742187,-0.0128808049316422,0.0365057895257699,0.189654000000701,
-0.0445800349121095,0.0411802685546875,-0.051188031494144,0.0793940085853244,0.193530000000464,
-0.00627280834960947,-0.0905008227539063,0.0254264216308577,0.0942138522759527,0.197291000000405,
-0.0134554133300782,0.0866701000976562,0.0445800349121068,0.0983876715426565,0.201050000000578,
0.00809240161132801,-0.021068974609375,-0.0583706364746117,0.062582104929291,0.204783000000134,
0.0487938298339843,-0.107260234375,0.039791631591795,0.124374312672613,0.20852400000058,
-0.0445800349121095,0.0986411083984375,0.0302148249511696,0.112384978647802,0.212252000000262,
-0.0182438166503907,-0.03064578125,0.0158496149902323,0.0390283364971468,0.215991000000031,
0.0583706364746093,-0.0330399829101563,-0.0104866032714863,0.0678877052295035,0.219806000000062,
-0.0421858332519532,0.0411802685546875,-0.0272460148925813,0.0649446254352471,0.223520000000462,
-0.0421858332519532,-0.0258573779296875,-0.0152750065917999,0.0517839197718735,0.227260999999999,
0.0440054265136718,-0.0809240161132813,-0.0679474431152371,0.114464094686723,0.231223000000682,
-0.0230322199707032,-0.00430956298828127,0.0517626398925763,0.0568192430306614,0.235050000000228,
0.0296402165527343,0.00287304199218748,0.0541568415527323,0.0618042093594733,0.238911000000371,
-0.049368438232422,-0.0665588061523438,0.0134554133300764,0.0839545443547694,0.242782000000261,
-0.0469742365722657,-0.00909796630859377,-0.0248518132324236,0.0539162731783156,0.246641000000636,
0.0942836613769531,0.0124498486328125,0.00627280834960686,0.095308738624613,0.250543000000107,
-0.0900698664550782,-0.0378283862304688,0.078098858154295,0.12507197644973,0.254383000000416,
-0.0182438166503907,-0.00430956298828127,-0.00569819995117449,0.0195928216907775,0.258182999999917,
0.0224576115722656,-0.0378283862304688,0.0278206232910136,0.0520511114447402,0.262043000000631,
0.00809240161132801,0.0196324536132812,0.0278206232910136,0.0349986753894652,0.265881000000263,
-0.058945244873047,0.00526724365234373,0.00148440502929503,0.059198726397851,0.269774000000325,
-0.00148440502929698,-0.03064578125,-0.0152750065917999,0.0342737974711497,0.273519000000306,
0.0296402165527343,0.0148440502929687,0.0326090266113255,0.0464998589560367,0.277297999999973,
-0.0517626398925782,0.00047884033203123,0.00387860668945095,0.051909958260085,0.281033000000207,
-0.00866701000976572,-0.0282515795898438,0.0326090266113255,0.0440070156721493,0.28474499999993,
-0.0158496149902345,-0.00909796630859377,0.0589452448730441,0.0617132496262683,0.288453000000118,
0.00330399829101552,0.00766144531249998,0.0110612116699187,0.013855127303284,0.292269999999917,
-0.0326090266113282,-0.162326872558594,-0.278637189208986,0.324117332738434,0.295953000000736,
-0.0230322199707032,-0.33710359375,0.307942217529295,0.457162690311451,0.2998290000005,
0.146956097900391,1.23588689697266,-0.798178949462892,1.4785473114461,0.303848000000471,
-0.224145159423828,-0.332315190429688,-0.83888037768555,0.929728307813258,0.306790000000547,
-0.0158496149902345,-1.17507417480469,1.12197078198242,1.62476735633459,0.309706000000006,
0.065553241455078,-0.351468803710938,-0.491721136962893,0.607961531664089,0.31273500000043,
-0.0709162531738282,0.843237824707031,0.0661278498535136,0.84879446069535,0.315702000000783,
-0.111617681396484,2.21750957763672,0.243298772705076,2.2336072901275,0.31872199999998,
0.750294916259766,-2.3673866015625,0.114011883056639,2.48605319575045,0.321680000000015,
-0.334278435791016,-1.64194349853516,-0.716776093017581,1.82249512826189,0.324593000000277,
-0.90649263256836,2.58142822998047,0.710168096435545,2.82663038344876,0.327613000000383,
0.178080719482422,0.436223542480469,-0.0942836613769558,0.480513403005817,0.330611000000317,
1.44221919604492,-1.70658694335938,-0.125408282958986,2.23789241075613,0.33365700000013,
-0.379768267333985,0.25665841796875,0.0421858332519509,0.460301124173339,0.336641000000782,
-1.60559951733398,0.25665841796875,0.0613394465332,1.62714039998961,0.339588000000731,
0.573123993408203,0.184832368164063,-0.170898114501956,0.625971470341601,0.342619000000013,
1.25307726489258,0.0435744702148437,0.231327764404295,1.27499564737667,0.34559900000022,
-0.576092803466797,-0.593283171386719,-0.0823126530761744,0.831049464540683,0.34860800000024,
-0.700591289794922,0.247081611328125,-0.218782147705081,0.774430827219231,0.35157000000072,
0.264271979248047,0.362003291015625,0.324701629150388,0.553459311688528,0.354533000000629,
0.324127020751953,-0.406535441894531,-0.223570551025393,0.565962173986669,0.357536000000437,
-0.00627280834960947,-0.0857124194335938,-0.0487938298339863,0.0988271460663478,0.360453000000234,
-0.281605999267578,0.244687409667969,0.118800286376951,0.391519316658524,0.363495999999941,
-0.106829278076172,-0.0928950244140625,-0.0296402165527372,0.144639284609882,0.366402999999991,
0.166109711181641,-0.16472107421875,-0.072735846435549,0.244981574403715,0.369426000000203,
-0.00387860668945322,0.0890643017578125,0.00387860668945095,0.0892330489634284,0.372386000000006,
-0.176261126220703,0.0699106884765625,-0.0559764348144558,0.197709003928487,0.375323000000208,
0.00809240161132801,-0.078529814453125,0.0326090266113255,0.0854152640832972,0.378328000000693,
0.0344286198730468,-0.0186747729492188,0.0326090266113255,0.0509649450858701,0.381279000000177,
-0.0852814631347657,-0.0138863696289063,0.0541568415527323,0.101974127615022,0.384288000000197,
0.0104866032714843,-0.107260234375,-0.0200634099121118,0.109623296537072,0.387258000000656,
0.075130048095703,-0.0162805712890625,0.0469742365722627,0.0900897332103265,0.390204000000267,
-0.106829278076172,0.0866701000976562,0.00148440502929503,0.137573269073264,0.393233000000691,
0.0176692082519531,-0.100077629394531,0.0278206232910136,0.105364699523989,0.396179000000302,
0.075130048095703,-0.116837041015625,-0.0368228215332049,0.143705735674731,0.399199000000408,
-0.0421858332519532,0.122583125,0.0373974299316373,0.134925293505032,0.402162000000317,
-0.020638018310547,0.017238251953125,0.00387860668945095,0.0271685244361438,0.405110000000604,
0.0416112248535155,-0.171903679199219,-0.0440054265136745,0.18226038109992,0.408116999999947,
-0.0373974299316407,-0.00909796630859377,-0.0128808049316422,0.0405864003347341,0.411051000000043,
-0.0373974299316407,0.1608903515625,-0.0104866032714863,0.165512059498909,0.414058000000296,
0.000909796630859272,-0.059376201171875,-0.0440054265136745,0.0739110178401225,0.417029000000184,
-0.0182438166503907,-0.121625444335938,-0.0631590397949235,0.138255740798363,0.419929000000593,
-0.0254264216308595,-0.0545877978515625,0.0326090266113255,0.0684812325222862,0.422951000000467,
-0.0637336481933595,0.0770932934570312,0.0637336481933577,0.118605782827489,0.425890000000436,
0.0296402165527343,-0.0426167895507813,-0.0152750065917999,0.0541115423480804,0.429004999999961,
-0.0421858332519532,-0.0641646044921875,0.0182438166503882,0.0789276747584359,0.43204600000081,
-0.102040874755859,-0.00430956298828127,0.00148440502929503,0.102142625345063,0.435068000000683,
0.0344286198730468,-0.00191536132812502,-0.0751300480957049,0.0826651232518464,0.438138000000436,
0.0487938298339843,-0.01149216796875,-0.0080924016113304,0.0507778959620113,0.441094000000703,
-0.0373974299316407,-0.0162805712890625,-0.0272460148925813,0.0490506890320307,0.444081000000551,
-0.058945244873047,-0.0234631762695313,0.0326090266113255,0.0713330999630375,0.44702899999993,
-0.0182438166503907,-0.0474051928710938,0.00148440502929503,0.0508162632964061,0.450013000000581,
0.0272460148925781,-0.00430956298828127,0.0254264216308577,0.0375156044550358,0.453034000000116,
0.0176692082519531,-0.00430956298828127,0.0373974299316373,0.0415853462038321,0.45598500000051,
-0.0134554133300782,0.0124498486328125,0.0134554133300764,0.0227397235415558,0.459021000000575,
0.000909796630859272,-0.00670376464843752,-0.0296402165527372,0.0304024773277494,0.461949000000459,
-0.00627280834960947,-0.0474051928710938,0.0350032282714814,0.0592606650752585,0.465009000000464,
-0.00866701000976572,-0.0474051928710938,0.0350032282714814,0.0595616937559738,0.467943999999989,
-0.030214824951172,-0.0162805712890625,-0.127802484619144,0.132330902374142,0.470887000000403,
-0.0134554133300782,0.0220266552734375,-0.0224576115722677,0.0342135354494234,0.47390600000017,
-0.0517626398925782,0.0244208569335937,0.0350032282714814,0.0670893071319508,0.476881000000503,
-0.011061211669922,-0.01149216796875,-0.0320344182128931,0.0357858111332874,0.479849000000286,
-0.0757046564941407,-0.0162805712890625,-0.0631590397949235,0.0999265546499569,0.482791000000361,
-0.030214824951172,-0.0474051928710938,0.0541568415527323,0.0780586410651845,0.485714000000371,
0.036822821533203,0.0148440502929687,-0.000909796630862658,0.0397126396085155,0.488751000000775,
-0.00387860668945322,0.036391865234375,-0.051188031494144,0.062925559300922,0.491695000000618,
-0.0757046564941407,-0.0162805712890625,0.0685220515136695,0.103399823791127,0.494712000000618,
0.0296402165527343,-0.00909796630859377,-0.0128808049316422,0.0335742544806629,0.497640000000501,
0.084706854736328,-0.0617704028320313,-0.0080924016113304,0.105149041218605,0.500606999999945,
-0.0996466730957032,0.0387860668945312,-0.00569819995117449,0.1070807542319,0.503613000000769,
-0.0373974299316407,0.0411802685546875,0.0565510432128882,0.0793246668583871,0.506581000000551,
0.0607648381347655,-0.0761356127929688,0.0182438166503882,0.0991051660352684,0.509583000000021,
-0.0182438166503907,-0.03064578125,0.0421858332519509,0.0552416987569837,0.512517000000116,
-0.078098858154297,0.0507570751953125,0.0182438166503882,0.0949133772097515,0.515451000000212,
-0.0326090266113282,-0.0186747729492188,0.0134554133300764,0.0399142068582902,0.518453000000591,
0.065553241455078,-0.0450109912109375,0.0421858332519509,0.0900158948309701,0.521411000000626,
-0.0134554133300782,0.0292092602539062,-0.0679474431152371,0.0751736925949634,0.524436000000605,
-0.068522051513672,0.0124498486328125,0.0134554133300764,0.0709317871092041,0.527390000000196,
-0.00866701000976572,-0.0426167895507813,-0.0416112248535185,0.0601897154664735,0.530314999999973,
-0.00866701000976572,-0.0617704028320313,0.0733104548339814,0.096255506421742,0.533337000000756,
-0.0254264216308595,-0.00909796630859377,-0.0104866032714863,0.0289697213669047,0.536266000000069,
-0.0230322199707032,-0.0258573779296875,-0.0080924016113304,0.0355608508618201,0.539259000000129,
-0.00866701000976572,-0.00430956298828127,-0.0152750065917999,0.0180835622054637,0.542199000000437,
0.0224576115722656,-0.0474051928710938,-0.0128808049316422,0.0540139960044003,0.54514300000028,
0.000909796630859272,-0.0162805712890625,-0.0104866032714863,0.0193869435337631,0.548154000000068,
0.00569819995117177,-0.0282515795898438,0.0350032282714814,0.0453414514702633,0.551115000000209,
-0.0182438166503907,-0.0330399829101563,0.0469742365722627,0.0602582460599659,0.55413100000078,
-0.011061211669922,-0.00430956298828127,0.0182438166503882,0.021766018991303,0.557066000000304,
-0.00627280834960947,-0.00670376464843752,-0.0296402165527372,0.0310295185645173,0.560051000000385,
0.00330399829101552,-0.0234631762695313,0.0541568415527323,0.0591134547487277,0.56300900000042,
0.000909796630859272,-0.0354341845703125,0.0326090266113255,0.0481638638671217,0.565993000000162,
-0.0661278498535157,-0.00670376464843752,0.0134554133300764,0.0678150509444176,0.569081000000551,
0.0104866032714843,-0.0474051928710938,0.00627280834960686,0.0489547677342054,0.57215400000041,
-0.0134554133300782,-0.021068974609375,-0.0200634099121118,0.0320544888631087,0.575219000000288,
-0.020638018310547,0.0100556469726562,0.0373974299316373,0.0438817912273062,0.578199000000495,
-0.039791631591797,-0.0234631762695313,-0.0320344182128931,0.056214753718494,0.581114999999954,
-0.020638018310547,-0.03064578125,0.0278206232910136,0.0462501760916628,0.584144000000379,
-0.00387860668945322,-0.0378283862304688,0.0158496149902323,0.0411975811182112,0.587138000000778,
0.00809240161132801,0.0124498486328125,0.0326090266113255,0.0358306337001887,0.590226000000257,
0.00569819995117177,-0.00430956298828127,0.0110612116699187,0.0131678479426307,0.593182999999954,
-0.0565510432128907,-0.0330399829101563,0.0613394465332,0.0897339883219784,0.596118000000388,
0.00330399829101552,-0.0258573779296875,0.0278206232910136,0.0381248931592761,0.599165999999968,
-0.0278206232910157,0.00047884033203123,-0.0272460148925813,0.0389430570948269,0.602147000000514,
-0.0326090266113282,-0.03064578125,-0.0440054265136745,0.0627613741692418,0.605155000000195,
-0.0182438166503907,-0.0521935961914063,0.00387860668945095,0.0554260942085594,0.608144000000721,
-0.020638018310547,0.0100556469726562,0.0517626398925763,0.0566252127984849,0.611116000000038,
0.0248518132324218,-0.021068974609375,-0.0248518132324236,0.0409771513525395,0.614146000000801,
0.0152750065917968,-0.0330399829101563,0.0565510432128882,0.0672531544654137,0.617111999999906,
0.0296402165527343,0.0220266552734375,-0.0152750065917999,0.0399630054701516,0.620170000000144,
-0.00148440502929698,-0.00670376464843752,0.0637336481933577,0.0641024323312878,0.623125000000073,
-0.020638018310547,-0.0258573779296875,0.0685220515136695,0.0760907572365208,0.626052999999956,
0.00569819995117177,-0.0186747729492188,-0.000909796630862658,0.0195459550111509,0.629074000000401,
-0.0541568415527345,0.00766144531249998,0.0326090266113255,0.0636789592234558,0.632062000000587,
0.0416112248535155,-0.0330399829101563,0.0182438166503882,0.0561780326327492,0.635090000000673,
0.0224576115722656,-0.00191536132812502,0.0230322199707,0.032225705319306,0.638067000000774,
-0.00387860668945322,-0.0258573779296875,-0.0152750065917999,0.0302815688105767,0.640977000000021,
0.0128808049316406,-0.0186747729492188,0.00148440502929503,0.0227346814071112,0.644005000000107,
-0.0134554133300782,-0.0330399829101563,0.0302148249511696,0.0467506605880225,0.646940000000541,
-0.0230322199707032,-0.00670376464843752,-0.034428619873049,0.0419613331962106,0.649937000000136,
-0.00866701000976572,0.00047884033203123,0.0757046564941373,0.0762006651248418,0.652910000000702,
0.0176692082519531,0.0100556469726562,-0.00569819995117449,0.0211136552726699,0.655938000000788,
0.0440054265136718,0.00047884033203123,-0.0320344182128931,0.05443262625441,0.65890600000057,
-0.0230322199707032,-0.00191536132812502,-0.0248518132324236,0.0339376544082734,0.661836000000221,
0.0152750065917968,0.00047884033203123,-0.034428619873049,0.0376680896888324,0.664892000000691,
-0.0326090266113282,0.00287304199218748,0.039791631591795,0.0515264682620915,0.667881000000307,
0.0200634099121093,-0.01149216796875,-0.0080924016113304,0.0244968835928645,0.670878000000812,
0.0104866032714843,-0.03064578125,0.0278206232910136,0.0426980074113166,0.673864000000322,
-0.0421858332519532,-0.021068974609375,0.0134554133300764,0.049036663489019,0.676781000000119,
-0.00866701000976572,0.00287304199218748,-0.0368228215332049,0.0379379970275779,0.67980500000067,
-0.00866701000976572,-0.021068974609375,0.0134554133300764,0.026458777399628,0.682757999999922,
-0.0254264216308595,-0.0713472094726563,0.00387860668945095,0.0758417484393443,0.685761000000639,
-0.00387860668945322,-0.03064578125,0.0302148249511696,0.0432104518039807,0.688712000000123,
-0.0230322199707032,0.045968671875,0.0373974299316373,0.0635780600224794,0.691655999999966,
0.0152750065917968,0.00526724365234373,0.0158496149902323,0.0226336028376215,0.694691000000603,
-0.0134554133300782,0.00287304199218748,0.0230322199707,0.026828821721254,0.69764000000032,
-0.00866701000976572,0.00766144531249998,0.00627280834960686,0.0131591387019328,0.700661000000764,
-0.0158496149902345,-0.01149216796875,0.0302148249511696,0.0360029980250319,0.703597000000627,
-0.020638018310547,0.00047884033203123,0.0182438166503882,0.0275498445335547,0.70661999999993,
0.00569819995117177,-0.0138863696289063,0.0134554133300764,0.0201580974309914,0.709740000000238,
-0.068522051513672,0.00526724365234373,0.039791631591795,0.0794127782165604,0.712796000000708,
0.000909796630859272,-0.0234631762695313,0.0661278498535136,0.070172935643405,0.715895000000273,
-0.0326090266113282,0.0220266552734375,0.00866701000976278,0.0402944068275299,0.718866000000162,
-0.0254264216308595,-0.0138863696289063,-0.0128808049316422,0.031705666908423,0.721776000000318,
-0.00148440502929698,0.00766144531249998,0.00866701000976278,0.0116626868721045,0.724805000000742,
0.00809240161132801,-0.0474051928710938,-0.0535822331542999,0.0719985762691623,0.727789999999914,
0.00330399829101552,-0.01149216796875,-0.0655532414550812,0.0666349292383295,0.730798999999934,
-0.0326090266113282,-0.0378283862304688,0.00148440502929503,0.0499653768086545,0.73380300000008,
-0.0421858332519532,0.0124498486328125,0.0469742365722627,0.064352328315986,0.736778000000413,
0.000909796630859272,-0.0450109912109375,0.039791631591795,0.0600848650197182,0.73980500000016,
-0.0134554133300782,0.00526724365234373,0.0134554133300764,0.019744370120609,0.742782000000261,
0.0104866032714843,-0.0761356127929688,0.00866701000976278,0.0773415635091747,0.745799000000261,
-0.011061211669922,-0.00909796630859377,0.0302148249511696,0.0334373898710552,0.748775000000023,
-0.00387860668945322,-0.00191536132812502,0.0517626398925763,0.0519430754530119,0.751792000000023,
-0.0158496149902345,-0.0162805712890625,0.0469742365722627,0.052180898788578,0.754745000000185,
0.00569819995117177,0.036391865234375,0.0541568415527323,0.0654965710926014,0.75771000000077,
0.0224576115722656,-0.00670376464843752,0.0565510432128882,0.0612152372082175,0.76073500000075,
-0.00387860668945322,-0.0186747729492188,0.0350032282714814,0.0398624726275451,0.763680000000022,
-0.0134554133300782,-0.0138863696289063,0.00627280834960686,0.0203279987688103,0.766669999999976,
-0.0134554133300782,0.00526724365234373,-0.000909796630862658,0.0144782503599686,0.76962100000037,
-0.0158496149902345,0.0124498486328125,0.0493684382324187,0.0533240257278719,0.772574000000532,
-0.00866701000976572,0.00047884033203123,0.0182438166503882,0.0202035441580417,0.775595000000067,
-0.0373974299316407,-0.00670376464843752,0.0206380183105441,0.0432369752149705,0.778549000000567,
0.0200634099121093,0.017238251953125,0.0972524714355441,0.100785618755962,0.781598999999915,
-0.00148440502929698,-0.00430956298828127,0.0110612116699187,0.0119635360595315,0.784529000000475,
-0.058945244873047,0.0196324536132812,0.00627280834960686,0.0624445614334187,0.787475000000086,
-0.0278206232910157,0.00766144531249998,0.00148440502929503,0.0288944334235511,0.790507000000616,
0.00809240161132801,-0.0162805712890625,-0.0080924016113304,0.0199005258517541,0.793449000000692,
-0.0182438166503907,-0.03064578125,0.0493684382324187,0.0609035585816138,0.796471999999994,
-0.0517626398925782,-0.0282515795898438,0.0733104548339814,0.0940847778651532,0.799410000000535,
0.00330399829101552,-0.021068974609375,0.0206380183105441,0.0296773633529645,0.802366000000802,
0.0128808049316406,0.00526724365234373,-0.0416112248535185,0.043876565786194,0.805409999999938,
-0.0182438166503907,-0.0354341845703125,-0.0080924016113304,0.0406682338684029,0.808343000000605,
-0.0278206232910157,0.00047884033203123,-0.000909796630862658,0.0278396138312606,0.811365000000478,
0.0128808049316406,-0.00430956298828127,0.0421858332519509,0.0443185288113036,0.814333000000261,
-0.0182438166503907,-0.00430956298828127,-0.00569819995117449,0.0195928216907775,0.817246999999952,
-0.0350032282714844,0.02681505859375,0.00627280834960686,0.0445378657032731,0.820283000000018,
-0.030214824951172,-0.0450109912109375,-0.0200634099121118,0.0578054097288695,0.823234000000411,
-0.00387860668945322,0.0148440502929687,-0.000909796630862658,0.0153693574641618,0.826259000000391,
0.0128808049316406,-0.0521935961914063,0.0110612116699187,0.0548856722896359,0.829240000000027,
0.00569819995117177,0.0124498486328125,-0.0104866032714863,0.017246363727958,0.832182000000103,
-0.0278206232910157,-0.0450109912109375,-0.00569819995117449,0.0532207280368774,0.835194000000229,
-0.0134554133300782,-0.00909796630859377,-0.034428619873049,0.0380677160491467,0.838124000000789,
0.0607648381347655,-0.0282515795898438,-0.0272460148925813,0.0723385279805464,0.841154000000643,
-0.0373974299316407,-0.0162805712890625,0.00387860668945095,0.0409715554603639,0.84413399999994,
-0.0182438166503907,-0.040222587890625,-0.0559764348144558,0.0713025572972607,0.847234000000753,
0.00809240161132801,-0.0186747729492188,-0.0487938298339863,0.0528684399090034,0.850260000000162,
-0.0350032282714844,0.00287304199218748,-0.0272460148925813,0.0444502608230962,0.853297000000566,
-0.00866701000976572,0.02681505859375,-0.0823126530761744,0.0870030877976999,0.856338000000505,
-0.0254264216308595,-0.00909796630859377,0.039791631591795,0.0480900182224927,0.859292000000096,
0.0224576115722656,-0.0450109912109375,-0.051188031494144,0.0717673199692404,0.862311000000773,
-0.00387860668945322,-0.0234631762695313,0.0182438166503882,0.0299733394282244,0.865286000000197,
-0.0350032282714844,-0.0186747729492188,0.0302148249511696,0.0498689159793988,0.868239000000358,
-0.011061211669922,-0.0426167895507813,0.0230322199707,0.0496892776361371,0.871272000000317,
-0.0182438166503907,-0.0186747729492188,0.039791631591795,0.0475915742061038,0.874214000000393,
-0.00148440502929698,-0.00670376464843752,0.0517626398925763,0.0522160397521794,0.877247000000352,
-0.0326090266113282,-0.0138863696289063,0.0373974299316373,0.0515242432598543,0.880200999999943,
-0.00627280834960947,-0.00909796630859377,-0.0248518132324236,0.0271980465563706,0.883128000000397,
-0.0469742365722657,-0.0234631762695313,-0.051188031494144,0.0733301718970286,0.886159000000589,
0.0248518132324218,0.00047884033203123,0.00866701000976278,0.026324113878953,0.889181000000463,
-0.00387860668945322,0.00526724365234373,-0.0176692082519558,0.0188411349391593,0.892203000000336,
0.0344286198730468,-0.0258573779296875,-0.0272460148925813,0.0509536965026896,0.895148000000518,
0.0272460148925781,-0.0138863696289063,0.0350032282714814,0.0464801310069435,0.898114999999962,
0.0272460148925781,0.0148440502929687,0.0373974299316373,0.0485927867292924,0.901168000000325,
-0.0158496149902345,-0.0258573779296875,0.0565510432128882,0.0641703574651357,0.904097000000547,
-0.0469742365722657,0.0148440502929687,0.0302148249511696,0.057791525135414,0.907133000000613,
0.0344286198730468,0.00766144531249998,0.00866701000976278,0.0363200312933305,0.910109000000375,
-0.030214824951172,-0.0569819995117188,0.0158496149902323,0.0664160689180117,0.913044000000809,
-0.039791631591797,0.0292092602539062,-0.0128808049316422,0.0510144093860229,0.916071000000557,
-0.0373974299316407,-0.0282515795898438,-0.0392170231933626,0.0611121462801135,0.919021000000612,
-0.030214824951172,-0.0234631762695313,-0.000909796630862658,0.0382659642161881,0.922023000000081,
-0.00387860668945322,-0.0282515795898438,0.0350032282714814,0.0451488795940518,0.924987000000328,
0.0128808049316406,-0.0569819995117188,0.0110612116699187,0.0594576639942004,0.927936000000045,
-0.00866701000976572,-0.0162805712890625,-0.034428619873049,0.0390577000138325,0.930919000000358,
0.0128808049316406,-0.00670376464843752,0.00387860668945095,0.0150299429805994,0.933880000000499,
-0.0469742365722657,-0.0354341845703125,0.0469742365722627,0.0752910302709232,0.936884000000646,
-0.0637336481933595,-0.040222587890625,0.0158496149902323,0.0770132766735228,0.939845000000787,
-0.0182438166503907,-0.00430956298828127,-0.0080924016113304,0.0204180347477934,0.942855000000236,
-0.0134554133300782,-0.0234631762695313,-0.00330399829101857,0.0272485814905179,0.945792000000438,
-0.00387860668945322,-0.0138863696289063,-0.0224576115722677,0.02668743466227,0.94871300000068,
-0.0445800349121095,0.00766144531249998,0.0469742365722627,0.0652123926764556,0.951743999999962,
0.00569819995117177,-0.03064578125,-0.0775242497558626,0.0835562247311099,0.954699000000801,
0.00569819995117177,-0.0282515795898438,0.0182438166503882,0.034109501285973,0.957718999999997,
0.0152750065917968,0.0220266552734375,-0.0368228215332049,0.0455457962339067,0.960698000000775,
-0.0158496149902345,-0.01149216796875,-0.0487938298339863,0.0525748804071739,0.963604000000487,
-0.0421858332519532,-0.0258573779296875,-0.0463996281738304,0.0678319542341956,0.966604000000189,
0.000909796630859272,-0.0162805712890625,0.0469742365722627,0.0497238738731676,0.969574000000648,
-0.0421858332519532,-0.0186747729492188,0.0134554133300764,0.048056631381628,0.972579000000223,
-0.0254264216308595,-0.0138863696289063,0.104435076416014,0.108379054085369,0.97551999999996,
-0.00866701000976572,0.00047884033203123,-0.00330399829101857,0.00928777450630734,0.978446000000076,
-0.00148440502929698,-0.0426167895507813,0.0278206232910136,0.0509154327312169,0.981470000000627,
-0.00387860668945322,0.00766144531249998,0.0350032282714814,0.0360411892638594,0.984511999999995,
-0.0254264216308595,-0.0282515795898438,-0.00569819995117449,0.0384333728542666,0.987589000000298,
-0.049368438232422,-0.0354341845703125,0.00148440502929503,0.0607867385863268,0.990632000000005,
-0.0182438166503907,-0.0282515795898438,0.0110612116699187,0.0354025281427908,0.99362100000053,
-0.00627280834960947,-0.0186747729492188,0.0206380183105441,0.0285310895179655,0.996628000000783,
-0.00866701000976572,-0.0186747729492188,0.0206380183105441,0.029151192205476,0.999566000000414,
0.00569819995117177,-0.0330399829101563,0.0757046564941373,0.0827967690691024,1.00259700000061,
-0.00627280834960947,-0.0426167895507813,0.0733104548339814,0.0850291812507432,1.00557400000071,
-0.00627280834960947,-0.0258573779296875,0.0421858332519509,0.0498758122254769,1.00848900000074,
-0.0278206232910157,-0.00909796630859377,-0.0894952580566439,0.0941602956976995,1.01148499999999,
-0.0326090266113282,-0.00670376464843752,0.0685220515136695,0.0761811040917755,1.01443600000039,
