X,Y,Z,Magnitude,Seconds,
-0.0333272871093751,0.00818816967773445,0.049224786132811,0.0600069475857844,0.0,
-0.00699106884765632,-0.0109654436035155,-0.024995465332033,0.0281760409607066,0.00401000000056229,
0.0456813676757812,-0.0277248552246093,0.0157059628906229,0.0556967882402305,0.00798800000120536,
0.0145567460937499,-0.0301190568847655,-0.0178128603515653,0.0378992669898774,0.0119470000008732,
0.00737414111328116,0.022553379638672,0.0611957944335924,0.0656350374925096,0.0158260000007431,
-0.00699106884765632,-0.0229364519042968,0.0516189877929669,0.0569163928087617,0.0197100000004866,
0.0193451494140624,0.0249475812988282,-0.0369664736328144,0.0486121053993715,0.0234990000008111,
-0.0237504804687501,-0.00617704028320304,0.00373495458984152,0.0248231955022912,0.0273760000000038,
-0.0117794721679688,0.0273417829589845,-0.0297838686523466,0.0421118497792771,0.0312410000005912,
0.00976834277343741,-0.00617704028320304,-0.0369664736328144,0.0387310795104557,0.0351270000010118,
-0.00699106884765632,-0.0301190568847655,-0.0202070620117212,0.0369372168199765,0.038948999999775,
0.0145567460937499,-0.0277248552246093,0.0300711728515601,0.0434147658145458,0.042978999999832,
0.0169509477539062,-0.00617704028320304,0.032465374511716,0.0371414996816493,0.0468350000010105,
0.00976834277343741,-0.00617704028320304,-0.0297838686523466,0.0319476944254185,0.0508929999996326,
-0.00699106884765632,-0.00617704028320304,0.0372537778320297,0.038404099169896,0.0548410000010335,
-0.0117794721679688,0.0177649763183595,0.00373495458984152,0.0216402456995295,0.0587050000012823,
-0.0189620771484376,-0.0157538469238281,-0.0321780703125025,0.0405360613740292,0.0625060000002122,
-0.00699106884765632,-0.0205422502441406,0.0611957944335924,0.0649290716480996,0.0664550000001327,
-0.00938527050781257,0.0177649763183595,-0.0321780703125025,0.037935549226722,0.0703759999996691,
0.0265277543945311,-0.034907460205078,-0.0393606752929703,0.0589195662806874,0.0743039999997563,
0.00976834277343741,0.022553379638672,-0.0321780703125025,0.0404907849109126,0.0784160000002885,
-0.0189620771484376,0.0105823713378907,0.0540131894531228,0.0582148742832555,0.0823940000009316,
0.0408929643554687,-0.0109654436035155,-0.0585142885742211,0.0722246319100813,0.0863440000011906,
0.00019153613281242,-0.00617704028320304,0.0228885678710924,0.0237082064260477,0.090237000000343,
0.0121625444335937,0.0464953962402345,0.0204943662109347,0.0522471856182077,0.0941149999998743,
-0.0117794721679688,0.0153707746582032,0.0276769711914042,0.0337791564796848,0.097977000001265,
0.00976834277343741,-0.0301190568847655,0.0204943662109347,0.0377173322831164,0.101935000000594,
-0.0309330854492189,-0.0133596452636718,0.049224786132811,0.0596524556644637,0.10583299999962,
0.0528639726562499,-0.0157538469238281,-0.00105344873047031,0.0551714876736877,0.109759000000849,
0.0432871660156249,0.0057939680175782,0.0444363828124974,0.0623052238942435,0.11375500000031,
0.0432871660156249,0.012976572998047,0.00852335791015335,0.0459871484058589,0.117741000000024,
0.0313161577148437,0.032130186279297,0.032465374511716,0.0553809637560531,0.121600000000399,
0.0480755693359374,-0.0325132585449218,0.034859576171872,0.0677020117800498,0.125484000000142,
0.0169509477539062,0.00339976635742195,0.0228885678710924,0.028684134643219,0.129452999999558,
0.0289219560546874,-0.00617704028320304,0.010917559570311,0.0315250452126698,0.133358000000953,
-0.0189620771484376,0.0249475812988282,-0.024995465332033,0.0400838554733674,0.137274000000616,
0.00019153613281242,-0.0133596452636718,0.0635899960937483,0.0649784919097407,0.141123999999763,
-0.0237504804687501,-0.00617704028320304,0.0252827695312483,0.0352343523330146,0.145088000001124,
0.0169509477539062,0.0393127912597657,0.032465374511716,0.0537292353246866,0.14900900000066,
-0.0189620771484376,0.0057939680175782,-0.0106302553710957,0.0224973946141931,0.152949000001172,
0.0241335527343749,-0.0109654436035155,-0.0513316835937516,0.0577720612543275,0.156843000000663,
0.00019153613281242,-0.0157538469238281,0.0157059628906229,0.0222462951816972,0.160718000000998,
0.00976834277343741,-0.0157538469238281,-0.0130244570312517,0.022654816141335,0.164576999999554,
0.0384987626953124,0.0057939680175782,0.00373495458984152,0.039111055729127,0.168504000001121,
0.0169509477539062,-0.0157538469238281,-0.00105344873047031,0.0231652342289646,0.172349000000395,
-0.00699106884765632,-0.00857124194335929,0.034859576171872,0.0365722747852361,0.176327000001038,
0.0169509477539062,-0.0277248552246093,-0.0273896669921889,0.0424993657002573,0.180465999999797,
0.0265277543945311,-0.0133596452636718,0.0228885678710924,0.0374978454578035,0.184385000000475,
0.0145567460937499,-0.0133596452636718,-0.0130244570312517,0.0236646457689096,0.18838500000129,
-0.00459686718750008,0.0010055646972657,-0.0537258852539093,0.05393155935643,0.192297999999937,
0.0193451494140624,0.0177649763183595,0.0899262143554669,0.093683260072169,0.196170000001075,
0.0121625444335937,-0.0157538469238281,0.070772601074216,0.0735178362222982,0.200066999999763,
-0.0165678754882813,-0.0133596452636718,0.0516189877929669,0.0558345280318264,0.204133000001093,
-0.0141736738281251,-0.025330653564453,0.0731668027343719,0.0787141414369674,0.208029999999781,
0.0169509477539062,0.0010055646972657,0.0516189877929669,0.0543402768753207,0.211923000000752,
-0.0237504804687501,0.00818816967773445,0.013311761230467,0.0284312228408279,0.215831999999864,
0.00976834277343741,-0.00378283862304679,0.049224786132811,0.0503270300972386,0.219691000000239,
-0.0261446821289064,-0.0301190568847655,0.0420421811523415,0.0579503838407961,0.223572000000786,
0.0241335527343749,-0.00857124194335929,0.0252827695312483,0.035987678324736,0.227474000001166,
0.0145567460937499,0.022553379638672,-0.0297838686523466,0.0400952942608506,0.231273000001238,
-0.0117794721679688,-0.0133596452636718,0.010917559570311,0.0208908878006271,0.235181000000011,
-0.0309330854492189,-0.0157538469238281,-0.0154186586914093,0.037983871631921,0.239035000000513,
0.0241335527343749,-0.0229364519042968,0.0157059628906229,0.0368128573172825,0.242885999999999,
0.00497993945312492,-0.0229364519042968,-0.0202070620117212,0.0309710506450856,0.246864000000642,
-0.00938527050781257,-0.0277248552246093,0.0372537778320297,0.0473771554917408,0.250747000000047,
-0.0309330854492189,0.012976572998047,0.0157059628906229,0.037039499085489,0.254801000000953,
0.0121625444335937,-0.0205422502441406,0.0228885678710924,0.0330726181512991,0.258697000001121,
-0.0357214887695314,-0.0396958635253905,0.013311761230467,0.0550362546690375,0.262560000001031,
-0.00459686718750008,0.0153707746582032,0.013311761230467,0.0208469395497214,0.266358000000764,
0.00976834277343741,0.0177649763183595,-0.0585142885742211,0.061926867121456,0.270260000001144,
0.00737414111328116,-0.00857124194335929,-0.0704852968750025,0.0713864218263349,0.274222000000009,
0.0145567460937499,-0.00857124194335929,-0.003447650390628,0.0172409784671724,0.278159999999843,
0.0217393510742186,0.012976572998047,0.013311761230467,0.0286040874519488,0.28211999999985,
-0.0141736738281251,0.0177649763183595,0.0372537778320297,0.043638645443416,0.286089999999604,
0.0145567460937499,-0.025330653564453,-0.00584185205078391,0.0297937594509906,0.290009000000282,
-0.00699106884765632,-0.0205422502441406,-0.0369664736328144,0.0428646621539366,0.293853999999556,
-0.00220266552734383,-0.0181480485839843,0.0683783994140601,0.0707800035974903,0.297738000001118,
-0.0309330854492189,-0.0277248552246093,-0.00823605371093983,0.0423480336422331,0.301714999999604,
-0.0189620771484376,-0.0564552751464843,0.013311761230467,0.0610242693418406,0.305636999999479,
0.0361045610351562,0.932350010498047,-0.341030084472658,0.99341914614058,0.309516999999687,
0.78070127734375,-1.85210652026367,3.29336803564453,3.8582465013338,0.313314000000901,
-2.02290886669922,-1.55761971606445,-4.90198424707031,5.52700542982984,0.316338000000542,
1.80781378955078,4.27465552807617,3.53518240332031,5.83424247063384,0.319362000000183,
1.38882849902344,-0.695707118408203,-1.20294268212891,1.96466895195884,0.322438999999576,
-2.61906508007813,-2.04603685473633,0.789033099121092,3.41589548085602,0.325466000000233,
0.656202791015625,0.103956236083984,0.00612915624999744,0.664414455376899,0.328546000000642,
0.481426069824219,0.786303709228516,-0.281175042968751,0.963900403901459,0.331581000000369,
0.57001153125,0.838976145751953,0.599891167968748,1.17841568739799,0.334547000000384,
-0.864115263183594,-0.145040736572266,0.0588015927734347,0.878174032094419,0.337574999999561,
-0.36851551953125,-1.53607190112305,-0.539748822265627,1.66932602109123,0.340605999999752,
0.349744978515625,0.135080857666016,0.295827557128904,0.477579660016563,0.343715000000884,
0.625078169433594,0.994599253662109,0.0659841977539042,1.1765646211071,0.346679000000222,
-0.3876691328125,0.360135813720703,0.348499993652341,0.633590882538212,0.349591000000146,
-0.478648795898438,-0.647823085205078,-0.384125714355472,0.892374351922304,0.352657999999792,
0.232429097167969,-0.549660817138672,0.207242095703123,0.631743290695906,0.355644000001121,
0.289889937011719,0.372106822021484,-0.11597512841797,0.485746737495119,0.358700000000681,
0.107930610839844,0.484634300048828,0.154569659179685,0.520010770156738,0.361772000000201,
-0.442735770996094,0.0824084211425782,-0.0369664736328144,0.451854656905917,0.36468799999966,
0.00497993945312492,-0.544872413818359,-0.113580926757814,0.556607019413487,0.367780000000494,
0.270736323730469,-0.063637880126953,-0.003447650390628,0.278136338991074,0.370762000000468,
0.0456813676757812,0.209301109130859,0.087532012695311,0.231420817738228,0.373845000000074,
-0.150643168457031,0.199724302490234,0.0300711728515601,0.251967134056513,0.37677900000017,
-0.00699106884765632,-0.0851856950683593,0.0468305844726533,0.0974606655526346,0.379842000000281,
0.0696233842773437,-0.224049391357422,0.0468305844726533,0.239246001111643,0.382872000000134,
0.00258573779296867,-0.0229364519042968,0.00373495458984152,0.0233819749311363,0.385830999999598,
0.0217393510742186,0.125504051025391,-0.0369664736328144,0.132628753978003,0.388863000000129,
-0.0548751020507813,0.120715647705078,0.0396479794921856,0.138403420130259,0.391867000000275,
-0.0141736738281251,-0.145040736572266,-0.0345722719726584,0.1497763341939,0.39487200000076,
0.00737414111328116,-0.128281324951172,0.010917559570311,0.128956075449581,0.397941000001083,
0.0911711992187499,0.022553379638672,0.0372537778320297,0.101038044631066,0.400911000000633,
-0.0141736738281251,0.0776200178222657,0.0588015927734347,0.0984042047333739,0.403986999999688,
-0.0213562788085938,-0.00617704028320304,-0.024995465332033,0.0334517526951215,0.406934000000547,
-0.0357214887695314,-0.0899740983886718,0.0635899960937483,0.115823360096179,0.410025999999561,
0.0241335527343749,-0.0109654436035155,-0.003447650390628,0.0267311730797721,0.412996000000931,
0.0241335527343749,0.0608606062011719,0.0204943662109347,0.0686036500570114,0.415963999999803,
-0.0213562788085938,0.022553379638672,0.013311761230467,0.0337927294655732,0.418963000000076,
0.0456813676757812,-0.034907460205078,0.00373495458984152,0.0576130889337414,0.421986000001198,
0.00976834277343741,-0.0301190568847655,-0.0321780703125025,0.0451442833280524,0.425101000000723,
0.0480755693359374,0.0153707746582032,0.0157059628906229,0.0528601773633934,0.428089000000909,
-0.0261446821289064,0.0656490095214845,0.049224786132811,0.0861186183388615,0.431029000001217,
-0.00938527050781257,-0.0109654436035155,-0.00823605371093983,0.016617967284123,0.434070999999676,
0.0145567460937499,-0.034907460205078,-0.0609084902343771,0.0716957029217108,0.437058999999863,
0.0408929643554687,-0.00378283862304679,-0.063302691894533,0.0754571083657452,0.440174999999726,
0.00258573779296867,0.0201591779785157,-0.0226012636718771,0.0303956512723312,0.443171000000802,
-0.0668461103515626,0.0010055646972657,-0.0130244570312517,0.0681105726774676,0.446163000000524,
-0.0117794721679688,-0.0325132585449218,-0.003447650390628,0.0347527587247528,0.44930100000056,
0.0121625444335937,0.0010055646972657,0.0300711728515601,0.0324532599923018,0.452315000000453,
0.0193451494140624,-0.00378283862304679,-0.0321780703125025,0.0377355652261467,0.455410000000484,
0.0145567460937499,0.0057939680175782,-0.0537258852539093,0.0559637352983417,0.458420000000842,
-0.0476924970703126,-0.00857124194335929,0.104291424316404,0.114998876738852,0.461522999999943,
0.0289219560546874,-0.0492726701660156,-0.0345722719726584,0.06677961932109,0.464615000000776,
0.0145567460937499,-0.025330653564453,-0.00105344873047031,0.0292344081703046,0.467620000001261,
0.0241335527343749,0.0177649763183595,-0.0106302553710957,0.031796620581902,0.470726999999897,
-0.0237504804687501,0.032130186279297,0.034859576171872,0.05302475123677,0.473744000000806,
-0.00220266552734383,-0.0157538469238281,0.0276769711914042,0.0319225651014228,0.476807000000917,
0.00497993945312492,-0.034907460205078,0.010917559570311,0.0369123784372829,0.479801999999836,
0.0289219560546874,-0.0229364519042968,0.0300711728515601,0.047611299127999,0.482771000000866,
0.00737414111328116,0.0297359846191407,-0.0345722719726584,0.0461936005067782,0.485842000000048,
0.00976834277343741,0.0297359846191407,-0.0585142885742211,0.0663594098011455,0.488827000001038,
-0.0357214887695314,-0.034907460205078,0.0157059628906229,0.0523567837839805,0.491955999999846,
0.00258573779296867,-0.0229364519042968,-0.041754876953128,0.0477099215600169,0.494998000000123,
0.0265277543945311,-0.00857124194335929,-0.0226012636718771,0.0358887874026677,0.498046000000613,
0.0169509477539062,0.032130186279297,0.0252827695312483,0.0442594841279041,0.501142000000982,
0.00497993945312492,-0.0899740983886718,0.164146465820311,0.187254373564704,0.50416899999982,
-0.119518546875,-0.130675526611328,-0.262021429687502,0.316253072582295,0.507241999999678,
0.194121870605469,0.379289427001953,0.178511675781248,0.461963405989117,0.510267999999996,
0.134266829101562,-0.0780030900878905,0.0468305844726533,0.162188677478726,0.513301000000865,
-0.205709806640625,-0.259962416259766,-0.0537258852539093,0.335832477824964,0.516386999999668,
-0.0189620771484376,-0.0444842668457031,-0.0345722719726584,0.0594445317580556,0.519342999999935,
0.117507417480469,0.111138841064453,0.0372537778320297,0.165974935212631,0.522451000000729,
0.0744117875976562,0.0848026228027345,0.0444363828124974,0.121256715629116,0.525438000000577,
-0.102759135253906,-0.0588494768066405,0.0635899960937483,0.134411265903379,0.528394000000844,
-0.0668461103515626,-0.190530568115234,-0.0321780703125025,0.204464490962327,0.531509000000369,
0.0408929643554687,0.0201591779785157,0.0157059628906229,0.0482214087399853,0.534490000000005,
0.115113215820312,0.168599680908203,-0.0273896669921889,0.205978393810576,0.537545999999566,
-0.0405098920898438,0.051283799560547,0.00852335791015335,0.0659069577856672,0.540515000000596,
-0.0500866987304688,-0.0827914934082031,0.0157059628906229,0.0980295161714007,0.543493999999555,
0.00497993945312492,-0.0588494768066405,0.00612915624999744,0.0593769927977916,0.546583999999712,
0.0169509477539062,0.051283799560547,0.0300711728515601,0.0618193995748132,0.549539999999979,
-0.0476924970703126,0.0369185895996095,0.0372537778320297,0.0708900592296578,0.552633999999671,
-0.0788171186523438,-0.0420900651855468,-0.0393606752929703,0.0976369527356311,0.555685000001176,
0.0265277543945311,-0.0803972917480468,0.0157059628906229,0.0861053049698957,0.558684999999969,
0.0624407792968749,-0.00378283862304679,-0.0321780703125025,0.0703462081158993,0.561772000000929,
0.00737414111328116,0.0369185895996095,0.0252827695312483,0.0453495165393546,0.564776000001075,
-0.0572693037109376,0.00339976635742195,-0.0561200869140652,0.0802545681818979,0.567790000000969,
0.0337103593749999,-0.025330653564453,-0.0226012636718771,0.0478419006599831,0.570846000000529,
-0.00459686718750008,-0.0277248552246093,0.0540131894531228,0.0608869724987538,0.573922999999922,
-0.00938527050781257,0.0536780012207032,0.0300711728515601,0.0622389472454591,0.576998000000458,
0.0169509477539062,0.0393127912597657,-0.0106302553710957,0.044111591624473,0.579997000000731,
-0.00938527050781257,-0.0420900651855468,0.0157059628906229,0.045894816266655,0.583115000001271,
-0.0237504804687501,0.0010055646972657,0.0181001645507788,0.0298782937869976,0.586113000001205,
0.00976834277343741,0.0010055646972657,-0.0106302553710957,0.0144718350652039,0.589169000000766,
0.0121625444335937,0.022553379638672,0.00612915624999744,0.0263467071293945,0.592226000000664,
-0.0309330854492189,0.012976572998047,0.0468305844726533,0.0576051288014586,0.595233000000007,
0.0145567460937499,0.00818816967773445,0.0516189877929669,0.0542537084472549,0.598320000000967,
0.0265277543945311,-0.00617704028320304,0.0252827695312483,0.0371631001807855,0.60131900000124,
-0.00220266552734383,-0.00378283862304679,0.00612915624999744,0.00753180986285806,0.604433000000427,
-0.00220266552734383,-0.034907460205078,-0.00584185205078391,0.0354613839095107,0.607454000000871,
-0.0213562788085938,-0.0444842668457031,0.0204943662109347,0.0534318228000694,0.610430000000633,
-0.0165678754882813,0.0273417829589845,0.0468305844726533,0.0567024799777022,0.613471000000573,
0.0145567460937499,-0.00857124194335929,-0.0154186586914093,0.0228713812685565,0.616491000000678,
-0.00220266552734383,-0.025330653564453,0.010917559570311,0.0276710471865265,0.619544999999562,
-0.0117794721679688,-0.0133596452636718,0.0444363828124974,0.047873042556181,0.622573000000557,
0.00976834277343741,-0.00857124194335929,-0.0106302553710957,0.0167895514605268,0.62564200000088,
0.0265277543945311,0.0057939680175782,0.0228885678710924,0.0355130730547905,0.628710000000865,
0.0145567460937499,-0.0109654436035155,-0.0226012636718771,0.0290337205646382,0.631744000000253,
0.0121625444335937,-0.0325132585449218,-0.0297838686523466,0.045739679712568,0.634835000000749,
-0.00699106884765632,-0.00617704028320304,-0.0154186586914093,0.0180212626121245,0.637846999999965,
0.0217393510742186,-0.0109654436035155,-0.0537258852539093,0.0589856854233825,0.640841000000364,
0.0145567460937499,0.0057939680175782,0.034859576171872,0.0382185684335398,0.643958000000566,
-0.00938527050781257,0.0249475812988282,0.0899262143554669,0.093793332084279,0.646942000001218,
0.0384987626953124,-0.00138863696289054,-0.0106302553710957,0.0399635505296939,0.650015000001076,
-0.0165678754882813,-0.0373016618652343,0.010917559570311,0.0422504625190631,0.653014999999868,
0.0169509477539062,-0.00617704028320304,0.00612915624999744,0.0190540550212508,0.65604600000006,
0.0145567460937499,0.0010055646972657,-0.0106302553710957,0.0180530425815983,0.65907100000004,
0.0193451494140624,-0.00378283862304679,-0.0273896669921889,0.0337452001304395,0.662094999999681,
-0.0141736738281251,-0.0205422502441406,0.0228885678710924,0.0338638983885284,0.665194999999585,
-0.00938527050781257,-0.0301190568847655,-0.0728794985351584,0.0794144961381026,0.668185000000449,
-0.0405098920898438,-0.00378283862304679,-0.0465432802734398,0.0618193995748161,0.671234000001277,
-0.0309330854492189,0.0153707746582032,0.034859576171872,0.04907449989439,0.674225000000661,
-0.0165678754882813,0.012976572998047,0.032465374511716,0.038689617304321,0.677193999999872,
-0.0165678754882813,0.0010055646972657,0.0252827695312483,0.0302444059906257,0.680234000001292,
-0.0285388837890626,-0.00617704028320304,0.00612915624999744,0.0298360565578432,0.683209000000716,
0.0193451494140624,-0.0181480485839843,0.0540131894531228,0.0601748378324196,0.686308000000281,
0.00737414111328116,-0.00617704028320304,-0.003447650390628,0.0102186142423958,0.689389000001029,
0.00258573779296867,-0.00857124194335929,-0.0226012636718771,0.0243098611257099,0.692395000000033,
0.0265277543945311,-0.0444842668457031,0.0396479794921856,0.0652267891884082,0.695499999999811,
0.0121625444335937,-0.0516668718261718,0.0444363828124974,0.0692241666534168,0.698469000000841,
0.0552581743164062,-0.0373016618652343,-0.0154186586914093,0.0684296342422841,0.701590000000579,
-0.0189620771484376,-0.0133596452636718,0.0755610043945296,0.0790411657079055,0.704620000000432,
-0.0452982954101563,0.0010055646972657,0.00612915624999744,0.0457221312250759,0.707615999999689,
-0.00699106884765632,-0.00857124194335929,0.034859576171872,0.0365722747852361,0.710713000000396,
-0.0117794721679688,-0.025330653564453,0.0396479794921856,0.0485011366090637,0.71376600000076,
-0.00938527050781257,0.0297359846191407,0.0540131894531228,0.0623677538370072,0.716856000000917,
0.00737414111328116,0.00818816967773445,0.010917559570311,0.015511840213245,0.719901000000391,
-0.0285388837890626,-0.00378283862304679,0.0899262143554669,0.0944219348683293,0.722923999999693,
0.00258573779296867,0.0177649763183595,0.0276769711914042,0.0329893188449789,0.726082000001043,
0.0217393510742186,-0.0396958635253905,-0.0226012636718771,0.0505883196570144,0.729070999999749,
0.0145567460937499,-0.025330653564453,0.0372537778320297,0.0473432659371791,0.732174000000668,
0.0169509477539062,-0.00617704028320304,-0.0178128603515653,0.025353272970572,0.735199000000648,
0.00019153613281242,-0.0181480485839843,-0.0345722719726584,0.0390465151178475,0.738258999999744,
0.00737414111328116,-0.0133596452636718,-0.0178128603515653,0.0234554060428315,0.741346000000703,
0.0313161577148437,-0.0205422502441406,-0.0465432802734398,0.0597407960921666,0.744335000001229,
-0.0476924970703126,0.0057939680175782,-0.00584185205078391,0.0483970203377619,0.747363000000405,
-0.0213562788085938,-0.00857124194335929,-0.0130244570312517,0.0264422637828329,0.750363000001016,
-0.00220266552734383,-0.0109654436035155,0.0157059628906229,0.0192813370690119,0.753362000001289,
0.0241335527343749,0.0177649763183595,0.0157059628906229,0.0338334157527192,0.75651199999993,
-0.00220266552734383,-0.0301190568847655,0.049224786132811,0.0577502285092802,0.759487999999692,
0.0121625444335937,-0.0373016618652343,0.0300711728515601,0.0494329536005671,0.762635000000955,
-0.0405098920898438,-0.0133596452636718,-0.00105344873047031,0.042668972719409,0.765570999999909,
0.00976834277343741,-0.034907460205078,0.0372537778320297,0.051978796266042,0.768677000000025,
-0.0213562788085938,-0.0396958635253905,0.0181001645507788,0.0485743572509415,0.771667000000889,
-0.0213562788085938,-0.0229364519042968,0.0276769711914042,0.0418113167077806,0.774669000000358,
0.00258573779296867,-0.0301190568847655,0.0420421811523415,0.0517821264878918,0.777780000000348,
-0.0261446821289064,-0.0301190568847655,-0.0226012636718771,0.0458423288109909,0.780768000000535,
-0.0141736738281251,-0.0301190568847655,0.00852335791015335,0.0343612899565542,0.783806000001277,
0.0193451494140624,0.0057939680175782,0.0444363828124974,0.048809804227224,0.786830000000919,
0.0217393510742186,0.0057939680175782,0.00134075292968561,0.0225381247874643,0.789794000000256,
0.00737414111328116,-0.0205422502441406,0.0157059628906229,0.0268893895909353,0.792896000000837,
0.00737414111328116,-0.00857124194335929,0.0731668027343719,0.0740352967710718,0.795939999999973,
-0.00699106884765632,0.00339976635742195,0.013311761230467,0.0154154611340268,0.798982000000251,
0.0121625444335937,-0.0396958635253905,-0.0393606752929703,0.0572097179476023,0.801965000000564,
-0.0141736738281251,0.022553379638672,0.00373495458984152,0.0268979153225732,0.804939999999988,
0.0265277543945311,-0.0373016618652343,0.0420421811523415,0.0621504684388713,0.808030000000144,
0.00019153613281242,-0.0133596452636718,-0.003447650390628,0.0137986630104992,0.811020000001008,
0.0408929643554687,0.0153707746582032,-0.00823605371093983,0.0444559088097452,0.814050000000861,
0.0169509477539062,-0.0277248552246093,0.087532012695311,0.0933694568554047,0.817089000000124,
0.00019153613281242,-0.025330653564453,0.0228885678710924,0.0341403754414346,0.820090999999593,
0.0289219560546874,-0.0373016618652343,-0.0130244570312517,0.0489645790433908,0.82316499999979,
0.00737414111328116,0.00818816967773445,-0.0130244570312517,0.0170604970850463,0.826171000000613,
-0.0165678754882813,0.032130186279297,-0.0752737001953143,0.0835043310830736,0.829212000000553,
0.00976834277343741,-0.0468784685058593,0.0300711728515601,0.0565445555881609,0.832211000000825,
0.00019153613281242,-0.0109654436035155,0.013311761230467,0.0172476266938097,0.835269999999582,
-0.0237504804687501,-0.0277248552246093,-0.0776679018554702,0.0858199038589125,0.83837400000084,
0.0432871660156249,-0.0157538469238281,0.032465374511716,0.0563556827369669,0.841435000000274,
0.0169509477539062,0.00818816967773445,0.00373495458984152,0.0191919420126053,0.844607000000906,
0.00737414111328116,0.012976572998047,0.049224786132811,0.0514378165725685,0.847614000000249,
-0.00459686718750008,-0.0325132585449218,-0.0178128603515653,0.0373569426352427,0.850608000000648,
0.0193451494140624,0.0010055646972657,0.0420421811523415,0.0462902901509494,0.853691000000254,
-0.0117794721679688,-0.0133596452636718,0.0204943662109347,0.0271524424778877,0.856773999999859,
0.0504697709960937,0.0010055646972657,-0.0178128603515653,0.0535304300250137,0.859860000000481,
-0.00459686718750008,-0.0373016618652343,0.0276769711914042,0.0466750457972738,0.862870000000839,
0.00737414111328116,-0.00378283862304679,-0.0202070620117212,0.0218406314091911,0.865954000000784,
-0.0189620771484376,-0.0157538469238281,-0.0130244570312517,0.0278815448575151,0.868991000001188,
0.0121625444335937,-0.0277248552246093,-0.0393606752929703,0.0496574047231964,0.872000999999727,
0.00976834277343741,0.0297359846191407,-0.0393606752929703,0.0502882895048915,0.875047999999879,
0.00019153613281242,-0.025330653564453,0.00612915624999744,0.026062333978932,1.45397899999989,
0.00258573779296867,0.041706992919922,0.0228885678710924,0.0476449980328052,1.45868100000007,
0.0361045610351562,-0.0444842668457031,0.00134075292968561,0.0573078261911887,1.46165900000051,
-0.0261446821289064,-0.00857124194335929,0.00373495458984152,0.0277661750671808,1.46457800000098,
-0.0141736738281251,-0.00857124194335929,0.070772601074216,0.0726850760544955,1.46760100000029,
0.0576523759765624,-0.0133596452636718,0.010917559570311,0.0601786480762517,1.47055800000089,
0.0193451494140624,0.0153707746582032,0.0204943662109347,0.0321016287099823,1.47357000000011,
0.0145567460937499,-0.00617704028320304,-0.00105344873047031,0.0158481682766793,1.47652899999957,
-0.00220266552734383,0.00339976635742195,0.0540131894531228,0.0541648851342763,1.47946000000047,
0.0169509477539062,0.0369185895996095,-0.003447650390628,0.0407701260851134,1.48247400000037,
-0.00220266552734383,-0.00378283862304679,0.0276769711914042,0.0280209981585807,1.48543900000004,
-0.0213562788085938,-0.0109654436035155,0.010917559570311,0.0263728023718293,1.48845700000129,
-0.0261446821289064,-0.00857124194335929,0.010917559570311,0.0296007381503308,1.49140699999953,
0.00019153613281242,-0.0133596452636718,0.049224786132811,0.0510058465029481,1.4943600000006,
-0.0452982954101563,-0.0109654436035155,-0.0130244570312517,0.0483922824575013,1.49736500000108,
0.00019153613281242,-0.00617704028320304,-0.0178128603515653,0.0188544558832879,1.5003310000011,
-0.00938527050781257,-0.0133596452636718,-0.00823605371093983,0.0182864978824665,1.50335600000108,
-0.00220266552734383,0.0177649763183595,0.032465374511716,0.0370735304658621,1.5062969999999,
-0.0309330854492189,-0.0229364519042968,0.0276769711914042,0.0474231097219132,1.50923599999987,
0.0241335527343749,0.0153707746582032,0.032465374511716,0.0432745840345358,1.51226200000019,
0.0169509477539062,-0.0133596452636718,0.0252827695312483,0.0332420394455127,1.51523100000122,
0.00497993945312492,-0.0109654436035155,0.00852335791015335,0.0147542665166129,1.51827000000048,
0.00497993945312492,0.0105823713378907,-0.0321780703125025,0.0342376195014513,1.5212019999999,
0.0313161577148437,-0.0205422502441406,-0.0345722719726584,0.0509698711835268,1.52415099999962,
0.0145567460937499,-0.00617704028320304,0.00134075292968561,0.0158698551321894,1.52718699999969,
-0.0429040937500001,0.00339976635742195,0.010917559570311,0.0444017204482568,1.53010999999969,
-0.0237504804687501,-0.0133596452636718,0.010917559570311,0.0293557243317026,1.53315099999963,
-0.0261446821289064,-0.025330653564453,-0.00584185205078391,0.0368688710026106,1.53608900000108,
-0.0357214887695314,0.0153707746582032,0.0803494077148414,0.0892654064777103,1.53909700000077,
0.0169509477539062,-0.025330653564453,-0.0226012636718771,0.0379446143651995,1.54212600000028,
-0.00220266552734383,-0.0181480485839843,-0.00105344873047031,0.0183115580183591,1.54518600000119,
-0.0189620771484376,-0.0277248552246093,-0.00823605371093983,0.0345841083120315,1.54832600000009,
-0.0141736738281251,0.022553379638672,0.013311761230467,0.0297783637893203,1.55136200000015,
0.0169509477539062,0.0273417829589845,-0.0154186586914093,0.0356741189235844,1.55436700000064,
0.0432871660156249,-0.025330653564453,0.013311761230467,0.051890497576373,1.55735600000116,
0.00976834277343741,-0.00617704028320304,0.0396479794921856,0.0412981673323702,1.56033000000025,
0.00019153613281242,0.012976572998047,0.0276769711914042,0.0305686582498093,1.56336999999985,
0.00258573779296867,0.0297359846191407,0.0204943662109347,0.0362068207330009,1.56632400000126,
0.0217393510742186,-0.0229364519042968,0.00612915624999744,0.0321907869960201,1.56938000000082,
0.00737414111328116,-0.0157538469238281,-0.0202070620117212,0.0266624643497846,1.5723539999999,
-0.0165678754882813,-0.0181480485839843,-0.0130244570312517,0.0278115559895661,1.5753020000011,
-0.00938527050781257,-0.0277248552246093,0.0181001645507788,0.0344146314304778,1.57836500000121,
0.00258573779296867,-0.0277248552246093,0.0516189877929669,0.0586504351043537,1.58136500000001,
0.0408929643554687,0.0153707746582032,0.0396479794921856,0.0589954025766725,1.58441800000037,
-0.0165678754882813,-0.00857124194335929,0.0372537778320297,0.0416629889638876,1.58737800000017,
0.0217393510742186,-0.00378283862304679,0.0157059628906229,0.0270848024452417,1.59032900000057,
0.0337103593749999,-0.0181480485839843,0.00612915624999744,0.0387724973781053,1.5933700000005,
0.00976834277343741,-0.0229364519042968,0.0181001645507788,0.0308077474551898,1.59632899999997,
0.0169509477539062,0.0153707746582032,0.0300711728515601,0.037787177455022,1.59935000000041,
-0.00459686718750008,0.00339976635742195,0.0181001645507788,0.0189817163604834,1.60230000000047,
0.0241335527343749,0.012976572998047,0.0204943662109347,0.0342175227148956,1.60525700000107,
0.0169509477539062,-0.00617704028320304,0.0731668027343719,0.0753582873928705,1.60832699999992,
0.0169509477539062,-0.034907460205078,-0.0106302553710957,0.0402351554859612,1.61129000000074,
