X,Y,Z,Magnitude,Seconds,
-0.0278206232910157,-0.03064578125,0.0110612116699187,0.0428427519229356,0.0,
-0.011061211669922,-0.01149216796875,-0.0152750065917999,0.0220849757665322,0.00375199999962206,
-0.0469742365722657,-0.0330399829101563,-0.00569819995117449,0.057712120520166,0.00748800000019401,
-0.00627280834960947,-0.00430956298828127,-0.0080924016113304,0.0111088893045145,0.0113629999996192,
-0.0350032282714844,0.0124498486328125,-0.0176692082519558,0.0411391011162929,0.0151130000003832,
-0.0158496149902345,-0.0258573779296875,-0.0368228215332049,0.0477046588333217,0.0188349999998536,
0.0200634099121093,-0.0426167895507813,-0.0152750065917999,0.0495182491138008,0.0226140000004307,
-0.00148440502929698,0.0244208569335937,0.00866701000976278,0.0259557079304608,0.0263770000001387,
-0.0182438166503907,-0.01149216796875,-0.0080924016113304,0.0230302786443,0.0300930000003063,
0.0200634099121093,-0.00909796630859377,0.0182438166503882,0.0286033259294547,0.0339080000003378,
-0.020638018310547,-0.0378283862304688,0.0326090266113255,0.0540394598522795,0.0376939999996466,
-0.039791631591797,0.00047884033203123,-0.00569819995117449,0.0402004069069511,0.0414300000002186,
-0.0182438166503907,-0.0258573779296875,-0.00569819995117449,0.032154475925683,0.0451860000002853,
-0.0134554133300782,0.017238251953125,-0.0368228215332049,0.0428266933576353,0.0491750000001048,
0.00809240161132801,-0.040222587890625,0.00627280834960686,0.041505320924539,0.0530539999999746,
-0.0254264216308595,-0.0450109912109375,0.00387860668945095,0.0518414490209599,0.0569329999998445,
-0.0517626398925782,-0.0162805712890625,0.00627280834960686,0.0546239509257421,0.060722999999598,
0.000909796630859272,-0.01149216796875,0.0326090266113255,0.0345867933042313,0.0645809999996345,
-0.0469742365722657,0.00047884033203123,0.00387860668945095,0.0471365227765288,0.0684300000002622,
-0.0350032282714844,-0.0186747729492188,0.00866701000976278,0.0406089915737863,0.072215000000142,
-0.00627280834960947,-0.0354341845703125,-0.0296402165527372,0.0466205104867703,0.0759850000004008,
-0.020638018310547,-0.021068974609375,-0.0296402165527372,0.041813537618457,0.0797659999998359,
-0.0350032282714844,-0.03064578125,-0.000909796630862658,0.0465318990345121,0.0836499999995794,
-0.00627280834960947,0.0196324536132812,0.0541568415527323,0.0579460511720714,0.0874299999995856,
-0.030214824951172,0.0124498486328125,0.0182438166503882,0.0374268783601156,0.0911630000000514,
-0.020638018310547,-0.0378283862304688,0.0685220515136695,0.0809455752232941,0.0949659999996584,
-0.00866701000976572,-0.040222587890625,0.0302148249511696,0.0510481075649064,0.0987290000002758,
-0.0230322199707032,-0.0354341845703125,0.0373974299316373,0.0564325469780831,0.10243999999966,
-0.00387860668945322,-0.01149216796875,0.0948582697753881,0.0956305644616498,0.106216000000131,
-0.030214824951172,-0.0282515795898438,-0.0152750065917999,0.0440955011597643,0.109953000000132,
-0.0421858332519532,-0.0450109912109375,-0.0200634099121118,0.0648704422233587,0.113683999999921,
0.0128808049316406,-0.0354341845703125,-0.0176692082519558,0.0416376931649789,0.117548999999599,
-0.0158496149902345,-0.0186747729492188,0.0278206232910136,0.037066757618438,0.121454000000085,
-0.00387860668945322,0.00526724365234373,0.0302148249511696,0.030914771426851,0.125234000000091,
-0.00148440502929698,-0.00191536132812502,-0.0080924016113304,0.00844742748695376,0.128988999999819,
-0.0445800349121095,0.0148440502929687,0.00387860668945095,0.0471462504523588,0.132872000000134,
0.0224576115722656,-0.00430956298828127,-0.0128808049316422,0.0262456050867138,0.13666000000012,
-0.0613394465332032,-0.040222587890625,-0.000909796630862658,0.0733567447991545,0.140488000000005,
-0.00866701000976572,-0.00909796630859377,0.0493684382324187,0.0509424454357054,0.144239000000198,
-0.00866701000976572,0.0244208569335937,0.0565510432128882,0.0622054322736076,0.148009000000457,
-0.0254264216308595,-0.00430956298828127,0.00627280834960686,0.0265409753907255,0.151762000000417,
-0.0230322199707032,-0.0521935961914063,-0.0487938298339863,0.0750699172108139,0.155609999999797,
-0.011061211669922,0.055545478515625,0.0326090266113255,0.0653528821374751,0.159384999999929,
-0.0828872614746095,-0.0378283862304688,0.00148440502929503,0.0911234787409523,0.163174000000254,
0.0176692082519531,-0.0665588061523438,0.0182438166503882,0.0712398234321867,0.166959000000134,
0.0128808049316406,0.02681505859375,-0.0248518132324236,0.0387630639141501,0.170707999999649,
-0.0517626398925782,-0.0186747729492188,0.0254264216308577,0.0606186518350891,0.174438000000009,
-0.00148440502929698,0.0579396801757812,0.0350032282714814,0.0677084631828862,0.178235000000313,
0.0511880314941405,-0.0330399829101563,0.0757046564941373,0.0971753572354836,0.182007999999769,
-0.030214824951172,-0.00430956298828127,0.0541568415527323,0.0621648732561056,0.185722000000169,
-0.0326090266113282,-0.0330399829101563,0.0733104548339814,0.0867721837641934,0.18968599999971,
-0.0158496149902345,-0.0521935961914063,0.00627280834960686,0.0549065561050877,0.193541999999979,
-0.039791631591797,-0.00191536132812502,0.0326090266113255,0.0514819499464881,0.197314000000006,
0.0272460148925781,-0.0354341845703125,-0.00569819995117449,0.0450599184017584,0.201106999999865,
0.00809240161132801,0.0124498486328125,0.0517626398925763,0.0538503164658064,0.205050999999912,
-0.0565510432128907,-0.0162805712890625,-0.0416112248535185,0.0720733759704272,0.208883999999671,
0.00569819995117177,-0.0545877978515625,0.0206380183105441,0.058636379123825,0.212714999999662,
0.0248518132324218,-0.0234631762695313,0.0230322199707,0.0412142744491879,0.216500000000451,
-0.0421858332519532,-0.0234631762695313,0.0541568415527323,0.0725474234882566,0.220280999999886,
-0.00387860668945322,-0.104866032714844,0.0350032282714814,0.110621672364088,0.224121000000196,
0.0224576115722656,0.00287304199218748,0.0326090266113255,0.0396982027849846,0.228000000000065,
-0.030214824951172,0.0316034619140625,0.00627280834960686,0.0441708340013459,0.231783000000178,
-0.0445800349121095,-0.078529814453125,-0.0080924016113304,0.0906631029396535,0.235536999999567,
-0.0158496149902345,-0.0641646044921875,0.0206380183105441,0.0692404113561139,0.239314999999806,
-0.0637336481933595,0.036391865234375,0.0302148249511696,0.079368012537178,0.243061000000125,
-0.00627280834960947,-0.021068974609375,0.0613394465332,0.0651596310354864,0.246772999999848,
0.00809240161132801,-0.0641646044921875,0.0350032282714814,0.0735378094785486,0.25052500000038,
-0.0278206232910157,-0.03064578125,0.0517626398925763,0.0662761033659342,0.254335999999967,
0.00809240161132801,0.0100556469726562,-0.0128808049316422,0.0182350798069198,0.258168000000296,
0.0200634099121093,0.00047884033203123,0.0110612116699187,0.0229154993175285,0.262204999999994,
-0.0469742365722657,0.0124498486328125,0.00387860668945095,0.0487506022770856,0.26599299999998,
-0.0469742365722657,-0.01149216796875,0.0302148249511696,0.0570226663091,0.26977799999986,
-0.00148440502929698,-0.0186747729492188,-0.0775242497558626,0.0797556261539287,0.273529000000053,
0.0152750065917968,-0.0282515795898438,0.0134554133300764,0.03482134006014,0.27744199999961,
0.00809240161132801,-0.00909796630859377,0.0158496149902323,0.0199867518654215,0.281294999999773,
-0.00387860668945322,0.0148440502929687,0.00387860668945095,0.0158250753174546,0.285093000000415,
-0.00866701000976572,0.00526724365234373,0.0421858332519509,0.0433878490520554,0.288873999999851,
-0.0469742365722657,-0.0354341845703125,0.0445800349121068,0.0738209987095462,0.292647999999645,
-0.0661278498535157,-0.0234631762695313,0.291182805908202,0.29951767831545,0.296409999999923,
-0.104435076416016,-0.619619389648438,-0.767054327880862,0.991568058750927,0.300208999999995,
0.187657526123047,1.2334926953125,2.00782539624023,2.36391251916968,0.30381000000034,
-0.00866701000976572,0.852814631347656,-2.80930834399414,2.93591234272045,0.306730999999672,
0.0727358464355468,-1.88136366455078,2.02458480786133,2.76473568101392,0.309664000000339,
-0.183443731201172,-0.839885942382813,-0.616219623291018,1.05772710226135,0.312648000000081,
-0.262452385986328,0.292571442871094,-0.00569819995117449,0.393079856487551,0.31558700000005,
-0.133165496337891,2.80887738769531,-0.120619879638674,2.81461798187339,0.318600999999944,
0.984926678955078,-0.7584830859375,0.817907171142576,1.48806898199553,0.321552999999767,
0.075130048095703,-3.43520054199219,-1.05914693041992,3.59555830269073,0.324469000000136,
-1.5720806940918,1.75782285888672,0.341461040771481,2.38285009061115,0.327502000000095,
-0.264846587646484,2.05949226806641,0.379768267333981,2.1108946098958,0.33042099999966,
1.62178432055664,-1.68025072509766,-0.362434247314456,2.36321506960771,0.333450000000084,
1.01365709887695,-0.612436784667969,0.140348101318358,1.19259260389361,0.336400999999569,
-2.19936152905273,0.642124885253906,0.00148440502929503,2.29118260014295,0.339305999999851,
-0.786782549560547,0.0483628735351562,0.123588689697263,0.797897181377813,0.342297999999573,
2.06471162768555,0.127371528320312,-0.0440054265136745,2.06910465885349,0.345236000000114,
0.333703827392578,-0.406535441894531,0.370191460693357,0.643172626518821,0.348305999999866,
-1.39969817456055,-0.0857124194335938,-0.372011053955081,1.45082522137508,0.351276999999754,
-0.0373974299316407,0.5439626171875,0.231327764404295,0.59228914496828,0.354309999999714,
0.573123993408203,-0.258094938964844,0.0326090266113255,0.62940246103425,0.357412999999724,
0.125408282958984,-0.373016618652344,-0.12301408129883,0.41231189580625,0.360356000000138,
-0.202597344482422,0.376368500976562,0.147530706298825,0.452177223906406,0.363389000000097,
-0.279211797607422,0.151313544921875,0.0373974299316373,0.319771144047558,0.366323000000193,
0.084706854736328,-0.363439812011719,-0.106254669677737,0.388012632555642,0.369340000000193,
0.168503912841797,-0.119231242675781,0.0278206232910136,0.208287409493007,0.372306999999637,
-0.171472722900391,0.249475812988281,-0.0080924016113304,0.302830914750917,0.375202999999601,
-0.0661278498535157,0.0339976635742187,-0.00569819995117449,0.0745734747577075,0.37822099999994,
0.113437274658203,-0.16472107421875,0.0804930598144509,0.215592625690102,0.381172999999762,
-0.116406084716797,-0.03064578125,-0.0463996281738304,0.129005681898848,0.384138999999777,
-0.0541568415527345,0.06512228515625,-0.0559764348144558,0.101524562375205,0.387087000000065,
0.108648871337891,-0.0138863696289063,0.0302148249511696,0.11362369537776,0.39003700000012,
-0.068522051513672,0.074699091796875,-0.0104866032714863,0.101907775498702,0.393081999999595,
-0.130771294677734,-0.0186747729492188,0.00387860668945095,0.132154917601454,0.396007999999711,
-0.0469742365722657,-0.116837041015625,0.0182438166503882,0.127241148614774,0.399040000000241,
0.0894952580566406,0.0220266552734375,0.0230322199707,0.0950003048097124,0.401996999999938,
-0.0517626398925782,0.172861359863281,0.0469742365722627,0.186459109522647,0.404919999999947,
0.0200634099121093,-0.119231242675781,0.0373974299316373,0.12655906689291,0.407943999999588,
-0.0278206232910157,-0.1455674609375,-0.051188031494144,0.156793135475813,0.410847000000103,
-0.0326090266113282,0.093852705078125,-0.0224576115722677,0.10186276642891,0.413862999999765,
-0.0278206232910157,0.10342951171875,0.078098858154295,0.132555960332549,0.416803000000073,
0.0799184514160155,-0.114442839355469,0.0134554133300764,0.14023255864584,0.419740000000274,
-0.0278206232910157,-0.0952892260742188,-0.000909796630862658,0.0992716042785333,0.422717999999804,
-0.125982891357422,0.122583125,-0.0128808049316422,0.176250465489396,0.4256519999999,
0.036822821533203,0.0387860668945312,-0.0104866032714863,0.0544999818255632,0.428686999999627,
0.046399628173828,-0.0713472094726563,0.0134554133300764,0.0861649461329129,0.431620999999723,
-0.0326090266113282,-0.03064578125,0.0254264216308577,0.051468586943021,0.434529000000111,
-0.0517626398925782,0.036391865234375,-0.0152750065917999,0.0650927382298915,0.437538000000131,
0.0392170231933593,-0.097683427734375,-0.0607648381347676,0.121541731580679,0.440470999999889,
0.0272460148925781,-0.0162805712890625,-0.0320344182128931,0.0450955239382288,0.443484000000353,
-0.0757046564941407,0.0220266552734375,0.0206380183105441,0.0815002843996084,0.446458000000348,
-0.0134554133300782,-0.00191536132812502,-0.0272460148925813,0.0304476942382717,0.449341000000459,
0.0152750065917968,-0.059376201171875,0.00866701000976278,0.0619191097682431,0.45237300000008,
-0.039791631591797,-0.0258573779296875,0.0852814631347627,0.0975956243514118,0.455269000000044,
-0.0254264216308595,0.0316034619140625,0.0565510432128882,0.0695938374453499,0.458298000000468,
-0.0254264216308595,-0.021068974609375,0.0350032282714814,0.0481209995476628,0.461202999999841,
0.0128808049316406,-0.0426167895507813,-0.0128808049316422,0.0463467477067116,0.464226000000053,
-0.00866701000976572,-0.0162805712890625,-0.0320344182128931,0.0369645507783628,0.467134000000442,
0.00809240161132801,-0.04979939453125,0.00148440502929503,0.0504744501486556,0.470099000000118,
-0.00148440502929698,0.0244208569335937,0.0278206232910136,0.0370481955291016,0.473098000000391,
0.0320344182128905,-0.0186747729492188,0.0110612116699187,0.0386949802758703,0.476040000000467,
0.00809240161132801,-0.00191536132812502,-0.0248518132324236,0.0262062624919229,0.479025999999976,
-0.0613394465332032,-0.0162805712890625,0.0182438166503882,0.0660334880834787,0.481969999999819,
-0.0326090266113282,-0.040222587890625,-0.0272460148925813,0.0585111145055717,0.484889999999723,
0.00330399829101552,0.0244208569335937,0.0804930598144509,0.084180920263269,0.488016000000243,
0.036822821533203,0.0507570751953125,-0.034428619873049,0.071536918681277,0.491044999999758,
0.0272460148925781,-0.021068974609375,-0.0799184514160185,0.0870241684553871,0.494149000000107,
-0.106829278076172,-0.1455674609375,0.00387860668945095,0.180602945512852,0.497137000000293,
-0.0541568415527345,-0.0474051928710938,0.0828872614746068,0.109774832784539,0.500079000000369,
0.146956097900391,0.192014973144531,-0.0152750065917999,0.24227911682228,0.503104999999778,
0.0631590397949218,-0.0378283862304688,0.0972524714355441,0.121975793963144,0.506107999999585,
-0.228933562744141,-0.12641384765625,-0.0392170231933626,0.264440942250121,0.509141000000454,
0.0104866032714843,-0.01149216796875,0.0637336481933577,0.0656050050288098,0.5120909999996,
0.0942836613769531,0.0699106884765625,-0.00330399829101857,0.117421589031225,0.515048000000206,
-0.058945244873047,0.00047884033203123,-0.0224576115722677,0.0630802306490544,0.518076999999721,
0.0104866032714843,-0.0713472094726563,-0.00330399829101857,0.0721894005544834,0.521029000000453,
0.0224576115722656,-0.0450109912109375,-0.0272460148925813,0.0572073332261574,0.524100999999973,
-0.0900698664550782,-0.021068974609375,0.0302148249511696,0.0973109355681874,0.527038000000175,
0.000909796630859272,0.00766144531249998,-0.0463996281738304,0.0470366981074954,0.530023000000256,
0.0583706364746093,-0.0258573779296875,0.00866701000976278,0.0644271081017843,0.53305999999975,
-0.0445800349121095,-0.04979939453125,-0.0559764348144558,0.0871821109114767,0.536003999999593,
-0.0565510432128907,-0.021068974609375,0.00627280834960686,0.0606734728208928,0.539020999999593,
-0.058945244873047,0.0292092602539062,0.0134554133300764,0.0671473821202815,0.541981000000305,
0.0176692082519531,-0.01149216796875,-0.0104866032714863,0.023542295832106,0.544906000000083,
0.036822821533203,-0.0138863696289063,0.00148440502929503,0.0393821648138815,0.547935999999936,
-0.0326090266113282,0.00526724365234373,0.0278206232910136,0.0431865668064962,0.550884000000224,
-0.0326090266113282,0.02681505859375,-0.0200634099121118,0.0467433032767901,0.553895000000011,
-0.0278206232910157,-0.0330399829101563,-0.0128808049316422,0.0450726378936383,0.556802000000062,
-0.0158496149902345,-0.0354341845703125,-0.051188031494144,0.0642417800169571,0.559799999999996,
0.00569819995117177,0.02681505859375,0.0565510432128882,0.0628453446051155,0.562762999999904,
-0.0278206232910157,-0.00191536132812502,0.0134554133300764,0.0309629429673776,0.565665000000081,
-0.030214824951172,-0.059376201171875,-0.00330399829101857,0.0667037129186973,0.568677999999636,
-0.0278206232910157,-0.0617704028320313,-0.0080924016113304,0.0682279760081675,0.57162900000003,
-0.0421858332519532,0.0196324536132812,0.0110612116699187,0.0478270652000098,0.574641999999585,
-0.00627280834960947,0.0220266552734375,0.0278206232910136,0.0360348268682711,0.577588000000105,
0.0104866032714843,-0.0162805712890625,-0.0080924016113304,0.0209883971162834,0.580504000000474,
-0.020638018310547,-0.0450109912109375,-0.0296402165527372,0.0577101340049624,0.58354799999961,
-0.0350032282714844,0.00287304199218748,0.0182438166503882,0.0395767255554007,0.586489000000256,
-0.020638018310547,0.00766144531249998,0.0134554133300764,0.0258006529364297,0.58951100000013,
-0.0230322199707032,-0.0474051928710938,-0.0320344182128931,0.061676084653316,0.592445000000225,
-0.039791631591797,-0.00191536132812502,0.0326090266113255,0.0514819499464881,0.595357000000149,
-0.00148440502929698,0.00766144531249998,0.0541568415527323,0.0547162196202842,0.598385999999664,
0.00330399829101552,-0.0378283862304688,-0.0392170231933626,0.0545882598885263,0.601362000000336,
0.000909796630859272,-0.0569819995117188,0.00387860668945095,0.0571210958238241,0.604422000000341,
-0.0158496149902345,0.00287304199218748,-0.00569819995117449,0.0170860805426845,0.607342999999673,
-0.0350032282714844,-0.00670376464843752,-0.0248518132324236,0.043448579618056,0.610244000000421,
0.00809240161132801,-0.00191536132812502,0.0565510432128882,0.0571592167661721,0.613269999999829,
0.046399628173828,0.02681505859375,-0.000909796630862658,0.0535985129641231,0.616222999999991,
-0.0445800349121095,0.0124498486328125,0.0350032282714814,0.0580310626575998,0.619252999999844,
-0.0278206232910157,-0.0354341845703125,-0.0176692082519558,0.0483918323347501,0.622163,
0.000909796630859272,0.0124498486328125,0.0589452448730441,0.0602525381542769,0.625144999999975,
0.0224576115722656,-0.0450109912109375,-0.00330399829101857,0.0504108128483256,0.628257000000303,
-0.020638018310547,-0.0138863696289063,0.00148440502929503,0.0249191195580437,0.631282000000283,
-0.0469742365722657,-0.00430956298828127,0.00866701000976278,0.0479611123432983,0.634379000000081,
-0.0445800349121095,-0.021068974609375,-0.00569819995117449,0.049636183239034,0.637305999999626,
0.00330399829101552,-0.0354341845703125,-0.0559764348144558,0.0663314336902726,0.640217000000121,
-0.0230322199707032,-0.00191536132812502,-0.00330399829101857,0.0233466950659658,0.64321099999961,
0.0152750065917968,-0.0234631762695313,-0.0463996281738304,0.054191991675009,0.646162000000004,
-0.0182438166503907,-0.0354341845703125,0.039791631591795,0.056318666771091,0.649207999999817,
0.00330399829101552,-0.0665588061523438,-0.0176692082519558,0.0689433970832834,0.652159000000211,
-0.0278206232910157,-0.0186747729492188,-0.0128808049316422,0.0358977626140195,0.655154000000039,
0.0128808049316406,-0.0474051928710938,0.0134554133300764,0.0509334427926856,0.658134999999675,
-0.00148440502929698,-0.03064578125,0.00387860668945095,0.0309258945960389,0.661054000000149,
0.0176692082519531,-0.0521935961914063,-0.0176692082519558,0.0578668585970713,0.664106000000174,
-0.00148440502929698,-0.03064578125,-0.0272460148925813,0.0410330683015616,0.667045000000144,
-0.049368438232422,0.036391865234375,-0.0535822331542999,0.0814411828164788,0.670071000000462,
0.0248518132324218,0.00526724365234373,0.0469742365722627,0.0534035146612958,0.673053999999865,
-0.00627280834960947,-0.0665588061523438,-0.0248518132324236,0.0713234563236771,0.675975000000108,
-0.011061211669922,0.0100556469726562,-0.0368228215332049,0.0397414975222596,0.679019999999582,
-0.0421858332519532,-0.0378283862304688,-0.0392170231933626,0.0689101316216408,0.681969999999637,
0.0128808049316406,-0.0354341845703125,0.0158496149902323,0.0408987391882506,0.685019999999895,
-0.0254264216308595,-0.0234631762695313,0.00148440502929503,0.034629857289575,0.687944999999672,
-0.0254264216308595,-0.00909796630859377,0.00387860668945095,0.0272822194433297,0.690873000000465,
-0.030214824951172,-0.0162805712890625,0.00387860668945095,0.0345403566597055,0.693874999999935,
-0.0278206232910157,-0.00670376464843752,-0.0248518132324236,0.0379017171339441,0.696799000000283,
0.000909796630859272,-0.0138863696289063,-0.0559764348144558,0.0576803280670035,0.699813000000177,
-0.0326090266113282,-0.0521935961914063,-0.0272460148925813,0.0673042749567711,0.702758999999787,
-0.0469742365722657,-0.021068974609375,0.00148440502929503,0.0515042139142874,0.70566400000007,
0.00330399829101552,0.0100556469726562,0.0541568415527323,0.0551814817462659,0.70870399999967,
-0.00387860668945322,-0.0330399829101563,-0.0080924016113304,0.0342369832840739,0.711605000000418,
-0.0469742365722657,-0.00670376464843752,0.039791631591795,0.0619265153770658,0.714625999999953,
-0.049368438232422,0.00526724365234373,0.00148440502929503,0.0496708164568755,0.717572000000473,
-0.0421858332519532,-0.0138863696289063,0.0302148249511696,0.05371602587182,0.720481000000291,
-0.0278206232910157,-0.0521935961914063,-0.0104866032714863,0.0600676902491325,0.723511000000144,
-0.00866701000976572,-0.00191536132812502,-0.00330399829101857,0.00947111800336738,0.726416999999856,
-0.0373974299316407,0.0124498486328125,0.00387860668945095,0.0396056825004111,0.729443000000174,
-0.00627280834960947,-0.0138863696289063,-0.0272460148925813,0.0312173783907025,0.732353999999759,
0.0272460148925781,-0.00430956298828127,-0.0152750065917999,0.031531626774654,0.735262000000148,
-0.00627280834960947,-0.0354341845703125,-0.0248518132324236,0.0437326214820604,0.738247000000229,
-0.0278206232910157,-0.0186747729492188,0.0158496149902323,0.0370667576184386,0.741178999999647,
-0.00148440502929698,-0.03064578125,-0.0248518132324236,0.0394839206216039,0.744174000000385,
-0.0158496149902345,0.00047884033203123,0.0541568415527323,0.0564305154182557,0.747126000000208,
-0.0350032282714844,-0.01149216796875,0.039791631591795,0.0542279435234709,0.75010999999995,
-0.0350032282714844,0.00766144531249998,-0.0392170231933626,0.0531215459286608,0.753052000000025,
-0.0278206232910157,-0.00430956298828127,0.00148440502929503,0.0281915390098087,0.755979999999909,
-0.0230322199707032,-0.00430956298828127,0.00387860668945095,0.0237507700881524,0.758988999999929,
-0.00866701000976572,-0.0330399829101563,0.00387860668945095,0.0343773344380313,0.761916999999812,
-0.0326090266113282,-0.0186747729492188,0.00148440502929503,0.0376071697889402,0.764984999999797,
-0.0158496149902345,0.0148440502929687,-0.0224576115722677,0.0312394052755442,0.768020999999862,
0.00569819995117177,0.036391865234375,-0.0272460148925813,0.0458168382305807,0.771058000000266,
0.0152750065917968,0.017238251953125,-0.0152750065917999,0.0276370943327692,0.774156000000403,
-0.00866701000976572,0.00047884033203123,-0.0248518132324236,0.0263241138789556,0.777095999999801,
-0.0373974299316407,0.0100556469726562,0.0445800349121068,0.0590513616633463,0.780125999999655,
-0.00627280834960947,-0.0378283862304688,0.0158496149902323,0.0414915078628271,0.783118000000286,
-0.0158496149902345,-0.03064578125,0.0134554133300764,0.0370327200141269,0.786078000000089,
0.00809240161132801,-0.00191536132812502,0.0733104548339814,0.0737806096533603,0.789103000000068,
-0.0278206232910157,-0.01149216796875,0.00866701000976278,0.0313236981761716,0.792035000000396,
-0.011061211669922,-0.0330399829101563,0.00148440502929503,0.0348739778717776,0.795055999999931,
-0.0254264216308595,-0.00670376464843752,-0.0751300480957049,0.0795987908468138,0.797977000000174,
-0.049368438232422,-0.0378283862304688,-0.0320344182128931,0.0699602276193304,0.800943000000188,
-0.0182438166503907,0.00526724365234373,-0.034428619873049,0.0393180692306875,0.803981000000022,
-0.00866701000976572,-0.01149216796875,-0.0128808049316422,0.0193158515944382,0.806929000000309,
-0.0254264216308595,-0.0234631762695313,0.0158496149902323,0.0380556678162916,0.809959999999592,
-0.020638018310547,-0.01149216796875,0.0589452448730441,0.0635022804122149,0.812901000000238,
0.00330399829101552,0.0483628735351562,-0.0392170231933626,0.0623526972105721,0.815849999999955,
0.0152750065917968,-0.0354341845703125,-0.0847068547363303,0.0930814616444337,0.818868999999722,
-0.0373974299316407,-0.0809240161132813,0.0445800349121068,0.0996726826274845,0.821813999999904,
-0.0541568415527345,-0.01149216796875,0.0373974299316373,0.0668101876743485,0.824827000000369,
-0.030214824951172,-0.0258573779296875,0.0254264216308577,0.0472021456840556,0.827755000000252,
-0.030214824951172,0.06512228515625,0.0326090266113255,0.0788491996620133,0.830684999999903,
0.0128808049316406,-0.0354341845703125,0.0541568415527323,0.0659883327476736,0.833695999999691,
-0.0134554133300782,0.0100556469726562,-0.0128808049316422,0.0211678841552234,0.836648999999852,
-0.0182438166503907,-0.04979939453125,0.039791631591795,0.0663037742997283,0.83968300000015,
0.00569819995117177,0.00287304199218748,0.0852814631347627,0.0855198912965767,0.842647000000397,
-0.00627280834960947,-0.0282515795898438,0.0302148249511696,0.0418382064713824,0.845631999999569,
-0.0445800349121095,-0.021068974609375,0.0182438166503882,0.0525748804071714,0.848565999999664,
-0.049368438232422,-0.00430956298828127,0.0254264216308577,0.055698455486742,0.851480999999694,
-0.0254264216308595,-0.01149216796875,0.0230322199707,0.0361808789051747,0.854479999999967,
-0.011061211669922,0.0292092602539062,0.00866701000976278,0.032413706216608,0.857417999999598,
-0.039791631591797,-0.0162805712890625,0.0421858332519509,0.0602335078954974,0.860407000000123,
0.00330399829101552,0.00287304199218748,0.0278206232910136,0.0281630583441571,0.863381000000118,
-0.0158496149902345,-0.0378283862304688,-0.0655532414550812,0.0773267390066875,0.866313000000446,
-0.00387860668945322,0.00526724365234373,0.0230322199707,0.0239430700271152,0.869362000000365,
-0.0350032282714844,-0.0282515795898438,-0.0080924016113304,0.0457040994067927,0.872263000000203,
-0.011061211669922,-0.0569819995117188,0.0373974299316373,0.0690497388659223,0.87530599999991,
0.00330399829101552,-0.00191536132812502,-0.0176692082519558,0.0180772214119121,0.878240000000005,
-0.00387860668945322,0.0124498486328125,0.039791631591795,0.0418738136019225,0.881183000000419,
-0.011061211669922,-0.0258573779296875,-0.0248518132324236,0.0375308808575655,0.884178000000247,
0.000909796630859272,-0.0234631762695313,-0.00569819995117449,0.0241623230101781,0.887111000000004,
0.00569819995117177,-0.00191536132812502,-0.0440054265136745,0.0444141380007674,0.890140999999858,
-0.0230322199707032,-0.0330399829101563,-0.0823126530761744,0.0916378550814068,0.893057999999655,
-0.020638018310547,-0.0354341845703125,-0.0152750065917999,0.0437588283930109,0.895964999999705,
-0.00866701000976572,-0.00430956298828127,0.0350032282714814,0.0363168746602014,0.898992000000362,
-0.00627280834960947,0.036391865234375,0.0158496149902323,0.0401861453136082,0.901969000000463,
-0.0469742365722657,-0.03064578125,0.00148440502929503,0.0561065617219683,0.90507499999967,
0.00809240161132801,-0.0186747729492188,-0.0272460148925813,0.0340085200511674,0.908102000000326,
-0.00387860668945322,-0.01149216796875,-0.0104866032714863,0.0160337881564833,0.911097999999583,
-0.00627280834960947,-0.0186747729492188,0.0302148249511696,0.0360698061559197,0.914128999999775,
-0.00866701000976572,-0.021068974609375,0.00387860668945095,0.0231097889097093,0.91705600000023,
-0.0230322199707032,-0.040222587890625,0.0493684382324187,0.0677169286582465,0.920089999999618,
-0.011061211669922,0.00766144531249998,0.00866701000976278,0.0160051619920754,0.923055999999633,
-0.0230322199707032,-0.021068974609375,0.0278206232910136,0.0418135376184537,0.926000999999815,
0.00330399829101552,-0.0378283862304688,0.0709162531738254,0.080442639027587,0.92907600000035,
-0.0134554133300782,-0.0186747729492188,0.0134554133300764,0.0266616473697954,0.932028999999602,
-0.0230322199707032,-0.0186747729492188,0.0326090266113255,0.0440746970270003,0.935059999999794,
-0.00866701000976572,-0.0162805712890625,-0.0631590397949235,0.0657969480433885,0.937995000000228,
0.0440054265136718,-0.021068974609375,0.0182438166503882,0.0520885409635712,0.941028000000188,
-0.0278206232910157,-0.0450109912109375,0.0326090266113255,0.0621556516065099,0.944023000000016,
-0.00387860668945322,-0.0186747729492188,-0.0128808049316422,0.0230153398898075,0.946954000000005,
-0.0134554133300782,-0.0162805712890625,-0.0080924016113304,0.0226184020925563,0.949971000000005,
-0.0445800349121095,-0.00909796630859377,-0.0152750065917999,0.0479945656308789,0.95288999999957,
-0.0230322199707032,-0.00430956298828127,0.0326090266113255,0.0401547519786508,0.955917000000227,
-0.0230322199707032,-0.00191536132812502,0.039791631591795,0.0460165808218437,0.958859000000302,
-0.0134554133300782,0.0100556469726562,0.0541568415527323,0.0567020958244903,0.961798000000272,
-0.0326090266113282,-0.03064578125,0.0182438166503882,0.048325452620065,0.964813999999933,
-0.00387860668945322,-0.00670376464843752,0.0254264216308577,0.0265798225589123,0.967740000000049,
-0.0230322199707032,0.0124498486328125,0.0230322199707,0.034870690336406,0.970765000000029,
0.0176692082519531,-0.0138863696289063,0.0541568415527323,0.0586344239222084,0.97371800000019,
-0.0158496149902345,0.0220266552734375,-0.0224576115722677,0.0352239713179018,0.976642999999967,
-0.0182438166503907,-0.0186747729492188,0.0373974299316373,0.04560868071069,0.979651999999987,
-0.0350032282714844,0.00287304199218748,-0.00330399829101857,0.0352760083402526,0.982589999999618,
-0.0326090266113282,-0.021068974609375,0.0206380183105441,0.0439679213451711,0.985612000000401,
0.0200634099121093,0.0148440502929687,-0.0487938298339863,0.0548062412163936,0.988565999999992,
0.0104866032714843,-0.00191536132812502,0.0517626398925763,0.0528489200063664,0.991501999999855,
0.0272460148925781,-0.0354341845703125,-0.0176692082519558,0.0480637876570349,0.994518000000426,
-0.0350032282714844,0.0196324536132812,0.00148440502929503,0.040160461683032,0.997489000000314,
0.0152750065917968,-0.040222587890625,-0.0296402165527372,0.0522467687067023,1.0005570000003,
-0.00627280834960947,0.0100556469726562,-0.0392170231933626,0.0409687572276529,1.00350600000002,
-0.0565510432128907,0.00766144531249998,0.0517626398925763,0.0770460195038731,1.00645299999996,
-0.0158496149902345,-0.0162805712890625,0.00148440502929503,0.0227699529013107,1.00946999999996,
-0.0134554133300782,-0.0545877978515625,0.0445800349121068,0.0717513437848447,1.01242999999977,
