X,Y,Z,Magnitude,Seconds,
0.131441671142578,0.232716401367187,0.00258573779296967,0.267283599231194,0.0,
0.133835872802734,0.220745393066406,0.000191536132813752,0.258148418734266,0.00379799999973329,
0.164960494384765,0.196803376464844,0.0073741411132815,0.256900587100901,0.00756699999965349,
0.145806881103515,0.175255561523438,-0.0237504804687489,0.229212224247588,0.0114349999994374,
0.162566292724609,0.187226569824219,0.0576523759765628,0.254569017034889,0.0152589999997872,
0.148201082763672,0.220745393066406,0.0265277543945324,0.267199946193077,0.0190309999998135,
0.167354696044922,0.208774384765625,0.0384987626953137,0.270326640847001,0.0227679999998145,
0.145806881103515,0.194409174804688,0.052863972656251,0.248694940500154,0.0265069999995831,
0.138624276123047,0.182438166503906,-0.0692403120117184,0.239362894650415,0.0302489999994577,
0.148201082763672,0.170467158203125,0.0456813676757815,0.230454768470743,0.0341149999994741,
0.157777889404297,0.177649763183594,-0.00459686718749985,0.237643497558845,0.0378860000000714,
0.160172091064453,0.192014973144531,0.0265277543945324,0.251452918895111,0.0416569999997591,
0.184114107666015,0.184832368164063,0.0121625444335951,0.26116840630116,0.0454079999999522,
0.141018477783203,0.199197578125,0.00258573779296967,0.244074931623654,0.0491780000002109,
0.141018477783203,0.201591779785156,0.0839885942382814,0.259960652244453,0.0531789999995453,
0.145806881103515,0.232716401367187,0.0241335527343765,0.275679158461447,0.0570909999996729,
0.162566292724609,0.194409174804688,-0.0333272871093744,0.255604058740337,0.0608839999995325,
0.152989486083984,0.177649763183594,0.0265277543945324,0.235942668808855,0.0647060000001147,
0.157777889404297,0.194409174804688,0.0265277543945324,0.251778695259012,0.0685080000002927,
0.119470662841797,0.225533796386719,0.00497993945312558,0.255271487615482,0.0723550000002433,
0.138624276123047,0.1608903515625,-0.00220266552734216,0.212384667271366,0.0761469999997644,
0.109893856201172,0.235110603027344,0.00497993945312558,0.259573602439851,0.0799660000002405,
0.131441671142578,0.263841022949219,0.0552581743164069,0.299904091556661,0.0838839999996708,
0.148201082763672,0.175255561523438,0.103142207519532,0.251627478128328,0.0877089999994496,
0.176931502685547,0.163284553222656,0.136661030761719,0.276844431572216,0.0914860000002591,
0.150595284423828,0.242293208007813,0.0169509477539069,0.285783612138916,0.0952559999996083,
0.131441671142578,0.192014973144531,-0.0572693037109371,0.239638135470931,0.098985999999968,
0.105105452880859,0.285388837890625,-0.143460563476562,0.336266082575785,0.102734000000055,
0.200873519287109,0.156101948242188,0.0839885942382814,0.267903103673544,0.10656999999992,
0.126653267822265,0.132159931640625,0.0265277543945324,0.184962211098726,0.110305999999582,
0.121864864501953,0.110612116699219,0.00497993945312558,0.164653834931707,0.114015000000109,
0.141018477783203,0.299754047851563,-0.0165678754882812,0.331682370315161,0.117725000000064,
0.152989486083984,0.251870014648437,0.0456813676757815,0.298213136001712,0.121565999999802,
0.145806881103515,0.170467158203125,0.0121625444335951,0.224647782295048,0.125559000000067,
0.164960494384765,0.122583125,0.014556746093751,0.206035157435011,0.129315000000133,
0.121864864501953,0.25665841796875,-0.0381156904296862,0.286665998282378,0.133205999999518,
0.145806881103515,0.27581203125,0.0600465776367187,0.317706648726885,0.137055000000146,
0.124259066162109,0.196803376464844,0.0672291826171882,0.242263590964094,0.140865000000304,
0.121864864501953,0.153707746582031,-0.0165678754882812,0.196854288898161,0.144688000000315,
0.141018477783203,0.232716401367187,-0.0165678754882812,0.272612598828045,0.148481999999603,
0.141018477783203,0.285388837890625,-0.0644519086914048,0.324787697431443,0.152258000000074,
0.167354696044922,0.211168586425781,-0.0381156904296862,0.272126022346784,0.156140999999479,
0.160172091064453,0.127371528320313,0.0193451494140628,0.205554955640734,0.159945000000334,
0.133835872802734,0.170467158203125,0.0361045610351578,0.219714888440134,0.163692000000083,
0.114682259521484,0.225533796386719,-0.00699106884765577,0.253113391595924,0.167417999999998,
0.176931502685547,0.25665841796875,0.00258573779296967,0.311745066034286,0.17116199999964,
0.152989486083984,0.168072956542969,-0.021356278808593,0.228277007641783,0.174872999999934,
0.124259066162109,0.172861359863281,0.0265277543945324,0.21453458231828,0.178691999999501,
0.0907402429199217,0.203985981445313,0.0504697709960951,0.228891393669076,0.182442999999694,
0.188902510986328,0.263841022949219,0.0480755693359374,0.328035827943846,0.18615200000022,
0.167354696044922,0.187226569824219,0.0696233842773442,0.260593166400545,0.189886999999544,
0.0524330163574217,0.163284553222656,0.0720175859375001,0.186004298901196,0.193796999999904,
0.141018477783203,0.18004396484375,0.00976834277343741,0.22890491666517,0.19766299999992,
0.222421334228516,0.223139594726563,0.0241335527343765,0.315982526450927,0.201454999999441,
0.196085115966797,0.203985981445313,0.0217393510742188,0.283782051432164,0.205197000000226,
0.0787692346191404,0.177649763183594,-0.021356278808593,0.195499670910778,0.208942999999636,
0.105105452880859,0.18004396484375,0.0241335527343765,0.209869992780128,0.212733999999728,
0.246363350830078,0.187226569824219,0.00976834277343741,0.309586998436476,0.216542999999547,
0.138624276123047,0.177649763183594,0.0600465776367187,0.233198884593619,0.220290999999634,
0.0811634362792967,0.206380183105469,0.0720175859375001,0.233166927439497,0.224121000000196,
0.0787692346191404,0.194409174804688,-0.0285388837890626,0.21169314457169,0.227906999999504,
0.222421334228516,0.194409174804688,0.0792001909179696,0.305841212739021,0.231681000000208,
0.131441671142578,0.232716401367187,0.0408929643554696,0.270381343498077,0.235418999999638,
0.131441671142578,0.213562788085938,-0.0859997236328116,0.265107393017835,0.239168000000063,
0.0715866296386717,0.18004396484375,0.0361045610351578,0.197088848358357,0.242917999999918,
0.160172091064453,0.18004396484375,-0.0141736738281235,0.241395569682633,0.246634999999515,
0.152989486083984,0.189620771484375,-0.0237504804687489,0.24479768208271,0.250474999999824,
0.105105452880859,0.206380183105469,-0.0117794721679676,0.231902333253664,0.254213999999592,
0.0955286462402342,0.165678754882813,0.0217393510742188,0.192477976550926,0.257934000000205,
0.224815535888672,0.201591779785156,-0.1578257734375,0.340720186685501,0.261704999999893,
0.0859518395996092,0.196803376464844,-0.00220266552734216,0.214765312501682,0.265691999999945,
0.0644040246582029,0.230322199707031,0.0241335527343765,0.240371842023235,0.269557999999961,
0.229603939208984,0.194409174804688,0.0073741411132815,0.300943971705168,0.273438000000169,
0.272699569091797,0.165678754882813,0.00497993945312558,0.319122710879886,0.277256000000307,
0.0979228479003904,0.18004396484375,0.0217393510742188,0.206100249399919,0.281114999999772,
0.0524330163574217,0.1608903515625,0.0552581743164069,0.178012337378691,0.284983999999895,
0.231998140869141,0.168072956542969,0.1103248125,0.306990586730265,0.288786999999502,
0.13623007446289,0.244687409667969,-0.00938527050781168,0.28021178587042,0.292618999999831,
0.162566292724609,0.213562788085938,0.000191536132813752,0.268396908833452,0.296534999999494,
0.212844527587891,-0.322738383789063,0.90280556201172,0.982100168055268,0.300396999999975,
3.22714441772461,-3.73926415283203,-8.76737494335937,10.0629727662829,0.304054999999607,
-0.663433280029297,1.86316773193359,8.13808297900391,8.37495864392906,0.306998000000021,
0.492966121826172,-1.57730005371094,9.39204609851075,9.53632114461629,0.309924999999566,
1.29502367797852,-0.633984599609375,-11.9516631513672,12.0383252524101,0.31293099999948,
-0.665827481689453,2.56945722167969,-10.9484926557617,11.2656525813058,0.315819999999803,
-2.44471931518555,2.48326596191406,1.71204572314453,3.88257168971543,0.318766999999752,
-1.35535755981445,3.42179301269531,9.39204609851075,10.0874273951899,0.321672999999464,
-0.560482608642578,1.37475059326172,0.512550691406251,1.57060120957717,0.324595999999474,
0.761116707763672,-1.35703350097656,-5.47295345898438,5.68982057096872,0.327623000000131,
0.622253011474609,-1.93882450439453,-1.13466005078125,2.33102824950039,0.330592999999681,
1.23516863647461,-1.18225677978516,3.24912318896484,3.67153566657708,0.333638999999494,
1.10109334350586,-1.06733510009766,0.282707332031251,1.55933774487685,0.336604999999508,
-0.0385466467285158,0.366791694335938,-2.13064794140625,2.16233268514041,0.339503999999579,
-0.464714542236328,1.35320277832031,-0.849750053222655,1.66408909556299,0.342504999999619,
-0.179804544677735,1.21912748535156,1.55402841357422,1.98333199692396,0.345432999999502,
-0.273178409423828,0.797747993164063,0.237217500488281,0.875956874800655,0.348434999999881,
-0.0720654699707033,0.122583125,-0.488225602539062,0.508511842016972,0.351349999999911,
0.574368978271484,-0.538216533203125,-0.239228629882811,0.822682865489142,0.354287000000113,
0.490571920166015,-0.425689055175781,0.0815943925781255,0.654621742269545,0.357363999999507,
0.145806881103515,0.25665841796875,0.105536409179688,0.313482254288658,0.360381999999845,
0.119470662841797,0.536780012207031,-0.0476924970703116,0.551978799467553,0.363478999999643,
-0.0936132849121096,0.668461103515625,-0.0883939252929675,0.68074751564296,0.366492000000108,
-0.0624886633300783,0.498472785644531,0.105536409179688,0.513339930977068,0.369482999999491,
0.370861837158203,-0.121625444335938,0.0744117875976578,0.397326522024079,0.372443000000203,
0.208056124267578,-0.0569819995117188,-0.193738798339844,0.289946583176567,0.375385000000279,
0.119470662841797,0.0244208569335937,0.00976834277343741,0.122331672324745,0.378442000000177,
0.129047469482422,0.266235224609375,0.0432871660156255,0.299012078258196,0.38138600000002,
0.0644040246582029,0.450588752441406,-0.00699106884765577,0.455221898926787,0.384379000000081,
0.131441671142578,0.381156904296875,0.0576523759765628,0.407285274791115,0.387321999999585,
0.301429989013672,0.1608903515625,0.1486320390625,0.372608677486936,0.390249999999469,
0.129047469482422,0.110612116699219,0.00976834277343741,0.170246028620457,0.393253000000186,
0.0763750329589842,0.0890643017578125,-0.00220266552734216,0.117347548941245,0.39620399999967,
0.109893856201172,0.232716401367187,0.0672291826171882,0.265995011403284,0.39924499999961,
0.131441671142578,0.354820686035156,0.0337103593750001,0.37988290364322,0.402197000000342,
0.208056124267578,0.225533796386719,0.0384987626953137,0.309249088740649,0.405111999999463,
0.200873519287109,0.144130939941406,-0.0381156904296862,0.250153361872499,0.408097999999882,
0.0811634362792967,0.168072956542969,-0.0405098920898439,0.19098972084091,0.411062999999558,
0.0284909997558592,0.165678754882813,0.0552581743164069,0.176959466306242,0.414071000000149,
0.109893856201172,0.290177241210938,-0.00699106884765577,0.31036811368307,0.416999999999462,
0.13623007446289,0.290177241210938,-0.00459686718749985,0.320597248417535,0.419912000000295,
0.208056124267578,0.225533796386719,-0.0189620771484371,0.307428698282439,0.422918999999638,
0.176931502685547,0.120188923339844,0.0193451494140628,0.214765846311765,0.425844000000325,
0.105105452880859,0.146525141601563,0.0384987626953137,0.184387982460134,0.428852000000006,
0.0787692346191404,0.230322199707031,-0.0189620771484371,0.244156647196332,0.431775999999445,
0.0859518395996092,0.25665841796875,0.00976834277343741,0.270844388469316,0.434691999999814,
0.203267720947266,0.227927998046875,-0.0165678754882812,0.305848709611381,0.437697000000298,
0.198479317626953,0.1608903515625,0.0432871660156255,0.259139968922646,0.44064999999955,
0.026096798095703,0.110612116699219,-0.174585185058593,0.208317234220965,0.443655000000035,
0.150595284423828,0.196803376464844,-0.176979386718749,0.304519641405938,0.446606999999858,
0.0787692346191404,0.211168586425781,0.186939265625,0.292819147679864,0.449532999999974,
0.100317049560547,0.306936652832031,0.0600465776367187,0.328449708129185,0.452534999999443,
0.191296712646484,0.225533796386719,0.052863972656251,0.300423909146656,0.45547600000009,
0.167354696044922,0.187226569824219,0.0504697709960951,0.256141719602312,0.458478999999897,
0.107499654541016,0.230322199707031,-0.105153336914062,0.275066747660428,0.461416000000099,
0.121864864501953,0.172861359863281,0.0289219560546883,0.213467970608922,0.464425000000119,
0.117076461181641,0.220745393066406,0.0672291826171882,0.258757008249504,0.467353000000003,
0.208056124267578,0.184832368164063,0.0408929643554696,0.281287379205252,0.470268999999462,
0.131441671142578,0.215956989746094,-0.105153336914062,0.273809347168994,0.473259999999755,
0.138624276123047,0.213562788085938,0.0648349809570323,0.262734331866577,0.476219000000128,
0.0883460412597654,0.156101948242188,0.0361045610351578,0.1829655174584,0.479209000000083,
0.0931344445800779,0.203985981445313,-0.109941740234374,0.249742851027231,0.48214199999984,
0.105105452880859,0.220745393066406,0.0073741411132815,0.244601845337461,0.485063000000082,
0.181719906005859,0.184832368164063,-0.0309330854492185,0.26104019678073,0.488056000000142,
0.167354696044922,0.18004396484375,0.0672291826171882,0.254839531000041,0.490995000000112,
0.0859518395996092,0.189620771484375,-0.0309330854492185,0.21047710441826,0.493991999999707,
0.0811634362792967,0.199197578125,-0.0141736738281235,0.215564541493528,0.497018999999455,
0.141018477783203,0.225533796386719,-0.0165678754882812,0.266507408690815,0.500035000000025,
0.188902510986328,0.225533796386719,0.0648349809570323,0.301252762186912,0.503136000000268,
0.17453730102539,0.211168586425781,0.0504697709960951,0.278572502459752,0.506124999999884,
0.126653267822265,0.211168586425781,-0.0883939252929675,0.261623217952497,0.509113999999499,
0.0955286462402342,0.184832368164063,0.0313161577148442,0.2104030140175,0.512063000000126,
0.0739808312988279,0.206380183105469,0.153420442382814,0.267588818001146,0.514970000000176,
0.15538368774414,0.254264216308594,0.0384987626953137,0.30046054123805,0.517992000000049,
0.203267720947266,0.247081611328125,0.0720175859375001,0.327953688376672,0.52092999999968,
0.167354696044922,0.239899006347656,0.0456813676757815,0.296050527592185,0.523919999999634,
0.0715866296386717,0.199197578125,0.0672291826171882,0.222090260185504,0.526866999999584,
0.102711251220703,0.18004396484375,-0.0644519086914048,0.217070216607311,0.529773999999634,
0.148201082763672,0.211168586425781,0.0193451494140628,0.258708267419578,0.532799999999952,
0.148201082763672,0.211168586425781,0.0408929643554696,0.261204837932158,0.535738999999921,
0.121864864501953,0.203985981445313,-0.0572693037109371,0.244419923438787,0.538760999999795,
0.112288057861328,0.211168586425781,0.0552581743164069,0.245467402438927,0.541720000000169,
0.121864864501953,0.18004396484375,0.0337103593750001,0.220007415343048,0.544635000000198,
0.148201082763672,0.199197578125,-0.0452982954101557,0.252379023752482,0.547630999999456,
0.143412679443359,0.189620771484375,0.0121625444335951,0.238057054275971,0.550583000000188,
0.172143099365234,0.2375048046875,0.0361045610351578,0.295542413599568,0.553590999999869,
0.131441671142578,0.249475812988281,0.0121625444335951,0.282246384681924,0.5565289999995,
0.107499654541016,0.196803376464844,0.0600465776367187,0.23214938337261,0.559532000000218,
0.133835872802734,0.189620771484375,0.00497993945312558,0.232148395695848,0.562458999999762,
0.164960494384765,0.177649763183594,0.00976834277343741,0.242624861849301,0.56538399999954,
0.176931502685547,0.225533796386719,-0.0381156904296862,0.289176513244252,0.568389999999454,
0.129047469482422,0.220745393066406,-0.0381156904296862,0.25852385537275,0.571332999999868,
0.114682259521484,0.230322199707031,-0.00699106884765577,0.257389221550692,0.574321000000054,
0.112288057861328,0.230322199707031,0.0839885942382814,0.269649786905677,0.577266999999665,
0.105105452880859,0.175255561523438,0.0073741411132815,0.204489721079923,0.58017800000016,
0.179325704345703,0.211168586425781,0.141449434082032,0.311059194582434,0.583190999999715,
-0.158256729736328,0.326090266113281,-0.476254594238281,0.598496861055877,0.586099000000104,
0.789847127685547,-0.576523759765625,-2.96622432080078,3.12325548938883,0.589124000000083,
-0.38091748413086,0.548751020507813,2.91393495654297,2.98952215967503,0.592083999999886,
0.567186373291016,0.017238251953125,4.11103578662109,4.15001358771953,0.595027999999729,
1.10827594848633,-1.28760165283203,-1.45787727490234,2.23866025627957,0.598046999999497,
-0.414436307373047,0.950976899414063,-4.87919144726563,4.98824855988133,0.600972000000183,
-0.852575211181641,1.82007210205078,1.35530967578125,2.42413103289638,0.603970999999547,
0.119470662841797,0.974918916015625,3.34728545703125,3.48841798856414,0.606909999999516,
-0.134314713134766,0.452982954101563,-0.0572693037109371,0.475934629984611,0.609797000000071,
-0.122343704833985,-0.0857124194335938,-2.20726239453125,2.21231143360728,0.612804000000324,
0.809000740966797,-0.9883264453125,0.244400105468751,1.300385624706,0.615764999999556,
0.605493599853516,-0.368228215332031,1.27630102099609,1.45984890116267,0.618795000000318,
0.026096798095703,0.335667072753906,-0.497802409179688,0.600966442646447,0.621724999999969,
0.210450325927734,0.500866987304688,-0.526532829101562,0.756567180610194,0.624639999999999,
-0.182198746337891,0.761834968261719,0.622683967773439,1.00066189382603,0.627656999999999,
-0.11276689819336,0.419464130859375,0.0217393510742188,0.434901287410017,0.630589000000327,
0.296641585693359,-0.150355864257813,-0.327814091308593,0.466974511873895,0.63365900000008,
0.265516964111328,-0.0569819995117188,0.0720175859375001,0.280949709349405,0.636731999999938,
0.212844527587891,0.0579396801757812,0.167785652343751,0.277149462556582,0.639742999999726,
0.205661922607422,0.232716401367187,-0.0500866987304676,0.314582941790542,0.642826000000241,
-0.00981622680664085,0.417069929199219,-0.0620577070312489,0.421775820967652,0.645751999999447,
0.0500388146972655,0.359609089355469,0.0983538041992187,0.37615960830987,0.648771000000124,
0.313400997314453,0.0387860668945312,-0.0548751020507812,0.320524290698731,0.651686000000154,
0.0907402429199217,0.0962469067382813,-0.181767790039062,0.22480388839506,0.654708999999457,
0.212844527587891,0.132159931640625,-0.0668461103515625,0.259301837487705,0.657645999999659,
0.208056124267578,0.187226569824219,0.1103248125,0.300853292397722,0.660593999999946,
-0.00502782348632835,0.383551105957031,-0.0452982954101557,0.386249486028056,0.663574999999582,
0.102711251220703,0.235110603027344,0.0552581743164069,0.262450114520809,0.666537000000062,
0.17453730102539,0.232716401367187,0.0361045610351578,0.293127501681543,0.669541999999637,
0.126653267822265,0.172861359863281,0.0432871660156255,0.218622685752201,0.672480999999607,
0.208056124267578,0.136948334960938,-0.0333272871093744,0.251302418133789,0.67540899999949,
0.0907402429199217,0.220745393066406,0.0073741411132815,0.238781695702094,0.678463999999622,
0.0476446130371092,0.247081611328125,0.0480755693359374,0.256184683724326,0.681394999999611,
0.141018477783203,0.199197578125,0.0169509477539069,0.244649179105332,0.684411000000182,
0.102711251220703,0.249475812988281,0.00497993945312558,0.269838066607443,0.687350000000151,
0.102711251220703,0.163284553222656,0.000191536132813752,0.192902781562462,0.69026599999961,
0.191296712646484,0.156101948242188,-0.00459686718749985,0.246948135652605,0.693255999999565,
0.119470662841797,0.259052619628906,0.0073741411132815,0.285369719791038,0.696190999999999,
0.119470662841797,0.215956989746094,0.0241335527343765,0.247978001176789,0.699209000000337,
0.126653267822265,0.194409174804688,-0.0548751020507812,0.238426622513891,0.702132999999776,
0.105105452880859,0.203985981445313,0.0720175859375001,0.240507732798268,0.705063999999766,
0.179325704345703,0.189620771484375,-0.0189620771484371,0.261674044542433,0.708059999999932,
0.133835872802734,0.196803376464844,-0.0452982954101557,0.242271635574407,0.710989000000154,
0.152989486083984,0.184832368164063,0.0217393510742188,0.240917800418535,0.71400900000026,
0.169748897705078,0.232716401367187,0.00258573779296967,0.288059538598042,0.716937999999573,
0.13623007446289,0.247081611328125,0.000191536132813752,0.282148883624865,0.719858999999815,
0.0979228479003904,0.206380183105469,-0.0117794721679676,0.228736573560342,0.722859999999855,
0.148201082763672,0.184832368164063,0.0169509477539069,0.237516104471288,0.725805999999466,
0.181719906005859,0.225533796386719,-0.0189620771484371,0.290253644113502,0.728798000000097,
0.126653267822265,0.242293208007813,0.0480755693359374,0.277593784627376,0.731764000000112,
0.0620098229980467,0.278206232910156,-0.210498209960937,0.354335183936154,0.734671999999591,
0.0021547814941405,0.594240852050781,-0.569628458984374,0.823166699165023,0.73767399999997,
0.0835576379394529,0.206380183105469,0.172574055664063,0.281702792895297,0.740619999999581,
0.15538368774414,-0.250912333984375,0.766336067382813,0.821201593967164,0.743650999999772,
0.631829818115234,-0.305978972167969,0.153420442382814,0.718588813306633,0.746613000000252,
0.514513936767578,-0.341891997070313,0.0600465776367187,0.620661196043929,0.749638999999661,
-0.213323367919922,0.948582697753906,-0.540898039062499,1.11260356032166,0.752553999999691,
-0.103190091552735,0.816901606445313,0.517339094726564,0.972427976016782,0.755474999999933,
-0.163045133056641,0.48650177734375,0.0792001909179696,0.519172769907598,0.758469999999761,
-0.000239420166015747,0.122583125,-0.301477873046874,0.325446751087868,0.761394000000109,
0.528879146728515,-0.377805021972656,0.0169509477539069,0.650182375262355,0.764406000000236,
0.322977803955078,-0.0928950244140625,0.0552581743164069,0.340584223412237,0.767369000000144,
0.129047469482422,0.347638081054688,-0.00220266552734216,0.370823861846332,0.770274999999856,
0.133835872802734,0.4290409375,0.0121625444335951,0.449595478610326,0.773377999999866,
-0.127132108154297,0.491290180664063,0.0768059892578137,0.51325215491662,0.776385000000118,
0.0955286462402342,0.163284553222656,-0.0572693037109371,0.197654599544634,0.779489999999896,
0.263122762451172,-0.03064578125,-0.109941740234374,0.286809934057594,0.782500000000255,
0.152989486083984,0.0818816967773438,0.0337103593750001,0.176767597281205,0.785423000000264,
0.169748897705078,0.194409174804688,0.0672291826171882,0.266700915850891,0.788430999999946,
0.131441671142578,0.318907661132813,-0.0548751020507812,0.349271078200068,0.791361999999936,
0.0308852014160155,0.359609089355469,0.0768059892578137,0.36901456990131,0.794426999999814,
0.176931502685547,0.230322199707031,0.153420442382814,0.328467508988925,0.797362999999677,
0.198479317626953,0.0531512768554687,-0.109941740234374,0.233037087183114,0.800261000000319,
0.119470662841797,0.110612116699219,0.0265277543945324,0.164960605581322,0.803286999999727,
0.138624276123047,0.223139594726563,0.0337103593750001,0.264847799678542,0.806214999999611,
0.148201082763672,0.304542451171875,-0.00459686718749985,0.3387193479653,0.809252000000015,
0.152989486083984,0.311725056152344,0.0456813676757815,0.350235750371308,0.812197999999626,
0.100317049560547,0.242293208007813,-0.021356278808593,0.263107582034043,0.815147000000252,
0.0859518395996092,0.170467158203125,-0.0907881269531234,0.21139833195194,0.818159999999807,
0.0667982263183592,0.196803376464844,-0.129095353515625,0.244661362553563,0.821106999999756,
0.186508309326172,0.0962469067382813,0.122295820800781,0.242909621649146,0.824114000000009,
0.196085115966797,0.105823713378906,0.0408929643554696,0.226539765937,0.827054999999746,
0.234392342529297,0.0603338818359375,-0.00699106884765577,0.242133893904585,0.829958000000261,
0.265516964111328,0.175255561523438,0.151026240722658,0.352168561150211,0.832965999999942,
0.102711251220703,0.302148249511719,-0.0189620771484371,0.319691611056814,0.835885999999846,
0.0308852014160155,0.373974299316406,-0.0740287153320303,0.382479964062715,0.838901999999507,
0.035673604736328,0.29496564453125,0.014556746093751,0.297471404315537,0.841830999999729,
0.112288057861328,0.148919343261719,0.0720175859375001,0.19993026639315,0.844844000000194,
0.241574947509765,0.06512228515625,-0.0907881269531234,0.266161325672935,0.847751000000244,
0.179325704345703,0.115400520019531,0.0169509477539069,0.213921300691671,0.850693000000319,
0.0907402429199217,0.242293208007813,0.0073741411132815,0.258832316933265,0.85369399999945,
0.0500388146972655,0.27581203125,-0.00459686718749985,0.28035208354228,0.856627000000117,
0.0907402429199217,0.208774384765625,0.0265277543945324,0.229181712125222,0.859634999999798,
0.179325704345703,0.134554133300781,0.0289219560546883,0.226050884911863,0.862567999999555,
0.162566292724609,0.18004396484375,-0.0429040937499998,0.246342018477136,0.865477999999712,
0.129047469482422,0.199197578125,-0.00699106884765577,0.237448519798113,0.868508999999904,
0.0979228479003904,0.235110603027344,0.000191536132813752,0.254687880518281,0.871460999999726,
0.133835872802734,0.247081611328125,0.0384987626953137,0.28362566568356,0.874463999999534,
0.0835576379394529,0.203985981445313,-0.0165678754882812,0.221058033064676,0.87738999999965,
0.157777889404297,0.134554133300781,0.0672291826171882,0.217987247720077,0.880306999999448,
0.17453730102539,0.163284553222656,0.0241335527343765,0.240223943723212,0.883315000000039,
0.143412679443359,0.223139594726563,0.0504697709960951,0.270010505618312,0.886255999999776,
0.0907402429199217,0.254264216308594,0.0672291826171882,0.278215467534724,0.889239000000089,
0.100317049560547,0.285388837890625,0.0648349809570323,0.309376589257806,0.892189999999573,
0.133835872802734,0.225533796386719,0.0193451494140628,0.262967239342333,0.895104999999603,
0.121864864501953,0.177649763183594,-0.0165678754882812,0.216067068424278,0.898102999999537,
0.13623007446289,0.177649763183594,0.014556746093751,0.224343420683981,0.90103900000031,
0.145806881103515,0.175255561523438,0.000191536132813752,0.227978497030137,0.904039000000012,
0.114682259521484,0.213562788085938,0.0648349809570323,0.250927598840165,0.906965999999557,
0.129047469482422,0.215956989746094,-0.0381156904296862,0.254447394675093,0.909907000000203,
0.138624276123047,0.182438166503906,0.0193451494140628,0.229944796274667,0.913004000000001,
0.126653267822265,0.175255561523438,0.0384987626953137,0.219630864916623,0.916030999999748,
0.129047469482422,0.206380183105469,-0.021356278808593,0.244340172716264,0.919117999999798,
0.169748897705078,0.187226569824219,-0.0357214887695303,0.255234209071088,0.922075999999834,
0.129047469482422,0.206380183105469,0.0217393510742188,0.244373952670066,0.924995999999737,
0.126653267822265,0.21835119140625,-0.00459686718749985,0.252466679438153,0.927988999999798,
0.13623007446289,0.192014973144531,0.0432871660156255,0.23937869964039,0.930951999999706,
0.121864864501953,0.239899006347656,0.00976834277343741,0.269254524506482,0.93397399999958,
0.162566292724609,0.177649763183594,-0.0261446821289049,0.242220524095362,0.936893999999484,
0.148201082763672,0.232716401367187,-0.059663505371093,0.28227684685568,0.939905000000181,
0.129047469482422,0.199197578125,0.0384987626953137,0.240447664242662,0.942849999999453,
0.188902510986328,0.21835119140625,0.000191536132813752,0.288723809429633,0.94578300000012,
0.191296712646484,0.203985981445313,0.0289219560546883,0.281142654959343,0.94878400000016,
0.152989486083984,0.189620771484375,0.00976834277343741,0.243838553865279,0.951742999999624,
0.129047469482422,0.227927998046875,-0.0237504804687489,0.262999062728309,0.954749999999876,
0.148201082763672,0.220745393066406,0.0073741411132815,0.265982081068491,0.957701999999699,
0.145806881103515,0.208774384765625,0.0672291826171882,0.263374549466677,0.960621999999603,
0.0931344445800779,0.242293208007813,0.0217393510742188,0.260485360047518,0.963643000000047,
0.138624276123047,0.223139594726563,-0.0716345136718743,0.272285644524972,0.966574000000037,
0.109893856201172,0.189620771484375,0.0073741411132815,0.219287652562227,0.969591000000037,
0.145806881103515,0.201591779785156,-0.0285388837890626,0.250426356723902,0.972520999999688,
0.0931344445800779,0.182438166503906,-0.0189620771484371,0.205711617888562,0.975454999999783,
0.119470662841797,0.170467158203125,0.052863972656251,0.214771718135113,0.978462999999465,
0.143412679443359,0.225533796386719,0.0217393510742188,0.268151616297306,0.981410000000324,
0.131441671142578,0.235110603027344,-0.00938527050781168,0.269521783667183,0.984402000000046,
0.131441671142578,0.206380183105469,0.00976834277343741,0.244877751974204,0.987350000000333,
0.138624276123047,0.203985981445313,0.00976834277343741,0.246824616028032,0.990264999999454,
0.119470662841797,0.196803376464844,-0.0141736738281235,0.230663610692297,0.993263000000297,
0.148201082763672,0.220745393066406,0.0265277543945324,0.267199946193077,0.99621500000012,
0.169748897705078,0.172861359863281,0.0792001909179696,0.254889011625285,0.999221000000034,
0.191296712646484,0.199197578125,0.014556746093751,0.276561035319611,1.00215099999969,
0.131441671142578,0.244687409667969,-0.021356278808593,0.278576617840271,1.0050599999995,
0.150595284423828,0.227927998046875,0.00497993945312558,0.273230510341189,1.00808700000016,
0.167354696044922,0.192014973144531,0.0648349809570323,0.262832492199275,1.01102300000002,
