X,Y,Z,Magnitude,Seconds,
0.15538368774414,0.589452448730469,-0.0429040937499998,0.61109658892177,0.0,
0.148201082763672,0.591846650390625,-0.0548751020507812,0.612582480435093,0.00382900000022346,
0.162566292724609,0.591846650390625,-0.0261446821289049,0.614323857189714,0.00762600000007296,
0.100317049560547,0.589452448730469,-0.00459686718749985,0.597945508332339,0.0113880000003519,
0.162566292724609,0.596635053710938,0.0169509477539069,0.618618235648314,0.0151360000004388,
0.131441671142578,0.572693037109375,-0.00938527050781168,0.587658328426322,0.0188930000003893,
0.126653267822265,0.584664045410156,-0.0165678754882812,0.598454334718718,0.0227530000001934,
0.13623007446289,0.603817658691406,0.0576523759765628,0.621673704278602,0.0265050000002702,
0.143412679443359,0.587058247070313,-0.00220266552734216,0.604325602480829,0.0302210000004379,
0.133835872802734,0.536780012207031,-0.0117794721679676,0.553338574760884,0.0339450000001307,
0.114682259521484,0.555933625488281,-0.0740287153320303,0.572446038759295,0.0376690000002782,
0.13623007446289,0.56311623046875,-0.00459686718749985,0.579378678752885,0.041613000000325,
0.138624276123047,0.606211860351563,-0.0883939252929675,0.628110655529931,0.045596000000387,
0.0859518395996092,0.560722028808594,-0.0357214887695303,0.568395053709736,0.0493940000001203,
0.124259066162109,0.608606062011719,0.0121625444335951,0.621280598222728,0.0532260000004499,
0.109893856201172,0.570298835449219,0.000191536132813752,0.580790373570008,0.0569720000003144,
0.109893856201172,0.58226984375,-0.00220266552734216,0.592553526955024,0.0607700000000477,
0.112288057861328,0.596635053710938,-0.00699106884765577,0.6071497923071,0.0646040000001449,
0.105105452880859,0.591846650390625,0.0337103593750001,0.602051494585874,0.0684460000002218,
0.162566292724609,0.553539423828125,-0.00459686718749985,0.576935719513132,0.0722130000003744,
0.131441671142578,0.587058247070313,0.052863972656251,0.603911332871824,0.0760070000001178,
0.138624276123047,0.625365473632813,-0.0165678754882812,0.64075983023347,0.0797680000000582,
0.145806881103515,0.575087238769531,-0.0620577070312489,0.596520022945311,0.0835420000003069,
0.121864864501953,0.611000263671875,0.00976834277343741,0.623111376824176,0.0872960000001513,
0.160172091064453,0.558327827148438,0.014556746093751,0.581030945975421,0.0910420000000158,
0.129047469482422,0.599029255371094,0.0193451494140628,0.613077101983198,0.0949000000000524,
0.131441671142578,0.591846650390625,0.0408929643554696,0.607644307983819,0.0986240000001999,
0.13623007446289,0.567904633789063,0.0121625444335951,0.58414230608162,0.102340000000368,
0.138624276123047,0.6205770703125,-0.0405098920898439,0.637160608862016,0.10606800000005,
0.129047469482422,0.594240852050781,-0.0333272871093744,0.609004226333386,0.109851000000162,
0.0907402429199217,0.577481440429688,-0.0692403120117184,0.588653401020833,0.11385700000028,
0.145806881103515,0.60142345703125,0.0217393510742188,0.619227277039443,0.117768000000069,
0.117076461181641,0.613394465332031,0.0193451494140628,0.624767078733056,0.121578000000227,
0.138624276123047,0.584664045410156,-0.0237504804687489,0.601342515749971,0.125385000000279,
0.126653267822265,0.60142345703125,-0.0405098920898439,0.615948274025189,0.129259000000275,
0.141018477783203,0.584664045410156,-0.0572693037109371,0.604150668475337,0.133148000000347,
0.126653267822265,0.58226984375,-0.0764229169921862,0.600765914006698,0.136994000000414,
0.179325704345703,0.567904633789063,0.00258573779296967,0.595550222364248,0.140826000000288,
0.162566292724609,0.579875642089844,-0.00459686718749985,0.602249691579225,0.144759000000249,
0.0931344445800779,0.599029255371094,-0.0405098920898439,0.607578081331789,0.148604000000432,
0.13623007446289,0.584664045410156,0.0361045610351578,0.601410191559035,0.152399000000059,
0.109893856201172,0.615788666992188,0.0432871660156255,0.627013652776751,0.156181000000288,
0.105105452880859,0.577481440429688,0.0552581743164069,0.589563767623842,0.159949000000324,
0.0955286462402342,0.618182868652344,-0.0357214887695303,0.626539548717912,0.163690000000315,
0.0931344445800779,0.606211860351563,0.0265277543945324,0.613897846674313,0.167523000000074,
0.152989486083984,0.570298835449219,0.0169509477539069,0.590706254577292,0.17128700000012,
0.0907402429199217,0.572693037109375,-0.0261446821289049,0.580426266499327,0.175018000000364,
0.152989486083984,0.579875642089844,-0.0405098920898439,0.601084515270923,0.178748000000269,
0.141018477783203,0.589452448730469,0.0073741411132815,0.606130991080143,0.182620000000043,
0.131441671142578,0.606211860351563,-0.0261446821289049,0.620848835826627,0.186551000000236,
0.107499654541016,0.594240852050781,-0.0141736738281235,0.60405236445383,0.190400000000409,
0.105105452880859,0.58226984375,0.0265277543945324,0.592274470933162,0.194233000000168,
0.143412679443359,0.587058247070313,0.0552581743164069,0.606842687940766,0.197990000000118,
0.169748897705078,0.579875642089844,0.0552581743164069,0.606732160339288,0.201783000000432,
0.131441671142578,0.587058247070313,0.00497993945312558,0.601613744991734,0.205590000000029,
0.124259066162109,0.56311623046875,0.0193451494140628,0.576987382311491,0.209338000000116,
0.141018477783203,0.608606062011719,-0.0117794721679676,0.624841024388012,0.213071000000127,
0.162566292724609,0.584664045410156,0.0313161577148442,0.607651666055162,0.216949000000113,
0.121864864501953,0.611000263671875,-0.0237504804687489,0.623487331651315,0.220683000000008,
0.141018477783203,0.577481440429688,-0.0692403120117184,0.598469085186962,0.224408000000039,
0.152989486083984,0.594240852050781,0.0121625444335951,0.613739277368965,0.22814900000003,
0.143412679443359,0.560722028808594,-0.00938527050781168,0.578847539097174,0.231892000000244,
0.129047469482422,0.56311623046875,0.00258573779296967,0.577719503251435,0.235641000000214,
0.114682259521484,0.565510432128906,-0.00938527050781168,0.577098044354753,0.239442000000054,
0.138624276123047,0.606211860351563,0.0241335527343765,0.622327837983425,0.243216000000302,
0.121864864501953,0.591846650390625,-0.0141736738281235,0.604428983263103,0.246937000000344,
0.117076461181641,0.536780012207031,0.0600465776367187,0.552671033032924,0.250681000000441,
0.121864864501953,0.622971271972656,-0.0452982954101557,0.636393106868997,0.254652000000078,
0.148201082763672,0.60142345703125,-0.0261446821289049,0.61996554743257,0.258528000000297,
0.0979228479003904,0.58226984375,-0.00459686718749985,0.590464381880493,0.262312000000293,
0.121864864501953,0.594240852050781,0.0289219560546883,0.607297056627271,0.266235000000052,
0.0883460412597654,0.589452448730469,0.0408929643554696,0.597437399946133,0.269990000000234,
0.121864864501953,0.596635053710938,0.0121625444335951,0.609075003594657,0.273816000000352,
0.117076461181641,0.577481440429688,0.0361045610351578,0.590334863557205,0.277597000000242,
0.117076461181641,0.625365473632813,0.0672291826171882,0.639772331669777,0.281366000000162,
0.141018477783203,0.599029255371094,0.0337103593750001,0.61632673818027,0.285119000000122,
0.129047469482422,0.594240852050781,-0.00938527050781168,0.608164059221161,0.288991000000351,
0.109893856201172,0.58226984375,-0.021356278808593,0.592934162631876,0.292781000000105,
0.13623007446289,0.522414802246094,-0.109941740234374,0.550965557035785,0.296531000000414,
-0.000239420166015747,0.809719001464844,0.577194136230469,0.994383220672029,0.300300000000334,
0.169748897705078,0.508049592285156,-0.181767790039062,0.565657675620942,0.304073000000244,
0.433111080322266,0.120188923339844,-0.555263249023437,0.714386352688497,0.307020000000193,
0.0763750329589842,0.666066901855469,-0.727645768554687,0.989417317365312,0.309940000000097,
-0.0217872351074221,0.785776984863281,1.79344857958984,1.95815677645772,0.312949000000117,
0.157777889404297,0.742681354980469,-1.04368038769531,1.29063480856528,0.315885000000435,
-0.000239420166015747,0.520020600585938,0.32819716357422,0.61492671151442,0.318894,
0.275093770751953,0.498472785644531,-0.212892411621093,0.607844453508125,0.321830000000318,
0.0308852014160155,0.644519086914063,0.323408760253907,0.72177002935285,0.324752000000444,
0.157777889404297,0.596635053710938,0.179756660644532,0.64279056211771,0.327754000000368,
0.267911165771484,0.5439626171875,-0.382880729492188,0.7171257732497,0.330681000000368,
0.0308852014160155,0.510443793945313,0.261159517089844,0.574204715942314,0.333682000000408,
0.0979228479003904,0.630153876953125,-0.0117794721679676,0.637825641335101,0.336706000000049,
0.129047469482422,0.685220515136719,-0.129095353515625,0.709116361426932,0.339742000000115,
0.203267720947266,0.4673481640625,0.0217393510742188,0.510102609498141,0.342867000000297,
0.131441671142578,0.606211860351563,-0.0237504804687489,0.620752622117823,0.345865000000231,
0.114682259521484,0.58226984375,0.0361045610351578,0.594553387777031,0.348878000000241,
0.107499654541016,0.58226984375,-0.0333272871093744,0.593047261803946,0.351814000000104,
0.0644040246582029,0.673249506835938,-0.0285388837890626,0.676924844229353,0.354729000000134,
0.129047469482422,0.596635053710938,-0.0357214887695303,0.611475806108779,0.357766000000083,
0.184114107666015,0.558327827148438,0.0552581743164069,0.590492534278572,0.360714000000371,
0.112288057861328,0.591846650390625,-0.0452982954101557,0.604105124199371,0.363712000000305,
0.150595284423828,0.541568415527344,-0.102759135253905,0.571432172935355,0.366665000000012,
0.13623007446289,0.687614716796875,-0.0309330854492185,0.701661946894101,0.369663000000401,
0.107499654541016,0.52480900390625,0.0073741411132815,0.535756515839674,0.372630000000299,
0.0907402429199217,0.534385810546875,-0.00699106884765577,0.542080124375207,0.375548000000435,
0.119470662841797,0.570298835449219,-0.0476924970703116,0.584626868413859,0.378588000000036,
0.167354696044922,0.558327827148438,0.0169509477539069,0.583116533367336,0.381544000000304,
0.0931344445800779,0.589452448730469,-0.0405098920898439,0.598138165843575,0.384528000000046,
0.157777889404297,0.570298835449219,0.0408929643554696,0.593133086780182,0.387485000000197,
0.138624276123047,0.551145222167969,-0.021356278808593,0.568712437435448,0.390389000000141,
0.160172091064453,0.56311623046875,-0.0452982954101557,0.587202625454246,0.393401000000267,
0.141018477783203,0.589452448730469,-0.0548751020507812,0.608565261262686,0.396337000000131,
0.0715866296386717,0.611000263671875,-0.0261446821289049,0.6157349366032,0.399355000000014,
0.141018477783203,0.591846650390625,0.00976834277343741,0.608493294273186,0.402296000000206,
0.105105452880859,0.594240852050781,0.0384987626953137,0.604691244521036,0.405218000000332,
0.107499654541016,0.5439626171875,-0.0237504804687489,0.554991522409495,0.408227000000352,
0.105105452880859,0.60142345703125,0.0169509477539069,0.610773825177918,0.411178000000291,
0.109893856201172,0.558327827148438,-0.00220266552734216,0.56904435146523,0.414173000000119,
0.121864864501953,0.60142345703125,-0.0333272871093744,0.614550183413503,0.417119000000184,
0.160172091064453,0.627759675292969,0.0480755693359374,0.649652652612816,0.420056000000386,
0.131441671142578,0.637336481933594,0.0121625444335951,0.650862989886,0.423064000000068,
0.105105452880859,0.591846650390625,0.0576523759765628,0.60386539084438,0.426000000000386,
0.129047469482422,0.611000263671875,0.000191536132813752,0.624479469857102,0.429000000000087,
0.167354696044922,0.567904633789063,-0.0500866987304676,0.5941649137715,0.431931000000077,
0.117076461181641,0.551145222167969,0.0169509477539069,0.563697869706061,0.434867000000395,
0.107499654541016,0.584664045410156,0.0672291826171882,0.598254113832226,0.437868000000435,
0.131441671142578,0.584664045410156,0.0241335527343765,0.599742767589327,0.440809000000172,
0.119470662841797,0.567904633789063,0.052863972656251,0.582737944503315,0.443805000000339,
0.145806881103515,0.603817658691406,0.0169509477539069,0.621403851094006,0.446742000000086,
0.124259066162109,0.622971271972656,0.00976834277343741,0.635317984750352,0.449653000000126,
0.124259066162109,0.567904633789063,-0.059663505371093,0.584393465462898,0.452641000000312,
0.13623007446289,0.560722028808594,0.0337103593750001,0.578017486853626,0.455582000000049,
0.114682259521484,0.591846650390625,0.0456813676757815,0.604583547229236,0.458589000000302,
0.143412679443359,0.630153876953125,-0.0165678754882812,0.646479388505444,0.461518000000069,
0.119470662841797,0.575087238769531,0.0768059892578137,0.592366213976872,0.464523000000099,
0.160172091064453,0.587058247070313,-0.0381156904296862,0.609709184830079,0.467441000000235,
0.15538368774414,0.560722028808594,0.0361045610351578,0.582972403579908,0.470375000000331,
0.133835872802734,0.611000263671875,-0.00938527050781168,0.625556908968701,0.473405000000184,
0.138624276123047,0.58226984375,-0.0141736738281235,0.598711745250646,0.476450000000114,
0.148201082763672,0.60142345703125,0.0193451494140628,0.619716040139028,0.47955200000024,
0.145806881103515,0.570298835449219,-0.0357214887695303,0.58972572697126,0.482590000000073,
0.131441671142578,0.505655390625,0.0289219560546883,0.523259750528267,0.485523000000285,
0.121864864501953,0.551145222167969,-0.0165678754882812,0.564700447686076,0.488531000000421,
0.138624276123047,0.565510432128906,0.014556746093751,0.582435093065398,0.491463000000294,
0.138624276123047,0.575087238769531,-0.0141736738281235,0.591728751334586,0.4944830000004,
0.114682259521484,0.6205770703125,-0.00459686718749985,0.631101459382355,0.497448000000077,
0.133835872802734,0.589452448730469,0.0935654008789069,0.611654080673747,0.500377000000299,
0.133835872802734,0.58226984375,0.0073741411132815,0.597498610665061,0.503379000000223,
0.129047469482422,0.577481440429688,0.0313161577148442,0.592552753056286,0.506331000000046,
0.131441671142578,0.587058247070313,-0.00220266552734216,0.601597165968597,0.509347000000162,
0.181719906005859,0.584664045410156,0.0265277543945324,0.612827783302425,0.512306000000081,
0.15538368774414,0.603817658691406,0.0456813676757815,0.625161293361377,0.515247000000272,
0.107499654541016,0.579875642089844,0.0337103593750001,0.590718481465358,0.518281000000115,
0.179325704345703,0.577481440429688,-0.097970731933593,0.612569005578501,0.521217000000433,
0.107499654541016,0.589452448730469,-0.0237504804687489,0.599645270441851,0.524235000000317,
0.131441671142578,0.611000263671875,-0.0165678754882812,0.625198152282978,0.527177000000393,
0.129047469482422,0.596635053710938,-0.00220266552734216,0.610435490802996,0.530104000000392,
0.121864864501953,0.599029255371094,-0.021356278808593,0.611672448811516,0.533105000000432,
0.100317049560547,0.613394465332031,0.0217393510742188,0.621923532210858,0.536054000000149,
0.124259066162109,0.608606062011719,-0.0333272871093744,0.622054951195602,0.539054000000306,
0.129047469482422,0.570298835449219,0.00258573779296967,0.584722752366013,0.541999000000033,
0.119470662841797,0.615788666992188,0.014556746093751,0.62743989396014,0.544913000000179,
0.17453730102539,0.575087238769531,0.014556746093751,0.601165950883472,0.547916000000441,
0.143412679443359,0.606211860351563,-0.0764229169921862,0.62761491258384,0.550845000000209,
0.152989486083984,0.608606062011719,-0.0141736738281235,0.627700577185843,0.553861000000325,
0.121864864501953,0.591846650390625,0.15581464404297,0.624028609982683,0.556801000000178,
0.179325704345703,0.441011945800781,0.0408929643554696,0.477829968829762,0.559792000000016,
0.200873519287109,0.646913288574219,-0.323025687988281,0.750461570491788,0.562722000000122,
0.0117315881347655,0.807324799804688,0.426359431640625,0.913068084804611,0.565647000000354,
0.13623007446289,0.642124885253906,-0.0476924970703116,0.658147077580163,0.568645000000288,
0.107499654541016,0.491290180664063,0.00976834277343741,0.503008586272545,0.571604000000207,
0.220027132568359,0.508049592285156,-0.0764229169921862,0.558897834607509,0.574566000000232,
0.121864864501953,0.622971271972656,0.0073741411132815,0.634821729984464,0.577528000000257,
0.13623007446289,0.642124885253906,0.0648349809570323,0.659610927900839,0.580439000000297,
0.176931502685547,0.589452448730469,-0.0333272871093744,0.616335666680894,0.583444000000327,
0.0859518395996092,0.60142345703125,0.0456813676757815,0.609249276364533,0.586385000000064,
0.105105452880859,0.58226984375,-0.0452982954101557,0.593411545837293,0.589387000000443,
0.145806881103515,0.584664045410156,-0.0452982954101557,0.604271154482464,0.592323000000306,
0.160172091064453,0.579875642089844,0.0073741411132815,0.601635468537408,0.595262000000275,
0.169748897705078,0.613394465332031,0.00497993945312558,0.636468583803643,0.598262000000432,
0.102711251220703,0.6205770703125,0.0073741411132815,0.629062699007123,0.601205000000391,
0.121864864501953,0.572693037109375,-0.0261446821289049,0.586098886159376,0.604197000000113,
0.169748897705078,0.611000263671875,0.00258573779296967,0.634147219909639,0.60715300000038,
0.148201082763672,0.596635053710938,-0.0452982954101557,0.616432383815162,0.610061000000314,
0.13623007446289,0.60142345703125,-0.00220266552734216,0.616663327587274,0.613157000000228,
0.105105452880859,0.618182868652344,0.0241335527343765,0.62751864011208,0.616206000000147,
0.15538368774414,0.6205770703125,0.0169509477539069,0.639958846524032,0.619317000000137,
0.126653267822265,0.642124885253906,0.0169509477539069,0.654715780428543,0.622321000000284,
0.119470662841797,0.613394465332031,-0.0141736738281235,0.625081516611724,0.625249000000167,
0.13623007446289,0.58226984375,0.052863972656251,0.600326081170738,0.628270000000157,
0.121864864501953,0.570298835449219,-0.059663505371093,0.586217997666381,0.631225000000086,
0.0931344445800779,0.613394465332031,0.0289219560546883,0.621098441802294,0.634267000000364,
0.0979228479003904,0.577481440429688,-0.0165678754882812,0.585959207351386,0.637223000000176,
0.145806881103515,0.599029255371094,-0.0189620771484371,0.616810550929023,0.640160000000378,
0.131441671142578,0.567904633789063,-0.00459686718749985,0.582935431398523,0.643194000000221,
0.172143099365234,0.56311623046875,0.0121625444335951,0.588966096786141,0.646159000000353,
0.167354696044922,0.615788666992188,0.00497993945312558,0.63814424425929,0.649189000000206,
0.145806881103515,0.572693037109375,-0.0165678754882812,0.591194938940524,0.652139000000261,
0.157777889404297,0.611000263671875,0.0193451494140628,0.631339385273743,0.655202000000372,
0.145806881103515,0.575087238769531,0.0121625444335951,0.59340787512452,0.658163000000059,
0.143412679443359,0.584664045410156,-0.021356278808593,0.602374744876512,0.661084000000301,
0.141018477783203,0.56311623046875,-0.0333272871093744,0.58146092573766,0.664095000000088,
0.117076461181641,0.608606062011719,0.0121625444335951,0.619883992346413,0.66705200000024,
0.124259066162109,0.596635053710938,-0.00699106884765577,0.60947729890765,0.670036000000437,
0.112288057861328,0.58226984375,-0.00220266552734216,0.593002218051791,0.67298000000028,
0.15538368774414,0.615788666992188,-0.0429040937499998,0.636537928228548,0.675893000000087,
0.131441671142578,0.56311623046875,-0.0141736738281235,0.578426914103998,0.67890400000033,
0.131441671142578,0.579875642089844,-0.0141736738281235,0.594755047251932,0.681851000000279,
0.167354696044922,0.625365473632813,-0.0261446821289049,0.647899000079412,0.684869000000162,
0.133835872802734,0.6205770703125,0.0672291826171882,0.638394630336041,0.687815000000228,
0.145806881103515,0.572693037109375,0.0313161577148442,0.591791908583343,0.690735000000132,
0.105105452880859,0.565510432128906,0.0265277543945324,0.575806327531341,0.693735000000288,
0.164960494384765,0.608606062011719,0.0432871660156255,0.632049904807162,0.696673000000374,
0.157777889404297,0.587058247070313,0.0337103593750001,0.608824799238118,0.699673000000075,
0.138624276123047,0.589452448730469,0.0241335527343765,0.606014280040139,0.702608000000055,
0.114682259521484,0.596635053710938,-0.021356278808593,0.60793214967639,0.705507000000125,
0.109893856201172,0.613394465332031,0.0121625444335951,0.623279517726863,0.708539000000201,
0.119470662841797,0.587058247070313,-0.00699106884765577,0.599132289045382,0.711457000000337,
0.145806881103515,0.575087238769531,0.0504697709960951,0.595426046253518,0.714471000000231,
0.117076461181641,0.565510432128906,0.0265277543945324,0.578111294097127,0.717401000000336,
0.107499654541016,0.587058247070313,0.0241335527343765,0.597307282349118,0.720318000000134,
0.126653267822265,0.599029255371094,-0.0452982954101557,0.613945465499642,0.723309000000427,
0.114682259521484,0.632548078613281,0.0289219560546883,0.643510351080957,0.726269000000229,
0.114682259521484,0.603817658691406,0.0121625444335951,0.614732228766008,0.729277000000366,
0.124259066162109,0.58226984375,-0.0165678754882812,0.595611434546319,0.732226000000082,
0.129047469482422,0.589452448730469,0.0217393510742188,0.603804635688805,0.735167000000274,
0.129047469482422,0.591846650390625,0.088776997558595,0.612223049430465,0.738181000000168,
0.145806881103515,0.606211860351563,0.0121625444335951,0.623618788760519,0.74112200000036,
0.109893856201172,0.613394465332031,0.00976834277343741,0.623237394779286,0.744138000000021,
0.138624276123047,0.584664045410156,0.0552581743164069,0.603408818094988,0.747077000000445,
0.145806881103515,0.596635053710938,-0.0117794721679676,0.614305941578253,0.750112000000172,
0.109893856201172,0.541568415527344,-0.0357214887695303,0.553759002714604,0.753166000000419,
0.112288057861328,0.589452448730469,0.0313161577148442,0.600868953255729,0.756214,
0.145806881103515,0.579875642089844,0.0408929643554696,0.599322652166611,0.759330000000318,
0.107499654541016,0.548751020507813,-0.0716345136718743,0.563751152356968,0.762305000000197,
0.126653267822265,0.599029255371094,0.0648349809570323,0.615695276736962,0.765311000000111,
0.150595284423828,0.591846650390625,0.0672291826171882,0.614394954621758,0.76826600000004,
0.119470662841797,0.60142345703125,-0.0165678754882812,0.613398653768879,0.771206000000348,
0.124259066162109,0.579875642089844,0.0600465776367187,0.596071864206381,0.774261000000024,
0.152989486083984,0.594240852050781,0.0313161577148442,0.614417345810078,0.777205000000322,
0.126653267822265,0.567904633789063,-0.00699106884765577,0.581898271498361,0.780226000000312,
0.13623007446289,0.572693037109375,0.000191536132813752,0.588673071091089,0.783200000000306,
0.15538368774414,0.596635053710938,-0.0141736738281235,0.61669957901997,0.786129000000074,
0.131441671142578,0.567904633789063,-0.0333272871093744,0.583869243973266,0.789159000000382,
0.124259066162109,0.603817658691406,0.0121625444335951,0.616590632395717,0.792157000000316,
0.131441671142578,0.589452448730469,0.0289219560546883,0.604621850224691,0.795196000000033,
0.126653267822265,0.589452448730469,0.00497993945312558,0.602926230447276,0.798159000000396,
0.119470662841797,0.608606062011719,0.0121625444335951,0.620340636654064,0.801080000000184,
0.114682259521484,0.596635053710938,0.0361045610351578,0.608628743400398,0.804110000000037,
0.100317049560547,0.570298835449219,0.0193451494140628,0.579377689381564,0.807054000000335,
0.157777889404297,0.584664045410156,0.0241335527343765,0.606059680846554,0.810068000000228,
0.138624276123047,0.599029255371094,0.0576523759765628,0.61755690845203,0.813010000000304,
0.0883460412597654,0.560722028808594,0.0313161577148442,0.568502346812675,0.815934000000198,
0.0955286462402342,0.546356818847656,-0.00459686718749985,0.554664427326796,0.818929000000026,
0.138624276123047,0.589452448730469,0.0241335527343765,0.606014280040139,0.821894000000157,
0.152989486083984,0.589452448730469,0.0265277543945324,0.609560246341413,0.824911000000156,
0.112288057861328,0.60142345703125,-0.0165678754882812,0.612040257747711,0.827856000000338,
0.129047469482422,0.606211860351563,0.000191536132813752,0.61979521270885,0.830789000000095,
0.126653267822265,0.577481440429688,-0.0572693037109371,0.593974441738313,0.833774000000176,
0.164960494384765,0.553539423828125,0.00258573779296967,0.577602410382412,0.836718000000019,
0.100317049560547,0.572693037109375,-0.0117794721679676,0.581532098125846,0.839722000000165,
0.169748897705078,0.60142345703125,0.0073741411132815,0.624963391645197,0.842659000000367,
0.121864864501953,0.577481440429688,-0.0357214887695303,0.59127986943641,0.845645000000331,
0.138624276123047,0.613394465332031,0.014556746093751,0.629032080968408,0.84860400000025,
0.102711251220703,0.618182868652344,0.014556746093751,0.626826578153321,0.851522000000386,
0.124259066162109,0.591846650390625,-0.0261446821289049,0.605315056400965,0.854505000000245,
0.145806881103515,0.613394465332031,-0.0165678754882812,0.630703504965129,0.857448000000204,
0.124259066162109,0.589452448730469,-0.0668461103515625,0.60610469995452,0.860447000000022,
0.167354696044922,0.577481440429688,-0.0381156904296862,0.602449345742832,0.863389000000097,
0.0979228479003904,0.594240852050781,-0.0141736738281235,0.602421752111216,0.866311000000223,
0.102711251220703,0.60142345703125,-0.0117794721679676,0.610244649103373,0.86931900000036,
0.13623007446289,0.587058247070313,0.0073741411132815,0.602702577229094,0.872266000000309,
0.152989486083984,0.572693037109375,-0.0261446821289049,0.593352038851661,0.875277000000096,
0.152989486083984,0.6205770703125,0.0720175859375001,0.643201535861158,0.878227000000152,
0.141018477783203,0.570298835449219,-0.0333272871093744,0.5884196468993,0.881142000000182,
0.129047469482422,0.60142345703125,-0.0309330854492185,0.615889827666154,0.884155000000192,
0.112288057861328,0.60142345703125,-0.00699106884765577,0.611855912490287,0.887096000000383,
0.133835872802734,0.60142345703125,0.0289219560546883,0.616813338910824,0.890181000000211,
0.131441671142578,0.577481440429688,-0.0740287153320303,0.596860098890193,0.893225000000257,
0.112288057861328,0.594240852050781,-0.0117794721679676,0.604871518711919,0.896253000000343,
0.141018477783203,0.589452448730469,-0.0333272871093744,0.607001736782283,0.899343000000044,
0.172143099365234,0.560722028808594,-0.0476924970703116,0.588487055530618,0.902282000000014,
0.124259066162109,0.608606062011719,0.00258573779296967,0.621166918211865,0.905300000000352,
0.129047469482422,0.579875642089844,0.0193451494140628,0.594376349188608,0.908243000000311,
0.13623007446289,0.579875642089844,0.0313161577148442,0.596485620288783,0.911186000000271,
0.138624276123047,0.60142345703125,0.0193451494140628,0.617495829462767,0.914192000000185,
0.126653267822265,0.589452448730469,0.0337103593750001,0.603847354795561,0.917149000000336,
0.160172091064453,0.630153876953125,0.0241335527343765,0.65063925163073,0.920153000000028,
0.15538368774414,0.567904633789063,-0.021356278808593,0.589165387765276,0.923098000000209,
0.119470662841797,0.584664045410156,0.0289219560546883,0.597446035066982,0.926028000000315,
0.112288057861328,0.575087238769531,-0.0500866987304676,0.588083852459451,0.929028000000017,
0.164960494384765,0.567904633789063,-0.0405098920898439,0.592763603086328,0.932010000000446,
0.109893856201172,0.58226984375,0.0241335527343765,0.5930406891091,0.935054000000036,
0.124259066162109,0.575087238769531,0.0121625444335951,0.588484133351225,0.937988000000132,
0.112288057861328,0.579875642089844,-0.0429040937499998,0.592203621643676,0.940980000000309,
0.102711251220703,0.575087238769531,0.0313161577148442,0.585026183223373,0.943921000000046,
0.117076461181641,0.587058247070313,0.0217393510742188,0.599013257450294,0.946842000000288,
0.150595284423828,0.572693037109375,0.0193451494140628,0.592478260571733,0.949838,
0.109893856201172,0.591846650390625,0.0313161577148442,0.602776757135996,0.952771000000212,
0.117076461181641,0.596635053710938,-0.0189620771484371,0.60830900490561,0.955763000000388,
0.119470662841797,0.615788666992188,-0.00220266552734216,0.627274878670666,0.958706000000348,
0.196085115966797,0.591846650390625,-0.0117794721679676,0.623594889529148,0.961634000000231,
0.143412679443359,0.572693037109375,0.0600465776367187,0.59342236464812,0.964649000000009,
0.121864864501953,0.575087238769531,0.0337103593750001,0.588823204132475,0.967578000000231,
0.100317049560547,0.591846650390625,0.0073741411132815,0.600333528938951,0.970587000000251,
0.119470662841797,0.60142345703125,-0.00220266552734216,0.613178820314844,0.973505000000387,
0.141018477783203,0.589452448730469,-0.0165678754882812,0.606312538950691,0.97643700000026,
0.143412679443359,0.572693037109375,0.00497993945312558,0.590397587372815,0.979447000000164,
0.124259066162109,0.613394465332031,0.000191536132813752,0.625853914511636,0.982385000000249,
0.121864864501953,0.618182868652344,-0.0189620771484371,0.630365500852564,0.985377000000426,
0.150595284423828,0.615788666992188,0.000191536132813752,0.633935847521497,0.988336000000345,
0.15538368774414,0.570298835449219,-0.0429040937499998,0.59264290546012,0.991249000000153,
0.112288057861328,0.570298835449219,-0.0452982954101557,0.583010553266465,0.994261000000279,
0.15538368774414,0.591846650390625,0.0456813676757815,0.613606824724352,0.997206000000006,
0.131441671142578,0.572693037109375,-0.0261446821289049,0.588164749088157,1.00021200000037,
0.141018477783203,0.603817658691406,0.00258573779296967,0.620071497541854,1.00316500000008,
0.17453730102539,0.555933625488281,0.0241335527343765,0.583187700286413,1.00608800000009,
0.145806881103515,0.572693037109375,0.014556746093751,0.591141996636622,1.00908900000013,
0.0931344445800779,0.548751020507813,-0.0165678754882812,0.556844863291205,1.01202400000011,
