X,Y,Z,Magnitude,Seconds,
0.129047469482422,0.170467158203125,-0.0476924970703116,0.21905906893454,0.0,
0.138624276123047,0.232716401367187,-0.0189620771484371,0.271538530904393,0.00394599999981438,
0.112288057861328,0.199197578125,0.0504697709960951,0.23416976929897,0.00784500000008848,
0.117076461181641,0.182438166503906,0.0193451494140628,0.217634595517293,0.0116040000002613,
0.119470662841797,0.196803376464844,0.0313161577148442,0.2323478211687,0.0153909999999087,
0.105105452880859,0.223139594726563,-0.0237504804687489,0.247795319331342,0.0191290000002482,
0.152989486083984,0.230322199707031,0.00258573779296967,0.276515432788228,0.022954000000027,
0.167354696044922,0.127371528320313,-0.196133,0.287574780194544,0.0268430000005537,
0.13623007446289,0.156101948242188,-0.121912748535156,0.24039378046981,0.0306499999996959,
0.13623007446289,0.163284553222656,-0.0883939252929675,0.23029104311281,0.0344340000001466,
0.117076461181641,0.06512228515625,0.0456813676757815,0.141543622744079,0.0382239999999001,
0.129047469482422,0.189620771484375,0.0456813676757815,0.233871917319878,0.0419959999999264,
0.15538368774414,0.266235224609375,-0.0165678754882812,0.308706624059103,0.0457360000000335,
0.0979228479003904,0.223139594726563,0.0193451494140628,0.244447126556051,0.0496080000002621,
0.138624276123047,0.203985981445313,0.0241335527343765,0.247809198627551,0.0533940000004804,
0.148201082763672,0.151313544921875,0.0552581743164069,0.218889962396478,0.0571410000002288,
0.191296712646484,0.18004396484375,-0.0812113203124998,0.274964616074339,0.0608990000000631,
0.0931344445800779,0.201591779785156,0.0337103593750001,0.224610014855478,0.0646569999998974,
0.129047469482422,0.271023627929688,-0.0117794721679676,0.300409407709782,0.0683959999996659,
0.126653267822265,0.211168586425781,-0.0117794721679676,0.246519731680199,0.0722830000004251,
0.172143099365234,0.170467158203125,-0.0237504804687489,0.243426342057335,0.0763539999998102,
0.124259066162109,0.242293208007813,-0.00459686718749985,0.272337006956704,0.0802000000003318,
0.133835872802734,0.213562788085938,0.0648349809570323,0.260239658890814,0.0840650000000096,
0.114682259521484,0.189620771484375,-0.0548751020507812,0.22829659316855,0.0878430000002481,
0.145806881103515,0.175255561523438,-0.0333272871093744,0.230401533172201,0.0916930000003049,
0.119470662841797,0.184832368164063,0.014556746093751,0.220563239135246,0.095578999999816,
0.145806881103515,0.215956989746094,0.0456813676757815,0.264544618826502,0.0994980000004944,
0.131441671142578,0.201591779785156,-0.021356278808593,0.241603495906518,0.103291999999783,
0.126653267822265,0.201591779785156,0.0121625444335951,0.238386709810141,0.107125000000451,
0.124259066162109,0.187226569824219,-0.0285388837890626,0.22651395510994,0.11091899999974,
0.0979228479003904,0.247081611328125,0.0073741411132815,0.265880771690215,0.114692000000105,
0.102711251220703,0.244687409667969,0.00258573779296967,0.265383148706312,0.118435000000318,
0.13623007446289,0.206380183105469,0.00258573779296967,0.247301636077777,0.122277000000395,
0.145806881103515,0.163284553222656,0.0504697709960951,0.22465237519923,0.126030000000355,
0.121864864501953,0.215956989746094,-0.059663505371093,0.255045487106595,0.129730999999992,
0.150595284423828,0.261446821289062,-0.0668461103515625,0.30903362684663,0.133460000000014,
0.109893856201172,0.239899006347656,0.0456813676757815,0.267796527666224,0.13722400000006,
0.167354696044922,0.194409174804688,-0.0117794721679676,0.256790337631858,0.140932999999677,
0.0955286462402342,0.184832368164063,0.0073741411132815,0.208190068280852,0.144830000000184,
0.15538368774414,0.244687409667969,-0.0500866987304676,0.294150805296714,0.14886899999965,
0.176931502685547,0.273417829589844,-0.0500866987304676,0.329500748967135,0.1526530000001,
0.126653267822265,0.21835119140625,0.0217393510742188,0.253359216180733,0.156466000000364,
0.100317049560547,0.158496149902344,-0.0117794721679676,0.18794492792027,0.160219999999754,
0.133835872802734,0.211168586425781,-0.0189620771484371,0.250726490646113,0.16403900000023,
0.141018477783203,0.232716401367187,0.0169509477539069,0.272636147954268,0.16785499999969,
0.152989486083984,0.244687409667969,0.0073741411132815,0.288672979787545,0.171669000000293,
0.119470662841797,0.18004396484375,-0.0261446821289049,0.217652505062858,0.175422000000253,
0.107499654541016,0.172861359863281,-0.0309330854492185,0.205898230287754,0.179202999999688,
0.121864864501953,0.206380183105469,0.0337103593750001,0.242033496665065,0.182982999999695,
0.121864864501953,0.251870014648437,0.0456813676757815,0.283507207724625,0.186674000000494,
0.17453730102539,0.201591779785156,0.0337103593750001,0.268772958936286,0.19039900000007,
0.157777889404297,0.196803376464844,-0.0141736738281235,0.252638723086196,0.194203000000016,
0.179325704345703,0.201591779785156,0.0432871660156255,0.273259460326068,0.197951000000103,
0.152989486083984,0.235110603027344,-0.00938527050781168,0.280661471902767,0.201646999999866,
0.133835872802734,0.206380183105469,0.00258573779296967,0.24599086744725,0.205390000000079,
0.112288057861328,0.175255561523438,0.00497993945312558,0.208201632030398,0.209109999999782,
0.119470662841797,0.192014973144531,0.014556746093751,0.226616168991516,0.212822999999844,
0.105105452880859,0.268629426269531,0.00258573779296967,0.288471161337008,0.216742999999951,
0.126653267822265,0.187226569824219,0.00976834277343741,0.226252644666843,0.220718999999917,
0.188902510986328,0.201591779785156,0.0169509477539069,0.276786450108459,0.224510000000009,
0.102711251220703,0.215956989746094,0.014556746093751,0.239580720018024,0.22829400000046,
0.131441671142578,0.189620771484375,-0.0141736738281235,0.231157614888347,0.2320550000004,
0.172143099365234,0.220745393066406,0.00497993945312558,0.279976025788045,0.235916000000543,
0.15538368774414,0.225533796386719,0.0768059892578137,0.284444623284473,0.239693999999872,
0.105105452880859,0.244687409667969,0.0552581743164069,0.271978952318177,0.243551999999909,
0.121864864501953,0.158496149902344,0.0169509477539069,0.200647475348436,0.247355999999854,
0.0811634362792967,0.211168586425781,-0.0165678754882812,0.226835115843913,0.251162999999906,
0.129047469482422,0.259052619628906,0.0337103593750001,0.291372437690333,0.254930000000058,
0.13623007446289,0.194409174804688,0.0121625444335951,0.237700416330101,0.258689000000231,
0.124259066162109,0.184832368164063,-0.0309330854492185,0.224855899678046,0.262432000000445,
0.15538368774414,0.208774384765625,0.0265277543945324,0.261599992172115,0.266200000000026,
0.17453730102539,0.215956989746094,0.0456813676757815,0.281402697609941,0.270037999999658,
0.133835872802734,0.215956989746094,-0.0381156904296862,0.25690906586961,0.273761000000377,
0.0955286462402342,0.223139594726563,0.0863827958984373,0.25764120092574,0.277501999999913,
0.0811634362792967,0.18004396484375,-0.00459686718749985,0.197546105639318,0.281211999999869,
0.150595284423828,0.182438166503906,-0.0668461103515625,0.245827229486755,0.285030000000006,
0.100317049560547,0.27581203125,-0.0524809003906235,0.298144313916255,0.289033000000018,
0.126653267822265,0.225533796386719,-0.00938527050781168,0.258833202787373,0.292921000000206,
0.176931502685547,0.151313544921875,-0.0476924970703116,0.237644944815141,0.296749000000091,
0.13623007446289,-0.0761356127929688,0.438330439941407,0.465283611685123,0.300600000000486,
0.0859518395996092,0.848026228027344,-1.97981323681641,2.15550380533793,0.30446000000029,
0.133835872802734,0.970130512695313,5.53079737109375,5.61683049527123,0.307477999999719,
0.545638558349609,-1.37618711425781,0.0361045610351578,1.48084973887786,0.310424000000239,
0.0931344445800779,0.0962469067382813,-5.90630395947266,5.90782226827334,0.313441000000239,
-0.390494290771485,1.48967227294922,0.0672291826171882,1.54146976451509,0.316391000000294,
0.351708223876953,0.759440766601563,5.04238023242188,5.11136453024415,0.3194110000004,
0.0835576379394529,0.203985981445313,-0.435553166015625,0.488158498758818,0.322349000000031,
0.0428562097167967,-0.31794998046875,-3.58153414746094,3.595874816261,0.325292000000445,
0.516908138427734,-0.519062919921875,-0.730039970214843,1.03420437850646,0.328332000000046,
0.260728560791015,0.158496149902344,3.02167403125,3.03704039536465,0.331290000000081,
0.016519991455078,0.220745393066406,-0.425976359374999,0.480059681106523,0.334294999999656,
-0.00263362182617211,0.340455476074219,-1.62068298779297,1.65605863847703,0.337223000000449,
0.0404620080566405,0.859997236328125,1.02251564501953,1.33670141202054,0.340156000000206,
0.121864864501953,0.21835119140625,0.830979512207032,0.867787553319615,0.343171000000439,
0.243969149169922,0.0148440502929687,-1.15620786572266,1.18176051733621,0.346102000000428,
0.239180745849609,-0.0378283862304688,0.364110188476563,0.437280968420093,0.349151999999776,
0.141018477783203,0.0531512768554687,0.433542036621095,0.458987981133738,0.35210300000017,
0.0500388146972655,0.206380183105469,-0.538503837402343,0.578863581383389,0.355016999999862,
0.0237025964355467,0.426646735839844,0.256371113769532,0.49831255077111,0.358046000000286,
0.141018477783203,0.328484467773438,0.26355371875,0.444127030602331,0.360991999999897,
0.19369091430664,0.10342951171875,-0.294295268066406,0.367183249870687,0.363992000000508,
0.167354696044922,0.0770932934570313,0.00497993945312558,0.18432517457281,0.366931999999906,
0.169748897705078,0.074699091796875,0.191727668945314,0.266747336681307,0.369928000000073,
0.124259066162109,0.259052619628906,-0.105153336914062,0.305950648837751,0.372859000000062,
0.006943184814453,0.388339509277344,-0.0189620771484371,0.388864169924305,0.375794999999925,
0.210450325927734,0.206380183105469,0.0265277543945324,0.295949052059561,0.378811000000496,
0.138624276123047,0.170467158203125,-0.095576530273437,0.239605123266589,0.38174700000036,
0.148201082763672,0.113006318359375,-0.0189620771484371,0.187332723492849,0.3847480000004,
0.152989486083984,0.168072956542969,0.0193451494140628,0.228097646588448,0.387698999999884,
0.045250411376953,0.326090266113281,-0.0524809003906235,0.333371723890051,0.390610000000379,
0.121864864501953,0.271023627929688,0.0456813676757815,0.300652023856449,0.393632999999681,
0.133835872802734,0.132159931640625,-0.0405098920898439,0.192404105302499,0.396555999999691,
0.112288057861328,0.132159931640625,-0.0405098920898439,0.178089603364864,0.399610000000393,
0.143412679443359,0.124977326660156,0.0121625444335951,0.190615991698866,0.402657000000545,
0.112288057861328,0.268629426269531,-0.0285388837890626,0.292548875376564,0.405651000000034,
0.109893856201172,0.359609089355469,0.0193451494140628,0.376523029287301,0.408774000000449,
0.210450325927734,0.189620771484375,0.0073741411132815,0.283372113339647,0.411739000000125,
0.045250411376953,0.122583125,-0.100364933593749,0.164764505157594,0.414737000000059,
0.0572214196777342,0.113006318359375,-0.00699106884765577,0.126860529333235,0.417682000000241,
0.162566292724609,0.223139594726563,-0.0452982954101557,0.279769572741611,0.42062900000019,
0.133835872802734,0.350032282714844,0.0121625444335951,0.374943418769463,0.423662000000149,
0.196085115966797,0.208774384765625,0.0744117875976578,0.295927745524911,0.426596000000245,
0.126653267822265,0.148919343261719,0.00258573779296967,0.19551139886844,0.429603999999927,
0.0548272180175779,0.101035310058594,-0.00699106884765577,0.115165241100845,0.432552000000214,
0.105105452880859,0.182438166503906,-0.0189620771484371,0.211401043498798,0.43550200000027,
0.17453730102539,0.266235224609375,0.0432871660156255,0.321275960840049,0.438516000000163,
0.162566292724609,0.263841022949219,0.0552581743164069,0.314790963577254,0.441490000000158,
0.15538368774414,0.21835119140625,0.0768059892578137,0.278783954329098,0.444532999999865,
0.0859518395996092,0.194409174804688,-0.0357214887695303,0.215542735295598,0.447481000000153,
0.102711251220703,0.203985981445313,0.0193451494140628,0.229203221092947,0.450402999999824,
0.13623007446289,0.235110603027344,0.00976834277343741,0.27190264685101,0.453416000000288,
0.160172091064453,0.251870014648437,0.000191536132813752,0.298485577073757,0.456342999999833,
0.160172091064453,0.2375048046875,0.052863972656251,0.291304360781997,0.459364000000278,
0.114682259521484,0.201591779785156,-0.0189620771484371,0.232703301858146,0.462298999999803,
0.0787692346191404,0.156101948242188,-0.00938527050781168,0.175101381690712,0.465299000000414,
0.0859518395996092,0.206380183105469,-0.0237504804687489,0.224821226826339,0.468238999999812,
0.138624276123047,0.230322199707031,0.0624407792968764,0.275978000079219,0.471177999999782,
0.157777889404297,0.261446821289062,0.0121625444335951,0.30560796821112,0.474181000000499,
0.138624276123047,0.172861359863281,0.00258573779296967,0.221595184298656,0.477133000000322,
0.0715866296386717,0.187226569824219,0.0289219560546883,0.20252139031025,0.480129999999917,
0.102711251220703,0.201591779785156,-0.0620577070312489,0.234606065152301,0.483062000000245,
0.119470662841797,0.172861359863281,0.0289219560546883,0.212110274516984,0.485996000000341,
0.13623007446289,0.21835119140625,0.0432871660156255,0.260978264838967,0.489008999999896,
0.119470662841797,0.203985981445313,-0.0117794721679676,0.236690253011444,0.491939999999886,
0.102711251220703,0.239899006347656,-0.0237504804687489,0.262040492474754,0.494953000000351,
0.119470662841797,0.1608903515625,-0.0524809003906235,0.207154988864796,0.497906000000512,
0.129047469482422,0.21835119140625,0.0432871660156255,0.257301906153083,0.500839999999698,
0.121864864501953,0.211168586425781,0.0073741411132815,0.24392128863693,0.503842000000077,
0.138624276123047,0.215956989746094,0.0241335527343765,0.257752865587206,0.506787999999688,
0.138624276123047,0.172861359863281,0.052863972656251,0.227798900939891,0.509794000000511,
0.117076461181641,0.189620771484375,-0.00459686718749985,0.222899228193113,0.512730999999803,
0.124259066162109,0.215956989746094,-0.0261446821289049,0.250522017689654,0.515658000000258,
0.131441671142578,0.220745393066406,0.014556746093751,0.257327301951491,0.518681999999899,
0.107499654541016,0.211168586425781,0.0265277543945324,0.238436719849768,0.521622000000207,
0.150595284423828,0.196803376464844,0.00258573779296967,0.247824927556916,0.524634000000333,
0.109893856201172,0.211168586425781,0.00258573779296967,0.23806620416128,0.527576000000408,
0.102711251220703,0.189620771484375,0.0337103593750001,0.218270534967145,0.530504000000292,
0.112288057861328,0.203985981445313,0.0337103593750001,0.23527702160149,0.533511999999973,
0.117076461181641,0.244687409667969,0.0217393510742188,0.272123915887532,0.536463000000367,
0.129047469482422,0.208774384765625,0.00258573779296967,0.245451989509182,0.539549000000079,
0.145806881103515,0.223139594726563,-0.00459686718749985,0.266593429213491,0.542582000000039,
0.100317049560547,0.201591779785156,-0.0165678754882812,0.225781422193402,0.545600000000377,
0.129047469482422,0.187226569824219,-0.00699106884765577,0.227499259057238,0.548671999999897,
0.105105452880859,0.249475812988281,-0.0644519086914048,0.27827933093462,0.551617000000078,
0.129047469482422,0.194409174804688,-0.0117794721679676,0.233638465567235,0.554629000000205,
0.117076461181641,0.21835119140625,0.0073741411132815,0.247867945705982,0.557601000000432,
0.131441671142578,0.225533796386719,0.0408929643554696,0.264224602864944,0.560626000000411,
0.143412679443359,0.242293208007813,0.0456813676757815,0.285236713318203,0.563562000000275,
0.112288057861328,0.18004396484375,0.0361045610351578,0.215239347105653,0.56650400000035,
0.100317049560547,0.21835119140625,-0.00220266552734216,0.2403031521984,0.569526999999653,
0.119470662841797,0.242293208007813,0.0265277543945324,0.271446052982525,0.572494000000006,
0.117076461181641,0.184832368164063,0.0169509477539069,0.21944757167421,0.575515000000451,
0.121864864501953,0.206380183105469,0.0432871660156255,0.243552055873874,0.578465999999935,
0.13623007446289,0.170467158203125,0.0863827958984373,0.234690589162082,0.581420999999864,
0.0428562097167967,0.366791694335938,-0.0405098920898439,0.371502157601068,0.584448000000521,
0.100317049560547,0.318907661132813,-0.296689469726562,0.446979024349424,0.587391000000025,
0.0931344445800779,0.225533796386719,0.593953547851564,0.642121744753521,0.590417999999772,
0.390015450439453,-0.195845695800781,0.797460688964845,0.909071580564186,0.593380000000252,
0.114682259521484,0.000478840332031241,-0.938335514648436,0.945317823796612,0.596298999999817,
-0.0313640417480471,0.821690009765625,-0.955094926269531,1.26030333390387,0.599294999999984,
0.0237025964355467,0.764229169921875,1.412770515625,1.6064023677325,0.602249000000484,
0.145806881103515,0.244687409667969,0.014556746093751,0.285207773182978,0.605255000000398,
0.208056124267578,-0.205422502441406,-0.718068961914062,0.775312059379237,0.608212000000094,
0.243969149169922,-0.169509477539063,0.25158271044922,0.389292009832257,0.611176000000341,
0.105105452880859,0.124977326660156,0.25158271044922,0.299933907055181,0.614188000000468,
0.035673604736328,0.546356818847656,-0.337390897949218,0.643125957799243,0.61711699999978,
0.126653267822265,0.424252534179688,0.335379768554688,0.555437532188582,0.620141000000331,
0.160172091064453,0.282994636230469,0.11750741748047,0.345758667359336,0.623078999999962,
0.188902510986328,0.0483628735351562,-0.167402580078125,0.256995622550911,0.625989000000118,
0.164960494384765,0.036391865234375,0.0672291826171882,0.18181335363025,0.629004999999779,
0.0907402429199217,0.249475812988281,0.0408929643554696,0.26859673766654,0.631948000000193,
0.100317049560547,0.261446821289062,0.0744117875976578,0.289750004190107,0.634955999999875,
0.107499654541016,0.29496564453125,0.0504697709960951,0.317975006823762,0.637918999999783,
0.114682259521484,0.213562788085938,0.00258573779296967,0.242420649169839,0.640833999999813,
0.200873519287109,0.146525141601563,-0.0405098920898439,0.25191434899441,0.643837000000531,
0.138624276123047,0.0866701000976562,0.00497993945312558,0.163564042437613,0.64678400000048,
0.107499654541016,0.211168586425781,-0.0309330854492185,0.238966950423922,0.649787999999717,
0.150595284423828,0.287783039550781,0.0265277543945324,0.325886083312861,0.652739000000111,
0.114682259521484,0.259052619628906,-0.0357214887695303,0.285545627081669,0.655722999999853,
0.138624276123047,0.2375048046875,0.00497993945312558,0.275045490741519,0.658683999999994,
0.188902510986328,0.187226569824219,-0.00459686718749985,0.266005786202147,0.661603999999897,
0.126653267822265,0.117794721679687,-0.0309330854492185,0.175708572588426,0.664614000000256,
0.0572214196777342,0.199197578125,0.000191536132813752,0.207253474486897,0.667567999999847,
0.145806881103515,0.278206232910156,0.052863972656251,0.318516803657508,0.670564000000013,
0.164960494384765,0.25665841796875,0.0289219560546883,0.306466943998724,0.673499999999876,
0.117076461181641,0.268629426269531,0.0624407792968764,0.299612278353066,0.676449999999932,
0.133835872802734,0.156101948242188,0.0169509477539069,0.206318185634791,0.679572000000007,
0.138624276123047,0.194409174804688,0.0337103593750001,0.241138975505972,0.682601000000432,
0.148201082763672,0.196803376464844,0.0408929643554696,0.249734588021094,0.685699999999997,
0.102711251220703,0.232716401367187,0.0073741411132815,0.254481634995091,0.688656999999694,
0.0955286462402342,0.230322199707031,-0.0237504804687489,0.250475793746369,0.691582000000381,
0.160172091064453,0.215956989746094,0.0552581743164069,0.274492233050293,0.694594999999936,
0.152989486083984,0.18004396484375,0.0456813676757815,0.24064164120457,0.697565000000395,
0.145806881103515,0.192014973144531,0.00976834277343741,0.241298191061121,0.700595000000249,
0.0907402429199217,0.242293208007813,-0.0261446821289049,0.260044870619486,0.703537999999753,
0.131441671142578,0.225533796386719,0.00497993945312558,0.261088502279048,0.706471999999849,
0.119470662841797,0.263841022949219,0.00976834277343741,0.289794315319138,0.709491999999955,
0.162566292724609,0.196803376464844,0.014556746093751,0.255678054152139,0.712461000000076,
0.129047469482422,0.189620771484375,0.000191536132813752,0.229367223125355,0.715479999999843,
0.13623007446289,0.203985981445313,-0.0285388837890626,0.246948135652606,0.718445000000429,
0.143412679443359,0.206380183105469,0.0672291826171882,0.260153300188842,0.721403000000464,
0.112288057861328,0.359609089355469,0.0313161577148442,0.378031753718334,0.724417999999787,
0.145806881103515,0.225533796386719,0.0265277543945324,0.269868230147524,0.727359999999862,
0.148201082763672,0.170467158203125,0.0289219560546883,0.227725915302153,0.730376999999862,
0.164960494384765,-0.00909796630859376,0.196516072265625,0.256735864961106,0.733342000000448,
0.169748897705078,0.172861359863281,-0.0189620771484371,0.243012959275128,0.736257000000478,
0.0715866296386717,0.33327287109375,-0.0333272871093744,0.342499868928685,0.739260999999715,
0.0500388146972655,0.395522114257813,0.0576523759765628,0.402821824506841,0.742204000000129,
0.141018477783203,0.278206232910156,-0.00699106884765577,0.311983644042415,0.74521199999981,
0.152989486083984,0.0244208569335937,0.0839885942382814,0.176227821491771,0.748177000000396,
0.138624276123047,0.036391865234375,-0.100364933593749,0.174969076356804,0.751164999999673,
0.145806881103515,0.172861359863281,-0.0117794721679676,0.226449668305064,0.754120999999941,
0.0404620080566405,0.381156904296875,0.112719014160158,0.399528892500143,0.757059000000481,
0.133835872802734,0.345243879394531,0.00976834277343741,0.370406260245146,0.760060999999951,
0.126653267822265,0.175255561523438,0.000191536132813752,0.216230429822086,0.763009000000238,
0.141018477783203,0.110612116699219,-0.0309330854492185,0.181873877212705,0.765996000000086,
0.0955286462402342,0.0986411083984375,-0.0452982954101557,0.144595041704859,0.768944000000374,
0.13623007446289,0.187226569824219,-0.0357214887695303,0.234282834190257,0.771862999999939,
0.0859518395996092,0.350032282714844,0.0361045610351578,0.362234533142083,0.77489500000047,
0.198479317626953,0.29496564453125,0.127084224121095,0.377556844726536,0.777829999999994,
0.138624276123047,0.201591779785156,-0.0836055219726557,0.258545583818223,0.780835000000479,
0.13623007446289,0.115400520019531,-0.0189620771484371,0.179542400503965,0.783779999999751,
0.121864864501953,0.156101948242188,0.0313161577148442,0.200498292209951,0.786713000000418,
0.131441671142578,0.251870014648437,-0.0452982954101557,0.287693157302748,0.789695999999822,
0.121864864501953,0.304542451171875,-0.00699106884765577,0.328094536390788,0.792658000000301,
0.141018477783203,0.242293208007813,0.00258573779296967,0.280354946029034,0.795673999999963,
0.119470662841797,0.170467158203125,-0.0405098920898439,0.212069193101776,0.798614000000271,
0.138624276123047,0.14173673828125,0.0384987626953137,0.201960757669198,0.801540000000386,
0.109893856201172,0.189620771484375,-0.0309330854492185,0.221335836195818,0.804560000000492,
0.102711251220703,0.235110603027344,0.0169509477539069,0.257126294674347,0.807512999999744,
0.181719906005859,0.189620771484375,-0.00459686718749985,0.262677163843847,0.81052499999987,
0.150595284423828,0.172861359863281,-0.0285388837890626,0.231029126545555,0.813468999999714,
0.126653267822265,0.223139594726563,-0.00938527050781168,0.256749707472663,0.81647299999986,
0.119470662841797,0.25665841796875,-0.0381156904296862,0.285656417136061,0.819553999999698,
0.13623007446289,0.213562788085938,0.0384987626953137,0.256222271421268,0.822616999999809,
0.176931502685547,0.203985981445313,0.0576523759765628,0.276113805747768,0.82569599999988,
0.157777889404297,0.144130939941406,-0.0357214887695303,0.216664752539908,0.828620999999657,
0.105105452880859,0.148919343261719,-0.0381156904296862,0.186217434413977,0.831552999999985,
0.119470662841797,0.242293208007813,-0.00699106884765577,0.27023714209969,0.834577999999965,
0.126653267822265,0.242293208007813,0.00497993945312558,0.27344441609536,0.837555000000066,
0.145806881103515,0.239899006347656,-0.0165678754882812,0.281221752931602,0.840551000000232,
0.145806881103515,0.144130939941406,0.0169509477539069,0.205719977287777,0.843504000000394,
0.114682259521484,0.148919343261719,-0.0859997236328116,0.20670013040967,0.846528000000035,
0.133835872802734,0.187226569824219,0.0600465776367187,0.23784747377867,0.84948600000007,
0.105105452880859,0.254264216308594,-0.0548751020507812,0.280550752530442,0.852405999999974,
0.160172091064453,0.249475812988281,-0.0429040937499998,0.299556407513897,0.855435999999827,
0.138624276123047,0.156101948242188,-0.0237504804687489,0.21011566695071,0.858428999999887,
0.138624276123047,0.115400520019531,0.0193451494140628,0.181406187207794,0.861453999999867,
0.112288057861328,0.215956989746094,-0.0692403120117184,0.253061751685124,0.864400000000387,
0.112288057861328,0.254264216308594,-0.0357214887695303,0.280240832844188,0.867323000000397,
0.107499654541016,0.290177241210938,0.00258573779296967,0.309460325539741,0.870359999999891,
0.164960494384765,0.220745393066406,-0.00699106884765577,0.275661691773342,0.873295000000326,
0.143412679443359,0.177649763183594,0.0384987626953137,0.231535720167279,0.876318000000538,
0.102711251220703,0.192014973144531,-0.00459686718749985,0.217808361242072,0.879243000000315,
0.0859518395996092,0.213562788085938,-0.0524809003906235,0.236116556156925,0.882180999999946,
0.133835872802734,0.247081611328125,0.0073741411132815,0.281097387861451,0.885193000000072,
0.145806881103515,0.213562788085938,-0.0117794721679676,0.25885800547159,0.888149999999769,
0.167354696044922,0.175255561523438,-0.0357214887695303,0.244945158950111,0.891160000000127,
0.138624276123047,0.153707746582031,0.0121625444335951,0.207341960965608,0.894115000000056,
0.0835576379394529,0.192014973144531,0.052863972656251,0.215977379312549,0.897033000000192,
0.138624276123047,0.261446821289062,-0.0141736738281235,0.296263435682805,0.900024000000485,
0.138624276123047,0.230322199707031,0.0361045610351578,0.271235220677673,0.902987999999823,
0.13623007446289,0.196803376464844,-0.0405098920898439,0.242757602421136,0.905988000000434,
0.124259066162109,0.211168586425781,-0.0237504804687489,0.246163711255413,0.908916999999747,
0.124259066162109,0.21835119140625,0.0265277543945324,0.252628739586819,0.911866999999802,
0.148201082763672,0.213562788085938,0.0337103593750001,0.262124042614476,0.91487700000016,
0.121864864501953,0.227927998046875,-0.0165678754882812,0.258991721859852,0.917817999999897,
0.13623007446289,0.251870014648437,-0.0620577070312489,0.292998799432942,0.920812999999725,
0.145806881103515,0.21835119140625,-0.0141736738281235,0.262940644244,0.923776000000544,
0.129047469482422,0.227927998046875,-0.0189620771484371,0.262609942773034,0.926692000000003,
0.133835872802734,0.208774384765625,0.0959596025390628,0.265907935012458,0.929707000000235,
0.143412679443359,0.187226569824219,-0.0309330854492185,0.237860969578187,0.932638999999654,
0.129047469482422,0.225533796386719,0.0313161577148442,0.261723985195174,0.935661000000437,
0.124259066162109,0.227927998046875,0.0408929643554696,0.262799776162221,0.93860500000028,
0.150595284423828,0.187226569824219,0.0696233842773442,0.250160236202853,0.941601000000446,
0.157777889404297,0.242293208007813,-0.00938527050781168,0.289288686840838,0.944535999999971,
0.0739808312988279,0.244687409667969,0.0983538041992187,0.273895167263215,0.947476000000279,
0.138624276123047,0.211168586425781,-0.0165678754882812,0.253146906601476,0.950475999999981,
0.145806881103515,0.213562788085938,0.0624407792968764,0.266021732103554,0.953457999999955,
0.129047469482422,0.232716401367187,0.0073741411132815,0.266203964662942,0.956548000000112,
0.117076461181641,0.213562788085938,0.0313161577148442,0.245553790343127,0.959589000000051,
0.191296712646484,0.194409174804688,0.052863972656251,0.277820012098826,0.962602999999945,
0.133835872802734,0.220745393066406,0.0265277543945324,0.259507786322739,0.965645000000222,
0.117076461181641,0.251870014648437,-0.0452982954101557,0.281420215352213,0.968568999999661,
0.152989486083984,0.227927998046875,0.0361045610351578,0.276876316201728,0.971604000000298,
0.157777889404297,0.249475812988281,0.00497993945312558,0.295223378898073,0.974567000000206,
0.138624276123047,0.225533796386719,0.0241335527343765,0.265828161809142,0.977520999999797,
0.15538368774414,0.21835119140625,0.0384987626953137,0.270746168827128,0.980526999999711,
0.152989486083984,0.194409174804688,0.0313161577148442,0.249362009605517,0.983476999999766,
0.148201082763672,0.244687409667969,-0.00699106884765577,0.286154441562555,0.986496000000443,
0.129047469482422,0.21835119140625,-0.0261446821289049,0.254978502176099,0.989462999999887,
0.186508309326172,0.213562788085938,-0.0309330854492185,0.285221439723866,0.992404000000533,
0.157777889404297,0.213562788085938,-0.00220266552734216,0.265533008447799,0.995449000000008,
0.143412679443359,0.254264216308594,0.0217393510742188,0.292728692999636,0.998419000000467,
0.124259066162109,0.220745393066406,0.0624407792968764,0.260897863162432,1.00145900000007,
0.138624276123047,0.223139594726563,0.0265277543945324,0.264029715029559,1.00439199999983,
0.100317049560547,0.192014973144531,0.0193451494140628,0.217502862395143,1.00733099999979,
0.0979228479003904,0.192014973144531,0.0552581743164069,0.222513145412581,1.01033800000005,
0.126653267822265,0.208774384765625,-0.0261446821289049,0.245583668813594,1.01327899999978,
