X,Y,Z,Magnitude,Seconds,
0.124259066162109,0.187226569824219,0.0241335527343765,0.226001177738536,0.0,
0.121864864501953,0.232716401367187,-0.0716345136718743,0.272285644524972,0.00372700000025361,
0.114682259521484,0.213562788085938,0.0384987626953137,0.24544498331207,0.00746500000059314,
0.102711251220703,0.208774384765625,0.0552581743164069,0.239143912091381,0.0113890000002357,
0.126653267822265,0.215956989746094,-0.0788171186523439,0.262470207572042,0.0153479999999035,
0.129047469482422,0.203985981445313,0.014556746093751,0.241816932539601,0.0191670000003796,
0.13623007446289,0.225533796386719,-0.0261446821289049,0.264778531804208,0.0229360000002998,
0.0883460412597654,0.194409174804688,0.0241335527343765,0.214900857657885,0.02670500000022,
0.131441671142578,0.211168586425781,-0.0500866987304676,0.253727732413177,0.0305299999999988,
0.121864864501953,0.225533796386719,0.0313161577148442,0.258258088443917,0.0343750000001819,
0.129047469482422,0.227927998046875,0.0217393510742188,0.262825076921136,0.0381390000002284,
0.179325704345703,0.196803376464844,-0.0141736738281235,0.266627399673836,0.0420050000002448,
0.119470662841797,0.213562788085938,-0.0189620771484371,0.245442180777226,0.0458370000005743,
0.152989486083984,0.189620771484375,0.0337103593750001,0.245963835064757,0.0496360000006462,
0.157777889404297,0.184832368164063,0.0361045610351578,0.245683548561053,0.0533830000003945,
0.145806881103515,0.247081611328125,-0.00699106884765577,0.286980564284883,0.0571340000005875,
0.100317049560547,0.223139594726563,0.0456813676757815,0.248880647138338,0.0608890000003157,
0.148201082763672,0.213562788085938,0.1103248125,0.282390137293291,0.0647100000005594,
0.13623007446289,0.18004396484375,0.0600465776367187,0.233623744406909,0.0684460000002218,
0.133835872802734,0.196803376464844,0.0384987626953137,0.241092854655427,0.0721739999999045,
0.107499654541016,0.170467158203125,-0.0452982954101557,0.206560313998969,0.0758890000006431,
0.150595284423828,0.177649763183594,0.0408929643554696,0.236454250508758,0.079688000000715,
0.0955286462402342,0.182438166503906,-0.0668461103515625,0.216512838693072,0.0836540000000241,
0.162566292724609,0.208774384765625,0.014556746093751,0.265002720969666,0.0875670000004902,
0.114682259521484,0.196803376464844,0.0217393510742188,0.228814748261654,0.091417000000547,
0.148201082763672,0.184832368164063,-0.00459686718749985,0.236955051521169,0.0951970000005531,
0.13623007446289,0.208774384765625,0.014556746093751,0.249714388410576,0.0990460000002713,
0.162566292724609,0.199197578125,0.0169509477539069,0.257671902408556,0.102917000000161,
0.143412679443359,0.187226569824219,-0.0237504804687489,0.237033901363841,0.106740000000173,
0.129047469482422,0.21835119140625,-0.0141736738281235,0.254030284017736,0.110569000000396,
0.152989486083984,0.244687409667969,-0.0309330854492185,0.290231919467295,0.114501000000018,
0.114682259521484,0.196803376464844,0.0289219560546883,0.229608512862536,0.118355999999949,
0.172143099365234,0.232716401367187,-0.00220266552734216,0.289473698044897,0.122119999999995,
0.126653267822265,0.213562788085938,0.0169509477539069,0.248872355505495,0.125906000000214,
0.114682259521484,0.232716401367187,-0.00220266552734216,0.259449023605163,0.129650000000765,
0.15538368774414,0.213562788085938,-0.0261446821289049,0.265399132017475,0.133401000000049,
0.114682259521484,0.203985981445313,-0.00220266552734216,0.234023830005805,0.137208000000101,
0.148201082763672,0.232716401367187,-0.021356278808593,0.276724727919586,0.140963000000738,
0.15538368774414,0.25665841796875,0.0217393510742188,0.300815945914305,0.144669000000249,
0.148201082763672,0.199197578125,0.0384987626953137,0.251247668232484,0.148388999999952,
0.15538368774414,0.201591779785156,0.000191536132813752,0.254525780187402,0.15223800000058,
0.126653267822265,0.208774384765625,0.0265277543945324,0.245624745776032,0.156194000000141,
0.169748897705078,0.203985981445313,0.00976834277343741,0.26555675366828,0.159954000000653,
0.169748897705078,0.206380183105469,0.0432871660156255,0.270705092291224,0.163846000000376,
0.126653267822265,0.21835119140625,0.052863972656251,0.257900935716775,0.167602000000443,
0.131441671142578,0.1608903515625,0.0313161577148442,0.21010311723694,0.171393000000535,
0.141018477783203,0.192014973144531,0.0265277543945324,0.239707494128163,0.17518999999993,
0.126653267822265,0.223139594726563,0.0313161577148442,0.258482167119541,0.17893499999991,
0.131441671142578,0.192014973144531,0.0193451494140628,0.23349710411545,0.182654000000184,
0.121864864501953,0.220745393066406,0.0241335527343765,0.25330219526823,0.186477000000195,
0.15538368774414,0.196803376464844,0.0169509477539069,0.251322490109197,0.190206000000217,
0.117076461181641,0.223139594726563,-0.0381156904296862,0.254854826037261,0.19390199999998,
0.133835872802734,0.203985981445313,0.0504697709960951,0.249137550881988,0.197642000000087,
0.112288057861328,0.189620771484375,0.0313161577148442,0.222587840302698,0.201378000000659,
0.117076461181641,0.182438166503906,0.0384987626953137,0.220165249504079,0.205096000000594,
0.148201082763672,0.223139594726563,0.0241335527343765,0.268955884922867,0.208899000000201,
0.133835872802734,0.192014973144531,0.00497993945312558,0.234108074524399,0.21263799999997,
0.107499654541016,0.199197578125,0.0361045610351578,0.229214725061119,0.216364000000794,
0.13623007446289,0.2375048046875,-0.00220266552734216,0.273810184568138,0.22007400000075,
0.117076461181641,0.213562788085938,0.0361045610351578,0.246210279122129,0.224058000000696,
0.138624276123047,0.220745393066406,-0.00699106884765577,0.260756770831197,0.227907000000414,
0.13623007446289,0.189620771484375,-0.0165678754882812,0.234070853941044,0.231722000000445,
0.143412679443359,0.213562788085938,0.0672291826171882,0.265887239399596,0.23551100000077,
0.141018477783203,0.194409174804688,-0.0668461103515625,0.249298096249579,0.239266000000498,
0.119470662841797,0.215956989746094,0.0073741411132815,0.246910993390759,0.24310400000013,
0.102711251220703,0.211168586425781,0.00976834277343741,0.235025942272176,0.246907000000647,
0.160172091064453,0.227927998046875,0.0265277543945324,0.279839226704964,0.250674000000799,
0.0955286462402342,0.227927998046875,0.0504697709960951,0.252238165888008,0.25452100000075,
0.13623007446289,0.235110603027344,-0.0117794721679676,0.271982324441501,0.258327000000463,
0.15538368774414,0.225533796386719,0.0073741411132815,0.273978031394368,0.262114000000111,
0.131441671142578,0.192014973144531,0.0073741411132815,0.232811169795625,0.265851000000112,
0.17453730102539,0.235110603027344,-0.0117794721679676,0.293051226016314,0.26961300000039,
0.102711251220703,0.170467158203125,0.0073741411132815,0.199155796075159,0.273385000000417,
0.133835872802734,0.170467158203125,-0.0285388837890626,0.218599086829393,0.277129000000059,
0.117076461181641,0.211168586425781,0.0121625444335951,0.24175813769753,0.280985000000328,
0.169748897705078,0.213562788085938,-0.00938527050781168,0.272968562346716,0.284711000000243,
0.167354696044922,0.163284553222656,0.0337103593750001,0.236232571713983,0.288446999999906,
0.0715866296386717,0.1608903515625,0.0217393510742188,0.177434354492182,0.292261999999937,
0.121864864501953,0.376368500976563,-0.3110546796875,0.503248753086301,0.296234000000368,
0.188902510986328,0.158496149902344,0.790278083984376,0.827855445241995,0.300063000000591,
0.0907402429199217,-0.480755693359375,-0.86650946484375,0.995087172586614,0.303985000000466,
-0.287543619384766,0.979707319335938,-0.296689469726562,1.06326497452701,0.306959000000461,
0.277487972412109,0.692403120117188,1.00096783007813,1.24834220165494,0.309899000000769,
0.397198055419922,-0.124019645996094,0.0863827958984373,0.424981358708349,0.312940000000708,
0.0644040246582029,-0.0545877978515625,-0.727645768554687,0.732527180766693,0.315907000000152,
0.0284909997558592,0.0148440502929687,0.141449434082032,0.145051802120193,0.318976999999904,
-0.0193930334472658,0.342849677734375,0.476637666503906,0.587456769813014,0.321926000000531,
0.167354696044922,0.4673481640625,-0.351756107910155,0.608403040913652,0.324851000000308,
0.279882174072265,0.220745393066406,0.0624407792968764,0.36188590859919,0.327878000000055,
0.148201082763672,0.115400520019531,0.208487080566407,0.28062021259383,0.330821000000469,
0.0763750329589842,0.074699091796875,-0.181767790039062,0.210837922277869,0.333813000000191,
0.0739808312988279,0.132159931640625,0.00497993945312558,0.151539469208115,0.336764000000585,
0.0811634362792967,0.354820686035156,0.0839885942382814,0.373549603920611,0.339694000000236,
0.299035787353515,0.2375048046875,-0.0261446821289049,0.382772097691833,0.34268400000019,
0.210450325927734,0.117794721679687,0.0241335527343765,0.242378556201384,0.345629000000372,
0.0021547814941405,0.208774384765625,0.0839885942382814,0.225045486023771,0.348638000000392,
0.0763750329589842,0.199197578125,-0.0165678754882812,0.213979707655999,0.351563000000169,
0.0859518395996092,0.208774384765625,-0.0333272871093744,0.228221757356508,0.354479999999967,
0.169748897705078,0.266235224609375,0.088776997558595,0.327989692506353,0.357488000000558,
0.205661922607422,0.182438166503906,0.0121625444335951,0.275188005725154,0.360431000000062,
0.129047469482422,0.175255561523438,-0.0452982954101557,0.222305413320903,0.363427000000229,
0.0428562097167967,0.2375048046875,0.00976834277343741,0.241538004217715,0.366369000000304,
0.145806881103515,0.203985981445313,0.0193451494140628,0.251483919981367,0.369368000000577,
0.152989486083984,0.203985981445313,-0.0237504804687489,0.256086213609685,0.372295000000122,
0.215238729248047,0.199197578125,-0.00459686718749985,0.293306182831387,0.375218000000132,
0.0835576379394529,0.203985981445313,0.00258573779296967,0.220451458430563,0.378224000000046,
0.102711251220703,0.242293208007813,-0.0333272871093744,0.26526648457751,0.381162000000586,
0.150595284423828,0.184832368164063,0.0193451494140628,0.239199035988195,0.38416000000052,
0.186508309326172,0.175255561523438,-0.0285388837890626,0.257515687251336,0.387086000000636,
0.150595284423828,0.203985981445313,0.00976834277343741,0.253741287214833,0.390011000000413,
0.167354696044922,0.194409174804688,0.014556746093751,0.256932715692972,0.393013000000792,
0.0835576379394529,0.254264216308594,-0.0141736738281235,0.268016909136028,0.395929000000251,
0.148201082763672,0.232716401367187,0.0121625444335951,0.276167362091754,0.398959000000104,
0.124259066162109,0.182438166503906,-0.021356278808593,0.221765846706243,0.401888000000326,
0.13623007446289,0.182438166503906,-0.00699106884765577,0.22779638458304,0.404817000000548,
0.167354696044922,0.184832368164063,0.0456813676757815,0.253490406055443,0.407831000000442,
0.119470662841797,0.268629426269531,0.0193451494140628,0.29463408279357,0.410757000000558,
0.0955286462402342,0.211168586425781,0.00258573779296967,0.231785634122325,0.413806999999906,
0.129047469482422,0.165678754882813,0.0217393510742188,0.211128630423407,0.416858999999931,
0.148201082763672,0.18004396484375,-0.0788171186523439,0.246153465142459,0.419871000000057,
0.100317049560547,0.206380183105469,0.0073741411132815,0.229588040560345,0.422994000000472,
0.126653267822265,0.227927998046875,0.0241335527343765,0.261867620967728,0.425950000000739,
0.143412679443359,0.232716401367187,-0.021356278808593,0.274190099629742,0.428947000000335,
0.102711251220703,0.189620771484375,-0.0357214887695303,0.218590171017737,0.431888000000072,
0.117076461181641,0.158496149902344,-0.0620577070312489,0.206589172752733,0.434836000000359,
0.138624276123047,0.239899006347656,-0.0309330854492185,0.278792178786709,0.437860000000001,
0.169748897705078,0.232716401367187,-0.0237504804687489,0.289025426320729,0.44080699999995,
0.126653267822265,0.2375048046875,-0.0117794721679676,0.269422230827862,0.443819000000076,
0.13623007446289,0.177649763183594,-0.00459686718749985,0.223917848183862,0.446777000000111,
0.150595284423828,0.146525141601563,-0.0189620771484371,0.210969469786116,0.449693999999909,
0.160172091064453,0.206380183105469,0.0361045610351578,0.263726028412342,0.452721999999994,
0.13623007446289,0.175255561523438,0.000191536132813752,0.221975633165332,0.455684999999903,
0.17453730102539,0.220745393066406,-0.00220266552734216,0.281418993219533,0.458716000000095,
0.176931502685547,0.201591779785156,-0.0189620771484371,0.268893218005393,0.461654000000635,
0.13623007446289,0.163284553222656,0.000191536132813752,0.212651158462345,0.464658000000782,
0.133835872802734,0.225533796386719,-0.00220266552734216,0.262263962253492,0.4675900000002,
0.13623007446289,0.251870014648437,0.00976834277343741,0.286517988942594,0.470509000000675,
0.15538368774414,0.203985981445313,0.00497993945312558,0.256474503294446,0.473516000000018,
0.141018477783203,0.196803376464844,0.0337103593750001,0.244446657562435,0.476457000000664,
0.133835872802734,0.208774384765625,0.0241335527343765,0.249161018120247,0.479440000000068,
0.133835872802734,0.165678754882813,-0.00220266552734216,0.212993761419939,0.482362000000649,
0.126653267822265,0.213562788085938,-0.021356278808593,0.24921116618171,0.48528400000032,
0.138624276123047,0.232716401367187,-0.0381156904296862,0.273544181537214,0.488296000000446,
0.0979228479003904,0.199197578125,-0.0357214887695303,0.224821226826339,0.491234000000077,
0.126653267822265,0.170467158203125,-0.0189620771484371,0.213212716894868,0.494245000000774,
0.121864864501953,0.206380183105469,0.0384987626953137,0.242746740261937,0.49718699999994,
0.0883460412597654,0.223139594726563,0.00258573779296967,0.24000622446291,0.500095000000329,
0.143412679443359,0.220745393066406,-0.00938527050781168,0.263408064583586,0.503093000000263,
0.119470662841797,0.194409174804688,-0.0261446821289049,0.229677406228212,0.506027000000358,
0.143412679443359,0.213562788085938,-0.0333272871093744,0.259397319080659,0.509038000000146,
0.119470662841797,0.18004396484375,-0.0117794721679676,0.216397376419105,0.511996000000181,
0.13623007446289,0.168072956542969,-0.0357214887695303,0.219278764747458,0.514919000000191,
0.143412679443359,0.199197578125,-0.0261446821289049,0.24684087214157,0.517931000000317,
0.124259066162109,0.220745393066406,0.000191536132813752,0.253315772840168,0.520884000000478,
0.121864864501953,0.146525141601563,-0.0476924970703116,0.196456704131569,0.52389200000016,
0.107499654541016,0.208774384765625,-0.0309330854492185,0.236853911169125,0.526832000000468,
0.143412679443359,0.259052619628906,0.0337103593750001,0.298013161942412,0.529762000000119,
0.112288057861328,0.196803376464844,-0.0644519086914048,0.235572123690808,0.532772000000477,
0.0787692346191404,0.249475812988281,0.0361045610351578,0.264095272423023,0.535728000000745,
0.167354696044922,0.21835119140625,0.0241335527343765,0.276165286457947,0.538727000000108,
0.150595284423828,0.225533796386719,-0.0357214887695303,0.273533284561882,0.541658000000098,
0.143412679443359,0.182438166503906,0.0073741411132815,0.23217506149367,0.54457900000034,
0.121864864501953,0.244687409667969,0.0504697709960951,0.277975127366637,0.547571000000062,
0.114682259521484,0.192014973144531,0.0313161577148442,0.22583726949879,0.550500000000284,
0.117076461181641,0.242293208007813,-0.00220266552734216,0.269105459151164,0.553579000000354,
0.141018477783203,0.213562788085938,-0.0117794721679676,0.256191396217529,0.55661500000042,
0.112288057861328,0.192014973144531,-0.00699106884765577,0.222547147574613,0.559723000000304,
0.150595284423828,0.220745393066406,0.0337103593750001,0.269339667668778,0.562738000000536,
0.129047469482422,0.223139594726563,-0.0261446821289049,0.259090857650695,0.56565000000046,
0.112288057861328,0.239899006347656,0.0073741411132815,0.264980224058363,0.568658000000141,
0.150595284423828,0.211168586425781,0.0744117875976578,0.269829994102278,0.571592000000237,
0.119470662841797,0.235110603027344,0.0408929643554696,0.266875381909829,0.574614000000111,
0.117076461181641,0.203985981445313,-0.00459686718749985,0.23524096067004,0.577543000000333,
0.181719906005859,0.220745393066406,0.0073741411132815,0.28601578759918,0.580482000000302,
0.129047469482422,0.220745393066406,0.0313161577148442,0.257609160694801,0.58349300000009,
0.121864864501953,0.278206232910156,-0.0237504804687489,0.304653637025124,0.58641500000067,
0.141018477783203,0.187226569824219,0.0576523759765628,0.241378946845365,0.589459000000716,
0.105105452880859,0.225533796386719,-0.0165678754882812,0.24937350307539,0.592395000000579,
0.157777889404297,0.203985981445313,0.0121625444335951,0.258170622841138,0.595368000000235,
0.121864864501953,0.189620771484375,-0.0285388837890626,0.22720376331904,0.59837300000072,
0.121864864501953,0.244687409667969,-0.021356278808593,0.274188009027839,0.601319000000331,
0.15538368774414,0.213562788085938,-0.0452982954101557,0.267964718646081,0.604328000000351,
0.152989486083984,0.227927998046875,-0.0429040937499998,0.277844770342014,0.607279000000744,
0.141018477783203,0.25665841796875,-0.0141736738281235,0.293190463044587,0.61018200000035,
0.131441671142578,0.189620771484375,0.119901619140625,0.260017976616285,0.613205999999991,
0.17453730102539,0.0387860668945312,0.0217393510742188,0.180111709279277,0.616116000000147,
0.0955286462402342,0.182438166503906,-0.1578257734375,0.259457860954229,0.619136000000253,
0.114682259521484,0.505655390625,-0.0429040937499998,0.520269311008811,0.622056000000157,
0.176931502685547,0.316513459472656,0.25158271044922,0.44133817744094,0.625015000000531,
0.200873519287109,0.00766144531249999,0.0313161577148442,0.203444268115585,0.628019000000677,
0.0907402429199217,0.0507570751953125,-0.215286613281249,0.239078226163862,0.630949000000328,
0.112288057861328,0.261446821289062,0.1103248125,0.305179639808399,0.633961000000454,
0.0883460412597654,0.3141192578125,0.227640693847658,0.397864570715201,0.636908000000403,
0.152989486083984,0.282994636230469,-0.059663505371093,0.327187226004658,0.639823000000433,
0.179325704345703,0.1608903515625,-0.0716345136718743,0.251346209468122,0.642826000000241,
0.126653267822265,0.117794721679687,0.0408929643554696,0.177732611637345,0.645776000000296,
0.126653267822265,0.134554133300781,0.0480755693359374,0.19093749083236,0.648783999999978,
0.0955286462402342,0.266235224609375,-0.00938527050781168,0.283010601175647,0.651716000000306,
0.162566292724609,0.3141192578125,0.00976834277343741,0.353827822788766,0.654731999999967,
0.15538368774414,0.182438166503906,0.0241335527343765,0.240853074262835,0.657667000000401,
0.119470662841797,0.146525141601563,0.00976834277343741,0.189310002170397,0.66058300000077,
0.105105452880859,0.168072956542969,-0.0117794721679676,0.198581043684792,0.663567000000512,
0.124259066162109,0.239899006347656,-0.0261446821289049,0.27143211522164,0.666516000000229,
0.148201082763672,0.266235224609375,0.0504697709960951,0.308855878266105,0.669499999999971,
0.143412679443359,0.192014973144531,0.0456813676757815,0.243974863232975,0.672453000000132,
0.119470662841797,0.146525141601563,0.0073741411132815,0.189201570708001,0.67536999999993,
0.112288057861328,0.196803376464844,-0.0117794721679676,0.226889693222914,0.678368000000773,
0.112288057861328,0.199197578125,0.0672291826171882,0.238344385426864,0.681311000000278,
0.160172091064453,0.21835119140625,0.0241335527343765,0.271872709024042,0.68431099999998,
0.196085115966797,0.232716401367187,0.0552581743164069,0.309289123633193,0.687241999999969,
0.124259066162109,0.196803376464844,0.0073741411132815,0.232865331186506,0.690187000000151,
0.133835872802734,0.199197578125,0.0241335527343765,0.241193168119079,0.693287000000055,
0.0883460412597654,0.201591779785156,0.0121625444335951,0.220436376694769,0.696327000000565,
0.15538368774414,0.235110603027344,0.0456813676757815,0.28549583784283,0.699431000000004,
0.181719906005859,0.201591779785156,0.0384987626953137,0.274123192460608,0.702403000000231,
0.13623007446289,0.170467158203125,0.0576523759765628,0.225702196865154,0.70531100000062,
0.124259066162109,0.192014973144531,0.0241335527343765,0.229983681601016,0.708311000000322,
0.109893856201172,0.259052619628906,0.00976834277343741,0.281567647090183,0.711234000000331,
0.157777889404297,0.203985981445313,0.0504697709960951,0.262776218093419,0.71428300000025,
0.13623007446289,0.196803376464844,0.0361045610351578,0.242061441588017,0.71720600000026,
0.133835872802734,0.213562788085938,0.0432871660156255,0.255724234372836,0.720119999999952,
0.0763750329589842,0.211168586425781,-0.00699106884765577,0.224664622484674,0.723124000000098,
0.150595284423828,0.203985981445313,-0.0476924970703116,0.257999601925473,0.726078000000598,
0.150595284423828,0.261446821289062,0.0169509477539069,0.302193174447412,0.729084999999941,
0.169748897705078,0.192014973144531,0.0217393510742188,0.257210103940168,0.732058999999936,
0.13623007446289,0.194409174804688,0.00258573779296967,0.237403130721434,0.734997000000476,
0.129047469482422,0.199197578125,0.000191536132813752,0.237345657632012,0.738000000000284,
0.181719906005859,0.220745393066406,0.0121625444335951,0.286179279973096,0.740933000000041,
0.117076461181641,0.21835119140625,0.0217393510742188,0.248710152459591,0.743946000000506,
0.129047469482422,0.215956989746094,-0.00699106884765577,0.251673490546072,0.746880000000601,
0.13623007446289,0.235110603027344,-0.0381156904296862,0.274387380724729,0.749883000000409,
0.143412679443359,0.199197578125,0.0121625444335951,0.245753533531236,0.752831000000697,
0.145806881103515,0.235110603027344,-0.0572693037109371,0.282517991251091,0.755747000000156,
0.15538368774414,0.21835119140625,-0.00459686718749985,0.268034446281512,0.758747000000767,
0.191296712646484,0.208774384765625,0.0456813676757815,0.286823923960932,0.761705000000802,
0.121864864501953,0.199197578125,-0.0237504804687489,0.234722827295177,0.764696000000185,
0.157777889404297,0.187226569824219,0.0289219560546883,0.246544378104728,0.767646000000241,
0.121864864501953,0.201591779785156,0.0289219560546883,0.237332615582131,0.770555000000058,
0.179325704345703,0.230322199707031,0.0217393510742188,0.292709110384518,0.77355500000067,
0.131441671142578,0.172861359863281,-0.0165678754882812,0.217789938116369,0.776483000000553,
0.119470662841797,0.206380183105469,-0.0333272871093744,0.240783569465559,0.779500000000553,
0.157777889404297,0.225533796386719,0.0337103593750001,0.27730081865489,0.782438000000184,
0.145806881103515,0.232716401367187,-0.0572693037109371,0.280528685146393,0.785352000000785,
0.124259066162109,0.203985981445313,0.0073741411132815,0.238966470674958,0.788379000000532,
0.117076461181641,0.182438166503906,0.0432871660156255,0.221052846852936,0.791315000000395,
0.126653267822265,0.196803376464844,-0.0405098920898439,0.237515621791815,0.794303000000582,
0.117076461181641,0.239899006347656,-0.0141736738281235,0.267318768587608,0.797246000000086,
0.119470662841797,0.273417829589844,0.0480755693359374,0.302228074778723,0.80016599999999,
0.176931502685547,0.151313544921875,0.0504697709960951,0.238217848415664,0.803169000000707,
0.13623007446289,0.129765729980469,-0.0381156904296862,0.191965058597809,0.806078999999954,
0.119470662841797,0.247081611328125,-0.0405098920898439,0.277423166468649,0.809095000000525,
0.13623007446289,0.304542451171875,0.0792001909179696,0.342895622595829,0.812034999999923,
0.143412679443359,0.215956989746094,-0.00459686718749985,0.259279288091544,0.81495300000006,
0.126653267822265,0.175255561523438,0.00258573779296967,0.216245804895466,0.817961000000651,
0.109893856201172,0.182438166503906,0.0672291826171882,0.223338548449313,0.820907000000261,
0.124259066162109,0.199197578125,0.0456813676757815,0.239179384577925,0.823903000000428,
0.0979228479003904,0.25665841796875,0.0480755693359374,0.278879343125516,0.826837999999952,
0.179325704345703,0.239899006347656,0.0289219560546883,0.300908160453825,0.829838999999993,
0.102711251220703,0.199197578125,-0.0189620771484371,0.22491962259432,0.832938000000468,
0.105105452880859,0.177649763183594,-0.00699106884765577,0.206532006304374,0.835981000000174,
0.119470662841797,0.194409174804688,-0.00699106884765577,0.228291571398794,0.839069000000563,
0.117076461181641,0.247081611328125,0.0361045610351578,0.275789339436571,0.842020000000048,
0.172143099365234,0.2375048046875,-0.00699106884765577,0.293412088967631,0.845006000000467,
0.13623007446289,0.206380183105469,-0.0141736738281235,0.247693976908195,0.84795000000031,
0.152989486083984,0.196803376464844,0.0384987626953137,0.252229075582643,0.850901000000704,
0.141018477783203,0.189620771484375,-0.00938527050781168,0.236495943637784,0.853896000000532,
0.117076461181641,0.225533796386719,0.0073741411132815,0.254217955763515,0.856857000000673,
0.148201082763672,0.249475812988281,-0.0189620771484371,0.290794261580713,0.859846000000289,
0.167354696044922,0.187226569824219,0.00258573779296967,0.251133567601715,0.862813000000642,
0.15538368774414,0.192014973144531,-0.0859997236328116,0.261552657783444,0.865735000000313,
0.112288057861328,0.208774384765625,-0.00699106884765577,0.237158653049318,0.868749000000207,
0.133835872802734,0.220745393066406,-0.0620577070312489,0.265502784186698,0.871728000000076,
0.162566292724609,0.2375048046875,0.0073741411132815,0.287907467317243,0.874765999999909,
0.176931502685547,0.259052619628906,0.0217393510742188,0.314460833434456,0.877690000000257,
0.0907402429199217,0.199197578125,0.0265277543945324,0.220493057870874,0.88062600000012,
0.145806881103515,0.199197578125,0.0384987626953137,0.24984290351553,0.883626000000731,
0.117076461181641,0.201591779785156,0.0289219560546883,0.234909818827976,0.886559000000489,
0.169748897705078,0.211168586425781,-0.0692403120117184,0.279644561850632,0.889543000000231,
0.15538368774414,0.187226569824219,-0.0141736738281235,0.243718632637921,0.892483999999968,
0.150595284423828,0.215956989746094,-0.00459686718749985,0.26332013272598,0.895408000000316,
0.105105452880859,0.232716401367187,-0.021356278808593,0.256242405419429,0.898419000000104,
0.148201082763672,0.220745393066406,-0.0285388837890626,0.267407100467232,0.901369000000159,
0.157777889404297,0.177649763183594,0.0313161577148442,0.239653922308988,0.90438500000073,
0.172143099365234,0.223139594726563,0.0337103593750001,0.283832545214595,0.907315000000381,
0.15538368774414,0.230322199707031,-0.0117794721679676,0.278084810911006,0.910230000000411,
0.114682259521484,0.213562788085938,-0.00459686718749985,0.242450440898613,0.913234000000557,
0.138624276123047,0.21835119140625,-0.00699106884765577,0.258733082080356,0.916183000000274,
0.145806881103515,0.203985981445313,-0.0237504804687489,0.251861097682509,0.919182999999975,
0.131441671142578,0.208774384765625,-0.00938527050781168,0.246884061756776,0.922121999999945,
0.157777889404297,0.196803376464844,-0.021356278808593,0.253143283571553,0.925039000000652,
0.169748897705078,0.184832368164063,-0.0883939252929675,0.26606611701215,0.928049000000101,
0.112288057861328,0.225533796386719,0.0289219560546883,0.25359530909089,0.930989000000409,
0.112288057861328,0.211168586425781,-0.0476924970703116,0.243875693967507,0.933991000000788,
0.133835872802734,0.18004396484375,-0.00220266552734216,0.224349552843219,0.93692800000008,
0.107499654541016,0.230322199707031,-0.0117794721679676,0.254446944113855,0.939932000000226,
0.133835872802734,0.215956989746094,0.0073741411132815,0.254172855014501,0.942884000000049,
0.117076461181641,0.182438166503906,0.0792001909179696,0.230788328564436,0.945807000000059,
0.0979228479003904,0.196803376464844,0.0193451494140628,0.220668728946216,0.94880700000067,
0.133835872802734,0.196803376464844,0.000191536132813752,0.23799925739994,0.951751000000513,
0.114682259521484,0.206380183105469,-0.0333272871093744,0.238443931970748,0.954730000000382,
0.117076461181641,0.189620771484375,0.0361045610351578,0.225757555950376,0.957685000000311,
0.138624276123047,0.153707746582031,0.0193451494140628,0.207886979139669,0.960595999999896,
0.184114107666015,0.242293208007813,0.0337103593750001,0.306170527023033,0.963599000000613,
0.15538368774414,0.21835119140625,0.0313161577148442,0.269818522232108,0.966546999999991,
0.138624276123047,0.225533796386719,0.0313161577148442,0.266576227329568,0.969657999999981,
0.150595284423828,0.230322199707031,0.014556746093751,0.275570597534311,0.972694000000047,
0.131441671142578,0.208774384765625,0.052863972656251,0.252305878354072,0.975723000000471,
0.162566292724609,0.201591779785156,0.000191536132813752,0.25897312967422,0.978758000000198,
0.133835872802734,0.187226569824219,-0.0429040937499998,0.234108074524399,0.981692000000294,
0.15538368774414,0.249475812988281,0.0384987626953137,0.296419342169506,0.984701000000314,
0.105105452880859,0.235110603027344,0.0289219560546883,0.259153683020715,0.987632000000303,
0.145806881103515,0.213562788085938,0.0456813676757815,0.262593789692185,0.990592000000106,
0.160172091064453,0.227927998046875,0.0265277543945324,0.279839226704964,0.993591000000379,
0.152989486083984,0.192014973144531,-0.021356278808593,0.246437869266245,0.996516000000156,
0.107499654541016,0.235110603027344,-0.0381156904296862,0.261315857228854,0.999540000000707,
0.126653267822265,0.201591779785156,0.0361045610351578,0.240798329011119,1.002477,
0.109893856201172,0.187226569824219,0.0815943925781255,0.231922601268398,1.00543000000016,
0.0931344445800779,0.201591779785156,-0.0189620771484371,0.222874024538459,1.00844300000063,
0.105105452880859,0.206380183105469,-0.021356278808593,0.232585525879165,1.01142000000073,
