X,Y,Z,Magnitude,Seconds,
-0.376129080810547,0.271023627929688,0.0217393510742188,0.464111507843411,0.0,
-0.412042105712891,0.27581203125,0.0576523759765628,0.499174087787324,0.00376000000051135,
-0.431195718994141,0.318907661132813,0.0384987626953137,0.537693220281923,0.00752900000043155,
-0.36176387084961,0.318907661132813,0.0456813676757815,0.484419221268132,0.0112760000001799,
-0.376129080810547,0.330878669433594,-0.0165678754882812,0.501226768853907,0.0150110000004133,
-0.385705887451172,0.278206232910156,0.000191536132813752,0.475571000304525,0.018872000000556,
-0.385705887451172,0.266235224609375,-0.0333272871093744,0.469852034691105,0.0225790000004054,
-0.41922471069336,0.292571442871094,-0.0141736738281235,0.511417931118367,0.0263039999999819,
-0.354581265869141,0.347638081054688,-0.00938527050781168,0.496657017273745,0.0300720000004731,
-0.364158072509766,0.254264216308594,-0.0548751020507812,0.447518346321282,0.0340350000005856,
-0.388100089111328,0.306936652832031,0.0121625444335951,0.494954255974278,0.0378850000006423,
-0.385705887451172,0.318907661132813,0.0265277543945324,0.501173472658833,0.0417900000002192,
-0.397676895751953,0.268629426269531,0.0432871660156255,0.481853152749333,0.0455930000007356,
-0.388100089111328,0.306936652832031,-0.097970731933593,0.504410598952437,0.0494500000004336,
-0.390494290771485,0.292571442871094,0.0456813676757815,0.490072063743209,0.0533370000002833,
-0.390494290771485,0.299754047851563,-0.0237504804687489,0.492851261184364,0.0571630000004006,
-0.366552274169922,0.271023627929688,0.0265277543945324,0.456637819665135,0.0609960000001593,
-0.392888492431641,0.3141192578125,0.0384987626953137,0.504494232219709,0.0648479999999836,
-0.347398660888672,0.287783039550781,0.00976834277343741,0.451220930322241,0.0687889999999243,
-0.347398660888672,0.282994636230469,0.0193451494140628,0.448493064080494,0.0725890000003346,
-0.409647904052735,0.29496564453125,-0.0859997236328116,0.512066489055332,0.0763600000000224,
-0.40007109741211,0.340455476074219,0.0648349809570323,0.529311240131127,0.0801580000006652,
-0.392888492431641,0.304542451171875,0.0169509477539069,0.497387984053432,0.083904000000075,
-0.354581265869141,0.29496564453125,-0.00938527050781168,0.461324927639514,0.087615000000369,
-0.395282694091797,0.304542451171875,0.0408929643554696,0.500666303387816,0.0914280000006329,
-0.376129080810547,0.29496564453125,0.0265277543945324,0.478729086893975,0.0951670000004015,
-0.383311685791016,0.254264216308594,0.0361045610351578,0.461391026664493,0.0988839999999982,
-0.402465299072266,0.290177241210938,-0.00220266552734216,0.496171341382737,0.102762000000439,
-0.38091748413086,0.278206232910156,0.0792001909179696,0.478298555285385,0.106717000000572,
-0.359369669189453,0.309330854492188,0.0265277543945324,0.474906157495795,0.110486000000492,
-0.376129080810547,0.285388837890625,0.0456813676757815,0.474348670891654,0.114336999999978,
-0.397676895751953,0.271023627929688,-0.0141736738281235,0.481457800166189,0.11813500000062,
-0.38091748413086,0.285388837890625,0.0313161577148442,0.476996457264796,0.121949000000313,
-0.376129080810547,0.268629426269531,-0.00938527050781168,0.462301781731143,0.125741000000744,
-0.392888492431641,0.254264216308594,0.0408929643554696,0.469770043440414,0.129509000000326,
-0.424013114013672,0.304542451171875,0.0480755693359374,0.524256126133324,0.133278000000246,
-0.359369669189453,0.302148249511719,-0.0165678754882812,0.469802744047465,0.13704400000006,
-0.385705887451172,0.304542451171875,0.0217393510742188,0.491922489387707,0.140910000000076,
-0.373734879150391,0.290177241210938,0.00497993945312558,0.473186423101197,0.144658000000163,
-0.38091748413086,0.311725056152344,0.0217393510742188,0.492689800721401,0.148400000000038,
-0.404859500732422,0.299754047851563,0.0193451494140628,0.504120957055502,0.152140000000145,
-0.390494290771485,0.326090266113281,-0.0261446821289049,0.509415544700568,0.155840000000353,
-0.359369669189453,0.297359846191406,-0.00699106884765577,0.466495779513541,0.159553000000415,
-0.366552274169922,0.280600434570313,0.0337103593750001,0.462853715453794,0.163356000000022,
-0.407253702392578,0.280600434570313,0.00258573779296967,0.494569376360329,0.167089999999916,
-0.368946475830078,0.309330854492188,0.0169509477539069,0.481761781587184,0.170830000000024,
-0.356975467529297,0.299754047851563,-0.0141736738281235,0.466352727718991,0.174773000000641,
-0.395282694091797,0.318907661132813,0.0217393510742188,0.508353325909055,0.178636999999981,
-0.421618912353516,0.290177241210938,-0.0261446821289049,0.512492812607722,0.182394000000386,
-0.390494290771485,0.304542451171875,0.00258573779296967,0.495215692129028,0.186206000000311,
-0.368946475830078,0.318907661132813,0.0696233842773442,0.49261649789148,0.190081000000646,
-0.412042105712891,0.299754047851563,0.00258573779296967,0.509546732031169,0.193905000000086,
-0.409647904052735,0.304542451171875,-0.0189620771484371,0.510800421133691,0.197672000000239,
-0.364158072509766,0.230322199707031,-0.0141736738281235,0.431115193981492,0.201455000000351,
-0.601184036865235,0.278206232910156,0.0408929643554696,0.663696608960312,0.205257999999958,
-0.148679923095703,0.515232197265625,-0.1578257734375,0.558998131832346,0.209026000000449,
-0.345004459228516,0.136948334960938,-0.0261446821289049,0.372110827227259,0.212876999999935,
-0.416830509033203,0.14173673828125,0.2252464921875,0.494543181615378,0.216674000000239,
-0.424013114013672,0.287783039550781,-0.138672160156249,0.530882441517007,0.220432000000073,
-0.462320340576172,0.127371528320313,0.00497993945312558,0.479571061818868,0.224179000000731,
-0.352187064208985,0.304542451171875,0.0265277543945324,0.466353465211886,0.227931000000353,
-0.337821854248047,0.263841022949219,0.0073741411132815,0.42870743935187,0.231669000000693,
-0.486262357177735,0.318907661132813,0.052863972656251,0.583907335064605,0.235465000000659,
-0.354581265869141,0.266235224609375,0.0480755693359374,0.446004853443481,0.239187000000129,
-0.34261025756836,0.304542451171875,0.00258573779296967,0.458404383919663,0.243012000000817,
-0.395282694091797,0.280600434570313,-0.00699106884765577,0.484802936432062,0.246983,
-0.416830509033203,0.287783039550781,0.00258573779296967,0.506530785988275,0.250788000000284,
-0.36176387084961,0.304542451171875,0.0337103593750001,0.474083949472094,0.254581000000144,
-0.385705887451172,0.244687409667969,0.0361045610351578,0.458197009366122,0.258386000000428,
-0.412042105712891,0.285388837890625,-0.0500866987304676,0.503720322264837,0.262309000000641,
-0.366552274169922,0.292571442871094,0.0241335527343765,0.469617980118307,0.266153999999915,
-0.421618912353516,0.292571442871094,0.0265277543945324,0.513871849969476,0.269945000000007,
-0.328245047607422,0.268629426269531,0.0432871660156255,0.426357078841622,0.273713000000498,
-0.407253702392578,0.306936652832031,0.0720175859375001,0.515026426165162,0.277516000000105,
-0.407253702392578,0.335667072753906,0.0361045610351578,0.528991021824738,0.281307000000197,
-0.409647904052735,0.259052619628906,-0.0285388837890626,0.485524595586385,0.285077000000456,
-0.378523282470703,0.261446821289062,-0.0452982954101557,0.462262102385234,0.288816000000224,
-0.41922471069336,0.316513459472656,0.0432871660156255,0.527071064302475,0.292578000000503,
-0.299514627685547,0.055545478515625,-0.394851737792967,0.498700518567274,0.296288000000459,
-0.45753193725586,0.493684382324219,0.174968257324219,0.695466486633985,0.300023000000692,
-0.244447989501953,0.187226569824219,-0.198527201660156,0.366362740762079,0.303820000000087,
-0.34261025756836,0.201591779785156,-0.00699106884765577,0.397580066542121,0.306736000000456,
-0.373734879150391,0.259052619628906,0.0911711992187509,0.463786812228573,0.309662000000571,
-0.435984122314453,0.37158009765625,-0.0931823286132811,0.580376490090981,0.312670000000253,
-0.349792862548828,0.318907661132813,-0.097970731933593,0.483379154841113,0.315600000000813,
-0.376129080810547,0.163284553222656,0.0073741411132815,0.410108898598492,0.318681000000652,
-0.469502945556641,0.354820686035156,-0.167402580078125,0.611845044877896,0.321701000000758,
-0.263601602783203,0.244687409667969,-0.0692403120117184,0.366267599232275,0.324696000000586,
-0.356975467529297,0.381156904296875,0.151026240722658,0.543618428217583,0.327748000000611,
-0.481473953857422,0.373974299316406,-0.00220266552734216,0.609654653494682,0.330668999999943,
-0.505415970458985,0.261446821289062,-0.143460563476562,0.586839566517259,0.333655000000363,
-0.424013114013672,0.290177241210938,0.0815943925781255,0.520238019633855,0.336595000000671,
-0.22768857788086,0.175255561523438,-0.0405098920898439,0.290168316153633,0.339552000000367,
-0.316274039306641,0.249475812988281,0.052863972656251,0.406278289858692,0.342544000000089,
-0.452743533935547,0.445800349121094,0.052863972656251,0.63758078578478,0.345479000000523,
-0.498233365478516,0.323696064453125,-0.0644519086914048,0.59763674347588,0.34847500000069,
-0.366552274169922,0.261446821289062,-0.0117794721679676,0.450392901837776,0.351379000000634,
-0.22768857788086,0.187226569824219,-0.0285388837890626,0.296159323394481,0.354326000000583,
-0.402465299072266,0.373974299316406,0.0744117875976578,0.554411586855834,0.357320000000072,
-0.471897147216797,0.309330854492188,-0.0381156904296862,0.56553099026415,0.360272000000805,
-0.426407315673828,0.208774384765625,0.119901619140625,0.489679835062634,0.363284000000021,
-0.316274039306641,0.232716401367187,0.0241335527343765,0.393406430771302,0.366221000000223,
-0.404859500732422,0.417069929199219,0.014556746093751,0.581438251263524,0.36920900000041,
-0.486262357177735,0.373974299316406,-0.00459686718749985,0.613456589943562,0.372126000000208,
-0.388100089111328,0.136948334960938,0.0480755693359374,0.414352248677099,0.37504700000045,
-0.354581265869141,0.192014973144531,-0.0572693037109371,0.40728048954571,0.37804800000049,
-0.340216055908203,0.37158009765625,0.0672291826171882,0.508270102078941,0.380998000000545,
-0.373734879150391,0.452982954101563,0.0384987626953137,0.588518029740131,0.383990000000267,
0.782664522705078,-7.32817244140625,-2.8393316328125,7.89787814588051,0.386966000000029,
-0.730470926513672,0.668461103515625,1.35770387744141,1.68041299691906,0.389902000000802,
-0.929189664306641,4.39623308837891,-0.933547111328124,4.58931029771151,0.392892000000757,
-0.289937821044922,1.36517378662109,-1.13944845410156,1.80169536473403,0.395813000000089,
-0.608366641845703,-1.05057568847656,1.14940833300781,1.67181301709145,0.398838000000069,
-0.45753193725586,-1.79996080810547,0.847738923828127,2.04153267602996,0.401781999999912,
0.0859518395996092,-1.80714341308594,-1.40281063671875,2.28933018952743,0.4047300000002,
-0.263601602783203,-0.0713472094726563,-0.368515519531249,0.45867190607753,0.407737000000452,
-0.560482608642578,1.36517378662109,0.974631611816408,1.76854375151423,0.410674000000654,
-0.392888492431641,1.47291286132813,-0.126701151855467,1.52966886823015,0.413683000000674,
-0.603578238525391,0.520020600585938,-0.246411234863281,0.833934416918992,0.416626000000178,
-0.13192051147461,-0.62440779296875,0.21327548388672,0.672885239320155,0.419544000000315,
-0.258813199462891,-0.329920988769531,-0.00220266552734216,0.419329205734955,0.422551999999996,
-0.498233365478516,0.632548078613281,-0.179373588378905,0.824941478191833,0.425473000000238,
-0.409647904052735,0.915063874511719,0.129478425781251,1.01089958080612,0.428476000000046,
-0.608366641845703,0.388339509277344,-0.00220266552734216,0.721749539045098,0.431402000000162,
-0.263601602783203,-0.258094938964844,-0.148248966796874,0.397588428736905,0.434325000000172,
-0.30430303100586,-0.0545877978515625,0.088776997558595,0.321654344987216,0.437349000000722,
-0.452743533935547,0.622971271972656,-0.0117794721679676,0.770200408457587,0.440284000000247,
-0.402465299072266,0.278206232910156,-0.34936190625,0.601191123126433,0.443264000000454,
0.222421334228516,1.70754462402344,-2.91115768261719,3.38230970580939,0.446200000000317,
-1.24043588012695,2.29412403076172,-4.46260035839844,5.16879949311275,0.449084000000767,
-2.23642377075195,-0.748906279296875,9.39204609851075,9.68364506857338,0.452084000000468,
1.58472207885742,-5.68096169921875,-0.373303922851562,5.90965529570253,0.455071000000316,
0.952652840576172,-0.650744011230469,-14.1926359052734,14.2394497485846,0.458196999999927,
-0.953131680908203,2.804088984375,-8.44415771923828,8.94847331229275,0.461183000000347,
0.452264693603516,1.79613008544922,7.5036195390625,7.72883774082084,0.464276000000609,
-1.3912705847168,2.61015864990234,9.39204609851075,9.84678079039587,0.467187000000195,
-0.64906807006836,1.32447235839844,-5.53759690380859,5.7306627763998,0.470098000000689,
0.203267720947266,-0.102471831054688,-6.32768345166016,6.33177669433727,0.473120999999992,
-1.13509100708008,-0.0474051928710938,4.31693712939453,4.46392484544826,0.476099000000431,
-0.412042105712891,-1.20380459472656,2.23398168505859,2.57091391694517,0.479122000000643,
0.265516964111328,-0.954807622070313,-3.48097767773437,3.61930413840554,0.482085000000552,
-1.0081983190918,0.912669672851563,-0.0572693037109371,1.36114273884484,0.485014000000774,
-0.0768538732910158,1.11378261230469,1.98259051074219,2.27532049579769,0.488029000000097,
-0.163045133056641,0.783382783203125,-0.799471818359374,1.13111780499795,0.490954000000784,
-0.665827481689453,0.347638081054688,-0.363727116210937,0.834551308092815,0.493965000000571,
-0.110372696533203,-0.492726701660156,0.581982539550783,0.770496859831943,0.49692800000048,
-0.306697232666016,-0.334709392089844,0.0169509477539069,0.45429165115364,0.499894000000495,
-0.625126053466797,0.570298835449219,-0.215286613281249,0.873138975361779,0.502893000000768,
-0.244447989501953,0.996466730957031,0.309043550292969,1.07154499740021,0.505856000000676,
-0.309091434326172,0.297359846191406,-0.507379215820311,0.664374940487087,0.508859000000484,
-0.450349332275391,-0.124019645996094,0.105536409179688,0.47888759363386,0.511841000000459,
-0.40007109741211,0.00287304199218749,0.0600465776367187,0.404562391777463,0.514761000000362,
-0.407253702392578,0.481713374023438,-0.2344402265625,0.672952875509261,0.517765999999938,
-0.376129080810547,0.587058247070313,0.0815943925781255,0.701974440976912,0.520714000000225,
-0.479079752197266,0.400310517578125,-0.0333272871093744,0.625201269604542,0.523707000000286,
-0.287543619384766,0.0627280834960938,-0.109941740234374,0.314170863947863,0.526616000000104,
-0.356975467529297,0.18004396484375,0.0815943925781255,0.408050191268931,0.529570000000604,
-0.392888492431641,0.37158009765625,-0.0716345136718743,0.545494857912008,0.532556000000113,
-0.376129080810547,0.414675727539063,-0.00220266552734216,0.559851673371495,0.535503000000062,
-0.450349332275391,0.381156904296875,-0.0405098920898439,0.591384949192316,0.538486000000375,
-0.273178409423828,0.115400520019531,-0.0931823286132811,0.310848306673697,0.541415000000598,
-0.421618912353516,0.249475812988281,0.0313161577148442,0.490898553933852,0.544325000000754,
-0.428801517333985,0.335667072753906,-0.00220266552734216,0.54456218812412,0.547308000000157,
-0.378523282470703,0.364397492675781,0.0073741411132815,0.525471013470725,0.550246000000698,
-0.397676895751953,0.297359846191406,0.0169509477539069,0.496847185935115,0.553264000000127,
-0.268390006103516,0.18004396484375,0.112719014160158,0.342278542719436,0.556183000000601,
-0.41922471069336,0.476924970703125,0.244400105468751,0.680395618217258,0.559175000000323,
-0.435984122314453,0.297359846191406,-0.428370561035155,0.679710504993747,0.562087000000247,
-0.548511600341797,0.311725056152344,0.167785652343751,0.652831916709898,0.565016000000469,
-0.289937821044922,0.182438166503906,0.0672291826171882,0.349095098311276,0.568008000000191,
-0.275572611083985,0.175255561523438,-0.129095353515625,0.351170024523541,0.570932000000539,
-0.36176387084961,0.330878669433594,0.0121625444335951,0.490409746666334,0.573927000000367,
-0.356975467529297,0.37158009765625,-0.00699106884765577,0.515317502551215,0.57686300000023,
-0.519781180419922,0.350032282714844,-0.0548751020507812,0.629051946413311,0.579772000000048,
-0.38091748413086,0.196803376464844,-0.0309330854492185,0.429868066364501,0.582782000000407,
-0.349792862548828,0.254264216308594,0.0193451494140628,0.432873622655596,0.585716999999931,
-0.378523282470703,0.407493122558594,-0.0165678754882812,0.556421616045912,0.588725999999951,
-0.376129080810547,0.433829340820313,0.0576523759765628,0.577065662506198,0.591676000000007,
-0.455137735595703,0.27581203125,-0.0668461103515625,0.536368378462572,0.594670000000406,
-0.404859500732422,0.194409174804688,-0.0357214887695303,0.45053542295968,0.597759000000224,
-0.347398660888672,0.33327287109375,0.0648349809570323,0.485757358101772,0.600803000000269,
-0.388100089111328,0.362003291015625,0.0337103593750001,0.531793616174128,0.603872000000592,
-0.416830509033203,0.359609089355469,0.0504697709960951,0.552823270306476,0.606824000000415,
-0.407253702392578,0.251870014648437,0.0456813676757815,0.481020654176301,0.609713000000738,
-0.366552274169922,0.230322199707031,0.000191536132813752,0.432907521375082,0.612746000000698,
-0.359369669189453,0.326090266113281,-0.0141736738281235,0.485471228619116,0.615672000000814,
-0.359369669189453,0.350032282714844,0.0361045610351578,0.502963912625392,0.618680000000495,
-0.392888492431641,0.235110603027344,0.0720175859375001,0.463492066626123,0.621613000000252,
-0.416830509033203,0.29496564453125,0.0552581743164069,0.513620356434008,0.624552000000222,
-0.318668240966797,0.304542451171875,0.0313161577148442,0.441900728784947,0.627542000000176,
-0.352187064208985,0.306936652832031,0.0217393510742188,0.467673429257,0.630504000000656,
-0.376129080810547,0.323696064453125,-0.0285388837890626,0.497058040335084,0.633485000000292,
-0.435984122314453,0.29496564453125,0.0552581743164069,0.529282865954324,0.636477000000014,
-0.40007109741211,0.282994636230469,0.014556746093751,0.490259875960274,0.639404000000468,
-0.34261025756836,0.235110603027344,0.122295820800781,0.433145532162431,0.642413000000488,
-0.51499277709961,0.58226984375,0.0241335527343765,0.777713417508661,0.645346000000245,
-0.220505972900391,0.364397492675781,0.0815943925781255,0.433665841003574,0.64835900000071,
-0.340216055908203,0.316513459472656,-0.124306950195312,0.481019700835571,0.651268000000528,
-0.452743533935547,0.144130939941406,0.0456813676757815,0.477322975271012,0.654256000000714,
-0.388100089111328,0.227927998046875,0.0073741411132815,0.450141343823288,0.657191000000239,
-0.392888492431641,0.476924970703125,-0.0644519086914048,0.621267127489737,0.660108000000037,
-0.345004459228516,0.457771357421875,-0.0237504804687489,0.573713149479706,0.663101000000097,
-0.254024796142578,0.266235224609375,0.0241335527343765,0.368771230230431,0.666040000000066,
-0.392888492431641,0.105823713378906,-0.0261446821289049,0.407729775957226,0.669018999999935,
-0.426407315673828,0.230322199707031,-0.0452982954101557,0.486747830098,0.671958000000814,
-0.390494290771485,0.388339509277344,-0.021356278808593,0.551134698812771,0.674864999999954,
-0.306697232666016,0.421858332519531,0.0696233842773442,0.526189187345562,0.677888000000166,
-0.337821854248047,0.249475812988281,-0.00938527050781168,0.420059364585837,0.680812000000515,
-0.388100089111328,0.215956989746094,-0.00459686718749985,0.444162393473778,0.683818000000429,
-0.424013114013672,0.328484467773438,0.0073741411132815,0.536417322968907,0.686756000000059,
-0.356975467529297,0.364397492675781,0.0504697709960951,0.512605320759114,0.689707000000453,
-0.340216055908203,0.328484467773438,0.0217393510742188,0.473414838858332,0.692708999999923,
-0.373734879150391,0.271023627929688,-0.0333272871093744,0.462863127561267,0.695650000000569,
-0.505415970458985,0.220745393066406,-0.00699106884765577,0.551563873725131,0.698652000000038,
-0.414436307373047,0.3141192578125,-0.0788171186523439,0.52596625290064,0.701575000000048,
-0.378523282470703,0.385945307617188,0.0648349809570323,0.544460494985467,0.704492000000755,
-0.376129080810547,0.287783039550781,0.0361045610351578,0.474969159643039,0.707509000000755,
-0.409647904052735,0.249475812988281,-0.00699106884765577,0.479685794666253,0.710426999999981,
-0.433589920654297,0.316513459472656,-0.0261446821289049,0.537461192760901,0.713423000000148,
-0.404859500732422,0.302148249511719,0.0792001909179696,0.511348658214476,0.716361000000688,
-0.356975467529297,0.328484467773438,-0.0500866987304676,0.487690688219362,0.719261000000188,
-0.354581265869141,0.292571442871094,-0.0141736738281235,0.459920445641224,0.722240000000056,
-0.41922471069336,0.280600434570313,-0.0524809003906235,0.507188531852594,0.72515999999996,
-0.41922471069336,0.306936652832031,0.014556746093751,0.519780112898233,0.728154000000359,
-0.392888492431641,0.318907661132813,0.00258573779296967,0.506033743790216,0.7311150000005,
-0.349792862548828,0.268629426269531,-0.0572693037109371,0.444743283811613,0.73409300000003,
-0.354581265869141,0.249475812988281,0.0720175859375001,0.439491283253481,0.737200000000485,
-0.543723197021485,0.376368500976563,0.0480755693359374,0.663022943700732,0.740220000000591,
-0.321062442626953,0.27581203125,-0.0405098920898439,0.425199270936543,0.743233000000146,
-0.36176387084961,0.213562788085938,0.052863972656251,0.423410867021777,0.746171000000686,
-0.407253702392578,0.318907661132813,-0.0117794721679676,0.51739388323232,0.749148000000787,
-0.373734879150391,0.273417829589844,-0.0117794721679676,0.463221140920548,0.752064000000246,
-0.354581265869141,0.3141192578125,0.0265277543945324,0.474449685411693,0.755016000000069,
-0.378523282470703,1.56149832275391,-0.126701151855467,1.61171029320321,0.75799300000017,
-0.32345664428711,1.53037370117188,-1.25915853710937,2.00802093802515,0.760940000000119,
-1.13509100708008,-0.322738383789063,1.17095614794922,1.66244697934849,0.763928000000305,
-0.0577002600097658,-2.35541559326172,3.30418982714844,4.05819939761674,0.766900000000533,
0.492966121826172,-1.96037231933594,-1.93911180859375,2.8011122494314,0.769855000000462,
-0.462320340576172,1.55431571777344,-3.57195734082031,3.92281999236112,0.772871000000123,
-0.407253702392578,2.63170646484375,2.26510630664063,3.49606079403605,0.775833000000603,
-0.754412943115235,1.84880252197266,1.84133261279297,2.71619503072354,0.778843000000052,
-0.694557901611328,-0.116837041015625,-1.77630609570313,1.91084403300638,0.78178300000036,
-0.0146046301269533,-0.985932243652344,-0.689338541992187,1.20310569351591,0.784724000000097,
-0.0816422766113283,-0.569341154785156,1.13025471972656,1.2681839548451,0.787740000000667,
-0.426407315673828,0.350032282714844,-0.0812113203124998,0.557620907382088,0.79066899999998,
-0.558088406982422,0.922246479492188,-0.576811063964843,1.22258424759039,0.793660000000273,
-0.531752188720703,0.843237824707031,0.617895564453125,1.17286203272028,0.796595000000707,
-0.230082779541016,0.0435744702148437,0.00976834277343741,0.234376279551416,0.799486000000798,
-0.263601602783203,-0.219787712402344,-0.41879375439453,0.541461588880315,0.802505999999994,
-0.313879837646485,0.235110603027344,0.232429097167969,0.455873703285441,0.8054630000006,
-0.498233365478516,0.599029255371094,0.0815943925781255,0.783409331171571,0.808475000000726,
-0.503021768798828,0.500866987304688,-0.155431571777344,0.726675727104154,0.811376000000564,
-0.22768857788086,0.14173673828125,0.107930610839844,0.289102764138079,0.814297000000806,
-0.282755216064453,0.122583125,-0.0189620771484371,0.308766408659045,0.817285000000084,
-0.416830509033203,0.254264216308594,-0.109941740234374,0.500484916058082,0.82020300000022,
-0.49583916381836,0.441011945800781,0.0241335527343765,0.664025934043742,0.823206000000027,
-0.412042105712891,0.433829340820313,0.0408929643554696,0.59971562291696,0.826140000000123,
-0.275572611083985,0.184832368164063,-0.0788171186523439,0.34105044567254,0.829038000000764,
-0.275572611083985,0.223139594726563,0.139055232421876,0.380877802422616,0.832046000000446,
-0.503021768798828,0.388339509277344,-0.0500866987304676,0.637453646739107,0.83495000000039,
-0.455137735595703,0.407493122558594,-0.021356278808593,0.611274974083095,0.837946000000557,
-0.313879837646485,0.242293208007813,0.162997249023439,0.42871278767598,0.840868000000228,
-0.330639249267578,0.206380183105469,0.0289219560546883,0.390834456870046,0.843872000000374,
-0.40007109741211,0.261446821289062,-0.0309330854492185,0.478923980525191,0.846789000000172,
-0.467108743896485,0.373974299316406,-0.00220266552734216,0.598374637588504,0.849707000000308,
-0.261207401123047,0.352426484375,0.0672291826171882,0.443794430210378,0.852695000000494,
-0.383311685791016,0.282994636230469,0.0456813676757815,0.478644544471047,0.855639000000338,
-0.356975467529297,0.280600434570313,0.000191536132813752,0.454057402742097,0.858627000000524,
-0.383311685791016,0.220745393066406,0.0600465776367187,0.446387688573369,0.861568000000261,
-0.431195718994141,0.352426484375,-0.0452982954101557,0.558736172567037,0.864469000000099,
-0.337821854248047,0.352426484375,0.0792001909179696,0.494571230802959,0.867489000000205,
-0.340216055908203,0.285388837890625,-0.138672160156249,0.465213629951548,0.87047800000073,
-0.467108743896485,0.122583125,0.0361045610351578,0.484273415011457,0.873587000000043,
-0.318668240966797,0.364397492675781,0.0672291826171882,0.488727678226478,0.876605000000382,
-0.282755216064453,0.433829340820313,0.0241335527343765,0.518402196692708,0.879601000000548,
-0.440772525634766,0.342849677734375,0.0073741411132815,0.558462799866002,0.882597000000715,
-0.474291348876953,0.199197578125,-0.0452982954101557,0.516414459826069,0.885530000000472,
-0.409647904052735,0.21835119140625,-0.124306950195312,0.480563071771216,0.888508000000002,
-0.311485635986328,0.426646735839844,0.0456813676757815,0.530224033764343,0.891486000000441,
-0.368946475830078,0.414675727539063,0.0241335527343765,0.555571678008399,0.89439399999992,
-0.464714542236328,0.311725056152344,-0.0429040937499998,0.561224444994702,0.897385000000213,
-0.428801517333985,0.129765729980469,-0.021356278808593,0.448515302514688,0.900306000000455,
-0.292332022705078,0.285388837890625,0.0384987626953137,0.41034979593083,0.903339000000415,
-0.335427652587891,0.421858332519531,0.0863827958984373,0.545837109643539,0.906280000000152,
-0.36176387084961,0.424252534179688,0.0648349809570323,0.561308191429342,0.909204999999929,
-0.435984122314453,0.21835119140625,-0.00699106884765577,0.487655895834825,0.912215000000288,
-0.41922471069336,0.18004396484375,-0.0261446821289049,0.456999706494665,0.91516700000011,
-0.321062442626953,0.352426484375,-0.0429040937499998,0.478671369746527,0.918150000000423,
-0.371340677490235,0.383551105957031,0.0169509477539069,0.53412796619305,0.921090000000731,
-0.38091748413086,0.460165559082031,-0.117124345214844,0.608743446555171,0.923985000000357,
-0.368946475830078,0.615788666992188,-0.203315604980467,0.746092768797569,0.926973999999973,
-0.526963785400391,0.326090266113281,-0.160219975097656,0.640075099654434,0.929885000000468,
-0.426407315673828,-0.265277543945313,0.198910273925781,0.540148749193263,0.932928000000175,
-0.261207401123047,-0.140779057617187,0.502973884765625,0.583978405612112,0.935884000000442,
-0.289937821044922,-0.119231242675781,-0.172190983398437,0.357672705229249,0.938890000000356,
-0.371340677490235,0.481713374023438,-0.416399552734374,0.737109395537282,0.94182500000079,
-0.524569583740235,1.24785790527344,0.220458088867188,1.37146796130489,0.944752000000335,
-0.47668555053711,0.646913288574219,0.0983538041992187,0.809567407832872,0.947750000000269,
-0.330639249267578,-0.291613762207031,-0.18895039501953,0.47964898753443,0.950704000000769,
-0.359369669189453,-0.289219560546875,-0.124306950195312,0.477751746415567,0.953707000000577,
-0.376129080810547,0.452982954101563,0.0576523759765628,0.591599897391563,0.956654000000526,
-0.459926138916016,0.840843623046875,0.0744117875976578,0.961294526048218,0.959569999999985,
-0.376129080810547,0.40988732421875,-0.0237504804687489,0.556816656817206,0.962554000000637,
-0.309091434326172,-0.0521935961914063,0.0121625444335951,0.313703066201625,0.965525999999954,
-0.426407315673828,0.0723048901367187,0.0480755693359374,0.435157967139311,0.968532000000778,
-0.435984122314453,0.335667072753906,0.014556746093751,0.550423870756273,0.971480000000156,
-0.445560928955078,0.599029255371094,0.0480755693359374,0.748112191164356,0.97440000000006,
-0.301908829345703,0.381156904296875,0.0768059892578137,0.492268917275854,0.977392000000691,
-0.32345664428711,0.10342951171875,-0.00220266552734216,0.339597874497592,0.980321000000004,
-0.390494290771485,0.0986411083984375,0.0073741411132815,0.402827801111536,0.98333300000013,
-0.416830509033203,0.393127912597656,0.0361045610351578,0.574108672858903,0.986276000000544,
-0.395282694091797,0.491290180664063,-0.0357214887695303,0.631577766094808,0.989171000000169,
-0.294726224365235,0.328484467773438,0.0480755693359374,0.443933388318518,0.992191000000275,
-0.289937821044922,0.0986411083984375,-0.0333272871093744,0.308066090968189,0.995092000000113,
-0.464714542236328,0.194409174804688,0.00497993945312558,0.503765156408337,0.99811100000079,
-0.395282694091797,0.445800349121094,0.0648349809570323,0.599324565056912,1.00103900000067,
-0.36176387084961,0.433829340820313,-0.00220266552734216,0.564876842279895,1.00395000000026,
-0.297120426025391,0.182438166503906,0.0241335527343765,0.349494864806909,1.00696599999992,
-0.407253702392578,0.127371528320313,-0.0692403120117184,0.432288451322257,1.0099680000003,
