X,Y,Z,Magnitude,Seconds,
-0.702219346923828,-0.0735977590332031,-0.0184832368164045,0.706307490666812,0.0,
-0.685459935302735,-0.143029607177734,-0.00890643017577908,0.700280026798653,0.00375599999995302,
-0.673488927001953,-0.116693388916016,0.0509486113281277,0.685419902546761,0.00750699999997551,
-0.699825145263672,-0.147818010498047,0.0413718046875022,0.716461460508534,0.0113579999999729,
-0.683065733642578,-0.138241203857422,0.0317949980468768,0.697639125064975,0.0150859999999966,
-0.692642540283203,-0.119087590576172,-0.0448194550781231,0.704233147752012,0.0188069999999811,
-0.671094725341797,-0.0951455739746094,-0.0304542451171859,0.678489699018487,0.0225229999999783,
-0.757285985107422,-0.114299187255859,0.0365834013671886,0.766736403663646,0.0262729999999465,
-0.649546910400391,-0.126270195556641,0.00545877978515819,0.661728909277318,0.0302489999999693,
-0.661517918701172,-0.121481792236328,-0.0232716401367163,0.672982430559917,0.0341359999999895,
-0.678277330322266,-0.131058598876953,0.0389776030273463,0.691921777881321,0.0379249999999729,
-0.699825145263672,-0.135847002197266,0.0294007963867209,0.713494252799192,0.041706999999974,
-0.699825145263672,-0.123875993896484,0.0461602080078141,0.71220169938753,0.045503999999994,
-0.687854136962891,-0.119087590576172,-0.0160890351562486,0.698272171161403,0.0493409999999699,
-0.699825145263672,-0.119087590576172,0.0317949980468768,0.71059693925133,0.0531409999999823,
-0.663912120361328,-0.121481792236328,-0.0160890351562486,0.675126644756289,0.0569679999999835,
-0.651941112060547,-0.143029607177734,0.027006594726565,0.667992543583298,0.0607969999999796,
-0.666306322021485,-0.138241203857422,0.0461602080078141,0.682059755456274,0.0645939999999996,
-0.673488927001953,-0.107116582275391,0.0294007963867209,0.682587506346825,0.0683689999999615,
-0.683065733642578,-0.107116582275391,0.0892558378906276,0.69715088988869,0.0721039999999675,
-0.671094725341797,-0.111904985595703,-0.0208774384765604,0.680681073352344,0.0758589999999799,
-0.718978758544922,-0.138241203857422,-0.0663672700195299,0.735150120868243,0.0796029999999632,
-0.683065733642578,-0.109510783935547,0.0653138212890649,0.694864953445079,0.0834599999999455,
-0.697430943603516,-0.111904985595703,0.0509486113281277,0.708186704120552,0.0871819999999843,
-0.663912120361328,-0.0712035573730469,-0.0184832368164045,0.667975209261888,0.0908939999999916,
-0.642364305419922,-0.0999339772949219,0.0126413847656277,0.650214199556111,0.0946219999999585,
-0.671094725341797,-0.126270195556641,-0.0328484467773418,0.68366023222298,0.0984459999999672,
-0.649546910400391,-0.121481792236328,-0.0184832368164045,0.661067806430517,0.102420999999993,
-0.673488927001953,-0.119087590576172,0.0437660063476581,0.685335430526617,0.106256999999971,
-0.683065733642578,-0.109510783935547,0.0701022246093768,0.695331381551297,0.110063999999966,
-0.678277330322266,-0.162183220458984,0.0317949980468768,0.698122092279243,0.113868999999966,
-0.702219346923828,-0.116693388916016,-0.00651222851562316,0.71187903981721,0.117683,
-0.687854136962891,-0.114299187255859,0.0078529814453141,0.697330113548737,0.121510999999998,
-0.692642540283203,-0.143029607177734,0.0294007963867209,0.707866911196984,0.125295999999992,
-0.659123717041016,-0.121481792236328,-0.0304542451171859,0.670916806509252,0.129046999999957,
-0.702219346923828,-0.119087590576172,0.0964384428710954,0.718744905155346,0.132958999999971,
-0.716584556884766,-0.107116582275391,0.110803652832033,0.732969875810063,0.136736999999982,
-0.702219346923828,-0.121481792236328,0.0916500395507835,0.718519009344039,0.140479999999968,
-0.692642540283203,-0.157394817138672,-0.0136948334960927,0.710432520044353,0.14419399999997,
-0.716584556884766,-0.0951455739746094,0.0437660063476581,0.724197190497393,0.14796199999995,
-0.683065733642578,-0.0975397756347657,-0.0136948334960927,0.690130678040065,0.151675999999952,
-0.738132371826172,-0.128664397216797,0.0294007963867209,0.749838870876314,0.155495999999971,
-0.668700523681641,-0.150212212158203,0.0294007963867209,0.68599453779293,0.159244999999999,
-0.65672951538086,-0.111904985595703,0.0317949980468768,0.666953749576651,0.16297499999996,
-0.718978758544922,-0.140635405517578,0.0198239897460954,0.732872269289366,0.166694999999947,
-0.673488927001953,-0.145423808837891,-0.0136948334960927,0.689146550042622,0.170605999999964,
-0.69503674194336,-0.109510783935547,0.0174297880859395,0.703827025598008,0.174495999999976,
-0.67588312866211,-0.0759919606933595,0.0389776030273463,0.681257686369747,0.17832999999996,
-0.654335313720703,-0.157394817138672,0.0748906279296886,0.677153186063383,0.182112999999958,
-0.692642540283203,-0.119087590576172,0.00306457812500227,0.702812161589632,0.185876999999948,
-0.683065733642578,-0.109510783935547,0.04855440966797,0.693490402942288,0.189679999999953,
-0.73334396850586,-0.121481792236328,-0.0232716401367163,0.743702071547153,0.193471999999986,
-0.687854136962891,-0.126270195556641,-0.0232716401367163,0.699734982159338,0.197222999999951,
-0.639970103759766,-0.133452800537109,0.0150355864257836,0.653909361101866,0.200986,
-0.692642540283203,-0.0879629689941407,0.0198239897460954,0.698487052917723,0.204887999999983,
-0.721372960205079,-0.123875993896484,0.0126413847656277,0.732040992149806,0.20865299999997,
-0.704613548583985,-0.0807803640136719,0.0150355864257836,0.709388320257293,0.212415999999962,
-0.723767161865235,-0.116693388916016,-0.0304542451171859,0.733746354441928,0.216165999999987,
-0.685459935302735,-0.107116582275391,0.027006594726565,0.694304429816139,0.219918999999948,
-0.697430943603516,-0.116693388916016,0.0150355864257836,0.707285894791888,0.223668999999973,
-0.678277330322266,-0.121481792236328,0.0724964262695327,0.692873505407664,0.227480999999955,
-0.707007750244141,-0.123875993896484,0.0150355864257836,0.71793543555691,0.231229999999982,
-0.671094725341797,-0.107116582275391,0.0701022246093768,0.683195736575636,0.234938,
-0.649546910400391,-0.119087590576172,0.0605254179687513,0.663141289063065,0.238740999999948,
-0.65672951538086,-0.145423808837891,0.0820732329101581,0.677626560953467,0.242750000000001,
-0.709401951904297,-0.0807803640136719,-0.00890643017577908,0.714041960303653,0.246536999999989,
-0.716584556884766,-0.147818010498047,0.0533428129882836,0.733613690637545,0.250373999999965,
-0.649546910400391,-0.114299187255859,0.027006594726565,0.660079426415313,0.254290999999967,
-0.690248338623047,-0.135847002197266,0.0653138212890649,0.706514736031203,0.258148999999946,
-0.692642540283203,-0.109510783935547,0.0389776030273463,0.702328665188816,0.26200399999999,
-0.67588312866211,-0.116693388916016,0.0701022246093768,0.689456070045054,0.265836999999976,
-0.673488927001953,-0.140635405517578,0.027006594726565,0.688545574554118,0.269648999999959,
-0.692642540283203,-0.0903571706542969,0.0413718046875022,0.699735473676817,0.273460999999998,
-0.67588312866211,-0.0975397756347657,0.062919619628909,0.685777580542853,0.27735899999999,
-0.639970103759766,-0.133452800537109,0.0724964262695327,0.657743958922723,0.281156999999951,
-0.666306322021485,-0.114299187255859,0.0557370146484395,0.678332539227678,0.284905999999978,
-0.711796153564453,-0.111904985595703,0.000670376464846356,0.720539339269502,0.288641999999982,
-0.71419035522461,-0.109510783935547,0.0078529814453141,0.722580199432293,0.292364999999961,
-0.716584556884766,-0.131058598876953,-0.0136948334960927,0.728599569015665,0.296061999999949,
-0.802775816650391,0.424396186279297,-0.652946676757811,1.11843663093453,0.299880999999971,
-0.491529600830078,0.673393158935547,-4.26819118359375,4.34885222497854,0.303476999999987,
1.40228391235352,-1.67771287133789,7.82252720019532,8.1223797280904,0.306430999999975,
-1.43963345825195,0.441155597900391,-8.51311072705078,8.64524244927257,0.309371999999996,
-0.517865819091797,-1.31140001733398,9.24947138964844,9.35631743796523,0.312408999999946,
-1.98311723510742,-0.236403471923828,-3.78216824658203,4.27708279264865,0.315469999999948,
-0.479558592529297,-0.973817583251953,1.17382918994141,1.5988033325828,0.318567999999971,
-1.24330892211914,0.402848371337891,0.0940442412109395,1.3103237025314,0.321608999999967,
-0.797987413330078,0.663816352294922,-0.00172382519531133,1.03799760740604,0.324526999999989,
-0.130005150146485,0.113149970458984,-0.0927034882812485,0.195699237655619,0.327550999999971,
-0.367031114501953,-0.475823637939453,0.0820732329101581,0.606511326353273,0.330505999999957,
-0.826717833251953,-0.590745317626953,0.027006594726565,1.01645057050193,0.333531999999991,
-1.28879875366211,-0.183731035400391,-0.183683151367186,1.31472385728201,0.336512999999968,
-0.967975731201172,0.0173819040527343,0.12516886279297,0.976189731044036,0.339463999999964,
-0.333512291259766,-0.0448673391113282,0.0892558378906276,0.348152453873052,0.342464999999947,
-0.163523973388672,-0.0640209523925782,0.0820732329101581,0.193842172342339,0.345424999999977,
-0.448433970947266,-0.0640209523925782,-0.0950976899414044,0.462855570644859,0.348416999999984,
-0.953610521240235,-0.0472615407714844,0.0581312163085954,0.956548962555333,0.351389999999981,
-1.03261917602539,-0.166971623779297,0.132351467773439,1.0543712803679,0.354337999999984,
-0.67588312866211,-0.317806328369141,-0.00411802685546725,0.746884076752703,0.357363999999961,
-0.417309349365235,-0.219644060302734,0.0581312163085954,0.475152443541463,0.360312999999962,
-0.565749852294922,0.0221703073730468,-0.0160890351562486,0.566412636646642,0.363341999999989,
-0.836294639892578,0.0748427438964843,0.0294007963867209,0.840151514820503,0.366315999999983,
-0.793199010009766,-0.0831745656738282,-0.107068698242186,0.804702668069877,0.369304999999997,
-0.644758507080078,-0.334565739990234,-0.0160890351562486,0.726571829814234,0.372240999999974,
-0.565749852294922,-0.365690361572266,0.084467434570314,0.678923473906648,0.375161999999989,
-0.721372960205079,-0.0281079274902344,-0.00890643017577908,0.721975295838653,0.378161999999975,
-0.776439598388672,0.113149970458984,-0.0663672700195299,0.787442683813036,0.381105999999988,
-0.661517918701172,-0.107116582275391,0.106015249511721,0.678468239558878,0.384121999999991,
-0.577720860595703,-0.313017925048828,-0.265086007812497,0.708528196832901,0.387051999999983,
-0.726161363525391,-0.164577422119141,0.00545877978515819,0.744597778686708,0.389984999999967,
-0.833900438232422,-0.0376847341308594,-0.0711556733398417,0.837778735657086,0.392987999999946,
-0.723767161865235,-0.0305021291503907,0.103621047851565,0.731783168728976,0.395942999999988,
-0.527442625732422,-0.135847002197266,-0.0208774384765604,0.545055959404939,0.398946999999964,
-0.613633885498047,-0.174154228759766,-0.0352426484374977,0.638841361446821,0.401894999999968,
-0.814746824951172,-0.102328178955078,-0.0328484467773418,0.82180439608946,0.404810999999995,
-0.778833800048828,-0.102328178955078,0.04855440966797,0.787026476686119,0.40783399999998,
-0.623210692138672,-0.226826665283203,0.0437660063476581,0.664648302631613,0.410794999999951,
-0.570538255615235,-0.178942632080078,0.0868616362304699,0.604217932988467,0.413802999999973,
-0.671094725341797,-0.0999339772949219,0.0246123930664091,0.678940866417702,0.416759999999954,
-0.781228001708985,-0.0472615407714844,0.0341891997070327,0.783402671215075,0.419679999999971,
-0.757285985107422,-0.121481792236328,0.0078529814453141,0.767008186659471,0.422695999999974,
-0.627999095458985,-0.152606413818359,0.0365834013671886,0.647309761004263,0.425637999999992,
-0.639970103759766,-0.104722380615234,0.0317949980468768,0.649260681551569,0.428664999999967,
-0.707007750244141,-0.0807803640136719,-0.00890643017577908,0.711663368885837,0.431597999999951,
-0.709401951904297,-0.0712035573730469,0.0365834013671886,0.713904350178507,0.434530999999993,
-0.680671531982422,-0.138241203857422,0.0341891997070327,0.695408704483812,0.437530999999979,
-0.630393297119141,-0.181336833740234,0.0581312163085954,0.658527140392248,0.440480999999977,
-0.726161363525391,-0.121481792236328,0.000670376464846356,0.736253082252706,0.443487999999945,
-0.687854136962891,-0.0831745656738282,0.115592056152346,0.70244063489915,0.446432999999956,
-0.730949766845703,-0.123875993896484,0.0222181914062514,0.741705110906616,0.449357999999961,
-0.654335313720703,-0.174154228759766,-0.00651222851562316,0.677146075302161,0.452433999999982,
-0.671094725341797,-0.133452800537109,-0.0280600434570299,0.684810299565938,0.45545599999997,
-0.687854136962891,-0.0999339772949219,-0.0256658417968723,0.695549314563739,0.458538999999973,
-0.687854136962891,-0.0999339772949219,0.0868616362304699,0.700482017901659,0.461518999999953,
-0.67588312866211,-0.135847002197266,0.0294007963867209,0.690026679516263,0.464514999999949,
-0.644758507080078,-0.111904985595703,0.084467434570314,0.659826496706669,0.467464999999947,
-0.728555565185547,-0.152606413818359,0.0868616362304699,0.749417689242766,0.470385999999962,
-0.716584556884766,-0.0688093557128906,-0.00651222851562316,0.719910108082668,0.473401999999965,
-0.680671531982422,-0.128664397216797,-0.00172382519531133,0.692727387314637,0.476328999999964,
-0.639970103759766,-0.143029607177734,0.00545877978515819,0.655781213906319,0.479329999999948,
-0.685459935302735,-0.0951455739746094,-0.0328484467773418,0.692810958059896,0.482264999999984,
-0.702219346923828,-0.121481792236328,0.0820732329101581,0.717360336650559,0.485193999999979,
-0.668700523681641,-0.131058598876953,0.0509486113281277,0.683324599080082,0.488225999999997,
-0.659123717041016,-0.138241203857422,0.062919619628909,0.676397503945839,0.491162999999972,
-0.683065733642578,-0.0951455739746094,0.0509486113281277,0.691539758596638,0.494207999999958,
-0.735738170166016,-0.0975397756347657,0.0365834013671886,0.743076717523642,0.497156999999959,
-0.687854136962891,-0.135847002197266,0.0341891997070327,0.701973377785479,0.500083999999958,
-0.673488927001953,-0.119087590576172,0.062919619628909,0.686824626493348,0.503098999999963,
-0.707007750244141,-0.102328178955078,0.0509486113281277,0.716189064500296,0.506042999999977,
-0.683065733642578,-0.0951455739746094,0.0222181914062514,0.690018206102561,0.509049999999945,
-0.728555565185547,-0.114299187255859,0.04855440966797,0.73906362815957,0.511990999999966,
-0.707007750244141,-0.121481792236328,0.0198239897460954,0.717642512202061,0.514916999999969,
-0.697430943603516,-0.111904985595703,0.0701022246093768,0.709821786642287,0.517917999999952,
-0.639970103759766,-0.0759919606933595,0.01024718310547,0.644547528548441,0.52086399999996,
-0.71419035522461,-0.114299187255859,-0.0304542451171859,0.723919628652837,0.52388099999996,
-0.673488927001953,-0.119087590576172,0.0174297880859395,0.684158597502218,0.526834999999949,
-0.711796153564453,-0.128664397216797,0.0341891997070327,0.724138931916328,0.52976799999999,
-0.723767161865235,-0.109510783935547,0.0341891997070327,0.732803123471265,0.532778999999948,
-0.692642540283203,-0.135847002197266,-0.0184832368164045,0.70608053836596,0.535709999999995,
-0.680671531982422,-0.107116582275391,0.062919619628909,0.691915150277767,0.538733999999977,
-0.702219346923828,-0.114299187255859,0.0389776030273463,0.712527591703813,0.541668999999956,
-0.687854136962891,-0.0688093557128906,0.0437660063476581,0.69267128169299,0.544589999999971,
-0.709401951904297,-0.0640209523925782,0.00545877978515819,0.712305840203225,0.547597999999994,
-0.680671531982422,-0.111904985595703,0.0174297880859395,0.690029171676961,0.550540999999953,
-0.690248338623047,-0.123875993896484,0.000670376464846356,0.701276322315479,0.553542999999991,
-0.697430943603516,-0.119087590576172,-0.0256658417968723,0.707990473636525,0.556468999999993,
-0.661517918701172,-0.121481792236328,0.0222181914062514,0.672946826010084,0.559487999999988,
-0.687854136962891,-0.0975397756347657,0.000670376464846356,0.694735756221348,0.562424999999962,
-0.692642540283203,-0.107116582275391,-0.0543962617187486,0.702984071012498,0.565339999999992,
-0.678277330322266,-0.126270195556641,-0.0208774384765604,0.690246453487705,0.568337999999983,
-0.673488927001953,-0.0831745656738282,0.0078529814453141,0.678650876730335,0.571280999999999,
-0.690248338623047,-0.126270195556641,0.00306457812500227,0.701709571615546,0.574270999999953,
-0.690248338623047,-0.145423808837891,-0.0208774384765604,0.705710082531161,0.577200999999945,
-0.673488927001953,-0.140635405517578,0.0557370146484395,0.69026970589854,0.58012199999996,
-0.654335313720703,-0.0855687673339844,0.0222181914062514,0.660280519744747,0.583137999999963,
-0.692642540283203,-0.104722380615234,-0.00890643017577908,0.70057104572639,0.586055999999985,
-0.692642540283203,-0.119087590576172,0.0150355864257836,0.702966294852302,0.589109999999948,
-0.702219346923828,-0.107116582275391,0.00306457812500227,0.710348762954911,0.59214099999997,
-0.671094725341797,-0.131058598876953,0.0222181914062514,0.684133126482366,0.595152999999982,
-0.692642540283203,-0.162183220458984,0.0724964262695327,0.715061408153363,0.598237999999981,
-0.687854136962891,-0.133452800537109,0.0389776030273463,0.701763647709055,0.601181999999994,
-0.690248338623047,-0.135847002197266,0.04855440966797,0.705162894426576,0.60418199999998,
-0.620816490478516,-0.111904985595703,0.0389776030273463,0.632024599354323,0.607123000000001,
-0.718978758544922,-0.102328178955078,0.0365834013671886,0.727145003904072,0.610062999999968,
-0.67588312866211,-0.131058598876953,0.0294007963867209,0.689099968638691,0.613100999999972,
-0.721372960205079,-0.114299187255859,0.0341891997070327,0.731171767301634,0.616042999999991,
-0.690248338623047,-0.0927513723144532,0.0413718046875022,0.697679878068152,0.619052999999951,
-0.67588312866211,-0.107116582275391,0.0533428129882836,0.68639450865078,0.62199499999997,
-0.69503674194336,-0.0975397756347657,0.0461602080078141,0.703363949378588,0.624933999999996,
-0.685459935302735,-0.107116582275391,0.0222181914062514,0.694134664984364,0.627944999999954,
-0.671094725341797,-0.0999339772949219,-0.011300631835935,0.678588707892679,0.630904999999984,
-0.661517918701172,-0.123875993896484,-0.011300631835935,0.673111374815835,0.633932999999956,
-0.687854136962891,-0.104722380615234,0.0533428129882836,0.697822001971985,0.636883999999952,
-0.687854136962891,-0.114299187255859,-0.0328484467773418,0.69805919405162,0.639800999999977,
-0.683065733642578,-0.0664151540527344,-0.0328484467773418,0.687072623250415,0.642803999999956,
-0.663912120361328,-0.0999339772949219,0.0365834013671886,0.672387127060185,0.645746999999972,
-0.639970103759766,-0.0975397756347657,0.0389776030273463,0.648532956043811,0.648767999999961,
-0.69503674194336,-0.121481792236328,-0.0136948334960927,0.705706346124701,0.651694999999961,
-0.67588312866211,-0.116693388916016,0.0317949980468768,0.68661945248266,0.654696000000001,
-0.690248338623047,-0.0807803640136719,0.0126413847656277,0.695074126112353,0.657655999999974,
-0.704613548583985,-0.0903571706542969,0.0150355864257836,0.710542567335647,0.660580999999979,
-0.680671531982422,-0.123875993896484,0.0389776030273463,0.692948951837649,0.663589999999999,
-0.683065733642578,-0.114299187255859,-0.0328484467773418,0.693341273212339,0.666510999999957,
-0.709401951904297,-0.121481792236328,-0.00411802685546725,0.719740170725352,0.669494999999984,
-0.687854136962891,-0.166971623779297,0.0246123930664091,0.708257443855632,0.672432999999955,
-0.668700523681641,-0.164577422119141,0.0437660063476581,0.690044622872395,0.675356999999963,
-0.668700523681641,-0.138241203857422,-0.0136948334960927,0.682977722389637,0.678353999999956,
-0.678277330322266,-0.111904985595703,0.0341891997070327,0.688296276327921,0.681288999999992,
-0.704613548583985,-0.116693388916016,0.00306457812500227,0.714217747961995,0.684303,
-0.685459935302735,-0.147818010498047,0.0988326445312513,0.70814785091665,0.687248999999952,
-0.709401951904297,-0.104722380615234,0.0389776030273463,0.718148424704188,0.690172999999959,
-0.680671531982422,-0.121481792236328,-0.00411802685546725,0.691439453923068,0.693160999999975,
-0.65672951538086,-0.116693388916016,0.0126413847656277,0.667136273933501,0.696107999999981,
-0.699825145263672,-0.0879629689941407,0.000670376464846356,0.70533195536725,0.699118999999996,
-0.742920775146485,-0.102328178955078,0.0653138212890649,0.752773690828722,0.70206399999995,
-0.704613548583985,-0.0927513723144532,0.0365834013671886,0.711632921645649,0.704991999999947,
-0.728555565185547,-0.150212212158203,-0.0352426484374977,0.744714015252286,0.70799199999999,
-0.707007750244141,-0.0903571706542969,-0.0711556733398417,0.716301268351786,0.710929999999962,
-0.707007750244141,-0.0975397756347657,0.0557370146484395,0.715877490593245,0.713936999999987,
-0.721372960205079,-0.131058598876953,0.0772848295898463,0.737243683553382,0.716887999999983,
-0.69503674194336,-0.116693388916016,0.0653138212890649,0.707784794213131,0.719814999999983,
-0.690248338623047,-0.126270195556641,0.0317949980468768,0.702422844986259,0.722830999999985,
-0.654335313720703,-0.114299187255859,0.01024718310547,0.664322219823271,0.725778999999989,
-0.71419035522461,-0.135847002197266,0.0222181914062514,0.727334805664628,0.728871999999967,
-0.680671531982422,-0.138241203857422,0.0461602080078141,0.696099942320477,0.731910999999968,
-0.69503674194336,-0.0927513723144532,0.0341891997070327,0.702031189545067,0.734924999999976,
-0.663912120361328,-0.123875993896484,0.0509486113281277,0.67728895341854,0.737972999999954,
-0.699825145263672,-0.135847002197266,0.0437660063476581,0.714230428685958,0.740912999999978,
-0.707007750244141,-0.128664397216797,0.0341891997070327,0.719432684406992,0.743918999999948,
-0.668700523681641,-0.109510783935547,0.0533428129882836,0.679704684306193,0.746882999999968,
-0.671094725341797,-0.143029607177734,-0.00411802685546725,0.686179682777173,0.749889999999994,
-0.690248338623047,-0.0855687673339844,-0.0280600434570299,0.696097801284952,0.752815999999996,
-0.67588312866211,-0.0855687673339844,0.0198239897460954,0.681566583777838,0.755762999999945,
-0.659123717041016,-0.111904985595703,0.0389776030273463,0.669691013606198,0.758782999999994,
-0.707007750244141,-0.131058598876953,0.0341891997070327,0.71986472105631,0.76173799999998,
-0.671094725341797,-0.109510783935547,0.0533428129882836,0.682060259711166,0.764767999999947,
-0.654335313720703,-0.145423808837891,-0.0256658417968723,0.67079171312266,0.767705999999976,
-0.690248338623047,-0.0927513723144532,0.0078529814453141,0.696496414460025,0.770668999999998,
-0.718978758544922,-0.104722380615234,-0.0520020600585926,0.72842394695044,0.77368899999999,
-0.666306322021485,-0.109510783935547,0.0294007963867209,0.675885443985998,0.776643999999976,
-0.709401951904297,-0.123875993896484,0.0509486113281277,0.721936390706088,0.779670999999951,
-0.661517918701172,-0.0831745656738282,0.0078529814453141,0.666772550766257,0.782621999999947,
-0.69503674194336,-0.119087590576172,0.0150355864257836,0.705325453772686,0.785542999999961,
-0.702219346923828,-0.102328178955078,-0.0232716401367163,0.710017349532421,0.788532999999973,
-0.69503674194336,-0.0759919606933595,0.0078529814453141,0.699222797153269,0.791483999999969,
-0.71419035522461,-0.111904985595703,-0.00651222851562316,0.722933605815408,0.794471999999985,
-0.651941112060547,-0.121481792236328,-0.0328484467773418,0.663975948280792,0.797405999999967,
-0.690248338623047,-0.135847002197266,-0.00172382519531133,0.703491399059835,0.800332999999966,
-0.699825145263672,-0.107116582275391,-0.00172382519531133,0.707977519215818,0.803332999999952,
-0.649546910400391,-0.0903571706542969,0.0461602080078141,0.657424042686809,0.806268999999986,
-0.644758507080078,-0.145423808837891,0.0174297880859395,0.661184856255625,0.809287999999981,
-0.678277330322266,-0.140635405517578,0.0294007963867209,0.693327383666885,0.812228999999945,
-0.690248338623047,-0.116693388916016,-0.0136948334960927,0.700176880833027,0.815140999999983,
-0.702219346923828,-0.0951455739746094,0.04855440966797,0.710297277299647,0.818152999999995,
-0.699825145263672,-0.133452800537109,0.0389776030273463,0.713501322670305,0.821092999999962,
-0.685459935302735,-0.119087590576172,-0.011300631835935,0.695819575331392,0.824093999999945,
-0.716584556884766,-0.128664397216797,-0.0304542451171859,0.728680598974994,0.827039999999954,
-0.711796153564453,-0.104722380615234,0.0341891997070327,0.72027039548178,0.829960999999969,
-0.673488927001953,-0.150212212158203,-0.0687614716796858,0.69345452876397,0.832952999999975,
-0.671094725341797,-0.162183220458984,0.027006594726565,0.690942026177851,0.835902999999973,
-0.709401951904297,-0.0951455739746094,0.027006594726565,0.716263335492827,0.838914999999986,
-0.707007750244141,-0.104722380615234,0.01024718310547,0.714794894126001,0.841859999999997,
-0.661517918701172,-0.104722380615234,0.0174297880859395,0.669982485798825,0.844867999999963,
-0.709401951904297,-0.116693388916016,0.0341891997070327,0.719748134946482,0.847815999999966,
-0.663912120361328,-0.119087590576172,0.0724964262695327,0.678392872614215,0.850756999999987,
-0.680671531982422,-0.116693388916016,0.0509486113281277,0.692478766796691,0.853767999999945,
-0.692642540283203,-0.152606413818359,0.11319785449219,0.718231272230682,0.856709999999964,
-0.69503674194336,-0.114299187255859,0.000670376464846356,0.704372647299137,0.85970599999996,
-0.723767161865235,-0.0975397756347657,-0.00890643017577908,0.730364454860594,0.862651999999969,
-0.707007750244141,-0.0855687673339844,0.0198239897460954,0.712442954500774,0.865611000000001,
-0.65672951538086,-0.126270195556641,0.0557370146484395,0.671077069687388,0.868716999999947,
-0.678277330322266,-0.140635405517578,0.062919619628909,0.695555413068176,0.871758999999997,
-0.699825145263672,-0.123875993896484,-0.00651222851562316,0.710734060621412,0.874855999999966,
-0.685459935302735,-0.121481792236328,0.0174297880859395,0.696359782198039,0.877811999999949,
-0.728555565185547,-0.119087590576172,-0.00890643017577908,0.738277989845658,0.880732999999964,
-0.692642540283203,-0.116693388916016,0.0150355864257836,0.70256466213854,0.883759999999995,
-0.666306322021485,-0.0496557424316407,0.0653138212890649,0.671338739217108,0.886702999999954,
-0.721372960205079,-0.138241203857422,-0.0136948334960927,0.73462720247992,0.889741999999956,
-0.692642540283203,-0.140635405517578,0.0078529814453141,0.706819407778708,0.892701999999986,
-0.683065733642578,-0.128664397216797,-0.047213656738279,0.696679591326196,0.895607999999982,
-0.673488927001953,-0.114299187255859,0.0150355864257836,0.683284499941832,0.898625999999979,
-0.661517918701172,-0.107116582275391,0.0605254179687513,0.672861980781633,0.901564999999948,
-0.704613548583985,-0.138241203857422,0.0509486113281277,0.719851821063425,0.904598999999962,
-0.661517918701172,-0.147818010498047,-0.00172382519531133,0.677834118766262,0.90755299999995,
-0.704613548583985,-0.133452800537109,0.0246123930664091,0.717562312772743,0.910513999999978,
-0.67588312866211,-0.0712035573730469,-0.00172382519531133,0.679625574685034,0.913508999999976,
-0.711796153564453,-0.131058598876953,0.084467434570314,0.728673361714034,0.916455999999982,
-0.699825145263672,-0.107116582275391,0.0605254179687513,0.710557895151389,0.919476999999972,
-0.711796153564453,-0.150212212158203,0.0341891997070327,0.728276303532677,0.922420999999986,
-0.728555565185547,-0.133452800537109,-0.00411802685546725,0.740688746829066,0.925324999999987,
-0.692642540283203,-0.131058598876953,0.027006594726565,0.705449786383329,0.928337999999997,
-0.651941112060547,-0.0807803640136719,0.062919619628909,0.659932996098218,0.931280999999956,
-0.673488927001953,-0.104722380615234,0.00545877978515819,0.681603924631239,0.934287999999981,
-0.704613548583985,-0.128664397216797,-0.0304542451171859,0.716911599156364,0.937221999999963,
-0.699825145263672,-0.121481792236328,-0.0328484467773418,0.711049984349873,0.940207999999984,
-0.654335313720703,-0.131058598876953,-0.0232716401367163,0.667736945477944,0.943136999999979,
-0.673488927001953,-0.119087590576172,0.00545877978515819,0.683958322780141,0.946067999999968,
-0.69503674194336,-0.116693388916016,0.0341891997070327,0.705593594815424,0.949067999999954,
-0.69503674194336,-0.140635405517578,0.0557370146484395,0.711309359377658,0.95201099999997,
-0.723767161865235,-0.143029607177734,-0.0663672700195299,0.740743537031353,0.955000999999982,
-0.659123717041016,-0.104722380615234,0.027006594726565,0.667937278138009,0.957951999999977,
-0.666306322021485,-0.104722380615234,-0.011300631835935,0.674580311043401,0.960868999999946,
-0.69503674194336,-0.114299187255859,0.0198239897460954,0.704651238151217,0.963898999999969,
-0.704613548583985,-0.0855687673339844,-0.0304542451171859,0.710443331896943,0.966831999999954,
-0.704613548583985,-0.0975397756347657,0.0246123930664091,0.711758407446973,0.969854999999995,
-0.685459935302735,-0.128664397216797,0.027006594726565,0.697953584542064,0.972798999999952,
-0.678277330322266,-0.138241203857422,0.0605254179687513,0.694862643616234,0.975721999999962,
-0.707007750244141,-0.145423808837891,0.101226846191409,0.728872360205859,0.978724999999997,
-0.702219346923828,-0.116693388916016,0.0078529814453141,0.711892567406356,0.981670999999949,
-0.680671531982422,-0.0999339772949219,0.0509486113281277,0.689852372080827,0.984674999999982,
-0.709401951904297,-0.143029607177734,0.0557370146484395,0.725820372197532,0.987617999999998,
-0.651941112060547,-0.109510783935547,-0.00172382519531133,0.66107699775913,0.990528999999981,
-0.69503674194336,-0.0975397756347657,0.0461602080078141,0.703363949378588,0.993542999999988,
-0.69503674194336,-0.131058598876953,0.0389776030273463,0.708358442124175,0.996483999999953,
-0.632787498779297,-0.0831745656738282,-0.011300631835935,0.638330424832062,0.999480999999946,
-0.680671531982422,-0.126270195556641,0.0246123930664091,0.692721925905096,1.00242499999996,
-0.707007750244141,-0.0927513723144532,0.0317949980468768,0.713774262545447,1.00542399999995,
-0.659123717041016,-0.104722380615234,-0.0256658417968723,0.667884411259036,1.00850299999996,
-0.678277330322266,-0.0951455739746094,0.0437660063476581,0.686315000847046,1.01154299999996,
