X,Y,Z,Magnitude,Seconds,
-0.0301669409179688,-0.00852335791015624,-0.0673249506835916,0.0742653414383916,0.0,
-0.00383072265624995,-0.0276769711914062,-0.0840843623046865,0.0886051305206692,0.00380499999937456,
0.024899697265625,0.0345722719726562,0.0164721074218761,0.0456789583527132,0.00761999999940599,
-0.00622492431640631,-0.0300711728515624,-0.0050757075195289,0.0311253582507468,0.0114199999998164,
-0.0134075292968751,-0.0420421811523437,-0.0314119257812475,0.0541665572025733,0.0152459999999337,
-0.00861912597656256,-0.00612915624999988,-0.0840843623046865,0.0847468929998177,0.0191069999991669,
0.0129286889648438,-0.0276769711914062,-0.0218351191406239,0.0375491432733803,0.0229039999994711,
0.015322890625,-0.00852335791015624,0.0499909306640642,0.0529767095602361,0.0267189999995026,
-0.0301669409179688,-0.0324653745117187,-0.0362003291015611,0.0572233229863113,0.0304949999999735,
-0.0181959326171875,-0.0468305844726562,-0.00986411083984251,0.0512005496896324,0.0342349999991711,
-0.0253785375976563,-0.0324653745117187,-0.040988732421873,0.0581218280711619,0.0379339999999502,
-0.0277727392578125,-0.0444363828125001,-0.0433829340820289,0.0680293769845583,0.0416519999998854,
-0.0277727392578125,-0.0228885678710937,-0.0050757075195289,0.036345211402548,0.0454679999993459,
0.000957680664062543,0.0202070620117187,-0.00986411083984251,0.0225065143916259,0.0492189999995389,
0.0177170922851563,0.00344765039062511,0.0308373173828134,0.0357312439697401,0.0529559999995399,
-0.0301669409179688,-0.0157059628906249,-0.0481713374023425,0.0589677822357279,0.0566479999997682,
-0.0253785375976563,0.00584185205078125,-0.0864785639648424,0.0903146689713261,0.0603639999999359,
0.0272938989257813,-0.0683783994140624,-0.0218351191406239,0.0767941068890384,0.0642559999996593,
-0.0205901342773438,-0.0444363828125001,0.071538745605471,0.0866968157997882,0.0682399999996051,
-0.051714755859375,-0.0348595761718749,-0.0505655390624984,0.080289973005093,0.0719659999995201,
-0.0588973608398438,-0.0420421811523437,-0.0649307490234357,0.0972236919618343,0.0756939999992028,
-0.0134075292968751,-0.0276769711914062,-0.0194409174804662,0.0363830434221601,0.0794239999995625,
0.00335188232421879,-0.0204943662109374,0.0404141240234388,0.0454373808893659,0.0832149999996545,
0.0177170922851563,-0.0420421811523437,-0.0146525141601543,0.0479180188060895,0.0870259999992413,
0.00335188232421879,-0.0300711728515624,-0.038594530761717,0.0490412923616525,0.0907739999993282,
0.0177170922851563,-0.0372537778320312,0.0260489140625015,0.0487881670657412,0.0946509999994305,
-0.0277727392578125,-0.0109175595703124,0.00689530078125244,0.0306278194737677,0.0984139999991385,
-0.0181959326171875,-0.0204943662109374,0.0332315190429711,0.0430748751373766,0.102214999999887,
0.00574608398437504,-0.0181001645507812,-0.0170467158203103,0.0255190900734972,0.105954999999994,
-0.0277727392578125,0.0106302553710937,-0.0074699091796866,0.0306614891727371,0.109737999999197,
0.015322890625,-0.0276769711914062,-0.0290177241210916,0.0429282427383584,0.113473999999769,
0.0177170922851563,-0.0276769711914062,-0.0050757075195289,0.0332516601118572,0.117282999999588,
-0.00861912597656256,-0.0396479794921876,-0.00986411083984251,0.0417558653733039,0.121017999999822,
-0.0014365209960937,-0.0348595761718749,-0.0242293208007798,0.0424772130667969,0.124741999999969,
-0.0229843359375,-0.0300711728515624,-0.00268150585937299,0.0379439798759994,0.128428999999414,
0.00814028564453129,-0.0157059628906249,0.00928950244140836,0.0199809002876542,0.132206999999653,
-0.0110133276367188,-0.00373495458984374,-0.000287304199217076,0.011632962439757,0.136153999999806,
-0.0134075292968751,-0.0588015927734374,-0.0194409174804662,0.0633666980915215,0.140055999999277,
0.0129286889648438,-0.0157059628906249,-0.0481713374023425,0.05229059203912,0.143852999999581,
0.00574608398437504,-0.0635899960937499,0.0691445439453133,0.0941152115322703,0.147656999999526,
-0.0229843359375,-0.0228885678710937,-0.0170467158203103,0.0366436455328333,0.151423999999679,
-0.0181959326171875,-0.0276769711914062,0.0284431157226575,0.0436591059247855,0.155283999999483,
0.000957680664062543,-0.0324653745117187,0.0236547124023456,0.0401803821942768,0.1591099999996,
0.024899697265625,-0.0252827695312499,0.0260489140625015,0.044019987311739,0.16295799999989,
-0.00383072265624995,-0.0300711728515624,-0.0338061274414052,0.0454070933370787,0.166714999999385,
-0.0181959326171875,-0.00852335791015624,0.0188663090820338,0.0275622425113176,0.17053499999929,
-0.0253785375976563,-0.0540131894531251,0.0452025273437524,0.0748649669989744,0.174292999999125,
0.00814028564453129,-0.0444363828125001,0.0212605107421897,0.0499286058773162,0.178061999999954,
-0.0014365209960937,-0.0396479794921876,-0.0290177241210916,0.0491533740810631,0.181808999999703,
-0.0205901342773438,-0.0109175595703124,-0.0290177241210916,0.0372179398905709,0.185621999999967,
-0.032561142578125,0.0130244570312501,-0.0792959589843729,0.0867047495711926,0.189334999999119,
-0.0014365209960937,-0.0133117612304687,-0.0170467158203103,0.0216761873927968,0.193061999999372,
0.00335188232421879,0.00584185205078125,0.00210689746093884,0.00705700838950458,0.196808999999121,
-0.0397437475585938,-0.0420421811523437,-0.0457771357421866,0.0737743629102027,0.200500999999349,
0.0225054956054688,-0.0540131894531251,0.0691445439453133,0.0905808474499567,0.204320999999254,
-0.00861912597656256,-0.0348595761718749,0.0380199223632829,0.0522971689481626,0.208307999999306,
0.03447650390625,-0.00373495458984374,0.0164721074218761,0.0383915294082392,0.212233999999626,
-0.0110133276367188,-0.0420421811523437,-0.040988732421873,0.0597403930957279,0.21602299999995,
0.0129286889648438,-0.0276769711914062,-0.0601423457031238,0.0674556704759033,0.219808999999259,
-0.0014365209960937,-0.0181001645507812,-0.0433829340820289,0.0470293367899574,0.223613999999543,
0.00814028564453129,0.0106302553710937,0.0116837041015643,0.0177700737522988,0.227470999999241,
-0.0229843359375,-0.0300711728515624,-0.0553539423828102,0.0670567973622054,0.231231999999181,
-0.0110133276367188,-0.0372537778320312,-0.0888727656249984,0.0969922977263037,0.235054999999193,
0.000957680664062543,-0.00373495458984374,-0.0170467158203103,0.017477344143231,0.238871999999901,
-0.0445321508789063,-0.0324653745117187,-0.000287304199217076,0.0551107570968746,0.242621999999756,
0.0225054956054688,-0.00373495458984374,-0.0505655390624984,0.0554736059664145,0.246376999999484,
-0.0110133276367188,0.0106302553710937,-0.0122583124999984,0.0196102508968141,0.250103999999737,
0.0296881005859375,-0.0372537778320312,0.0212605107421897,0.0521654732191499,0.253874999999425,
0.0201112939453125,-0.0204943662109374,0.00450109912109475,0.0290644642792654,0.257678999999371,
-0.00622492431640631,-0.00852335791015624,-0.0074699091796866,0.0129304623259331,0.261391999999432,
0.00335188232421879,-0.0611957944335937,0.0116837041015643,0.0623912599087963,0.265120999999453,
-0.0014365209960937,-0.0683783994140624,-0.0146525141601543,0.0699454449568719,0.268820999999662,
-0.0134075292968751,-0.0324653745117187,-0.000287304199217076,0.0351261288464244,0.272506999999678,
-0.0110133276367188,-0.0492247861328126,0.0595677373046897,0.0780556742527753,0.276412999999593,
0.015322890625,0.00344765039062511,0.0212605107421897,0.0264326802905126,0.280312999999296,
0.000957680664062543,-0.0133117612304687,0.0691445439453133,0.0704207930707735,0.284197999999378,
-0.00861912597656256,0.0680910952148439,0.0188663090820338,0.0711802233667163,0.287970999999743,
0.0272938989257813,-0.21681890234375,-0.0122583124999984,0.218873615489549,0.291722999999365,
-0.0636857641601563,0.233291009765625,-0.0074699091796866,0.241942909251916,0.295541999999841,
-0.0229843359375,-0.307798565429688,-0.0936611689453102,0.32255333070248,0.299296999999569,
-0.0780509741210937,0.376943109375,-0.0697191523437475,0.39120176695674,0.302919999999176,
-0.104387192382812,-0.291039153808594,-0.076901757324217,0.318613174967297,0.305837999999312,
0.180522805175781,0.125551935058594,-0.0146525141601543,0.220378011055332,0.308799999999792,
-0.0852335791015625,0.0561200869140626,-0.0745075556640611,0.126355067222242,0.311796999999387,
-0.0780509741210937,-0.156963860839844,0.0236547124023456,0.176887403705971,0.314746999999443,
0.151792385253906,0.0633026918945312,0.0643561406250015,0.176606545343906,0.317782999999508,
-0.173819040527344,-0.00852335791015624,-0.0170467158203103,0.174860793204679,0.320697999999538,
-0.0349553442382813,-0.0564073911132812,-0.0146525141601543,0.067958561154846,0.323605999999927,
0.0895431420898437,0.0130244570312501,0.0499909306640642,0.103376515345315,0.326644999999189,
-0.0397437475585938,-0.0611957944335937,0.0475967290039083,0.0871202579095779,0.329568999999537,
-0.0397437475585938,0.00584185205078125,-0.0266235224609357,0.0481923713217392,0.332587999999305,
0.0464475122070312,0.00105344873046875,0.0499909306640642,0.0682464232990222,0.33554599999934,
-0.0229843359375,-0.0707726010742187,0.0236547124023456,0.0780806389582977,0.338455999999496,
-0.0229843359375,-0.00612915624999988,0.0787213505859388,0.0822368365934576,0.341466999999284,
0.0272938989257813,-0.0324653745117187,-0.0050757075195289,0.0427167445807932,0.344413999999233,
-0.0373495458984375,-0.0588015927734374,-0.0242293208007798,0.0737541583775434,0.3474099999994,
-0.0134075292968751,-0.0157059628906249,0.0571735356445338,0.0607885868421451,0.350348999999369,
-0.04213794921875,-0.0731668027343749,-0.00986411083984251,0.0850075788938468,0.353251999999884,
-0.00383072265624995,0.00344765039062511,-0.103237975585936,0.103366533909033,0.356256999999459,
0.00574608398437504,-0.118656634277344,0.0619619389648456,0.133983940155028,0.359222999999474,
0.0656011254882812,-0.0252827695312499,0.0140779057617202,0.0717001640942013,0.362255000000005,
-0.169030637207031,0.132734540039062,-0.0553539423828102,0.221932136860158,0.365209999999934,
0.082360537109375,-0.343711590332031,0.0428083256835947,0.356024533072303,0.368235999999342,
0.0656011254882812,0.28117504296875,0.0284431157226575,0.290123979163771,0.371220999999423,
-0.226491477050781,-0.130627642578125,-0.0266235224609357,0.262813207678745,0.37413799999922,
0.199676418457031,-0.0755610043945312,0.00450109912109475,0.213542495457545,0.377169999999751,
-0.00861912597656256,0.0226012636718751,-0.0242293208007798,0.0342369163131345,0.380150999999387,
-0.192972653808594,-0.113868230957031,-0.0194409174804662,0.224905243184096,0.383240999999543,
0.166157595214844,0.0297838686523437,0.0188663090820338,0.169856889462449,0.386324999999488,
0.0177170922851563,-0.0635899960937499,-0.0218351191406239,0.0695295289077174,0.389343999999255,
-0.0541089575195313,-0.0588015927734374,0.00450109912109475,0.0800354077258405,0.392409999999472,
0.0679953271484375,0.0609084902343751,0.00928950244140836,0.0917578528097892,0.395374999999149,
-0.0397437475585938,-0.0875320126953125,0.071538745605471,0.119829924640291,0.398375999999189,
-0.0158017309570313,0.0249954653320312,0.00928950244140836,0.0309961746674022,0.401351999999861,
0.00814028564453129,-0.00852335791015624,0.0116837041015643,0.0165958073612613,0.404319999999643,
-0.0158017309570313,-0.0971088193359375,0.0212605107421897,0.10065697596827,0.40730799999983,
0.0105344873046875,0.0273896669921876,0.0116837041015643,0.0315860447389106,0.410297999999784,
-0.0205901342773438,-0.0157059628906249,0.0260489140625015,0.0367311424232398,0.413298999999824,
0.0129286889648438,-0.0300711728515624,0.0499909306640642,0.0597538248455904,0.416273999999248,
0.0225054956054688,0.0106302553710937,-0.0074699091796866,0.0259865196756935,0.419254999999794,
-0.0660799658203125,-0.0611957944335937,0.0116837041015643,0.090818478740316,0.422289999999521,
0.03447650390625,0.00584185205078125,0.0116837041015643,0.0368682180002478,0.425302999999985,
-0.0229843359375,-0.0228885678710937,0.0547793339843761,0.0636627180494938,0.428306999999222,
0.0201112939453125,-0.0564073911132812,-0.0290177241210916,0.0665453697076605,0.431263999999828,
0.0296881005859375,-0.0133117612304687,-0.0481713374023425,0.0581297174480323,0.434212999999545,
0.000957680664062543,-0.0133117612304687,0.0164721074218761,0.0212002467492517,0.437255999999252,
-0.0205901342773438,-0.0181001645507812,0.0212605107421897,0.0346926347131948,0.440207999999984,
-0.0158017309570313,-0.0348595761718749,0.0164721074218761,0.0416679142151245,0.443219999999201,
-0.0277727392578125,-0.0420421811523437,0.0116837041015643,0.051724065805598,0.446176999999807,
-0.0158017309570313,-0.00134075292968738,-0.0505655390624984,0.0529940190996863,0.449086999999963,
0.0416591088867188,-0.0588015927734374,-0.038594530761717,0.0817474554383547,0.452124999999796,
-0.0205901342773438,-0.0348595761718749,0.0212605107421897,0.0457291263579412,0.455084999999599,
-0.0014365209960937,-0.00612915624999988,0.0164721074218761,0.017634071334407,0.458105999999134,
-0.0349553442382813,-0.0564073911132812,0.0212605107421897,0.0696827035930882,0.461052999999993,
-0.00383072265624995,-0.0372537778320312,0.0284431157226575,0.0470268990136489,0.464047999999821,
-0.0134075292968751,-0.0228885678710937,-0.0194409174804662,0.0328876519915685,0.466968999999153,
-0.00622492431640631,-0.0588015927734374,0.0428083256835947,0.0729995187879405,0.469907999999123,
0.000957680664062543,-0.0540131894531251,-0.0242293208007798,0.0592064335492402,0.472909999999501,
-0.0110133276367188,-0.0276769711914062,0.00689530078125244,0.0305753706899456,0.475862999999663,
-0.0134075292968751,-0.0420421811523437,-0.0074699091796866,0.0447560764706404,0.478843999999299,
-0.0014365209960937,-0.0348595761718749,-0.0218351191406239,0.0411585479741475,0.481777999999395,
0.00814028564453129,-0.0157059628906249,0.0260489140625015,0.0314878936185296,0.484710999999152,
0.03447650390625,-0.0300711728515624,0.0571735356445338,0.0732237525422112,0.487746999999217,
-0.0110133276367188,-0.00134075292968738,-0.0218351191406239,0.0244921095852811,0.490660999999818,
0.0584185205078125,-0.0181001645507812,-0.040988732421873,0.0736234723484227,0.493670999999267,
0.00335188232421879,-0.0588015927734374,0.0404141240234388,0.0714294326478271,0.496628999999302,
-0.0181959326171875,-0.00373495458984374,0.0212605107421897,0.0282320946197088,0.499546999999438,
0.00574608398437504,0.00105344873046875,-0.0960553706054679,0.0962328501995914,0.502575999999863,
-0.0301669409179688,-0.00612915624999988,0.00928950244140836,0.0321544046173159,0.505525999999918,
-0.00622492431640631,-0.0228885678710937,-0.0074699091796866,0.0248683687661136,0.508505999999215,
-0.0134075292968751,-0.0300711728515624,-0.0074699091796866,0.0337614694832418,0.511434000000008,
0.0320823022460938,0.0178128603515626,-0.0122583124999984,0.0386889950329755,0.514374999999745,
-0.0014365209960937,-0.0109175595703124,0.0332315190429711,0.0350084355184131,0.517397999999957,
-0.0181959326171875,-0.0324653745117187,-0.0122583124999984,0.0391836538794304,0.52036599999974,
0.024899697265625,-0.00373495458984374,0.035625720703127,0.0436249559922435,0.52350799999931,
-0.0253785375976563,-0.0181001645507812,0.0236547124023456,0.0391309538115121,0.526538999999502,
-0.0181959326171875,-0.0228885678710937,-0.000287304199217076,0.0292414268923693,0.529547999999522,
0.044053310546875,-0.0157059628906249,-0.000287304199217076,0.0467702254021079,0.532564999999522,
-0.0158017309570313,-0.00373495458984374,-0.0146525141601543,0.0218710026802641,0.535494999999173,
-0.00861912597656256,-0.0157059628906249,-0.0314119257812475,0.0361617986860187,0.538470999999845,
-0.0014365209960937,-0.0133117612304687,0.00210689746093884,0.013553803766476,0.541440999999395,
-0.0110133276367188,-0.0300711728515624,0.0859039555664083,0.0916791056035,0.544377999999597,
-0.0253785375976563,-0.0276769711914062,-0.0457771357421866,0.0592083698617363,0.547354999999698,
-0.0301669409179688,-0.0204943662109374,0.0380199223632829,0.0526837533519233,0.550295999999435,
0.0320823022460938,-0.0588015927734374,0.0523851323242202,0.0850358954720237,0.553330999999162,
-0.0205901342773438,-0.0564073911132812,-0.0362003291015611,0.0701156988756944,0.556265999999596,
0.0201112939453125,-0.0109175595703124,-0.0242293208007798,0.0333274247068864,0.559278999999151,
0.0320823022460938,-0.0157059628906249,0.0212605107421897,0.0415687467305687,0.562266999999338,
0.015322890625,-0.0300711728515624,0.00928950244140836,0.0350051606107326,0.565246999999545,
-0.0277727392578125,-0.0420421811523437,-0.0218351191406239,0.0549148656541575,0.568242999999711,
-0.0205901342773438,-0.0228885678710937,0.0260489140625015,0.0403284774394509,0.571198999999979,
-0.0158017309570313,-0.0228885678710937,-0.0242293208007798,0.036886870657392,0.57418399999915,
0.0225054956054688,-0.0109175595703124,0.0428083256835947,0.0495806735255967,0.577158999999483,
0.0129286889648438,-0.0444363828125001,-0.0745075556640611,0.0877104267851997,0.580078999999387,
-0.00383072265624995,0.00823605371093761,0.0236547124023456,0.0253387536322574,0.583136999999624,
0.0105344873046875,0.00344765039062511,-0.0362003291015611,0.0378592860874308,0.586097999999765,
0.0272938989257813,-0.0276769711914062,-0.0457771357421866,0.0600542905183241,0.589121999999406,
-0.0397437475585938,-0.0157059628906249,-0.076901757324217,0.0879779689460701,0.592055999999502,
-0.0277727392578125,-0.0109175595703124,-0.038594530761717,0.048785817176418,0.594969999999194,
-0.0253785375976563,-0.0276769711914062,-0.0433829340820289,0.0573773812097698,0.597958999999719,
0.0201112939453125,-0.0540131894531251,0.00928950244140836,0.0583796508610909,0.600928999999269,
0.00574608398437504,-0.0516189877929687,-0.0553539423828102,0.0759051797919326,0.603924999999435,
-0.0110133276367188,-0.0372537778320312,-0.0433829340820289,0.0582341507876411,0.606863999999405,
-0.0253785375976563,-0.0468305844726562,-0.0194409174804662,0.0567020553871598,0.609765999999581,
-0.0205901342773438,-0.0540131894531251,-0.0194409174804662,0.0609862897456512,0.61275999999998,
0.000957680664062543,-0.0133117612304687,0.00210689746093884,0.0135114453787239,0.615720999999212,
0.00814028564453129,-0.0157059628906249,-0.0338061274414052,0.0381548918656675,0.618744999999763,
0.0368707055664063,-0.0396479794921876,0.0116837041015643,0.055388808872465,0.621704999999565,
0.0105344873046875,-0.00612915624999988,-0.0170467158203103,0.0209554885261106,0.624640999999428,
-0.032561142578125,-0.0228885678710937,-0.0505655390624984,0.064350511154642,0.627624999999171,
0.0488417138671875,-0.0109175595703124,-0.00986411083984251,0.051009869663784,0.630572999999458,
0.015322890625,-0.0276769711914062,-0.00268150585937299,0.0317489556538399,0.633579999999711,
-0.00861912597656256,-0.00612915624999988,0.00450109912109475,0.0114941629636389,0.636533999999301,
0.0129286889648438,-0.0276769711914062,0.0691445439453133,0.0755918890495863,0.639467999999397,
0.0177170922851563,-0.0300711728515624,0.00450109912109475,0.03519134395,0.642498999999589,
-0.051714755859375,-0.00612915624999988,-0.0122583124999984,0.0534999883670949,0.645405999999639,
-0.0205901342773438,-0.0204943662109374,0.0404141240234388,0.0497722221377442,0.6484219999993,
0.015322890625,-0.0444363828125001,0.035625720703127,0.058979446167135,0.651378999999906,
-0.0181959326171875,-0.0276769711914062,-0.0122583124999984,0.0353181670459663,0.654358999999204,
0.00574608398437504,-0.0468305844726562,-0.0194409174804662,0.0510300930401697,0.657296999999744,
0.0129286889648438,-0.0420421811523437,0.0284431157226575,0.052380404985153,0.660339999999451,
-0.0181959326171875,-0.0300711728515624,0.0260489140625015,0.0437482951017907,0.663451999999779,
-0.032561142578125,-0.0133117612304687,0.0116837041015643,0.0370666957602496,0.666516999999658,
0.0201112939453125,-0.0348595761718749,-0.00268150585937299,0.0403341625512587,0.669571999999789,
-0.00861912597656256,-0.0348595761718749,0.0236547124023456,0.0430002883981059,0.672530999999253,
-0.0253785375976563,-0.00612915624999988,0.0380199223632829,0.0461210496784562,0.675445999999283,
-0.0158017309570313,-0.0300711728515624,-0.0577481440429679,0.0669986438542924,0.678445999999894,
0.0129286889648438,-0.0420421811523437,0.0188663090820338,0.0478605642755598,0.681436999999278,
0.0105344873046875,-0.0252827695312499,0.0260489140625015,0.0377986743389039,0.684470999999576,
-0.00861912597656256,-0.0228885678710937,-0.0218351191406239,0.0327864041894618,0.687398999999459,
-0.0158017309570313,-0.0133117612304687,0.0404141240234388,0.0453894162649984,0.690358999999262,
0.024899697265625,-0.0564073911132812,0.0643561406250015,0.089126323453127,0.693382999999812,
-0.0014365209960937,-0.0109175595703124,-0.0625365473632797,0.0634986334944561,0.696344999999383,
-0.0445321508789063,-0.0109175595703124,0.0691445439453133,0.0829654959985075,0.69937199999913,
0.0129286889648438,-0.0348595761718749,-0.0314119257812475,0.0486728890710118,0.70237299999917,
0.00574608398437504,0.00105344873046875,0.0116837041015643,0.013062778300045,0.705343999999968,
-0.0229843359375,-0.0276769711914062,0.0116837041015643,0.0378259616447579,0.708353999999417,
0.03447650390625,-0.0348595761718749,-0.0122583124999984,0.0505379619477085,0.711310999999114,
-0.0134075292968751,0.0130244570312501,-0.040988732421873,0.0450496893258693,0.714337999999771,
-0.0301669409179688,-0.0444363828125001,0.0140779057617202,0.0555231831980403,0.71728499999972,
-0.0134075292968751,-0.0444363828125001,0.035625720703127,0.0585110753184628,0.720218999999815,
0.0129286889648438,-0.0492247861328126,0.00928950244140836,0.0517351468904819,0.723267999999734,
0.0105344873046875,-0.0109175595703124,0.0428083256835947,0.045417191432063,0.726242999999158,
-0.00861912597656256,-0.0324653745117187,-0.0146525141601543,0.0366467740189984,0.729242999999769,
-0.0397437475585938,-0.0588015927734374,-0.0242293208007798,0.0749950182956275,0.732194999999592,
-0.00861912597656256,-0.0252827695312499,-0.0074699091796866,0.0277363896519161,0.73510399999941,
0.0105344873046875,-0.0133117612304687,0.0667503422851574,0.0688751523048429,0.738132999999834,
0.00335188232421879,-0.0300711728515624,-0.0649307490234357,0.0716345776879318,0.741079999999783,
-0.0134075292968751,-0.00373495458984374,-0.040988732421873,0.04328727195362,0.744072999999844,
-0.0349553442382813,-0.0324653745117187,-0.0577481440429679,0.0749047713661171,0.747002999999495,
-0.0612915625,-0.0396479794921876,-0.00268150585937299,0.073046617890072,0.750002999999197,
-0.0014365209960937,0.0106302553710937,-0.0266235224609357,0.0287032728108631,0.752957999999126,
0.0368707055664063,-0.0348595761718749,-0.0242293208007798,0.056228986886787,0.755910999999287,
-0.00861912597656256,0.0202070620117187,-0.0074699091796866,0.0232037546724246,0.758936999999605,
0.000957680664062543,-0.0181001645507812,-0.0218351191406239,0.0283779057878645,0.761891999999534,
0.000957680664062543,-0.0468305844726562,0.00450109912109475,0.0470561439941994,0.764918999999281,
0.0416591088867188,-0.0420421811523437,0.0643561406250015,0.0874341991753052,0.767894999999953,
0.0129286889648438,-0.0109175595703124,-0.0625365473632797,0.0647855220048486,0.770833999999923,
-0.0014365209960937,-0.0276769711914062,-0.00268150585937299,0.0278436491964685,0.77384499999971,
-0.00383072265624995,-0.0109175595703124,-0.0577481440429679,0.0588958036149249,0.776777999999467,
0.0201112939453125,-0.0157059628906249,-0.038594530761717,0.0462674747440745,0.779800999999679,
0.0201112939453125,-0.0204943662109374,-0.0577481440429679,0.0644928781413122,0.782758999999714,
-0.00861912597656256,-0.00612915624999988,-0.00986411083984251,0.0144622464229271,0.785678999999618,
-0.0205901342773438,0.0154186586914062,0.0212605107421897,0.0333721138440448,0.788718999999219,
-0.0110133276367188,-0.0181001645507812,-0.0050757075195289,0.0217869720067492,0.791656999999759,
0.00335188232421879,-0.0252827695312499,0.0308373173828134,0.0400174173786124,0.794687999999951,
0.0129286889648438,-0.00373495458984374,0.0452025273437524,0.0471632204413625,0.797699999999168,
-0.0181959326171875,-0.0372537778320312,0.0667503422851574,0.078578267490148,0.800734999999804,
-0.051714755859375,0.0154186586914062,-0.0338061274414052,0.0636789232165665,0.803868999999395,
-0.00861912597656256,-0.00612915624999988,-0.0266235224609357,0.0286473006959594,0.806909999999334,
-0.00861912597656256,-0.0204943662109374,-0.0529597407226543,0.0574372920357379,0.809925999999905,
-0.0014365209960937,-0.0588015927734374,-0.0362003291015611,0.0690663067807069,0.812860000000001,
-0.0110133276367188,-0.0564073911132812,0.0499909306640642,0.0761720441270921,0.81579899999997,
-0.00861912597656256,-0.0324653745117187,-0.0362003291015611,0.0493837392452955,0.81881599999997,
-0.0158017309570313,-0.0109175595703124,-0.0266235224609357,0.0328283377044539,0.821780999999646,
0.0272938989257813,-0.0420421811523437,0.0523851323242202,0.0725031309892428,0.824815999999373,
-0.0181959326171875,-0.0492247861328126,0.0188663090820338,0.0557683526026114,0.827758999999787,
-0.0253785375976563,-0.00612915624999988,-0.0529597407226543,0.0590454982563729,0.830684999999903,
0.000957680664062543,-0.0611957944335937,0.0116837041015643,0.0623085174767133,0.833723999999165,
0.000957680664062543,0.0106302553710937,-0.040988732421873,0.0423555860195664,0.836722000000009,
-0.0445321508789063,-0.0133117612304687,-0.0218351191406239,0.0513525839354158,0.839764999999716,
-0.00383072265624995,0.0130244570312501,-0.000287304199217076,0.0135791553761961,0.842745999999352,
0.044053310546875,-0.0157059628906249,0.0452025273437524,0.0650433695216029,0.845780999999988,
-0.00383072265624995,0.00584185205078125,-0.0481713374023425,0.048675244412151,0.848732999999811,
0.00335188232421879,-0.0396479794921876,-0.0074699091796866,0.0404845271193959,0.851675999999316,
-0.0110133276367188,-0.0851378110351562,0.00210689746093884,0.0858730415811772,0.854691999999886,
0.0105344873046875,-0.0204943662109374,-0.00268150585937299,0.0231988133928114,0.857632999999623,
0.000957680664062543,-0.0276769711914062,-0.0553539423828102,0.0618949983755046,0.860632999999325,
0.00335188232421879,-0.0468305844726562,0.0164721074218761,0.0497560959087811,0.863594999999805,
-0.0277727392578125,-0.0181001645507812,0.0116837041015643,0.0351489678963794,0.866506999999729,
-0.00861912597656256,-0.0611957944335937,-0.0505655390624984,0.0798504122070736,0.86950699999943,
-0.0373495458984375,-0.00373495458984374,-0.000287304199217076,0.0375369285945264,0.872430999999779,
-0.0469263525390625,-0.0300711728515624,-0.0481713374023425,0.0736670601179336,0.875419999999394,
0.00814028564453129,-0.0181001645507812,0.0499909306640642,0.0537863677505667,0.878382999999303,
-0.00622492431640631,-0.0204943662109374,-0.0433829340820289,0.0483823077033192,0.881282999999712,
0.0416591088867188,-0.0109175595703124,0.0260489140625015,0.0503311075185357,0.884304999999586,
-0.0301669409179688,-0.0109175595703124,0.0188663090820338,0.0372179398905739,0.887243999999555,
-0.00622492431640631,-0.0228885678710937,-0.0218351191406239,0.0322398611941784,0.890223999999762,
-0.0014365209960937,-0.00612915624999988,0.0236547124023456,0.02447806299009,0.893185999999332,
0.0296881005859375,-0.0420421811523437,-0.0338061274414052,0.0615774517581863,0.89612599999964,
0.00814028564453129,-0.0181001645507812,-0.000287304199217076,0.0198484949263869,0.89914299999964,
-0.0181959326171875,-0.00852335791015624,0.00450109912109475,0.0205912478294001,0.902089999999589,
-0.0301669409179688,-0.0707726010742187,0.035625720703127,0.0847820580239471,0.905101999999715,
0.0201112939453125,-0.00134075292968738,-0.00268150585937299,0.0203335249341348,0.908047999999326,
0.0225054956054688,-0.0348595761718749,-0.0721133540039052,0.0831986971594091,0.910977999999886,
-0.0110133276367188,0.00344765039062511,-0.0481713374023425,0.0495344064866029,0.913997999999992,
0.0201112939453125,-0.0157059628906249,0.00450109912109475,0.0259114126935289,0.91696199999933,
0.024899697265625,0.0249954653320312,-0.0146525141601543,0.0382029368281821,0.919993999999861,
0.0201112939453125,-0.0157059628906249,-0.0218351191406239,0.0335844285698252,0.922941999999239,
0.00574608398437504,-0.0276769711914062,0.0116837041015643,0.0305866172862958,0.925878999999441,
-0.0565031591796875,0.0417548769531251,-0.0314119257812475,0.0769596376546974,0.928882999999587,
0.00335188232421879,-0.0324653745117187,-0.0146525141601543,0.0357761349018461,0.931828999999198,
0.000957680664062543,-0.0276769711914062,-0.0170467158203103,0.0325195695980538,0.934841999999662,
-0.0445321508789063,-0.0133117612304687,-0.038594530761717,0.0604140153745454,0.937849999999344,
0.0177170922851563,-0.0372537778320312,0.00210689746093884,0.041305911667823,0.940973999999187,
0.000957680664062543,-0.0109175595703124,0.0164721074218761,0.0197848573950753,0.944040999999743,
-0.0181959326171875,-0.0252827695312499,0.0140779057617202,0.034183297524016,0.947025999999823,
-0.0134075292968751,-0.0516189877929687,0.0236547124023456,0.0583423273572018,0.950031999999737,
-0.0229843359375,-0.0204943662109374,0.0404141240234388,0.0508094495685375,0.952969999999368,
-0.0541089575195313,-0.0707726010742187,-0.00268150585937299,0.0891276097532902,0.955940999999257,
0.0105344873046875,0.00105344873046875,0.00689530078125244,0.0126344904869286,0.958972999999787,
-0.0134075292968751,-0.0228885678710937,-0.0122583124999984,0.0292218173011852,0.961856999999327,
0.0272938989257813,-0.0133117612304687,0.0380199223632829,0.0486587546299516,0.964890999999625,
-0.00861912597656256,0.0106302553710937,-0.0577481440429679,0.0593476183368962,0.967837999999574,
0.0225054956054688,-0.00134075292968738,-0.0529597407226543,0.0575589184078107,0.970853999999235,
0.00574608398437504,0.00584185205078125,0.00928950244140836,0.012387072783658,0.973864999999932,
-0.00622492431640631,-0.0396479794921876,-0.0721133540039052,0.0825290723699864,0.976764000000003,
0.0177170922851563,-0.0564073911132812,-0.0529597407226543,0.0793752056290766,0.979815999999119,
-0.0373495458984375,-0.0324653745117187,0.0787213505859388,0.0929840855151027,0.982781999999133,
0.00335188232421879,0.00105344873046875,0.0164721074218761,0.016842659892694,0.985822999999982,
-0.0253785375976563,-0.00134075292968738,0.0404141240234388,0.0477406452574325,0.988758999999845,
-0.0181959326171875,-0.0731668027343749,0.0212605107421897,0.0783357026087015,0.991675999999643,
0.00335188232421879,-0.0444363828125001,-0.0074699091796866,0.0451843642837567,0.994691999999304,
-0.00383072265624995,-0.0659841977539062,-0.0170467158203103,0.0682581812646229,0.997613999999885,
-0.0253785375976563,-0.0109175595703124,-0.0194409174804662,0.0337818375765628,1.00059799999963,
0.00335188232421879,-0.0372537778320312,-0.0362003291015611,0.0520532698774542,1.00355199999922,
-0.0205901342773438,-0.0133117612304687,0.0116837041015643,0.0271599992295465,1.00648099999944,
0.000957680664062543,-0.0611957944335937,-0.0625365473632797,0.0875023551953472,1.00950199999988,
-0.0373495458984375,-0.0181001645507812,0.00689530078125244,0.0420731471184269,1.01244999999926,
