X,Y,Z,Magnitude,Seconds,
-1.04535632885742,0.306936652832031,-0.0200634099121118,1.08967082348354,0.0,
-1.03817372387695,0.326090266113281,-0.0631590397949235,1.09001312235688,0.00378300000011222,
-1.06690414379883,0.340455476074219,-0.0942836613769558,1.12387000673863,0.00758299999961309,
-1.06450994213867,0.33327287109375,-0.0440054265136745,1.11632822282777,0.0113259999998263,
-1.06450994213867,0.328484467773438,-0.0104866032714863,1.11408861017814,0.0150480000002062,
-1.08605775708008,0.299754047851563,-0.0080924016113304,1.12669402584777,0.0187749999995503,
-1.0740867487793,0.318907661132813,0.0326090266113255,1.12090489732583,0.0225799999998344,
-1.06211574047852,0.347638081054688,-0.0679474431152371,1.11962446230757,0.0263359999999011,
-1.09802876538086,0.316513459472656,-0.1301966862793,1.15013004340782,0.0300799999995434,
-1.06690414379883,0.318907661132813,-0.0080924016113304,1.11357623688194,0.0338299999993978,
-1.03817372387695,0.347638081054688,0.0206380183105441,1.09502641253429,0.0375759999997172,
-1.02380851391602,0.383551105957031,-0.0894952580566439,1.09695247174269,0.0413250000001426,
-1.09324036206055,0.338061274414063,-0.0224576115722677,1.14453670050998,0.0453069999994113,
-1.10760557202148,0.297359846191406,-0.0248518132324236,1.14709659310843,0.0492889999995896,
-1.08605775708008,0.321301862792969,-0.0894952580566439,1.13611871737185,0.0530789999993431,
-1.04775053051758,0.354820686035156,-0.0224576115722677,1.10642814396411,0.0568859999993947,
-1.07648095043945,0.302148249511719,-0.120619879638674,1.12456834239012,0.0606809999999314,
-1.04775053051758,0.328484467773438,-0.0176692082519558,1.09817822810713,0.0645379999996294,
-1.09802876538086,0.383551105957031,-0.0463996281738304,1.16401526879133,0.0683359999993627,
-1.02859691723633,0.323696064453125,-0.0847068547363303,1.0816496713492,0.0722079999995913,
-1.05014473217773,0.338061274414063,-0.111043072998049,1.10879211209314,0.0760399999999208,
-1.10042296704102,0.340455476074219,-0.0320344182128931,1.15233104684831,0.079834000000119,
-1.09084616040039,0.338061274414063,-0.0535822331542999,1.14328554028665,0.0835999999999331,
-1.07887515209961,0.278206232910156,-0.0775242497558626,1.11686181381057,0.0873559999999998,
-1.06211574047852,0.285388837890625,-0.0176692082519558,1.09993128689252,0.0911239999995814,
-1.0357795222168,0.306936652832031,-0.0847068547363303,1.08361643524575,0.0949579999996786,
-1.06929834545898,0.364397492675781,0.0158496149902323,1.12979453643796,0.0987359999999171,
-1.0357795222168,0.318907661132813,-0.072735846435549,1.086200634473,0.102491999999984,
-1.08845195874023,0.352426484375,0.00387860668945095,1.14409227642014,0.106237999999394,
-1.08845195874023,0.330878669433594,-0.125408282958986,1.14452417965123,0.109991999999693,
-1.04775053051758,0.323696064453125,0.00387860668945095,1.09661997060612,0.11384199999975,
-1.05972153881836,0.302148249511719,-0.0440054265136745,1.10283261743621,0.117863999999827,
-1.05972153881836,0.306936652832031,-0.0942836613769558,1.10729817912337,0.121768999999404,
-1.0740867487793,0.350032282714844,-0.0440054265136745,1.13054032232756,0.125606999999945,
-1.11957658032227,0.321301862792969,0.00148440502929503,1.16476985267418,0.129433999999492,
-1.0740867487793,0.299754047851563,-0.0224576115722677,1.11535607651736,0.133280000000013,
-1.05253893383789,0.350032282714844,0.0254264216308577,1.10950768771745,0.137155999999777,
-1.04056792553711,0.318907661132813,-0.0392170231933626,1.08904622440645,0.140965999999935,
-1.08605775708008,0.357214887695313,-0.0392170231933626,1.14396761432006,0.144841999999699,
-1.07887515209961,0.328484467773438,-0.0751300480957049,1.13027349058235,0.148677000000134,
-1.05493313549805,0.345243879394531,-0.0416112248535185,1.11076944082241,0.152476000000206,
-1.06929834545898,0.306936652832031,-0.0176692082519558,1.11261909986001,0.156237000000147,
-1.07648095043945,0.340455476074219,-0.0368228215332049,1.12963582097666,0.159982000000127,
-1.07648095043945,0.318907661132813,-0.0487938298339863,1.12378564273535,0.163743999999497,
-1.06929834545898,0.304542451171875,-0.0703416447753931,1.11404353737042,0.167493999999351,
-1.02380851391602,0.323696064453125,-0.0416112248535185,1.07456712649474,0.171343999999408,
-1.0740867487793,0.302148249511719,-0.051188031494144,1.11694947206869,0.175107000000025,
-1.06211574047852,0.330878669433594,-0.0368228215332049,1.11307073460946,0.178829999999834,
-1.06929834545898,0.342849677734375,-0.0463996281738304,1.12387622922569,0.182555999999749,
-1.04535632885742,0.321301862792969,-0.0775242497558626,1.09636433297363,0.186467999999877,
-1.04775053051758,0.33327287109375,-0.0104866032714863,1.09952805769344,0.19036799999958,
-1.04775053051758,0.33327287109375,0.00148440502929503,1.09947905130804,0.194211999999425,
-1.06211574047852,0.345243879394531,-0.0966778630371117,1.12099500071724,0.198043999999754,
-1.06690414379883,0.326090266113281,-0.0368228215332049,1.11623260743207,0.201803999999356,
-1.07648095043945,0.299754047851563,0.00387860668945095,1.1174429602679,0.205645000000004,
-1.04056792553711,0.338061274414063,-0.0320344182128931,1.09457445469246,0.209475999999995,
-1.09084616040039,0.318907661132813,-0.0368228215332049,1.13710305697203,0.213259000000107,
-1.06450994213867,0.338061274414063,-0.0942836613769558,1.12087298610199,0.217126999999891,
-1.0740867487793,0.321301862792969,-0.0942836613769558,1.1250718375909,0.22095199999967,
-1.09084616040039,0.287783039550781,-0.000909796630862658,1.12816898168815,0.224739999999656,
-1.09324036206055,0.309330854492188,-0.0248518132324236,1.13643199506177,0.228503999999703,
-1.04775053051758,0.357214887695313,-0.051188031494144,1.10815335796057,0.23229099999935,
-1.05493313549805,0.342849677734375,-0.0176692082519558,1.10938812992323,0.236061999999947,
-1.08366355541992,0.292571442871094,-0.0440054265136745,1.12332596698005,0.23982100000012,
-1.0573273371582,0.318907661132813,-0.0176692082519558,1.10451590986799,0.243695999999545,
-1.0573273371582,0.328484467773438,-0.051188031494144,1.10836066243741,0.247414999999819,
-1.0190201105957,0.323696064453125,-0.0703416447753931,1.07150785108212,0.251130999999987,
-1.09084616040039,0.316513459472656,-0.0200634099121118,1.13601437319469,0.254890999999589,
-1.0956345637207,0.302148249511719,0.0134554133300764,1.136613263186,0.258890999999494,
-1.02141431225586,0.352426484375,0.0158496149902323,1.08062150379556,0.262744999999995,
-1.07887515209961,0.33327287109375,0.0709162531738254,1.13140245509246,0.266678999999385,
-1.04775053051758,0.33327287109375,-0.000909796630862658,1.09947842568049,0.270507999999609,
-1.07169254711914,0.297359846191406,-0.0128808049316422,1.11225613453618,0.274325999999746,
-1.03817372387695,0.364397492675781,-0.034428619873049,1.10080676936659,0.278174999999464,
-1.05014473217773,0.350032282714844,-0.0823126530761744,1.11000086951301,0.281982999999855,
-1.05253893383789,0.366791694335938,-0.0416112248535185,1.11539492930183,0.285764999999628,
-1.0573273371582,0.345243879394531,-0.0368228215332049,1.11287481521827,0.289578999999321,
-1.0956345637207,0.326090266113281,-0.0535822331542999,1.1443867417019,0.293479999999363,
-1.06211574047852,0.488895979003906,0.00627280834960686,1.16925124442226,0.297262000000046,
-1.12197078198242,-0.0474051928710938,-0.0583706364746117,1.12448780301782,0.301029000000199,
-1.09802876538086,0.208774384765625,0.0158496149902323,1.11781265140157,0.30461699999978,
-0.980712884033203,0.555933625488281,-0.0559764348144558,1.1287131248071,0.307546999999431,
-1.08845195874023,0.424252534179688,0.00387860668945095,1.16821784048746,0.310472000000118,
-1.05972153881836,0.29496564453125,-0.0918894597167998,1.10383791568162,0.313483999999335,
-1.05014473217773,0.292571442871094,-0.00569819995117449,1.09015341910531,0.316437999999835,
-1.0740867487793,0.249475812988281,-0.134985089599612,1.11091021220604,0.319464000000153,
-1.09802876538086,0.350032282714844,-0.0248518132324236,1.15273907766125,0.322405999999319,
-1.0573273371582,0.414675727539063,-0.051188031494144,1.13688929605321,0.325332999999773,
-1.08845195874023,0.306936652832031,0.0110612116699187,1.13095540395755,0.328368999999839,
-1.08605775708008,0.254264216308594,-0.0679474431152371,1.11749210218003,0.33130699999947,
-1.06929834545898,0.359609089355469,-0.0320344182128931,1.12860261062016,0.334329999999682,
-1.04535632885742,0.443406147460938,-0.0823126530761744,1.1384876981087,0.337273000000096,
-1.07887515209961,0.192014973144531,-0.0487938298339863,1.09691484699566,0.34020799999962,
-1.0740867487793,0.287783039550781,-0.0104866032714863,1.1120213085209,0.343254999999772,
-1.05253893383789,0.378762702636719,-0.0631590397949235,1.12039656214266,0.346318999999312,
-1.0573273371582,0.426646735839844,-0.0487938298339863,1.14120522822791,0.349441999999726,
-1.0573273371582,0.280600434570312,-0.0918894597167998,1.09778020322383,0.352503999999499,
-1.07169254711914,0.292571442871094,0.00148440502929503,1.11091186337741,0.355458999999428,
-1.0357795222168,0.27581203125,-0.0440054265136745,1.07277582597137,0.358463999999913,
-1.11718237866211,0.309330854492188,-0.051188031494144,1.16034574989623,0.361413999999968,
-1.03099111889648,0.373974299316406,-0.0703416447753931,1.09897561882979,0.364459999999781,
-1.0357795222168,0.424252534179688,0.00148440502929503,1.11929961800218,0.367441999999755,
-1.09324036206055,0.335667072753906,-0.0296402165527372,1.14399537385723,0.370445999999902,
-1.01662590893555,0.196803376464844,-0.0775242497558626,1.03839771619895,0.373391000000083,
-1.10042296704102,0.268629426269531,-0.0128808049316422,1.13280995325118,0.376312999999755,
-1.02859691723633,0.362003291015625,-0.0440054265136745,1.09132693470695,0.379334999999628,
-1.04296212719727,0.385945307617187,-0.0679474431152371,1.11415467250533,0.382302999999411,
-1.05014473217773,0.338061274414063,-0.0080924016113304,1.10324742045606,0.385334999999941,
-1.08845195874023,0.306936652832031,-0.0368228215332049,1.13150063876378,0.388309999999365,
-1.09802876538086,0.340455476074219,-0.0392170231933626,1.15026739313122,0.391254000000117,
-1.0740867487793,0.309330854492188,-0.0440054265136745,1.1186082419716,0.394275999999991,
-1.08366355541992,0.330878669433594,-0.0535822331542999,1.13431849625284,0.397229000000152,
-1.0357795222168,0.345243879394531,-0.0942836613769558,1.09586585114497,0.400254000000132,
-1.0573273371582,0.326090266113281,-0.0894952580566439,1.11008349270247,0.403204000000187,
-1.09802876538086,0.326090266113281,-0.0487938298339863,1.14646538067554,0.40614800000003,
-1.02380851391602,0.335667072753906,-0.0224576115722677,1.07766441957394,0.409170999999333,
-1.08845195874023,0.292571442871094,-0.0990720646972676,1.1314331574037,0.41211899999962,
-1.09802876538086,0.311725056152344,-0.0416112248535185,1.14217825853533,0.415148000000045,
-0.995078093994141,0.318907661132813,-0.0440054265136745,1.04585801476054,0.418126999999913,
-1.05972153881836,0.354820686035156,-0.0535822331542999,1.11882908202451,0.421050999999352,
-1.08845195874023,0.316513459472656,-0.0176692082519558,1.13367571969812,0.424087999999756,
-1.07648095043945,0.347638081054688,-0.108648871337893,1.13642775806534,0.427044000000024,
-1.09324036206055,0.354820686035156,0.0278206232910136,1.14971570205727,0.430076999999983,
-1.03817372387695,0.316513459472656,-0.0104866032714863,1.0854010410093,0.433028999999806,
-1.05014473217773,0.3141192578125,-0.0392170231933626,1.09681942066936,0.435961999999563,
-1.07169254711914,0.37158009765625,-0.0320344182128931,1.13473472163109,0.438992999999755,
-1.05972153881836,0.347638081054688,-0.0487938298339863,1.11635245915652,0.441960999999537,
-1.05493313549805,0.316513459472656,-0.0487938298339863,1.10247246143791,0.444988999999623,
-1.07648095043945,0.3141192578125,-0.000909796630862658,1.12137548239544,0.447941999999784,
-1.06211574047852,0.297359846191406,-0.0894952580566439,1.10658127831345,0.450882000000092,
-1.04056792553711,0.323696064453125,-0.0487938298339863,1.09084443786862,0.453903999999966,
-1.08126935375977,0.299754047851563,-0.0655532414550812,1.12396313642785,0.456850999999915,
-1.09802876538086,0.299754047851563,-0.0655532414550812,1.14009512158963,0.45987999999943,
-1.08845195874023,0.302148249511719,-0.0631590397949235,1.13137539989,0.462829999999485,
-1.0956345637207,0.359609089355469,0.00627280834960686,1.15315790006881,0.465849999999591,
-1.04535632885742,0.297359846191406,-0.0823126530761744,1.08993949614907,0.468780000000152,
-1.04535632885742,0.27581203125,-0.0918894597167998,1.08502801976334,0.471728999999868,
-1.06929834545898,0.278206232910156,-0.0248518132324236,1.10517657967056,0.47474499999953,
-1.04056792553711,0.369185895996094,-0.072735846435549,1.10651269166501,0.477702000000136,
-1.06690414379883,0.328484467773438,-0.0463996281738304,1.11729110938832,0.480711999999585,
-1.06450994213867,0.342849677734375,-0.0440054265136745,1.11922464054241,0.483748999999989,
-1.08126935375977,0.321301862792969,-0.0679474431152371,1.13004210427762,0.486774999999398,
-1.0956345637207,0.335667072753906,-0.0942836613769558,1.14977253826715,0.489915999999539,
-1.02859691723633,0.297359846191406,-0.0559764348144558,1.07217902307851,0.492937999999413,
-1.05493313549805,0.328484467773438,-0.0535822331542999,1.10619031890988,0.495968000000175,
-1.0573273371582,0.335667072753906,-0.0655532414550812,1.11126536394261,0.498915000000125,
-1.04296212719727,0.318907661132813,-0.0894952580566439,1.09429497682831,0.501854000000094,
-1.05493313549805,0.350032282714844,-0.0942836613769558,1.1154801334479,0.504918999999973,
-1.06450994213867,0.309330854492188,-0.0320344182128931,1.10900549971728,0.507877000000008,
-1.06450994213867,0.338061274414063,0.0278206232910136,1.11724698668237,0.510909999999967,
-1.01662590893555,0.342849677734375,-0.0320344182128931,1.07335937327245,0.513863999999558,
-1.10281716870117,0.323696064453125,-0.0248518132324236,1.14960970000494,0.516807999999401,
-1.04056792553711,0.338061274414063,0.00627280834960686,1.09412356753689,0.519854000000123,
-1.04056792553711,0.335667072753906,-0.0152750065917999,1.09347488183961,0.522793000000092,
-1.10521137036133,0.340455476074219,-0.0224576115722677,1.15667906036308,0.525861000000077,
-1.07887515209961,0.266235224609375,0.0158496149902323,1.11135232889309,0.52882099999988,
-1.06211574047852,0.388339509277344,0.0302148249511696,1.13128703532076,0.531745999999657,
-1.10281716870117,0.350032282714844,-0.0392170231933626,1.15769870062671,0.534767000000102,
-1.02380851391602,0.285388837890625,-0.0751300480957049,1.06549293103537,0.53773799999999,
-1.04775053051758,0.309330854492188,-0.0368228215332049,1.09307944447163,0.540753999999652,
-1.07648095043945,0.287783039550781,-0.0104866032714863,1.11433400888615,0.543718999999328,
-1.10042296704102,0.285388837890625,-0.0559764348144558,1.13820510297505,0.546644999999444,
-1.02620271557617,0.37158009765625,-0.0703416447753931,1.0936689304446,0.549680999999509,
-1.03817372387695,0.306936652832031,-0.0679474431152371,1.0847265299725,0.552614999999605,
-1.06690414379883,0.311725056152344,-0.0392170231933626,1.11220274122861,0.55566699999963,
-1.06450994213867,0.311725056152344,-0.113437274658205,1.11499862906962,0.55861300000015,
-1.09084616040039,0.309330854492188,-0.154138702880863,1.1442856561746,0.561628999999812,
-1.0357795222168,0.328484467773438,0.0158496149902323,1.08673477652433,0.564578999999867,
-1.05493313549805,0.345243879394531,-0.0416112248535185,1.11076944082241,0.567501999999877,
-1.05014473217773,0.29496564453125,-0.0942836613769558,1.09485071985957,0.570528999999624,
-1.04535632885742,0.328484467773438,-0.051188031494144,1.09694672360097,0.573475999999573,
-1.06211574047852,0.309330854492188,-0.000909796630862658,1.1062442096766,0.576479999999719,
-1.06690414379883,0.302148249511719,-0.0152750065917999,1.10896859403884,0.579447000000073,
-1.06690414379883,0.345243879394531,-0.0176692082519558,1.12151236695578,0.582400999999663,
-1.04056792553711,0.318907661132813,-0.051188031494144,1.0895429860974,0.585422999999537,
-1.05014473217773,0.33327287109375,-0.0224576115722677,1.10198870658698,0.588373999999931,
-1.05972153881836,0.357214887695313,-0.0751300480957049,1.12082859526048,0.591397999999572,
-1.0357795222168,0.357214887695313,-0.0655532414550812,1.09760599583826,0.594348999999966,
-1.08126935375977,0.318907661132813,-0.0440054265136745,1.1281763998914,0.59728399999949,
-1.03338532055664,0.316513459472656,-0.0248518132324236,1.08105670683375,0.600311999999576,
-1.06929834545898,0.362003291015625,-0.0894952580566439,1.13245518035907,0.603259999999864,
-1.07169254711914,0.268629426269531,-0.0775242497558626,1.1075634038324,0.606288999999379,
-1.04775053051758,0.330878669433594,-0.0296402165527372,1.09915440704357,0.609235999999328,
-1.05253893383789,0.306936652832031,-0.0942836613769558,1.10042615604091,0.612172000000101,
-1.04775053051758,0.280600434570312,0.0182438166503882,1.0848274585974,0.615192000000206,
-1.06450994213867,0.345243879394531,-0.051188031494144,1.12026557911047,0.618128999999499,
-1.08605775708008,0.318907661132813,-0.0655532414550812,1.13380808583652,0.621184999999969,
-1.08845195874023,0.364397492675781,-0.0487938298339863,1.14886641389838,0.624229000000014,
-1.11478817700195,0.328484467773438,0.0110612116699187,1.162229355831,0.627271999999721,
-1.06929834545898,0.316513459472656,-0.0248518132324236,1.11543593910615,0.630397999999332,
-1.06211574047852,0.306936652832031,-0.000909796630862658,1.1055771265515,0.633372999999665,
-1.05972153881836,0.29496564453125,-0.072735846435549,1.10240871488118,0.636410000000069,
-1.06211574047852,0.297359846191406,-0.0320344182128931,1.10342146446833,0.639363999999659,
-1.06929834545898,0.278206232910156,0.0517626398925763,1.10610895960571,0.64231000000018,
-1.05253893383789,0.326090266113281,0.0445800349121068,1.10279664871235,0.645355999999992,
-1.02141431225586,0.309330854492188,-0.0296402165527372,1.06763819586004,0.648304999999709,
-1.07887515209961,0.366791694335938,-0.0966778630371117,1.14361459856597,0.651327999999921,
-1.04535632885742,0.311725056152344,-0.072735846435549,1.09326706173384,0.654292999999598,
-1.09802876538086,0.352426484375,-0.111043072998049,1.15853448828837,0.657317999999577,
-1.06690414379883,0.3141192578125,-0.000909796630862658,1.11218532084977,0.660286999999698,
-1.0740867487793,0.350032282714844,-0.0487938298339863,1.13073683086548,0.663257999999587,
-1.0740867487793,0.328484467773438,-0.0440054265136745,1.12405554446136,0.666319999999359,
-1.07648095043945,0.335667072753906,-0.0368228215332049,1.12820190594409,0.66928899999948,
-1.10281716870117,0.345243879394531,-0.0080924016113304,1.15562300548461,0.672300000000178,
-1.05014473217773,0.302148249511719,-0.0272460148925813,1.09308731057092,0.675263999999515,
-1.0573273371582,0.306936652832031,-0.103860468017581,1.10586536412468,0.67819899999995,
-1.0190201105957,0.366791694335938,-0.0080924016113304,1.08305291643398,0.681224999999358,
-1.07169254711914,0.326090266113281,-0.0440054265136745,1.12106924619632,0.684177000000091,
-1.0956345637207,0.311725056152344,0.00627280834960686,1.13913430111521,0.687210999999479,
-1.02859691723633,0.316513459472656,0.00627280834960686,1.07621175253758,0.690141999999469,
-1.06211574047852,0.350032282714844,-0.034428619873049,1.1188376892924,0.69307899999967,
-1.07648095043945,0.354820686035156,-0.0631590397949235,1.13520835982004,0.696119000000181,
-1.04535632885742,0.335667072753906,-0.0679474431152371,1.10002686014449,0.699077999999645,
-1.06690414379883,0.345243879394531,-0.0535822331542999,1.12265259275713,0.702111999999943,
-1.0573273371582,0.285388837890625,0.0182438166503882,1.09531763591234,0.70506099999966,
-1.05253893383789,0.297359846191406,-0.0320344182128931,1.09420623710607,0.707988000000114,
-1.0740867487793,0.328484467773438,0.0158496149902323,1.12330565731996,0.711032000000159,
-1.04296212719727,0.311725056152344,-0.0392170231933626,1.08925684955807,0.713971000000129,
-1.06929834545898,0.340455476074219,-0.118225677978518,1.12839983770104,0.716993999999431,
-1.08605775708008,0.362003291015625,-0.0368228215332049,1.14539240202021,0.71994899999936,
-1.02859691723633,0.366791694335938,-0.0104866032714863,1.09208870245511,0.72289499999988,
-1.0740867487793,0.266235224609375,-0.0440054265136745,1.1074655824398,0.72592799999984,
-1.05972153881836,0.263841022949219,0.0110612116699187,1.09212827801044,0.728888999999981,
-1.0956345637207,0.3141192578125,-0.0751300480957049,1.1422480157457,0.73190699999941,
-1.09324036206055,0.347638081054688,0.0445800349121068,1.1480479537678,0.734865999999784,
-1.09324036206055,0.340455476074219,-0.0080924016113304,1.14505454341312,0.737795000000006,
-1.06450994213867,0.3141192578125,-0.0416112248535185,1.11066818585686,0.740808999999899,
-1.05493313549805,0.330878669433594,-0.0655532414550812,1.10754767018091,0.74375499999951,
-1.05493313549805,0.316513459472656,-0.0416112248535185,1.10217792775618,0.746783999999934,
-1.06690414379883,0.378762702636719,-0.0224576115722677,1.13236477394933,0.749729999999545,
-1.04296212719727,0.376368500976562,-0.051188031494144,1.10997453207875,0.752744999999777,
-1.05014473217773,0.335667072753906,-0.0440054265136745,1.10336431871548,0.755696000000171,
-1.05972153881836,0.292571442871094,-0.0104866032714863,1.09941700817633,0.758632999999463,
-1.07648095043945,0.304542451171875,-0.0440054265136745,1.11959538172835,0.761738999999579,
-1.08126935375977,0.340455476074219,-0.0224576115722677,1.13382436509651,0.764795000000049,
-1.0573273371582,0.326090266113281,-0.0248518132324236,1.10674910082495,0.767919999999322,
-1.09084616040039,0.352426484375,-0.0416112248535185,1.14711868025196,0.770954999999958,
-1.03099111889648,0.29496564453125,-0.0368228215332049,1.07298804228324,0.773892999999589,
-1.08126935375977,0.347638081054688,-0.0751300480957049,1.13826190962639,0.776926999999887,
-1.04296212719727,0.326090266113281,-0.0152750065917999,1.0928578069667,0.779877999999371,
-1.08845195874023,0.3141192578125,-0.0535822331542999,1.13413827654477,0.782945999999356,
-1.05493313549805,0.290177241210937,-0.034428619873049,1.09465614763491,0.785910999999942,
-1.06929834545898,0.350032282714844,0.00387860668945095,1.12513847775895,0.788864000000103,
-1.05493313549805,0.347638081054688,-0.0104866032714863,1.11078626414774,0.79187599999932,
-1.08366355541992,0.306936652832031,-0.0200634099121118,1.12647208159562,0.794844000000012,
-1.03338532055664,0.316513459472656,-0.0535822331542999,1.08209844583527,0.7978779999994,
-1.06690414379883,0.299754047851563,-0.0440054265136745,1.10908674990785,0.800841999999648,
-1.08845195874023,0.37158009765625,-0.0440054265136745,1.15097172555295,0.803810999999769,
-1.0740867487793,0.3141192578125,-0.000909796630862658,1.11907733412927,0.806856000000153,
-1.09084616040039,0.330878669433594,-0.0583706364746117,1.14141717647356,0.809806000000208,
-1.04296212719727,0.321301862792969,-0.134985089599612,1.09964806197996,0.812845999999809,
-1.0740867487793,0.357214887695313,-0.0535822331542999,1.1331971918445,0.815788999999313,
-1.08605775708008,0.345243879394531,-0.0152750065917999,1.1397140491367,0.818734999999833,
-1.06211574047852,0.316513459472656,-0.0176692082519558,1.10841455111336,0.821753999999601,
-1.00226069897461,0.318907661132813,-0.0416112248535185,1.05259683595956,0.824716999999509,
-1.03817372387695,0.302148249511719,-0.103860468017581,1.08622522639109,0.827744999999595,
-1.05014473217773,0.321301862792969,-0.034428619873049,1.09873753709484,0.830700999999863,
-1.04056792553711,0.342849677734375,-0.0655532414550812,1.0975539789206,0.833646999999473,
-1.09084616040039,0.326090266113281,-0.0559764348144558,1.13991822889567,0.836671999999453,
-1.09324036206055,0.309330854492188,-0.072735846435549,1.13848608693117,0.839616999999635,
-1.09084616040039,0.335667072753906,-0.0535822331542999,1.142579881278,0.842650999999933,
-1.00226069897461,0.342849677734375,-0.0894952580566439,1.06305306144438,0.845593000000008,
-1.05493313549805,0.347638081054688,-0.0799184514160185,1.11360815130272,0.848615999999311,
-1.03817372387695,0.326090266113281,-0.072735846435549,1.09060994216955,0.851560000000063,
-1.05972153881836,0.309330854492188,-0.0679474431152371,1.10603443545051,0.854491999999482,
-1.06450994213867,0.297359846191406,-0.0320344182128931,1.10572623148286,0.857522999999674,
-1.07648095043945,0.354820686035156,-0.0679474431152371,1.13548483517984,0.86048799999935,
-1.06211574047852,0.321301862792969,0.0206380183105441,1.1098426289372,0.863495999999941,
-1.05972153881836,0.287783039550781,-0.0176692082519558,1.09824451676705,0.866441999999552,
-1.0956345637207,0.318907661132813,-0.0559764348144558,1.14247562547443,0.869372000000112,
-1.0740867487793,0.357214887695313,-0.0535822331542999,1.1331971918445,0.872392999999647,
-1.06211574047852,0.328484467773438,-0.0320344182128931,1.112213152094,0.875350999999682,
-1.06929834545898,0.330878669433594,0.0110612116699187,1.11937571703654,0.878372000000127,
-1.05253893383789,0.29496564453125,0.0254264216308577,1.09338439792019,0.88130799999999,
-1.03338532055664,0.3141192578125,-0.0871010563964862,1.0835786648398,0.884234999999535,
-1.04056792553711,0.338061274414063,0.0182438166503882,1.09425767978161,0.887259000000086,
-1.05972153881836,0.342849677734375,-0.072735846435549,1.11617478233241,0.890204999999696,
-1.07169254711914,0.299754047851563,0.0302148249511696,1.11323418039554,0.893228999999337,
-1.07648095043945,0.352426484375,-0.0080924016113304,1.13273172044919,0.89617300000009,
-1.07887515209961,0.338061274414063,-0.0176692082519558,1.13073835169621,0.899131999999554,
-1.06690414379883,0.321301862792969,-0.0703416447753931,1.1164529932241,0.902258999999503,
-1.03817372387695,0.318907661132813,-0.115831476318363,1.0922104688126,0.905314999999973,
-1.06450994213867,0.311725056152344,-0.0487938298339863,1.11028589353154,0.908442999999352,
-1.07648095043945,0.330878669433594,-0.0224576115722677,1.12640857368128,0.911430999999538,
-1.06690414379883,0.311725056152344,-0.0847068547363303,1.11473414495458,0.914358999999422,
-1.06929834545898,0.304542451171875,-0.0559764348144558,1.11322882527432,0.917390999999952,
-1.04775053051758,0.321301862792969,-0.0631590397949235,1.09772725462289,0.920341999999437,
-1.08845195874023,0.321301862792969,-0.0871010563964862,1.13822192367968,0.923404999999548,
-1.04775053051758,0.342849677734375,-0.034428619873049,1.10295621199973,0.926346999999623,
-1.03338532055664,0.338061274414063,-0.0080924016113304,1.08730682558524,0.929290000000037,
-1.06690414379883,0.362003291015625,-0.051188031494144,1.12780807291378,0.932310999999572,
-1.07169254711914,0.326090266113281,-0.0847068547363303,1.12340332403098,0.935260000000198,
-1.01423170727539,0.321301862792969,-0.034428619873049,1.06446520513512,0.938301999999567,
-1.0740867487793,0.33327287109375,-0.0296402165527372,1.12499408573896,0.941275999999561,
-1.05253893383789,0.309330854492188,0.0469742365722627,1.09805754115484,0.944321999999374,
-1.05014473217773,0.323696064453125,-0.0104866032714863,1.09895089494993,0.947269999999662,
-1.0573273371582,0.287783039550781,-0.0224576115722677,1.09602213484613,0.950205999999525,
-1.0357795222168,0.335667072753906,-0.115831476318363,1.09495595038382,0.953233999999611,
-1.0740867487793,0.350032282714844,-0.0559764348144558,1.13106953990477,0.956191999999646,
-1.08605775708008,0.27581203125,-0.0918894597167998,1.12429417907552,0.959202999999434,
-1.0357795222168,0.309330854492188,-0.0990720646972676,1.08551373560536,0.962160999999469,
-1.06929834545898,0.304542451171875,-0.0080924016113304,1.11185005424784,0.965097999999671,
-1.07648095043945,0.330878669433594,-0.0583706364746117,1.12769635174883,0.968135000000075,
-1.07887515209961,0.309330854492188,-0.0152750065917999,1.12244843854192,0.971083999999792,
-1.04535632885742,0.342849677734375,-0.051188031494144,1.10133372343404,0.974130999999943,
-1.05493313549805,0.328484467773438,-0.0847068547363303,1.10813411515911,0.977084000000104,
-1.09802876538086,0.328484467773438,-0.051188031494144,1.14725299290978,0.980031000000054,
-1.05014473217773,0.309330854492188,-0.0631590397949235,1.09657585253795,0.983052999999927,
-1.06211574047852,0.323696064453125,-0.0272460148925813,1.11068057228089,0.986023999999816,
-1.05493313549805,0.338061274414063,-0.0655532414550812,1.10971463588414,0.989050000000134,
-1.05493313549805,0.297359846191406,-0.0176692082519558,1.09618383468238,0.992013000000043,
-1.0573273371582,0.321301862792969,-0.00330399829101857,1.10507325609708,0.994944000000032,
-1.08605775708008,0.306936652832031,-0.0368228215332049,1.12919771552692,0.997981999999865,
-1.04535632885742,0.326090266113281,-0.0559764348144558,1.09646617694785,1.00093500000003,
-1.05493313549805,0.321301862792969,-0.0655532414550812,1.10472441580298,1.00396599999931,
-1.06929834545898,0.321301862792969,-0.0440054265136745,1.1173944317913,1.00692399999934,
-1.05253893383789,0.328484467773438,-0.0535822331542999,1.10390729163404,1.00986999999986,
-1.03338532055664,0.323696064453125,0.0326090266113255,1.08338714756126,1.01288899999963,
-1.05014473217773,0.3141192578125,0.0565510432128882,1.09757591406599,1.01582999999937,
