X,Y,Z,Magnitude,Seconds,
1.45361559594727,1.57658179321289,-3.34781218139648,3.97573324726121,0.0,
1.51107643579102,1.61728322143555,-3.36457159301758,4.02731908565495,0.0029700000000048,
1.54698946069336,1.71065708618164,-3.44597444946289,4.14659667249551,0.00600999999994656,
1.56614307397461,1.79445414428711,-3.44358024780273,4.18701740230023,0.00902199999995901,
1.66191114038086,1.86149179077148,-3.46512806274414,4.27015372285924,0.0121589999999969,
1.66669954370117,2.02669170532227,-3.39330201293945,4.28950640382022,0.0151679999999033,
1.74091979516602,2.06260473022461,-3.39569621459961,4.33772898971247,0.0181669999999485,
1.77922702172852,2.19189161987305,-3.44358024780273,4.45289597803225,0.021300999999994,
1.83189945825195,2.29484229125977,-3.28077453491211,4.40291248105455,0.0242919999999458,
1.83668786157227,2.36666834106445,-3.28077453491211,4.44274947373487,0.0273899999999685,
1.88696609643555,2.41455237426758,-3.20416008178711,4.43366056965307,0.0304059999999708,
1.90851391137695,2.46961901245117,-3.17303546020508,4.45079739465846,0.033456000000001,
1.90851391137695,2.58932909545898,-3.06529638549805,4.4433199800889,0.0365319999999656,
1.93485012963867,2.66354934692383,-2.95755731079101,4.42552656689286,0.0395029999999679,
1.88696609643555,2.75213480834961,-2.87136605102539,4.40223012249563,0.0426189999999451,
1.81992844995117,2.77368262329102,-2.85221243774414,4.37499378830537,0.0456689999999753,
1.83908206323242,2.81198984985352,-2.76602117797851,4.35205502125238,0.0486270000000104,
1.81514004663086,2.85747968139648,-2.77559798461914,4.37765550160113,0.0516769999999269,
1.7911980300293,2.81198984985352,-2.69658932983398,4.28803816590227,0.0546289999999772,
1.76486181176758,2.78086522827148,-2.71813714477539,4.27038852685006,0.057711999999924,
1.73134298852539,2.74974060668945,-2.75165596801758,4.25796107477742,0.0606689999999617,
1.69542996362305,2.74016380004883,-2.74686756469726,4.23417782227374,0.0637929999999187,
1.71218937524414,2.69946237182617,-2.70616613647461,4.1883200345492,0.066810999999916,
1.62839231713867,2.65876094360352,-2.70856033813476,4.13000852288036,0.0698380000000043,
1.64994013208008,2.60130010375977,-2.81151100952148,4.17057056359553,0.0729209999999512,
1.61163290551758,2.56299287719727,-2.82108781616211,4.13821574802586,0.0759279999999762,
1.62360391381836,2.51989724731445,-2.78996319458008,4.09510273779556,0.0789719999999079,
1.61163290551758,2.44567699584961,-2.80432840454101,4.05499129354066,0.0819659999999658,
1.63318072045898,2.45764800415039,-2.71334874145508,4.00868736255887,0.0849680000000035,
1.62360391381836,2.44328279418945,-2.75405016967773,4.02374363229698,0.0880529999999453,
1.6212097121582,2.39539876098633,-2.69419512817383,3.95283993397235,0.091007999999988,
1.65712273706055,2.38821615600586,-2.59842706176758,3.89890438056854,0.0940689999999904,
1.67148794702148,2.35948573608398,-2.57927344848633,3.87475114270432,0.0970629999999346,
1.67867055200195,2.31160170288086,-2.5313894152832,3.81698436291375,0.100013999999987,
1.7528908034668,2.28047708129883,-2.52899521362304,3.83001549314568,0.10307899999998,
1.78640962670898,2.19907422485352,-2.47632277709961,3.76289267681075,0.106103999999959,
1.80556323999023,2.12724817504883,-2.51702420532226,3.75774590173827,0.109179999999924,
1.86062987817383,2.0961235534668,-2.43801555053711,3.71478092484768,0.112126999999987,
1.91809071801758,2.06739313354492,-2.35900689575195,3.67669687428528,0.115076999999928,
1.98512836450195,2.03626851196289,-2.22732580444336,3.61221598406034,0.118135999999936,
2.03540659936523,2.05542212524414,-2.16747076293945,3.61463271244535,0.121120999999903,
2.03780080102539,2.04345111694336,-2.05254908325195,3.5413672940201,0.124156999999968,
1.99470517114258,2.1176713684082,-1.98551143676758,3.52216359783211,0.127117999999996,
1.92527332299805,2.13921918334961,-1.80594631225586,3.39770189472376,0.130120999999917,
1.90372550805664,2.16555540161133,-1.79397530395508,3.39590170627394,0.133235000000013,
1.82711105493164,2.18949741821289,-1.72933185913086,3.33508956857523,0.13623199999995,
1.75049660180664,2.25174666137695,-1.64314059936523,3.29158205263688,0.139283999999975,
1.6379691237793,2.34033212280273,-1.48033488647461,3.21737294567951,0.142268999999942,
1.57811408227539,2.35709153442383,-1.35583640014648,3.14398105946753,0.14522199999999,
1.50868223413086,2.37624514770508,-1.22415530883789,3.06940047985433,0.148313999999914,
1.47516341088867,2.44567699584961,-1.13796404907226,3.07447641621035,0.151337000000012,
1.39854895776367,2.40736976928711,-1.03022497436523,2.96862457901722,0.15449000000001,
1.33869391625977,2.46483060913086,-0.987129344482419,2.97353588777361,0.15746200000001,
1.30038668969727,2.47680161743164,-0.908120689697263,2.94112818182242,0.160562999999911,
1.26207946313477,2.55341607055664,-0.81474682495117,2.96253111197359,0.163577999999916,
1.22856063989258,2.6156653137207,-0.704613548583982,2.97448256544613,0.166585999999938,
1.15673459008789,2.71143338012695,-0.675883128662107,3.02435511975405,0.169696999999928,
1.08969694360352,2.77607682495117,-0.532231029052731,3.02940783573562,0.172753999999941,
1.02744770043945,2.84790287475586,-0.474770189208982,3.0645727750769,0.17577899999992,
1.0250534987793,2.95803615112305,-0.453222374267575,3.16324565395217,0.178782999999953,
0.977169465576172,2.99155497436523,-0.347877501220701,3.16627226955601,0.181781000000001,
0.984352070556641,3.13281287231445,-0.165918175048827,3.28800765396917,0.184848999999986,
0.986746272216797,3.23815774536133,-0.0629675036621062,3.38574935517896,0.187824999999975,
1.00111148217773,3.30280119018555,0.0615309826660173,3.45173955614658,0.190878999999995,
1.02265929711914,3.41293446655274,0.212365687255861,3.56918098393616,0.193824999999947,
0.993928877197266,3.4368764831543,0.310527955322268,3.5911616761742,0.196807999999919,
1.10645635522461,3.48715471801758,0.435026441650393,3.68425592193922,0.199823999999921,
1.09448534692383,3.52067354125977,0.549948121337893,3.72766458991694,0.202822999999967,
1.14715778344727,3.53025034790039,0.614591566162112,3.76249402553307,0.205939999999941,
1.1782824050293,3.4967315246582,0.684023414306644,3.75278147683286,0.208908999999949,
1.24053164819336,3.43927068481445,0.758243665771486,3.73395702576717,0.211919999999964,
1.17109980004883,3.3985692565918,0.861194337158206,3.69640412020638,0.214954999999918,
1.21898383325195,3.37702144165039,0.933020386962893,3.70954477605871,0.217949999999973,
1.20222442163086,3.25731135864258,0.887530555419925,3.58373148183728,0.221006999999986,
1.20461862329102,3.2453403503418,0.949779798583988,3.58962695595718,0.22399299999995,
1.23334904321289,3.11844766235352,0.937808790283206,3.48214747136946,0.226991999999996,
1.25968526147461,2.96521875610352,0.935414588623049,3.35474733506612,0.230088999999907,
1.26447366479492,2.91015211791992,1.02639425170899,3.33487093578372,0.233037999999965,
1.33629971459961,2.8239608581543,1.18201735961914,3.34030191660388,0.236103999999955,
0.254120564208984,1.2150573425293,-0.338300694580076,1.28661920036257,15.0069559999999,
0.309187202392578,1.25575877075195,-0.386184727783201,1.34969087587373,15.010645,
0.292427790771484,1.27012398071289,-0.462799180908201,1.38308062709545,15.013566,
0.302004597412109,1.24378776245117,-0.450828172607419,1.35700435375053,15.01649,
0.316369807373047,1.26533557739258,-0.46998178588867,1.38637904539118,15.019557,
0.311581404052734,1.30843120727539,-0.422097752685545,1.40969560840126,15.0225079999999,
0.294821992431641,1.26533557739258,-0.41252094604492,1.3631462363087,15.0255089999999,
0.318764009033203,1.34913263549805,-0.446039769287108,1.45626949339967,15.0284339999999,
0.299610395751953,1.36589204711914,-0.383790526123045,1.45007677092206,15.031352,
0.328340815673828,1.3682862487793,-0.493923802490231,1.4912999941334,15.0343769999999,
0.294821992431641,1.35392103881836,-0.465193382568357,1.46165217126433,15.0373059999999,
0.304398799072266,1.2916717956543,-0.43167455932617,1.39549904397491,15.0403239999999,
0.290033589111328,1.27730658569336,-0.41252094604492,1.37324620064802,15.043319,
0.230178547607422,1.33716162719727,-0.493923802490231,1.4439335523818,15.0463279999999,
0.237361152587891,1.27251818237305,-0.402944139404294,1.35573110191812,15.049352,
0.220601740966797,1.27251818237305,-0.450828172607419,1.36792313154071,15.0522999999999,
0.244543757568359,1.28688339233398,-0.379002122802731,1.36363966058474,15.0553169999999,
0.194265522705078,1.28688339233398,-0.398155736083982,1.36100549188954,15.058268,
0.151169892822266,1.28209498901367,-0.323935484619138,1.33099740628797,15.061235,
0.129622077880859,1.24857616577148,-0.331118089599608,1.29822321426897,15.064275,
0.129622077880859,1.30364280395508,-0.359848509521482,1.35859390296838,15.067325,
0.148775691162109,1.28448919067383,-0.319147081298826,1.33187895348648,15.070395,
0.163140901123047,1.29885440063477,-0.304781871337889,1.34407205787627,15.073417,
0.132016279541016,1.36349784545898,-0.242532628173826,1.39117818713637,15.0764919999999,
0.127227876220703,1.2916717956543,-0.266474644775387,1.324994979796,15.079493,
0.0937090529785156,1.32279641723633,-0.187465989990232,1.33929654873983,15.082499,
0.0961032546386719,1.31082540893555,-0.261686241455076,1.34014132733457,15.0856349999999,
0.134410481201172,1.32040221557617,-0.254503636474608,1.35140678159242,15.0885939999999,
0.0913148513183594,1.33955582885742,-0.232955821533201,1.3627239762635,15.0916109999999,
0.103285859619141,1.31561381225586,-0.283234056396482,1.34971448925262,15.094607,
0.129622077880859,1.30124860229492,-0.194648594970701,1.32209601904427,15.0976109999999,
0.167929304443359,1.30603700561523,-0.17549498168945,1.32843193274079,15.100659,
0.158352497802734,1.37546885375977,-0.271263048095701,1.41087693385559,15.103611,
0.189477119384766,1.3515268371582,-0.247321031494138,1.38697298565925,15.106628,
0.251726362548828,1.36110364379883,-0.139581956787106,1.39120538146782,15.109608,
0.266091572509766,1.38504566040039,-0.084515318603513,1.41290447144643,15.1125569999999,
0.249332160888672,1.37786305541992,-0.115639940185545,1.4050073742549,15.1156269999999,
0.294821992431641,1.41377608032227,-0.101274730224606,1.44773595088843,15.118695,
0.335523420654297,1.4449007019043,-0.10606313354492,1.48713260756009,15.121728,
0.323552412353516,1.37307465209961,-0.0725443103027317,1.41254481016906,15.124743,
0.378619050537109,1.41377608032227,-0.0126892687988249,1.4636516690332,15.1276829999999,
0.412137873779297,1.35631524047852,-0.0797269152832012,1.41979049143815,15.130732,
0.385801655517578,1.34673843383789,-0.0414196887207012,1.4015216434968,15.133709,
0.412137873779297,1.28209498901367,-0.0414196887207012,1.34734582734761,15.1367829999999,
0.395378462158203,1.24139356079102,-0.0079008654785131,1.3028601324729,15.139789,
0.347494428955078,1.17914431762695,-0.108457335205076,1.23405700577669,15.1427349999999,
0.373830647216797,1.22463414916992,-0.0677559069824198,1.28221254674983,15.1457829999999,
0.330735017333984,1.13604868774414,-0.103668931884764,1.18774556200148,15.148746,
0.395378462158203,1.13604868774414,-0.101274730224606,1.20714014109623,15.151856,
0.373830647216797,1.13604868774414,-0.0869095202636689,1.19912853290887,15.154803,
0.313975605712891,1.06901104125977,-0.108457335205076,1.11943212428349,15.157826,
0.321158210693359,1.09774146118164,-0.0701501086425758,1.14590573331122,15.160908,
0.256514765869141,1.10731826782227,-0.113245738525388,1.14226886881153,15.163907,
0.254120564208984,1.0618284362793,-0.027054478759764,1.0921487234192,15.1669429999999,
0.187082917724609,1.09055885620117,-0.101274730224606,1.11111439911704,15.169906,
0.230178547607422,1.1001356628418,-0.0294486804199199,1.12434330398393,15.1729459999999,
0.232572749267578,1.11210667114258,-0.0916979235839825,1.139859570689,15.175933,
0.227784345947266,1.11210667114258,-0.0725443103027317,1.13751027829016,15.1788809999999,
0.266091572509766,1.14323129272461,0.0232237561035173,1.17401952985164,15.1819859999999,
0.222995942626953,1.19350952758789,-0.0174776721191385,1.21428894909484,15.1849619999999,
0.237361152587891,1.24139356079102,0.102232410888675,1.26801015586129,15.1880289999999,
0.218207539306641,1.28209498901367,0.028012159423831,1.30083310695101,15.1910469999999,
0.242149555908203,1.35631524047852,0.114203419189456,1.38248683897367,15.1940229999999,
0.282850984130859,1.37546885375977,0.0711077893066427,1.40604963091175,15.19706,
0.220601740966797,1.41138187866211,0.08547299926758,1.43107287345445,15.20006,
0.225390144287109,1.45926591186523,0.0711077893066427,1.47828077048094,15.2031549999999,
0.196659724365234,1.46405431518555,0.0543483776855496,1.47820290594961,15.2061799999999,
0.220601740966797,1.44968910522461,-0.0126892687988249,1.46643262629661,15.209166,
0.182294514404297,1.49757313842773,0.0184353527832055,1.5087400230505,15.212315,
0.208630732666016,1.50954414672852,0.0399831677246123,1.5244175829596,15.215334,
0.215813337646484,1.47841952514648,-0.0462080920410131,1.49480262135526,15.2184219999999,
0.225390144287109,1.46405431518555,-0.0653617053222639,1.48274337209034,15.22142,
0.237361152587891,1.4832079284668,-0.0797269152832012,1.50419495307131,15.2244489999999,
0.191871321044922,1.44011229858398,-0.120428343505857,1.45782064133141,15.2276129999999,
0.227784345947266,1.42574708862305,-0.0940921252441385,1.44689107987045,15.230593,
0.318764009033203,1.44011229858398,0.00167594116211234,1.47497007927841,15.233659,
0.325946614013672,1.40898767700195,0.08547299926758,1.44872119565296,15.2366629999999,
0.364253840576172,1.42335288696289,-0.0462080920410131,1.46994880488069,15.239696,
0.378619050537109,1.39462246704102,0.0208295544433614,1.44525363910405,15.2427339999999,
0.402561067138672,1.33476742553711,0.0351947644042987,1.39459605782186,15.2456659999999,
0.457627705322266,1.37546885375977,-0.0222660754394504,1.44977014124902,15.248698,
0.448050898681641,1.36110364379883,-0.0462080920410131,1.43369729187927,15.251712,
0.512694343505859,1.30843120727539,-0.0414196887207012,1.40590302106822,15.2546699999999,
0.455233503662109,1.2749123840332,-0.0749385119628876,1.35582259547218,15.2577829999999,
0.469598713623047,1.30364280395508,-0.13718775512695,1.39241803790997,15.260824,
0.445656697021484,1.29646019897461,-0.0964863269042944,1.37431020894297,15.263918,
0.467204511962891,1.33237322387695,-0.0629675036621062,1.41331644376629,15.266895,
0.445656697021484,1.30124860229492,-0.0988805285644503,1.37899788814333,15.269954,
0.469598713623047,1.27251818237305,-0.0940921252441385,1.3596612829449,15.2729579999999,
0.464810310302734,1.29885440063477,-0.0749385119628876,1.38155244532636,15.2759219999999,
0.507905940185547,1.31561381225586,-0.0557848986816385,1.41135399598934,15.279018,
0.483963923583984,1.26772977905273,0.00167594116211234,1.35696819447129,15.2820359999999,
0.448050898681641,1.2916717956543,0.0806845959472682,1.36955308021318,15.2850529999999,
0.431291487060547,1.30124860229492,0.028012159423831,1.37114731260393,15.288021,
0.359465437255859,1.35392103881836,0.0399831677246123,1.40139795691225,15.2910119999999,
0.333129218994141,1.32519061889648,0.126174427490238,1.37223366782461,15.294078,
0.321158210693359,1.34913263549805,0.186029468994143,1.39925281053708,15.297014,
0.218207539306641,1.26054717407227,0.145328040771487,1.28752240668126,15.30012,
0.203842329345703,1.32758482055664,0.20039467895508,1.3580100067227,15.303102,
0.112862666259766,1.26533557739258,0.226730897216799,1.29043364982606,15.306056,
0.120045271240234,1.26294137573242,0.174058460693361,1.28051869702203,15.3090989999999,
0.0170945998535156,1.22463414916992,0.308133753662112,1.26292020128082,15.312065,
0.0290656081542969,1.2150573425293,0.27700913208008,1.24657258692284,15.3151349999999,
0.0051235915527344,1.17435591430664,0.35362358520508,1.2264533030942,15.318096,
0.0194888015136719,1.23421095581055,0.356017786865237,1.28468095704406,15.32103,
0.000335188232421846,1.22942255249023,0.437420643310549,1.30492020603444,15.324132,
-0.0307894333496094,1.20308633422852,0.430238038330081,1.27807256696931,15.3271619999999,
0.0147003981933594,1.20308633422852,0.518823499755861,1.31027121360937,15.330253,
0.0362482131347656,1.20069213256836,0.451785853271486,1.28338847874806,15.333208,
0.0170945998535156,1.18632692260742,0.504458289794924,1.28924084592064,15.3361759999999,
0.0554018264160157,1.1982979309082,0.499669886474612,1.29948347009058,15.33921,
0.0170945998535156,1.17914431762695,0.537977113037112,1.29618398435092,15.342224,
0.0051235915527344,1.11450087280273,0.514035096435549,1.22734287264642,15.3453149999999,
0.00272938989257815,1.16717330932617,0.547553919677737,1.28923088643076,15.348356,
-0.0355778366699219,1.15041389770508,0.537977113037112,1.2704870297043,15.3513379999999,
-0.0140300217285156,1.1216834777832,0.413478626708986,1.19554809212623,15.3544909999999,
-0.00924161840820314,1.07379944458008,0.475727869873049,1.17449889777098,15.357483,
-0.0355778366699219,1.08098204956055,0.423055433349612,1.1613629379401,15.360598,
0.0266714064941406,1.09774146118164,0.413478626708986,1.17333382047341,15.363616,
0.0386424147949219,1.07858784790039,0.396719215087893,1.14988308861359,15.366757,
0.0984974562988281,1.0618284362793,0.351229383544924,1.12273926485806,15.369737,
0.103285859619141,1.07140524291992,0.348835181884768,1.13148713977409,15.372702,
0.127227876220703,1.04267482299805,0.265038123779298,1.08332955560997,15.375782,
0.158352497802734,1.07379944458008,0.31531635864258,1.13028543597114,15.37879,
0.184688716064453,1.04267482299805,0.272220728759768,1.09333656004089,15.38184,
0.234966950927734,1.0235212097168,0.250672913818361,1.07964903764631,15.384822,
0.270879975830078,1.04746322631836,0.221942493896487,1.10445173837156,15.3877689999999,
0.215813337646484,1.11928927612305,0.236307703857424,1.16414140517917,15.390857,
0.249332160888672,1.07858784790039,0.23870190551758,1.13247378415111,15.393796,
0.222995942626953,1.11928927612305,0.198000477294924,1.15833495288762,15.39688,
0.215813337646484,1.16477910766602,0.205183082275394,1.20224201540846,15.3999249999999,
0.246937959228516,1.12886608276367,0.178846864013675,1.16931740314154,15.402887,
0.208630732666016,1.15759650268555,0.0399831677246123,1.17692612314617,15.4060169999999,
0.189477119384766,1.1767501159668,0.0615309826660173,1.19349422957384,15.4089819999999,
0.187082917724609,1.22463414916992,0.00885854614258008,1.23887339597606,15.412073,
0.146381489501953,1.27012398071289,0.0687135876464868,1.28037651648959,15.4150589999999,
0.139198884521484,1.24378776245117,0.0304063610839869,1.25192207196362,15.418047,
0.112862666259766,1.25815297241211,-0.027054478759764,1.26349468864956,15.4211349999999,
0.0745554396972656,1.3132196105957,-0.0629675036621062,1.31684059998127,15.424134,
0.122439472900391,1.2533645690918,0.00646434448242417,1.25934743233485,15.427185,
0.0937090529785156,1.29406599731445,-0.0079008654785131,1.29747856078276,15.430174,
0.0937090529785156,1.35392103881836,0.00167594116211234,1.35716114545911,15.4332059999999,
0.0984974562988281,1.36110364379883,-0.101274730224606,1.36841567114742,15.436242,
0.127227876220703,1.39701666870117,0.028012159423831,1.40307775486326,15.4392829999999,
0.112862666259766,1.29646019897461,-0.0629675036621062,1.30288600248755,15.442371,
0.105680061279297,1.33476742553711,-0.0557848986816385,1.34010608182632,15.445387,
0.124833674560547,1.32758482055664,-0.10606313354492,1.33765252976028,15.44835,
0.112862666259766,1.37786305541992,-0.010295067138669,1.38251602859923,15.4513969999999,
0.105680061279297,1.3515268371582,-0.048602293701169,1.35652322127705,15.454394,
0.0266714064941406,1.39941087036133,-0.048602293701169,1.40050859724703,15.457456,
0.0242772048339844,1.3898340637207,-0.0653617053222639,1.3915819271159,15.460418,
0.0170945998535156,1.38743986206055,-0.048602293701169,1.38839611751537,15.463495,
0.0266714064941406,1.38504566040039,-0.0725443103027317,1.38720060635642,15.4665,
0.0123061965332031,1.39222826538086,-0.0174776721191385,1.39239234931151,15.46949,
-0.0283952316894531,1.38025725708008,-0.0629675036621062,1.38198454818509,15.47255,
0.0123061965332031,1.34434423217773,-0.0893037219238249,1.34736335552519,15.475565,
0.00272938989257815,1.33237322387695,-0.146764561767576,1.34043488982654,15.4785909999999,
-0.0020590134277344,1.31561381225586,-0.113245738525388,1.32048042008538,15.481583,
-0.00445321508789065,1.34913263549805,-0.101274730224606,1.3529357968036,15.484569,
0.0410366164550781,1.30603700561523,-0.149158763427732,1.31516728998017,15.4876939999999,
0.0937090529785156,1.3132196105957,-0.118034141845701,1.32183932113722,15.490738,
0.151169892822266,1.30364280395508,-0.10606313354492,1.31665723903267,15.4938209999999,
0.167929304443359,1.28448919067383,-0.192254393310545,1.30960852318391,15.496855,
0.158352497802734,1.25815297241211,-0.194648594970701,1.2829312105775,15.4998419999999,
0.187082917724609,1.23181675415039,-0.225773216552732,1.26623302721992,15.502939,
0.211024934326172,1.23899935913086,-0.187465989990232,1.27074562058544,15.50596,
0.251726362548828,1.21266314086914,-0.211408006591794,1.25642803219118,15.5091,
0.242149555908203,1.1982979309082,-0.209013804931638,1.24025848487217,15.512083,
0.287639387451172,1.11928927612305,-0.25929203979492,1.18438898287613,15.515052,
0.316369807373047,1.17435591430664,-0.168312376708982,1.22781542775682,15.518152,
0.354677033935547,1.14323129272461,-0.201831199951169,1.21388196310013,15.521227,
0.342706025634766,1.14562549438477,-0.187465989990232,1.21039195750539,15.524284,
0.378619050537109,1.16956751098633,-0.242532628173826,1.2530213980269,15.527255,
0.395378462158203,1.1599907043457,-0.127610948486327,1.23214735996982,16.104648,
0.412137873779297,1.31800801391602,-0.153947166748045,1.38949720471108,16.1090479999999,
0.412137873779297,1.28209498901367,-0.0988805285644503,1.35033423521233,16.111995,
0.381013252197266,1.30843120727539,-0.0916979235839825,1.36585937479365,16.11501,
0.347494428955078,1.30124860229492,-0.101274730224606,1.350650537375,16.11795,
0.373830647216797,1.25815297241211,-0.13718775512695,1.31966614525975,16.120876,
0.366648042236328,1.32040221557617,-0.108457335205076,1.37464751530492,16.123883,
0.321158210693359,1.29885440063477,-0.0869095202636689,1.3407902949591,16.1268319999999,
0.285245185791016,1.32519061889648,-0.134793553466794,1.36222769553566,16.1298539999999,
0.254120564208984,1.32758482055664,-0.110851536865232,1.3562251952208,16.132805,
0.194265522705078,1.32040221557617,-0.0390254870605453,1.33518691307646,16.135804,
0.191871321044922,1.29885440063477,-0.0581791003417944,1.31423824537425,16.138746,
0.165535102783203,1.30124860229492,-0.165918175048827,1.32218706544856,16.141671,
0.153564094482422,1.31082540893555,-0.103668931884764,1.32385513983343,16.144685,
0.108074262939453,1.2916717956543,-0.0653617053222639,1.29783212570861,16.1476249999999,
0.0817380446777344,1.30364280395508,-0.134793553466794,1.31313935677361,16.150629,
0.108074262939453,1.32519061889648,-0.149158763427732,1.3379307005329,16.153566,
0.0913148513183594,1.30124860229492,-0.108457335205076,1.30894970132758,16.156493,
0.0984974562988281,1.32279641723633,-0.0438138903808571,1.32718188932072,16.159509,
0.100891657958984,1.31800801391602,-0.0605733020019503,1.32325106321815,16.1624519999999,
0.100891657958984,1.32040221557617,-0.0294486804199199,1.32457856026838,16.1654659999999,
0.139198884521484,1.33716162719727,-0.0557848986816385,1.34554431425419,16.168412,
0.117651069580078,1.36110364379883,-0.0533906970214826,1.36722180711991,16.171339,
0.117651069580078,1.34434423217773,-0.0246602770996063,1.34970786395779,16.174358,
0.129622077880859,1.3898340637207,0.0447715710449241,1.39658336712363,16.1773129999999,
0.117651069580078,1.40180507202148,-0.010295067138669,1.40677120475431,16.1803199999999,
0.177506111083984,1.4065934753418,-0.0701501086425758,1.41948394217365,16.18327,
0.172717707763672,1.38025725708008,0.0160411511230496,1.39111423715909,16.186208,
0.213419135986328,1.42335288696289,-0.0581791003417944,1.44043950797919,16.1892339999999,
0.165535102783203,1.41617028198242,-0.0126892687988249,1.42586856174272,16.1922539999999,
0.211024934326172,1.43532389526367,-0.00550666381835718,1.45076411954827,16.19538,
0.237361152587891,1.45926591186523,-0.0174776721191385,1.47854752622715,16.1984329999999,
0.232572749267578,1.42095868530273,-0.0390254870605453,1.44039461873456,16.201415,
0.230178547607422,1.41856448364258,-0.0414196887207012,1.4377144878746,16.204438,
0.302004597412109,1.43771809692383,-0.000718260498045353,1.46909517015695,16.2073959999999,
0.323552412353516,1.41377608032227,-0.0079008654785131,1.45034871410516,16.2104409999999,
0.330735017333984,1.44011229858398,-0.00311246215820127,1.47760575650085,16.213406,
0.414532075439453,1.42095868530273,0.025617957763675,1.4804109924833,16.216335,
0.381013252197266,1.3682862487793,0.025617957763675,1.42057545970231,16.219341,
0.330735017333984,1.40419927368164,0.121386024169924,1.4477209049961,16.2222999999999,
0.352282832275391,1.4281412902832,0.0735019909667987,1.47278419383283,16.225342,
0.402561067138672,1.35870944213867,0.121386024169924,1.42228032672761,16.228304,
0.376224848876953,1.30843120727539,0.12378022583008,1.36706214393903,16.231353,
0.373830647216797,1.30603700561523,0.145328040771487,1.36623652866896,16.234326,
0.333129218994141,1.27251818237305,0.183635267333987,1.32815643371798,16.237253,
0.304398799072266,1.26533557739258,0.140539637451175,1.30900120014726,16.2402619999999,
0.270879975830078,1.19350952758789,0.0878672009277359,1.22701328385134,16.243211,
0.270879975830078,1.17914431762695,0.111809217529299,1.21501382058895,16.246214,
0.220601740966797,1.15280809936523,0.063925184326175,1.17546504468266,16.249153,
0.148775691162109,1.1216834777832,0.00407014282226825,1.13151429362389,16.252091,
0.187082917724609,1.1216834777832,0.00167594116211234,1.13717925201569,16.2551159999999,
0.163140901123047,1.1384428894043,0.0351947644042987,1.15061107134249,16.258075,
0.151169892822266,1.12886608276367,-0.027054478759764,1.13926419856461,16.26109,
0.153564094482422,1.15280809936523,-0.0773327136230453,1.16555943377959,16.2640259999999,
0.146381489501953,1.20548053588867,-0.0294486804199199,1.21469258977476,16.2669559999999,
0.139198884521484,1.1767501159668,0.0160411511230496,1.18506307148997,16.2699719999999,
0.124833674560547,1.24857616577148,-0.0342370837402317,1.25526812511907,16.2729039999999,
0.115256867919922,1.30124860229492,0.0567425793457055,1.30757477449208,16.275931,
0.129622077880859,1.33476742553711,0.0687135876464868,1.34280583871101,16.27887,
0.148775691162109,1.39941087036133,-0.0150834704589826,1.40737788153975,16.2817829999999,
0.172717707763672,1.42095868530273,0.0423773693847682,1.43204428470225,16.284807,
0.163140901123047,1.44250650024414,-0.010295067138669,1.45173893840223,16.287746,
0.220601740966797,1.49039053344727,-0.00550666381835718,1.50663844158219,16.290771,
0.177506111083984,1.51433255004883,-0.00550666381835718,1.52471040363603,16.2937159999999,
0.242149555908203,1.52390935668945,-0.0797269152832012,1.54508657228415,16.2966769999999,
0.285245185791016,1.54066876831055,-0.0773327136230453,1.56875919702827,16.2997809999999,
0.261303169189453,1.55024557495117,-0.130005150146483,1.57747964422643,16.3028489999999,
