X,Y,Z,Magnitude,Seconds,
0.461123239746094,-0.339737215576172,-0.0041180268554708,0.572776549822499,0.0,
0.458729038085938,-0.370861837158203,0.017429788085936,0.59014797310194,0.00381699999888951,
0.434787021484375,-0.325372005615234,-0.00890643017578263,0.543126155315513,0.00769799999943643,
0.465911643066406,-0.337343013916015,0.00785298144531055,0.575270056147858,0.0115449999993871,
0.444363828125,-0.342131417236328,0.09165003955078,0.568254210856112,0.0153190000000905,
0.461123239746094,-0.368467635498047,0.0270065947265614,0.590874264799356,0.0190800000000309,
0.451546433105469,-0.339737215576172,0.0341891997070292,0.56611346766733,0.0228579999984504,
0.458729038085938,-0.378044442138672,0.113197854492187,0.60511460474593,0.0266029999984312,
0.427604416503906,-0.351708223876953,0.05334281298828,0.556228071436375,0.0303619999995135,
0.468305844726563,-0.361285030517578,-0.0041180268554708,0.591484738286905,0.0342119999986608,
0.470700046386719,-0.375650240478515,0.0270065947265614,0.602827498542287,0.0379609999999957,
0.444363828125,-0.34691982055664,-0.0280600434570317,0.56444657823373,0.0416889999996783,
0.434787021484375,-0.38522704711914,0.0605254179687496,0.584040202472123,0.0455959999999322,
0.427604416503906,-0.358890828857422,0.0389776030273428,0.559613632419163,0.0495489999993879,
0.465911643066406,-0.351708223876953,0.0868616362304682,0.590184104950441,0.0533329999998386,
0.465911643066406,-0.375650240478515,0.101226846191405,0.606987344766152,0.0571949999994104,
0.4826710546875,-0.339737215576172,0.0270065947265614,0.590865533636308,0.0610069999984262,
0.453940634765625,-0.339737215576172,0.00785298144531055,0.567049508293984,0.0648199999995995,
0.427604416503906,-0.356496627197265,0.0557370146484359,0.559501561229808,0.0686459999997169,
0.415633408203125,-0.339737215576172,0.0653138212890614,0.540775739945289,0.0724149999987276,
0.475488449707031,-0.354102425537109,0.106015249511717,0.60225993284054,0.0761959999999817,
0.487459458007813,-0.366073433837891,0.0509486113281241,0.611737070283794,0.0800519999993412,
0.468305844726563,-0.287064779052734,0.120380459472655,0.562323756034281,0.0838249999997061,
0.437181223144531,-0.318189400634765,0.0748906279296868,0.545875922438572,0.0875550000000658,
0.415633408203125,-0.378044442138672,0.000670376464842803,0.561844444353675,0.0913039999995817,
0.456334836425781,-0.368467635498047,0.0844674345703105,0.592574576613067,0.0950400000001537,
0.492247861328125,-0.299035787353515,0.115592056152343,0.587445216633667,0.0987699999986944,
0.456334836425781,-0.315795198974609,0.0748906279296868,0.559979193169586,0.102490999999645,
0.434787021484375,-0.361285030517578,-0.0160890351562522,0.565531152439546,0.106320999999298,
0.461123239746094,-0.380438643798828,0.0294007963867173,0.598525363504002,0.110072999999829,
0.401268198242188,-0.366073433837891,0.0461602080078105,0.545120803754287,0.113824999998542,
0.492247861328125,-0.30861259399414,0.0557370146484359,0.583657695019799,0.117806000000201,
0.504218869628906,-0.397198055419922,0.0557370146484359,0.644289980149575,0.121680000000197,
0.413239206542969,-0.394803853759765,0.05334281298828,0.574005383655351,0.125468000000183,
0.46351744140625,-0.358890828857422,-0.0041180268554708,0.586232039103072,0.129363000000012,
0.439575424804688,-0.342131417236328,0.0796790312499986,0.562698150675207,0.133205999998609,
0.4826710546875,-0.370861837158203,-0.00651222851562672,0.608730037384176,0.137060999999449,
0.509007272949219,-0.354102425537109,0.0294007963867173,0.620758679773902,0.140896999999313,
0.485065256347656,-0.330160408935547,-0.0400310517578131,0.58812981870412,0.14467699999841,
0.449152231445313,-0.349314022216797,0.0485544096679682,0.571065271074844,0.148502000000008,
0.453940634765625,-0.311006795654297,0.0485544096679682,0.552399183139129,0.152344000000085,
0.456334836425781,-0.342131417236328,0.0820732329101546,0.576221663213218,0.15626599999996,
0.530555087890625,-0.337343013916015,0.0413718046874987,0.630079865213665,0.160041999999521,
0.382114584960938,-0.351708223876953,0.0270065947265614,0.520038062973543,0.163844999999128,
0.446758029785156,-0.382832845458984,0.0509486113281241,0.590550155140104,0.167600999999195,
0.451546433105469,-0.339737215576172,0.0461602080078105,0.566962363566618,0.171375999998418,
0.552102902832031,-0.303824190673828,0.0365834013671869,0.631240920259258,0.175121000000217,
0.576044919433594,-0.375650240478515,0.017429788085936,0.687927794095821,0.178937999999107,
0.31028853515625,-0.351708223876953,0.0389776030273428,0.47063457515343,0.182693999999174,
0.518584079589844,-0.354102425537109,0.0844674345703105,0.633602969436065,0.186518999998952,
0.461123239746094,-0.375650240478515,0.017429788085936,0.595022304555233,0.190518999999767,
0.46351744140625,-0.449870491943359,0.0772848295898427,0.650541945529946,0.194308999998611,
0.480276853027344,-0.291853182373047,0.0437660063476546,0.563701693209047,0.198107000000164,
0.439575424804688,-0.375650240478515,0.0413718046874987,0.57969930436985,0.201975999998467,
0.367749375,-0.325372005615234,0.0461602080078105,0.493190946443966,0.205832999999984,
0.504218869628906,-0.378044442138672,0.0892558378906241,0.636491063031798,0.209682999999131,
0.427604416503906,-0.296641585693359,0.0509486113281241,0.522912543713173,0.21346899999844,
0.434787021484375,-0.368467635498047,0.0222181914062478,0.570352347667773,0.217254999999568,
0.511401474609375,-0.361285030517578,-0.0663672700195335,0.629653044174787,0.221035999999003,
0.530555087890625,-0.318189400634765,0.0605254179687496,0.621608013287499,0.224905999999464,
0.396479794921875,-0.394803853759765,0.0317949980468732,0.560425938573203,0.228680000000168,
0.408450803222656,-0.411563265380859,0.0150355864257801,0.580036592745109,0.232441000000108,
0.429998618164063,-0.325372005615234,-0.0639730683593758,0.54300857003955,0.236199999999371,
0.449152231445313,-0.397198055419922,0.0126413847656242,0.599719790277479,0.239963999998508,
0.432392819824219,-0.349314022216797,0.05334281298828,0.558416773073946,0.243708999998489,
0.537737692871094,-0.387621248779297,0.05334281298828,0.665024446570989,0.247527999999875,
0.461123239746094,-0.330160408935547,0.0413718046874987,0.568640628240299,0.251314999999522,
0.434787021484375,-0.380438643798828,0.0126413847656242,0.577869466536811,0.255073999998785,
0.339018955078125,-0.315795198974609,0.0126413847656242,0.463487070161045,0.259015999999974,
0.413239206542969,-0.368467635498047,0.0485544096679682,0.55578104585528,0.26292999999896,
0.353384165039063,-0.445082088623047,0.0605254179687496,0.571525817381595,0.266716999998607,
0.408450803222656,-0.387621248779297,0.0581312163085919,0.566093216235604,0.270508999999947,
0.497036264648438,-0.366073433837891,0.00785298144531055,0.617346318248612,0.274394999998549,
0.389297189941406,-0.363679232177734,0.144322476074217,0.551945525494912,0.278199999998833,
0.429998618164063,-0.380438643798828,0.0796790312499986,0.579638785227001,0.282013999998526,
0.552102902832031,-0.337343013916015,0.0102471831054682,0.647088038148669,0.285772999999608,
0.370143576660156,-0.416351668701172,0.0605254179687496,0.560373362672884,0.289526999998998,
0.554497104492188,-0.320583602294922,0.0748906279296868,0.644863932238663,0.293319999998857,
0.746033237304688,-0.227209737548828,0.0317949980468732,0.780513150370396,0.297166999998808,
0.204943662109375,-0.51930234008789,-0.0639730683593758,0.561933606874401,0.300927999998748,
0.27198130859375,-0.394803853759765,0.0246123930664055,0.48005175248132,0.304358999999749,
0.695755002441406,-0.258334359130859,0.0820732329101546,0.7466911544207,0.307342999998582,
0.54013189453125,-0.299035787353515,0.0701022246093732,0.621352707810337,0.310287999998764,
0.434787021484375,-0.440293685302734,0.0270065947265614,0.619376815458443,0.31333899999845,
0.398873996582031,-0.397198055419922,0.0629196196289055,0.566414723425279,0.316302999999607,
0.470700046386719,-0.34691982055664,0.0485544096679682,0.586744770970919,0.319346000000223,
0.506613071289062,-0.363679232177734,0.0341891997070292,0.624570483848645,0.32230299999901,
0.480276853027344,-0.368467635498047,0.05334281298828,0.607683889584768,0.325260999999955,
0.46351744140625,-0.344525618896484,0.0868616362304682,0.584030191353526,0.328302999998414,
0.537737692871094,-0.325372005615234,0.0772848295898427,0.633246960716858,0.331269999998767,
0.509007272949219,-0.342131417236328,0.0437660063476546,0.614864028779503,0.334311999999045,
0.509007272949219,-0.363679232177734,0.0437660063476546,0.62710960058367,0.337276000000202,
0.52097828125,-0.40438066040039,0.0988326445312495,0.666865788345076,0.340221999998903,
0.418027609863281,-0.485783516845703,0.0557370146484359,0.643303445233202,0.343265999999858,
0.46351744140625,-0.397198055419922,0.0389776030273428,0.611664914193156,0.346220999999787,
0.432392819824219,-0.38522704711914,0.0461602080078105,0.58094250427301,0.34936099999868,
0.365355173339844,-0.368467635498047,-0.0184832368164081,0.519224836789343,0.35238599999866,
-0.197282216796875,-0.55760956665039,0.017429788085936,0.591736849788017,0.355426999998599,
0.130723410644531,-0.27030536743164,0.00306457812499872,0.300271532769887,0.358503999999812,
0.418027609863281,-0.380438643798828,0.0126413847656242,0.565367534363525,0.361465999998472,
0.413239206542969,-0.366073433837891,0.177841299316405,0.580003386652763,0.364503999999215,
0.432392819824219,-0.399592257080078,-0.00890643017578263,0.58882666978693,0.367464999999356,
0.561679709472656,-0.378044442138672,0.113197854492187,0.68645134607404,0.370511999999508,
0.339018955078125,-0.459447298583984,0.0485544096679682,0.57304729540989,0.373467999999775,
0.293529123535156,-0.536061751708984,0.0988326445312495,0.619103738991828,0.376419999998689,
0.243250888671875,-0.401986458740234,0.0246123930664055,0.470499604402199,0.379469999999856,
0.379720383300781,-0.418745870361328,-0.00890643017578263,0.565345025570434,0.382423999999446,
0.4826710546875,-0.42353427368164,0.149110879394529,0.659231888162267,0.385467999998582,
0.556891306152344,-0.361285030517578,0.16108188769531,0.68308284613774,0.388437999999951,
0.592804331054688,-0.394803853759765,0.0557370146484359,0.71441841567997,0.391413999999713,
0.52097828125,-0.50014872680664,0.0437660063476546,0.723520961529195,0.394456999998511,
0.327047946777344,-0.299035787353515,0.115592056152343,0.457978476628476,0.397415999999794,
0.391691391601563,-0.411563265380859,0.0509486113281241,0.570440381338829,0.400453000000198,
0.331836350097656,-0.380438643798828,0.0437660063476546,0.506719240066182,0.403411999999662,
0.4060566015625,-0.344525618896484,0.00785298144531055,0.532580073853756,0.406364999998914,
0.504218869628906,-0.320583602294922,0.0126413847656242,0.597637280596712,0.409399999998641,
0.468305844726563,-0.315795198974609,0.0294007963867173,0.565598248519782,0.412367999999333,
0.444363828125,-0.351708223876953,0.0365834013671869,0.567887516806082,0.415395999998509,
0.413239206542969,-0.392409652099609,0.00785298144531055,0.569924246021152,0.418357999998989,
0.38690298828125,-0.394803853759765,0.0796790312499986,0.558491497970615,0.421312999998918,
0.439575424804688,-0.459447298583984,0.0677080229492173,0.639455041922443,0.424355999999534,
0.346201560058594,-0.356496627197265,-0.00172382519531311,0.496938967040555,0.427306999999928,
0.370143576660156,-0.32776620727539,0.0317949980468732,0.495426963209783,0.430355999998937,
0.410845004882813,-0.315795198974609,0.0677080229492173,0.522594108371175,0.433316999999079,
0.525766684570312,-0.255940157470703,0.0294007963867173,0.585491569229105,0.436271999999008,
0.640688364257813,-0.224815535888672,-0.0256658417968758,0.679472104436528,0.439296999998987,
0.552102902832031,-0.320583602294922,0.0389776030273428,0.639617631803331,0.442267999998876,
0.573650717773438,-0.279882174072265,0.0102471831054682,0.638368374942709,0.445315999999366,
0.374931979980469,-0.253545955810547,0.0246123930664055,0.453282815924466,0.448279999998704,
0.549708701171875,-0.21284452758789,0.0294007963867173,0.590209162836664,0.451226999999562,
0.611957944335938,-0.150595284423828,0.0102471831054682,0.63029871496629,0.454270000000179,
0.825041892089844,-0.0213083947753905,0.0150355864257801,0.825453960103324,0.457227999999304,
0.758004245605469,-0.0596156213378904,0.0509486113281241,0.762050011258896,0.46027199999844,
0.619140549316406,-0.150595284423828,0.0509486113281241,0.639225875958396,0.463232000000062,
0.729273825683594,-0.203267720947265,-0.0184832368164081,0.757297635840421,0.466233999999531,
0.7125144140625,-0.0859518395996092,0.0605254179687496,0.720227627349629,0.469202999998743,
0.750821640625,-0.191296712646484,0.0126413847656242,0.774911203241353,0.472153999999136,
0.623928952636719,-0.121864864501953,-0.104674496582033,0.644278769922721,0.475178999999116,
0.645476767578125,-0.25115175415039,0.017429788085936,0.692835664936963,0.478138999998919,
0.602381137695312,-0.248757552490234,0.163476089355468,0.671913526253928,0.481155999999828,
0.513795676269531,-0.351708223876953,0.0701022246093732,0.626577204812886,0.484123000000181,
0.473094248046875,-0.296641585693359,-0.0543962617187521,0.561046656871497,0.487095999998928,
0.377326181640625,-0.378044442138672,0.0150355864257801,0.534339514206652,0.490230999999767,
0.449152231445313,-0.32776620727539,-0.0041180268554708,0.556044397318398,0.493264999999155,
0.523372482910156,-0.306218392333984,-0.0184832368164081,0.60665483572981,0.496384999998554,
0.576044919433594,-0.287064779052734,0.0222181914062478,0.643993466276806,0.499361000000135,
0.554497104492188,-0.272699569091797,0.0940442412109359,0.625041129189122,0.502307999999175,
0.547314499511719,-0.248757552490234,0.0389776030273428,0.602455587437325,0.505357999998523,
0.643082565917969,-0.255940157470703,-0.0256658417968758,0.692617705685401,0.508326999999554,
0.530555087890625,-0.172143099365234,0.0198239897460919,0.558135233178439,0.511384999999791,
0.475488449707031,-0.301429989013672,0.0365834013671869,0.564169876311356,0.514341999998578,
0.686178195800781,-0.152989486083984,-0.0280600434570317,0.703586288441913,0.517275999998674,
0.7891288671875,-0.229603939208984,0.0605254179687496,0.824078675946176,0.520339999999123,
0.475488449707031,-0.344525618896484,-0.00172382519531311,0.587188333887949,0.523303999998461,
0.267192905273438,-0.394803853759765,0.0126413847656242,0.476887760569314,0.526350000000093,
0.322259543457031,-0.32776620727539,-0.00651222851562672,0.459700238308692,0.529329999999391,
0.468305844726563,-0.363679232177734,0.00306457812499872,0.592943791401453,0.532305999999153,
0.576044919433594,-0.294247384033203,0.0653138212890614,0.650134730242138,0.535362999999052,
0.564073911132813,-0.330160408935547,0.0772848295898427,0.658147565317905,0.538336999999956,
0.511401474609375,-0.296641585693359,0.0461602080078105,0.593007979203179,0.541395000000193,
0.434787021484375,-0.315795198974609,0.0198239897460919,0.537735392471167,0.544366000000082,
0.441969626464844,-0.368467635498047,0.0389776030273428,0.576736337215501,0.547327000000223,
0.42521021484375,-0.392409652099609,0.017429788085936,0.578872057868684,0.550370999999359,
0.456334836425781,-0.358890828857422,0.0844674345703105,0.586667586863806,0.553345999998783,
0.537737692871094,-0.342131417236328,0.00785298144531055,0.637398934978751,0.556389999999737,
0.497036264648438,-0.363679232177734,0.0126413847656242,0.616009283129605,0.559370999999373,
0.552102902832031,-0.334948812255859,0.0437660063476546,0.647243219708626,0.5624059999991,
0.597592734375,-0.303824190673828,0.0653138212890614,0.673566708105274,0.565382999999201,
0.561679709472656,-0.313400997314453,0.0341891997070292,0.644106499367603,0.568341000000146,
0.532949289550781,-0.313400997314453,0.00785298144531055,0.618317717413917,0.571382999998605,
0.530555087890625,-0.349314022216797,0.0246123930664055,0.635700210237782,0.5743480000001,
0.552102902832031,-0.32776620727539,0.0868616362304682,0.647914535873277,0.577376999999615,
0.552102902832031,-0.349314022216797,0.0461602080078105,0.654956995715105,0.580343999999968,
0.497036264648438,-0.380438643798828,0.0701022246093732,0.629835638850602,0.583294000000024,
0.494642062988281,-0.299035787353515,0.017429788085936,0.578270672011092,0.586363999998866,
0.509007272949219,-0.354102425537109,0.0461602080078105,0.621777851398543,0.589324999999008,
0.473094248046875,-0.318189400634765,0.0461602080078105,0.572008240338086,0.592364000000089,
0.487459458007813,-0.279882174072265,0.0820732329101546,0.568055252704359,0.595330999998623,
0.504218869628906,-0.311006795654297,0.0581312163085919,0.595265599327327,0.598280999998678,
0.532949289550781,-0.325372005615234,-0.0304542451171894,0.625163457278511,0.601305000000139,
0.458729038085938,-0.332554610595703,0.0294007963867173,0.567352893920426,0.604276000000027,
0.523372482910156,-0.306218392333984,0.0437660063476546,0.607950592550722,0.607315999999628,
0.420421811523438,-0.344525618896484,0.0389776030273428,0.544951057635831,0.610283999998501,
0.362960971679688,-0.413957467041015,0.0509486113281241,0.552898917052602,0.613228000000163,
0.398873996582031,-0.356496627197265,0.000670376464842803,0.534967998815773,0.616271999999299,
0.432392819824219,-0.339737215576172,0.0413718046874987,0.551449501320012,0.619227999999566,
0.489853659667969,-0.303824190673828,0.0509486113281241,0.578672193668378,0.622271999998702,
0.530555087890625,-0.301429989013672,0.0317949980468732,0.611031637040351,0.62522799999897,
0.513795676269531,-0.296641585693359,-0.00890643017578263,0.593347749481206,0.628251999998611,
0.427604416503906,-0.330160408935547,0.05334281298828,0.542859915944838,0.631384999998772,
-0.000957680664062498,-0.516908138427734,-0.0472136567382826,0.519060757626388,0.634401999999682,
0.860954916992188,-0.339737215576172,0.103621047851561,0.931344225460345,0.637498000000051,
0.678995590820313,-0.0739808312988279,0.0126413847656242,0.68313101258974,0.640453999998499,
0.382114584960938,-0.449870491943359,0.0509486113281241,0.592444745573369,0.643393999998807,
0.322259543457031,-0.457053096923828,0.0389776030273428,0.560596111558539,0.646445999998832,
0.506613071289062,-0.267911165771484,0.0437660063476546,0.574759654166501,0.649430999999822,
0.461123239746094,-0.358890828857422,0.0629196196289055,0.587704132881628,0.652463999998872,
0.456334836425781,-0.394803853759765,0.0844674345703105,0.609299855064973,0.655433999998422,
0.350989963378906,-0.349314022216797,0.0820732329101546,0.50194646733524,0.658462999999756,
0.264798703613281,-0.495360323486328,-0.0280600434570317,0.562394496380045,0.66141400000015,
0.571256516113281,-0.227209737548828,-0.0041180268554708,0.614796901573254,0.664376999999149,
0.592804331054688,-0.339737215576172,0.00785298144531055,0.683300826782923,0.667423999999301,
0.370143576660156,-0.349314022216797,0.0868616362304682,0.516305623936718,0.670419000000038,
0.437181223144531,-0.294247384033203,0.0557370146484359,0.529920333335542,0.673449999998411,
0.504218869628906,-0.351708223876953,0.0294007963867173,0.615467099088738,0.676425999999992,
0.516189877929687,-0.303824190673828,0.0389776030273428,0.600233606567834,0.679376999998567,
0.465911643066406,-0.32776620727539,0.0485544096679682,0.571718354152407,0.682428000000073,
0.477882651367188,-0.354102425537109,0.0365834013671869,0.595901587096888,0.685389000000214,
0.497036264648438,-0.322977803955078,0.09165003955078,0.599799499810542,0.688430000000153,
0.511401474609375,-0.318189400634765,0.0748906279296868,0.606946924418155,0.691393999999491,
0.492247861328125,-0.34691982055664,0.0581312163085919,0.605012857042461,0.694346999998743,
0.489853659667969,-0.34691982055664,0.0461602080078105,0.602030509682423,0.697387000000163,
0.451546433105469,-0.380438643798828,0.0796790312499986,0.595799035721527,0.700364999998783,
0.504218869628906,-0.337343013916015,0.117986257812499,0.618027292730985,0.703397999999652,
0.513795676269531,-0.30861259399414,0.0557370146484359,0.601942144169169,0.706357999999454,
0.516189877929687,-0.34691982055664,0.0437660063476546,0.623474791217528,0.709308999999848,
0.437181223144531,-0.34691982055664,0.00306457812499872,0.558113048946434,0.712351999998646,
0.46351744140625,-0.344525618896484,0.0629196196289055,0.580951976585026,0.715317000000141,
0.492247861328125,-0.30861259399414,0.0294007963867173,0.581733699369461,0.718359999998938,
0.513795676269531,-0.28945898071289,0.106015249511717,0.599175877015791,0.721319000000221,
0.465911643066406,-0.361285030517578,0.0868616362304682,0.595940832859739,0.724288999999771,
0.422816013183594,-0.394803853759765,0.0150355864257801,0.578679127675431,0.727340999999797,
0.532949289550781,-0.299035787353515,0.00785298144531055,0.611162021618163,0.730302999998457,
0.566468112792969,-0.296641585693359,0.12995726611328,0.652511489699251,0.733349000000089,
0.4060566015625,-0.349314022216797,0.0365834013671869,0.536880429001986,0.736307999999553,
0.389297189941406,-0.358890828857422,0.0246123930664055,0.530057260139598,0.73925699999927,
0.487459458007813,-0.32776620727539,0.0222181914062478,0.587827404824179,0.742295999998532,
0.489853659667969,-0.344525618896484,0.0246123930664055,0.599383249564553,0.745256999998674,
0.489853659667969,-0.394803853759765,0.0413718046874987,0.630506397316288,0.748297999998613,
0.628717355957031,-0.318189400634765,0.0724964262695291,0.70836836475083,0.751265999999305,
0.647870969238281,-0.284670577392578,0.0222181914062478,0.708002668387725,0.754291999999623,
0.468305844726563,-0.332554610595703,0.0150355864257801,0.574568535592305,0.757265000000189,
0.236068283691406,-0.433111080322265,0.0653138212890614,0.497573449567303,0.760214999998425,
0.355778366699219,-0.421140072021484,0.0605254179687496,0.554617465189942,0.763268999999127,
0.518584079589844,-0.306218392333984,0.0246123930664055,0.602747809038001,0.766265000000203,
0.576044919433594,-0.311006795654297,0.0485544096679682,0.656437740266824,0.769384999999602,
0.475488449707031,-0.282276375732422,-0.0184832368164081,0.553272851443697,0.772422999998525,
0.391691391601563,-0.337343013916015,0.0341891997070292,0.518065012010381,0.775465999999142,
0.513795676269531,-0.30861259399414,0.0270065947265614,0.599964237504022,0.778519999999844,
0.638294162597656,-0.23199814086914,0.0629196196289055,0.682056782025681,0.781473999999434,
0.437181223144531,-0.366073433837891,0.00306457812499872,0.57021625061997,0.784510999999839,
0.561679709472656,-0.32776620727539,0.0940442412109359,0.657083786110967,0.787486999999601,
0.377326181640625,-0.27030536743164,0.0892558378906241,0.472659119885997,0.790449000000081,
0.470700046386719,-0.28945898071289,0.0461602080078105,0.554505004474377,0.79348199999913,
0.561679709472656,-0.344525618896484,-0.0113006318359385,0.659021776870222,0.796432999999524,
0.4826710546875,-0.303824190673828,0.113197854492187,0.581458717479912,0.799487000000227,
0.518584079589844,-0.28945898071289,-0.00890643017578263,0.593965717544259,0.802442000000156,
0.700543405761719,-0.344525618896484,0.05334281298828,0.78249883139193,0.805399999999281,
0.286346518554688,-0.220027132568359,0.0629196196289055,0.366558516868577,0.808460000000196,
0.422816013183594,-0.48099511352539,0.0701022246093732,0.644239087711197,0.811445999999705,
0.494642062988281,-0.263122762451172,0.0509486113281241,0.562583433450988,0.814485999999306,
0.564073911132813,0.00263362182617222,0.0892558378906241,0.571097993151919,0.817455999998856,
0.516189877929687,-0.138624276123047,0.00545877978515463,0.534507697123668,0.820404999998573,
0.671812985839844,-0.277487972412109,-0.0256658417968758,0.727317673517956,0.823422999999821,
0.449152231445313,-0.196085115966797,0.0485544096679682,0.492488203324933,0.826387999999497,
0.429998618164063,-0.390015450439453,0.0796790312499986,0.585968950734961,0.829424999999901,
0.248039291992187,-0.272699569091797,0.0892558378906241,0.379282414504541,0.832398999998986,
0.350989963378906,-0.366073433837891,0.0988326445312495,0.516692950387008,0.835353999998915,
0.456334836425781,-0.399592257080078,0.05334281298828,0.608901396411273,0.838399000000209,
0.358172568359375,-0.44268788696289,0.0222181914062478,0.569871741726316,0.841370000000097,
0.374931979980469,-0.445082088623047,0.0701022246093732,0.586162415308514,0.844408999999359,
0.470700046386719,-0.449870491943359,0.0653138212890614,0.654375953440527,0.847372999998697,
0.367749375,-0.512119735107422,0.0509486113281241,0.632536154615411,0.850391999998465,
0.350989963378906,-0.679713851318359,0.0605254179687496,0.767377482264794,0.85336499999903,
0.274375510253906,-0.643800826416015,0.113197854492187,0.708925369120523,0.856327999999849,
0.408450803222656,-0.598310994873047,0.017429788085936,0.724646053430175,0.859366999999111,
0.465911643066406,-0.483389315185547,0.0748906279296868,0.675534969732947,0.862334999999803,
0.422816013183594,-0.387621248779297,0.0485544096679682,0.575657141194214,0.865382999998474,
0.429998618164063,-0.332554610595703,0.0892558378906241,0.550870207262128,0.868355999999039,
0.441969626464844,-0.322977803955078,0.110803652832029,0.558506277535033,0.871299999998882,
0.492247861328125,-0.220027132568359,0.0389776030273428,0.540591481237102,0.874351999998908,
0.473094248046875,-0.260728560791015,0.0222181914062478,0.540639619318227,0.877307999999175,
0.588015927734375,-0.217632930908203,0.0341891997070292,0.627929713631724,0.880355999999665,
0.647870969238281,-0.220027132568359,0.0557370146484359,0.68648040514637,0.883315999999468,
0.530555087890625,-0.296641585693359,0.0413718046874987,0.60925902362821,0.886271999999735,
0.394085593261719,-0.25115175415039,0.0365834013671869,0.468741937194499,0.889311999999336,
0.391691391601563,-0.260728560791015,0.0365834013671869,0.471953253959029,0.892280000000028,
0.451546433105469,-0.229603939208984,0.05334281298828,0.509369812462475,0.895316000000093,
0.497036264648438,-0.27030536743164,0.0892558378906241,0.572779752291911,0.898283999998966,
0.535343491210938,-0.284670577392578,0.103621047851561,0.615115690559747,0.901226999998471,
0.628717355957031,-0.516908138427734,0.0868616362304682,0.818550231264435,0.904273000000103,
0.379720383300781,-0.773087716064453,0.0557370146484359,0.863109958826663,0.90730799999983,
0.432392819824219,-1.23277443481445,0.00785298144531055,1.30642949564269,0.910452999998597,
0.590410129394531,-0.0667982263183592,0.0317949980468732,0.595026928661003,0.913478999998915,
0.908838950195313,-0.380438643798828,0.0748906279296868,0.988094330132155,0.916486999998597,
0.518584079589844,-0.344525618896484,0.09165003955078,0.62930682455358,0.919520999999804,
0.461123239746094,-0.370861837158203,0.103621047851561,0.600758242600255,0.922473999999056,
0.509007272949219,-0.294247384033203,0.0892558378906241,0.594673466301584,0.925524000000223,
0.671812985839844,-0.114682259521484,0.0796790312499986,0.686173051505914,0.92849699999897,
0.640688364257813,-0.265516964111328,0.0461602080078105,0.695062301617324,0.931439999998474,
0.480276853027344,-0.452264693603515,0.139534072753905,0.674298870007523,0.934479999999894,
0.360566770019531,-0.279882174072265,0.0365834013671869,0.457909131008902,0.937439999999697,
0.573650717773438,-0.356496627197265,0.0437660063476546,0.676816411234708,0.940474999999424,
0.554497104492188,-0.466629903564453,0.0964384428710918,0.731102509265419,0.943450999999186,
0.334230551757813,-0.540850155029297,0.125168862792968,0.647993978472355,0.946475999999166,
0.212126267089844,-0.488177718505859,0.0509486113281241,0.534706273603856,0.949474999999438,
0.367749375,-0.44268788696289,0.0605254179687496,0.578684278598314,0.952449999998862,
0.485065256347656,-0.392409652099609,0.0940442412109359,0.630965892328178,0.955493999999817,
0.513795676269531,-0.507331331787109,0.12995726611328,0.733662025855083,0.95845399999962,
0.568862314453125,-0.516908138427734,0.156293484374999,0.784363442312216,0.961476999998922,
0.710120212402344,-0.531273348388672,0.146716677734373,0.898914829277987,0.964441999998598,
0.506613071289062,-0.603099398193359,0.156293484374999,0.80300270320853,0.967393999999331,
0.418027609863281,-0.59591679321289,0.225725332519531,0.762112742828904,0.970437999998467,
0.643082565917969,-0.490571920166015,0.185023904296873,0.829728775326172,0.973389999999199,
0.810676682128906,-0.478600911865234,0.225725332519531,0.968094748217765,0.976425999999265,
0.750821640625,-0.401986458740234,0.165870291015624,0.867663069677936,0.979397999999492,
0.604775339355469,-0.248757552490234,0.0868616362304682,0.659680585482162,0.982347999999547,
0.609563742675781,-0.272699569091797,0.0150355864257801,0.667951405587955,0.985391999998683,
0.595198532714844,-0.277487972412109,0.00785298144531055,0.656751503612186,0.988357000000178,
0.391691391601563,-0.28945898071289,-0.0520020600585944,0.489809005654706,0.991378999999142,
0.319865341796875,-0.311006795654297,0.0102471831054682,0.446255609026466,0.994348000000173,
0.327047946777344,-0.387621248779297,0.0677080229492173,0.511659035264882,0.997295999999551,
0.245645090332031,-0.390015450439453,-0.0400310517578131,0.462661914458666,1.00032300000021,
0.269587106933594,-0.30861259399414,-0.00172382519531311,0.409782763143987,1.00329499999862,
0.31028853515625,-0.306218392333984,0.017429788085936,0.436294025131839,1.00636200000008,
0.243250888671875,-0.198479317626953,-0.0280600434570317,0.315202157994085,1.00931399999899,
0.212126267089844,-0.208056124267578,0.000670376464842803,0.297128513339468,1.0122879999999,
0.4826710546875,-0.351708223876953,0.0270065947265614,0.597828886835145,1.01534199999878,
0.291134921875,-0.23199814086914,-0.0041180268554708,0.372289723531395,1.01828699999896,
