X,Y,Z,Magnitude,Seconds,
0.561679709472656,-0.32776620727539,0.0940442412109359,0.657083786110967,0.0,
0.377326181640625,-0.27030536743164,0.0892558378906241,0.472659119885997,0.00296200000047975,
0.470700046386719,-0.28945898071289,0.0461602080078105,0.554505004474377,0.00599499999952968,
0.561679709472656,-0.344525618896484,-0.0113006318359385,0.659021776870222,0.00894599999992352,
0.4826710546875,-0.303824190673828,0.113197854492187,0.581458717479912,0.0120000000006257,
0.518584079589844,-0.28945898071289,-0.00890643017578263,0.593965717544259,0.0149550000005547,
0.700543405761719,-0.344525618896484,0.05334281298828,0.78249883139193,0.0179129999996803,
0.286346518554688,-0.220027132568359,0.0629196196289055,0.366558516868577,0.0209730000005948,
0.422816013183594,-0.48099511352539,0.0701022246093732,0.644239087711197,0.0239590000001044,
0.494642062988281,-0.263122762451172,0.0509486113281241,0.562583433450988,0.0269989999997051,
0.564073911132813,0.00263362182617222,0.0892558378906241,0.571097993151919,0.0299689999992552,
0.516189877929687,-0.138624276123047,0.00545877978515463,0.534507697123668,0.0329179999989719,
0.671812985839844,-0.277487972412109,-0.0256658417968758,0.727317673517956,0.0359360000002198,
0.449152231445313,-0.196085115966797,0.0485544096679682,0.492488203324933,0.0389009999998962,
0.429998618164063,-0.390015450439453,0.0796790312499986,0.585968950734961,0.0419380000003002,
0.248039291992187,-0.272699569091797,0.0892558378906241,0.379282414504541,0.0449119999993854,
0.350989963378906,-0.366073433837891,0.0988326445312495,0.516692950387008,0.0478669999993144,
0.456334836425781,-0.399592257080078,0.05334281298828,0.608901396411273,0.0509120000006078,
0.358172568359375,-0.44268788696289,0.0222181914062478,0.569871741726316,0.0538830000004964,
0.374931979980469,-0.445082088623047,0.0701022246093732,0.586162415308514,0.0569219999997586,
0.470700046386719,-0.449870491943359,0.0653138212890614,0.654375953440527,0.0598859999990964,
0.367749375,-0.512119735107422,0.0509486113281241,0.632536154615411,0.0629049999988638,
0.350989963378906,-0.679713851318359,0.0605254179687496,0.767377482264794,0.0658779999994294,
0.274375510253906,-0.643800826416015,0.113197854492187,0.708925369120523,0.0688410000002477,
0.408450803222656,-0.598310994873047,0.017429788085936,0.724646053430175,0.0718799999995099,
0.465911643066406,-0.483389315185547,0.0748906279296868,0.675534969732947,0.0748480000002019,
0.422816013183594,-0.387621248779297,0.0485544096679682,0.575657141194214,0.0778959999988729,
0.429998618164063,-0.332554610595703,0.0892558378906241,0.550870207262128,0.0808689999994385,
0.441969626464844,-0.322977803955078,0.110803652832029,0.558506277535033,0.0838129999992816,
0.492247861328125,-0.220027132568359,0.0389776030273428,0.540591481237102,0.0868649999993067,
0.473094248046875,-0.260728560791015,0.0222181914062478,0.540639619318227,0.0898209999995743,
0.588015927734375,-0.217632930908203,0.0341891997070292,0.627929713631724,0.0928690000000643,
0.647870969238281,-0.220027132568359,0.0557370146484359,0.68648040514637,0.0958289999998669,
0.530555087890625,-0.296641585693359,0.0413718046874987,0.60925902362821,0.0987850000001345,
0.394085593261719,-0.25115175415039,0.0365834013671869,0.468741937194499,0.101824999999735,
0.391691391601563,-0.260728560791015,0.0365834013671869,0.471953253959029,0.104793000000427,
0.451546433105469,-0.229603939208984,0.05334281298828,0.509369812462475,0.107829000000493,
0.497036264648438,-0.27030536743164,0.0892558378906241,0.572779752291911,0.110796999999366,
0.535343491210938,-0.284670577392578,0.103621047851561,0.615115690559747,0.11373999999887,
0.628717355957031,-0.516908138427734,0.0868616362304682,0.818550231264435,0.116786000000502,
0.379720383300781,-0.773087716064453,0.0557370146484359,0.863109958826663,0.119821000000229,
0.432392819824219,-1.23277443481445,0.00785298144531055,1.30642949564269,0.122965999998996,
0.590410129394531,-0.0667982263183592,0.0317949980468732,0.595026928661003,0.125991999999314,
0.908838950195313,-0.380438643798828,0.0748906279296868,0.988094330132155,0.128999999998996,
0.518584079589844,-0.344525618896484,0.09165003955078,0.62930682455358,0.132034000000203,
0.461123239746094,-0.370861837158203,0.103621047851561,0.600758242600255,0.134986999999455,
0.509007272949219,-0.294247384033203,0.0892558378906241,0.594673466301584,0.138037000000622,
0.671812985839844,-0.114682259521484,0.0796790312499986,0.686173051505914,0.141009999999369,
0.640688364257813,-0.265516964111328,0.0461602080078105,0.695062301617324,0.143952999998874,
0.480276853027344,-0.452264693603515,0.139534072753905,0.674298870007523,0.146993000000293,
0.360566770019531,-0.279882174072265,0.0365834013671869,0.457909131008902,0.149953000000096,
0.573650717773438,-0.356496627197265,0.0437660063476546,0.676816411234708,0.152987999999823,
0.554497104492188,-0.466629903564453,0.0964384428710918,0.731102509265419,0.155963999999585,
0.334230551757813,-0.540850155029297,0.125168862792968,0.647993978472355,0.158988999999565,
0.212126267089844,-0.488177718505859,0.0509486113281241,0.534706273603856,0.161987999999837,
0.367749375,-0.44268788696289,0.0605254179687496,0.578684278598314,0.164962999999261,
0.485065256347656,-0.392409652099609,0.0940442412109359,0.630965892328178,0.168007000000216,
0.513795676269531,-0.507331331787109,0.12995726611328,0.733662025855083,0.170967000000019,
0.568862314453125,-0.516908138427734,0.156293484374999,0.784363442312216,0.173989999999321,
0.710120212402344,-0.531273348388672,0.146716677734373,0.898914829277987,0.176954999998998,
0.506613071289062,-0.603099398193359,0.156293484374999,0.80300270320853,0.17990699999973,
0.418027609863281,-0.59591679321289,0.225725332519531,0.762112742828904,0.182950999998866,
0.643082565917969,-0.490571920166015,0.185023904296873,0.829728775326172,0.185902999999598,
0.810676682128906,-0.478600911865234,0.225725332519531,0.968094748217765,0.188938999999664,
0.750821640625,-0.401986458740234,0.165870291015624,0.867663069677936,0.191910999999891,
0.604775339355469,-0.248757552490234,0.0868616362304682,0.659680585482162,0.194860999999946,
0.609563742675781,-0.272699569091797,0.0150355864257801,0.667951405587955,0.197904999999082,
0.595198532714844,-0.277487972412109,0.00785298144531055,0.656751503612186,0.200870000000577,
0.391691391601563,-0.28945898071289,-0.0520020600585944,0.489809005654706,0.203891999999541,
0.319865341796875,-0.311006795654297,0.0102471831054682,0.446255609026466,0.206861000000572,
0.327047946777344,-0.387621248779297,0.0677080229492173,0.511659035264882,0.20980899999995,
0.245645090332031,-0.390015450439453,-0.0400310517578131,0.462661914458666,0.212836000000607,
0.269587106933594,-0.30861259399414,-0.00172382519531311,0.409782763143987,0.215807999999015,
0.31028853515625,-0.306218392333984,0.017429788085936,0.436294025131839,0.21887500000048,
0.243250888671875,-0.198479317626953,-0.0280600434570317,0.315202157994085,0.221826999999394,
0.212126267089844,-0.208056124267578,0.000670376464842803,0.297128513339468,0.224801000000298,
0.4826710546875,-0.351708223876953,0.0270065947265614,0.597828886835145,0.227854999999181,
0.291134921875,-0.23199814086914,-0.0041180268554708,0.372289723531395,0.230799999999363,
0.0229843359375,-0.172143099365234,-0.0735498750000012,0.188603050002041,0.233835999999428,
0.554497104492188,0.603578238525391,-0.0376368500976572,0.820481725205935,18.8953650000003,
0.549708701171875,0.613155045166016,-0.0232716401367199,0.823820571964103,18.8996979999993,
0.583227524414063,0.615549246826172,0.0294007963867173,0.848480776052467,18.902677,
0.556891306152344,0.62991445678711,0.0677080229492173,0.843507276856077,18.9056519999995,
0.585621726074219,0.637097061767578,0.00785298144531055,0.865394211605676,18.9087289999989,
0.552102902832031,0.617943448486328,-0.00172382519531311,0.828658368941046,18.911709,
0.564073911132813,0.605972440185547,-0.0113006318359385,0.827955119414686,18.9147589999993,
0.568862314453125,0.627520255126953,0.0509486113281241,0.84851739192301,18.917750999999,
0.54013189453125,0.62991445678711,-0.0424252534179708,0.830863760484772,18.9207139999999,
0.588015927734375,0.586818826904297,-0.0448194550781267,0.831942215801166,18.9237689999991,
0.564073911132813,0.634702860107422,-0.0520020600585944,0.85072399290225,18.9267689999997,
0.561679709472656,0.596395633544922,-0.0831266816406266,0.823457280583103,18.9298259999996,
0.595198532714844,0.603578238525391,-0.107068698242189,0.854418919213868,18.9328179999993,
0.532949289550781,0.608366641845703,-0.150164328125001,0.822614272660361,18.9357930000006,
0.532949289550781,0.64906807006836,-0.0998860932617198,0.845755009705551,18.9388589999999,
0.552102902832031,0.613155045166016,-0.131010714843752,0.835428352482704,18.941863,
0.549708701171875,0.594001431884766,-0.0903092866210944,0.81435442190439,18.9449189999996,
0.552102902832031,0.62991445678711,-0.0687614716796894,0.840439157924303,18.9479059999994,
0.566468112792969,0.644279666748047,-0.0711556733398453,0.860840020935742,18.9508869999991,
0.585621726074219,0.641885465087891,-0.0591846650390639,0.870903313185242,18.953943999999,
0.566468112792969,0.620337650146485,-0.147770126464845,0.852960100635385,18.9569410000004,
0.571256516113281,0.617943448486328,-0.0711556733398453,0.844542031267542,18.9600109999992,
0.571256516113281,0.622731851806641,-0.0400310517578131,0.84600913207911,18.9630049999996,
0.552102902832031,0.639491263427735,0.00306457812499872,0.844852698968903,18.9660650000005,
0.5592855078125,0.634702860107422,-0.0280600434570317,0.846425050383339,18.9690389999996,
0.585621726074219,0.598789835205078,-0.0400310517578131,0.838513302160383,18.9720170000001,
0.588015927734375,0.598789835205078,-0.0304542451171894,0.839785364875991,18.9751539999997,
0.573650717773438,0.658644876708985,0.0557370146484359,0.87521130843865,18.9782539999997,
0.561679709472656,0.620337650146485,-0.0041180268554708,0.83685115424891,18.9813770000001,
0.535343491210938,0.608366641845703,-0.0424252534179708,0.811481685942519,18.9844199999989,
0.588015927734375,0.653856473388672,-0.0232716401367199,0.879677547909598,18.9873859999989,
0.573650717773438,0.641885465087891,0.0102471831054682,0.860928046386384,18.9904659999993,
0.585621726074219,0.627520255126953,-0.0615788666992199,0.860538455543217,18.9934460000004,
0.614352145996094,0.651462271728516,-0.020877438476564,0.895693875279399,18.9965319999992,
0.576044919433594,0.622731851806641,-0.0256658417968758,0.848693963625833,18.9996190000002,
0.568862314453125,0.620337650146485,-0.095097689941408,0.847034062848963,19.0025879999994,
0.564073911132813,0.613155045166016,-0.0136948334960945,0.833262284696537,19.0056929999992,
0.552102902832031,0.596395633544922,-0.135799118164064,0.823982261654425,19.0086940000001,
0.556891306152344,0.582030423583985,-0.107068698242189,0.812619866228173,19.0117659999996,
0.556891306152344,0.598789835205078,-0.0855208833007826,0.822186727631585,19.0147720000004,
0.57843912109375,0.598789835205078,-0.121433908203127,0.841360373215973,19.0177879999992,
0.552102902832031,0.586818826904297,-0.0855208833007826,0.810239330324958,19.0208999999995,
0.57843912109375,0.615549246826172,-0.0879150849609385,0.849247757867907,19.0238919999993,
0.5592855078125,0.615549246826172,-0.00651222851562672,0.831711226110117,19.0269389999994,
0.576044919433594,0.615549246826172,-0.0496078583984385,0.84450551453996,19.0299350000005,
0.54013189453125,0.608366641845703,-0.0615788666992199,0.815870327456818,19.0329299999994,
0.561679709472656,0.615549246826172,-0.0639730683593758,0.835749678298992,19.0359749999989,
0.537737692871094,0.584424625244141,0.0437660063476546,0.795380055217444,19.0390079999997,
0.571256516113281,0.617943448486328,-0.0376368500976572,0.842380344745966,19.0420990000002,
0.568862314453125,0.584424625244141,-0.0735498750000012,0.818880980063181,19.0450899999996,
0.580833322753906,0.589213028564453,-0.056790463378908,0.829315680897347,19.0480549999993,
0.602381137695312,0.574847818603516,-0.0472136567382826,0.833991713979773,19.0510949999989,
0.556891306152344,0.565271011962891,0.00545877978515463,0.793529484083835,19.0540789999995,
0.576044919433594,0.605972440185547,-0.056790463378908,0.838006864053316,19.0571469999995,
0.537737692871094,0.605972440185547,-0.0304542451171894,0.810735398045757,19.0601139999999,
0.566468112792969,0.601184036865235,-0.0232716401367199,0.826347347201805,19.0631909999993,
0.6358999609375,0.613155045166016,-0.0304542451171894,0.883886492021748,19.0662130000001,
0.576044919433594,0.617943448486328,-0.078338278320313,0.84842132256481,19.0692239999989,
0.588015927734375,0.601184036865235,-0.0400310517578131,0.841895161261623,19.0722740000001,
0.597592734375,0.555694205322266,-0.095097689941408,0.821557482248641,19.0752599999996,
0.61674634765625,0.589213028564453,-0.0160890351562522,0.8531159988124,19.0782899999995,
0.566468112792969,0.617943448486328,-0.0496078583984385,0.839762566415819,19.0813010000002,
0.556891306152344,0.57245361694336,-0.135799118164064,0.810106456531322,19.0842990000001,
0.576044919433594,0.550905802001953,-0.0472136567382826,0.798469837418591,19.0874339999991,
0.571256516113281,0.570059415283203,-0.111857101562501,0.8147476635897,19.0904759999994,
0.554497104492188,0.577242020263672,-0.123828109863283,0.809943695352102,19.0936299999994,
0.564073911132813,0.584424625244141,-0.0879150849609385,0.816982608123399,19.0966759999992,
0.530555087890625,0.605972440185547,-0.0663672700195335,0.808143498446223,19.0997019999995,
0.599986936035156,0.586818826904297,-0.119039706542971,0.847650346992218,19.102816999999,
0.585621726074219,0.596395633544922,-0.0041180268554708,0.835857353803135,19.1058699999994,
0.564073911132813,0.598789835205078,-0.135799118164064,0.833768579678876,19.1089929999998,
0.566468112792969,0.613155045166016,-0.0639730683593758,0.837220273105638,19.1119710000003,
0.595198532714844,0.605972440185547,-0.0472136567382826,0.850701487592992,19.1149449999994,
0.556891306152344,0.574847818603516,-0.0663672700195335,0.803108059946562,19.1180640000002,
0.552102902832031,0.608366641845703,-0.0113006318359385,0.821617484299151,19.1211060000005,
0.592804331054688,0.560482608642578,-0.0591846650390639,0.817961217958267,19.1241740000005,
0.528160886230469,0.598789835205078,-0.0304542451171894,0.799018553936226,19.1271479999996,
0.599986936035156,0.61076084350586,-0.0041180268554708,0.856171764027538,19.1301220000005,
0.549708701171875,0.608366641845703,-0.0400310517578131,0.820909320302508,19.1332399999992,
0.568862314453125,0.543723197021485,-0.0184832368164081,0.78713459956188,19.1362520000002,
0.583227524414063,0.586818826904297,-0.0136948334960945,0.827464941437386,19.1394039999996,
0.571256516113281,0.555694205322266,-0.0400310517578131,0.797955225645816,19.1424609999995,
0.561679709472656,0.603578238525391,0.0461602080078105,0.825785414534566,19.1454809999996,
0.561679709472656,0.59160723022461,-0.0352426484375012,0.816532458115543,19.148568999999,
0.590410129394531,0.596395633544922,-0.0280600434570317,0.839678056544249,19.1515799999997,
0.552102902832031,0.608366641845703,-0.102280294921876,0.827882144363242,19.1547090000004,
0.568862314453125,0.577242020263672,-0.0615788666992199,0.812775885214991,19.1577180000004,
0.580833322753906,0.601184036865235,-0.0448194550781267,0.837137013013057,19.1608259999994,
0.5592855078125,0.617943448486328,-0.0615788666992199,0.835731022279431,19.163865999999,
0.580833322753906,0.605972440185547,-0.0639730683593758,0.841820943289654,19.1668669999999,
0.523372482910156,0.543723197021485,-0.0400310517578131,0.75574873863715,19.1699370000006,
0.537737692871094,0.601184036865235,-0.0448194550781267,0.807832195489513,19.1729629999991,
0.588015927734375,0.584424625244141,-0.0496078583984385,0.830527430899156,19.1760379999996,
0.61674634765625,0.601184036865235,-0.0974918916015639,0.866777348837033,19.179055999999,
0.561679709472656,0.603578238525391,-0.0520020600585944,0.826132556134328,19.1820900000002,
0.592804331054688,0.570059415283203,-0.0136948334960945,0.82254012688422,19.1852139999992,
0.542526096191406,0.565271011962891,-0.0998860932617198,0.789837396963025,19.1882029999997,
0.54013189453125,0.603578238525391,-0.056790463378908,0.811957086453541,19.1912919999995,
0.564073911132813,0.625126053466797,-0.0448194550781267,0.84319081084719,19.1942959999997,
0.513795676269531,0.627520255126953,-0.0903092866210944,0.816041319295704,19.1972960000003,
0.561679709472656,0.594001431884766,0.00545877978515463,0.817527733713776,19.200370999999,
0.571256516113281,0.62991445678711,-0.0113006318359385,0.850443375158614,19.203356,
0.552102902832031,0.598789835205078,-0.0496078583984385,0.815982733687031,19.2065010000006,
0.554497104492188,0.605972440185547,-0.0687614716796894,0.824255892998166,19.2095809999992,
0.585621726074219,0.651462271728516,-0.0855208833007826,0.880153236099472,19.212587,
0.552102902832031,0.605972440185547,0.0102471831054682,0.81983243308714,19.2157210000005,
0.607169541015625,0.574847818603516,-0.0400310517578131,0.837082642990035,19.2186989999991,
0.535343491210938,0.61076084350586,-0.0927034882812521,0.817444431311032,19.2217799999999,
0.588015927734375,0.608366641845703,-0.0974918916015639,0.851690889412343,19.2248449999988,
0.580833322753906,0.615549246826172,-0.0855208833007826,0.850636259261359,19.2278729999998,
0.564073911132813,0.608366641845703,-0.107068698242189,0.836512435218128,19.2310139999991,
0.583227524414063,0.62991445678711,-0.0807324799804707,0.862243759865708,19.2340079999994,
0.583227524414063,0.570059415283203,-0.0759440766601571,0.819078497439011,19.2371760000005,
0.597592734375,0.605972440185547,-0.104674496582033,0.857482608964706,19.2402299999994,
0.571256516113281,0.615549246826172,-0.111857101562501,0.847199441477693,19.243242999999,
0.595198532714844,0.605972440185547,-0.135799118164064,0.860177477096714,19.2463520000001,
0.576044919433594,0.634702860107422,-0.104674496582033,0.8634999826685,19.2494750000005,
0.599986936035156,0.565271011962891,-0.056790463378908,0.826281306280855,19.2525850000002,
0.595198532714844,0.625126053466797,-0.0328484467773453,0.863784056651059,19.2556009999989,
0.554497104492188,0.637097061767578,0.0150355864257801,0.844740062896432,19.2586680000004,
0.566468112792969,0.644279666748047,-0.0304542451171894,0.85843454779142,19.2617200000004,
0.564073911132813,0.620337650146485,-0.0903092866210944,0.843299439499364,19.2647379999999,
0.571256516113281,0.622731851806641,-0.0615788666992199,0.847302144031497,19.2677960000001,
0.595198532714844,0.615549246826172,0.05334281298828,0.85790886713664,19.2707740000005,
0.5592855078125,0.608366641845703,0.00785298144531055,0.82642115139757,19.2738289999998,
0.57843912109375,0.617943448486328,-0.0400310517578131,0.847377370150822,19.276824999999,
0.5592855078125,0.601184036865235,-0.0400310517578131,0.822085768357233,19.2798199999997,
0.552102902832031,0.608366641845703,-0.0113006318359385,0.821617484299151,19.2829789999996,
0.5592855078125,0.637097061767578,-0.116645504882813,0.855744774550996,19.2859740000004,
0.602381137695312,0.632308658447266,-0.0424252534179708,0.874343854971292,19.289123999999,
0.564073911132813,0.620337650146485,-0.0376368500976572,0.839294173633539,19.2921320000005,
0.528160886230469,0.589213028564453,-0.056790463378908,0.793316501470025,19.2951460000004,
0.547314499511719,0.62991445678711,-0.0807324799804707,0.838369320507949,19.298229,
0.564073911132813,0.639491263427735,0.000670376464842803,0.852718536579142,19.3012249999992,
0.544920297851563,0.577242020263672,-0.078338278320313,0.797673722031077,19.3043230000003,
0.552102902832031,0.601184036865235,-0.0639730683593758,0.818738306769903,19.3073370000002,
0.57843912109375,0.617943448486328,-0.0903092866210944,0.851235390235214,19.3103090000004,
0.595198532714844,0.57245361694336,-0.078338278320313,0.829518729594232,19.3133999999991,
0.580833322753906,0.608366641845703,-0.159741134765627,0.856151008799366,19.3164199999992,
0.573650717773438,0.637097061767578,-0.0807324799804707,0.861095549540618,19.3194739999999,
0.580833322753906,0.605972440185547,-0.0591846650390639,0.841470600592532,19.3225110000003,
0.580833322753906,0.613155045166016,-0.0998860932617198,0.850472627343744,19.3255370000006,
0.590410129394531,0.605972440185547,-0.0280600434570317,0.846506990635579,19.3286189999999,
0.566468112792969,0.55330000366211,-0.126222311523438,0.801847297675834,19.3316130000003,
0.566468112792969,0.574847818603516,-0.0113006318359385,0.807133100327536,19.3346650000003,
0.588015927734375,0.605972440185547,-0.0184832368164081,0.844575017139955,19.3376680000001,
0.571256516113281,0.598789835205078,-0.0328484467773453,0.828228407145332,19.3406759999998,
0.592804331054688,0.617943448486328,-0.0280600434570317,0.856772108838273,19.3437259999992,
0.561679709472656,0.565271011962891,-0.0831266816406266,0.801202507609294,19.3467380000002,
0.57843912109375,0.625126053466797,-0.0280600434570317,0.852151257449928,19.3498369999998,
0.614352145996094,0.615549246826172,-0.056790463378908,0.871524291852536,19.3528619999997,
0.537737692871094,0.59160723022461,0.00785298144531055,0.799513983933953,19.3559380000006,
0.607169541015625,0.596395633544922,0.000670376464842803,0.851083458101013,19.3589369999991,
0.592804331054688,0.603578238525391,-0.078338278320313,0.849623770141114,19.3619079999989,
0.604775339355469,0.603578238525391,-0.00890643017578263,0.854481846274344,19.3649860000005,
0.595198532714844,0.605972440185547,-0.0998860932617198,0.855243312302072,19.3680229999991,
0.564073911132813,0.579636221923828,-0.078338278320313,0.812585018836176,19.3711590000003,
0.554497104492188,0.594001431884766,-0.0041180268554708,0.81260180784721,19.3742050000001,
0.549708701171875,0.596395633544922,-0.078338278320313,0.814864586115822,19.377219,
0.542526096191406,0.59160723022461,-0.0831266816406266,0.806996731779815,19.3803349999998,
0.576044919433594,0.613155045166016,-0.13819331982422,0.852575071334973,19.3833620000005,
0.573650717773438,0.567665213623047,-0.0472136567382826,0.808423199903541,19.3864730000005,
0.554497104492188,0.589213028564453,-0.104674496582033,0.815840537209949,19.3895109999994,
0.571256516113281,0.596395633544922,-0.0831266816406266,0.830019158883646,19.392566999999,
0.530555087890625,0.589213028564453,-0.0903092866210944,0.798007807961009,19.3956239999989,
0.580833322753906,0.598789835205078,-0.0496078583984385,0.835689867822476,19.3986380000006,
0.619140549316406,0.613155045166016,-0.0160890351562522,0.871523371042119,19.401738999999,
0.554497104492188,0.632308658447266,-0.00651222851562672,0.841025378664545,19.4047799999989,
0.643082565917969,0.608366641845703,-0.0831266816406266,0.889142959652068,19.4077670000006,
0.5592855078125,0.62991445678711,-0.0352426484375012,0.843110044055564,19.4108359999991,
0.599986936035156,0.577242020263672,-0.0328484467773453,0.8332296765158,19.4138179999991,
0.568862314453125,0.579636221923828,-0.0424252534179708,0.813254194393533,19.4169349999993,
0.566468112792969,0.589213028564453,-0.0113006318359385,0.817426339263187,19.4199279999993,
0.556891306152344,0.634702860107422,-0.0927034882812521,0.849452520295348,19.4229649999997,
0.592804331054688,0.577242020263672,-0.0232716401367199,0.827748086140907,19.4260940000004,
0.595198532714844,0.567665213623047,-0.0903092866210944,0.827442357722648,19.4291099999991,
0.549708701171875,0.598789835205078,-0.0520020600585944,0.814514049688115,19.4322250000005,
0.595198532714844,0.59160723022461,-0.109462899902345,0.846311133481634,19.4352249999993,
0.585621726074219,0.574847818603516,-0.0472136567382826,0.821968338797772,19.4382420000002,
0.583227524414063,0.570059415283203,0.0222181914062478,0.81585276258437,19.4413210000002,
0.5592855078125,0.59160723022461,-0.0424252534179708,0.815229597248959,19.4443439999995,
0.607169541015625,0.601184036865235,-0.0855208833007826,0.858714690219779,19.4474719999998,
0.583227524414063,0.579636221923828,-0.111857101562501,0.829846073781306,19.4504789999992,
0.542526096191406,0.603578238525391,-0.0974918916015639,0.817401935401521,19.4535319999995,
0.580833322753906,0.596395633544922,-0.0328484467773453,0.833147118454164,19.4565559999992,
0.564073911132813,0.586818826904297,-0.078338278320313,0.817724035772579,19.4595730000001,
0.57843912109375,0.570059415283203,-0.0735498750000012,0.815456398513896,19.46263,
0.554497104492188,0.594001431884766,-0.0376368500976572,0.813462520621968,19.465678999999,
0.576044919433594,0.577242020263672,-0.0400310517578131,0.816479383859861,19.4687560000002,
0.532949289550781,0.620337650146485,-0.0831266816406266,0.822048533009169,19.4717779999992,
0.535343491210938,0.61076084350586,-0.0759440766601571,0.815713775978847,19.4747509999997,
0.511401474609375,0.596395633544922,-0.13819331982422,0.797694561588664,19.477852,
0.52097828125,0.589213028564453,-0.0759440766601571,0.79016318905911,19.4808659999999,
0.554497104492188,0.598789835205078,-0.109462899902345,0.823406601922875,19.4839520000005,
0.525766684570312,0.605972440185547,-0.0807324799804707,0.806319377289348,19.4869369999997,
0.599986936035156,0.613155045166016,-0.0639730683593758,0.860253443062396,19.4899540000006,
0.588015927734375,0.625126053466797,-0.0998860932617198,0.864015361911685,19.4931059999999,
0.535343491210938,0.594001431884766,-0.0543962617187521,0.801491926317441,19.4961189999995,
0.595198532714844,0.617943448486328,-0.078338278320313,0.861540646007644,19.4992380000003,
0.592804331054688,0.627520255126953,-0.0663672700195335,0.865796315562522,19.5022609999996,
0.549708701171875,0.646673868408203,-0.0615788666992199,0.850975149490313,19.5052209999994,
0.604775339355469,0.632308658447266,-0.0328484467773453,0.875583503211194,19.5083639999993,
0.5592855078125,0.62991445678711,-0.0591846650390639,0.844449718274731,19.5113870000005,
0.556891306152344,0.634702860107422,0.017429788085936,0.844558727981261,19.5145229999998,
0.561679709472656,0.632308658447266,-0.0304542451171894,0.846301244608754,19.5175209999998,
0.561679709472656,0.627520255126953,-0.00172382519531311,0.842180941485372,19.5205860000006,
0.542526096191406,0.608366641845703,0.00545877978515463,0.815152951436752,19.5237340000003,
0.588015927734375,0.615549246826172,-0.0376368500976572,0.852103361701419,19.5267469999999,
0.599986936035156,0.601184036865235,-0.0376368500976572,0.850190038802918,19.529853,
0.556891306152344,0.632308658447266,-0.0280600434570317,0.843047764040837,19.5329600000005,
0.585621726074219,0.617943448486328,-0.123828109863283,0.86031407774698,19.535969999999,
0.566468112792969,0.584424625244141,-0.0256658417968758,0.814307681922579,19.5390530000004,
0.597592734375,0.601184036865235,-0.131010714843752,0.857731385553333,19.5420720000002,
0.528160886230469,0.661039078369141,-0.0807324799804707,0.849967245368123,19.5451830000002,
0.573650717773438,0.601184036865235,-0.135799118164064,0.841985031148237,19.548225999999,
0.549708701171875,0.617943448486328,-0.0232716401367199,0.827390676105247,19.5512760000001,
0.5592855078125,0.620337650146485,-0.0639730683593758,0.837682298317006,19.5542700000005,
0.576044919433594,0.62991445678711,-0.0472136567382826,0.854897129166577,19.557241999999,
0.564073911132813,0.605972440185547,-0.0543962617187521,0.829663141747342,19.5603140000003,
0.561679709472656,0.613155045166016,-0.0807324799804707,0.835440565671565,19.5633170000001,
0.544920297851563,0.622731851806641,-0.00651222851562672,0.827511630966842,19.5664699999998,
0.532949289550781,0.59160723022461,-0.0424252534179708,0.797391975263293,19.5694899999999,
0.604775339355469,0.620337650146485,-0.0184832368164081,0.866552734301264,19.5725389999989,
0.588015927734375,0.605972440185547,-0.0687614716796894,0.847167911055005,19.5756299999994,
0.583227524414063,0.598789835205078,0.0701022246093732,0.83881936903857,19.578637999999,
0.566468112792969,0.598789835205078,-0.0448194550781267,0.825496319258695,19.5817269999989,
0.571256516113281,0.622731851806641,-0.0927034882812521,0.850131109415439,19.5847389999999,
0.580833322753906,0.615549246826172,-0.0424252534179708,0.847389005249178,19.5877600000003,
0.609563742675781,0.59160723022461,-0.0496078583984385,0.850898355183402,19.5908779999991,
0.595198532714844,0.639491263427735,-0.0424252534179708,0.874648656017879,19.5938649999989,
0.590410129394531,0.577242020263672,-0.135799118164064,0.836799779722659,19.5969420000001,
0.535343491210938,0.641885465087891,-0.0711556733398453,0.838852033270147,19.5999659999998,
0.595198532714844,0.601184036865235,-0.0735498750000012,0.849172022407709,19.6029340000005,
0.5592855078125,0.613155045166016,-0.126222311523438,0.839459028534416,19.6060219999999,
0.583227524414063,0.584424625244141,-0.0304542451171894,0.826216647660629,19.6090469999999,
0.592804331054688,0.555694205322266,-0.095097689941408,0.818081044504842,19.6121320000002,
0.566468112792969,0.567665213623047,-0.150164328125001,0.815891685832231,19.6151169999994,
0.57843912109375,0.603578238525391,-0.0304542451171894,0.836556015983856,19.6180829999994,
0.564073911132813,0.634702860107422,-0.0711556733398453,0.852109281546479,19.621165999999,
0.590410129394531,0.603578238525391,-0.142981723144533,0.856349568848178,19.6241740000005,
