X,Y,Z,Magnitude,Seconds,
1.516966171875,-3.3372776940918,-3.03278312695313,4.75777072474361,0.0,
1.36852566894531,-3.15531836791992,-3.39909598095703,4.8355713206666,0.00295999999980268,
1.18656634277344,-2.97335904174805,-3.55232488720703,4.78203050818562,0.00597200000083831,
1.08840407470703,-2.69323744750977,-3.78216824658203,4.76895670183335,0.00895500000115135,
0.772369455566406,-2.34607820678711,-3.92582034619141,4.63817883644257,0.0119840000006661,
0.638294162597656,-2.03243778930664,-4.06228984082031,4.58698392805554,0.0149469999996654,
0.418027609863281,-1.6733075402832,-4.00004059765625,4.35603374526355,0.0179210000005696,
0.21452046875,-1.39797434936523,-3.83962908642578,4.091833676278,0.0209709999999177,
0.0948103857421875,-1.21122661987305,-3.62654513867188,3.82464228088828,0.0239500000006956,
-0.0392649072265625,-0.967018050537109,-3.24586707470703,3.38708114896459,0.0269729999999981,
-0.166157595214844,-0.567186373291015,-2.22114876416016,2.29843654709561,0.0299279999999271,
-0.297838686523438,-0.0284909997558591,-1.069537765625,1.11059923120594,0.0328580000004877,
-0.429519777832031,0.505415970458985,0.443597683593749,0.797942007688287,0.035888000000341,
-0.652180532226563,1.08002436889648,2.08362582080078,2.43583428113107,0.0388670000011189,
-0.719218178710938,1.76955444702149,3.74520177294922,4.20418054437054,0.0418740000004618,
-0.822168850097656,2.37289326538086,5.11707932421875,5.70009516388172,0.0448250000008557,
-0.793438430175781,2.94989586547852,6.15137444140625,6.86810291696573,0.0477499999997235,
-0.599508095703125,3.42634199584961,6.92709577929687,7.75137957817116,0.0507660000002943,
-0.527682045898438,4.09671846069336,7.13299712207031,8.24264511132274,0.0537010000007285,
-0.460644399414063,4.65456744750977,6.73077124316406,8.19636949593742,0.0567310000005818,
-0.293050283203125,4.92750643676758,5.93350209033203,7.71833176333111,0.0596710000008898,
-0.154186586914063,4.91074702514649,4.56401874072266,6.70592849009269,0.0626759999995556,
-0.0392649072265625,4.71681669067383,3.09637312304687,5.64246647694834,0.0656500000004598,
0.032561142578125,4.43669509643555,1.68618834521484,4.74642547000157,0.0686170000008133,
0.0493205541992188,4.21642854370117,0.431626675292968,4.23875026016265,0.0716540000012174,
0.137906015625,4.07995904907227,-0.315364242675782,4.09445216320947,0.0746319999998377,
0.109175595703125,4.08474745239258,-0.842088607910158,4.17207313983071,0.0776679999999033,
0.0086191259765625,4.17333291381836,-1.26346810009766,4.36040520351683,0.0806480000010197,
-0.0129286889648438,4.14220829223633,-1.62978095410156,4.4513192028456,0.0835810000007768,
-0.0488417138671875,4.24276476196289,-1.76864465039063,4.59690572425875,0.0866010000008828,
-0.0895431420898438,4.30022560180664,-1.83328809521485,4.67556450503948,0.0895610000006855,
-0.1302445703125,4.45106030639649,-1.78779826367188,4.79845018009591,0.0925889999998617,
-0.202070620117188,4.73836450561523,-1.48852305615235,4.97077776734044,0.0955630000007659,
-0.261925661621094,4.93947744506836,-1.18924784863281,5.0873719077764,0.098493999999846,
-0.451067592773438,5.48774962524414,-0.380007687500001,5.51935356406679,0.101528000001053,
-0.489374819335938,5.79899584106445,0.529788943359375,5.84367322862844,0.104543999999805,
-0.649786330566406,6.18685651000977,1.39888414599609,6.37622871333521,0.107656000000134,
-0.841322463378906,6.39036365112305,2.15545187060547,6.79636254532358,0.110710000000836,
-0.994551369628906,6.30417239135742,2.85216455371094,6.99046240303379,0.113738000000012,
-1.17172229248047,6.11263625854492,3.35255270068359,7.06943171484346,0.116765000000669,
-1.42550766845703,5.91391752075195,3.80505681445312,7.175301381566,0.119709000000512,
-1.49254531494141,5.58112348999023,4.23361891162109,7.16241300236939,0.122728000000279,
-1.59310178466797,5.24832945922852,4.63584479052734,7.18150348679005,0.125685000000885,
-1.62422640625,4.8604687902832,4.83935193164062,7.04851724821261,0.128638000000137,
-1.5859191796875,4.43190669311524,4.84653453662109,6.75617003898224,0.131648000000496,
-1.35128741699219,3.90997073120117,4.52092311083984,6.12801718146229,0.134589999999662,
-1.1645396875,3.37366955932617,4.04926538378906,5.39762439668036,0.137603999999556,
-1.06158901611328,3.10073057006836,3.82660462939453,5.03829378827719,0.140568000000712,
-0.963426748046875,2.77751334594727,3.58957866503906,4.63981103906948,0.143505000000005,
-0.867658681640625,2.41838309692383,2.94793262011719,3.9104622647539,0.146548000000621,
-0.702458767089844,2.13586730102539,2.33022859179687,3.23810789460118,0.149509000000762,
-0.613873305664063,1.84377469848633,1.71491876513672,2.59177389932134,0.152524000000994,
-0.350511123046875,1.49661545776367,1.09242633349609,1.88576540691372,0.155456000000413,
-0.173340200195313,1.20931125854492,0.659075833007812,1.38811436801951,0.158456999999544,
-0.03447650390625,1.06565915893555,0.457962893554686,1.16040858503279,0.161401999999725,
-0.0464475122070312,1.07044756225586,0.256849954101561,1.10181089750089,0.164323000000877,
-0.132638771972656,0.933978067626954,0.158687686035154,0.956603290992554,0.167316999999457,
-0.216435830078125,0.869334622802735,-0.078338278320313,0.899290854393266,0.170274000000063,
-0.369664736328125,0.723288321533204,-0.250720797851564,0.850093484168762,0.173270000001139,
-0.393606752929688,0.517386978759766,-0.274662814453126,0.705730276653427,0.176233000000138,
-0.328963308105469,0.34261025756836,-0.0974918916015639,0.48487453593564,0.179153000000952,
-0.281079274902344,0.28514941772461,0.223331130859373,0.458467603238481,0.182165000000168,
-0.204464821777344,0.275572611083985,0.814698940917967,0.884013852638602,0.185100000000602,
-0.101514150390625,0.232476981201172,1.42282616259766,1.4452629374928,0.188114000000496,
-0.0105344873046875,0.273178409423828,2.00461716601562,2.02317260783222,0.191064000000551,
-0.0201112939453125,0.222900174560547,2.3398053984375,2.35048468502148,0.194015000000945,
0.0373495458984375,0.0936132849121096,2.6678110258789,2.66971423667252,0.19706000000042,
0.133117612304688,-0.0931344445800779,2.85455875537109,2.85917820559312,0.20002999999997,
0.231279880371094,-0.129047469482422,2.73724287402344,2.7500258514851,0.203079000000798,
0.331836350097656,-0.0476446130371091,2.44993867480469,2.47276866744573,0.206060000000434,
0.276769711914063,0.0217872351074222,1.99025195605469,2.00952208388615,0.209029999999984,
0.240856687011719,0.0792480749511721,1.42282616259766,1.44524270973221,0.212079000000813,
0.200155258789063,0.115161099853516,0.568096169921875,0.613235244274407,0.215062999999645,
0.173819040527344,0.0648828649902347,-0.260297604492189,0.319652448643147,0.218103999999585,
0.238462485351562,0.0481234533691408,-0.92349146435547,0.954995658849623,0.221094000000448,
0.202549460449219,0.110372696533203,-1.56274330761719,1.57967561909735,0.224072000000888,
0.288740720214844,0.15107412475586,-1.7207606171875,1.7513456815673,0.227130000001125,
0.169030637207031,0.519781180419922,-1.88117212841797,1.95896717904357,0.230117999999493,
0.152271225585938,0.675404288330078,-1.78300986035156,1.91271577631048,0.233177000000069,
0.525766684570312,0.51499277709961,0.0102471831054682,0.736038838533962,18.7343170000004,
0.554497104492188,0.517386978759766,-0.0376368500976572,0.759323947446445,18.7387419999995,
0.509007272949219,0.505415970458985,-0.056790463378908,0.719554628809369,18.7416979999998,
0.547314499511719,0.455137735595703,-0.0136948334960945,0.711962827824201,18.7446440000003,
0.547314499511719,0.503021768798829,-0.0998860932617198,0.750040860812499,18.7476770000012,
0.549708701171875,0.503021768798829,-0.107068698242189,0.752777697712179,18.7506420000009,
0.523372482910156,0.498233365478516,-0.0711556733398453,0.726098045853339,18.7536720000007,
0.556891306152344,0.505415970458985,-0.0998860932617198,0.758650421268024,18.7566399999996,
0.554497104492188,0.483868155517578,-0.078338278320313,0.740089397751646,18.7595830000009,
0.552102902832031,0.519781180419922,-0.0424252534179708,0.759466913671598,18.7626199999995,
0.564073911132813,0.469502945556641,-0.0974918916015639,0.740349283808042,18.7655740000009,
0.564073911132813,0.498233365478516,-0.0879150849609385,0.75772351544637,18.768607,
0.530555087890625,0.505415970458985,-0.00890643017578263,0.732811932885991,18.7715750000007,
0.523372482910156,0.488656558837891,-0.0711556733398453,0.719560364536067,18.7745269999996,
0.497036264648438,0.459926138916016,-0.0160890351562522,0.677374312094964,18.7775590000001,
0.523372482910156,0.51499277709961,-0.0639730683593758,0.737040616118015,18.7805270000008,
0.552102902832031,0.47668555053711,-0.109462899902345,0.737583117934144,18.7835620000005,
0.535343491210938,0.498233365478516,-0.0136948334960945,0.731448349866516,18.7865270000002,
0.528160886230469,0.488656558837891,-0.0232716401367199,0.719917164313851,18.789471,
0.528160886230469,0.505415970458985,0.0246123930664055,0.731440356304741,18.7925049999994,
0.5592855078125,0.479079752197266,-0.0879150849609385,0.74165136713834,18.7954580000005,
0.494642062988281,0.45753193725586,-0.0328484467773453,0.674600077484495,18.7984969999998,
0.528160886230469,0.503021768798829,-0.0041180268554708,0.72938452120568,18.8014660000008,
0.528160886230469,0.491050760498047,0.0437660063476546,0.722495836971458,18.8044950000003,
0.564073911132813,0.500627567138672,-0.0256658417968758,0.754629759309157,18.8075289999997,
0.568862314453125,0.474291348876953,-0.0352426484375012,0.741484093351553,18.810590000001,
0.530555087890625,0.469502945556641,-0.0496078583984385,0.710199026180598,18.813725,
0.547314499511719,0.486262357177735,-0.056790463378908,0.734322407471406,18.8167709999998,
0.549708701171875,0.529357987060547,-0.0687614716796894,0.766242569031779,18.8197909999999,
0.5592855078125,0.498233365478516,-0.0184832368164081,0.749251890733914,18.822752,
0.571256516113281,0.486262357177735,-0.0543962617187521,0.75215958446257,18.8256789999996,
0.556891306152344,0.481473953857422,-0.0639730683593758,0.738943603116284,18.8287410000012,
0.516189877929687,0.512598575439454,-0.0735498750000012,0.731176362946819,18.8316940000004,
0.50182466796875,0.498233365478516,-0.0711556733398453,0.710723303196428,18.834737000001,
0.52097828125,0.488656558837891,-0.0711556733398453,0.717820821568962,18.8377180000007,
0.544920297851563,0.526963785400391,-0.0113006318359385,0.758127078011356,18.8406670000004,
0.544920297851563,0.555694205322266,-0.0400310517578131,0.779318077516631,18.8437250000006,
0.535343491210938,0.526963785400391,-0.0496078583984385,0.752824298439087,18.8467030000011,
0.530555087890625,0.512598575439454,-0.0591846650390639,0.740100550874658,18.8497760000009,
0.54013189453125,0.517386978759766,-0.0855208833007826,0.752825059864921,18.8527620000004,
0.530555087890625,0.541328995361329,-0.0448194550781267,0.75929873308141,18.8557130000008,
0.506613071289062,0.529357987060547,-0.0280600434570317,0.73325578654692,18.8587630000002,
0.530555087890625,0.517386978759766,-0.0998860932617198,0.747766821077183,18.8617329999997,
0.547314499511719,0.53414639038086,-0.0711556733398453,0.768068133423795,18.8647799999999,
0.509007272949219,0.467108743896485,-0.0903092866210944,0.696731476100917,18.8677480000006,
0.513795676269531,0.455137735595703,-0.150164328125001,0.702627697118241,18.8707030000005,
0.583227524414063,0.486262357177735,-0.0927034882812521,0.764983242941775,18.8737309999997,
0.544920297851563,0.474291348876953,-0.0639730683593758,0.725246832537357,18.8766969999997,
0.564073911132813,0.505415970458985,-0.0831266816406266,0.76192829427463,18.8797520000007,
0.535343491210938,0.469502945556641,-0.0543962617187521,0.714132076549746,18.8827330000004,
0.568862314453125,0.483868155517578,-0.0831266816406266,0.751427155437925,18.8856680000008,
0.556891306152344,0.471897147216797,-0.0974918916015639,0.736423460617236,18.8887050000012,
0.5592855078125,0.462320340576172,-0.0663672700195335,0.728659722428377,18.891665000001,
0.607169541015625,0.440772525634766,-0.0831266816406266,0.754880994655553,18.894690000001,
0.566468112792969,0.447955130615235,-0.078338278320313,0.726420544661238,18.8976409999996,
0.547314499511719,0.507810172119141,-0.0448194550781267,0.747952616037229,18.9006570000001,
0.588015927734375,0.471897147216797,0.00306457812499872,0.753962227475458,18.903628,
0.52097828125,0.464714542236328,-0.0807324799804707,0.702777140083484,18.9065620000001,
0.552102902832031,0.507810172119141,-0.0184832368164081,0.750353527523153,18.9095710000001,
0.537737692871094,0.479079752197266,-0.0615788666992199,0.722821687640652,18.9125280000007,
0.564073911132813,0.498233365478516,-0.133404916503908,0.764338102834165,18.9155320000009,
0.532949289550781,0.479079752197266,-0.135799118164064,0.729379019915033,18.9184860000005,
0.523372482910156,0.479079752197266,-0.0256658417968758,0.709996408630408,18.9214240000001,
0.492247861328125,0.500627567138672,-0.13819331982422,0.715565029613199,18.924441000001,
0.509007272949219,0.488656558837891,-0.0711556733398453,0.709180348190033,18.9273900000007,
0.5592855078125,0.49583916381836,-0.0280600434570317,0.747959973303376,18.9304080000002,
0.595198532714844,0.49583916381836,-0.0424252534179708,0.7758335335944,18.9333600000009,
0.576044919433594,0.498233365478516,-0.0615788666992199,0.764104830834922,18.9362920000003,
0.590410129394531,0.464714542236328,-0.00651222851562672,0.751389470100445,18.9393039999995,
0.573650717773438,0.512598575439454,-0.020877438476564,0.769589704311252,18.9422580000009,
0.590410129394531,0.51499277709961,0.00545877978515463,0.783473981465357,18.9453190000004,
0.588015927734375,0.505415970458985,-0.0232716401367199,0.775725211462776,18.9483880000007,
0.571256516113281,0.507810172119141,0.0246123930664055,0.764729329895232,18.9514429999999,
0.568862314453125,0.483868155517578,0.0341891997070292,0.747597235217973,18.9545730000009,
0.588015927734375,0.493444962158203,-0.00172382519531311,0.767628577843434,18.9575370000002,
0.532949289550781,0.519781180419922,-0.0759440766601571,0.748314722246712,18.960575000001,
0.52097828125,0.47668555053711,-0.056790463378908,0.708429700362614,18.9635400000006,
0.511401474609375,0.546117398681641,-0.0687614716796894,0.751334693304524,18.9664969999994,
0.523372482910156,0.467108743896485,-0.0496078583984385,0.703256904770208,18.969575000001,
0.506613071289062,0.462320340576172,-0.104674496582033,0.693796549102189,18.9725520000011,
0.556891306152344,0.486262357177735,-0.0615788666992199,0.741869910226901,18.9755770000011,
0.568862314453125,0.486262357177735,-0.0304542451171894,0.748987899674401,18.9785800000009,
0.583227524414063,0.481473953857422,-0.020877438476564,0.756576090631073,18.9815259999996,
0.564073911132813,0.493444962158203,0.000670376464842803,0.749444966161348,18.98459,
0.552102902832031,0.483868155517578,-0.0903092866210944,0.739663284535301,18.9875810000012,
0.535343491210938,0.491050760498047,-0.0711556733398453,0.729922347113768,18.99064,
0.5592855078125,0.481473953857422,-0.0591846650390639,0.740351451722742,18.993622,
0.535343491210938,0.503021768798829,-0.0879150849609385,0.739832829516984,18.9966420000001,
0.485065256347656,0.522175382080079,-0.0927034882812521,0.718713690773736,18.9996179999998,
0.523372482910156,0.479079752197266,-0.078338278320313,0.713843855953896,19.0025770000011,
0.509007272949219,0.47668555053711,-0.0711556733398453,0.700985483340785,19.0056079999995,
0.511401474609375,0.486262357177735,-0.142981723144533,0.720018278513865,19.0085820000004,
0.492247861328125,0.488656558837891,-0.104674496582033,0.701462714413321,19.0116020000005,
0.566468112792969,0.498233365478516,-0.0663672700195335,0.757315801906392,19.014588,
0.552102902832031,0.522175382080079,-0.0711556733398453,0.763248239313055,19.0175419999996,
0.583227524414063,0.510204373779297,-0.0424252534179708,0.776055893853825,19.0205880000012,
0.52097828125,0.507810172119141,-0.095097689941408,0.733711871972962,19.0235670000002,
0.525766684570312,0.510204373779297,-0.0184832368164081,0.732857925979378,19.0266080000001,
0.492247861328125,0.524569583740235,-0.0184832368164081,0.71959907949547,19.0295779999997,
0.506613071289062,0.51499277709961,-0.0807324799804707,0.72690583832399,19.0325320000011,
0.492247861328125,0.53414639038086,0.00785298144531055,0.726417230423808,19.0355760000002,
0.518584079589844,0.538934793701172,-0.0160890351562522,0.748090246239068,19.0385340000012,
0.518584079589844,0.500627567138672,-0.0879150849609385,0.726144937837427,19.0415730000004,
0.535343491210938,0.498233365478516,-0.056790463378908,0.733521844793156,19.0445720000007,
0.513795676269531,0.493444962158203,-0.0496078583984385,0.714097239350115,19.0475189999997,
0.518584079589844,0.47668555053711,-0.0232716401367199,0.704769558742122,19.0505599999997,
0.571256516113281,0.469502945556641,-0.0496078583984385,0.741099158482268,19.0535250000012,
0.568862314453125,0.440772525634766,-0.00651222851562672,0.71967156486807,19.0565640000004,
0.532949289550781,0.503021768798829,-0.0687614716796894,0.736066562958637,19.0595250000006,
0.547314499511719,0.49583916381836,-0.056790463378908,0.740698855461951,19.062484,
0.523372482910156,0.467108743896485,-0.0400310517578131,0.702646297646924,19.0655100000004,
0.530555087890625,0.512598575439454,-0.102280294921876,0.744786720852683,19.0684880000008,
0.518584079589844,0.503021768798829,-0.0520020600585944,0.72433732593308,19.0715199999995,
0.4826710546875,0.486262357177735,-0.0376368500976572,0.686177061352581,19.0744990000003,
0.473094248046875,0.55330000366211,-0.126222311523438,0.738844458268348,19.0774419999998,
0.470700046386719,0.493444962158203,-0.0448194550781267,0.683414404224311,19.0804769999995,
0.4826710546875,0.505415970458985,-0.0424252534179708,0.700154663167875,19.083442000001,
0.552102902832031,0.49583916381836,-0.0448194550781267,0.743426442390332,19.0865640000011,
0.535343491210938,0.450349332275391,-0.00890643017578263,0.699633117541817,19.0896140000004,
0.537737692871094,0.488656558837891,-0.0448194550781267,0.727980660720541,19.0927370000009,
0.554497104492188,0.49583916381836,0.0198239897460919,0.744121297797451,19.095781,
0.513795676269531,0.519781180419922,-0.00890643017578263,0.730915724944038,19.0987290000012,
0.516189877929687,0.536540592041016,-0.0113006318359385,0.744617687988058,19.1017730000003,
0.473094248046875,0.526963785400391,0.0509486113281241,0.710003351861674,19.1047479999997,
0.506613071289062,0.558088406982422,-0.0136948334960945,0.753861408001232,19.1077960000002,
0.497036264648438,0.51499277709961,-0.0735498750000012,0.71949440091842,19.1107690000008,
0.542526096191406,0.522175382080079,-0.0711556733398453,0.756349670818736,19.1137269999999,
0.544920297851563,0.510204373779297,-0.0663672700195335,0.749433952102522,19.116779,
0.542526096191406,0.498233365478516,-0.078338278320313,0.740748228060605,19.1197499999998,
0.571256516113281,0.467108743896485,-0.0543962617187521,0.739921306028831,19.1228250000004,
0.568862314453125,0.510204373779297,-0.107068698242189,0.771606468331991,19.1257960000003,
0.580833322753906,0.474291348876953,-0.0400310517578131,0.750947479885045,19.1287940000002,
0.5592855078125,0.471897147216797,-0.0831266816406266,0.736476233154214,19.1318289999999,
0.561679709472656,0.45753193725586,-0.111857101562501,0.73302904499914,19.1348140000009,
0.54013189453125,0.51499277709961,-0.121433908203127,0.756112569672116,19.1378550000009,
0.518584079589844,0.512598575439454,-0.0998860932617198,0.73597824612803,19.1408370000008,
0.513795676269531,0.479079752197266,-0.166923739746094,0.722057435949164,19.1437850000002,
0.52097828125,0.483868155517578,-0.116645504882813,0.720522681993811,19.1468290000012,
0.542526096191406,0.498233365478516,-0.00651222851562672,0.736623011210602,19.1498000000011,
0.57843912109375,0.51499277709961,-0.0448194550781267,0.775769399261133,19.1528400000007,
0.573650717773438,0.474291348876953,-0.0184832368164081,0.744559641442317,19.1557979999998,
0.547314499511719,0.486262357177735,-0.0711556733398453,0.735572818443053,19.1587909999998,
0.597592734375,0.49583916381836,-0.056790463378908,0.778587637510814,19.1618209999997,
0.54013189453125,0.455137735595703,-0.0041180268554708,0.706335458545219,19.1648000000005,
0.576044919433594,0.443166727294922,-0.0543962617187521,0.7288233329659,19.1678350000002,
0.549708701171875,0.469502945556641,-0.0304542451171894,0.723560732126951,19.1708200000012,
0.576044919433594,0.491050760498047,-0.0591846650390639,0.759250566787245,19.1737750000011,
0.511401474609375,0.51499277709961,-0.0903092866210944,0.731371858870317,19.1768069999998,
0.492247861328125,0.531752188720704,0.0150355864257801,0.724771975210506,19.1797740000002,
0.532949289550781,0.507810172119141,-0.020877438476564,0.736438716783479,19.1828079999996,
0.564073911132813,0.503021768798829,-0.0663672700195335,0.758692883607073,19.1857870000003,
0.576044919433594,0.483868155517578,-0.0520020600585944,0.754095720303183,19.1888120000003,
0.595198532714844,0.486262357177735,-0.00651222851562672,0.768605739293033,19.1917869999997,
0.599986936035156,0.469502945556641,-0.0735498750000012,0.765393312886736,19.1947410000012,
0.556891306152344,0.505415970458985,-0.0903092866210944,0.75744900641104,19.1977740000002,
0.631111557617188,0.524569583740235,-0.0400310517578131,0.82163101903971,19.200753000001,
0.590410129394531,0.469502945556641,-0.0256658417968758,0.75476875413147,19.2037739999996,
0.561679709472656,0.546117398681641,-0.0424252534179708,0.784556060013349,19.2067490000009,
0.552102902832031,0.522175382080079,-0.0639730683593758,0.76261215466405,19.2096990000009,
0.547314499511719,0.550905802001953,-0.0807324799804707,0.780748421310588,19.2127450000007,
0.50182466796875,0.49583916381836,-0.107068698242189,0.713546200257078,19.215725,
0.571256516113281,0.459926138916016,-0.0448194550781267,0.734761760037618,19.2187859999995,
0.571256516113281,0.519781180419922,-0.0376368500976572,0.77325481906412,19.2217639999999,
0.590410129394531,0.474291348876953,-0.0400310517578131,0.758379119976298,19.2247530000004,
0.638294162597656,0.47668555053711,0.0317949980468732,0.79728255593479,19.227898000001,
0.607169541015625,0.452743533935547,0.0222181914062478,0.757710503481994,19.230966000001,
0.626323154296875,0.474291348876953,0.0222181914062478,0.785955867245275,19.2340880000011,
0.576044919433594,0.522175382080079,0.000670376464842803,0.777492976341482,19.2370810000011,
0.525766684570312,0.47668555053711,-0.020877438476564,0.709996893044095,19.2400180000004,
0.52097828125,0.524569583740235,-0.0472136567382826,0.740824369943516,19.2430550000008,
0.513795676269531,0.486262357177735,-0.0400310517578131,0.708547501630024,19.2460449999999,
0.494642062988281,0.526963785400391,-0.0232716401367199,0.723120440062003,19.2491060000011,
0.516189877929687,0.498233365478516,-0.0831266816406266,0.722217780003855,19.2520700000005,
0.544920297851563,0.507810172119141,-0.0304542451171894,0.745477540214301,19.2550329999995,
0.547314499511719,0.469502945556641,-0.0903092866210944,0.726733750772686,19.2580760000001,
0.561679709472656,0.452743533935547,-0.0520020600585944,0.723301470898597,19.2610610000011,
0.542526096191406,0.462320340576172,-0.0711556733398453,0.716336368061543,19.2641139999996,
0.568862314453125,0.479079752197266,-0.107068698242189,0.751389012372178,19.267127000001,
0.544920297851563,0.479079752197266,-0.056790463378908,0.727791657486413,19.2701059999999,
0.54013189453125,0.49583916381836,-0.0328484467773453,0.733946837530956,19.273161000001,
0.528160886230469,0.493444962158203,-0.0496078583984385,0.724501754337382,19.2761380000011,
0.52097828125,0.49583916381836,-0.0927034882812521,0.725168106475875,19.2791990000005,
0.537737692871094,0.503021768798829,-0.0520020600585944,0.738171348990305,19.2821830000012,
0.497036264648438,0.49583916381836,-0.0831266816406266,0.706973528466479,19.2852270000003,
0.477882651367188,0.531752188720704,0.0126413847656242,0.715046867901527,19.288211000001,
0.528160886230469,0.51499277709961,-0.0879150849609385,0.742900090437612,19.2911710000008,
0.5592855078125,0.517386978759766,0.00545877978515463,0.761918213009761,19.2942270000003,
0.542526096191406,0.505415970458985,-0.0280600434570317,0.742002179432443,19.297195000001,
0.487459458007813,0.431195718994141,-0.0184832368164081,0.651066894660876,19.3002489999999,
0.588015927734375,0.517386978759766,0.00785298144531055,0.783271144864316,19.3032400000011,
0.549708701171875,0.474291348876953,0.0389776030273428,0.727084034552642,19.3061909999997,
0.530555087890625,0.464714542236328,-0.0687614716796894,0.708644090527894,19.3092340000003,
0.513795676269531,0.479079752197266,-0.0615788666992199,0.705191720557338,19.3122050000002,
0.523372482910156,0.443166727294922,-0.00651222851562672,0.685826445370163,19.3152620000001,
0.50182466796875,0.49583916381836,-0.056790463378908,0.70774969479953,19.3182280000001,
0.456334836425781,0.443166727294922,-0.111857101562501,0.645871691814249,19.3211840000004,
0.52097828125,0.486262357177735,-0.104674496582033,0.720295911259361,19.3242399999999,
0.52097828125,0.498233365478516,-0.0639730683593758,0.723703951547569,19.3272080000006,
0.530555087890625,0.471897147216797,-0.078338278320313,0.714361606392849,19.330245000001,
0.54013189453125,0.455137735595703,-0.111857101562501,0.715125746301352,19.3332229999996,
0.523372482910156,0.445560928955078,-0.0974918916015639,0.694224723131426,19.336166000001,
0.564073911132813,0.474291348876953,-0.0639730683593758,0.739746047178017,19.3391960000008,
0.5592855078125,0.469502945556641,-0.0376368500976572,0.731197529824002,19.3421699999999,
0.535343491210938,0.488656558837891,0.00545877978515463,0.724850111646502,19.3452040000011,
0.537737692871094,0.462320340576172,-0.0041180268554708,0.709167738824869,19.3481580000007,
0.552102902832031,0.462320340576172,-0.0328484467773453,0.720858330798575,19.3511180000005,
0.516189877929687,0.498233365478516,-0.0663672700195335,0.720481152482811,19.3541519999999,
0.461123239746094,0.500627567138672,-0.0448194550781267,0.682108046255591,19.3571260000008,
0.492247861328125,0.500627567138672,-0.020877438476564,0.702404289137418,19.360157000001,
0.470700046386719,0.538934793701172,-0.133404916503908,0.727877817547423,19.3631299999997,
0.475488449707031,0.491050760498047,-0.0639730683593758,0.686522154533865,19.3661460000003,
0.497036264648438,0.507810172119141,-0.133404916503908,0.722988997862871,19.3692740000006,
0.506613071289062,0.491050760498047,-0.0807324799804707,0.710144623798874,19.3723279999995,
0.523372482910156,0.498233365478516,-0.0424252534179708,0.723847459394014,19.3754470000003,
0.544920297851563,0.450349332275391,-0.107068698242189,0.714993956782016,19.3784100000012,
0.532949289550781,0.488656558837891,-0.0663672700195335,0.726102466775742,19.3814430000002,
0.561679709472656,0.49583916381836,-0.102280294921876,0.756175793806363,19.3843980000001,
0.561679709472656,0.47668555053711,-0.0615788666992199,0.739259877815721,19.3873760000006,
0.513795676269531,0.529357987060547,-0.0591846650390639,0.740073442297348,19.3904000000002,
0.525766684570312,0.498233365478516,-0.0472136567382826,0.72587617570954,19.3933859999997,
0.554497104492188,0.47668555053711,-0.0735498750000012,0.734918864292925,19.3964070000002,
0.561679709472656,0.524569583740235,-0.0615788666992199,0.771005383277348,19.399386000001,
0.566468112792969,0.433589920654297,-0.0543962617187521,0.715433641502273,19.4023429999997,
0.561679709472656,0.486262357177735,-0.116645504882813,0.752024833267294,19.4053920000006,
0.590410129394531,0.486262357177735,-0.0543962617187521,0.766807768732613,19.4083879999998,
0.607169541015625,0.467108743896485,-0.0256658417968758,0.766488203168724,19.4114430000009,
0.554497104492188,0.522175382080079,-0.0472136567382826,0.763127314360649,19.4144109999997,
0.516189877929687,0.526963785400391,-0.0376368500976572,0.738619897975846,19.4173730000002,
0.516189877929687,0.491050760498047,-0.0304542451171894,0.713099081831153,19.4204060000011,
0.530555087890625,0.536540592041016,0.05334281298828,0.756445611985327,19.4233839999997,
0.535343491210938,0.538934793701172,0.0389776030273428,0.760633038318345,19.4264080000012,
0.54013189453125,0.498233365478516,0.00545877978515463,0.734852875236063,19.4293730000009,
0.516189877929687,0.493444962158203,-0.0615788666992199,0.716750917390649,19.4323110000005,
0.52097828125,0.522175382080079,0.00306457812499872,0.737627880996756,19.4353510000001,
0.571256516113281,0.505415970458985,0.00545877978515463,0.762764123876853,19.4383429999998,
0.580833322753906,0.519781180419922,-0.0424252534179708,0.780602156330387,19.4413669999994,
0.532949289550781,0.510204373779297,-0.0903092866210944,0.743302909658114,19.4443320000009,
0.573650717773438,0.464714542236328,-0.126222311523438,0.748977185029171,19.447282000001,
0.54013189453125,0.512598575439454,-0.0974918916015639,0.751002284923638,19.450315,
0.588015927734375,0.471897147216797,-0.121433908203127,0.763672601893085,19.4532820000004,
