X,Y,Z,Magnitude,Seconds,
-0.826382645019531,0.518153123291016,2.46133507470703,2.64755760752222,0.0,
-0.701884158691406,0.340982200439453,2.41584524316406,2.53874348293736,0.0029789999989589,
-0.895814493164062,0.408019846923828,2.52119011621094,2.70654085572826,0.00604599999860511,
-0.855113064941406,0.422385056884766,2.38711482324219,2.57059227989497,0.00904300000001967,
-0.804834830078125,0.362530015380859,2.37514381494141,2.53386962123416,0.0121589999998832,
-1.02031297949219,0.331405393798828,2.36556700830078,2.597455559181,0.0151529999984632,
-0.989188357910156,0.333799595458984,2.31289457177735,2.5375967129374,0.01811699999962,
-1.05862020605469,0.269156150634766,2.2386743203125,2.49094048233161,0.0211879999988014,
-1.07537961767578,0.238031529052734,2.10938743066406,2.37962510988165,0.0241969999988214,
-1.20706070898438,0.151840269287109,2.04953238916016,2.38340807180969,0.0272429999986343,
-1.28846356542969,0.123109849365234,2.03516717919922,2.4118871950695,0.0302539999993314,
-1.35071280859375,-0.0301190568847656,2.0471381875,2.45277536835472,0.0332389999985025,
-1.46084608496094,-0.147434938232422,1.98010054101563,2.46507738164295,0.0363349999988714,
-1.47760549658203,-0.305452247802734,1.86039045800781,2.39534376143878,0.0392979999996896,
-1.50633591650391,-0.465863759033203,1.88433247460938,2.45698714082872,0.0423959999989165,
-1.42732726171875,-0.532901405517578,1.89630348291016,2.43253240869374,0.0453899999993155,
-1.35789541357422,-0.662188295166016,1.74307457666016,2.30666041546209,0.0483229999990726,
-1.30282877539062,-0.635852076904297,1.85320785302735,2.35288121846632,0.0513559999999416,
-1.11847524755859,-0.657399891845703,1.80532381982422,2.22314092932156,0.054361999998946,
-0.8718724765625,-0.599939052001953,1.87954407128906,2.15702906735679,0.0574619999988499,
-0.816805838378906,-0.537689808837891,1.98488894433594,2.21270563552521,0.0604319999984,
-0.689913150390625,-0.360518885986328,2.08305121240235,2.22374827166332,0.063494999998511,
-0.615692898925781,-0.267145021240234,2.10459902734375,2.20902269659172,0.0665159999989555,
-0.577385672363281,-0.0899740983886719,2.27219314355469,2.34613112051483,0.069471999999223,
-0.505559622558594,0.0369185895996094,2.34641339501953,2.40054354981256,0.072623999998541,
-0.457675589355469,0.166205479248047,2.44696986474609,2.49494543535514,0.0756489999985206,
-0.5271074375,0.281127158935547,2.46372927636719,2.53512064355679,0.0787559999989753,
-0.517530630859375,0.396048838623047,2.50203650292969,2.58551335298138,0.0818110000000161,
-0.601327688964844,0.510970518310547,2.49245969628906,2.61439117152038,0.0849049999997078,
-0.649211722167969,0.544489341552734,2.51640171289063,2.65522542995952,0.088051999999152,
-0.752162393554688,0.575613963134766,2.353596,2.53702460217666,0.0910759999987931,
-0.869478274902344,0.539700938232422,2.19079028710938,2.41802226113593,0.0941689999999653,
-0.926939114746094,0.484634300048828,2.06868600244141,2.31809152190484,0.0972789999996166,
-1.04904339941406,0.422385056884766,1.86278465966797,2.17918972979134,0.100268000000142,
-1.19987810400391,0.333799595458984,1.64012390527344,2.05940186924407,0.103343999999197,
-1.26452154882812,0.190147495849609,1.54196163720703,2.00320156455778,0.106346999999005,
-1.36747222021484,-0.0037828386230469,1.37915592431641,1.94218064208879,0.109441999999035,
-1.41535625341797,-0.168982753173828,1.32887768945313,1.94876997321024,0.112471999998888,
-1.38423163183594,-0.305452247802734,1.24747483300781,1.8882774545206,0.115420999998605,
-1.41535625341797,-0.463469557373047,1.23310962304688,1.93354511122749,0.118477999998504,
-1.30282877539062,-0.597544850341797,1.15410096826172,1.84020969215426,0.121435999999449,
-1.23100272558594,-0.705283925048828,1.18761979150391,1.85019833923395,0.124480999998923,
-1.18551289404297,-0.77471577319336,1.13734155664063,1.81636206953307,0.127424999998766,
-1.13284045751953,-0.858512831298828,1.1828313881836,1.84917870325453,0.1304540000001,
-1.07298541601563,-0.927944679443359,1.24986903466797,1.89064846941765,0.133479000000079,
-1.03946659277344,-1.0955387956543,1.33127189111328,2.01320165367109,0.136532999998963,
-0.8718724765625,-1.22243148364258,1.4126747475586,2.06158926316024,0.139568999999028,
-0.761739200195312,-1.31580534838867,1.52041382226563,2.15017406618599,0.142547999999806,
-0.713855166992188,-1.35171837329102,1.63054709863281,2.23504263963662,0.145484999999098,
-0.634846512207031,-1.38044879321289,1.77659339990235,2.33772390870285,0.148508999998739,
-0.529501639160156,-1.46903425463867,1.87475566796875,2.4399062362632,0.151514999999563,
-0.455281387695312,-1.23679669360352,1.817294828125,2.24488478448678,0.154602999999042,
-0.333177103027344,-1.3253821550293,1.86517886132813,2.31225799243879,0.157545000000027,
-0.266139456542969,-1.03089535083008,1.98728314599609,2.25452206399764,0.160568999999668,
-0.0219308872070311,-1.18412425708008,2.14051205224609,2.4463080480246,0.163583999999901,
-0.199101810058594,-0.906396864501953,2.23149171533203,2.41676479665338,0.166531999999279,
-0.117698953613281,-0.671765101806641,2.09262801904297,2.20095738754085,0.169651000000158,
-0.196707608398437,-0.583179640380859,2.21952070703125,2.30327257290514,0.172662999999375,
-0.1823423984375,-0.415585524169922,2.13332944726563,2.18106730953866,0.175694999999905,
-0.311629288085937,-0.274327626220703,2.02319617089844,2.0653549829603,0.178679999999076,
-0.381061136230469,-0.209684181396484,1.92024549951172,1.96888745840594,0.181659999998374,
-0.503165420898437,-0.226443593017578,1.84602524804688,1.92672295829814,0.184767999999167,
-0.632452310546875,-0.166588551513672,1.69279634179688,1.81474712437088,0.187735999999859,
-0.742585586914062,-0.262356617919922,1.52280802392578,1.71441203524463,0.190789999998742,
-0.665971133789062,-0.516141993896484,1.37676172265625,1.6141229661569,0.193767999999181,
-0.730614578613281,-0.681341908447266,1.2211386147461,1.57772113350644,0.196742999998605,
-0.895814493164062,-0.655005690185547,1.02241987695313,1.50892626232267,0.199853000000076,
-1.01313037451172,-0.535295607177734,0.816518534179689,1.40700997135094,0.202829999998357,
-0.821594241699219,-0.77471577319336,0.555550553222657,1.25850627507927,0.205855000000156,
-1.24776213720703,-0.700495521728516,0.519637528320313,1.52237560669107,0.208814999999959,
-1.33634759863281,-0.666976698486328,0.409504251953127,1.54866928459988,0.211768999999549,
-1.41056785009766,-0.815417201416016,0.244304337402346,1.64751069233794,0.214860000000044,
-1.70505465429687,-0.575997035400391,0.205997110839846,1.81146867723509,0.217874999998457,
-1.78645751074219,-0.710072328369141,0.153324674316407,1.92850761081127,0.221005999999761,
-1.78645751074219,-0.887243251220703,0.10065223779297,1.99718849823861,0.223987999999736,
-1.86307196386719,-0.880060646240235,0.201208707519532,2.0702726457137,0.226974999999584,
-1.86307196386719,-1.05483736743164,0.251486942382813,2.15568195624195,0.230052999999316,
-1.74575608251953,-1.16018224047852,0.344860807128908,2.12429190721739,0.233035999999629,
-1.66914162939453,-1.28468072680664,0.371197025390627,2.13874392587451,0.236146999999619,
0.0427125576171876,0.0871968244628907,0.0862870278320322,0.129896497053229,20.1030339999998,
0.0642603725585939,0.0704374128417968,0.033614591308595,0.101097800955604,20.1068299999988,
0.0307415493164064,0.0752258161621093,0.033614591308595,0.0879426348278944,20.1098219999985,
0.0139821376953126,0.0871968244628907,-0.00229843359374904,0.0883406427864758,20.1127949999991,
0.0427125576171876,0.0776200178222656,-0.0238462485351558,0.0917489690085443,20.1159469999984,
0.0642603725585939,0.106350437744141,0.0192493813476577,0.125739213342565,20.1189450000002,
0.0427125576171876,0.0895910261230469,-0.0382114584960931,0.106353326701052,20.1220329999996,
0.00201112939453141,0.0321301862792969,0.0240377846679696,0.0401772149797312,20.125027,
0.0331357509765626,0.0512837995605468,-0.00948103857421678,0.0617891267343446,20.1279969999996,
0.0331357509765626,0.0824084211425782,0.00488417138672048,0.088954938019922,20.1310549999998,
0.0451067592773439,0.0393127912597656,0.0479798012695323,0.0766953493961789,20.1340899999996,
0.0259531459960939,0.0704374128417968,-0.0238462485351558,0.0787631797487932,20.1371689999996,
0.0475009609375001,0.0704374128417968,-0.00469263525390495,0.0850869628289659,20.1401609999994,
0.0427125576171876,0.0536780012207031,0.0623450112304695,0.0926962287182102,20.1431429999993,
0.0235589443359376,0.0871968244628907,-0.0429998618164049,0.100036484198846,20.1462089999986,
0.0762313808593751,0.0584664045410156,0.0072783730468764,0.0963458281499012,20.1491869999991,
0.0690487758789064,0.0297359846191406,-0.0262404501953117,0.0796274039392083,20.1522569999997,
0.0235589443359376,0.0632548078613281,0.0192493813476577,0.0701906921041878,20.1552940000001,
0.0331357509765626,0.0417069929199219,0.0455855996093764,0.0701106136255386,20.1582669999989,
0.0427125576171876,0.0464953962402344,-0.0501824667968744,0.0806502599100423,20.1613099999995,
0.0498951625976564,0.0345243879394531,-0.0382114584960931,0.0717047848726922,20.1642799999991,
0.00919373437500015,0.101562034423828,-0.040605660156249,0.109764252945983,20.167347999999,
0.0235589443359376,0.0345243879394531,0.0240377846679696,0.0482158927384046,20.1703319999997,
0.0187705410156251,0.0895910261230469,0.0575566079101577,0.108127925560067,20.1733729999996,
0.0451067592773439,0.0943794294433594,0.0503740029296882,0.116101837219393,20.1763929999997,
0.0331357509765626,0.0584664045410156,-0.0118752402343745,0.068244558635532,20.1794359999985,
0.00201112939453141,0.0608606062011718,-0.00708683691406087,0.0613048226982361,20.1825140000001,
0.0498951625976564,0.0848026228027344,0.0431913979492204,0.107454683200302,20.1855029999988,
0.0475009609375001,0.0464953962402344,0.0312203896484391,0.0734362028656348,20.1885359999997,
0.00919373437500015,0.0943794294433594,0.0360087929687509,0.101432907011869,20.1915119999994,
0.0498951625976564,0.0536780012207031,-0.00229843359374904,0.0733221512414989,20.1944989999993,
0.0546835659179689,0.0584664045410156,-0.0453940634765608,0.0920284403886786,20.1976329999998,
0.0475009609375001,0.0632548078613281,-0.00469263525390495,0.079243503413123,20.2006729999994,
0.0498951625976564,0.0943794294433594,0.0264319863281255,0.10998024301642,20.2038539999994,
0.0307415493164064,0.0848026228027344,0.0192493813476577,0.0922337593881083,20.2068759999984,
0.0570777675781252,0.0800142194824218,-0.0190578452148422,0.100116673612923,20.2098869999991,
0.0498951625976564,0.0871968244628907,0.00488417138672048,0.100581651294824,20.2129649999988,
0.0307415493164064,0.0369185895996094,0.00248996972656279,0.048106393147238,20.2160429999985,
0.0546835659179689,0.0656490095214843,-0.00229843359374904,0.0854714433576599,20.2191219999986,
0.0714429775390626,0.0417069929199219,0.0288261879882832,0.0876043458511349,20.2221099999988,
0.0283473476562501,0.0273417829589844,0.0168551796875018,0.042839728019894,20.225097999999,
0.0451067592773439,0.101562034423828,0.0479798012695323,0.121043495895793,20.2282259999993,
0.0642603725585939,0.0800142194824218,0.0144609780273441,0.103637785996507,20.2312169999987,
0.102567599121094,0.0584664045410156,0.0455855996093764,0.126556231538259,20.2342789999984,
0.0307415493164064,0.0680432111816406,-0.0166636435546863,0.0765022774745956,20.2372459999988,
0.0115879360351564,0.0895910261230469,0.0144609780273441,0.0914874423560014,20.2402899999997,
0.0498951625976564,0.0488895979003906,0.0072783730468764,0.0702331456487458,20.2433549999987,
0.0259531459960939,0.0704374128417968,0.0431913979492204,0.0866053795774155,20.2464119999986,
0.0307415493164064,0.0584664045410156,-0.0286346518554677,0.0719951845695986,20.2495709999985,
0.0858081875000001,0.0704374128417968,0.0479798012695323,0.120940214567962,20.2526119999984,
0.0522893642578126,0.0417069929199219,0.00967257470703231,0.0675811332723249,20.2556069999991,
0.0355299526367189,0.0441011945800781,-0.0142694418945304,0.0584029953832744,20.2587100000001,
0.0307415493164064,0.0608606062011718,0.0407971962890645,0.079457331106674,20.261731999999,
0.0570777675781252,0.0895910261230469,0.0072783730468764,0.10647721928982,20.2648339999996,
0.0786255825195314,0.0536780012207031,0.0240377846679696,0.0981892312493031,20.2678759999999,
0.0403183559570314,0.123109849365234,-0.0262404501953117,0.132174755775304,20.270955,
0.0379241542968751,0.0800142194824218,0.0168551796875018,0.0901366400572616,20.2739539999984,
0.0666545742187501,0.0728316145019531,0.0144609780273441,0.0997817429229982,20.27693,
0.0451067592773439,0.0441011945800781,9.57680664068761e-05,0.0630836291554053,20.2800549999993,
0.0786255825195314,0.0680432111816406,0.0384029946289068,0.110845165933896,20.2830289999984,
0.0594719692382814,0.0608606062011718,-0.0142694418945304,0.0862817795611251,20.2861209999992,
0.0139821376953126,0.0895910261230469,-0.00229843359374904,0.09070465772658,20.2891469999995,
0.0379241542968751,0.0752258161621093,-0.078912886718749,0.115431402082253,20.2921259999985,
-0.00995987890624989,0.0680432111816406,9.57680664068761e-05,0.0687683571656255,20.29522,
0.0355299526367189,0.0991678327636719,0.00488417138672048,0.105453742084129,20.2982179999999,
0.0858081875000001,0.0512837995605468,-0.0310288535156236,0.104670257904982,20.3013099999989,
0.00440533105468766,0.0704374128417968,-0.0477882651367167,0.0852323550908002,20.304286999999,
0.0522893642578126,0.0656490095214843,0.00967257470703231,0.0844838964957303,20.3072999999986,
0.0666545742187501,0.0848026228027344,-0.0286346518554677,0.111598657632561,20.3104169999988,
0.0690487758789064,0.0943794294433594,0.0288261879882832,0.120441518034129,20.3134460000001,
0.0594719692382814,0.0488895979003906,-0.00229843359374904,0.0770220144174758,20.3165719999997,
0.0738371791992189,0.103956236083984,-0.0621534750976558,0.141851621490773,20.3195799999994,
0.0762313808593751,0.0704374128417968,-0.0382114584960931,0.110601844993524,20.3225459999994,
0.0211647426757814,0.0560722028808593,-0.0358172568359372,0.0698205854723074,20.3256979999987,
0.0235589443359376,0.0584664045410156,-0.00948103857421678,0.0637435048504809,20.3287179999988,
0.0546835659179689,0.0584664045410156,-0.040605660156249,0.0897632022500497,20.3318829999989,
0.0211647426757814,0.0488895979003906,-0.0262404501953117,0.0593860281703243,20.3349019999987,
0.0546835659179689,0.0584664045410156,0.0360087929687509,0.087779530714882,20.3379669999995,
0.0427125576171876,0.0608606062011718,-0.00469263525390495,0.0745009851679955,20.3410899999999,
0.0403183559570314,0.0560722028808593,-0.0382114584960931,0.0789289384407822,20.3441139999995,
0.0618661708984377,0.0656490095214843,0.0216435830078137,0.0927666978942484,20.3472899999997,
0.0618661708984377,0.0776200178222656,0.0551624062500018,0.113556951930094,20.3503659999988,
0.0355299526367189,0.0417069929199219,-0.00708683691406087,0.0552455794633054,20.3533499999994,
0.0307415493164064,0.0656490095214843,0.0240377846679696,0.0763717905857173,20.3564399999996,
0.0451067592773439,0.0704374128417968,-0.0765186850585931,0.113362948194929,20.359484999999,
0.0475009609375001,0.0369185895996094,0.033614591308595,0.068914906202172,20.3626369999984,
0.0666545742187501,0.0512837995605468,0.0240377846679696,0.0874681396474904,20.3656129999999,
0.0762313808593751,0.0560722028808593,-0.0980664999999981,0.136280423340585,20.3686440000001,
0.0498951625976564,0.0536780012207031,0.00967257470703231,0.073921673189664,20.3716759999988,
0.0259531459960939,0.0752258161621093,-0.0262404501953117,0.0837917086041493,20.3746619999984,
0.0427125576171876,0.0824084211425782,-0.00469263525390495,0.0929383197558482,20.3777529999988,
0.0331357509765626,0.0871968244628907,-0.00469263525390495,0.0933985279049897,20.3808300000001,
0.0331357509765626,0.0584664045410156,-0.0238462485351558,0.0713087794169475,20.3839019999996,
0.0307415493164064,0.0680432111816406,0.0384029946289068,0.0839625597439134,20.3869709999999,
0.0570777675781252,0.0680432111816406,9.57680664068761e-05,0.0888130582241956,20.3899509999992,
0.0163763393554689,0.0656490095214843,-0.0166636435546863,0.0696825226176195,20.393059,
0.0786255825195314,0.0871968244628907,9.57680664068761e-05,0.117410721803719,20.3960539999989,
0.0379241542968751,0.0800142194824218,-0.0262404501953117,0.0923530076660582,20.3991819999992,
0.0331357509765626,0.0560722028808593,-0.00469263525390495,0.0653000057757977,20.4022159999986,
0.0546835659179689,0.0249475812988281,0.0407971962890645,0.0726435504309567,20.4052179999999,
0.0690487758789064,0.0608606062011718,-0.0310288535156236,0.0971315427039208,20.4083159999991,
0.0594719692382814,0.0895910261230469,0.0503740029296882,0.118747662116017,20.4113280000001,
0.0594719692382814,0.0584664045410156,-0.0190578452148422,0.0855478640835974,20.4143839999997,
0.0067995327148439,0.0848026228027344,0.00248996972656279,0.0851112121203915,20.4174379999986,
0.0331357509765626,0.0680432111816406,-0.00708683691406087,0.076013681914091,20.4204529999988,
0.0427125576171876,0.0656490095214843,0.0144609780273441,0.0796446791371579,20.4235739999986,
0.0259531459960939,0.0464953962402344,-0.00229843359374904,0.0532979404444096,20.426539,
0.0331357509765626,0.0249475812988281,0.0216435830078137,0.0467846608500963,20.429639,
0.0570777675781252,0.0441011945800781,0.0623450112304695,0.0953398517956671,20.4326329999985,
0.0355299526367189,0.0848026228027344,0.0216435830078137,0.0944579644815961,20.4356209999987,
0.0211647426757814,0.0680432111816406,0.0072783730468764,0.07162960026868,20.4386859999995,
0.0618661708984377,0.0488895979003906,0.0240377846679696,0.0824344040813072,20.4416989999991,
0.0690487758789064,0.0584664045410156,0.033614591308595,0.0965194004289967,20.4448389999998,
0.0283473476562501,0.0536780012207031,-0.0190578452148422,0.0636246917354182,20.4478369999997,
0.0259531459960939,0.0512837995605468,0.0455855996093764,0.0733596672307562,20.4508249999999,
0.0618661708984377,0.0249475812988281,-0.0573650717773422,0.0879804317693199,20.4539159999986,
0.102567599121094,0.103956236083984,-0.00469263525390495,0.146113080303718,20.4569159999992,
0.0546835659179689,0.0800142194824218,0.0192493813476577,0.0988084327532503,20.4600449999998,
0.0570777675781252,0.0345243879394531,0.0312203896484391,0.0736513247952587,20.463072999999,
0.0834139858398439,0.0345243879394531,-0.0262404501953117,0.0940126992631111,20.4661669999987,
0.0522893642578126,0.0273417829589844,-0.040605660156249,0.0716279997388396,20.4692889999988,
0.0427125576171876,0.0680432111816406,-0.040605660156249,0.0900170028541036,20.4723349999986,
0.0738371791992189,0.0967736311035157,0.00488417138672048,0.121823314021544,20.4754809999995,
0.0211647426757814,0.0584664045410156,-0.00469263525390495,0.0623561353686381,20.4785009999996,
0.0546835659179689,0.111138841064453,0.0120667763671882,0.124449754787024,20.4816709999996,
0.0163763393554689,0.0824084211425782,0.0264319863281255,0.0880794088714736,20.4846959999995,
0.0307415493164064,0.0800142194824218,-0.00708683691406087,0.0860089613424131,20.4876789999998,
0.0522893642578126,0.0584664045410156,0.0551624062500018,0.0958925916728197,20.4908239999986,
0.0546835659179689,0.0752258161621093,0.00967257470703231,0.0935028047719609,20.4938399999992,
0.0307415493164064,0.0560722028808593,0.00488417138672048,0.0641325963954381,20.4969379999984,
0.0690487758789064,0.0632548078613281,0.0551624062500018,0.108682083303731,20.4999199999984,
0.0427125576171876,0.0704374128417968,0.0168551796875018,0.0840826307173204,20.5029189999987,
0.0690487758789064,0.0369185895996094,-0.0884896933593744,0.118157274592959,20.5060259999991,
0.0690487758789064,0.0464953962402344,0.0455855996093764,0.0949083885315635,20.5090299999993,
0.0427125576171876,0.0560722028808593,0.00967257470703231,0.0711478264993172,20.5122089999986,
0.0738371791992189,0.0848026228027344,0.0072783730468764,0.112678252473713,20.5152170000001,
0.0570777675781252,0.0345243879394531,0.0120667763671882,0.0677894682542359,20.5182759999989,
0.0451067592773439,0.0608606062011718,0.033614591308595,0.0828768596685603,20.5213690000001,
0.0498951625976564,0.0632548078613281,0.0479798012695323,0.0937697141836527,20.5244079999993,
0.0475009609375001,0.0249475812988281,0.00248996972656279,0.053711479703009,20.5275069999989,
0.0187705410156251,0.0919852277832032,0.0192493813476577,0.0958339919997836,20.5305410000001,
0.0546835659179689,0.0919852277832032,0.0240377846679696,0.109678574040586,20.533582,
0.0690487758789064,0.0824084211425782,0.0216435830078137,0.109669166181767,20.5366880000001,
0.0403183559570314,0.106350437744141,-0.0142694418945304,0.114628104788615,20.5396529999998,
0.0666545742187501,0.103956236083984,-0.0166636435546863,0.124609021750231,20.5427759999984,
0.0355299526367189,0.0512837995605468,-0.0669418784179676,0.0915074899549747,20.5457979999992,
0.0905965908203126,0.0560722028808593,9.57680664068761e-05,0.106545029802886,20.5488139999998,
0.0283473476562501,0.0632548078613281,0.0455855996093764,0.0829625802905395,20.5519399999994,
0.0307415493164064,0.0656490095214843,0.0431913979492204,0.0843820606665475,20.5549589999991,
0.0570777675781252,0.0560722028808593,0.00488417138672048,0.0801612039439877,20.558051,
0.0498951625976564,0.0441011945800781,0.0407971962890645,0.0780951588709885,20.5610339999985,
0.0163763393554689,0.0584664045410156,-0.00708683691406087,0.0611287837936079,20.5640989999993,
0.0307415493164064,0.0848026228027344,9.57680664068761e-05,0.0902027541714689,20.5671499999989,
0.0594719692382814,0.0536780012207031,0.0384029946289068,0.0888427427345461,20.5701309999986,
0.0115879360351564,0.0321301862792969,0.0384029946289068,0.0513947383334621,20.573253999999,
0.0379241542968751,0.0417069929199219,0.00488417138672048,0.0565824165946495,20.5762649999997,
0.0139821376953126,0.0488895979003906,-0.040605660156249,0.0650731326594728,20.5793399999984,
0.0475009609375001,0.0297359846191406,0.0216435830078137,0.0600750760022141,20.5824059999995,
0.0283473476562501,0.0895910261230469,-0.0190578452148422,0.095881831152506,20.5854149999996,
0.0690487758789064,0.0776200178222656,0.0192493813476577,0.105655758477103,20.5884839999999,
0.0259531459960939,0.0728316145019531,9.57680664068761e-05,0.0773176501814315,20.5915569999997,
0.0403183559570314,0.0512837995605468,0.00248996972656279,0.0652824469033096,20.5946889999996,
0.0929907924804689,0.0752258161621093,0.0503740029296882,0.129783477663997,20.5977399999992,
0.0403183559570314,0.0417069929199219,0.0168551796875018,0.0604081134269087,20.600821,
0.0451067592773439,0.0680432111816406,0.0599508095703136,0.101284736700796,20.603959,
0.0690487758789064,0.0321301862792969,-0.0190578452148422,0.0785065843413828,20.6069869999992,
0.0211647426757814,0.0704374128417968,0.0599508095703136,0.094886643045867,20.6101139999992,
0.0522893642578126,0.0536780012207031,0.0288261879882832,0.0802898159387095,20.6131929999992,
0.0355299526367189,0.0512837995605468,0.105440641113283,0.122515853790903,20.616238999999,
0.0235589443359376,0.0680432111816406,-0.00948103857421678,0.0726277669943041,20.6193289999992,
0.0498951625976564,0.0800142194824218,-0.0453940634765608,0.104653827301928,20.6223409999984,
0.0211647426757814,0.0584664045410156,0.0240377846679696,0.0666639474095962,20.6254949999984,
-0.00756567724609364,0.0536780012207031,-0.0118752402343745,0.0554940412825194,20.6284969999997,
0.0522893642578126,0.0800142194824218,-0.00469263525390495,0.0956999151488316,20.6314889999994,
0.0331357509765626,0.0441011945800781,-0.0334230551757795,0.064498015267556,20.6345599999986,
0.0498951625976564,0.0871968244628907,0.0312203896484391,0.10520231070114,20.6376069999988,
0.0714429775390626,0.0704374128417968,0.0120667763671882,0.101050162094815,20.6406709999992,
0.0642603725585939,0.0488895979003906,0.0264319863281255,0.0849602151920614,20.6437040000001,
0.0666545742187501,0.0871968244628907,-0.0118752402343745,0.110395379392976,20.6467739999989,
0.0546835659179689,0.103956236083984,-0.00229843359374904,0.117483931664032,20.6498759999995,
0.0690487758789064,0.0728316145019531,0.0384029946289068,0.107456816990847,20.6529190000001,
0.0427125576171876,0.0656490095214843,-0.0118752402343745,0.079216010755261,20.656019,
0.0139821376953126,0.0656490095214843,0.0192493813476577,0.0698271530849581,20.6590349999988,
0.0067995327148439,0.0584664045410156,0.0192493813476577,0.0619281259797313,20.6621129999985,
0.0546835659179689,0.0704374128417968,-0.00948103857421678,0.0896750333247575,20.6651469999997,
0.0259531459960939,0.0656490095214843,0.00248996972656279,0.0706368047655449,20.668185999999,
0.0522893642578126,0.0967736311035157,-0.0142694418945304,0.110918574925154,20.671264999999,
0.0307415493164064,0.0967736311035157,-0.0382114584960931,0.108490986223423,20.6742789999989,
0.0786255825195314,0.0728316145019531,-0.0190578452148422,0.108855995524958,20.6773649999996,
0.0259531459960939,0.0441011945800781,0.00248996972656279,0.0512316415872425,20.6803639999998,
0.0475009609375001,0.0584664045410156,-0.0142694418945304,0.076669933624081,20.6833769999994,
0.0498951625976564,0.0393127912597656,0.0360087929687509,0.0730181893663958,20.6865079999989,
0.0379241542968751,0.0536780012207031,0.0360087929687509,0.0749413268180472,20.689515,
0.0451067592773439,0.0824084211425782,0.00248996972656279,0.0939785483871504,20.6925899999987,
0.0211647426757814,0.0680432111816406,-0.0214520468749981,0.0744178421856513,20.6955739999994,
0.0475009609375001,0.0656490095214843,-0.0262404501953117,0.0851744971666431,20.6985859999986,
0.0666545742187501,0.0776200178222656,0.00488417138672048,0.102428289847808,20.7016649999987,
0.0427125576171876,0.0560722028808593,-0.0214520468749981,0.0736793378718955,20.7046499999997,
0.0403183559570314,0.0871968244628907,0.0551624062500018,0.110777917866244,20.7077879999997,
0.0211647426757814,0.0632548078613281,0.0144609780273441,0.0682512779046144,20.7108049999988,
0.0810197841796876,0.0800142194824218,-0.0238462485351558,0.116340553192362,20.713792999999,
0.0618661708984377,0.0632548078613281,0.0216435830078137,0.0910880810239427,20.7168979999988,
0.0211647426757814,0.0704374128417968,0.0886812294921882,0.115211700467548,20.719869999999,
0.0283473476562501,0.0704374128417968,0.0551624062500018,0.0938503719240381,20.7229829999997,
0.0977791958007814,0.101562034423828,0.0791044228515645,0.161657439304331,20.7259979999999,
0.0522893642578126,0.0273417829589844,-0.00948103857421678,0.059763206091275,20.7290489999996,
0.00919373437500015,0.0656490095214843,-0.0118752402343745,0.0673449221065264,20.7321419999989,
0.0666545742187501,0.0632548078613281,-0.0118752402343745,0.0926554062776723,20.7352309999987,
0.0642603725585939,0.0441011945800781,-0.0358172568359372,0.0857740446289592,20.7383709999995,
0.0259531459960939,0.0800142194824218,-0.00469263525390495,0.0842488096776562,20.7414140000001,
0.0451067592773439,0.0512837995605468,0.0599508095703136,0.090877650706907,20.7444500000001,
0.102567599121094,0.0536780012207031,0.0407971962890645,0.122743030065107,20.747621999999,
0.0451067592773439,0.0560722028808593,-0.0142694418945304,0.0733643553805108,20.7505959999999,
0.0307415493164064,0.0967736311035157,0.00248996972656279,0.101569574581031,20.7537249999987,
0.0355299526367189,0.0153707746582031,0.0120667763671882,0.040549295183227,20.7567529999997,
0.0355299526367189,0.0895910261230469,0.0240377846679696,0.099331488400666,20.7598789999993,
0.0546835659179689,0.0776200178222656,-0.040605660156249,0.10326654436437,20.7628819999991,
0.0498951625976564,0.0584664045410156,-0.00469263525390495,0.0770056396390969,20.7658679999986,
0.0235589443359376,0.0728316145019531,0.0240377846679696,0.0802326805044465,20.7689649999993,
0.0259531459960939,0.0177649763183594,0.0647392128906255,0.0719744805912773,20.7719669999988,
0.0331357509765626,0.0608606062011718,0.0120667763671882,0.0703391674094215,20.7750069999984,
0.0810197841796876,0.0704374128417968,-0.0334230551757795,0.11243991806139,20.7781169999998,
0.0786255825195314,0.0560722028808593,-0.0956722983398421,0.135938452367517,20.7811039999997,
0.0738371791992189,0.0417069929199219,0.0264319863281255,0.0888259657519702,20.7842700000001,
0.0379241542968751,0.0608606062011718,-0.0190578452148422,0.0741987623248541,20.7872599999992,
0.0139821376953126,0.0991678327636719,0.0192493813476577,0.101981850894372,20.7903889999998,
0.0067995327148439,0.0728316145019531,-0.0453940634765608,0.086088900068565,20.7933899999989,
0.0355299526367189,0.0584664045410156,0.0407971962890645,0.0796561938543993,20.7964039999988,
0.0786255825195314,0.0800142194824218,0.0144609780273441,0.113107813308472,20.799547999999,
0.0594719692382814,0.0417069929199219,0.0360087929687509,0.0810741731661068,20.8025569999991,
0.0259531459960939,0.0776200178222656,0.0192493813476577,0.0840771766657929,20.805617,
0.0762313808593751,0.0656490095214843,-0.00229843359374904,0.100629511952826,20.8086459999995,
0.0475009609375001,0.0967736311035157,0.0240377846679696,0.110450405425643,20.8116469999986,
0.0379241542968751,0.0871968244628907,0.00488417138672048,0.0952123038565931,20.8147669999998,
0.0427125576171876,0.0488895979003906,0.0192493813476577,0.0677133224951413,20.8178039999984,
0.0283473476562501,0.0656490095214843,0.0216435830078137,0.0747115068494296,20.8209269999988,
0.0714429775390626,-0.0133596452636719,-0.00229843359374904,0.0727176866945246,20.8238739999997,
0.0618661708984377,0.0919852277832032,0.0312203896484391,0.11516691348544,20.8268769999995,
0.0546835659179689,0.0728316145019531,0.0407971962890645,0.099795529346331,20.8299729999999,
0.0570777675781252,0.0488895979003906,-0.040605660156249,0.0854218003280728,20.8329669999985,
