X,Y,Z,Magnitude,Seconds,
1.2932040847168,2.18470901489258,-0.379002122802731,2.56689947087339,0.0,
1.35545332788086,2.28526548461914,-0.338300694580076,2.67845840348664,0.00295300000004772,
1.3698185378418,2.34512052612305,-0.316752879638669,2.73428701774669,0.0059840000000122,
1.40573156274414,2.3642741394043,-0.326329686279294,2.76990333710369,0.00895700000000943,
1.42249097436523,2.44328279418945,-0.340694896240231,2.84766297107943,0.0119840000000977,
1.4464329909668,2.52229144897461,-0.32872388793945,2.92612063070367,0.0149610000000848,
1.42249097436523,2.55341607055664,-0.376607921142575,2.94707443540112,0.0179050000000416,
1.45840399926758,2.62284791870117,-0.364636912841794,3.02311652238572,0.020939999999996,
1.47516341088867,2.66354934692383,-0.371819517822264,3.06738520015935,0.023900000000026,
1.49671122583008,2.68509716186523,-0.395761534423826,3.09943840950454,0.0269360000000916,
1.44164458764648,2.75213480834961,-0.510683214111326,3.14855243970861,0.0299400000000105,
1.50149962915039,2.80241304321289,-0.46998178588867,3.21386105489575,0.0329880000000458,
1.4847402175293,2.80241304321289,-0.455616575927731,3.20399108029014,0.036104000000023,
1.48234601586914,2.84072026977539,-0.393367332763669,3.2282780580925,0.0391510000000608,
1.50389383081055,2.79283623657227,-0.458010777587889,3.20490323895244,0.0421760000000404,
1.55177786401367,2.78325942993164,-0.477164390869138,3.22214733515706,0.0451400000000604,
1.55896046899414,2.81198984985352,-0.486741197509764,3.25185510945966,0.0480750000000398,
1.5062880324707,2.71861598510742,-0.460404979248045,3.14193399933265,0.0511170000000902,
1.51347063745117,2.71861598510742,-0.458010777587889,3.14503419970199,0.0540900000000875,
1.49192282250977,2.61087691040039,-0.48195279418945,3.04545406227288,0.0571240000000444,
1.4679808059082,2.61087691040039,-0.419703551025389,3.02453251900523,0.0600830000000769,
1.41530836938477,2.50553203735352,-0.489135399169919,2.91891109994404,0.0631130000000439,
1.40573156274414,2.41455237426758,-0.458010777587889,2.8312397049637,0.0660860000000412,
1.38178954614258,2.4025813659668,-0.400549937744138,2.80038922697303,0.0690390000000889,
1.37221273950195,2.29723649291992,-0.400549937744138,2.70567987010313,0.0720890000000054,
1.42488517602539,2.29244808959961,-0.462799180908201,2.73857610633977,0.0750870000000532,
1.40094315942383,2.22780464477539,-0.450828172607419,2.67001897229884,0.0781020000000581,
1.43206778100586,2.15119019165039,-0.455616575927731,2.62412344113382,0.0810750000000553,
1.45600979760742,2.16076699829102,-0.395761534423826,2.63543274316797,0.0840279999999893,
1.45122139428711,2.1176713684082,-0.32872388793945,2.58817212609875,0.0870570000000725,
1.46558660424805,2.09851775512695,-0.280839854736326,2.57499357031095,0.0899990000000344,
1.51825904077148,2.10330615844727,-0.218590611572264,2.60322668365897,0.0930290000000014,
1.48713441918945,2.10330615844727,-0.29041666137695,2.59225913328615,0.0959890000000314,
1.45122139428711,2.12724817504883,-0.173100780029294,2.58092855645637,0.0989530000000514,
1.51347063745117,2.08654674682617,-0.168312376708982,2.58313757923792,0.101978000000031,
1.49910542749023,2.04823952026367,-0.180283385009764,2.54462262703357,0.104956000000016,
1.47755761254883,2.06978733520508,-0.0821211169433571,2.54439383532195,0.107980999999995,
1.44164458764648,2.06739313354492,-0.187465989990232,2.52736957786591,0.110960000000091,
1.34587652124023,2.0961235534668,-0.156341368408201,2.49590868929529,0.113896000000068,
1.28841568139648,2.08415254516602,-0.130005150146483,2.45369275555334,0.11694,
1.21898383325195,2.13682498168945,-0.141976158447264,2.46416310695319,0.119913999999994,
1.17588820336914,2.11048876342773,-0.161129771728513,2.42132994255527,0.12294600000007,
1.18307080834961,2.16555540161133,-0.225773216552732,2.47795485841239,0.125913000000082,
1.15912879174805,2.23498724975586,-0.206619603271482,2.52615106889644,0.128889000000072,
1.15194618676758,2.29244808959961,-0.161129771728513,2.57065382034504,0.131915000000049,
1.13758097680664,2.4025813659668,-0.187465989990232,2.66488858984503,0.134891000000039,
1.18067660668945,2.44328279418945,-0.161129771728513,2.71838019145653,0.137922000000003,
1.18067660668945,2.53186825561523,-0.223379014892576,2.80254389754563,0.140895,
1.16631139672852,2.56538707885742,-0.163523973388669,2.82280591404727,0.143831000000091,
1.21419542993164,2.65636674194336,-0.146764561767576,2.92439645847831,0.146860000000061,
1.28123307641602,2.64918413696289,-0.168312376708982,2.94755217829841,0.149817000000098,
1.31235769799805,2.71861598510742,-0.168312376708982,3.02348882222669,0.152854000000048,
1.30996349633789,2.72340438842773,-0.0605733020019503,3.02268174797822,0.15581300000008,
1.31954030297852,2.72101018676758,-0.153947166748045,3.02799979818812,0.158835000000067,
1.34827072290039,2.77128842163086,-0.141976158447264,3.08513057870539,0.161790999999994,
1.35066492456055,2.80959564819336,-0.0964863269042944,3.11888330273268,0.164739000000054,
1.32193450463867,2.73776959838867,-0.118034141845701,3.0425031252337,0.167765000000031,
1.31235769799805,2.73298119506836,-0.110851536865232,3.03376943806173,0.170816000000059,
1.33390551293945,2.6922797668457,-0.115639940185545,3.00683336022852,0.173918000000072,
1.35066492456055,2.59172329711914,-0.0342370837402317,2.92275513260541,0.176987000000054,
1.3315113112793,2.57256968383789,-0.027054478759764,2.89685503522138,0.179972000000021,
1.34587652124023,2.48398422241211,-0.0916979235839825,2.82665345184153,0.183012000000076,
1.31235769799805,2.42891758422852,0.0447715710449241,2.76114611204171,0.185980000000086,
1.32672290795898,2.39061035766602,-0.0150834704589826,2.73412491809798,0.189021000000025,
1.26207946313477,2.29723649291992,0.0735019909667987,2.62212559164233,0.192008000000101,
1.25250265649414,2.23498724975586,0.011252747802736,2.56204167324211,0.194953000000055,
1.20461862329102,2.18470901489258,0.0184353527832055,2.49487462000893,0.19797600000004,
1.15673459008789,2.02908590698242,0.0160411511230496,2.33569729381824,0.200947000000042,
1.12800417016602,1.98599027709961,0.0136469494628937,2.28401773808255,0.203988000000095,
1.09927375024414,1.9261352355957,0.0208295544433614,2.21784435750515,0.206980000000044,
1.07293753198242,1.84473237915039,0.0160411511230496,2.1341250705504,0.209917000000019,
1.11363896020508,1.82557876586914,0.0758961926269563,2.13978732497746,0.212985000000003,
1.07533173364258,1.74178170776367,0.04716577270508,2.04752691435149,0.215952000000016,
1.07533173364258,1.70826288452148,0.0399831677246123,2.01893513360725,0.218985000000089,
1.08251433862305,1.66995565795898,0.0423773693847682,1.99057404642723,0.221947,
1.07054333032227,1.7130512878418,0.121386024169924,2.02369521018796,0.22489900000005,
1.07293753198242,1.69389767456055,0.0806845959472682,2.00673722331583,0.227922000000035,
1.04899551538086,1.62925422973633,0.183635267333987,1.94642822827139,0.23089200000004,
1.05617812036133,1.6579846496582,0.195606275634768,1.97552199063942,0.233911000000035,
3.59403188012695,2.79044203491211,-2.31591126586914,5.10559270770328,14.71162,
3.33066969750977,2.8239608581543,-2.47392857543945,5.01880844012533,14.7158310000001,
3.19898860620117,2.8455086730957,-2.48350538208008,4.94957035449427,14.71878,
3.18462339624024,2.8838158996582,-2.57209084350586,5.00738171365523,14.72171,
3.08406692651367,2.86466228637695,-2.60560966674804,4.95045054087573,14.724735,
3.02900028833008,2.94127673950195,-2.6463110949707,4.98286203064102,14.7276730000001,
2.96914524682617,2.87184489135742,-2.63434008666992,4.89929222122974,14.730679,
2.96914524682617,2.87423909301758,-2.58645605346679,4.87512346275415,14.7336230000001,
2.88774239038086,2.91972892456055,-2.69419512817383,4.9114723347275,14.7365580000001,
2.80633953393555,2.86466228637695,-2.7995400012207,4.8907316235053,14.739579,
2.76324390405274,2.90296951293945,-2.81390521118164,4.89702066606378,14.7425320000001,
2.71296566918945,2.8455086730957,-2.86418344604492,4.86422132961291,14.7455520000001,
2.70578306420898,2.89099850463867,-2.8546066394043,4.88138437434651,14.748501,
2.7105714675293,2.87423909301758,-2.91925008422851,4.91227738413484,14.751429,
2.72972508081055,2.98197816772461,-2.88573126098633,4.96699483795042,14.754451,
2.80633953393555,2.98916077270508,-2.8761544543457,5.00828195592671,14.7573930000001,
2.83746415551758,3.04422741088867,-2.91206747924805,5.07923816794872,14.7604120000001,
2.93083802026367,2.9987375793457,-2.9312210925293,5.1160820618997,14.763358,
2.95238583520508,3.0154969909668,-2.92882689086914,5.13690871820082,14.7662790000001,
3.0002698684082,3.09450564575195,-2.97192252075195,5.2354472535039,14.769352,
3.07209591821289,3.08253463745117,-2.9910761340332,5.28075085204458,14.7723970000001,
3.06970171655273,3.11844766235352,-2.96234571411133,5.28424796743668,14.775517,
3.1319509597168,3.13520707397461,-2.95037470581055,5.32384739783721,14.7785220000001,
3.1534987746582,3.18787951049805,-2.90488487426758,5.34279762184313,14.7815280000001,
3.12716255639648,3.28125337524414,-3.02459495727539,5.44921499137766,14.7844550000001,
3.19420020288086,3.2836475769043,-2.96713411743164,5.45794294732186,14.787367,
3.24208423608398,3.35068522338867,-2.90249067260742,5.49205369280678,14.790383,
3.27320885766602,3.37462723999024,-2.83066462280273,5.48768324901996,14.7933360000001,
3.34264070581055,3.43927068481445,-2.71574294311523,5.5115414780845,14.79633,
3.34742910913086,3.49912572631836,-2.66067630493164,5.52524758620501,14.7992700000001,
3.39770734399414,3.58771118774414,-2.55772563354492,5.56399561273991,14.802174,
3.4216493605957,3.63080681762695,-2.51941840698242,5.58908862009122,14.8051840000001,
3.34982331079102,3.64756622924805,-2.41407353393554,5.50942888487707,14.808124,
3.34264070581055,3.71699807739258,-2.25845042602539,5.48542796163581,14.8111740000001,
3.33545810083008,3.80558353881836,-2.08127950317383,5.47169728545446,14.8141410000001,
3.31630448754883,3.87022698364258,-1.99269404174805,5.47241828655941,14.8170630000001,
3.30433347924805,3.95881244506836,-1.94481000854492,5.51117970008637,14.8200820000001,
3.26602625268555,3.9947254699707,-1.79636950561523,5.46367115265626,14.823033,
3.27320885766602,4.0713399230957,-1.67187101928711,5.4849665177126,14.826037,
3.32109289086914,4.20541521606445,-1.50667110473633,5.56643808437095,14.8289950000001,
3.30433347924805,4.23653983764648,-1.32231757690429,5.53311967268333,14.8319300000001,
3.21335381616211,4.27724126586914,-1.21697270385742,5.48647957767378,14.834955,
3.11758574975586,4.32273109741211,-1.04937858764648,5.43199231109778,14.8379070000001,
2.96675104516602,4.33470210571289,-1.02304236938476,5.35143623701356,14.8409360000001,
2.80155113061523,4.29639487915039,-0.96797573120117,5.21964315937743,14.8438920000001,
2.65789903100586,4.26527025756836,-1.06374379760742,5.13697464428893,14.8468260000001,
2.48791071313477,4.22935723266602,-1.03980178100586,5.01581001053848,14.8498390000001,
2.35622962182617,4.21020361938477,-1.14514665405273,4.95872901122252,14.852783,
2.17666449731445,4.13598336791992,-1.20021329223633,4.82542627137128,14.855801,
2.0808964309082,4.08091672973633,-1.35344219848633,4.77659053047797,14.8587490000001,
2.00667617944336,4.10007034301758,-1.46118127319336,4.79295074249346,14.861666,
1.90851391137695,4.00909067993164,-1.48272908813476,4.68120913639148,14.86469,
1.84865886987305,3.98036026000977,-1.57131454956054,4.66152730661164,14.8676750000001,
1.86541828149414,3.95881244506836,-1.61680438110351,4.66540863664869,14.8707010000001,
1.80316903833008,3.89895740356445,-1.68623622924805,4.61483261196232,14.8736630000001,
1.8127458449707,3.88698639526367,-1.59525656616211,4.575975769965,14.8766800000001,
1.81035164331055,3.85107337036133,-1.6120159777832,4.55046532664207,14.879635,
1.86302407983398,3.83670816040039,-1.49470009643554,4.5194376429384,14.8825900000001,
1.9061197097168,3.77206471557617,-1.43723925659179,4.46401402853465,14.885615,
1.96836895288086,3.70263286743164,-1.33668278686523,4.40121430497904,14.8885660000001,
2.0425892043457,3.70023866577148,-1.2840103503418,4.41730907014268,14.891558,
2.06653122094727,3.7050270690918,-1.08529161254883,4.3789992868373,14.894487,
2.13117466577148,3.67390244750977,-1.02304236938476,4.3687618771685,14.8973910000001,
2.19102970727539,3.70263286743164,-0.900938084716795,4.39565589663721,14.900383,
2.21497172387695,3.73615169067383,-0.639970103759763,4.39027230670327,14.90332,
2.27961516870117,3.77924732055664,-0.651941112060545,4.46143282375761,14.9063480000001,
2.38017163842773,3.82713135375977,-0.426886156005857,4.52707225671253,14.909397,
2.43763247827148,3.88219799194336,-0.343089097900389,4.59687105288708,14.9124320000001,
2.49509331811523,4.00190807495117,-0.232955821533201,4.72176104025277,14.9155310000001,
2.50945852807617,4.02106168823242,-0.0438138903808571,4.74006738999512,14.918492,
2.53818894799805,4.10007034301758,0.0184353527832055,4.82216961705662,14.921499,
2.50945852807617,4.19105000610352,0.0160411511230496,4.88492984354165,14.9244580000001,
2.45918029321289,4.28921227416992,0.0950498059082054,4.945092932698,14.9273770000001,
2.43044987329102,4.35864412231445,0.130962830810549,4.99219555252201,14.930416,
2.30116298364258,4.48553681030273,0.16208745239258,5.0439730268996,14.933345,
2.30595138696289,4.57891067504883,0.142933839111331,5.12876835619189,14.9363380000001,
2.20300071557617,4.72016857299805,0.288980140380861,5.21696396689512,14.939287,
2.22694273217773,4.79199462280273,0.274614930419924,5.29130416413374,14.9422050000001,
2.14793407739258,4.87818588256836,0.399113416748049,5.34505470740402,14.945244,
2.1359630690918,5.00986697387695,0.408690223388675,5.46151380362263,14.948201,
2.15272248071289,5.06493361206055,0.461362659912112,5.52273682855779,14.951225,
2.07850222924805,5.11521184692383,0.509246693115237,5.54480801744729,14.95416,
2.03061819604492,5.1607016784668,0.595437952880863,5.57770548056902,14.957074,
2.00907038110352,5.20619151000977,0.588255347900393,5.61131341037538,14.960087,
1.99949357446289,5.21097991333008,0.605014759521486,5.61411872609466,14.963032,
2.05695441430664,5.19661470336914,0.729513245849612,5.63631576596609,14.966046,
2.08329063256836,5.17985529174805,0.79415669067383,5.63929832093846,14.9689860000001,
2.07371382592773,5.11281764526367,0.803733497314456,5.57558793673535,14.97199,
2.13117466577148,5.03620319213867,0.849223328857425,5.53411495280046,14.9749270000001,
2.17666449731445,4.97874235229492,0.90907837036133,5.50928010069039,14.9778520000001,
2.19821231225586,4.82072504272461,0.904289967041018,5.37487373356775,14.9808840000001,
2.26285575708008,4.69862075805664,0.928231983642581,5.29709050525364,14.983828,
2.26285575708008,4.53342084350586,0.818098707275393,5.13241719042105,14.9868230000001,
2.27961516870117,4.46877739868164,0.858800135498049,5.08961240460134,14.98978,
2.28679777368164,4.34427891235352,0.837252320556644,4.98028059192574,14.992699,
2.39932525170898,4.22935723266602,0.815704505615237,4.93047645826179,14.995718,
2.43763247827148,4.13358916625977,0.786974085693362,4.86291473358283,14.9986580000001,
2.44002667993164,4.0330326965332,0.664869801025393,4.76037128619183,15.001651,
2.5022759230957,3.97796605834961,0.638533582763674,4.74271271457623,15.0046180000001,
2.47593970483398,3.90853421020508,0.645716187744144,4.67160213304083,15.007548,
2.52621793969727,3.80079513549805,0.605014759521486,4.60367935461548,15.0105530000001,
2.51185272973633,3.80797774047852,0.475727869873049,4.5865472431926,15.013504,
2.5022759230957,3.75530530395508,0.449391651611331,4.53493721872261,15.016508,
2.49748751977539,3.67150824584961,0.332075770263675,4.45282955298894,15.0194570000001,
2.4256614699707,3.58771118774414,0.298556947021487,4.34104150915189,15.022381,
2.35144121850586,3.58052858276367,0.209971485595705,4.28877007553905,15.025389,
2.33228760522461,3.58531698608398,0.255461317138675,4.28477815630412,15.0283280000001,
2.28679777368164,3.49194312133789,0.181241065673831,4.17803292761808,15.0313470000001,
2.16469348901367,3.4751837097168,0.166875855712894,4.09763923117679,15.0342830000001,
2.16229928735352,3.50630833129883,0.04716577270508,4.11970398600918,15.037198,
2.02582979272461,3.52067354125977,0.0974440075683614,4.06308058839942,15.040195,
2.05695441430664,3.50630833129883,0.0375889660644564,4.06530103522986,15.04314,
1.9659747512207,3.58292278442383,0.0519541760253937,4.08718627395268,15.0462,
1.95879214624023,3.5733459777832,0.0447715710449241,4.07525123675653,15.0492720000001,
2.0210413894043,3.6116532043457,0.0878672009277359,4.13960962062182,15.052308,
1.99949357446289,3.5901053894043,-0.010295067138669,4.10937188019721,15.055389,
2.07610802758789,3.64038362426758,-0.0126892687988249,4.19079688025954,15.05834,
2.06653122094727,3.65714303588867,0.0567425793457055,4.20100775914656,15.061362,
2.14553987573242,3.63798942260742,0.0423773693847682,4.22375475599583,15.0643080000001,
2.21018332055664,3.65235463256836,0.0447715710449241,4.26926330484361,15.0673250000001,
2.24609634545898,3.61404740600586,0.135751234130861,4.2573132188635,15.070287,
2.37538323510742,3.58771118774414,0.183635267333987,4.3067202128421,15.073213,
2.42087306665039,3.57813438110352,0.198000477294924,4.32468221295823,15.076215,
2.45439188989258,3.44884749145508,0.288980140380861,4.24288794219468,15.0791690000001,
2.55015995629883,3.3602620300293,0.305739552001956,4.22943889739821,15.0821830000001,
2.57649617456055,3.24055194702148,0.396719215087893,4.15895366582628,15.0851290000001,
2.60043819116211,3.18309110717773,0.262643922119143,4.11865628724643,15.0880840000001,
2.66987003930664,3.05859262084961,0.367988795166019,4.07659301383774,15.091126,
2.68662945092773,2.91015211791992,0.288980140380861,3.97120544388736,15.0940730000001,
2.68902365258789,2.72819279174805,0.209971485595705,3.83640093549754,15.0971010000001,
2.69620625756836,2.57496388549805,0.229125098876956,3.73529992181422,15.100046,
2.64592802270508,2.50313783569336,0.217154090576175,3.64880665764433,15.102979,
2.54537155297852,2.35469733276367,0.0998382092285173,3.46893118116497,15.105992,
2.4807281081543,2.25174666137695,0.0663193859863309,3.35093617285777,15.1089420000001,
2.38974844506836,2.14161338500977,-0.0318428820800758,3.20911506348694,15.1119600000001,
2.22694273217773,2.05063372192383,-0.108457335205076,3.02921369128198,15.114903,
2.10723264916992,2.03387431030273,-0.197042796630857,2.93528533732944,15.1178450000001,
1.89893710473633,2.01711489868164,-0.278445653076169,2.78428565774865,15.1208720000001,
1.78640962670898,2.00993229370117,-0.400549937744138,2.71873636682342,15.12383,
1.55656626733398,2.00514389038086,-0.448433970947264,2.57771092095938,15.1268670000001,
1.44882719262695,2.03866271362305,-0.44364556762695,2.54009198331226,15.1298290000001,
1.31954030297852,2.12964237670898,-0.570538255615231,2.56945075161596,15.132791,
1.21419542993164,2.18949741821289,-0.553778843994138,2.56414517812141,15.1358230000001,
1.07533173364258,2.17752640991211,-0.594480272216794,2.50027326452499,15.13878,
0.998717280517578,2.23019884643555,-0.587297667236326,2.5131935164225,15.1418110000001,
0.893372407470703,2.31399590454102,-0.651941112060545,2.56470632202935,15.1447810000001,
0.905343415771484,2.33314951782227,-0.50828901245117,2.55374060804414,15.1477110000001,
0.893372407470703,2.37385094604492,-0.493923802490231,2.58403624106451,15.1507260000001,
0.890978205810547,2.41455237426758,-0.462799180908201,2.61497388383897,15.153669,
0.898160810791016,2.44807119750977,-0.359848509521482,2.6323442745816,15.156685,
0.962804255615234,2.43131178588867,-0.331118089599608,2.63588850752304,15.159628,
0.972381062255859,2.51032044067383,-0.125216746826169,2.69497919820996,15.162631,
1.09209114526367,2.54144506225586,0.0160411511230496,2.76620017217796,15.1655880000001,
1.11363896020508,2.55820447387695,0.152510645751956,2.79425506368305,15.168536,
1.13039837182617,2.59890590209961,0.274614930419924,2.84737172266021,15.171553,
1.11842736352539,2.61805951538086,0.518823499755861,2.89383710969666,15.174516,
1.05617812036133,2.63003052368164,0.67923501098633,2.91443527592855,15.1775230000001,
0.941256440673828,2.67791455688477,0.851617530517581,2.963518597777,15.180478,
0.843094172607422,2.74255800170898,0.980904420166018,3.03226081630915,15.183397,
0.771268122802734,2.7688942199707,1.15568114135742,3.09793941501896,15.186509,
0.675500056396484,2.77847102661133,1.17722895629883,3.09225962484697,15.1895490000001,
0.622827619873047,2.79762463989258,1.36876508911133,3.17618257330726,15.192663,
0.637192829833984,2.73537539672852,1.35439987915039,3.11812320091143,15.195639,
0.560578376708984,2.73537539672852,1.31848685424805,3.08786888683543,15.198569,
0.469598713623047,2.61327111206055,1.34003466918946,2.97412201693143,15.201575,
0.294821992431641,2.53665665893555,1.29215063598633,2.86202730221486,15.204519,
0.115256867919922,2.39779296264648,1.14371013305664,2.65909159409302,15.2075490000001,
-0.136134306396484,2.31399590454102,1.08385509155274,2.55887699100512,15.2104810000001,
-0.291757414306641,2.17513220825195,0.892318958740237,2.36908329028449,15.2133980000001,
-0.495264555419922,2.10570036010742,0.8013392956543,2.30681721277858,15.2164150000001,
-0.655676066650391,1.97880767211914,0.638533582763674,2.18021009169592,15.219318,
-0.813693376220703,1.90937582397461,0.439814844970705,2.12161496166028,15.222341,
-0.897490434326172,1.87346279907227,0.3416525769043,2.10525020425602,15.225278,
-0.976499089111328,1.79684834594727,0.221942493896487,2.05705442805135,15.2282170000001,
-1.01480631567383,1.75854111938477,0.150116444091799,2.03588645893755,15.231204,
-1.01720051733398,1.72262809448242,0.0232237561035173,2.00067083429839,15.234131,
-1.0219889206543,1.75614691772461,-0.0988805285644503,2.03427891634922,15.237119,
-0.993258500732422,1.80163674926758,-0.134793553466794,2.0617048109865,15.2400610000001,
-0.962133879150391,1.80403095092773,-0.14437036010742,2.0496516958234,15.242965,
-0.890307829345703,1.84233817749023,-0.122822545166013,2.04986423180496,15.2459600000001,
-0.875942619384766,1.88543380737305,-0.13718775512695,2.08349624300037,15.2488880000001,
-0.772991947998047,1.95725985717773,-0.22098481323242,2.11594352189953,15.251882,
-0.739473124755859,2.05542212524414,-0.13718775512695,2.18869849347417,15.2547920000001,
-0.591032621826172,2.10570036010742,-0.173100780029294,2.19391372817301,15.2578030000001,
-0.478505143798828,2.23977565307617,-0.0773327136230453,2.29162442327512,15.260757,
-0.344429850830078,2.37145674438477,0.00646434448242417,2.39634738725011,15.263689,
-0.267815397705078,2.46722481079102,0.102232410888675,2.48382262250484,15.2666770000001,
-0.0595198532714844,2.58932909545898,0.0926556042480495,2.59166989381798,15.269623,
0.151169892822266,2.62763632202148,0.176452662353517,2.63788940620226,15.272631,
0.282850984130859,2.69946237182617,0.159693250732424,2.71893429682636,15.275578,
0.522271150146484,2.75692321166992,0.272220728759768,2.81913051746212,15.278489,
0.744931904541016,2.90536371459961,0.389536610107424,3.02453312548055,15.281517,
0.879007197509766,2.96761295776367,0.643321986083986,3.16120918291401,15.2844610000001,
0.998717280517578,3.08492883911133,0.758243665771486,3.3300383789782,15.2874720000001,
1.09927375024414,3.18548530883789,0.9162609753418,3.49217032885456,15.29042,
1.04899551538086,3.13999547729492,1.04554786499024,3.471762308498,15.293358,
0.991534675537109,3.16393749389648,1.09103769653321,3.4905593725552,15.296371,
0.792815937744141,3.08014043579102,1.05991307495117,3.35249726946771,15.2993200000001,
0.596491401611328,3.01789119262695,0.8396465222168,3.18880471728865,15.3023280000001,
0.369042243896484,2.81917245483398,0.765426270751956,2.94445290059666,15.305277,
0.165535102783203,2.68749136352539,0.528400306396486,2.7439421610298,15.3081960000001,
-0.0140300217285156,2.58454069213867,0.322498963623049,2.60462147199325,15.311186,
-0.184018339599609,2.43849439086914,0.195606275634768,2.45323856538188,15.3141260000001,
-0.330064640869141,2.37145674438477,0.0543483776855496,2.39493288085431,15.317177,
-0.428226908935547,2.29723649291992,-0.13718775512695,2.34083196109765,15.320137,
-0.514418168701172,2.24456405639648,-0.218590611572264,2.3131095328636,15.323108,
-0.634128251708984,2.23738145141602,-0.278445653076169,2.34212006107137,15.3262110000001,
-0.689194889892578,2.27808287963867,-0.398155736083982,2.41312643533932,15.32925,
-0.751444133056641,2.32357271118164,-0.515471617431638,2.4958704729274,15.3323320000001,
-0.729896318115235,2.3858219543457,-0.37421371948242,2.52288147579013,15.33527,
-0.722713713134766,2.47440741577148,-0.472375987548826,2.62071483454242,15.3381770000001,
-0.648493461669922,2.53665665893555,-0.407732542724608,2.64979557731297,15.341173,
-0.579061613525391,2.67552035522461,-0.46998178588867,2.77751766916917,15.34414,
-0.502447160400391,2.81438405151367,-0.410126744384764,2.88815073790628,15.3471830000001,
-0.449774723876953,2.98676657104492,-0.422097752685545,3.04979316757255,15.350138,
-0.344429850830078,3.04183320922852,-0.402944139404294,3.08767633899484,15.353144,
-0.241479179443359,3.1902737121582,-0.316752879638669,3.21504135888665,15.356089,
-0.272603801025391,3.33632001342773,-0.273657249755857,3.35860571587018,15.3590370000001,
-0.239084977783203,3.47757791137695,-0.271263048095701,3.49632569958244,15.3620500000001,
-0.207960356201172,3.52785614624023,-0.299993468017576,3.54669036979118,15.365029,
-0.315699430908203,3.61644160766602,-0.25929203979492,3.63944341819388,15.368052,
-0.284574809326172,3.70263286743164,-0.216196409912108,3.71984056926462,15.370988,
-0.277392204345703,3.80079513549805,-0.278445653076169,3.82106295142784,15.373914,
-0.222325566162109,3.85346757202148,-0.29041666137695,3.87078581468877,15.37692,
-0.200777751220703,3.89416900024414,-0.273657249755857,3.90893236040119,15.379861,
-0.167258927978516,3.91092841186524,-0.359848509521482,3.93100846368055,15.382869,
-0.0786734665527344,3.91332261352539,-0.295205064697264,3.9252298559564,15.385804,
0.0410366164550781,3.8965632019043,-0.340694896240231,3.9116443860158,15.388738,
0.177506111083984,3.8798037902832,-0.343089097900389,3.89898653494292,15.3917690000001,
0.287639387451172,3.83191975708008,-0.276051451416013,3.8526029961239,15.3947350000001,
0.388195857177734,3.82952555541992,-0.323935484619138,3.86275759028957,15.3977580000001,
0.474387116943359,3.86543858032227,-0.333512291259764,3.9086940278547,15.400714,
0.500723335205078,3.81276614379883,-0.228167418212887,3.85226814960374,15.4036570000001,
0.527059553466797,3.77206471557617,-0.237744224853513,3.81612189373539,15.4066730000001,
0.505511738525391,3.69066185913086,-0.268868846435545,3.73481157929203,15.409631,
0.507905940185547,3.62362421264648,-0.369425316162108,3.67764815374923,15.4126550000001,
0.546213166748047,3.58052858276367,-0.402944139404294,3.64429660359813,15.415603,
0.483963923583984,3.46081849975586,-0.501106407470701,3.53023985009396,15.418547,
0.424108882080078,3.32434900512695,-0.58490346557617,3.40195189792431,15.421599,
0.376224848876953,3.30280119018555,-0.750103380126951,3.40774058867183,15.424557,
