X,Y,Z,Magnitude,Seconds,
0.549134092773437,0.07584830859375,-0.10362104785156,0.563949057380624,0.0,
0.110995188964844,0.351181499511719,-0.268820962402341,0.455974875842476,0.00304599999998345,
0.125360398925781,0.494833599121094,0.0184832368164098,0.510800499687674,0.00618000000002894,
-0.0613873305664064,0.487650994140625,0.00411802685547258,0.491516891455005,0.00915700000001607,
-0.219404640136719,0.691158135253906,0.265086007812503,0.772080666497452,0.0121599999999944,
-0.339114723144532,0.566659648925781,0.145375924804691,0.676192363670946,0.0151079999999979,
-0.398969764648438,0.616937883789063,0.116645504882817,0.743905504326406,0.0180540000000065,
-0.331932118164063,0.530746624023438,-0.000670376464841027,0.625996293428134,0.0210799999999836,
-0.25052926171875,0.250625029785156,-0.244878945800778,0.430747622893793,0.0240150000000199,
-0.123636573730469,0.166827971679687,-0.108409451171871,0.234243854992942,0.0270489999999768,
-0.0757525405273439,0.0231758720703125,-0.168264492675778,0.185979858957908,0.0299990000000321,
0.077476365722656,-0.125264630859375,-0.098832644531246,0.177374481295833,0.0329270000000292,
0.245070481933594,-0.340742780273438,-0.038977603027341,0.421526318231013,0.0359440000000291,
0.455760228027343,-0.446087653320313,0.0113006318359403,0.637839544224291,0.038928999999996,
0.518009471191406,-0.458058661621094,0.013694833496098,0.691620631701075,0.041971999999987,
0.597018125976562,-0.46045286328125,0.0424252534179725,0.755147259927524,0.0449280000000272,
0.644902159179687,-0.431722443359375,-0.0461602080078087,0.777440562241343,0.0478420000000028,
0.580258714355469,-0.335954376953125,-0.110803652832027,0.679590294560145,0.0508439999999837,
0.529980479492187,-0.185119672363281,-0.187418105957027,0.591839630456745,0.0537879999999973,
0.405481993164062,-0.0725921943359376,-0.060525417968746,0.416351533777767,0.0567910000000325,
0.264224095214844,0.0806367119140625,-0.000670376464841027,0.276255499863838,0.0597470000000158,
0.127754600585937,0.174010576660156,0.0496078583984403,0.221499115969685,0.0627600000000257,
0.0248039291992186,0.281749651367187,0.0615788666992216,0.289465123586957,0.0657150000000115,
-0.11645396875,0.336816289550781,0.0903092866210979,0.367644538915504,0.0686340000000314,
-0.214616236816406,0.413430742675781,0.0232716401367217,0.46639755287666,0.0716570000000161,
-0.238558253417969,0.391882927734375,-0.0341891997070274,0.460055616963976,0.0745870000000082,
-0.164338001953125,0.360758306152344,-0.0844674345703087,0.405324908988756,0.0775820000000067,
-0.17391480859375,0.310480071289063,-0.13474566943359,0.380526780591023,0.0805139999999938,
-0.0542047255859377,0.205135198242187,-0.0629196196289037,0.221308563702253,0.0834340000000111,
0.0487459458007811,0.0543004936523437,-0.0246123930664037,0.077009614564391,0.0864550000000008,
0.158879222167969,-0.029496564453125,-0.060525417968746,0.172557181164759,0.0893839999999955,
0.254647288574218,-0.149206647460938,0.00651222851562849,0.295212253040035,0.0923990000000003,
0.364780564941406,-0.235397907226563,0.0807324799804725,0.441582119893247,0.0953529999999887,
0.450971824707031,-0.242580512207031,-0.0317949980468715,0.513061218065657,0.0982609999999795,
0.506038462890625,-0.271310932128906,-0.0796790312499969,0.579683789525203,0.101257000000032,
0.486884849609375,-0.264128327148438,-0.108409451171871,0.564422925725703,0.104195000000004,
0.436606614746094,-0.235397907226563,-0.0796790312499969,0.502380591571397,0.107193999999993,
0.733487620605469,-0.379050006835938,-0.395713650390622,0.915572110960829,0.110140000000001,
0.637719554199219,-0.989571430175781,-0.520212136718747,1.28707362354206,0.113062000000014,
0.654478965820312,-0.57537454296875,2.85800640576172,2.98790883341055,0.116078000000016,
1.22190475927734,-0.714238239257813,2.19960094921875,2.61561309045638,0.119009000000005,
0.156485020507812,-0.0965342109375001,-1.41324935595703,1.42515969548595,0.122021000000018,
0.0343807358398436,0.6696103203125,-2.85695295703125,2.93457666704339,0.124990000000025,
-0.152366993652344,0.662427715332031,-3.90082488085937,3.95960363293174,0.127912999999978,
-0.470795814453125,1.53631132128906,-2.05250119921875,2.60665731303943,0.130917000000011,
-0.968789759765625,1.31604476855469,0.013694833496098,1.63423222949842,0.133883000000026,
-1.35425622705078,0.456526372558594,1.39754339306641,1.99888813915409,0.136931000000004,
-1.58409958642578,0.150068560058594,2.92264985058594,3.3277280870832,0.139961000000028,
-1.09568244775391,-0.0917458076171875,2.98011069042969,3.17647556999021,0.14298500000001,
-0.525862452636719,-0.0175255561523438,1.57710851757813,1.66256119900262,0.146067000000016,
0.0511401474609373,0.181193181640625,-0.165870291015622,0.250916793373792,0.149024999999995,
0.702362999023437,0.0231758720703125,-1.50662322070312,1.66245734760482,0.152050000000031,
1.10219467626953,-0.19230227734375,-2.12432724902343,2.40095387944291,0.154994999999985,
1.23866417089844,-0.252157318847656,-2.00461716601562,2.36988654243203,0.158021000000019,
1.37992206884766,-0.53706731640625,-1.20734801318359,1.91057987097713,0.160997000000009,
1.44456551367187,-0.666354206054688,0.190865756347661,1.60225690454528,0.163930999999991,
1.35358585058594,-0.821977313964844,1.40472599804688,2.11686005422373,0.166930999999977,
1.11416568457031,-0.798035297363281,1.83807649853516,2.29276050275187,0.16988600000002,
0.719122410644531,-0.637623786132813,1.375995578125,1.67841144096229,0.172892999999988,
0.376751573242187,-0.266522528808594,0.300999032714847,0.550977698276677,0.17584800000003,
0.101418382324219,0.0112048637695312,-0.51781793505859,0.527775189937626,0.178822000000025,
-0.128424977050781,0.320056877929688,-1.0206002836914,1.07729026678587,0.181861000000026,
-0.382210353027344,0.518775615722656,-1.11876255175781,1.29106256263798,0.18480900000003,
-0.597688502441406,0.662427715332031,-0.884130789062496,1.25607693878955,0.187829000000022,
-0.803589845214844,0.68876393359375,-0.280791970703122,1.09498699826221,0.19078300000001,
-0.896963709960938,0.559477043945313,0.255509201171879,1.0875860478933,0.193725000000029,
-0.810772450195313,0.583419060546875,0.763079953125004,1.25698877523483,0.196721000000025,
-0.669514552246094,0.506804607421875,0.832511801269535,1.18244515518749,0.199651000000017,
-0.360662538085938,0.370335112792969,0.514082980468753,0.729045178952312,0.20265999999998,
-0.0254743056640627,0.248230828125,-0.0533428129882783,0.255172373070032,0.205603999999994,
0.326473338378906,0.123732341796875,-0.412473062011715,0.540396669090518,0.208545000000015,
0.460548631347656,-0.0630153876953126,-0.757238101074215,0.888529978470661,0.211548999999991,
0.889110728515625,-0.175542865722656,-0.261638357421871,0.943285648858352,0.214476999999988,
0.965725181640625,-0.429328241699219,-0.185023904296871,1.07293136347887,0.21750000000003,
0.972907786621094,-0.53706731640625,0.0950976899414098,1.115362915939,0.220445999999981,
0.903475938476562,-0.565797736328125,0.293816427734379,1.10576848528375,0.223377000000028,
0.836438291992187,-0.606499164550781,0.463804745605472,1.13251273500909,0.22639300000003,
0.568287706054687,-0.510731098144531,0.272268612792972,0.811127221203325,0.229338999999982,
0.410270396484375,-0.364684796875,-0.0461602080078087,0.550860748380687,0.23233399999998,
0.216340062011719,0.0590888969726562,-0.0701022246093714,0.234965618914475,20.752042,
0.122966197265625,-0.0103429511718751,0.0280600434570353,0.126550497224322,20.756005,
0.0894473740234373,-0.0199197578125001,0.0184832368164098,0.0934840067295408,20.758996,
0.120571995605469,0.01838746875,-0.0150355864257783,0.122889275327363,20.761997,
0.0822647690429685,0.0135990654296875,-0.022218191406246,0.0862906416456527,20.765031,
0.120571995605469,-0.00555454785156256,-0.0581312163085901,0.133969016700267,20.767962,
0.120571995605469,0.0351468803710937,-0.0317949980468715,0.129552426549662,20.770982,
0.142119810546875,0.0327526787109375,-0.0437660063476528,0.152270291995006,20.773969,
0.125360398925781,0.00881066210937498,0.0160890351562539,0.126695360759168,20.776979,
0.158879222167969,0.07584830859375,0.0376368500976589,0.180033623633212,20.780053,
0.221128465332031,0.0878193168945312,-0.0150355864257783,0.238403228709446,20.783101,
0.235493675292969,0.066271501953125,-0.000670376464841027,0.244641845314161,20.786198,
0.235493675292969,0.027964275390625,-0.0437660063476528,0.241152928891058,20.789205,
0.211551658691406,0.0399352836914062,-0.101226846191404,0.237898729648681,20.792235,
0.187609642089844,0.027964275390625,-0.0270065947265596,0.191595236532453,20.795328,
0.197186448730469,0.0519062919921874,0.0472136567382844,0.209298562092319,20.798299,
0.230705271972656,0.00641646044921873,-0.00545877978515286,0.230859030053876,20.801336,
0.1516966171875,0.0112048637695312,-0.09643844287109,0.180104930253519,20.804359,
0.166061827148437,0.00641646044921873,-0.038977603027341,0.170695503567993,20.807324,
0.130148802246094,-0.0127371528320313,-0.0677080229492155,0.147259370364167,20.810308,
0.0798705673828123,0.0231758720703125,-0.077284829589841,0.11353137656614,20.813283,
0.125360398925781,0.0255700737304687,-0.077284829589841,0.149472416097899,20.816324,
0.127754600585937,-0.000766144531250068,-0.0437660063476528,0.135045504404767,20.819358,
0.182821238769531,0.0447236870117187,0.0208774384765658,0.189366525453922,20.822472,
0.137331407226562,0.0399352836914062,-0.0868616362304646,0.167331067476947,20.825487,
0.154090818847656,0.0926077202148437,-0.0485544096679646,0.186219496816892,20.82843,
0.180427037109375,0.066271501953125,-0.0365834013671833,0.195663417497455,20.831478,
0.223522666992187,0.0830309135742187,0.0208774384765658,0.239358272690986,20.834464,
0.180427037109375,0.0447236870117187,-0.0677080229492155,0.197834527501347,20.837494,
0.201974852050781,0.106972930175781,0.035242648437503,0.231255471114127,20.840484,
0.175638633789062,0.0303584770507812,-0.0126413847656224,0.178690714411588,20.843421,
0.185215440429687,-0.0223139594726563,0.0543962617187539,0.194323507198397,20.846475,
0.19000384375,0.01838746875,-0.060525417968746,0.200257049481655,20.849423,
0.13254300390625,0.0303584770507812,0.013694833496098,0.13666321186706,20.852496,
0.156485020507812,-0.00555454785156256,0.013694833496098,0.157181306489199,20.855469,
0.146908213867187,-0.0199197578125001,-0.060525417968746,0.160131652939846,20.858398,
0.137331407226562,0.00641646044921873,-0.0461602080078087,0.145023622830381,20.861432,
0.134937205566406,0.00641646044921873,-0.038977603027341,0.140600405221763,20.864374,
0.173244432128906,0.03754108203125,-0.0198239897460901,0.178370279680213,20.867422,
0.142119810546875,0.0566946953124999,0.013694833496098,0.153622516223836,20.870368,
0.178032835449219,0.0495120903320312,-0.0533428129882783,0.192334586813288,20.873294,
0.139725608886719,0.0327526787109375,-0.0174297880859342,0.144567566397954,20.876388,
0.154090818847656,0.00162805712890618,-0.10362104785156,0.185698552985777,20.879366,
0.283377708496094,0.01838746875,-0.038977603027341,0.286636142552342,20.882445,
0.364780564941406,-0.0582269843750001,-0.09643844287109,0.381779537864169,20.8854,
0.441395018066406,0.0734541069335937,-0.115592056152341,0.462154293764302,20.88836,
0.292954515136719,-0.0630153876953126,0.104674496582035,0.317411463655746,20.891383,
0.522797874511719,0.0902135185546875,0.176500546386722,0.559114066536336,20.894378,
0.467731236328125,0.0590888969726562,0.0160890351562539,0.471723292020588,20.897458,
0.398299388183594,-0.0534385810546876,-0.00306457812499694,0.40187992760481,20.900417,
0.0702937607421873,0.0973961235351562,-0.117986257812497,0.168368568062903,20.903425,
-0.0805409438476564,0.0878193168945312,-0.206571719238278,0.238476311705694,20.906516,
-0.140395985351563,-0.03907337109375,-0.194600710937497,0.243119718922274,20.909476,
-0.190674220214844,-0.00316034619140632,-0.0317949980468715,0.193332790657428,20.912527,
-0.382210353027344,0.178798979980469,-0.0294007963867156,0.42298727644164,20.915486,
-0.317566908203125,0.176404778320312,0.00651222851562849,0.363331523708266,20.918568,
-0.130819178710938,0.0926077202148437,0.00890643017578441,0.160527791551716,20.921615,
-0.0853293471679689,0.0830309135742187,-0.0341891997070274,0.123871431224831,20.92456,
-0.0494163222656252,0.188375786621094,-0.14192827441406,0.240979345524733,20.927594,
0.134937205566406,0.157251165039062,-0.0174297880859342,0.207941760752701,20.930584,
0.371963169921875,0.0159932670898437,-0.0437660063476528,0.374870441195568,20.933657,
0.448577623046875,0.0543004936523437,0.111857101562503,0.465491609676519,20.936618,
0.484490647949219,-0.0893516059570313,-0.10362104785156,0.503440382761663,20.939514,
0.503644261230469,0.0471178886718749,0.159741134765628,0.53046665063837,20.94255,
0.510826866210937,-0.175542865722656,-0.0748906279296833,0.54531457994511,20.945503,
0.467731236328125,-0.165966059082031,-0.0581312163085901,0.499696388333729,20.94852,
0.376751573242187,-0.106111017578125,-0.0796790312499969,0.399437159028634,20.951518,
0.218734263671875,-0.0510443793945313,-0.0198239897460901,0.22548436163358,20.954513,
0.166061827148437,-0.120476227539063,-0.13474566943359,0.245453554199217,20.957565,
0.0894473740234373,-0.110899420898438,0.00890643017578441,0.142754470240948,20.960546,
0.0224097275390623,0.0112048637695312,0.0567904633789098,0.062071745514848,20.963624,
-0.0613873305664064,0.0878193168945312,-0.0533428129882783,0.119691655813569,20.966568,
-0.0853293471679689,0.0399352836914062,-0.0629196196289037,0.113290789148416,20.969502,
-0.106877162109375,0.140491753417969,0.107068698242191,0.206456694496174,20.972584,
-0.0398395156250002,0.135703350097656,-0.192206509277341,0.238633460439944,20.975556,
0.0607169541015623,0.188375786621094,-0.0317949980468715,0.200456746958758,20.97861,
0.142119810546875,0.135703350097656,-0.077284829589841,0.211154883112699,20.981544,
0.173244432128906,0.171616375,-0.000670376464841027,0.243857054104269,20.984521,
0.182821238769531,0.164433770019531,0.0807324799804725,0.258804566018182,20.987592,
0.280983506835937,0.121338140136719,0.0256658417968776,0.307137446106465,20.990529,
0.364780564941406,-0.000766144531250068,0.0400310517578166,0.366971296753917,20.993613,
0.379145774902344,-0.0175255561523438,-0.0796790312499969,0.387823944291331,20.996567,
0.28577191015625,-0.0701979926757813,-0.0461602080078087,0.297865922208944,20.999479,
0.292954515136719,-0.0941400092773438,-0.0653138212890596,0.314564118324242,21.002488,
0.273800901855469,-0.180331269042969,-0.060525417968746,0.333391101668606,21.005437,
0.245070481933594,-0.132447235839844,-0.038977603027341,0.281284668857967,21.008488,
0.161273423828125,-0.108505219238281,-0.0509486113281223,0.200943426942654,21.011403,
0.0894473740234373,-0.0630153876953126,-0.000670376464841027,0.109417645792093,21.014376,
0.077476365722656,0.00162805712890618,0.00172382519531666,0.0775126401879703,21.017397,
0.0439575424804686,0.0112048637695312,-0.060525417968746,0.0756382227006118,21.020422,
0.0319865341796873,0.0902135185546875,-0.0724964262695273,0.120072266242868,21.023498,
0.0583227524414061,0.181193181640625,-0.0748906279296833,0.204551017296655,21.02645,
0.0846589707031248,0.185981584960938,-0.120380459472653,0.237166073222841,21.029469,
0.101418382324219,0.197952593261719,0.0256658417968776,0.223896522722983,21.032434,
0.156485020507812,0.183587383300781,0.00890643017578441,0.241394311136436,21.035431,
0.13254300390625,0.183587383300781,0.0184832368164098,0.227186278711835,21.038514,
0.194792247070312,0.116549736816406,-0.00545877978515286,0.227063116660144,21.041511,
0.259435691894531,0.0519062919921874,0.013694833496098,0.264931481409171,21.044609,
0.254647288574218,0.01838746875,-0.0317949980468715,0.257282456623133,21.047664,
0.254647288574218,-0.0103429511718751,-0.0629196196289037,0.262509231745078,21.050648,
0.273800901855469,-0.0486501777343751,-0.0485544096679646,0.282296483061087,21.053713,
0.240282078613281,-0.122870429199219,-0.0294007963867156,0.271471962645302,21.056697,
0.271406700195312,-0.132447235839844,-0.0341891997070274,0.303928887355464,21.059853,
0.211551658691406,-0.0821690009765625,0.0160890351562539,0.227518584007616,21.062819,
0.137331407226562,-0.0534385810546876,-0.0485544096679646,0.155155174113437,21.065759,
0.13254300390625,-0.0366791694335938,0.0208774384765658,0.139100240086684,21.068844,
0.101418382324219,0.0351468803710937,-0.0270065947265596,0.110681288535172,21.071844,
0.0822647690429685,0.0926077202148437,-0.038977603027341,0.129857366394212,21.074935,
0.113389390625,0.116549736816406,-0.0246123930664037,0.164459006900618,21.077879,
0.0655053574218748,0.126126543457031,-0.00545877978515286,0.142227476572316,21.080833,
0.0918415756835935,0.15246276171875,0.00172382519531666,0.177996461504878,21.083901,
0.0726879624023435,0.128520745117187,-0.13474566943359,0.199893764872214,21.086848,
0.249858885253906,0.207529399902344,0.073549875000003,0.333027774332213,21.089908,
0.106206785644531,0.085425115234375,-0.0916500395507782,0.16424695242046,21.092961,
0.252253086914062,0.0231758720703125,-0.0102471831054647,0.253522672882506,21.095931,
0.122966197265625,0.0327526787109375,-0.0150355864257783,0.128138567542631,21.099069,
0.1516966171875,-0.0654095893554688,-0.0102471831054647,0.165515204157741,21.102009,
0.0798705673828123,-0.03907337109375,-0.110803652832027,0.142068593797513,21.105078,
0.264224095214844,-0.113293622558594,0.0328484467773471,0.289359357651064,21.108038,
0.120571995605469,-0.0749863959960938,-0.0868616362304646,0.166449720809023,21.111054,
0.201974852050781,-0.0845632026367188,0.035242648437503,0.221781018957897,21.114053,
0.211551658691406,-0.03907337109375,-0.0677080229492155,0.22553316606523,21.116998,
0.187609642089844,-0.029496564453125,0.00411802685547258,0.189958898882887,21.120027,
0.245070481933594,0.0207816704101562,-0.0365834013671833,0.24865591526403,21.123015,
0.168456028808594,0.116549736816406,-0.0150355864257783,0.205395578465317,21.126069,
0.144514012207031,0.111761333496094,-0.0437660063476528,0.187857282798996,21.129037,
0.192398045410156,0.1333091484375,-0.0557370146484342,0.240613698148504,21.132027,
0.199580650390625,0.164433770019531,0.00651222851562849,0.258676071281092,21.135126,
0.158879222167969,0.15246276171875,0.0160890351562539,0.220785773997933,21.138099,
0.20915745703125,0.145280156738281,-0.0461602080078087,0.25881253945086,21.141132,
0.161273423828125,0.0519062919921874,-0.0341891997070274,0.172835996708531,21.144072,
0.122966197265625,0.0327526787109375,-0.0198239897460901,0.128788253354736,21.14704,
0.0798705673828123,0.0638773002929687,-0.0557370146484342,0.116474168074686,21.150091,
0.120571995605469,-0.00555454785156256,-0.0701022246093714,0.139580732987412,21.153026,
0.120571995605469,-0.0510443793945313,-0.0748906279296833,0.150836802351947,21.156085,
0.137331407226562,-0.0606211860351563,-0.0198239897460901,0.151419398283674,21.159047,
0.182821238769531,-0.0438617744140625,-0.0796790312499969,0.204196495123971,21.161998,
0.173244432128906,-0.03907337109375,-0.077284829589841,0.193683521439042,21.165061,
0.194792247070312,0.00402225878906243,-0.0270065947265596,0.196696604554304,21.168052,
0.240282078613281,-0.000766144531250068,-0.00785298144530877,0.24041159206191,21.171067,
0.194792247070312,0.0686657036132812,-0.0270065947265596,0.208298714662701,21.174044,
0.199580650390625,0.0566946953124999,-0.0509486113281223,0.213641020132338,21.177061,
0.20915745703125,0.0878193168945312,-0.0892558378906223,0.24377382724394,21.180163,
0.187609642089844,0.0806367119140625,-0.0150355864257783,0.204757725061981,21.183195,
0.158879222167969,0.118943938476562,-0.0102471831054647,0.19873417546716,21.18628,
0.158879222167969,0.154856963378906,0.00172382519531666,0.22186991214885,21.189294,
0.146908213867187,0.0878193168945312,-0.038977603027341,0.175537771602656,21.19226,
0.106206785644531,0.0638773002929687,-0.038977603027341,0.129920915742687,21.195324,
0.110995188964844,0.0638773002929687,0.00411802685547258,0.128129620350807,21.198328,
0.13254300390625,0.027964275390625,-0.038977603027341,0.140957093189282,21.201454,
0.106206785644531,-0.00794874951171881,-0.0485544096679646,0.117049539229969,21.204388,
0.115783592285156,-0.0199197578125001,-0.0748906279296833,0.139324237465942,21.207393,
0.156485020507812,-0.03907337109375,-0.0174297880859342,0.162228503921724,21.210386,
0.173244432128906,0.00162805712890618,-0.0557370146484342,0.18199697424848,21.213424,
0.175638633789062,-0.0127371528320313,-0.060525417968746,0.186210877667891,21.216449,
0.161273423828125,-0.0175255561523438,-0.0126413847656224,0.1627146796097,21.219374,
0.206763255371094,-0.00794874951171881,0.0113006318359403,0.207224348642585,21.222364,
0.257041490234375,-0.000766144531250068,-0.000670376464841027,0.257043506208493,21.22534,
0.230705271972656,0.0159932670898437,-0.00545877978515286,0.231323378379547,21.228275,
0.185215440429687,0.0566946953124999,-0.022218191406246,0.19496844842052,21.231381,
0.182821238769531,0.0255700737304687,0.0208774384765658,0.185777559067693,21.234419,
0.1516966171875,0.066271501953125,-0.0317949980468715,0.168566596744594,21.237473,
0.125360398925781,0.0902135185546875,-0.0629196196289037,0.166771061887528,21.240466,
0.115783592285156,0.07584830859375,-0.0126413847656224,0.138991405373787,21.243432,
0.115783592285156,0.0590888969726562,-0.0509486113281223,0.139617688650703,21.246512,
0.0822647690429685,0.0590888969726562,-0.00785298144530877,0.101590645675271,21.249477,
0.118177793945312,0.027964275390625,-0.0892558378906223,0.150713623397026,21.252563,
0.118177793945312,-0.0127371528320313,0.0160890351562539,0.119946167493198,21.255567,
0.130148802246094,0.00402225878906243,-0.10362104785156,0.166409767891534,21.258548,
0.134937205566406,0.00641646044921873,-0.0198239897460901,0.136536482231746,21.26161,
0.168456028808594,0.0423294853515625,-0.077284829589841,0.190110925137985,21.264608,
0.218734263671875,-0.00555454785156256,-0.0892558378906223,0.23630940671812,21.267673,
0.216340062011719,-0.00316034619140632,-0.00306457812499694,0.21638484664682,21.270606,
0.199580650390625,-0.0271023627929688,-0.0341891997070274,0.20429360111348,21.273581,
0.237887876953125,0.0112048637695312,-0.022218191406246,0.239185783446097,21.276687,
0.201974852050781,0.0327526787109375,0.00890643017578441,0.204806990413298,21.279668,
0.249858885253906,0.0447236870117187,-0.0724964262695273,0.263979928293989,21.282711,
0.187609642089844,0.0590888969726562,-0.0246123930664037,0.19822877047235,21.285712,
0.156485020507812,-0.00316034619140632,-0.0748906279296833,0.173511254917605,21.288655,
0.17085023046875,0.0327526787109375,-0.00785298144530877,0.174138475161428,21.291707,
0.106206785644531,0.0231758720703125,-0.0581312163085901,0.123273033031069,21.294648,
0.113389390625,0.0423294853515625,0.107068698242191,0.161594075942512,21.297752,
0.13254300390625,0.0112048637695312,-0.0413718046874969,0.139301195542918,21.300757,
0.103812583984375,0.0423294853515625,0.0280600434570353,0.115569044135753,21.3038,
0.120571995605469,0.066271501953125,-0.0724964262695273,0.15551607607338,21.306788,
0.139725608886719,0.0471178886718749,-0.0198239897460901,0.148782834295871,21.309764,
0.158879222167969,0.0495120903320312,-0.108409451171871,0.198611841110072,21.312805,
0.163667625488281,0.0566946953124999,-0.0796790312499969,0.190657095673063,21.315833,
0.146908213867187,0.0159932670898437,0.0424252534179725,0.153745601632806,21.318876,
0.0750821640624998,0.0303584770507812,-0.0413718046874969,0.0909428101185098,21.321914,
0.3815399765625,0.03754108203125,0.289028024414065,0.480124239600635,21.324904,
0.0463517441406248,-0.0127371528320313,-0.273609365722653,0.277799935670073,21.328046,
0.154090818847656,-0.0462559760742188,-0.0461602080078087,0.167374910243573,21.331067,
0.156485020507812,0.0590888969726562,-0.189812307617185,0.252997572145933,21.334174,
0.43900081640625,0.0351468803710937,0.116645504882817,0.455591037899717,21.337163,
0.276195103515625,-0.0462559760742188,0.0807324799804725,0.291446536868055,21.340232,
0.0487459458007811,0.0303584770507812,0.013694833496098,0.0590368768257717,21.343326,
0.0607169541015623,0.0878193168945312,-0.0509486113281223,0.118298528864299,21.346295,
0.139725608886719,-0.0223139594726563,-0.10362104785156,0.175380957130376,21.349362,
0.201974852050781,-0.0701979926757813,-0.13474566943359,0.252740963177223,21.352338,
0.110995188964844,0.104578728515625,-0.10362104785156,0.18437452098688,21.355332,
0.108600987304687,0.11415553515625,0.013694833496098,0.158155648381108,21.358392,
0.187609642089844,0.0255700737304687,0.0496078583984403,0.195734887259631,21.361339,
0.199580650390625,-0.0366791694335938,0.0567904633789098,0.210720084974058,21.364386,
0.0822647690429685,0.0351468803710937,-0.0294007963867156,0.0941658231721362,21.367344,
0.108600987304687,0.0638773002929687,-0.022218191406246,0.127938000475369,21.370308,
0.142119810546875,-0.0127371528320313,-0.110803652832027,0.180659140629713,21.373446,
0.180427037109375,0.03754108203125,-0.0701022246093714,0.197173959881439,21.376424,
0.173244432128906,0.027964275390625,-0.0701022246093714,0.188970780431718,21.379588,
0.192398045410156,0.0614830986328125,-0.0174297880859342,0.202733758431745,21.382571,
0.204369053710937,0.01838746875,-0.0317949980468715,0.207643278298472,21.385568,
0.20915745703125,0.0327526787109375,-0.0533428129882783,0.218323236262253,21.388646,
0.161273423828125,0.0207816704101562,-0.000670376464841027,0.162608254596398,21.391624,
0.19000384375,0.03754108203125,-0.0437660063476528,0.19856046129951,21.394713,
0.20915745703125,-0.0199197578125001,-0.0317949980468715,0.212496024630788,21.397669,
0.166061827148437,0.00402225878906243,-0.0413718046874969,0.171185090544545,21.400686,
0.1516966171875,0.0327526787109375,-0.0150355864257783,0.155918794531127,21.403664,
0.115783592285156,0.00402225878906243,-0.0174297880859342,0.117157229059679,21.406649,
0.13254300390625,-0.00316034619140632,-0.0748906279296833,0.152270291995005,21.409657,
0.156485020507812,0.03754108203125,0.00411802685547258,0.160977801664049,21.41266,
0.158879222167969,0.0806367119140625,0.0591846650390657,0.187743737900353,21.415733,
0.127754600585937,0.0734541069335937,-0.00306457812499694,0.147397881380189,21.418705,
0.154090818847656,0.0734541069335937,0.0711556733398471,0.184939493151139,21.42165,
0.168456028808594,0.01838746875,-0.0270065947265596,0.171595130489529,21.42467,
0.178032835449219,0.03754108203125,0.0280600434570353,0.184098857619965,21.427644,
0.127754600585937,0.0135990654296875,-0.0198239897460901,0.12999678119433,21.430678,
0.178032835449219,0.0327526787109375,-0.038977603027341,0.185169333310317,21.433646,
0.206763255371094,0.0471178886718749,-0.0341891997070274,0.214802329086894,21.436646,
0.139725608886719,0.0495120903320312,-0.0485544096679646,0.155987895575317,21.439718,
0.166061827148437,0.0231758720703125,-0.0868616362304646,0.188834836115401,21.442733,
0.120571995605469,0.0351468803710937,-0.0102471831054647,0.126007595349257,21.445832,
0.17085023046875,0.0159932670898437,-0.0461602080078087,0.177697356892994,21.448844,
0.158879222167969,0.00162805712890618,-0.0581312163085901,0.16918775403743,21.45181,
0.146908213867187,0.03754108203125,-0.0653138212890596,0.165097702567611,21.454876,
0.149302415527344,0.0159932670898437,-0.0437660063476528,0.156404792721097,21.457901,
0.182821238769531,0.0471178886718749,-0.0533428129882783,0.196186534898865,21.461012,
0.192398045410156,-0.00555454785156256,-0.0437660063476528,0.197391297151385,21.464048,
0.101418382324219,0.0231758720703125,-0.0413718046874969,0.111957293387172,21.46704,
0.118177793945312,0.0159932670898437,-0.101226846191404,0.156424582351515,21.470143,
0.211551658691406,0.07584830859375,0.13340491650391,0.261350228542148,21.473157,
