X,Y,Z,Magnitude,Seconds,
-0.803589845214844,0.0495120903320312,-0.266426760742185,0.848051475596286,0.0,
-0.612053712402344,0.248230828125,-0.615980203124996,0.903138915969756,0.00292299999978241,
-0.25052926171875,0.494833599121094,-0.371771633789059,0.667712025866439,0.00594499999988329,
0.17085023046875,0.61214948046875,-0.232907937499997,0.676877311659866,0.00890599999979713,
0.771794847167969,0.734253765136719,0.75829154980469,1.30759395541493,0.0119319999998879,
0.233099473632812,0.588207463867187,0.102280294921879,0.640924834817835,0.0148969999997917,
-0.0494163222656252,0.540323430664063,-0.194600710937497,0.576420696478034,0.0178079999998317,
0.211551658691406,0.865934856445313,-0.206571719238278,0.915024128146962,0.0208309999998164,
0.494067454589844,0.985644939453125,-0.522606338378903,1.22012949364739,0.0237989999998263,
0.869957115234375,0.818050823242188,-0.252061550781246,1.22047841322015,0.0268229999999221,
0.532374681152344,0.815656621582031,0.0280600434570353,0.974425929202155,0.0297989999999118,
0.213945860351562,0.57384225390625,0.384796090820316,0.723281269659579,0.0327639999998155,
-0.027868507324219,0.418219145996094,0.303393234375003,0.517427639813247,0.0357709999998406,
-0.118848170410156,0.310480071289063,0.0903092866210979,0.344497502933642,0.0387269999998807,
-0.458824806152344,0.138097551757812,-0.54415415332031,0.72504819089353,0.0417379999998957,
-0.437276991210938,0.253019231445312,-0.316704995605466,0.596265002130031,0.044687999999951,
-0.662331947265625,0.128520745117187,-0.376560037109371,0.772656878466738,0.0476079999998547,
-0.667120350585938,0.0159932670898437,-0.0126413847656224,0.667431757835139,0.0506129999998848,
-0.683879762207031,-0.0749863959960938,-0.0844674345703087,0.693144455538467,0.0535259999999198,
-0.521074049316407,0.162039568359375,0.281845419433598,0.614175729771855,0.0565589999998792,
-0.48037262109375,0.327239482910156,0.035242648437503,0.582310551630894,0.0595049999999446,
-0.319961109863281,0.389488726074219,-0.316704995605466,0.595297097091292,0.0624969999998939,
-0.226587245117188,0.525958220703125,-0.32628180224609,0.659115804735367,0.0654349999999795,
-0.106877162109375,0.753407378417969,-0.165870291015622,0.778818566212181,0.0683539999999994,
0.125360398925781,0.729465361816406,0.035242648437503,0.740997292827485,0.0713779999998678,
0.326473338378906,0.748618975097656,0.0783382783203166,0.820458467199117,0.0744189999998071,
0.386328379882812,0.755801580078125,0.0974918916015657,0.854394706490812,0.0775169999999434,
0.292954515136719,0.7462247734375,-0.0892558378906223,0.806622814597006,0.0805849999999282,
0.364780564941406,0.700734941894531,-0.0677080229492155,0.792892612982739,0.0835989999998219,
0.271406700195312,0.528352422363281,-0.309522390624997,0.669792497290219,0.0866319999997813,
0.0487459458007811,0.473285784179687,-0.108409451171871,0.487983821291219,0.0895879999998215,
-0.157155396972656,0.370335112792969,-0.113197854492183,0.417923041751287,0.0926199999998971,
-0.190674220214844,0.253019231445312,0.00172382519531666,0.316825442963502,0.0955909999997857,
-0.260106068359375,0.212317803222656,-0.10362104785156,0.351384885731475,0.0985139999997955,
-0.286442286621094,0.188375786621094,-0.0461602080078087,0.345926849714157,0.10153299999979,
-0.40375816796875,0.185981584960938,-0.163476089355465,0.473639356406348,0.104489999999942,
-0.564169679199219,0.169222173339844,-0.278397769042966,0.651482070885846,0.107495999999855,
-0.528256654296875,0.281749651367187,-0.0365834013671833,0.599813557791129,0.110463999999865,
-0.475584217773438,0.322451079589844,-0.139534072753904,0.591290795111103,0.113382999999885,
-0.284048084960938,0.463708977539063,-0.0270065947265596,0.544461832068166,0.116429999999809,
-0.0781467421875002,0.511593010742188,-0.156293484374997,0.540612592540031,0.119386999999961,
0.235493675292969,0.676792925292969,-0.0581312163085901,0.718947267286774,0.122416999999814,
0.309713926757812,0.691158135253906,-0.129957266113278,0.768447249569571,0.125381999999945,
0.288166111816406,0.849175444824219,0.198048361328128,0.918347318565559,0.128338999999869,
0.13254300390625,0.542717632324219,-0.388531045410152,0.680489860003515,0.13136099999997,
0.127754600585937,0.758195781738281,0.219596176269535,0.79962776468104,0.134331999999858,
-0.233769850097656,0.542717632324219,-0.213754324218746,0.628396118998598,0.137317999999823,
-0.0398395156250002,0.485256792480469,0.142981723144535,0.507449617998721,0.140287999999828,
0.103812583984375,0.533140825683594,1.14136381542969,1.26401248086256,0.143224999999802,
-1.37340984033203,-0.49876008984375,-1.4204319609375,2.03780351663121,0.146217999999863,
-0.942453541503907,-0.00316034619140632,-0.469933901855466,1.0531222805517,0.149153999999953,
-0.621630519042969,0.276961248046875,-1.42761456591797,1.58152312153394,0.152151999999887,
0.412664598144531,0.820445024902344,-0.21136012255859,0.942388036244506,0.155110999999806,
0.999244004882813,0.657639312011719,0.485352560546879,1.29094738623497,0.158138000000008,
1.06149324804688,0.32484528125,0.904337851074223,1.43182377452152,0.161098999999922,
0.410270396484375,0.188375786621094,0.116645504882817,0.466276108144015,0.164046999999982,
-0.018291700683594,0.705523345214844,0.24832659619141,0.748173693291239,0.167040999999926,
-0.346297328125,0.619332085449219,-0.491481716796871,0.863161832728366,0.169984999999997,
-0.413334974609375,0.506804607421875,-0.673441042968747,0.938732949083075,0.172982999999931,
-0.300807496582031,0.401459734375,-0.208965920898434,0.543435207197073,0.175927000000001,
-0.55698707421875,0.499622002441406,0.166923739746098,0.766629167890935,0.178850999999895,
-0.475584217773438,0.5163814140625,0.408738107421879,0.812340417216317,0.181862999999794,
-0.406152369628906,0.348787297851562,0.221990377929691,0.579561950434237,0.184802999999874,
-0.389392958007813,0.284143853027344,-0.192206509277341,0.518948886854842,0.187815999999884,
-0.336720521484375,0.42061334765625,-0.158687686035153,0.561674353620048,0.19075799999996,
-0.276865479980469,0.42061334765625,-0.465145498535152,0.685514709571522,0.193687999999838,
-0.183491615234375,0.434978557617188,-0.182629702636715,0.506190800719673,0.196701999999959,
-0.0542047255859377,0.346393096191406,-0.038977603027341,0.352768455084454,0.199656999999888,
0.146908213867187,0.332027886230469,0.119039706542972,0.382092910520671,0.202695999999833,
0.261829893554687,0.42061334765625,0.116645504882817,0.508995732000597,0.205665999999837,
0.312108128417969,0.446949565917969,-0.09643844287109,0.553602539338674,0.208594999999832,
0.19000384375,0.463708977539063,-0.225725332519527,0.54961750539002,0.211672999999792,
0.000861912597656,0.521169817382813,-0.295157180664059,0.598946143440056,0.214741999999887,
-0.118848170410156,0.492439397460938,-0.156293484374997,0.530140642697398,0.217864999999847,
0.0631111557617186,0.355969902832031,0.00651222851562849,0.361579865070036,0.220935999999938,
-0.176309010253906,0.537929229003906,0.0855208833007843,0.572508990317179,0.223888999999872,
-0.248135060058594,0.545111833984375,-0.0557370146484342,0.601518523723094,0.226889999999912,
-0.331932118164063,0.502016204101563,-0.196994912597653,0.633250500069901,0.229830999999876,
-0.257711866699219,0.494833599121094,-0.0533428129882783,0.560465121799951,0.232843000000003,
-0.094906153808594,0.449343767578125,-0.0461602080078087,0.461570974277379,20.272633,
-0.149972791992188,0.423007549316406,-0.0748906279296833,0.455011902336968,20.276922,
-0.094906153808594,0.444555364257813,-0.0653138212890596,0.459241271199046,20.2798640000001,
-0.0757525405273439,0.456526372558594,-0.0461602080078087,0.465065093337673,20.2827729999999,
-0.123636573730469,0.446949565917969,-0.0916500395507782,0.472704608172725,20.2858409999999,
-0.102088758789063,0.451737969238281,-0.0796790312499969,0.469934097021652,20.2888559999997,
-0.126030775390625,0.432584355957031,-0.0820732329101528,0.457983620803895,20.2919509999997,
-0.13560758203125,0.45892057421875,-0.0437660063476528,0.480534049841686,20.2949450000001,
-0.13560758203125,0.461314775878906,-0.0892558378906223,0.489047383538778,20.2978680000001,
-0.145184388671875,0.434978557617188,-0.106015249511715,0.470663452404992,20.3008540000001,
-0.0973003554687503,0.446949565917969,-0.077284829589841,0.46390108701461,20.3037939999999,
-0.109271363769532,0.444555364257813,-0.060525417968746,0.461771620014419,20.3067929999997,
-0.123636573730469,0.430190154296875,-0.113197854492183,0.461696139770967,20.3097199999997,
-0.0781467421875002,0.406248137695313,-0.0557370146484342,0.417433919917092,20.312621,
-0.0996945571289065,0.451737969238281,-0.0940442412109341,0.472070457535308,20.315623,
-0.11645396875,0.427795952636719,-0.0940442412109341,0.453227562307197,20.3185399999998,
-0.142790187011719,0.451737969238281,-0.0581312163085901,0.477321137880865,20.3215329999998,
-0.123636573730469,0.461314775878906,-0.0916500395507782,0.486309628279838,20.3244689999997,
-0.111665565429688,0.466103179199219,-0.125168862792965,0.495367153104881,20.3274080000001,
-0.094906153808594,0.446949565917969,-0.077284829589841,0.463404830995245,20.3304079999998,
-0.0853293471679689,0.437372759277344,-0.146716677734371,0.469150094928479,20.3333250000001,
-0.123636573730469,0.430190154296875,-0.125168862792965,0.464776091715853,20.3363319999999,
-0.140395985351563,0.406248137695313,-0.0629196196289037,0.43440471983853,20.339266,
-0.102088758789063,0.444555364257813,-0.098832644531246,0.466711343537446,20.3422519999999,
-0.111665565429688,0.456526372558594,-0.127563064453122,0.486988565324599,20.345182,
-0.111665565429688,0.406248137695313,-0.153899282714841,0.448544019137235,20.3480869999999,
-0.104482960449219,0.413430742675781,-0.122774661132809,0.443751377947108,20.3510799999999,
-0.123636573730469,0.451737969238281,-0.0844674345703087,0.475907493866429,20.3539879999998,
-0.118848170410156,0.463708977539063,-0.165870291015622,0.50662003207707,20.3569819999998,
-0.142790187011719,0.454132170898438,-0.0461602080078087,0.478284257481985,20.3599119999999,
-0.102088758789063,0.446949565917969,-0.022218191406246,0.458998559011591,20.3628119999998,
-0.126030775390625,0.444555364257813,-0.0270065947265596,0.462863461935248,20.3658059999998,
-0.114059767089844,0.418219145996094,-0.0413718046874969,0.435463558486117,20.3687319999999,
-0.126030775390625,0.451737969238281,-0.0461602080078087,0.471255465751234,20.3717349999997,
-0.128424977050781,0.437372759277344,-0.0940442412109341,0.465437669933699,20.374671,
-0.0925119521484377,0.427795952636719,-0.0820732329101528,0.445313208812625,20.377571,
-0.104482960449219,0.413430742675781,-0.113197854492183,0.441197713361385,20.3805629999997,
-0.0925119521484377,0.45892057421875,-0.13474566943359,0.48715803407384,20.3834870000001,
-0.106877162109375,0.425401750976563,-0.0844674345703087,0.446681234234626,20.3864749999998,
-0.13560758203125,0.456526372558594,-0.153899282714841,0.500490493781863,20.3894059999998,
-0.118848170410156,0.442161162597656,-0.110803652832027,0.471072001715739,20.3923159999999,
-0.094906153808594,0.468497380859375,-0.10362104785156,0.489115830310868,20.395313,
-0.118848170410156,0.451737969238281,-0.0940442412109341,0.476483367775107,20.3982449999999,
-0.109271363769532,0.434978557617188,-0.0533428129882783,0.451654771063347,20.4012349999998,
-0.133213380371094,0.432584355957031,-0.0916500395507782,0.461816802940638,20.40416,
-0.128424977050781,0.432584355957031,-0.0461602080078087,0.453600005018273,20.4070649999999,
-0.106877162109375,0.4397669609375,-0.098832644531246,0.463233849516416,20.4100490000001,
-0.0757525405273439,0.413430742675781,-0.120380459472653,0.43721262722918,20.4129739999998,
-0.0996945571289065,0.456526372558594,-0.0868616362304646,0.475289677366625,20.4159689999997,
-0.104482960449219,0.42061334765625,-0.0820732329101528,0.441098960337876,20.4188949999998,
-0.102088758789063,0.427795952636719,-0.10362104785156,0.451850432467763,20.4218149999997,
-0.0829351455078127,0.463708977539063,-0.0437660063476528,0.473095886182017,20.4248979999998,
-0.147578590332031,0.406248137695313,-0.125168862792965,0.449982481790328,20.4279189999997,
-0.0829351455078127,0.434978557617188,-0.117986257812497,0.458263396945172,20.431004,
-0.138001783691406,0.437372759277344,-0.110803652832027,0.471822924772427,20.4339649999997,
-0.133213380371094,0.432584355957031,-0.0844674345703087,0.460445194601423,20.4369489999999,
-0.094906153808594,0.442161162597656,-0.0653138212890596,0.456924027593024,20.4398779999997,
-0.0877235488281252,0.423007549316406,-0.0629196196289037,0.436565786946158,20.442814,
-0.0973003554687503,0.430190154296875,-0.101226846191404,0.452523814200062,20.4458329999998,
-0.11645396875,0.454132170898438,-0.0724964262695273,0.474397815450711,20.4487509999999,
-0.0877235488281252,0.468497380859375,-0.0940442412109341,0.485828710757233,20.4517350000001,
-0.0685699355468752,0.444555364257813,-0.00785298144530877,0.449881070138408,20.4546769999997,
-0.109271363769532,0.442161162597656,-0.106015249511715,0.467638704320756,20.4575810000001,
-0.102088758789063,0.446949565917969,-0.108409451171871,0.471103638543302,20.4606060000001,
-0.123636573730469,0.403853936035156,-0.0820732329101528,0.430255760653151,20.4635490000001,
-0.121242372070313,0.454132170898438,-0.0509486113281223,0.472791182686847,20.466563,
-0.102088758789063,0.446949565917969,-0.115592056152341,0.472808156222879,20.4694869999998,
-0.0996945571289065,0.406248137695313,-0.0270065947265596,0.419172888270178,20.472385,
-0.0853293471679689,0.418219145996094,-0.038977603027341,0.428611251723016,20.4753639999999,
-0.128424977050781,0.449343767578125,-0.110803652832027,0.480291833860121,20.4782700000001,
-0.159549598632813,0.434978557617188,-0.101226846191404,0.474246027290138,20.4812440000001,
-0.104482960449219,0.403853936035156,-0.139534072753904,0.439868671462987,20.4841499999998,
-0.0733583388671877,0.413430742675781,-0.106015249511715,0.433065420000065,20.4870470000001,
-0.104482960449219,0.415824944335938,-0.0844674345703087,0.436991785802786,20.4900199999997,
-0.11645396875,0.468497380859375,-0.110803652832027,0.49530674555334,20.4929349999998,
-0.0877235488281252,0.4397669609375,-0.0294007963867156,0.449393822587025,20.4959279999998,
-0.11645396875,0.430190154296875,0.035242648437503,0.447065028782709,20.4988530000001,
-0.114059767089844,0.42061334765625,-0.127563064453122,0.454089808416637,20.5017560000001,
-0.130819178710938,0.430190154296875,-0.0533428129882783,0.452794304370181,20.504735,
-0.094906153808594,0.411036541015625,-0.0413718046874969,0.423874795551623,20.5076439999998,
-0.104482960449219,0.423007549316406,-0.0796790312499969,0.442945621745879,20.5106299999998,
-0.0877235488281252,0.423007549316406,-0.09643844287109,0.442641142530914,20.5135409999998,
-0.0877235488281252,0.45892057421875,-0.0413718046874969,0.469057715727359,20.5164409999998,
-0.133213380371094,0.451737969238281,-0.144322476074215,0.492587022425086,20.5194259999998,
-0.102088758789063,0.399065532714844,-0.0653138212890596,0.417062716295107,20.5223489999999,
-0.109271363769532,0.444555364257813,-0.0509486113281223,0.460614224516258,20.5253539999999,
-0.121242372070313,0.442161162597656,-0.10362104785156,0.470046304158221,20.5282859999998,
-0.0613873305664064,0.411036541015625,-0.0533428129882783,0.419004651646806,20.5312679999997,
-0.121242372070313,0.442161162597656,-0.098832644531246,0.469013963672711,20.5341939999998,
-0.145184388671875,0.432584355957031,-0.0940442412109341,0.465888453428206,20.5371070000001,
-0.0709641372070314,0.425401750976563,-0.098832644531246,0.442459546318648,20.540105,
-0.118848170410156,0.427795952636719,-0.0365834013671833,0.44550264865407,20.5430280000001,
-0.128424977050781,0.480468389160156,-0.0820732329101528,0.50406236050014,20.5460170000001,
-0.130819178710938,0.432584355957031,-0.0341891997070274,0.453223768037347,20.5489419999999,
-0.133213380371094,0.468497380859375,-0.060525417968746,0.490814554391248,20.5518440000001,
-0.094906153808594,0.437372759277344,-0.060525417968746,0.451625325694772,20.5548450000001,
-0.111665565429688,0.461314775878906,-0.0916500395507782,0.483404851751197,20.5577760000001,
-0.111665565429688,0.430190154296875,-0.0557370146484342,0.447927876067812,20.5608239999997,
-0.0805409438476564,0.463708977539063,-0.108409451171871,0.482975639747576,20.5638439999998,
-0.130819178710938,0.4397669609375,-0.098832644531246,0.469336264394569,20.5668409999998,
-0.126030775390625,0.444555364257813,-0.0294007963867156,0.463009325029347,20.5699249999998,
-0.111665565429688,0.406248137695313,-0.0485544096679646,0.424104089324597,20.5728519999998,
-0.138001783691406,0.418219145996094,-0.0437660063476528,0.44256887564687,20.5758479999999,
-0.094906153808594,0.403853936035156,-0.0509486113281223,0.417972416168929,20.5787889999997,
-0.111665565429688,0.437372759277344,-0.0437660063476528,0.453519120183738,20.5817199999997,
-0.128424977050781,0.430190154296875,-0.120380459472653,0.464809636956152,20.5847289999997,
-0.128424977050781,0.396671331054688,-0.113197854492183,0.432035732171339,20.5876720000001,
-0.0709641372070314,0.446949565917969,-0.0916500395507782,0.461735371174289,20.5906829999999,
-0.13560758203125,0.427795952636719,-0.0437660063476528,0.450903822015674,20.5936299999998,
-0.0661757338867189,0.463708977539063,-0.0437660063476528,0.470447347656878,20.596544,
-0.123636573730469,0.463708977539063,-0.146716677734371,0.501834436581971,20.5995589999998,
-0.0996945571289065,0.451737969238281,-0.120380459472653,0.478014280744312,20.6025169999998,
-0.13560758203125,0.396671331054688,-0.0317949980468715,0.420414656126378,20.6055539999998,
-0.142790187011719,0.444555364257813,-0.182629702636715,0.501370240124415,20.6084849999997,
-0.0853293471679689,0.461314775878906,-0.0653138212890596,0.473664770891499,20.611406,
-0.11645396875,0.415824944335938,-0.120380459472653,0.448289377737705,20.6144019999997,
-0.0781467421875002,0.403853936035156,-0.077284829589841,0.418542542461741,20.617338,
-0.128424977050781,0.454132170898438,-0.0796790312499969,0.47862067589727,20.620336,
-0.13560758203125,0.4397669609375,-0.0820732329101528,0.467461668799583,20.6232639999998,
-0.104482960449219,0.45892057421875,-0.0796790312499969,0.477361006457836,20.6262590000001,
-0.111665565429688,0.470891582519531,-0.0724964262695273,0.489350398806758,20.6291900000001,
-0.0996945571289065,0.45892057421875,-0.077284829589841,0.475941218058624,20.6321069999999,
-0.121242372070313,0.432584355957031,-0.0892558378906223,0.458034433641787,20.6351070000001,
-0.0781467421875002,0.492439397460938,-0.0820732329101528,0.505311279358115,20.6380369999997,
-0.0829351455078127,0.456526372558594,-0.00545877978515286,0.464030565241831,20.64102,
-0.0829351455078127,0.456526372558594,-0.09643844287109,0.473914486448041,20.643943,
-0.0805409438476564,0.430190154296875,-0.0796790312499969,0.444858584845542,20.6468580000001,
-0.114059767089844,0.413430742675781,-0.077284829589841,0.435783839010545,20.6498550000001,
-0.114059767089844,0.42061334765625,-0.113197854492183,0.450265447216218,20.6527779999997,
-0.114059767089844,0.434978557617188,-0.0533428129882783,0.452837091847411,20.6557969999999,
-0.128424977050781,0.42061334765625,-0.129957266113278,0.458582003542146,20.6587479999998,
-0.140395985351563,0.446949565917969,-0.098832644531246,0.478793106468897,20.6616610000001,
-0.109271363769532,0.430190154296875,-0.0677080229492155,0.448985719333827,20.6646659999997,
-0.118848170410156,0.423007549316406,-0.0820732329101528,0.446985782714437,20.6675959999998,
-0.11645396875,0.423007549316406,-0.09643844287109,0.449218529092132,20.6705889999998,
-0.102088758789063,0.449343767578125,-0.060525417968746,0.464752904619957,20.6735199999998,
-0.104482960449219,0.411036541015625,-0.10362104785156,0.436583381076488,20.6764330000001,
-0.147578590332031,0.427795952636719,-0.038977603027341,0.454211482631719,20.6794259999997,
-0.118848170410156,0.403853936035156,-0.110803652832027,0.435316366269234,20.682358,
-0.123636573730469,0.4397669609375,-0.022218191406246,0.457356130739907,20.6853609999998,
-0.133213380371094,0.418219145996094,-0.0509486113281223,0.441869686427865,20.6882929999997,
-0.11645396875,0.425401750976563,-0.0509486113281223,0.443986415972173,20.6912029999999,
-0.128424977050781,0.413430742675781,-0.10362104785156,0.445146352650223,20.6941979999997,
-0.121242372070313,0.406248137695313,-0.0437660063476528,0.426207373795631,20.6971319999998,
-0.102088758789063,0.418219145996094,-0.163476089355465,0.460492997275473,20.7002229999998,
-0.121242372070313,0.425401750976563,-0.0844674345703087,0.450334442411471,20.7032439999998,
-0.102088758789063,0.442161162597656,-0.110803652832027,0.467125312803452,20.7062489999998,
-0.094906153808594,0.432584355957031,-0.0844674345703087,0.450856019758403,20.7092859999998,
-0.094906153808594,0.444555364257813,-0.106015249511715,0.466771767623287,20.712215,
-0.123636573730469,0.451737969238281,-0.0892558378906223,0.476780662163319,20.7152109999997,
-0.145184388671875,0.473285784179687,-0.060525417968746,0.49873967802943,20.7181390000001,
-0.121242372070313,0.45892057421875,-0.175447097656246,0.506052853269798,20.7211520000001,
-0.104482960449219,0.468497380859375,-0.0677080229492155,0.484758559767663,20.7240830000001,
-0.11645396875,0.434978557617188,-0.0102471831054647,0.450414117436334,20.726983,
-0.109271363769532,0.466103179199219,-0.0916500395507782,0.48743423592248,20.7299840000001,
-0.0829351455078127,0.470891582519531,-0.0701022246093714,0.48325091075272,20.7329129999998,
-0.147578590332031,0.45892057421875,-0.122774661132809,0.497454672489799,20.7359109999998,
-0.118848170410156,0.430190154296875,-0.098832644531246,0.457117433586656,20.738848,
-0.0901177504882814,0.427795952636719,-0.0174297880859342,0.437532151456492,20.741794,
-0.130819178710938,0.423007549316406,-0.038977603027341,0.444486555291646,20.7447999999999,
-0.138001783691406,0.444555364257813,-0.0748906279296833,0.471468525295282,20.7477409999997,
-0.109271363769532,0.451737969238281,-0.09643844287109,0.474665984725028,20.7507419999997,
-0.109271363769532,0.451737969238281,-0.077284829589841,0.471147926532963,20.7536809999997,
-0.121242372070313,0.444555364257813,-0.0844674345703087,0.468469777230636,20.756594,
-0.114059767089844,0.434978557617188,-0.0461602080078087,0.452047277238391,20.7595889999998,
-0.0829351455078127,0.480468389160156,-0.0461602080078087,0.489753893446373,20.7625199999998,
-0.149972791992188,0.430190154296875,-0.0892558378906223,0.464243483303167,20.7655169999998,
-0.106877162109375,0.406248137695313,-0.0940442412109341,0.430470203924039,20.7684489999997,
-0.109271363769532,0.427795952636719,-0.0916500395507782,0.450942721176504,20.7713749999998,
-0.0973003554687503,0.418219145996094,-0.0796790312499969,0.436718858389451,20.7743700000001,
-0.111665565429688,0.444555364257813,-0.153899282714841,0.483511798835634,20.7773050000001,
-0.0996945571289065,0.411036541015625,-0.0629196196289037,0.42760837375508,20.780303,
-0.094906153808594,0.423007549316406,-0.098832644531246,0.444646439808588,20.7832319999998,
-0.0901177504882814,0.408642339355469,-0.0581312163085901,0.422479595692495,20.7861439999997,
-0.0877235488281252,0.403853936035156,-0.0365834013671833,0.41488765699365,20.7891369999998,
-0.149972791992188,0.446949565917969,-0.09643844287109,0.481202791009771,20.7920679999997,
-0.094906153808594,0.473285784179687,-0.0724964262695273,0.488121238381588,20.7950689999998,
-0.0996945571289065,0.492439397460938,-0.0365834013671833,0.503759774246031,20.7979969999997,
-0.118848170410156,0.449343767578125,-0.0653138212890596,0.469361911878803,20.8009039999997,
-0.126030775390625,0.418219145996094,-0.0677080229492155,0.442012880802082,20.8038969999998,
-0.104482960449219,0.451737969238281,-0.0916500395507782,0.472634754991017,20.8068239999998,
-0.102088758789063,0.425401750976563,-0.0413718046874969,0.439431895324084,20.8098199999999,
-0.104482960449219,0.454132170898438,-0.0724964262695273,0.471602003272901,20.812754,
-0.147578590332031,0.463708977539063,-0.0844674345703087,0.493903030642252,20.8157459999998,
-0.0996945571289065,0.427795952636719,-0.098832644531246,0.450240239692685,20.8186799999999,
-0.0996945571289065,0.4397669609375,-0.0748906279296833,0.457102385472922,20.8215959999998,
-0.11645396875,0.418219145996094,-0.0294007963867156,0.435124335958702,20.8245919999999,
-0.118848170410156,0.456526372558594,-0.098832644531246,0.4819845516989,20.8275239999998,
-0.11645396875,0.423007549316406,-0.101226846191404,0.450270794085244,20.830512,
-0.102088758789063,0.480468389160156,-0.0365834013671833,0.492554903446143,20.833443,
-0.130819178710938,0.413430742675781,-0.139534072753904,0.455530892440177,20.8363890000001,
-0.138001783691406,0.444555364257813,-0.0868616362304646,0.473517590001723,20.8394800000001,
-0.0877235488281252,0.442161162597656,-0.098832644531246,0.461486518062826,20.8424970000001,
-0.123636573730469,0.4397669609375,-0.120380459472653,0.47241130100672,20.8455859999999,
-0.11645396875,0.4397669609375,-0.0916500395507782,0.46406490550298,20.8485299999998,
-0.102088758789063,0.463708977539063,-0.060525417968746,0.478655885518715,20.8514379999997,
-0.0805409438476564,0.466103179199219,-0.0892558378906223,0.481358101513881,20.8544360000001,
-0.111665565429688,0.399065532714844,-0.0724964262695273,0.420687805534659,20.857368,
-0.133213380371094,0.468497380859375,-0.0940442412109341,0.496064431185031,20.860396,
-0.13560758203125,0.45892057421875,-0.0701022246093714,0.483644323486601,20.863327,
-0.11645396875,0.456526372558594,-0.0868616362304646,0.479085378119357,20.8662359999998,
-0.128424977050781,0.473285784179687,-0.117986257812497,0.504393859270384,20.8692569999998,
-0.133213380371094,0.468497380859375,-0.060525417968746,0.490814554391248,20.872198,
-0.0996945571289065,0.434978557617188,-0.0102471831054647,0.446374680139291,20.8752009999998,
-0.102088758789063,0.437372759277344,-0.0509486113281223,0.452009741294624,20.878158,
-0.094906153808594,0.418219145996094,-0.0557370146484342,0.432459300871611,20.8810989999997,
-0.11645396875,0.427795952636719,-0.120380459472653,0.459415235873638,20.8840930000001,
-0.126030775390625,0.456526372558594,-0.0724964262695273,0.479119835749808,20.8870280000001,
-0.133213380371094,0.434978557617188,-0.132351467773434,0.473781659964171,20.8900319999998,
-0.121242372070313,0.461314775878906,-0.0341891997070274,0.478204910687927,20.892953,
-0.123636573730469,0.377517717773437,-0.120380459472653,0.415086839853447,20.8958640000001,
-0.111665565429688,0.454132170898438,-0.0724964262695273,0.473245136234396,20.89885,
-0.114059767089844,0.4780741875,-0.194600710937497,0.52861516807575,20.901789,
-0.109271363769532,0.468497380859375,-0.0677080229492155,0.485813136075836,20.9047929999997,
-0.106877162109375,0.415824944335938,-0.106015249511715,0.442235621859626,20.9077360000001,
-0.1547611953125,0.463708977539063,-0.0557370146484342,0.492019977467172,20.9107319999998,
-0.123636573730469,0.423007549316406,-0.098832644531246,0.451651725079758,20.9136669999998,
-0.114059767089844,0.45892057421875,-0.17305289599609,0.503552409111991,20.9165849999999,
-0.123636573730469,0.442161162597656,-0.125168862792965,0.475877862782463,20.9195850000001,
-0.128424977050781,0.466103179199219,-0.0940442412109341,0.49253372239376,20.9225200000001,
-0.128424977050781,0.442161162597656,-0.09643844287109,0.470425171205374,20.9255049999997,
-0.102088758789063,0.425401750976563,-0.110803652832027,0.451293932915054,20.9284239999997,
-0.11645396875,0.468497380859375,-0.146716677734371,0.504556345946745,20.9313480000001,
-0.121242372070313,0.456526372558594,-0.0748906279296833,0.478251657371353,20.9343709999998,
-0.114059767089844,0.423007549316406,-0.0509486113281223,0.441067770578996,20.9373009999999,
-0.159549598632813,0.461314775878906,-0.0701022246093714,0.493134584837932,20.940294,
-0.109271363769532,0.427795952636719,-0.115592056152341,0.456411143025603,20.9432269999998,
-0.0973003554687503,0.430190154296875,-0.115592056152341,0.45595224692268,20.946136,
-0.130819178710938,0.454132170898438,-0.10362104785156,0.483825389703132,20.9491290000001,
-0.130819178710938,0.444555364257813,-0.0557370146484342,0.466743767190222,20.952061,
-0.104482960449219,0.437372759277344,-0.0701022246093714,0.455110911182421,20.9550529999997,
-0.094906153808594,0.418219145996094,-0.0677080229492155,0.434164494725368,20.9579859999999,
-0.118848170410156,0.451737969238281,-0.038977603027341,0.468733755984274,20.9608939999998,
-0.0973003554687503,0.446949565917969,-0.0509486113281223,0.46024671062906,20.96389,
-0.114059767089844,0.492439397460938,-0.00785298144530877,0.505537199380877,20.9668160000001,
-0.102088758789063,0.4780741875,-0.0820732329101528,0.495694521843041,20.9698100000001,
-0.104482960449219,0.434978557617188,-0.129957266113278,0.465845388113481,20.9727459999999,
-0.111665565429688,0.415824944335938,-0.0629196196289037,0.435130395822865,20.9757500000001,
-0.126030775390625,0.437372759277344,-0.0102471831054647,0.455284187804756,20.9788370000001,
-0.152366993652344,0.430190154296875,-0.0724964262695273,0.462098475901485,20.9818519999999,
