X,Y,Z,Magnitude,Seconds,
-0.0661757338867189,0.351181499511719,-0.0461602080078087,0.360331011929405,0.0,
-0.0518105239257815,0.370335112792969,-0.060525417968746,0.37880833197956,0.00376400000004651,
-0.0446279189453127,0.360758306152344,-0.101226846191404,0.377339477125248,0.00749399999995148,
-0.027868507324219,0.351181499511719,-0.0677080229492155,0.358733153850422,0.011391999999887,
-0.018291700683594,0.358364104492187,-0.0461602080078087,0.361787482516615,0.0151889999997366,
-0.114059767089844,0.346393096191406,-0.0246123930664037,0.365518231351206,0.0189299999997274,
-0.018291700683594,0.329633684570313,-0.156293484374997,0.365267854560699,0.0226840000000266,
-0.037445313964844,0.327239482910156,-0.0677080229492155,0.336262110688855,0.0264369999999872,
-0.0398395156250002,0.355969902832031,-0.0892558378906223,0.369145450093913,0.0301679999997759,
-0.0542047255859377,0.329633684570313,-0.0174297880859342,0.334515045688483,0.0339460000000145,
-0.0613873305664064,0.320056877929688,-0.0868616362304646,0.337268073367168,0.0376889999997729,
-0.0805409438476564,0.322451079589844,-0.0677080229492155,0.339184195882147,0.041396000000077,
-0.0206859023437502,0.360758306152344,-0.0916500395507782,0.372792424498329,0.0451050000001487,
-0.0805409438476564,0.336816289550781,-0.101226846191404,0.360803174781605,0.0487920000000486,
-0.102088758789063,0.384700322753906,-0.106015249511715,0.411892809025701,0.0524860000000444,
-0.037445313964844,0.336816289550781,-0.170658694335934,0.379436100545437,0.0561680000000706,
-0.0135032973632815,0.353575701171875,0.0663672700195352,0.360003791686574,0.0600209999997787,
0.0367749374999998,0.284143853027344,-0.09643844287109,0.302308614671752,0.0640290000001187,
-0.185885816894531,0.578630657226562,0.0208774384765658,0.608114168427552,0.0678829999997106,
-0.0757525405273439,0.296114861328125,-0.0796790312499969,0.315865804601669,0.0716569999999592,
0.0295923325195311,0.387094524414062,0.119039706542972,0.406064439109278,0.0754779999997481,
-0.0877235488281252,0.339210491210937,-0.098832644531246,0.364042676058186,0.0792999999998756,
-0.027868507324219,0.396671331054688,-0.00785298144530877,0.39772662457869,0.0832259999997405,
-0.0757525405273439,0.387094524414062,-0.0701022246093714,0.4006181974435,0.0870649999997113,
-0.102088758789063,0.425401750976563,-0.022218191406246,0.438043847616173,0.0908469999999397,
-0.0996945571289065,0.482862590820312,0.0160890351562539,0.493309378977425,0.0946749999998246,
-0.0422337172851565,0.473285784179687,0.0376368500976589,0.476654647378558,0.0984889999999723,
-0.0158974990234377,0.312874272949219,-0.115592056152341,0.333922992011973,0.102272000000085,
-0.0206859023437502,0.351181499511719,-0.0724964262695273,0.359182521814366,0.106105999999727,
-0.118848170410156,0.370335112792969,-0.0653138212890596,0.394384176442973,0.109887999999955,
-0.0494163222656252,0.310480071289063,-0.168264492675778,0.356584894617479,0.11363799999981,
0.0128329208984373,0.334422087890625,-0.106015249511715,0.35105847070957,0.117385000000013,
-0.0350511123046877,0.312874272949219,-0.0174297880859342,0.315313635385498,0.121114000000034,
-0.0637815322265627,0.303297466308594,-0.125168862792965,0.334252421285568,0.124832999999853,
-0.106877162109375,0.346393096191406,-0.0868616362304646,0.37276782146298,0.128557999999884,
-0.0829351455078127,0.430190154296875,-0.022218191406246,0.43867465762651,0.13254999999981,
-0.037445313964844,0.446949565917969,0.0160890351562539,0.448803880402616,0.136567000000014,
-0.0805409438476564,0.377517717773437,-0.0724964262695273,0.392762272488829,0.14032700000007,
-0.0781467421875002,0.370335112792969,-0.0437660063476528,0.381012430759842,0.144092000000001,
0.0487459458007811,0.238654021484375,-0.0940442412109341,0.26110578030296,0.147906000000148,
-0.00871489404296899,0.272172844726562,-0.24966734912109,0.369442542219872,0.151706000000104,
-0.0398395156250002,0.250625029785156,-0.268820962402341,0.369682028758453,0.155609999999797,
-0.0230801040039065,0.264990239746094,-0.0940442412109341,0.282129115240635,0.159386999999697,
-0.0470221206054689,0.303297466308594,-0.0892558378906223,0.31963578881753,0.163142999999764,
-0.0494163222656252,0.360758306152344,-0.0724964262695273,0.371273834502273,0.16690699999981,
-0.0853293471679689,0.384700322753906,-0.156293484374997,0.423914011414047,0.170666999999867,
-0.0637815322265627,0.320056877929688,-0.0916500395507782,0.338975247935489,0.174406999999974,
-0.0542047255859377,0.353575701171875,-0.139534072753904,0.383957922426822,0.178139000000101,
-0.0111090957031252,0.281749651367187,-0.151505081054685,0.320093841924926,0.182003999999779,
-0.0518105239257815,0.288932256347656,-0.122774661132809,0.318182017976956,0.185763999999836,
-0.00392649072265649,0.327239482910156,-0.129957266113278,0.352122120180398,0.189458999999715,
-0.0661757338867189,0.38230612109375,-0.110803652832027,0.40350297082192,0.193166000000019,
-0.0518105239257815,0.329633684570313,-0.0653138212890596,0.340012634536194,0.196856000000025,
-0.018291700683594,0.348787297851562,-0.110803652832027,0.366421362556024,0.200566999999864,
-0.0613873305664064,0.353575701171875,-0.10362104785156,0.373525772030669,0.204553000000033,
-0.0206859023437502,0.3631525078125,-0.0485544096679646,0.36696754786287,0.208427999999913,
-0.027868507324219,0.336816289550781,-0.0724964262695273,0.345655317374243,0.212175000000116,
-0.0302627089843752,0.320056877929688,-0.0365834013671833,0.323559240203033,0.215953999999783,
-0.094906153808594,0.360758306152344,-0.0844674345703087,0.382476771832667,0.219710999999734,
-0.133213380371094,0.42061334765625,-0.0724964262695273,0.447120928562223,0.223520999999892,
-0.018291700683594,0.430190154296875,0.0567904633789098,0.434307853830274,0.227386999999908,
-0.0661757338867189,0.255413433105469,-0.194600710937497,0.327848572154199,0.231183999999757,
-0.0326569106445315,0.284143853027344,-0.10362104785156,0.304206384850688,0.234963999999763,
-0.0350511123046877,0.418219145996094,0.0184832368164098,0.420092209633444,0.23880999999983,
-0.094906153808594,0.274567046386719,-0.273609365722653,0.399069324808885,0.242580999999973,
0.00804451757812485,0.34399889453125,-0.0102471831054647,0.344245491565806,0.246353999999883,
-0.0901177504882814,0.329633684570313,-0.122774661132809,0.363115948937449,0.250097000000096,
-0.0446279189453127,0.355969902832031,-0.196994912597653,0.409283787195379,0.253937999999835,
-0.0135032973632815,0.394277129394531,0.013694833496098,0.394745921154049,0.257704000000103,
-0.0470221206054689,0.279355449707031,-0.0844674345703087,0.295610038074052,0.261418999999933,
0.00325611425781225,0.346393096191406,-0.0317949980468715,0.347864486934107,0.265164999999797,
-0.0613873305664064,0.303297466308594,0.0113006318359403,0.309653777149857,0.268897999999808,
-0.0877235488281252,0.320056877929688,-0.196994912597653,0.385925927761347,0.272683000000143,
0.0798705673828123,0.245836626464844,-0.115592056152341,0.283154512397725,0.276788000000124,
0.0607169541015623,0.298509062988281,0.0400310517578166,0.307240450309444,0.280663000000004,
-0.0135032973632815,0.185981584960938,-0.24966734912109,0.311617191761648,0.28445099999999,
-0.0565989272460939,0.492439397460938,0.109462899902347,0.507623999818893,0.288278999999875,
-0.0542047255859377,0.379911919433594,0.00172382519531666,0.383763195703898,0.292112000000088,
-0.123636573730469,0.413430742675781,-0.127563064453122,0.449981462691442,0.295956999999817,
0.118177793945312,-0.304829755371094,-1.228895828125,1.271641508887,0.299743999999919,
-0.0613873305664064,2.11091971972656,1.50049406445313,2.59060473730433,0.303483000000142,
0.0271981308593748,2.05585308154297,1.57471431591797,2.58978701980857,0.306467999999768,
-0.604871107421875,-0.65198899609375,-2.55528354785156,2.70562981901478,0.309332999999697,
-0.561775477539063,0.68876393359375,0.952221884277348,1.302579732792,0.312374000000091,
0.345626951660156,0.142885955078125,1.68005918896485,1.7211836811618,0.315332000000126,
-0.264894471679688,-1.53305520703125,-2.22488371875,2.71487290879166,0.318300999999792,
2.11254777685547,-1.35109588085938,0.20283676464844,2.51584199461437,0.321222000000034,
1.46611332861328,-0.9392931953125,-0.65907583300781,1.86175749031737,0.324137000000064,
-0.667120350585938,0.150068560058594,-1.19298280322265,1.37505567293435,0.327132999999776,
0.0104387192382811,0.537929229003906,0.676888693359379,0.864670530013507,0.330087999999705,
-0.489949427734375,-0.185119672363281,-1.03017709033203,1.15567494230778,0.333052999999836,
0.640113755859375,0.662427715332031,1.53161868603516,1.78729177749255,0.336002000000008,
-0.300807496582031,0.648062505371094,-0.187418105957027,0.738644506720471,0.338907999999719,
-0.624024720703125,1.46687947314453,0.593091635253909,1.70085270631808,0.341922000000068,
-0.607265309082031,0.791714604980469,-0.572884573242185,1.15055634612684,0.344857000000047,
-0.226587245117188,0.782137798339844,-0.208965920898434,0.840683098045051,0.347862000000077,
-0.379816151367188,1.07662460253906,-0.0270065947265596,1.14197644449897,0.350793999999951,
-0.82513766015625,1.24900712207031,-0.474722305175778,1.57042421537045,0.353729999999814,
-0.355874134765625,1.10056661914063,0.166923739746098,1.16865598781362,0.356726999999864,
0.0343807358398436,0.346393096191406,-0.0461602080078087,0.351142388340232,0.359676000000036,
0.19000384375,0.104578728515625,0.372825082519535,0.431319734365838,0.362705999999889,
-0.257711866699219,0.102184526855469,-0.022218191406246,0.278119995317914,0.365632000000005,
-0.145184388671875,0.0973961235351562,-0.0461602080078087,0.180818351936483,0.368631999999707,
0.240282078613281,-0.292858747070313,-0.419655666992185,0.565342906453214,0.371550999999727,
0.448577623046875,-0.513125299804688,-0.407684658691403,0.79418274857262,0.374481999999716,
0.3815399765625,-0.407780426757813,-0.185023904296871,0.588295398013068,0.377509999999802,
0.0726879624023435,-0.106111017578125,0.00172382519531666,0.128631487214343,0.380550999999741,
0.146908213867187,-0.137235639160156,-0.0270065947265596,0.202842303566264,0.383622999999716,
0.328867540039062,-0.113293622558594,-0.0820732329101528,0.357386792375037,0.386653000000024,
0.096629979003906,0.255413433105469,-0.108409451171871,0.293812837970711,0.38960999999972,
-0.164338001953125,0.621726287109375,-0.0437660063476528,0.644566535184986,0.392620000000079,
-0.233769850097656,0.791714604980469,-0.0246123930664037,0.825872949336952,0.395544999999856,
-0.166732203613281,0.719888555175781,0.0472136567382844,0.740451408923918,0.39856699999973,
-0.118848170410156,0.748618975097656,0.00890643017578441,0.758046556607563,0.401542000000063,
-0.319961109863281,0.95691451953125,-0.0150355864257783,1.00910186719371,0.404446999999891,
-0.420517579589844,1.06225939257813,-0.0748906279296833,1.14491862506304,0.407443000000058,
-0.145184388671875,0.707917546875,-0.199389114257809,0.749654439573366,0.41039499999988,
-0.109271363769532,0.65045670703125,-0.0485544096679646,0.66135594755033,0.413380999999845,
-0.0230801040039065,0.545111833984375,0.142981723144535,0.564024268896313,0.416353999999956,
-0.183491615234375,0.348787297851562,-0.156293484374997,0.42396863712071,0.419274999999743,
-0.0661757338867189,0.281749651367187,0.0232716401367217,0.290350930833071,0.422317000000021,
0.0391691391601561,0.027964275390625,-0.225725332519527,0.230798933926744,0.425261999999748,
0.134937205566406,-0.118082025878906,-0.196994912597653,0.266380197971047,0.428264000000127,
-0.00871489404296899,-0.108505219238281,-0.237696340820309,0.261436191870009,0.431180999999924,
0.154090818847656,-0.0247081611328125,0.0903092866210979,0.180305964764668,0.434107999999924,
0.0439575424804686,-0.130053034179688,-0.240090542480466,0.276567398347726,0.437093000000004,
0.139725608886719,-0.0366791694335938,-0.106015249511715,0.179186607697489,0.4400270000001,
-0.0422337172851565,0.0782425102539062,-0.17305289599609,0.194558171504537,0.443021999999928,
-0.094906153808594,0.231471416503906,-0.113197854492183,0.274590511399609,0.445946999999705,
-0.102088758789063,0.358364104492187,-0.10362104785156,0.386761254028159,0.448863999999958,
-0.161943800292969,0.542717632324219,-0.0126413847656224,0.566505099268954,0.451868000000104,
-0.161943800292969,0.705523345214844,-0.0677080229492155,0.727030509310417,0.454793999999765,
-0.224193043457031,0.705523345214844,0.0113006318359403,0.740373835070879,0.457813999999871,
-0.169126405273438,0.640879900390625,-0.0102471831054647,0.662899534203343,0.460735999999997,
-0.0757525405273439,0.664821916992188,-0.101226846191404,0.676737395966391,0.463735999999699,
-0.126030775390625,0.753407378417969,-0.0653138212890596,0.766663113402215,0.466664999999921,
-0.1547611953125,0.604966875488281,-0.204177517578122,0.656981283368843,0.469577999999728,
-0.0254743056640627,0.494833599121094,-0.106015249511715,0.506703526924012,0.472573000000011,
0.00804451757812485,0.444555364257813,-0.0940442412109341,0.454465076170217,0.475546000000122,
0.077476365722656,0.308085869628906,0.0184832368164098,0.318215525004362,0.478564000000006,
0.0535343491210936,0.183587383300781,-0.129957266113278,0.23121233716799,0.481506999999965,
0.144514012207031,0.106972930175781,-0.0677080229492155,0.192124657153261,0.484438999999838,
0.0942357773437498,0.0231758720703125,-0.156293484374997,0.183970530346242,0.487455999999838,
0.115783592285156,-0.0127371528320313,-0.0916500395507782,0.148215400867727,0.490379999999732,
0.0439575424804686,0.0590888969726562,-0.185023904296871,0.199142181487562,0.493403999999828,
0.0367749374999998,0.0830309135742187,-0.0653138212890596,0.111858946394455,0.496352000000115,
-0.0446279189453127,0.185981584960938,-0.0677080229492155,0.202892034012337,0.499268000000029,
-0.109271363769532,0.310480071289063,-0.0365834013671833,0.331174351155561,0.502259999999751,
-0.145184388671875,0.377517717773437,-0.0557370146484342,0.408294928634695,0.505192000000079,
-0.169126405273438,0.418219145996094,0.0184832368164098,0.451500415372598,0.508199999999761,
-0.207433631835938,0.530746624023438,-0.0485544096679646,0.571907528563078,0.511128999999983,
-0.209827833496094,0.571448052246094,-0.0485544096679646,0.610686602787161,0.514039000000139,
-0.219404640136719,0.602572673828125,-0.0341891997070274,0.642184650030275,0.517096000000038,
-0.176309010253906,0.576236455566406,-0.0629196196289037,0.605881340160508,0.520113999999921,
-0.145184388671875,0.554688640625,-0.0437660063476528,0.575042135903152,0.523204000000078,
-0.126030775390625,0.470891582519531,-0.106015249511715,0.49886057366998,0.526213000000098,
-0.0518105239257815,0.413430742675781,-0.0868616362304646,0.425622195412252,0.529129000000012,
-0.00153228906250025,0.336816289550781,-0.038977603027341,0.339067566060636,0.532122000000072,
0.0319865341796873,0.250625029785156,-0.098832644531246,0.271300452540497,0.535070999999789,
0.0942357773437498,0.188375786621094,-0.110803652832027,0.23799846259507,0.538103999999748,
0.0822647690429685,0.121338140136719,-0.0533428129882783,0.155999654406775,0.541067000000112,
0.115783592285156,0.147674358398437,-0.14192827441406,0.235281090292012,0.543984999999793,
0.0942357773437498,0.138097551757812,-0.0868616362304646,0.188404509982421,0.547004000000015,
0.0343807358398436,0.19076998828125,-0.10362104785156,0.21980114873124,0.549946999999975,
0.0535343491210936,0.195558391601563,-0.13474566943359,0.243444873621762,0.55297900000005,
-0.0206859023437502,0.32484528125,-0.0868616362304646,0.336893614001216,0.555913000000146,
-0.0230801040039065,0.394277129394531,-0.0581312163085901,0.399207194667054,0.558932999999797,
-0.130819178710938,0.444555364257813,-0.0653138212890596,0.467984000432044,0.561878999999863,
-0.13560758203125,0.466103179199219,-0.0820732329101528,0.492318601643596,0.564793000000009,
-0.126030775390625,0.533140825683594,-0.022218191406246,0.54828509407562,0.567794000000049,
-0.195462623535156,0.509198809082031,-0.10362104785156,0.555181399118937,0.570732000000135,
-0.171520606933594,0.506804607421875,-0.0677080229492155,0.539309377888611,0.573723999999856,
-0.147578590332031,0.482862590820312,-0.0916500395507782,0.513162207969131,0.576657000000068,
-0.166732203613281,0.49722780078125,0.0687614716796912,0.528926510565557,0.579592999999932,
-0.142790187011719,0.320056877929688,-0.218542727539059,0.41302102413455,0.582594999999856,
-0.0542047255859377,0.355969902832031,-0.101226846191404,0.374031547316467,0.585529999999835,
-0.027868507324219,0.276961248046875,-0.0748906279296833,0.288258205038235,0.588546999999835,
0.0295923325195311,0.226683013183594,-0.0916500395507782,0.246293776534445,0.591499000000113,
-0.0135032973632815,-0.0103429511718751,-0.625557009765622,0.625788213492018,0.594383999999991,
-0.401363966308594,0.873117461425781,-0.120380459472653,0.968461971334143,0.597379999999703,
-0.264894471679688,1.34477518847656,0.901943649414067,1.64075949955714,0.600340999999844,
-0.0565989272460939,0.0806367119140625,-0.462751296874996,0.473122056802694,0.603342999999768,
0.154090818847656,0.0638773002929687,0.578726425292972,0.602286115794015,0.606303000000025,
0.182821238769531,-0.213850092285156,0.219596176269535,0.356900473448546,0.609207999999853,
0.767006443847656,-0.908168573730469,-0.280791970703122,1.22143897679205,0.61220800000001,
0.391116783203125,-0.522702106445313,-1.03975389697265,1.22771250561984,0.615152999999736,
0.283377708496094,0.183587383300781,-0.59443238818359,0.683635222250412,0.618180999999822,
-0.36545094140625,0.590601665527344,-0.589643984863278,0.911067915571519,0.621110000000044,
-0.573746485839844,0.863540654785156,0.0783382783203166,1.03972322198292,0.624038999999811,
-0.0542047255859377,0.712705950195313,0.629004660156253,0.952121203533423,0.627034999999978,
0.240282078613281,0.660033513671875,0.703224911621097,0.993934098820068,0.629997999999887,
-0.114059767089844,0.815656621582031,0.315364242675784,0.881907002102644,0.632982000000084,
-0.624024720703125,0.983250737792969,-0.323887600585934,1.20875640359518,0.635911999999735,
-0.631207325683594,0.952126116210938,-0.405290457031247,1.21211681934051,0.638824999999997,
-0.329537916503907,0.633697295410156,-0.505846926757808,0.875242031631367,0.641812999999729,
-0.0877235488281252,0.499622002441406,-0.292762979003903,0.585685690637735,0.644747999999709,
-0.197856825195313,0.468497380859375,-0.113197854492183,0.521009475355388,0.647743999999875,
-0.161943800292969,0.45892057421875,0.260297604492191,0.551895579615356,0.650690999999824,
0.087053172363281,0.0830309135742187,0.351277267578128,0.371305946820996,0.65371499999992,
0.180427037109375,-0.142024042480469,0.0687614716796912,0.239693313110981,0.65674399999989,
0.108600987304687,-0.101322614257813,-0.254455752441404,0.294632273442865,0.659740000000056,
-0.0326569106445315,-0.0486501777343751,-0.40289625537109,0.40713475189239,0.662802999999712,
0.000861912597656,-0.0725921943359376,-0.477116506835934,0.482608050769106,0.665779999999813,
0.197186448730469,-0.0678037910156251,-0.302339785644527,0.367272644805739,0.668761999999788,
0.144514012207031,0.00402225878906243,-0.0413718046874969,0.150373217406028,0.671722999999929,
0.0152271225585936,0.224288811523437,0.142981723144535,0.266422801932175,0.67468000000008,
-0.0518105239257815,0.396671331054688,0.176500546386722,0.4372469761416,0.677702999999838,
0.0176213242187498,0.451737969238281,-0.0581312163085901,0.455803622438726,0.680648000000019,
-0.0613873305664064,0.576236455566406,-0.0748906279296833,0.584316235637438,0.683672000000115,
-0.209827833496094,0.770166790039062,-0.10362104785156,0.804935976178598,0.686615999999958,
-0.276865479980469,0.755801580078125,-0.0820732329101528,0.809089944328645,0.689528999999766,
-0.161943800292969,0.693552336914063,-0.0150355864257783,0.712366975197091,0.692551999999978,
-0.111665565429688,0.633697295410156,0.0472136567382844,0.645190351830744,0.69551999999976,
-0.123636573730469,0.626514690429687,-0.0533428129882783,0.640821437988399,0.698542999999972,
-0.13560758203125,0.621726287109375,-0.0581312163085901,0.638993138223477,0.701485999999932,
-0.0158974990234377,0.3631525078125,-0.0796790312499969,0.37213065236103,0.704389999999876,
0.0176213242187498,0.310480071289063,0.0256658417968776,0.312037050957136,0.707422999999835,
0.146908213867187,-0.00555454785156256,-0.156293484374997,0.214570570119856,0.710332999999991,
0.077476365722656,-0.00794874951171881,-0.163476089355465,0.181080649588372,0.713331999999809,
0.0702937607421873,0.0950019218749999,-0.0509486113281223,0.128694751079784,0.716280999999981,
0.0463517441406248,-0.0941400092773438,-0.383742642089841,0.397830668613806,0.719196999999895,
0.0176213242187498,0.0902135185546875,-0.149110879394527,0.175165762496695,0.722216000000117,
-0.140395985351563,0.272172844726562,-0.0246123930664037,0.307237465166345,0.725157999999738,
-0.0206859023437502,0.310480071289063,0.269874411132816,0.41189559236258,0.72816899999998,
-0.0326569106445315,0.11415553515625,-0.230513735839841,0.259296244536042,0.731099999999969,
-0.00392649072265649,0.432584355957031,0.107068698242191,0.445654965743042,0.734020999999757,
-0.319961109863281,0.549900237304688,-0.247273147460934,0.682575557918632,0.737016999999923,
-0.303201698242188,0.583419060546875,-0.283186172363278,0.715893482470758,0.739931999999953,
-0.149972791992188,0.585813262207031,-0.113197854492183,0.615209534042841,0.742938999999751,
-0.0733583388671877,0.533140825683594,0.0113006318359403,0.5382827232708,0.745876999999837,
-0.0996945571289065,0.566659648925781,0.0639730683593775,0.578908210269238,0.748876000000109,
-0.181097413574219,0.595390068847656,0.00172382519531666,0.622325139182881,0.751815999999963,
-0.0135032973632815,0.499622002441406,0.102280294921879,0.51016246734991,0.754743999999846,
-0.00871489404296899,0.334422087890625,-0.208965920898434,0.394437369355688,0.757739000000129,
0.0846589707031248,0.284143853027344,0.00172382519531666,0.296492566697786,0.760707999999795,
0.0248039291992186,0.145280156738281,-0.395713650390622,0.422268696390214,0.763703999999962,
-0.317566908203125,0.676792925292969,-0.113197854492183,0.756115837140011,0.766642999999931,
0.0224097275390623,0.53553502734375,0.265086007812503,0.597972033575498,0.769582999999784,
-0.00392649072265649,0.085425115234375,-0.333464407226559,0.344254816275912,0.772576999999728,
0.142119810546875,0.26738444140625,0.538024997070316,0.617384302949569,0.775532000000112,
0.1516966171875,-0.0965342109375001,-0.038977603027341,0.183983616349972,0.77853099999993,
0.300137120117187,-0.261734125488281,-0.362194827148434,0.538304872846641,0.78145799999993,
0.0463517441406248,0.0878193168945312,-0.426838271972652,0.438236953057704,0.784392000000025,
-0.121242372070313,0.162039568359375,-0.508241128417966,0.547051715210633,0.787386999999853,
-0.197856825195313,0.418219145996094,-0.0892558378906223,0.471191237133743,0.790322999999717,
-0.152366993652344,0.537929229003906,0.269874411132816,0.620818615986727,0.793385999999828,
-0.027868507324219,0.434978557617188,0.250720797851566,0.502835875572273,0.796414999999797,
-0.0158974990234377,0.379911919433594,0.0160890351562539,0.380584621411818,0.799414999999954,
-0.312778504882813,0.645668303710938,0.00411802685547258,0.71745028376806,0.802502999999888,
-0.286442286621094,0.717494353515625,-0.144322476074215,0.78592385635742,0.805429000000004,
-0.293624891601563,0.569053850585937,-0.429232473632808,0.770894531213999,0.808426999999938,
-0.130819178710938,0.552294438964844,-0.187418105957027,0.597719291365617,0.811353000000054,
-0.224193043457031,0.602572673828125,-0.0509486113281223,0.644943492854348,0.814289999999801,
-0.190674220214844,0.509198809082031,0.183683151367191,0.573916009117432,0.817302999999811,
0.0295923325195311,0.334422087890625,0.109462899902347,0.353123159065081,0.82025799999974,
0.173244432128906,0.154856963378906,-0.000670376464841027,0.232367729633888,0.823257000000012,
0.0631111557617186,0.0734541069335937,-0.264032559082027,0.281232494677261,0.826220999999805,
-0.018291700683594,0.142885955078125,-0.235302139160153,0.275895050999162,0.829136999999719,
0.000861912597656,0.135703350097656,-0.280791970703122,0.311865793142493,0.832156999999825,
0.13254300390625,0.0495120903320312,-0.117986257812497,0.184227717800923,0.835131999999703,
0.101418382324219,0.0950019218749999,-0.0174297880859342,0.140053029049448,0.838177000000087,
0.096629979003906,0.166827971679687,0.0208774384765658,0.193919551397987,0.841137999999773,
-0.0158974990234377,0.315268474609375,-0.00545877978515286,0.315716233086715,0.844119999999748,
-0.00392649072265649,0.348787297851562,-0.151505081054685,0.380291711791588,0.847054999999727,
0.0319865341796873,0.355969902832031,-0.132351467773434,0.381122842549297,0.849983000000066,
-0.0685699355468752,0.45892057421875,-0.132351467773434,0.482521336858747,0.85297700000001,
-0.193068421875,0.585813262207031,-0.10362104785156,0.625451768932507,0.855904999999893,
-0.205039430175782,0.564265447265625,-0.14192827441406,0.61691190455594,0.858887999999752,
-0.128424977050781,0.581024858886719,-0.0413718046874969,0.596485110960806,0.861808999999994,
-0.0709641372070314,0.525958220703125,-0.0509486113281223,0.533163876956232,0.864736999999877,
-0.257711866699219,0.590601665527344,-0.129957266113278,0.657354261092834,0.86774000000014,
-0.260106068359375,0.76537838671875,0.035242648437503,0.809136135593052,0.870695000000069,
-0.17391480859375,0.494833599121094,-0.101226846191404,0.534184917287258,0.87369899999976,
0.0415633408203123,0.245836626464844,0.0855208833007843,0.263584862411154,0.876655000000028,
0.166061827148437,-0.0127371528320313,-0.0461602080078087,0.172828036792264,0.879562000000078,
0.266618296875,-0.0462559760742188,-0.132351467773434,0.301233866908896,0.882552000000032,
0.0104387192382811,0.0902135185546875,-0.503452725097652,0.511578041160491,0.885510000000068,
-0.0494163222656252,0.159645366699219,-0.213754324218746,0.271329185929197,0.888501999999789,
0.0535343491210936,0.118943938476562,-0.13474566943359,0.187536616337295,0.891473000000133,
0.0942357773437498,0.126126543457031,0.0663672700195352,0.170859302427012,0.894402999999784,
0.175638633789062,0.0710599052734375,0.0256658417968776,0.191199307665851,0.8974189999999,
-0.0470221206054689,0.279355449707031,-0.0820732329101528,0.294934844783686,0.900331999999707,
-0.178703211914063,0.461314775878906,-0.158687686035153,0.519545899889316,0.90334299999995,
-0.243346656738281,0.61214948046875,-0.194600710937497,0.686887194873539,0.906266999999843,
-0.21222203515625,0.583419060546875,-0.0748906279296833,0.625319597139704,0.909188000000086,
-0.183491615234375,0.5929958671875,-0.0724964262695273,0.624955200942138,0.912174999999934,
-0.233769850097656,0.667216118652344,-0.000670376464841027,0.706983833767636,0.915113999999903,
-0.169126405273438,0.6696103203125,0.12622231152344,0.702078196468203,0.918108999999731,
-0.114059767089844,0.540323430664063,-0.0629196196289037,0.555803849147716,0.921042999999827,
-0.0973003554687503,0.45892057421875,-0.038977603027341,0.470738468954227,0.923945999999887,
-0.0757525405273439,0.360758306152344,-0.189812307617185,0.41462478818471,0.926938999999948,
-0.109271363769532,0.348787297851562,-0.254455752441404,0.445354398241635,0.929867999999715,
-0.037445313964844,0.425401750976563,-0.0677080229492155,0.432380824787065,0.932957999999871,
-0.094906153808594,0.312874272949219,-0.098832644531246,0.341563142521675,0.935967999999775,
0.139725608886719,0.07584830859375,0.073549875000003,0.17517361618638,0.939073999999891,
0.178032835449219,-0.0821690009765625,-0.0748906279296833,0.209895310503301,0.942035000000033,
0.276195103515625,0.0135990654296875,-0.038977603027341,0.279263179320734,0.944962000000032,
0.0248039291992186,0.0327526787109375,-0.436415078613278,0.438344720177505,0.94798499999979,
-0.109271363769532,0.284143853027344,-0.24966734912109,0.393715310053381,0.950930999999855,
0.0822647690429685,0.296114861328125,0.0663672700195352,0.314413927577825,0.953963999999814,
0.00804451757812485,0.157251165039062,-0.261638357421871,0.305364164963118,0.956900000000132,
0.087053172363281,0.444555364257813,0.346488864257816,0.570317683193831,0.959851000000072,
-0.248135060058594,0.492439397460938,-0.338252810546871,0.646902258494149,0.962838999999803,
-0.126030775390625,0.739042168457031,0.188471554687503,0.773038556625449,0.965796999999839,
-0.228981446777344,0.581024858886719,-0.194600710937497,0.654134409972413,0.968810999999732,
-0.178703211914063,0.679187126953125,0.00651222851562849,0.702333539344009,0.971766000000116,
-0.276865479980469,0.633697295410156,-0.201783315917965,0.720377167043634,0.974717000000055,
-0.185885816894531,0.645668303710938,0.0184832368164098,0.672147844884381,0.977736999999706,
-0.0637815322265627,0.468497380859375,0.0208774384765658,0.473279776836709,0.98068000000012,
0.0248039291992186,0.281749651367187,-0.0270065947265596,0.284125776915746,0.983703999999761,
0.087053172363281,0.214712004882812,-0.139534072753904,0.270461193738769,0.986667000000125,
-0.027868507324219,0.183587383300781,-0.153899282714841,0.241176222351729,0.98957799999971,
0.108600987304687,0.0399352836914062,-0.24966734912109,0.27517773628006,0.992600000000039,
0.115783592285156,0.0471178886718749,-0.199389114257809,0.235333708932367,0.995548999999755,
0.087053172363281,0.193164189941406,0.00172382519531666,0.211881171101952,0.998579000000063,
-0.0565989272460939,0.169222173339844,-0.098832644531246,0.203979102214684,1.00150299999996,
-0.0111090957031252,0.195558391601563,0.0424252534179725,0.200415564916277,1.00443899999982,
-0.0158974990234377,0.2865380546875,-0.0198239897460901,0.287662611106744,1.00742700000001,
-0.0350511123046877,0.332027886230469,-0.098832644531246,0.348193896174974,1.01036799999974,
