X,Y,Z,Magnitude,Seconds,
-0.194169754638672,0.575087238769531,-0.0476924970703116,0.608852855859942,0.0,
-0.160650931396485,0.60142345703125,0.0648349809570323,0.625877361135292,0.0039520000000266,
-0.136708914794922,0.587058247070313,0.0241335527343765,0.603248821967566,0.00783099999989645,
-0.160650931396485,0.575087238769531,0.00497993945312558,0.59712549246459,0.0117339999997057,
-0.117555301513672,0.575087238769531,-0.0141736738281235,0.587150299445824,0.0156520000000455,
-0.17022773803711,0.608606062011719,0.0456813676757815,0.633613138174527,0.0196779999996579,
-0.134314713134766,0.58226984375,0.0361045610351578,0.598650275563843,0.02365699999973,
-0.117555301513672,0.548751020507813,-0.00699106884765577,0.561244872106613,0.0276670000002923,
-0.167833536376953,0.591846650390625,0.0121625444335951,0.615303568166556,0.0315469999995912,
-0.148679923095703,0.546356818847656,0.0504697709960951,0.568470483681847,0.0355410000001939,
-0.167833536376953,0.608606062011719,-0.00938527050781168,0.631393314783037,0.0394440000000031,
-0.160650931396485,0.642124885253906,-0.0165678754882812,0.662123541734543,0.043362999999772,
-0.143891519775391,0.596635053710938,0.0169509477539069,0.613975155368424,0.0472760000002381,
-0.139103116455078,0.618182868652344,-0.0237504804687489,0.634085026968192,0.0512589999998454,
-0.15107412475586,0.56311623046875,-0.00699106884765577,0.583071312303835,0.0551660000000993,
-0.141497318115235,0.567904633789063,-0.00459686718749985,0.585284798453567,0.0591130000002522,
-0.124737906494141,0.570298835449219,-0.0261446821289049,0.584366196348572,0.0630679999994754,
-0.124737906494141,0.584664045410156,-0.0141736738281235,0.597990371445642,0.0670179999997345,
-0.139103116455078,0.565510432128906,-0.0189620771484371,0.582675970178899,0.0709639999995488,
-0.141497318115235,0.596635053710938,-0.0500866987304676,0.615226426399398,0.0748249999996915,
-0.160650931396485,0.565510432128906,0.0480755693359374,0.589849159507882,0.0786449999995966,
-0.148679923095703,0.60142345703125,0.0720175859375001,0.623700590735194,0.0825839999997697,
-0.165439334716797,0.634942280273438,-0.0165678754882812,0.656350795877147,0.0864549999996598,
-0.13192051147461,0.608606062011719,-0.00699106884765577,0.622778640536722,0.0903069999994841,
-0.119949503173828,0.589452448730469,-0.00459686718749985,0.601550666040637,0.0943859999997585,
-0.153468326416016,0.572693037109375,-0.0668461103515625,0.59665588443895,0.0983159999996133,
-0.141497318115235,0.6205770703125,-0.00459686718749985,0.636520637858184,0.102339999999458,
-0.115161099853516,0.584664045410156,-0.021356278808593,0.596280316260223,0.106251999999586,
-0.129526309814453,0.558327827148438,-0.0309330854492185,0.573989445266944,0.110133000000133,
-0.136708914794922,0.577481440429688,-0.0309330854492185,0.594248262261288,0.114002000000255,
-0.124737906494141,0.625365473632813,-0.0285388837890626,0.638322793589935,0.11803400000008,
-0.122343704833985,0.615788666992188,0.052863972656251,0.630046239663028,0.122089999999844,
-0.191775552978516,0.60142345703125,-0.00220266552734216,0.631262931846201,0.125968000000285,
-0.107978494873047,0.579875642089844,-0.0165678754882812,0.59007593591194,0.129966999999851,
-0.148679923095703,0.630153876953125,-0.00220266552734216,0.647460021859438,0.133952000000136,
-0.11276689819336,0.575087238769531,0.0600465776367187,0.589107203325166,0.137859999999819,
-0.158256729736328,0.591846650390625,-0.0429040937499998,0.614140384070246,0.141713999999411,
-0.158256729736328,0.599029255371094,-0.00220266552734216,0.619585420287397,0.145714000000225,
-0.155862528076172,0.587058247070313,-0.0189620771484371,0.607692416837126,0.149597999999969,
-0.172621939697266,0.603817658691406,0.0289219560546883,0.628673666184967,0.153521000000183,
-0.143891519775391,0.622971271972656,0.0624407792968764,0.642414839559067,0.157395999999608,
-0.134314713134766,0.58226984375,0.00497993945312558,0.597581302336411,0.161368000000039,
-0.167833536376953,0.613394465332031,0.0456813676757815,0.637579527106613,0.165500000000065,
-0.148679923095703,0.584664045410156,0.0480755693359374,0.605185117046089,0.169517000000269,
-0.15107412475586,0.570298835449219,0.0073741411132815,0.590015703894941,0.173445999999785,
-0.158256729736328,0.615788666992188,0.00497993945312558,0.63581890086707,0.177329999999529,
-0.107978494873047,0.611000263671875,0.014556746093751,0.620638845399631,0.181141000000025,
-0.160650931396485,0.570298835449219,0.0241335527343765,0.592985591596352,0.18496099999993,
-0.148679923095703,0.599029255371094,-0.00938527050781168,0.617276155075422,0.188912999999957,
-0.110372696533203,0.622971271972656,0.000191536132813752,0.632673197258529,0.192865999999412,
-0.117555301513672,0.591846650390625,-0.0285388837890626,0.604082920119828,0.196794999999838,
-0.163045133056641,0.577481440429688,-0.00938527050781168,0.60013049643949,0.200675999999476,
-0.160650931396485,0.579875642089844,0.0169509477539069,0.601956656809626,0.204565999999431,
-0.139103116455078,0.570298835449219,0.014556746093751,0.587198720689247,0.208485999999539,
-0.119949503173828,0.603817658691406,-0.0668461103515625,0.619235052890543,0.212285999999949,
-0.105584293212891,0.632548078613281,0.0624407792968764,0.644332185793804,0.216112000000066,
-0.165439334716797,0.596635053710938,-0.00699106884765577,0.61918691510062,0.220127999999931,
-0.158256729736328,0.570298835449219,-0.00938527050781168,0.591924013302449,0.223938999999518,
-0.134314713134766,0.587058247070313,-0.0692403120117184,0.606194728140408,0.227820999999494,
-0.119949503173828,0.555933625488281,0.0552581743164069,0.571404887176313,0.231815000000097,
-0.153468326416016,0.596635053710938,-0.0740287153320303,0.620488650358165,0.235617000000275,
-0.153468326416016,0.584664045410156,-0.0261446821289049,0.605035633340652,0.239585000000261,
-0.182198746337891,0.553539423828125,-0.0429040937499998,0.584331274329537,0.243553999999676,
-0.110372696533203,0.608606062011719,-0.021356278808593,0.618901899740155,0.247411000000284,
-0.155862528076172,0.603817658691406,0.00258573779296967,0.623614928177478,0.25124599999981,
-0.148679923095703,0.584664045410156,-0.0429040937499998,0.604796268827464,0.255188000000089,
-0.134314713134766,0.618182868652344,0.000191536132813752,0.632606147571936,0.259124000000156,
-0.122343704833985,0.58226984375,0.00258573779296967,0.594989780662734,0.263011999999435,
-0.160650931396485,0.567904633789063,0.00976834277343741,0.590270967741246,0.266990000000078,
-0.179804544677735,0.599029255371094,-0.00699106884765577,0.62547150064639,0.271028000000115,
-0.105584293212891,0.630153876953125,0.000191536132813752,0.638938172516254,0.274930999999924,
-0.163045133056641,0.596635053710938,0.0552581743164069,0.620975497551146,0.278792999999496,
-0.129526309814453,0.591846650390625,0.0241335527343765,0.606334850458338,0.28263700000025,
-0.143891519775391,0.618182868652344,0.00976834277343741,0.63478362382709,0.286583000000064,
-0.153468326416016,0.60142345703125,0.0720175859375001,0.624859371830669,0.290522999999666,
-0.136708914794922,0.622971271972656,-0.0931823286132811,0.644566117208645,0.294456999999966,
-0.100795889892578,0.673249506835938,0.15581464404297,0.698357296211837,0.298461999999745,
-0.270784207763672,0.474530769042969,-0.0381156904296862,0.547682703579036,0.302400999999918,
-0.0074220251464846,0.666066901855469,-0.282324259765625,0.723468860322838,0.306467999999768,
-0.141497318115235,0.73549875,0.500579683105469,0.900866206172336,0.310405000000173,
-0.194169754638672,0.443406147460938,-0.502590812499999,0.69778824154037,0.314389999999548,
-0.0888248815917971,0.644519086914063,0.0672291826171882,0.654075283114802,0.317332999999962,
-0.182198746337891,0.654095893554688,0.36650439013672,0.771597880454381,0.320278000000144,
-0.155862528076172,0.503261188964844,-0.397245939453125,0.659825195327216,0.323285999999825,
-0.143891519775391,0.606211860351563,0.0432871660156255,0.624556937224973,0.326269999999568,
-0.146285721435547,0.625365473632813,0.201304475585939,0.673056446220405,0.32941000000028,
-0.115161099853516,0.587058247070313,-0.162614176757812,0.619953897362828,0.332323999999971,
-0.167833536376953,0.58226984375,0.088776997558595,0.612443974718474,0.335307999999714,
-0.127132108154297,0.622971271972656,0.0624407792968764,0.638869806413002,0.338334999999461,
-0.13192051147461,0.579875642089844,-0.00220266552734216,0.594696253033645,0.341284999999516,
-0.136708914794922,0.632548078613281,-0.0668461103515625,0.650595728245193,0.344315999999708,
-0.136708914794922,0.560722028808594,0.0337103593750001,0.578130529642591,0.347292999999809,
-0.136708914794922,0.577481440429688,-0.00220266552734216,0.593446706251351,0.350234999999884,
-0.17022773803711,0.555933625488281,0.00976834277343741,0.581493851443259,0.353290999999444,
-0.17022773803711,0.587058247070313,0.0217393510742188,0.611626902315151,0.356221999999434,
-0.141497318115235,0.618182868652344,0.014556746093751,0.634337015304864,0.359292999999525,
-0.167833536376953,0.594240852050781,0.014556746093751,0.617658631475082,0.362197999999808,
-0.134314713134766,0.611000263671875,0.0384987626953137,0.626772621530843,0.365197999999509,
-0.129526309814453,0.572693037109375,0.0265277543945324,0.587756838701964,0.368239999999787,
-0.13192051147461,0.579875642089844,-0.0189620771484371,0.594994405021269,0.371176999999989,
-0.146285721435547,0.599029255371094,-0.0740287153320303,0.621060232006588,0.37418499999967,
-0.141497318115235,0.611000263671875,0.0408929643554696,0.628502225751574,0.377131999999619,
-0.163045133056641,0.570298835449219,0.00258573779296967,0.593153574690507,0.380129999999554,
-0.15107412475586,0.594240852050781,-0.0644519086914048,0.616522205561773,0.383079999999609,
-0.139103116455078,0.58226984375,0.0337103593750001,0.599603399154271,0.386011999999937,
-0.165439334716797,0.570298835449219,0.00976834277343741,0.593890861780859,0.389086000000134,
-0.198958157958985,0.587058247070313,-0.0812113203124998,0.625153591222669,0.392090999999709,
-0.124737906494141,0.611000263671875,0.0408929643554696,0.624942478999003,0.395117999999457,
-0.172621939697266,0.567904633789063,0.000191536132813752,0.593560480347223,0.398078999999598,
-0.167833536376953,0.577481440429688,-0.0524809003906235,0.603661457175586,0.400994999999966,
-0.13192051147461,0.611000263671875,0.0169509477539069,0.625309266031281,0.404061000000183,
-0.146285721435547,0.575087238769531,0.0169509477539069,0.593643141223107,0.407024000000092,
-0.148679923095703,0.591846650390625,-0.0141736738281235,0.610400745527177,0.410088999999971,
-0.179804544677735,0.658884296875,-0.0357214887695303,0.683910970605928,0.413048999999774,
-0.148679923095703,0.615788666992188,0.0911711992187509,0.640010616704711,0.416054000000258,
-0.163045133056641,0.599029255371094,0.0121625444335951,0.620940972791298,0.419117999999798,
-0.129526309814453,0.565510432128906,-0.0931823286132811,0.587590044288163,0.422085999999581,
-0.167833536376953,0.5439626171875,0.0768059892578137,0.574423697993163,0.425164000000223,
-0.175016141357422,0.613394465332031,0.0169509477539069,0.638099329623034,0.428246999999828,
-0.141497318115235,0.570298835449219,-0.0309330854492185,0.588403865150415,0.431180999999924,
-0.129526309814453,0.60142345703125,-0.00220266552734216,0.615217109106204,0.434212000000116,
-0.153468326416016,0.6205770703125,0.0504697709960951,0.641260964970562,0.43720200000007,
-0.148679923095703,0.596635053710938,-0.0285388837890626,0.615543316701857,0.440241999999671,
-0.146285721435547,0.622971271972656,0.052863972656251,0.64209603456504,0.443202999999812,
-0.163045133056641,0.608606062011719,0.0265277543945324,0.630625701889866,0.446130999999696,
-0.191775552978516,0.591846650390625,-0.021356278808593,0.622508161346796,0.449139000000287,
-0.153468326416016,0.599029255371094,0.00497993945312558,0.618395808362522,0.452115999999478,
-0.110372696533203,0.58226984375,0.0480755693359374,0.594585202849545,0.455149999999776,
-0.141497318115235,0.594240852050781,-0.00459686718749985,0.610872173590991,0.458168999999543,
-0.146285721435547,0.651701691894531,0.0121625444335951,0.668028842941091,0.461137000000235,
-0.15107412475586,0.608606062011719,0.0193451494140628,0.627374660545048,0.464272000000165,
-0.175016141357422,0.613394465332031,-0.00220266552734216,0.637877944101405,0.467200000000048,
-0.17022773803711,0.567904633789063,0.0169509477539069,0.593110858529901,0.470255999999608,
-0.122343704833985,0.608606062011719,0.0408929643554696,0.622126639329723,0.47320099999979,
-0.127132108154297,0.611000263671875,-0.0859997236328116,0.629984005825368,0.476222000000234,
-0.13192051147461,0.60142345703125,0.0648349809570323,0.619125811746564,0.479215999999724,
-0.155862528076172,0.565510432128906,0.0384987626953137,0.58785825777477,0.482154999999693,
-0.146285721435547,0.577481440429688,-0.0381156904296862,0.596939806172781,0.485165000000052,
-0.17022773803711,0.599029255371094,0.00258573779296967,0.622752131772836,0.488147999999455,
-0.17022773803711,0.599029255371094,-0.0452982954101557,0.624392078068535,0.491154000000279,
-0.127132108154297,0.618182868652344,0.0073741411132815,0.631163219758689,0.494123999999829,
-0.165439334716797,0.596635053710938,0.0289219560546883,0.619822587786392,0.497126999999637,
-0.136708914794922,0.622971271972656,-0.0452982954101557,0.639401648930233,0.500156000000061,
-0.119949503173828,0.608606062011719,0.0456813676757815,0.621993576640298,0.503114999999525,
-0.175016141357422,0.577481440429688,0.0217393510742188,0.603811281081694,0.506142999999611,
-0.20853496459961,0.584664045410156,-0.0189620771484371,0.621030142445367,0.509094999999434,
-0.172621939697266,0.587058247070313,0.00497993945312558,0.611931793025229,0.512042999999721,
-0.134314713134766,0.603817658691406,-0.0476924970703116,0.620411783728233,0.515040999999655,
-0.122343704833985,0.6205770703125,-0.0644519086914048,0.635797083072985,0.518008000000009,
-0.129526309814453,0.587058247070313,0.052863972656251,0.60349734878657,0.521111999999448,
-0.136708914794922,0.553539423828125,-0.0405098920898439,0.571608495802423,0.524061000000074,
-0.172621939697266,0.587058247070313,0.0121625444335951,0.612032390486986,0.52703399999973,
-0.141497318115235,0.599029255371094,0.0720175859375001,0.619712895225294,0.53007499999967,
-0.139103116455078,0.584664045410156,0.0361045610351578,0.602067489846799,0.532994000000144,
-0.148679923095703,0.587058247070313,0.0456813676757815,0.607313668821757,0.536081999999624,
-0.141497318115235,0.615788666992188,0.0265277543945324,0.632392991092593,0.53909399999975,
-0.141497318115235,0.606211860351563,0.00976834277343741,0.622583111869609,0.542089999999916,
-0.148679923095703,0.60142345703125,-0.021356278808593,0.619896753374072,0.545137000000068,
-0.117555301513672,0.584664045410156,-0.00459686718749985,0.596382784876693,0.548115999999936,
-0.143891519775391,0.608606062011719,0.0456813676757815,0.627050951305724,0.551177999999709,
-0.129526309814453,0.591846650390625,0.00497993945312558,0.605874840466007,0.554153000000042,
-0.136708914794922,0.60142345703125,0.0432871660156255,0.618282525059127,0.55715599999985,
-0.105584293212891,0.575087238769531,0.0432871660156255,0.586299542819619,0.560231999999814,
-0.158256729736328,0.606211860351563,0.0193451494140628,0.62682712684088,0.563167999999678,
-0.165439334716797,0.627759675292969,0.000191536132813752,0.649193669163186,0.566229000000021,
-0.172621939697266,0.599029255371094,0.0815943925781255,0.628722536382693,0.569222999999511,
-0.119949503173828,0.587058247070313,0.0289219560546883,0.599884779192593,0.572253999999703,
-0.153468326416016,0.613394465332031,-0.0620577070312489,0.6353396385516,0.575186000000031,
-0.100795889892578,0.603817658691406,0.0289219560546883,0.61285565666708,0.578120000000126,
-0.17022773803711,0.589452448730469,-0.0117794721679676,0.6136533452008,0.581159999999727,
-0.136708914794922,0.60142345703125,0.0073741411132815,0.616809435732775,0.584095000000161,
-0.127132108154297,0.591846650390625,0.0241335527343765,0.605827911927093,0.587158000000272,
-0.182198746337891,0.572693037109375,0.0384987626953137,0.60220914361186,0.590172999999595,
-0.127132108154297,0.570298835449219,0.000191536132813752,0.58429733126601,0.593111000000135,
-0.129526309814453,0.577481440429688,0.0552581743164069,0.594403351945191,0.596158999999716,
-0.13192051147461,0.613394465332031,-0.0381156904296862,0.62857664393821,0.599103999999897,
-0.115161099853516,0.577481440429688,0.0241335527343765,0.589346520586829,0.602173000000221,
-0.13192051147461,0.627759675292969,-0.0141736738281235,0.64162771472361,0.60509699999966,
-0.17022773803711,0.587058247070313,0.0121625444335951,0.61136142807475,0.608097000000271,
-0.158256729736328,0.6205770703125,-0.0117794721679676,0.640546523422802,0.611140999999407,
-0.146285721435547,0.6205770703125,-0.00938527050781168,0.637654683818812,0.6140919999998,
-0.165439334716797,0.575087238769531,0.0265277543945324,0.59899852038241,0.617121999999654,
-0.136708914794922,0.589452448730469,0.0073741411132815,0.605142871275792,0.620093999999881,
-0.165439334716797,0.579875642089844,0.0480755693359374,0.604927428810779,0.62299400000029,
-0.167833536376953,0.584664045410156,0.0432871660156255,0.60981466091742,0.626060999999936,
-0.153468326416016,0.555933625488281,0.0169509477539069,0.576976652726289,0.629018999999971,
-0.122343704833985,0.579875642089844,-0.00699106884765577,0.592682560436231,0.632042999999612,
-0.13192051147461,0.606211860351563,-0.0165678754882812,0.620620927359705,0.634946999999556,
-0.122343704833985,0.579875642089844,0.000191536132813752,0.592641357895063,0.637896999999612,
-0.146285721435547,0.618182868652344,0.0432871660156255,0.636728631469344,0.640932000000248,
-0.141497318115235,0.591846650390625,-0.0333272871093744,0.609437984276068,0.643858999999793,
-0.163045133056641,0.615788666992188,0.0456813676757815,0.638644020689306,0.646904999999606,
-0.11276689819336,0.60142345703125,0.0121625444335951,0.612024897763703,0.649876999999833,
-0.146285721435547,0.591846650390625,0.0289219560546883,0.610342894950495,0.652845999999954,
-0.136708914794922,0.584664045410156,0.0217393510742188,0.600827739676609,0.655880999999681,
-0.15107412475586,0.608606062011719,0.0504697709960951,0.62910406744239,0.65884399999959,
-0.15107412475586,0.560722028808594,0.0361045610351578,0.581838572191219,0.661852000000181,
-0.136708914794922,0.6205770703125,0.014556746093751,0.635623415584172,0.664826999999605,
-0.155862528076172,0.58226984375,-0.0285388837890626,0.603444915867945,0.667857999999796,
-0.196563956298828,0.596635053710938,0.0648349809570323,0.63151749856057,0.670881000000008,
-0.160650931396485,0.587058247070313,-0.0309330854492185,0.609428390368577,0.673829999999725,
-0.165439334716797,0.596635053710938,0.0408929643554696,0.620496410402161,0.676916999999776,
-0.15107412475586,0.575087238769531,-0.0405098920898439,0.595977998522969,0.679881000000023,
-0.155862528076172,0.60142345703125,-0.00699106884765577,0.621330972485155,0.682931000000281,
-0.160650931396485,0.608606062011719,0.0241335527343765,0.629914667906339,0.685956999999689,
-0.136708914794922,0.632548078613281,-0.0141736738281235,0.647307726024914,0.688983999999436,
-0.182198746337891,0.56311623046875,0.0313161577148442,0.592686235641131,0.692027000000053,
-0.15107412475586,0.594240852050781,0.0768059892578137,0.617935871594018,0.694977999999537,
-0.160650931396485,0.594240852050781,0.0241335527343765,0.616046540751735,0.69807899999978,
-0.160650931396485,0.591846650390625,0.00976834277343741,0.613340525204148,0.701060999999754,
-0.103190091552735,0.613394465332031,0.0432871660156255,0.623518038100178,0.703985999999531,
-0.139103116455078,0.555933625488281,-0.0189620771484371,0.573385937502694,0.706986999999572,
-0.163045133056641,0.599029255371094,0.0648349809570323,0.624198156805676,0.709925999999541,
-0.155862528076172,0.625365473632813,0.00976834277343741,0.644570030168039,0.712972000000264,
-0.136708914794922,0.536780012207031,0.0432871660156255,0.555604074527042,0.715922999999748,
-0.153468326416016,0.572693037109375,-0.0261446821289049,0.593475683048694,0.718925999999556,
-0.163045133056641,0.579875642089844,0.0217393510742188,0.60275374332118,0.721958000000086,
-0.165439334716797,0.642124885253906,0.0265277543945324,0.663625092568911,0.724976999999853,
-0.158256729736328,0.60142345703125,-0.0405098920898439,0.623214584658758,0.727977999999894,
-0.160650931396485,0.613394465332031,-0.0572693037109371,0.636664169720632,0.73094299999957,
-0.155862528076172,0.60142345703125,0.0384987626953137,0.62248329861514,0.733876999999666,
-0.136708914794922,0.575087238769531,0.052863972656251,0.593472205907716,0.736949999999524,
-0.153468326416016,0.615788666992188,-0.0500866987304676,0.636597900560994,0.739907999999559,
-0.110372696533203,0.570298835449219,0.0361045610351578,0.582002090359036,0.742962999999691,
-0.182198746337891,0.622971271972656,-0.0476924970703116,0.650818072234576,0.745871999999508,
-0.158256729736328,0.661278498535156,-0.059663505371093,0.682564413813755,0.748832999999649,
-0.13192051147461,0.6205770703125,0.00258573779296967,0.634449058305946,0.751857999999629,
-0.129526309814453,0.599029255371094,-0.0285388837890626,0.613536943967128,0.754797999999937,
-0.163045133056641,0.560722028808594,0.0408929643554696,0.585376070179215,0.75789900000018,
-0.129526309814453,0.575087238769531,0.0576523759765628,0.592305827749024,0.760851000000002,
-0.15107412475586,0.584664045410156,-0.0405098920898439,0.605224329090668,0.763815999999679,
-0.136708914794922,0.611000263671875,-0.0357214887695303,0.627125724517355,0.766798999999992,
-0.0864306799316408,0.570298835449219,0.0552581743164069,0.579451887542843,0.769733999999517,
-0.177410343017578,0.60142345703125,0.00258573779296967,0.627049671490998,0.772772000000259,
-0.110372696533203,0.587058247070313,-0.00938527050781168,0.59741744274484,0.775676999999632,
-0.163045133056641,0.591846650390625,0.0624407792968764,0.617061604632197,0.778730999999425,
-0.143891519775391,0.608606062011719,-0.00220266552734216,0.625388647095635,0.781747999999425,
-0.136708914794922,0.599029255371094,0.0217393510742188,0.614815399579403,0.784695000000283,
-0.129526309814453,0.599029255371094,-0.00938527050781168,0.612944693285701,0.787757999999485,
-0.160650931396485,0.587058247070313,0.00976834277343741,0.608721223329995,0.790702999999667,
-0.134314713134766,0.560722028808594,0.00976834277343741,0.576667197156418,0.793744999999944,
-0.146285721435547,0.587058247070313,0.0480755693359374,0.606916928513418,0.796733000000131,
-0.15107412475586,0.56311623046875,-0.021356278808593,0.583420406595993,0.799712999999429,
-0.160650931396485,0.587058247070313,-0.0357214887695303,0.609690193435763,0.802813000000242,
-0.163045133056641,0.608606062011719,-0.0237504804687489,0.630514979563029,0.805793999999878,
-0.17022773803711,0.606211860351563,0.0073741411132815,0.629702056837432,0.808877999999822,
-0.146285721435547,0.570298835449219,0.00497993945312558,0.58878270508534,0.811864000000242,
-0.117555301513672,0.579875642089844,-0.0141736738281235,0.591841112320583,0.814782999999807,
-0.160650931396485,0.603817658691406,0.0480755693359374,0.626670365561596,0.817935000000034,
-0.155862528076172,0.56311623046875,0.0169509477539069,0.584534302933015,0.820894999999837,
-0.146285721435547,0.599029255371094,0.0193451494140628,0.616935811808828,0.823940000000221,
-0.127132108154297,0.622971271972656,0.0313161577148442,0.636581872472824,0.826903000000129,
-0.18938135131836,0.579875642089844,0.0361045610351578,0.611084769769152,0.829888999999639,
-0.143891519775391,0.591846650390625,-0.00459686718749985,0.609104554432007,0.832924000000276,
-0.129526309814453,0.606211860351563,0.0384987626953137,0.621089397183789,0.8358589999998,
-0.115161099853516,0.596635053710938,-0.0692403120117184,0.611579665328733,0.838872999999694,
-0.15107412475586,0.591846650390625,0.000191536132813752,0.610823939802168,0.841848999999456,
-0.127132108154297,0.60142345703125,0.00976834277343741,0.614791158127469,0.84476100000029,
-0.139103116455078,0.60142345703125,0.0361045610351578,0.61835539215121,0.847874000000047,
-0.143891519775391,0.596635053710938,0.00497993945312558,0.613761318899197,0.850827000000208,
-0.184592947998047,0.589452448730469,-0.00220266552734216,0.617684059613312,0.853876999999557,
-0.160650931396485,0.594240852050781,-0.0357214887695303,0.616609225331983,0.856816999999864,
-0.139103116455078,0.584664045410156,-0.0692403120117184,0.604959456336013,0.859824000000117,
-0.15107412475586,0.548751020507813,-0.0405098920898439,0.570606804232341,0.862803999999414,
-0.124737906494141,0.584664045410156,-0.0381156904296862,0.599036223586556,0.865746999999828,
-0.129526309814453,0.591846650390625,-0.00699106884765577,0.605894708308618,0.868811999999707,
-0.13192051147461,0.60142345703125,0.014556746093751,0.615893736672147,0.87178700000004,
-0.139103116455078,0.560722028808594,-0.00459686718749985,0.57773696591674,0.874775000000227,
-0.110372696533203,0.594240852050781,-0.0476924970703116,0.606282852027707,0.877723999999944,
-0.148679923095703,0.584664045410156,-0.0237504804687489,0.603739886747273,0.880672000000231,
-0.160650931396485,0.579875642089844,-0.00220266552734216,0.601721973824367,0.883665000000292,
-0.127132108154297,0.577481440429688,-0.0237504804687489,0.591786678024268,0.886650999999802,
-0.155862528076172,0.611000263671875,0.0361045610351578,0.631599548125977,0.889690999999402,
-0.129526309814453,0.615788666992188,-0.0261446821289049,0.629806551040704,0.89263899999969,
-0.155862528076172,0.591846650390625,0.0504697709960951,0.614103234823997,0.895564999999806,
-0.143891519775391,0.608606062011719,0.0265277543945324,0.625947146278262,0.898594999999659,
-0.129526309814453,0.587058247070313,0.00497993945312558,0.601198178793295,0.901558999999907,
-0.136708914794922,0.591846650390625,-0.0357214887695303,0.608479917271655,0.904563000000053,
-0.124737906494141,0.584664045410156,-0.0165678754882812,0.598051908959503,0.907521000000088,
-0.15107412475586,0.570298835449219,-0.0141736738281235,0.590139852844451,0.910477999999785,
-0.15107412475586,0.594240852050781,0.0408929643554696,0.614506156153513,0.913537999999789,
-0.13192051147461,0.60142345703125,0.0169509477539069,0.615954974527277,0.916518999999425,
-0.127132108154297,0.589452448730469,0.014556746093751,0.60318211271136,0.919554000000062,
-0.155862528076172,0.611000263671875,0.014556746093751,0.630734768918152,0.922485000000052,
-0.143891519775391,0.589452448730469,0.0241335527343765,0.607240798320733,0.92547999999988,
-0.107978494873047,0.594240852050781,-0.00220266552734216,0.603975493986728,0.928538999999546,
-0.13192051147461,0.591846650390625,-0.0117794721679676,0.606485148120612,0.931587999999465,
-0.160650931396485,0.56311623046875,-0.00459686718749985,0.585602033777063,0.934642999999596,
-0.136708914794922,0.611000263671875,-0.021356278808593,0.626471659563349,0.937629000000015,
-0.141497318115235,0.611000263671875,0.0193451494140628,0.627468762606361,0.940598999999565,
-0.119949503173828,0.584664045410156,-0.0692403120117184,0.600844530735279,0.943639999999505,
-0.163045133056641,0.565510432128906,0.0504697709960951,0.590705478258394,0.946664999999484,
-0.139103116455078,0.606211860351563,0.00976834277343741,0.6220433402577,0.949752999999873,
-0.18938135131836,0.603817658691406,-0.00220266552734216,0.632823761334991,0.952706999999464,
-0.172621939697266,0.608606062011719,-0.0452982954101557,0.63423308676647,0.955723999999464,
-0.139103116455078,0.608606062011719,-0.0452982954101557,0.625941651667304,0.958700000000135,
-0.0768538732910158,0.603817658691406,0.0337103593750001,0.609621744294439,0.961677999999665,
-0.153468326416016,0.553539423828125,-0.0429040937499998,0.57602012309069,0.964681999999812,
-0.129526309814453,0.587058247070313,0.052863972656251,0.60349734878657,0.967630000000099,
-0.153468326416016,0.577481440429688,-0.021356278808593,0.597907544607216,0.970669000000271,
-0.153468326416016,0.646913288574219,0.00497993945312558,0.664886554190864,0.973617999999988,
-0.119949503173828,0.611000263671875,-0.0285388837890626,0.623316671850413,0.976587000000109,
-0.122343704833985,0.642124885253906,-0.021356278808593,0.654024801532326,0.979682000000139,
-0.127132108154297,0.606211860351563,-0.0117794721679676,0.619511217428074,0.982632999999623,
-0.167833536376953,0.587058247070313,-0.059663505371093,0.613486116598598,0.985697000000073,
-0.134314713134766,0.611000263671875,0.014556746093751,0.6257584703609,0.988658999999643,
-0.134314713134766,0.58226984375,-0.0117794721679676,0.597676642566597,0.991610999999466,
-0.186987149658203,0.584664045410156,0.00497993945312558,0.613857507838444,0.994617999999718,
-0.143891519775391,0.613394465332031,-0.0141736738281235,0.630205071856,0.997613999999885,
-0.136708914794922,0.599029255371094,-0.00699106884765577,0.614470708185903,1.00066599999991,
-0.103190091552735,0.60142345703125,0.0217393510742188,0.610598860994032,1.00361100000009,
-0.119949503173828,0.56311623046875,0.0073741411132815,0.57579696967433,1.00656199999958,
-0.115161099853516,0.587058247070313,-0.0572693037109371,0.600981894502884,1.00961000000007,
-0.160650931396485,0.575087238769531,-0.00938527050781168,0.597178480235705,1.0125250000001,
-0.158256729736328,0.60142345703125,-0.0165678754882812,0.622117241098856,1.01558299999942,
-0.148679923095703,0.555933625488281,-0.0117794721679676,0.575592452560703,1.01855499999965,
-0.115161099853516,0.575087238769531,0.0456813676757815,0.588280714002903,1.02151599999979,
-0.153468326416016,0.606211860351563,-0.00938527050781168,0.625406611850515,1.02451500000006,
-0.103190091552735,0.644519086914063,0.0792001909179696,0.657514804877154,1.02750399999968,
