X,Y,Z,Magnitude,Seconds,
0.000574608398437482,0.0416591088867187,0.0440054265136691,0.0605994149369198,0.0,
-0.00660799658203126,0.024899697265625,0.0296402165527319,0.0392708922745683,0.00401399999999796,
0.000574608398437482,0.015322890625,0.0296402165527319,0.033371598541426,0.00802099999999939,
-0.0305500131835938,0.0105344873046874,0.00809240161132507,0.0333131459356416,0.0120969999999971,
0.00296881005859373,-0.00383072265625004,0.0200634099121064,0.0206404623624163,0.0160369999999972,
0.00775721337890622,0.00095768066406246,-0.0134554133300817,0.0155608373663997,0.0199420000000003,
-0.0305500131835938,-0.0229843359375,0.0559764348144505,0.0677860181640877,0.0238549999999975,
-0.00181959326171877,0.0225054956054687,0.0128808049316369,0.0259946799898123,0.0278080000000074,
-0.0161848032226563,-0.0158017309570313,0.046399628173825,0.0516194541937797,0.031762999999998,
-0.00660799658203126,0.0129286889648437,0.0128808049316369,0.0194095788945739,0.0357429999999965,
-0.0353384165039063,0.00095768066406246,-0.0445800349121122,0.0568955213177893,0.0397300000000058,
-0.00181959326171877,-0.00143652099609379,0.0392170231933573,0.0392854861285772,0.0436440000000005,
0.0316992299804688,0.0392649072265625,0.0128808049316369,0.0520815634994965,0.0476900000000029,
0.000574608398437482,0.015322890625,0.00569819995116916,0.0163581977797302,0.0516120000000058,
-0.00181959326171877,0.00095768066406246,0.0248518132324183,0.0249367338043981,0.0555609999999973,
0.0197282216796875,-0.032561142578125,0.046399628173825,0.0600196320490646,0.0594990000000024,
-0.0185790048828125,0.0105344873046874,-0.0661278498535189,0.069491347457491,0.0634430000000066,
0.00536301171874998,-0.0181959326171875,0.00330399829101324,0.0192553956908628,0.0674980000000005,
0.00775721337890622,-0.0181959326171875,-0.0158496149902376,0.0253471224906078,0.071464000000006,
-0.03294421484375,0.0105344873046874,0.0296402165527319,0.0455504023224452,0.0754710000000074,
-0.00421379492187501,-0.0181959326171875,-0.0397916315918003,0.0439570469457448,0.0794750000000022,
0.0269108266601562,-0.0277727392578125,-0.0182438166503935,0.0427592619602887,0.0833730000000088,
-0.0137906015625,0.044053310546875,0.0416112248535132,0.0621479597042789,0.0874150000000071,
-0.0377326181640625,0.0105344873046874,0.0248518132324183,0.0463933025039882,0.0912880000000058,
-0.00660799658203126,-0.0110133276367188,-0.0254264216308631,0.0284861707046116,0.0951030000000088,
-0.0473094248046875,-0.00143652099609379,0.0128808049316369,0.0490526289163943,0.0989820000000066,
-0.0137906015625,0.00335188232421871,0.00569819995116916,0.0152933086431466,0.102855000000005,
-0.0257616098632813,-0.0181959326171875,-0.0302148249511749,0.0436770895709328,0.106634,
-0.03294421484375,0.00574608398437496,0.010486603271481,0.0350472198754778,0.110578000000004,
-0.0161848032226563,-0.0181959326171875,0.0416112248535132,0.0482134198431823,0.114692000000005,
-0.052097828125,-0.0205901342773438,0.0200634099121064,0.0595035943637214,0.118488999999997,
-0.0137906015625,-0.0062249243164063,0.0344286198730437,0.0376066515468095,0.122426000000004,
0.0293050283203125,0.0081402856445312,0.0128808049316369,0.0330297452444877,0.126326000000006,
-0.00181959326171877,0.00095768066406246,0.0296402165527319,0.0297114541748675,0.130188000000004,
-0.03294421484375,0.00335188232421871,0.0224576115722623,0.0400112574698319,0.134032000000005,
-0.0161848032226563,0.0225054956054687,0.0272460148925759,0.0388688887843523,0.138095000000007,
-0.023367408203125,-0.0062249243164063,0.0368228215331996,0.0440534406663354,0.142055999999997,
-0.052097828125,0.0081402856445312,-0.0397916315918003,0.0660592301684947,0.145947000000007,
0.0197282216796875,0.0368707055664062,0.0368228215331996,0.0557186848846361,0.149960000000007,
-0.0137906015625,0.015322890625,0.0272460148925759,0.0341660210748605,0.153885000000002,
-0.0209732065429687,0.0320823022460937,0.046399628173825,0.0601836772287383,0.157801000000006,
-0.00181959326171877,-0.0253785375976563,0.0320344182128878,0.0409094737251892,0.161738,
0.000574608398437482,-0.0062249243164063,0.000909796630855553,0.00631724524346312,0.165586000000005,
0.000574608398437482,-0.00861912597656254,0.0583706364746064,0.0590063616050173,0.16938900000001,
0.00775721337890622,0.00095768066406246,0.0272460148925759,0.0283449614426739,0.173321000000001,
-0.0113963999023438,0.0081402856445312,0.00569819995116916,0.0151199095166673,0.177216000000001,
-0.00660799658203126,0.0296881005859375,0.00809240161132507,0.0314727802881769,0.181061,
-0.0137906015625,-0.0349553442382813,0.0392170231933573,0.0543141941891868,0.185023999999999,
-0.0281558115234375,-0.0062249243164063,0.046399628173825,0.0546298901697371,0.188988000000009,
-0.00900219824218751,-0.0253785375976563,0.0511880314941369,0.0578387786180867,0.192935000000006,
-0.0257616098632813,-0.00143652099609379,-0.00148440502930036,0.0258442951850334,0.196821999999997,
-0.0209732065429687,0.0272938989257812,0.010486603271481,0.035983345584287,0.200765000000004,
0.00296881005859373,-0.0110133276367188,-0.0397916315918003,0.0413942165469439,0.204581000000005,
-0.023367408203125,-0.0181959326171875,-0.0134554133300817,0.0325296153961901,0.208390000000009,
-0.0113963999023438,-0.00143652099609379,0.0296402165527319,0.0317881103653426,0.212418999999997,
0.00536301171874998,0.00095768066406246,0.0224576115722623,0.0231089455510281,0.216317000000004,
0.0316992299804688,-0.0349553442382813,0.0655532414550759,0.0807709399316294,0.220167000000004,
-0.00900219824218751,0.0105344873046874,-0.0373974299316444,0.039882110794898,0.224077000000008,
-0.0257616098632813,0.00095768066406246,0.0655532414550759,0.0704400820575169,0.227952999999999,
-0.0185790048828125,-0.00383072265625004,-0.0517626398925817,0.0551291642159916,0.231781999999995,
0.000574608398437482,0.00095768066406246,0.0416112248535132,0.0416262100229592,0.235675000000001,
0.0388818349609375,-0.0158017309570313,-0.011061211669924,0.0434032509701157,0.239462000000003,
-0.00660799658203126,0.024899697265625,-0.00627280834961219,0.0265143106140603,0.243289000000004,
0.00296881005859373,-0.0158017309570313,0.00330399829101324,0.0164141688522272,0.247151000000002,
-0.052097828125,0.015322890625,-0.00148440502930036,0.0543247469459248,0.250943000000007,
0.00775721337890622,0.015322890625,0.0152750065917946,0.0229845853321517,0.254815000000008,
0.0101514150390625,-0.0110133276367188,0.00809240161132507,0.0170244405713666,0.258822000000009,
0.0101514150390625,0.0129286889648437,0.0128808049316369,0.0208834231229427,0.262810000000002,
0.000574608398437482,0.0560243188476562,-0.011061211669924,0.0571087110760019,0.266822000000005,
0.014939818359375,-0.0110133276367188,0.0152750065917946,0.0240378323611801,0.270691999999997,
-0.0473094248046875,0.00095768066406246,0.0128808049316369,0.0490409417047795,0.274582000000009,
0.00296881005859373,0.0177170922851562,0.0607648381347623,0.0633646174591831,0.278436999999997,
0.0173340200195312,-0.0110133276367188,0.0655532414550759,0.0686948986529473,0.282415,
-0.0161848032226563,0.015322890625,-0.0206380183105495,0.0303754280998374,0.286546999999999,
0.000574608398437482,-0.0158017309570313,-0.0158496149902376,0.0223882820106573,0.290524000000005,
-0.0113963999023438,0.0320823022460937,-0.0158496149902376,0.0375547912187329,0.294543000000004,
-0.0137906015625,0.0584185205078125,0.00809240161132507,0.0605672452206331,0.298561000000007,
-0.0281558115234375,-0.00383072265625004,0.0152750065917946,0.0322606569212689,0.302464999999998,
-0.0281558115234375,0.0225054956054687,0.101466266357418,0.107678457750404,0.306414000000004,
0.819391576171875,3.87717016845703,1.07351214038086,4.10563994839046,0.31040800000001,
-1.16540160009766,-5.35965983642578,-6.35090720776368,8.39155151407238,0.313876000000008,
-0.681772864746094,-5.50570613769531,9.43346578723144,10.9438517475625,0.316804000000005,
-2.36010822851562,-0.518584079589844,-13.1217095026856,13.3423498893853,0.319704000000002,
3.96776675927734,6.604165859375,0.697622479736324,7.73594576495945,0.322775000000007,
5.17444439599609,-0.171424838867188,0.63058483325195,5.21554393276132,0.325803000000008,
-2.56122116796875,-0.705331809082031,7.67193191577148,8.1188599047149,0.328838000000005,
-9.22907279150391,1.17172229248047,-4.76355150708008,10.4518008344102,0.331854000000007,
-1.01935529882813,-3.80582295898438,-4.78270512036133,6.19658308172432,0.334793000000005,
10.5230909047852,-0.858560715332031,4.28174236499023,11.393238625274,0.337846999999996,
4.15212028710938,4.82048562255859,2.30413179370117,6.76655066031903,0.34087000000001,
-7.01443625585938,0.0967257470703125,-2.66144244946289,7.50299591959531,0.343955000000008,
-6.73431466162109,-3.35092464355469,-1.01423170727539,7.59001685667099,0.346964,
3.05557592675781,-0.528160886230469,0.984926678955075,3.2535486363113,0.349907000000002,
6.16085547998047,2.2754492578125,0.867610797607419,6.62469305449013,0.353008000000003,
-0.0449152231445313,0.865264479980469,-0.413287090576175,0.959951153352562,0.355948999999995,
-3.40876855566406,-1.84018339599609,-0.473142132080081,3.90254294968461,0.358984000000007,
-2.47502990820313,-0.607169541015625,0.33130962573242,2.56986263565585,0.361969999999999,
1.38442316796875,0.958638344726563,-0.233721966064456,1.70007086364356,0.364996000000005,
2.90474122216797,0.829351455078125,0.309761810791013,3.03665898369023,0.368018000000006,
0.103525279785156,-0.492247861328125,0.300185004150388,0.585778522355912,0.370984000000007,
-2.16138949072266,-1.06446205810547,-0.324701629150393,2.43107283965853,0.373996000000005,
-1.06245092871094,0.285867678222656,-0.250481377685549,1.12838966050669,0.376975000000002,
1.31020291650391,0.951455739746094,0.235541559326169,1.63627000622786,0.380009000000001,
1.19049283349609,0.0775721337890625,0.24751256762695,1.21842237901289,0.382956000000007,
-0.451929505371094,-0.918415756835938,-0.181049529541019,1.03947424805837,0.385871000000009,
-0.978653870605469,-0.283952316894531,-0.219356756103519,1.04235776160064,0.388890000000004,
-0.188567322753906,0.759919606933594,0.103860468017576,0.789824310229505,0.391811000000004,
0.635038048339844,0.384029946289063,0.084706854736325,0.746945495819728,0.394867000000005,
0.383646874023438,-0.518584079589844,0.0607648381347623,0.647924947123928,0.397878000000006,
-0.30109480078125,-0.437181223144531,-0.0565510432128935,0.533838478770607,0.400787000000008,
-0.497419336914063,0.326569106445312,-0.0685220515136749,0.598972995688586,0.403871000000009,
0.024516625,0.463038601074219,0.0583706364746064,0.467346704480315,0.406810000000007,
0.376464269042969,-0.145088620605469,0.046399628173825,0.406114490248653,0.409858,
0.0747948598632812,-0.389297189941406,-0.049368438232424,0.399479431074682,0.412788000000006,
-0.272364380859375,-0.00383072265625004,-0.0780988581543003,0.283366303645979,0.415703000000008,
-0.121529676269531,0.309809694824219,0.0320344182128878,0.334331741196511,0.418767000000003,
0.0197282216796875,0.204464821777344,0.0607648381347623,0.21421351878121,0.421734999999998,
0.170562926269531,-0.166636435546875,0.0152750065917946,0.238940869873224,0.424754000000007,
0.0412760366210938,-0.15705962890625,-0.063733648193363,0.174451758785488,0.427704000000006,
-0.121529676269531,0.063206923828125,-0.0206380183105495,0.138529799082284,0.430627999999999,
-0.0760398447265626,0.173340200195312,0.0224576115722623,0.190612767954619,0.433638999999999,
0.0364876333007813,0.00095768066406246,-0.00387860668945628,0.0367056960974464,0.436626000000004,
0.101131078125,-0.166636435546875,-0.0326090266113308,0.197632348645234,0.439684,
-0.042521021484375,-0.0828393774414063,-0.0182438166503935,0.0948853864877391,0.442592000000005,
-0.0401268198242188,0.1302445703125,-0.0469742365722681,0.144154044919456,0.445492999999999,
-0.0640688364257813,0.0871489404296875,-0.011061211669924,0.108729499320918,0.448509999999999,
0.0197282216796875,-0.08044517578125,-0.011061211669924,0.0835642234495479,0.451444000000009,
0.0293050283203125,-0.0756567724609376,-0.0541568415527376,0.0975484258767343,0.454462000000007,
-0.03294421484375,0.0488417138671875,-0.0302148249511749,0.066210044192596,0.457384000000005,
-0.0760398447265626,0.118273562011719,0.0248518132324183,0.142787625787106,0.460335999999998,
0.0221224233398437,-0.032561142578125,-0.0134554133300817,0.0416014154603373,0.463369,
0.034093431640625,-0.0660799658203126,-0.106829278076175,0.130159204892026,0.466332000000008,
0.0508528432617187,0.00095768066406246,0.0296402165527319,0.0588682533913492,0.469363000000001,
0.0293050283203125,0.101514150390625,0.00809240161132507,0.10596883682585,0.472324,
-0.0185790048828125,-0.0756567724609376,-0.00627280834961219,0.0781567320595776,0.475268999999997,
0.0125456166992187,-0.207337863769531,0.00330399829101324,0.207743348041721,0.478267000000002,
-0.0927992563476563,0.0536301171875,0.13259088793945,0.170494090844213,0.481206,
-0.305883204101563,0.419942971191406,-0.111617681396487,0.531389819628521,0.484245999999999,
-0.143077491210938,0.127850368652344,-0.0661278498535189,0.202952649113052,0.487226000000007,
0.328580235839844,-0.444363828125,-0.0709162531738308,0.557183361286648,0.490323000000004,
0.46504973046875,-0.353384165039063,0.24751256762695,0.6343611676661,0.493307000000001,
-0.0688572397460938,0.18770541015625,-0.0182438166503935,0.200767221710493,0.496278000000004,
-0.495025135253906,0.364876333007813,-0.011061211669924,0.615066641369846,0.499336999999997,
-0.164625306152344,0.0656011254882812,0.0511880314941369,0.184459246608368,0.502374000000003,
0.287878807617187,-0.248039291992188,0.048793829833981,0.383116869997846,0.505462000000009,
0.244783177734375,-0.202549460449219,0.0559764348144505,0.322611917455857,0.508397000000002,
-0.099981861328125,0.125456166992187,-0.0230322199707054,0.162068212761747,0.511324999999999,
-0.298700599121094,0.230801040039062,0.0607648381347623,0.382339552691004,0.514409999999998,
-0.0688572397460938,-0.0469263525390626,0.0248518132324183,0.0869540950675149,0.517401000000007,
0.228023766113281,-0.173819040527344,0.0200634099121064,0.287420314486697,0.520431000000002,
0.110707884765625,-0.0205901342773438,-0.0326090266113308,0.117232836677172,0.523345000000006,
-0.131106482910156,0.082360537109375,-0.0517626398925817,0.163252990241113,0.526271000000008,
-0.157442701171875,0.0943315454101562,0.0176692082519505,0.184387758628428,0.529348999999996,
0.0269108266601562,-0.0636857641601563,0.0200634099121064,0.0719903435572941,0.532303999999996,
0.151409312988281,-0.0469263525390626,0.0559764348144505,0.168107774587436,0.535430000000005,
-0.0209732065429687,0.03447650390625,0.00569819995116916,0.0407550511835674,0.538418000000007,
-0.12871228125,0.0296881005859375,-0.0326090266113308,0.136057279399223,0.541378000000009,
-0.0377326181640625,0.00095768066406246,-0.00148440502930036,0.0377739471601827,0.544415000000001,
0.072400658203125,-0.0588973608398438,0.046399628173825,0.104228978296891,0.547375000000002,
0.0700064565429687,-0.00861912597656254,-0.011061211669924,0.0713970846317221,0.550409000000002,
-0.0568862314453125,0.0679953271484375,0.0775242497558573,0.117768489598369,0.553373000000008,
-0.0975876596679688,0.0392649072265625,0.0272460148925759,0.108661996974602,0.556354999999996,
0.00536301171874998,-0.00143652099609379,0.048793829833981,0.0491086888150677,0.559412000000009,
0.0747948598632812,0.0368707055664062,0.000909796630855553,0.0833939309592851,0.562367000000009,
0.00536301171874998,0.0488417138671875,0.0224576115722623,0.0540242466463927,0.565422999999996,
-0.052097828125,-0.0062249243164063,-0.0397916315918003,0.0658506440577812,0.568360999999996,
-0.0353384165039063,-0.0229843359375,0.00330399829101324,0.0422847464719659,0.57135000000001,
0.0364876333007813,-0.00143652099609379,0.000909796630855553,0.0365272323941195,0.574339000000009,
-0.00660799658203126,0.0105344873046874,0.0248518132324183,0.0277894523612783,0.577328000000009,
-0.0257616098632813,0.00095768066406246,-0.0134554133300817,0.0290796465399009,0.580381000000003,
-0.023367408203125,-0.00861912597656254,-0.0445800349121122,0.0510656891806668,0.583303999999998,
0.00775721337890622,0.015322890625,0.0152750065917946,0.0229845853321517,0.586294000000009,
-0.0161848032226563,0.0272938989257812,0.0583706364746064,0.0664382117186903,0.589292999999998,
-0.00660799658203126,0.00095768066406246,-0.0158496149902376,0.0171986355976636,0.592240000000004,
-0.00181959326171877,-0.00383072265625004,0.0583706364746064,0.0585244953686732,0.595270999999997,
-0.0281558115234375,0.0177170922851562,-0.011061211669924,0.0350570318936293,0.598202999999998,
-0.0305500131835938,0.0320823022460937,-0.00387860668945628,0.0444704510071459,0.601285000000004,
-0.023367408203125,0.00335188232421871,0.0440054265136691,0.0499374453080734,0.604286999999999,
-0.00660799658203126,-0.0445321508789063,-0.0206380183105495,0.0495248006610464,0.607218000000003,
-0.0353384165039063,-0.0158017309570313,0.0679474431152318,0.0782007251126204,0.610291000000004,
-0.0161848032226563,0.0201112939453125,0.0703416447753877,0.0749290263463879,0.613261000000008,
-0.00900219824218751,0.00574608398437496,0.00330399829101324,0.0111791528773048,0.616297000000003,
-0.00421379492187501,0.0129286889648437,0.0224576115722623,0.0262535975348885,0.619297000000003,
-0.00421379492187501,0.0488417138671875,0.0320344182128878,0.0585617027703774,0.622275000000002,
-0.00181959326171877,0.0320823022460937,0.0535822331542946,0.0624791224878278,0.625399999999999,
0.00296881005859373,0.0225054956054687,0.0631590397949182,0.0671146442546472,0.628371999999999,
-0.0113963999023438,0.024899697265625,-0.027820623291019,0.0390366486132544,0.631475000000009,
-0.03294421484375,-0.00383072265625004,0.0128808049316369,0.0355796411368517,0.634425000000007,
-0.00900219824218751,-0.0110133276367188,-0.027820623291019,0.0312461203851957,0.637376000000003,
-0.00900219824218751,0.015322890625,-0.00148440502930036,0.0178335080281017,0.640461999999999,
-0.00900219824218751,-0.0110133276367188,-0.0158496149902376,0.0212965549834738,0.643479999999997,
0.0221224233398437,0.0368707055664062,-0.049368438232424,0.0654682612943138,0.646543000000008,
0.0269108266601562,0.03447650390625,-0.0206380183105495,0.0483606215108658,0.649524,
-0.0137906015625,-0.0253785375976563,0.0583706364746064,0.065125893963169,0.652496999999997,
-0.0161848032226563,-0.032561142578125,0.0607648381347623,0.0708134267981218,0.655568000000002,
-0.0185790048828125,0.0105344873046874,0.0152750065917946,0.0262579639650061,0.658524999999997,
-0.00421379492187501,-0.00143652099609379,-0.0206380183105495,0.0211127321775845,0.661529000000002,
0.000574608398437482,-0.00861912597656254,-0.0206380183105495,0.0223729145888055,0.664438000000004,
-0.0688572397460938,0.0177170922851562,-0.0350032282714867,0.0792492322607455,0.667456000000001,
-0.0113963999023438,-0.0158017309570313,0.0224576115722623,0.0297307408165884,0.670387000000005,
-0.00660799658203126,-0.0062249243164063,0.0200634099121064,0.022021710171427,0.673336000000006,
-0.03294421484375,0.00335188232421871,-0.0134554133300817,0.0357435945963736,0.676462000000001,
-0.00421379492187501,0.0296881005859375,-0.0302148249511749,0.0425684746129633,0.679406999999998,
0.00775721337890622,-0.0181959326171875,0.0272460148925759,0.0336691498369291,0.682471000000007,
-0.0377326181640625,0.0177170922851562,-0.0517626398925817,0.0664606403911727,0.685421000000005,
0.00775721337890622,-0.0158017309570313,-0.00627280834961219,0.0186873536177611,0.688362999999995,
0.0125456166992187,-0.00383072265625004,0.00569819995116916,0.0143016228840061,0.691438000000005,
-0.0281558115234375,-0.0181959326171875,-0.0445800349121122,0.0557783219460545,0.694355000000002,
-0.00660799658203126,-0.0349553442382813,-0.00148440502930036,0.035605409251066,0.697398000000007,
0.000574608398437482,0.00095768066406246,-0.0421858332519562,0.0422006143821122,0.700367,
0.0316992299804688,-0.0253785375976563,-0.00866701000976811,0.0415214211517347,0.703294,
-0.0401268198242188,0.0392649072265625,-0.00387860668945628,0.0562755559596471,0.706321000000003,
-0.00900219824218751,-0.0205901342773438,0.00569819995116916,0.0231832414781496,0.709270000000004,
0.00775721337890622,-0.0158017309570313,0.0799184514160132,0.0818341489683735,0.712281000000004,
-0.0137906015625,-0.0110133276367188,-0.0780988581543003,0.080068131750996,0.715249,
-0.00660799658203126,-0.00143652099609379,-0.00148440502930036,0.00692334237860351,0.718174000000005,
-0.0185790048828125,0.024899697265625,0.048793829833981,0.0578447247052212,0.721206000000009,
-0.0305500131835938,0.0272938989257812,-0.0709162531738308,0.0818985664606126,0.724147000000002,
0.0101514150390625,-0.0445321508789063,-0.011061211669924,0.0469948304902129,0.727145000000007,
-0.00660799658203126,-0.0301669409179688,-0.0421858332519562,0.0522814926177344,0.730072000000007,
-0.00900219824218751,0.0129286889648437,0.0152750065917946,0.0219434819005709,0.733029000000002,
-0.00421379492187501,-0.0277727392578125,0.0392170231933573,0.0482395690452805,0.736018999999999,
-0.00421379492187501,0.00095768066406246,-0.0350032282714867,0.0352689553194271,0.738982000000007,
0.024516625,-0.0062249243164063,0.0440054265136691,0.050757188129225,0.742039000000005,
-0.0353384165039063,0.0225054956054687,-0.0661278498535189,0.078282779330456,0.745016000000007,
-0.0113963999023438,-0.0445321508789063,-0.0158496149902376,0.0486230468808217,0.747921000000005,
-0.00421379492187501,-0.00383072265625004,-0.0302148249511749,0.0307468071601405,0.750918999999996,
-0.0305500131835938,0.00574608398437496,-0.0302148249511749,0.0433503913881223,0.753841000000008,
-0.00421379492187501,-0.0349553442382813,0.0559764348144505,0.0661286126649939,0.756878,
0.00536301171874998,-0.04213794921875,-0.00387860668945628,0.0426545689101285,0.759837000000005,
-0.0257616098632813,-0.0158017309570313,-0.0589452448730494,0.066241204224637,0.762881000000007,
0.00296881005859373,-0.0277727392578125,0.0392170231933573,0.0481467941528278,0.765878999999998,
-0.061674634765625,0.024899697265625,-0.0254264216308631,0.0712057470597945,0.768901999999997,
0.000574608398437482,-0.0229843359375,-0.0134554133300817,0.0266394072978877,0.771941999999996,
0.024516625,0.00574608398437496,0.0344286198730437,0.0426545689101256,0.774941999999996,
-0.0353384165039063,-0.00861912597656254,0.0583706364746064,0.068776625506447,0.777946999999998,
-0.0305500131835938,-0.00383072265625004,0.0224576115722623,0.0381093434621678,0.780963,
-0.0161848032226563,-0.0181959326171875,0.0200634099121064,0.0315528166170081,0.783939000000004,
-0.0185790048828125,0.015322890625,-0.00148440502930036,0.0241282792140736,0.786957000000001,
0.0316992299804688,0.0201112939453125,-0.00866701000976811,0.0385282025017886,0.789911000000004,
-0.00181959326171877,-0.00143652099609379,0.0200634099121064,0.0201969039585656,0.792989000000006,
0.00296881005859373,-0.013407529296875,0.0128808049316369,0.0188279263514985,0.795996000000002,
-0.0161848032226563,-0.0349553442382813,0.0344286198730437,0.0516638540232471,0.798912999999999,
0.00536301171874998,-0.0158017309570313,-0.027820623291019,0.0324413883216276,0.801916000000006,
0.0125456166992187,0.0225054956054687,-0.0517626398925817,0.0578209366878519,0.804888000000005,
0.00536301171874998,0.0201112939453125,-0.0230322199707054,0.0310436659502252,0.807974999999999,
0.00775721337890622,0.00574608398437496,0.010486603271481,0.014253444802391,0.810935999999998,
0.0221224233398437,0.0272938989257812,0.0248518132324183,0.0430345344338361,0.813955000000007,
0.0125456166992187,-0.0277727392578125,0.00330399829101324,0.0306534492178805,0.817054999999996,
-0.0281558115234375,-0.0205901342773438,-0.0182438166503935,0.039364199446649,0.820003999999997,
-0.0113963999023438,-0.0181959326171875,-0.0350032282714867,0.0410633155501255,0.823042999999998,
-0.00421379492187501,0.03447650390625,0.0152750065917946,0.0379435266629323,0.826007000000004,
-0.00900219824218751,0.0081402856445312,0.0200634099121064,0.0234487577681082,0.828964999999997,
-0.0113963999023438,-0.0158017309570313,-0.0134554133300817,0.0236774318678332,0.831963000000002,
-0.03294421484375,0.015322890625,-0.00866701000976811,0.0373527687231655,0.834963999999999,
0.00296881005859373,-0.0062249243164063,-0.0230322199707054,0.024042601204694,0.838022000000009,
0.0221224233398437,0.0081402856445312,-0.0158496149902376,0.0284055656542972,0.840996000000004,
0.00775721337890622,-0.0158017309570313,0.000909796630855553,0.0176265932770289,0.843919,
-0.023367408203125,0.00095768066406246,-0.0134554133300817,0.0269814948857386,0.846976999999995,
-0.0449152231445313,-0.00143652099609379,-0.027820623291019,0.0528528896371433,0.849902999999998,
-0.0353384165039063,-0.00861912597656254,0.0440054265136691,0.0570926490561906,0.852913999999998,
-0.00421379492187501,-0.0062249243164063,-0.00148440502930036,0.00766219346399047,0.855879000000002,
0.00775721337890622,-0.0158017309570313,-0.00866701000976811,0.0196210632523751,0.858918000000003,
-0.0257616098632813,-0.0062249243164063,0.0655532414550759,0.0707081161590406,0.861869999999996,
-0.0113963999023438,-0.0205901342773438,0.000909796630855553,0.0235512057059231,0.864777000000004,
-0.0377326181640625,-0.00861912597656254,-0.00387860668945628,0.0388983726647567,0.867801,
-0.0257616098632813,-0.00143652099609379,0.00809240161132507,0.0270409152796111,0.870762999999997,
-0.00181959326171877,0.00335188232421871,0.0176692082519505,0.0180761432558026,0.873771000000005,
-0.023367408203125,-0.0062249243164063,0.0296402165527319,0.0382534689429508,0.876713000000009,
-0.03294421484375,0.0105344873046874,-0.0134554133300817,0.037112597084105,0.879675000000006,
-0.0137906015625,-0.0110133276367188,0.0152750065917946,0.0233409490695796,0.882770000000008,
-0.00421379492187501,0.0201112939453125,-0.00627280834961219,0.0214841415092469,0.885725000000008,
0.014939818359375,0.0225054956054687,0.046399628173825,0.0536900456297823,0.888822000000005,
-0.0353384165039063,-0.0301669409179688,-0.00148440502930036,0.0464871107259075,0.891749000000004,
-0.00900219824218751,-0.0181959326171875,-0.0134554133300817,0.0243552804312374,0.894648000000004,
-0.0449152231445313,-0.0181959326171875,0.00809240161132507,0.049132028227738,0.897721000000004,
-0.0568862314453125,-0.0205901342773438,0.0128808049316369,0.0618539577819851,0.900695999999996,
-0.00421379492187501,0.0081402856445312,0.00569819995116916,0.0107930440887492,0.903807,
-0.0161848032226563,-0.013407529296875,-0.0158496149902376,0.026323373502297,0.906761000000003,
0.0197282216796875,0.0201112939453125,0.00330399829101324,0.0283651772337962,0.909790999999998,
0.024516625,0.00335188232421871,0.0296402165527319,0.0386114290566779,0.912885000000003,
-0.00181959326171877,0.0296881005859375,0.00330399829101324,0.0299267545976147,0.91588800000001,
-0.00660799658203126,-0.00383072265625004,0.0296402165527319,0.0306085362634361,0.918977999999996,
0.000574608398437482,0.0296881005859375,-0.0134554133300817,0.0326000251394939,0.922059000000004,
0.0293050283203125,-0.0110133276367188,0.0344286198730437,0.0465339439210838,0.924996000000007,
-0.0401268198242188,0.00095768066406246,0.0200634099121064,0.0448733689259102,0.928061,
-0.0185790048828125,0.0081402856445312,0.00809240161132507,0.0218387416452759,0.931061,
-0.0161848032226563,0.0368707055664062,-0.0685220515136749,0.0794774705684789,0.934131000000008,
-0.0137906015625,0.0105344873046874,-0.0302148249511749,0.0348438195532348,0.937111000000002,
-0.00900219824218751,-0.00861912597656254,0.010486603271481,0.0162879634689219,0.940026000000003,
-0.0401268198242188,-0.032561142578125,-0.0445800349121122,0.0682478511600435,0.943009000000004,
-0.0113963999023438,-0.0373495458984375,-0.0421858332519562,0.057484876591287,0.945953000000003,
-0.00421379492187501,0.00574608398437496,-0.0397916315918003,0.0404245902086425,0.948963000000006,
0.0125456166992187,0.0201112939453125,0.0727358464355436,0.0765007189457293,0.951949999999997,
0.000574608398437482,-0.0110133276367188,-0.0589452448730494,0.0599680369329281,0.955038999999999,
-0.0185790048828125,0.0225054956054687,-0.027820623291019,0.04031952176284,0.957991000000007,
-0.0377326181640625,0.00335188232421871,-0.0254264216308631,0.0456233329074145,0.960977999999997,
-0.00660799658203126,-0.0062249243164063,0.0200634099121064,0.022021710171427,0.963980000000006,
-0.00900219824218751,0.00574608398437496,0.0296402165527319,0.031505546997949,0.966943999999998,
0.0197282216796875,0.00335188232421871,-0.0134554133300817,0.0241140206859338,0.969971999999999,
-0.00660799658203126,0.00574608398437496,0.00569819995116916,0.0104476113378672,0.972976000000003,
-0.00660799658203126,0.00574608398437496,-0.00387860668945628,0.00957740517233776,0.975958000000006,
-0.00660799658203126,-0.0181959326171875,0.0176692082519505,0.0262098932254247,0.978994,
-0.00900219824218751,-0.0158017309570313,0.0679474431152318,0.0703391022143993,0.981909000000002,
-0.0281558115234375,-0.032561142578125,0.0511880314941369,0.0668819280282878,0.984925000000004,
0.014939818359375,-0.0349553442382813,-0.0206380183105495,0.0432550813571589,0.987884000000008,
0.0125456166992187,-0.0205901342773438,-0.0158496149902376,0.0288540538445039,0.990798999999996,
-0.0473094248046875,-0.00143652099609379,0.0176692082519505,0.0505217397579834,0.993867000000009,
-0.0137906015625,0.0129286889648437,0.000909796630855553,0.0189251002564006,0.996830000000003,
0.00296881005859373,0.0296881005859375,0.010486603271481,0.0316254011474666,0.999896000000007,
-0.0161848032226563,-0.0253785375976563,0.0440054265136691,0.0533150596792472,1.002807,
-0.0640688364257813,0.0272938989257812,0.0727358464355436,0.10069893781078,1.005743,
-0.00900219824218751,0.015322890625,-0.0541568415527376,0.0569981932807144,1.00877200000001,
-0.042521021484375,0.0081402856445312,0.0918894597167945,0.101577430197331,1.01173800000001,
-0.00421379492187501,0.015322890625,-0.00148440502930036,0.0159609054580354,1.01475600000001,
-0.00181959326171877,0.0105344873046874,0.0392170231933573,0.0406480165636533,1.01773200000001,
-0.0137906015625,-0.00861912597656254,-0.00387860668945628,0.0167186606493157,1.02064900000001,
-0.0137906015625,0.0177170922851562,-0.0182438166503935,0.0289294468745869,1.023712,
0.0460644399414062,0.0081402856445312,0.0224576115722623,0.0518897022059348,1.02667600000001,
