X,Y,Z,Magnitude,Seconds,
0.0101514150390625,0.0296881005859375,0.0224576115722623,0.0385846972416093,0.0,
-0.0137906015625,-0.0349553442382813,0.0535822331542946,0.0654454925267857,0.00289900000001353,
-0.061674634765625,-0.0205901342773438,0.0200634099121064,0.0680459743139409,0.005927000000014,
-0.0257616098632813,-0.013407529296875,0.0200634099121064,0.0352981982811543,0.00886700000000928,
-0.0281558115234375,-0.04213794921875,0.0200634099121064,0.0545059345778651,0.0118620000000078,
-0.00181959326171877,-0.0062249243164063,-0.011061211669924,0.0128222855213079,0.014790000000005,
-0.023367408203125,0.00095768066406246,-0.0158496149902376,0.0282517824875628,0.0177690000000155,
-0.023367408203125,-0.0181959326171875,-0.0517626398925817,0.0596363866996467,0.0208379999999977,
-0.00900219824218751,-0.0277727392578125,-0.0326090266113308,0.0437688614840798,0.0237690000000157,
-0.0305500131835938,-0.0277727392578125,-0.00866701000976811,0.0421870289770401,0.02681800000002,
-0.0305500131835938,-0.032561142578125,0.0416112248535132,0.0610329857152702,0.0297419999999988,
-0.0353384165039063,0.0416591088867187,-0.0182438166503935,0.057594460499359,0.0327049999999929,
-0.0281558115234375,-0.0205901342773438,0.0751300480956996,0.0828325266967302,0.0357800000000168,
-0.0185790048828125,0.0560243188476562,-0.027820623291019,0.0652525156992449,0.0387690000000021,
-0.0137906015625,-0.00861912597656254,0.00569819995116916,0.0172319327627224,0.0418350000000203,
-0.03294421484375,0.0081402856445312,-0.0397916315918003,0.0522968401223562,0.0448619999999949,
-0.0401268198242188,0.0320823022460937,0.0248518132324183,0.0570705563977961,0.0478760000000023,
-0.061674634765625,-0.00143652099609379,-0.0182438166503935,0.0643324258210324,0.0508970000000204,
0.00775721337890622,-0.0062249243164063,-0.0134554133300817,0.0167323695283785,0.0538970000000063,
-0.0449152231445313,0.0081402856445312,-0.0326090266113308,0.0560980404028169,0.0570649999999944,
-0.0257616098632813,-0.0924161840820313,0.00569819995116916,0.0961086942254202,0.0599980000000073,
0.000574608398437482,-0.0181959326171875,-0.00387860668945628,0.0186135898867542,0.0630240000000128,
-0.042521021484375,0.024899697265625,0.0200634099121064,0.0532031259353777,0.0660530000000108,
0.0125456166992187,-0.0158017309570313,-0.0182438166503935,0.0272015449115541,0.0690470000000118,
-0.00900219824218751,-0.013407529296875,-0.0397916315918003,0.0429438628883775,0.0720730000000174,
-0.0377326181640625,0.015322890625,-0.0373974299316444,0.0552911314417865,0.0750110000000177,
-0.0377326181640625,0.0129286889648437,-0.0613394465332053,0.0731671317796767,0.0780039999999929,
-0.00181959326171877,-0.0253785375976563,-0.0302148249511749,0.0395008447639274,0.0809430000000191,
-0.0401268198242188,-0.013407529296875,0.0128808049316369,0.0442248645756972,0.0838850000000093,
0.0197282216796875,-0.00143652099609379,-0.027820623291019,0.0341358082300082,0.0869849999999985,
0.0173340200195312,-0.032561142578125,0.0200634099121064,0.0419909117944789,0.089966000000004,
-0.0497036264648438,-0.0373495458984375,0.010486603271481,0.0630508359242734,0.0930409999999995,
-0.0473094248046875,0.015322890625,0.0248518132324183,0.0555930325975755,0.0960120000000018,
-0.0281558115234375,0.0105344873046874,0.00330399829101324,0.0302430413487628,0.0989880000000198,
-0.052097828125,0.0296881005859375,-0.049368438232424,0.0776711639236303,0.102035999999998,
-0.03294421484375,0.0201112939453125,-0.049368438232424,0.0626660045745266,0.105000000000018,
-0.0401268198242188,0.0177170922851562,0.0176692082519505,0.0472890891062289,0.108063000000016,
-0.0544920297851563,0.00095768066406246,0.0511880314941369,0.0747697333859458,0.111040000000003,
-0.0161848032226563,0.0201112939453125,0.0511880314941369,0.0573291075088006,0.113956000000002,
-0.0473094248046875,0.00095768066406246,-0.0230322199707054,0.0526268181100061,0.117024000000015,
-0.00900219824218751,0.0129286889648437,-0.0206380183105495,0.0259637896180024,0.119972000000018,
-0.0640688364257813,-0.0181959326171875,-0.027820623291019,0.0721796013085659,0.12297700000002,
-0.00900219824218751,0.0177170922851562,0.0416112248535132,0.0461132189945792,0.126002,
-0.0185790048828125,-0.0229843359375,0.0631590397949182,0.0697317963969055,0.128927000000004,
-0.0137906015625,-0.0229843359375,0.0152750065917946,0.0308510326621793,0.131943000000007,
-0.00421379492187501,0.0272938989257812,0.010486603271481,0.0295411887774987,0.134906999999998,
-0.042521021484375,0.015322890625,-0.011061211669924,0.0465314801912346,0.137930000000011,
-0.0401268198242188,0.00574608398437496,-0.049368438232424,0.0638781797163121,0.140900000000016,
0.00775721337890622,0.00095768066406246,-0.0350032282714867,0.0358652687301518,0.143829000000011,
-0.0377326181640625,0.0368707055664062,0.0248518132324183,0.0583164815761253,0.146895000000001,
-0.042521021484375,0.024899697265625,0.0583706364746064,0.0763882412053394,0.149891999999994,
-0.0377326181640625,-0.0158017309570313,-0.0613394465332053,0.0737290504194466,0.152903000000009,
-0.0497036264648438,0.015322890625,-0.0421858332519562,0.0669692913806342,0.155851000000013,
-0.0473094248046875,-0.0349553442382813,-0.0158496149902376,0.0609201777862302,0.158839999999998,
-0.0137906015625,-0.00143652099609379,0.0416112248535132,0.0438604413775954,0.161774000000008,
-0.023367408203125,-0.00861912597656254,0.0248518132324183,0.0351843391251041,0.164745000000011,
-0.0113963999023438,0.024899697265625,0.0248518132324183,0.0369795277902911,0.167828000000014,
-0.03294421484375,-0.04213794921875,-0.00387860668945628,0.053628086352998,0.170832000000019,
-0.00421379492187501,0.0177170922851562,0.0200634099121064,0.0270959746823319,0.17389,
-0.0113963999023438,0.0081402856445312,0.0320344182128878,0.034962067034815,0.176927000000006,
-0.0377326181640625,-0.0277727392578125,0.0368228215331996,0.0595902316245142,0.179863000000012,
0.014939818359375,0.0129286889648437,-0.0134554133300817,0.0239039184830464,0.182929000000001,
-0.0113963999023438,0.0201112939453125,-0.0158496149902376,0.0280277071882034,0.185964000000013,
-0.0401268198242188,-0.0062249243164063,0.0272460148925759,0.0489004772929342,0.189030000000002,
-0.0161848032226563,0.0272938989257812,0.0368228215331996,0.0486088979467004,0.191987000000012,
0.00775721337890622,0.0225054956054687,0.0535822331542946,0.0586321362535499,0.194952000000001,
0.0101514150390625,-0.0158017309570313,-0.0350032282714867,0.0397236946665276,0.198014999999998,
-0.0281558115234375,0.0081402856445312,-0.0350032282714867,0.0456534770016886,0.200995000000006,
-0.023367408203125,-0.0110133276367188,0.0272460148925759,0.0375456319602116,0.204004999999995,
-0.00900219824218751,-0.00143652099609379,0.000909796630855553,0.00916138066414546,0.206917000000004,
0.0173340200195312,-0.0158017309570313,0.0176692082519505,0.0293660326146844,0.209890999999999,
-0.0209732065429687,-0.0062249243164063,-0.0565510432128935,0.0606353491282565,0.212878000000018,
-0.07125144140625,0.0296881005859375,-0.0517626398925817,0.0929382704138511,0.215914999999995,
-0.0257616098632813,-0.00861912597656254,-0.0158496149902376,0.0314509168496967,0.218991000000017,
0.014939818359375,0.0129286889648437,0.0799184514160132,0.0823244073631535,0.221982999999994,
0.014939818359375,-0.00143652099609379,0.0272460148925759,0.0311063834720433,0.224967000000021,
-0.00900219824218751,-0.00143652099609379,-0.0254264216308631,0.0270112214221105,0.227976000000012,
0.00536301171874998,0.0296881005859375,0.0128808049316369,0.032803358772892,0.230969000000016,
0.00775721337890622,0.0272938989257812,0.00330399829101324,0.0285665483158827,0.234015999999997,
0.666162669921875,5.97688502441406,1.02083970385742,6.09992139284059,16.005845,
0.611096031738281,6.36235149169922,1.0328107121582,6.47453881223074,16.0102,
0.63743225,6.22827619873047,0.78381373950195,6.30968368931792,16.013153,
0.687710484863281,5.88351115966797,0.441442902099606,5.93999335965475,16.016089,
0.678133678222656,5.56268813720703,0.252300970947262,5.60954725243531,16.019117,
0.749959728027344,5.10539562011719,0.0224576115722623,5.16023336447996,16.022071,
0.4458961171875,5.01681015869141,-0.133165496337893,5.0383470072125,16.025074,
1.09472476708984,4.33925108886719,-0.521026165283207,4.50544011089091,16.028036,
1.24795367333984,3.90111218505859,-0.784388347900395,4.1702913245404,16.030966,
1.11866678369141,3.72872966552734,-1.42842859448242,4.14671539185572,16.033986,
1.24316527001953,3.89392958007813,-2.49624253491211,4.78950668193443,16.036934,
1.94227215478516,0.958638344726563,-2.40526287182618,3.23677278810536,16.039958,
3.57990609033203,-3.16896531738281,-0.968741875732425,4.87816867483783,16.042879,
3.08430634667969,-0.350989963378906,-2.05092102612305,3.72053983313644,16.045787,
3.30936130273438,0.443884987792969,-3.27675227612305,4.67824877422111,16.048819,
4.32689700830078,0.139821376953125,-3.81065924633789,5.76738343008299,16.051774,
4.87756339013672,-0.0732625708007813,-3.43955798901368,5.96879813604633,16.054765,
5.38752834375,0.163763393554687,-3.51377824047852,6.43419906647583,16.057718,
5.85439766748047,0.678516750488281,-3.75080420483399,6.98590647036548,16.060645,
6.07945262353516,1.07116582275391,-3.58321008862305,7.13768414549527,16.063755,
5.81369623925781,2.45262018066406,-3.17140740307618,7.06202765707183,16.066807,
5.63173691308594,3.61859638916016,-2.67341345776368,7.2081786882686,16.06992,
5.29654868066406,4.22193520751953,-2.0317674128418,7.07150929031583,16.072913,
5.14571397607422,4.28657865234375,-2.31667741040039,7.08661577130821,16.07592,
4.62377801416016,4.13813814941406,-2.28555278881836,6.61265922442267,16.078867,
4.24309995019531,4.18362798095703,-2.3765324519043,6.4151809612316,16.081791,
3.64454953515625,3.65929781738281,-2.87931480053711,5.91300731870867,16.084836,
3.23274684960938,3.32410958496094,-3.10676395825196,5.58142804475538,16.087786,
2.87361660058594,3.04877639404297,-3.27435807446289,5.31734244410091,16.090779,
2.50012114160156,2.80935622802734,-3.33900151928711,5.02911714761555,16.093763,
1.88959971826172,2.36164051757813,-3.50898983715821,4.63259567702611,16.096684,
1.23358846337891,2.20122900634766,-3.32463630932618,4.17377002536769,16.099735,
0.38843527734375,2.06236531005859,-3.42758698071289,4.01902788584139,16.102688,
-0.0592804331054688,2.28981446777344,-2.91522782543946,3.70746783408706,16.105715,
-0.427987488769531,2.45022597900391,-2.59201060131836,3.59239468823732,16.108659,
-0.880491602539063,2.95540252929688,-2.61595261791993,4.04386914619134,16.111576,
-0.284335389160156,3.309744375,-2.59201060131836,4.21352268282963,16.114572,
-0.755993116210938,3.25467773681641,-3.65503613842774,4.95214518522018,16.117503,
-0.56924538671875,4.26263663574219,-3.61672891186524,5.61914935026592,16.120515,
0.0460644399414062,4.76063058105469,-3.60715210522461,5.97304543529735,16.123474,
0.793055357910156,4.42304814697266,-3.8705142878418,5.93069747698665,16.126407,
1.58074770410156,4.08546571289063,-4.08359823559571,5.98878685085616,16.129429,
1.84889829003906,4.04715848632813,-3.97825336254883,5.96861931412938,16.132385,
2.19366332910156,3.539587734375,-3.7555926081543,5.60761232336956,16.135407,
2.28943139550781,3.28101395507813,-3.80108243969727,5.5185846375252,16.138355,
2.51688055322266,2.85245185791016,-3.88248529614258,5.43551850292581,16.141287,
2.84967458398438,2.69922295166016,-3.91839832104493,5.54619646061544,16.144303,
3.28302508447266,2.88118227783203,-3.92558092602539,5.87278899928683,16.147257,
2.82573256738281,2.07912472167969,-2.97508286694336,4.59985241239841,16.150275,
2.25830677392578,2.20122900634766,-2.26879337719727,3.88494298696384,16.153235,
-0.485448328613281,2.62739690185547,-1.49307203930664,3.06074152358419,16.156167,
-4.74712728369141,3.48930949951172,-0.178655327880863,5.89426975605378,16.159171,
-5.35046610205078,3.17088067871094,0.273848785888669,6.22550921173116,16.162119,
-1.72564478857422,2.15813337646484,-0.322307427490237,2.78195465181593,16.165116,
1.05402333886719,1.47818010498047,-0.738898516357425,1.9600899568928,16.168063,
2.98135567529297,1.25073094726562,-1.17703742016602,3.44067241299148,16.171077,
3.57990609033203,1.62901480957031,-1.47870682934571,4.20190322979354,16.174034,
4.19282171533203,1.76548430419922,-1.93360514477539,4.94322947280778,16.176982,
4.87038078515625,1.17172229248047,-2.63031782788086,5.65792488451224,16.180005,
6.19676850488281,0.989762966308594,-3.74122739819336,7.3059122002373,16.182962,
7.43217656152344,1.17890489746094,-4.31583579663086,8.67487774106333,16.185974,
8.27972394921875,1.3560758203125,-4.68214865063477,9.60808442366863,16.188932,
8.9285525991211,2.02645228515625,-4.99100066479493,10.4276386596041,16.191859,
9.76412897851563,2.86442286621094,-5.03170209301758,11.3517029127104,16.194879,
10.061009984375,3.30016756835938,-5.94868132885743,12.1450334473496,16.197823,
10.3459199819336,3.49649210449219,-8.24232651928711,13.682085504772,16.200875,
7.67159672753906,5.96251981445313,-6.54244334057618,11.7136076318265,16.203913,
5.71792817285156,8.74697634521484,-2.40286867016602,10.7227830165355,16.206942,
7.64526050927735,9.45087163330078,-2.00782539624024,12.3207282944488,16.210044,
8.38746302392578,9.23060508056641,-2.55370337475586,12.7308682758616,16.213023,
7.35795631005859,10.0805466699219,-2.48905992993164,12.7260505090934,16.216039,
6.84080875146485,10.5929058251953,-2.03655581616211,12.7731702324802,16.219001,
6.57026396386719,11.3111663232422,-0.97831868237305,13.1174677278513,16.221925,
6.41942925927734,11.7900066552734,0.0511880314941369,13.4244534026837,16.224984,
6.13212506005859,11.8091602685547,0.470173322021482,13.3146643575176,16.227929,
5.67004413964844,12.2401165673828,1.49010322924804,13.5716712958462,16.230939,
5.19838641259766,12.4651715234375,2.07668263598632,13.6644185084476,16.233881,
4.89911120507813,12.1251948876953,2.07189423266601,13.2406339491608,16.236821,
4.20718692529297,11.6080473291016,0.989715082275389,12.3865540229356,16.239848,
3.2040164296875,10.6862796899414,-1.65348355053711,11.2781338325655,16.242831,
2.69405147607422,9.38143978515625,-4.05486781567383,10.5693556473816,16.245869,
2.08113585107422,8.08138828369141,-6.47779989575196,10.5641778909584,16.248831,
1.71003459375,6.757394765625,-6.25992754467774,9.36874032060516,16.251762,
2.3612574453125,5.43579544921875,-4.88086738842774,7.6776477746904,16.254787,
2.86643399560547,4.20517579589844,-4.65341823071289,6.89595885685986,16.25773,
1.71961140039063,3.55395294433594,-3.91360991772461,5.55913549817055,16.260755,
2.60546601464844,2.70401135498047,-3.94234033764649,5.44446304966669,16.263699,
2.77306013085938,2.34009270263672,-3.52096084545899,5.05599264453091,16.266717,
3.48892642724609,2.20841161132813,-3.31266530102539,5.29371711148251,16.269654,
4.48970272119141,1.8923769921875,-3.0660625300293,5.7566709688225,16.272596,
4.89192860009766,1.44466128173828,-3.14028278149414,5.98994053352416,16.275621,
5.09782994287109,1.06877162109375,-3.21689723461914,6.12197441374829,16.278576,
4.88474599511719,0.898783303222656,-3.49941303051758,6.07572599950998,16.281582,
4.36281003320313,0.99215716796875,-3.59039269360352,5.73667211247524,16.284546,
3.67327995507813,1.39198884521484,-3.53532605541993,5.28480358118562,16.287474,
3.04360491845703,1.55958296142578,-3.71010277661133,5.04585894831044,16.290507,
2.56715878808594,1.48296850830078,-3.70531437329102,4.74540350705561,16.293452,
2.27506618554688,1.5859191796875,-3.45152899731446,4.42765380449082,16.296481,
2.03085761621094,1.70323506103516,-3.45152899731446,4.35183234394019,16.299441,
1.88002291162109,1.84688716064453,-3.42040437573243,4.31794446767248,16.30238,
1.95424316308594,1.87082917724609,-3.44674059399414,4.38167649116072,16.305399,
2.06916484277344,1.99053926025391,-3.64785353344727,4.64225431171813,16.308363,
2.27506618554688,2.04321169677734,-3.88009109448243,4.94021731181417,16.311378,
2.47378492333984,2.09348993164063,-4.07641563061524,5.20763634812843,16.314333,
2.63419643457031,2.25868984619141,-4.31344159497071,5.53592350655377,16.317263,
2.94783685205078,2.25868984619141,-4.43794008129883,5.78677233808239,16.320285,
3.23753525292969,2.35924631591797,-4.53370814770508,6.0499741538045,16.323231,
3.43625399072266,2.57711866699219,-4.57440957592774,6.27491873101607,16.326263,
3.03881651513672,4.01603386474609,-4.52891974438477,6.77303830393224,16.329215,
4.09226524560547,2.97695034423828,-4.56483276928711,6.81517178096108,16.332158,
3.85523928125,4.0375816796875,-4.45469949291993,7.14207836053779,16.335176,
4.07790003564453,4.65528570800781,-4.23443294018555,7.49875830046681,16.338139,
4.49209692285156,5.57226494384766,-4.03092579907227,8.21446493487874,16.341243,
4.90629381005859,6.22109359375,-3.84178386791993,8.80528408063172,16.344293,
5.28697187402344,6.90344106689453,-3.77714042309571,9.48031433743546,16.347311,
5.81369623925781,7.19792787109375,-3.70052596997071,9.96509518540873,16.350377,
6.34999741113281,7.45171324707031,-3.60715210522461,10.4336975108627,16.353327,
6.83841454980469,7.43255963378906,-3.66940134838867,10.7457602113749,16.356353,
7.36035051171875,7.28651333251953,-3.72207378491211,11.0055381268102,16.359302,
7.76736479394531,6.96329610839844,-3.91360991772461,11.1416242587681,16.362337,
7.92059370019531,6.47487896972656,-4.08359823559571,11.0152456525464,16.365281,
8.16240806787109,6.10856611572266,-4.3685082331543,11.0915891395119,16.368235,
8.07142840478516,5.38312301269531,-4.68693705395508,10.7746623525343,16.371264,
8.14086025292969,4.90907108398438,-4.96227024487305,10.7236519221996,16.374227,
7.92059370019531,4.21235840087891,-5.26154545239258,10.4001744412592,16.377257,
7.70750975244141,3.97772663818359,-5.40519755200196,10.2197933623074,16.38022,
7.44175336816406,3.48930949951172,-5.50575402172852,9.8928409126875,16.38319,
6.96051883447266,3.33847479492188,-5.69250175122071,9.59160114834995,16.386227,
6.58462917382813,3.12778504882813,-5.72602057446289,9.26971910511174,16.389191,
6.18719169824219,3.02004597412109,-5.71883796948243,8.95025846094938,16.392233,
5.87115707910156,2.91230689941406,-5.80024082592774,8.75184612311129,16.395197,
5.51681523339844,2.83090404296875,-5.89122048901368,8.5531132852388,16.398146,
5.31330809228516,2.78062580810547,-5.82657704418946,8.36134695011041,16.401169,
4.99966767480469,2.62979110351563,-5.89840309399414,8.16722946695246,16.404141,
4.78179532373047,2.63936791015625,-5.92473931225586,8.05818623521467,16.407169,
4.57828818261719,2.48853320556641,-5.9391045222168,7.90104314151713,16.410143,
4.43224188134766,2.47416799560547,-6.04444939526368,7.89313903698358,16.413083,
4.314926,2.38079413085938,-6.16176527661133,7.89012790790261,16.41612,
4.22394633691406,2.34727530761719,-6.22162031811524,7.87781590351434,16.419076,
4.20718692529297,2.31615068603516,-6.17134208325196,7.81987461109792,16.422122,
4.13296667382813,2.25150724121094,-6.23119712475586,7.8088741820934,16.425076,
4.03719860742188,2.23235362792969,-6.31738838452149,7.82251694256951,16.428019,
3.91030591943359,2.20601740966797,-6.29105216625977,7.72879955451798,16.431039,
3.79299003808594,2.15813337646484,-6.39160863598633,7.73931353901919,16.434007,
3.72834659326172,2.11982614990234,-6.50413611401368,7.79089326168142,16.437036,
3.70679877832031,2.22038261962891,-6.49695350903321,7.80261885901432,16.440015,
3.70919297998047,2.31136228271484,-6.37963762768555,7.73306436189914,16.442943,
3.70919297998047,2.45980278564453,-6.19767830151368,7.63020043223338,16.445968,
3.70679877832031,2.67528093505859,-6.04923779858399,7.58226636357905,16.448921,
3.68046256005859,2.87160547119141,-5.83854805249024,7.47533049432646,16.451946,
3.69722197167969,3.16130387207031,-5.75235679272461,7.53345214030346,16.454889,
3.99410297753906,3.25467773681641,-5.64461771801758,7.6424796334876,16.457901,
3.64694373681641,3.81970932861328,-5.27112225903321,7.46157542642806,16.460852,
3.90551751611328,4.06870630126953,-5.41477435864258,7.81838982077967,16.463795,
3.81214365136719,4.41586554199219,-5.22802662915039,7.83355411921809,16.466819,
3.91030591943359,4.60261327148438,-5.10352814282227,7.90699315890563,16.469783,
3.95340154931641,4.94977251220703,-5.02212528637696,8.08401967617623,16.472787,
4.08268843896484,5.27777813964844,-4.98621226147461,8.32980190025476,16.475749,
4.19282171533203,5.50522729736328,-4.97902965649414,8.52514034209654,16.478713,
4.29098398339844,5.78295468994141,-4.90241520336914,8.71141683757138,16.481837,
4.39393465478516,5.93378939453125,-4.78270512036133,8.7972033395565,16.484873,
4.56871137597656,6.17560376220703,-4.69890806225586,9.00505094057199,16.487992,
4.79137213037109,6.27616023193359,-4.72763848217774,9.20315162141586,16.490958,
4.89192860009766,6.40305291992188,-4.72285007885743,9.33998741921728,16.493891,
4.83446776025391,6.56825283447266,-4.64862982739258,9.38742686227789,16.496901,
5.14331977441406,6.36474569335938,-4.61511100415039,9.39483771140542,16.499864,
5.10980095117188,6.40305291992188,-4.60792839916993,9.39905083440843,16.502913,
5.20556901757813,6.37671670166016,-4.67257184399414,9.46537861510504,16.505867,
5.28936607568359,6.22348779541016,-4.57440957592774,9.36132558938909,16.50879,
5.32049069726563,6.19236317382813,-4.40202705639649,9.27528032684293,16.511829,
5.38752834375,6.16123855224609,-4.39005604809571,9.2875677256112,16.514774,
5.47132540185547,6.10856611572266,-4.26316336010743,9.24253988241903,16.517822,
5.49047901513672,6.13729653564453,-4.14824168041993,9.22061156438466,16.520793,
5.42104716699219,6.19475737548828,-4.10993445385743,9.20077890957743,16.523763,
5.35879792382813,6.19475737548828,-3.91600411938477,9.07892187391375,16.526775,
5.28697187402344,6.30010224853516,-3.90163890942383,9.10308442882096,16.529732,
5.14331977441406,6.39347611328125,-3.93755193432618,9.10135101776063,16.532751,
5.00206187646484,6.33122687011719,-4.03092579907227,9.01961304571894,16.535708,
4.95417784326172,6.26658342529297,-4.12429966381836,8.99020542845347,16.538633,
4.83207355859375,6.18518056884766,-4.35174882153321,8.97458140252943,16.541645,
4.74348809716797,6.07265309082031,-4.46906470288086,8.90788045541471,16.544588,
4.64532582910156,5.84999233642578,-4.52652554272461,8.73446597587379,16.547612,
4.57589398095703,5.73746485839844,-4.72763848217774,8.72971215702349,16.550556,
4.50406793115234,5.56029393554688,-4.74679209545899,8.58693960475013,16.553586,
4.42505927636719,5.41424763427734,-4.77552251538086,8.46763499092578,16.556533,
4.42745347802734,5.37354620605469,-4.89044419506836,8.5084538873863,16.559472,
4.36041583154297,5.28735494628906,-4.88086738842774,8.41381096860604,16.562487,
4.30056079003906,5.20834629150391,-4.89762680004883,8.34316741253587,16.565444,
4.28380137841797,5.23947091308594,-4.91917461499024,8.36667727306209,16.568456,
4.20479272363281,5.25623032470703,-4.87847318676758,8.31310650172939,16.571414,
4.23591734521484,5.35439259277344,-4.85453117016602,8.37729005557003,16.574338,
4.10663045556641,5.378334609375,-4.80904133862305,8.30167305219688,16.57737,
4.08987104394531,5.38312301269531,-4.87368478344727,8.33413834144344,16.580313,
4.04916961572266,5.46213166748047,-4.80425293530274,8.32535303732818,16.583337,
4.03241020410156,5.50522729736328,-4.82340654858399,8.35662075139821,16.586288,
4.00367978417969,5.45973746582031,-4.83298335522461,8.31840808819869,16.589227,
4.14493768212891,5.42861284423828,-4.73003268383789,8.30804158580924,16.592235,
4.13296667382813,5.58184175048828,-4.6366588190918,8.35086677292422,16.595203,
4.21676373193359,5.50522729736328,-4.57680377758789,8.30877588969201,16.598219,
4.25746516015625,5.60338956542969,-4.4068154597168,8.30325277875542,16.601188,
4.37717524316406,5.58663015380859,-4.33259520825196,8.31513564672156,16.60412,
4.43703028466797,5.62254317871094,-4.24879815014649,8.32781575590009,16.607148,
4.47294330957031,5.73985906005859,-4.2535865534668,8.42889093818399,16.610102,
4.5064621328125,5.75183006835938,-4.31344159497071,8.48513573745167,16.613131,
4.49927952783203,5.73028225341797,-4.31344159497071,8.4667248311628,16.616076,
4.51125053613281,5.75183006835938,-4.31104739331055,8.48646334832192,16.619092,
4.53758675439453,5.80689670654297,-4.28710537670899,8.52578532600507,16.622199,
4.57110557763672,5.72549385009766,-4.33498940991211,8.51283849332629,16.625256,
4.57589398095703,5.74464746337891,-4.42596907299805,8.57490422329018,16.62833,
4.57110557763672,5.684792421875,-4.28949957836914,8.46236832775187,16.631289,
4.60462440087891,5.64887939697266,-4.27034596508789,8.44678986220529,16.634215,
4.65011423242188,5.684792421875,-4.22485613354493,8.47288832710146,16.637251,
4.64532582910156,5.69915763183594,-4.25119235180664,8.49306106083615,16.640228,
4.69320986230469,5.70155183349609,-4.19133731030274,8.49124375874421,16.643257,
4.67884465234375,5.71591704345703,-4.13627067211914,8.46593349852698,16.646213,
4.63096061914063,5.71112864013672,-4.09317504223633,8.41527590317796,16.649243,
4.48012591455078,5.69915763183594,-4.0620504206543,8.30976410872662,16.6522,
4.39872305810547,5.71352284179688,-4.14824168041993,8.31871485536177,16.655166,
4.42027087304688,5.62254317871094,-4.13627067211914,8.26199258415356,16.658188,
4.37478104150391,5.62014897705078,-4.18654890698243,8.26147537888377,16.661185,
4.32210860498047,5.57944754882813,-4.29907638500977,8.26395277742553,16.664207,
4.37238683984375,5.51959250732422,-4.25119235180664,8.22534525331355,16.667178,
4.28858978173828,5.53874612060547,-4.23443294018555,8.18536091015421,16.67012,
4.42745347802734,5.38072881103516,-4.32780680493164,8.20271287921337,16.673152,
4.43224188134766,5.46213166748047,-4.28231697338868,8.2351617536171,16.676103,
4.44660709130859,5.43100704589844,-4.22246193188477,8.19129641285739,16.679131,
4.48252011621094,5.48128528076172,-4.24879815014649,8.25770916429121,16.682076,
4.56871137597656,5.47170847412109,-4.22246193188477,8.28504085861756,16.68502,
4.71954608056641,5.39988242431641,-4.22485613354493,8.32359626316553,16.688036,
4.78658372705078,5.41424763427734,-4.25598075512696,8.38682498978941,16.691007,
4.83446776025391,5.34960418945313,-4.2535865534668,8.37157942544789,16.694019,
4.93741843164063,5.26820133300781,-4.33259520825196,8.4204172873307,16.696978,
4.99966767480469,5.22749990478516,-4.33259520825196,8.43177403347502,16.699905,
5.14571397607422,5.16525066162109,-4.30865319165039,8.4689243146259,16.702928,
5.22472263085938,5.07905940185547,-4.29907638500977,8.46029720170274,16.705875,
5.28218347070313,5.12454923339844,-4.3302010065918,8.53891725110289,16.708895,
5.40428775537109,5.08384780517578,-4.20091411694336,8.52640100317705,16.711835,
5.51681523339844,5.08145360351563,-4.19612571362305,8.59441051199369,16.714787,
5.57427607324219,5.19876948486328,-4.02853159741211,8.62141663120475,16.71782,
5.65807313134766,5.27298973632813,-4.08120403393555,8.74496647710624,16.720779,
