X,Y,Z,Magnitude,Seconds,
0.00775721337890628,0.714525543457031,-0.0342849677734396,0.715389673973002,0.0,
-0.0592804331054687,0.690583526855469,-0.0366791694335955,0.694093033233765,0.00393800000006195,
-0.0568862314453125,0.695371930175781,-0.0558327827148464,0.699925327610113,0.00784900000007838,
-0.0401268198242187,0.669035711914063,-0.0558327827148464,0.672559473289348,0.0118479999999863,
-0.0592804331054687,0.697766131835937,-0.043861774414065,0.701652050336354,0.0157240000000911,
-0.00900219824218745,0.683400921875,-0.0582269843750023,0.685936032952198,0.0195620000000645,
-0.0305500131835937,0.678612518554687,-0.0893516059570327,0.685151051325001,0.0234920000000329,
-0.0688572397460937,0.66424730859375,-0.0654095893554718,0.671002400009972,0.0273770000000013,
-0.0568862314453125,0.716919745117187,-0.0749863959960955,0.723071866311659,0.0312380000000303,
-0.0975876596679687,0.683400921875,-0.0199197578125023,0.69062071217882,0.0351590000000215,
-0.0401268198242187,0.678612518554687,-0.0175255561523464,0.680023718061944,0.0392620000000079,
-0.0449152231445312,0.690583526855469,-0.0271023627929718,0.692573117369728,0.0431760000000168,
-0.0353384165039062,0.714525543457031,-0.0486501777343769,0.717051180688768,0.0470390000000407,
-0.03294421484375,0.671429913574219,-0.0893516059570327,0.678149806179324,0.0509620000000268,
-0.0544920297851562,0.707342938476562,-0.0654095893554718,0.712447772333114,0.0547710000000734,
-0.0927992563476562,0.676218316894531,-0.0701979926757836,0.686156448820573,0.0586270000000013,
-0.0281558115234375,0.6450936953125,-0.0390733710937532,0.646888981033925,0.0626379999999926,
-0.0353384165039062,0.726496551757812,-0.0654095893554718,0.73029066663668,0.0665710000000672,
-0.0568862314453125,0.695371930175781,-0.0797747993164091,0.702240829922623,0.0704269999999951,
-0.0257616098632812,0.669035711914063,-0.0510443793945328,0.671474476824605,0.0743590000000722,
-0.0353384165039062,0.681006720214844,-0.0965342109375023,0.688721867331151,0.0783020000000079,
-0.0449152231445312,0.709737140136719,-0.0390733710937532,0.712229537219709,0.0821880000000874,
-0.0377326181640625,0.678612518554687,-0.0630153876953141,0.682575739313259,0.0861080000000811,
-0.0233674082031249,0.678612518554687,-0.0749863959960955,0.683142697896824,0.0899830000000748,
0.00775721337890628,0.704948736816406,-0.0462559760742209,0.706507261973316,0.093845999999985,
-0.099981861328125,0.709737140136719,-0.0749863959960955,0.720656742331998,0.0977420000000393,
-0.0113963999023437,0.678612518554687,-0.0199197578125023,0.67900046025108,0.101600000000076,
-0.03294421484375,0.709737140136719,-0.00794874951172098,0.710545784590915,0.105462999999986,
-0.099981861328125,0.690583526855469,-0.0462559760742209,0.699315090271441,0.109486000000061,
0.0125456166992188,0.692977728515625,-0.0175255561523464,0.693312822494643,0.113500000000045,
-0.0497036264648437,0.647487896972656,-0.0271023627929718,0.649958125788725,0.117522000000008,
-0.104770264648437,0.70255453515625,-0.125264630859377,0.721284209564755,0.121397999999999,
0.0125456166992188,0.671429913574219,-0.0749863959960955,0.675720712221499,0.125353000000018,
-0.0568862314453125,0.707342938476562,-0.146812445800784,0.724654379813381,0.12920500000007,
-0.061674634765625,0.661853106933594,-0.082169000976565,0.669779844764391,0.133125000000064,
-0.0161848032226562,0.692977728515625,-0.0318907661132837,0.693899921485313,0.137148000000025,
-0.0544920297851562,0.704948736816406,-0.0893516059570327,0.712675109945797,0.141086000000087,
-0.0904050546875,0.692977728515625,-0.0749863959960955,0.702861412880383,0.14503400000001,
-0.0209732065429687,0.669035711914063,-0.0869574042968768,0.674989073519787,0.148968000000082,
-0.0353384165039062,0.652276300292969,-0.0223139594726582,0.65361386796199,0.152875999999992,
-0.0544920297851562,0.661853106933594,-0.0701979926757836,0.667792388878061,0.156819000000041,
-0.099981861328125,0.671429913574219,-0.0989284125976582,0.686003886472964,0.160683000000063,
0.0173340200195313,0.654670501953125,0.0112048637695281,0.654995788803018,0.164743000000044,
-0.114347071289062,0.676218316894531,-0.0630153876953141,0.688707052310668,0.168615000000045,
-0.0209732065429687,0.659458905273438,-0.0725921943359396,0.663773718834696,0.172551999999996,
-0.0401268198242187,0.707342938476562,-0.115687824218753,0.717863404105776,0.176469999999995,
-0.061674634765625,0.678612518554687,-0.0654095893554718,0.68454154387609,0.18044400000008,
-0.0688572397460937,0.681006720214844,-0.0701979926757836,0.688069204818047,0.184505000000058,
-0.042521021484375,0.712131341796875,-0.0654095893554718,0.716392001363181,0.188474000000042,
-0.080828248046875,0.659458905273438,-0.108505219238284,0.673195837798122,0.192469000000074,
-0.0904050546875,0.659458905273438,-0.122870429199221,0.676872413405282,0.196358000000032,
-0.0209732065429687,0.712131341796875,-0.0989284125976582,0.719275854023478,0.200179000000048,
-0.10955866796875,0.683400921875,-0.0534385810546905,0.694187009163831,0.203982999999994,
-0.00181959326171871,0.635516888671875,-0.0318907661132837,0.63631913979552,0.207916000000068,
-0.0927992563476562,0.661853106933594,-0.0965342109375023,0.675262979155273,0.211883000000057,
-0.0497036264648437,0.676218316894531,-0.0199197578125023,0.67833506421144,0.215726000000018,
-0.0377326181640625,0.697766131835937,-0.11089942089844,0.707530922834056,0.219663000000082,
-0.03294421484375,0.716919745117187,-0.0989284125976582,0.724462609835495,0.223573999999985,
-0.0497036264648437,0.659458905273438,-0.00316034619140915,0.661336892979854,0.227474000000029,
-0.0904050546875,0.712131341796875,0.0088106621093722,0.717900933032736,0.231345000000033,
-0.0113963999023437,0.669035711914063,-0.0271023627929718,0.669681416657243,0.235157000000072,
-0.0233674082031249,0.685795123535156,-0.0678037910156277,0.689534873162208,0.239112000000091,
-0.03294421484375,0.700160333496094,-0.101322614257814,0.708220365460547,0.242979999999989,
-0.0137906015624999,0.649882098632813,-0.106111017578128,0.65863227287031,0.246824000000061,
-0.0209732065429687,0.678612518554687,-0.0366791694335955,0.679926604275909,0.250654000000054,
-0.0712514414062499,0.700160333496094,-0.0725921943359396,0.70751034422285,0.254567000000065,
-0.00421379492187496,0.652276300292969,-0.0654095893554718,0.655561242273503,0.258593000000019,
-0.0736456430664062,0.692977728515625,-0.0390733710937532,0.697974599315742,0.262667000000079,
-0.0736456430664062,0.640305291992187,-0.0845632026367209,0.650050369537657,0.266536000000087,
-0.080828248046875,0.681006720214844,-0.11089942089844,0.69469564574403,0.270455000000084,
-0.0281558115234375,0.728890753417969,-0.0390733710937532,0.73048012188518,0.274266000000011,
-0.0281558115234375,0.688189325195312,-0.0678037910156277,0.692094394653947,0.278096000000005,
-0.052097828125,0.707342938476562,-0.0294965644531278,0.709872005098481,0.282045000000039,
-0.0161848032226562,0.731284955078125,-0.115687824218753,0.740556078937605,0.285916000000043,
-0.052097828125,0.692977728515625,-0.125264630859377,0.706132808796159,0.289933000000019,
-0.0281558115234375,0.712131341796875,-0.043861774414065,0.714036170615124,0.293887000000041,
-0.0401268198242187,0.704948736816406,-0.0941400092773463,0.712337858431651,0.297782999999981,
-0.080828248046875,0.671429913574219,-0.0199197578125023,0.676570861976718,0.301641000000018,
-0.0688572397460937,0.671429913574219,-0.0606211860351582,0.677668338130123,0.305465000000027,
-0.0951934580078125,0.513412604003906,0.736647966796873,0.902942148414573,0.309314000000086,
-0.315460010742187,0.827053021484375,1.27055493701172,1.54849655042843,0.313302000000022,
0.134649901367188,4.29146282373047,3.49955668261719,5.53910468742463,0.316400000000044,
0.417165697265625,-1.58390805029297,-3.57052081982422,3.92828344898331,0.319344000000001,
-0.724868494628906,-3.04437106298828,-0.889014960449222,3.253302491864,0.322381000000064,
0.0340934316406251,2.37610149560547,2.82918021777344,3.69476404986031,0.325373000000013,
0.199293346191406,4.50454677148438,-0.771699079101564,4.57451406413978,0.328391000000011,
-0.554880176757813,-0.365259405273438,-0.836342523925783,1.06807081273951,0.331383000000073,
0.536875780273438,-2.15133384375,-0.221032697265628,2.22830167705562,0.334381000000008,
-0.279546985839844,1.20054848046875,0.849175444824217,1.49685072981255,0.337489000000005,
-0.248422364257813,1.95711620507813,-0.383838410156253,2.00981328395304,0.340471000000093,
0.0700064565429688,1.00422394433594,-0.256945722167972,1.03893586831707,0.343600000000038,
0.204081749511719,0.0776679018554687,0.0830309135742162,0.233614631543839,0.346636999999987,
0.108313683105469,-0.482575286621094,0.188375786621091,0.529241153152717,0.34963700000003,
-0.518967151855469,1.45433385644531,-0.278493537109377,1.56906740483631,0.352716999999984,
-0.0473094248046875,1.82782931542969,-0.161177655761721,1.83553164634565,0.35578200000009,
0.405194688964844,0.149493951660156,0.135703350097653,0.452710256981231,0.35886000000005,
-0.0137906015624999,-0.48496948828125,0.0543004936523417,0.488194765299794,0.361796000000027,
-0.705714881347656,1.25322091699219,-0.292858747070316,1.46777464424137,0.364765000000034,
0.105919481445313,1.58840914941406,-0.0510443793945328,1.59275487478762,0.367858000000069,
0.414771495605469,0.197377984863281,0.0375410820312485,0.460871777521215,0.370863999999983,
-0.03294421484375,0.00823605371093744,-0.0199197578125023,0.0393694122855466,0.373887000000082,
-0.629100428222656,1.296316546875,-0.139629840820314,1.44765342224559,0.376811000000089,
-0.10955866796875,1.07844419580078,-0.0271023627929718,1.0843336770812,0.379875000000084,
0.477020738769531,0.273992437988281,0.0207816704101536,0.550502060955295,0.382863000000043,
0.105919481445313,0.513412604003906,-0.0486501777343769,0.526477234354252,0.385822000000076,
-0.387286060546875,1.00661814599609,-0.115687824218753,1.0847369530052,0.388975000000073,
-0.332219422363281,0.862966046386719,-0.00794874951172098,0.924739598173733,0.391914000000043,
0.184928136230469,0.309905462890625,-0.0462559760742209,0.363839836771218,0.395033000000012,
0.443501915527344,0.503835797363281,-0.0247081611328142,0.671680692745952,0.398022000000083,
-0.12871228125,1.04013696923828,-0.0893516059570327,1.05187236659581,0.401004000000057,
-0.717685889648437,0.791139996582031,-0.0941400092773463,1.07230493412043,0.404047999999989,
-0.114347071289062,0.3386358828125,-0.000766144531251456,0.35742146104848,0.407032000000072,
0.702075694824219,0.570873443847656,-0.0342849677734396,0.905528701460433,0.410141000000067,
0.165774522949219,1.05929058251953,-0.0510443793945328,1.07339799671016,0.413132000000019,
-0.770358326171875,0.743255963378906,-0.122870429199221,1.07748713225367,0.416047000000049,
-0.420804883789063,0.336241681152344,-0.0797747993164091,0.544517434955809,0.419106000000056,
0.532087376953125,0.659458905273438,-0.0678037910156277,0.850059044145399,0.422130000000038,
0.50335695703125,0.992252936035156,-0.0199197578125023,1.1128031775716,0.425155000000018,
-0.475871521972656,0.681006720214844,-0.0749863959960955,0.834174333090412,0.428176000000008,
-0.676984461425781,0.467922772460938,-0.177937067382814,0.841974632603787,0.431136000000038,
0.17774553125,0.781563189941406,-0.113293622558595,0.809487454296347,0.434227000000078,
0.728411913085938,0.901273272949219,0.0782425102539044,1.16146429909358,0.43720200000007,
-0.157442701171875,0.609180670410156,-0.108505219238284,0.638484671668484,0.440221000000065,
-0.732051099609375,0.520595208984375,-0.134841437500002,0.908350371455776,0.443175999999994,
-0.0568862314453125,0.788745794921875,-0.0701979926757836,0.793904106621637,0.446138000000019,
0.479414940429688,0.834235626464844,-0.0749863959960955,0.96509622585257,0.449173000000087,
0.04367023828125,0.657064703613281,-0.0223139594726582,0.658892272858999,0.452166000000034,
-0.449535303710937,0.460740167480469,-0.153995050781253,0.661874585459765,0.455231000000026,
-0.229268750976562,0.7217081484375,-0.0678037910156277,0.760279005215538,0.458211000000006,
0.263936791015625,0.865360248046875,-0.00794874951172098,0.9047508890132,0.461187999999993,
0.201687547851563,0.642699493652344,-0.0773805976562532,0.678032641539472,0.464277000000038,
-0.248422364257813,0.470316974121094,-0.127658832519533,0.546999547285108,0.467230000000086,
-0.353767237304687,0.731284955078125,-0.043861774414065,0.813543360226458,0.470297000000073,
0.0795832631835938,0.906061676269531,-0.0247081611328142,0.90988556984374,0.473299999999995,
0.256754186035156,0.66424730859375,0.00402225878906037,0.712154040630524,0.476414000000091,
-0.150260096191406,0.494258990722656,-0.0366791694335955,0.517895170751734,0.479434000000083,
-0.298700599121094,0.669035711914063,-0.0366791694335955,0.733604929919364,0.482449000000088,
0.0364876333007813,0.89409066796875,-0.0462559760742209,0.896029622978658,0.485546999999997,
0.206475951171875,0.726496551757812,-0.0366791694335955,0.756157999097186,0.488559000000009,
-0.12871228125,0.582844452148437,-0.0486501777343769,0.598866718509534,0.49160100000006,
-0.255604969238281,0.621151678710937,-0.122870429199221,0.682832666644119,0.494612000000075,
0.0867658681640626,0.776774786621094,-0.0199197578125023,0.781859438620407,0.497648000000027,
0.156197716308594,0.669035711914063,0.0112048637695281,0.687118664692257,0.500721999999996,
-0.219691944335937,0.630728485351562,-0.0175255561523464,0.668124328069582,0.503675000000044,
-0.1670195078125,0.604392267089844,-0.216244293945314,0.663285099464655,0.506745000000024,
0.127467296386719,0.695371930175781,-0.0534385810546905,0.708975115832474,0.509811000000013,
0.180139732910156,0.925215289550781,0.0590888969726535,0.94443906798529,0.512792999999988,
-0.322642615722656,0.683400921875,-0.16836026074219,0.774261102533981,0.515809999999988,
-0.198144129394531,0.28117504296875,0.00402225878906037,0.344000987451724,0.518789000000083,
0.168168724609375,0.946763104492188,-0.0941400092773463,0.966179816240832,0.521873000000028,
0.103525279785156,1.0664731875,0.0159932670898417,1.07160549074891,0.524866000000088,
-0.14786589453125,0.216531598144531,-0.120476227539065,0.288556367392224,0.527863000000025,
-0.267575977539062,0.518201007324219,-0.151600849121095,0.602587757262008,0.530959000000053,
0.129861498046875,1.07604999414063,0.0183874687499976,1.08401369805554,0.533954999999992,
0.105919481445313,0.731284955078125,-0.0271023627929718,0.739412712997431,0.537034000000062,
-0.099981861328125,0.410461932617187,-0.0558327827148464,0.426136915026328,0.539977000000022,
-0.171807911132812,0.695371930175781,-0.127658832519533,0.727569142504314,0.542949000000021,
0.0293050283203126,0.941974701171875,-0.0199197578125023,0.942640927969928,0.546001000000047,
-0.00181959326171871,0.62594008203125,-0.0725921943359396,0.630138019715866,0.548994999999991,
0.00536301171875003,0.4918647890625,-0.0678037910156277,0.496545150706644,0.552099999999996,
-0.0688572397460937,0.846206634765625,-0.0462559760742209,0.850262667361912,0.555073999999991,
-0.080828248046875,0.846206634765625,-0.0630153876953141,0.852390646059705,0.557994000000008,
-0.0568862314453125,0.558902435546875,-0.082169000976565,0.56776731194193,0.561057000000005,
-0.0113963999023437,0.630728485351562,-0.0630153876953141,0.633971008210156,0.564014000000043,
-0.00660799658203121,0.776774786621094,-0.0127371528320328,0.776907310952433,0.567038000000025,
-0.0856166513671875,0.700160333496094,-0.101322614257814,0.712615587643668,0.570019000000002,
-0.104770264648437,0.604392267089844,-0.0701979926757836,0.617409571555393,0.57307800000001,
-0.052097828125,0.700160333496094,-0.0558327827148464,0.704312413579646,0.576045000000022,
0.0101514150390625,0.692977728515625,-0.101322614257814,0.700419485455686,0.57899400000008,
-0.03294421484375,0.647487896972656,-0.0582269843750023,0.650934927413755,0.582046999999989,
-0.162231104492187,0.70255453515625,-0.0773805976562532,0.725182434306712,0.585013000000004,
-0.0760398447265624,0.738467560058594,-0.106111017578128,0.74991729097041,0.588015000000041,
0.0795832631835938,0.616363275390625,-0.0199197578125023,0.621798986635164,0.590971000000081,
-0.042521021484375,0.566085040527344,0.00162805712890446,0.567682094967715,0.593975999999998,
-0.152654297851562,0.767197979980469,-0.103716815917972,0.789083806095923,0.597090000000094,
-0.0592804331054687,0.822264618164063,-0.0223139594726582,0.824700663768989,0.600051000000008,
0.0747948598632813,0.5684792421875,-0.0247081611328142,0.573910631620122,0.603116999999997,
-0.0281558115234375,0.5684792421875,-0.0678037910156277,0.573200447135824,0.60608000000002,
-0.12871228125,0.803111004882813,-0.0773805976562532,0.817032370473838,0.60898300000008,
-0.0377326181640625,0.707342938476562,-0.0414675727539091,0.709561373438742,0.612083999999982,
0.0676122548828125,0.578056048828125,-0.0342849677734396,0.583005721766389,0.615097999999989,
-0.0281558115234375,0.62594008203125,0.00641646044921629,0.626605862548802,0.618201999999997,
-0.133500684570312,0.769592181640625,-0.0893516059570327,0.786179539488417,0.621176999999989,
-0.0880108530273437,0.77916898828125,-0.0366791694335955,0.784981263483509,0.624190999999996,
0.0676122548828125,0.599603863769531,-0.0534385810546905,0.605765542436038,0.62731000000008,
-0.0137906015624999,0.671429913574219,-0.0725921943359396,0.675483483300847,0.630309000000011,
-0.0951934580078125,0.726496551757812,-0.0965342109375023,0.739038488879167,0.633374000000003,
-0.0473094248046875,0.712131341796875,-0.0462559760742209,0.715198465439732,0.636450000000082,
-0.00181959326171871,0.609180670410156,-0.0414675727539091,0.610593121244504,0.63941299999999,
-0.0497036264648437,0.666641510253906,-0.0510443793945328,0.670437828844061,0.642452000000048,
-0.0975876596679687,0.731284955078125,-0.120476227539065,0.747539670014328,0.645432000000028,
-0.061674634765625,0.6450936953125,-0.0701979926757836,0.651826199597039,0.648505999999998,
-0.0185790048828124,0.601998065429687,-0.0247081611328142,0.602791293425914,0.651485000000093,
-0.0137906015624999,0.709737140136719,-0.0582269843750023,0.712255130195852,0.65442500000006,
-0.0712514414062499,0.724102350097656,-0.0223139594726582,0.727941545803483,0.657433000000083,
-0.0640688364257812,0.647487896972656,-0.103716815917972,0.6588646070561,0.660393999999997,
-0.0161848032226562,0.652276300292969,-0.0558327827148464,0.654861526893222,0.66341900000009,
-0.0233674082031249,0.733679156738281,-0.0725921943359396,0.737631864466845,0.666384999999991,
-0.0592804331054687,0.750438568359375,-0.106111017578128,0.760218233589478,0.669475000000034,
-0.0951934580078125,0.642699493652344,-0.0414675727539091,0.651033020037052,0.672441000000049,
-0.0544920297851562,0.647487896972656,0.030358477050779,0.650485660998782,0.675461000000041,
-0.0185790048828124,0.755226971679688,-0.0534385810546905,0.757343145555597,0.678510000000074,
-0.0305500131835937,0.719313946777344,-0.0893516059570327,0.725485745429238,0.681490000000053,
-0.052097828125,0.640305291992187,-0.0701979926757836,0.64624516154804,0.684528,
-0.0544920297851562,0.661853106933594,0.0112048637695281,0.664187071117657,0.687508000000093,
-0.0305500131835937,0.707342938476562,-0.0582269843750023,0.710392650319232,0.690519999999992,
-0.0233674082031249,0.731284955078125,-0.082169000976565,0.736257744279293,0.69359600000007,
-0.0712514414062499,0.661853106933594,-0.0773805976562532,0.670159727194762,0.696530000000052,
-0.052097828125,0.673824115234375,-0.0965342109375023,0.682694643195665,0.69959300000005,
-0.0473094248046875,0.736073358398437,-0.0390733710937532,0.738626359499805,0.702580000000012,
-0.052097828125,0.716919745117187,-0.106111017578128,0.726600063780413,0.705500000000029,
-0.0353384165039062,0.707342938476562,-0.0151313544921905,0.708386754663319,0.708584000000087,
-0.0353384165039062,0.657064703613281,-0.0582269843750023,0.660585505536429,0.711574000000041,
-0.0185790048828124,0.666641510253906,-0.082169000976565,0.671943321521638,0.714630000000056,
-0.0401268198242187,0.685795123535156,-0.118082025878909,0.697042665817146,0.717577000000006,
-0.0305500131835937,0.70255453515625,-0.082169000976565,0.70800277040109,0.720507999999995,
-0.0688572397460937,0.666641510253906,-0.0247081611328142,0.670643508792581,0.723562000000015,
-0.080828248046875,0.671429913574219,-0.0199197578125023,0.676570861976718,0.72653200000002,
-0.0568862314453125,0.709737140136719,-0.0606211860351582,0.714589238383708,0.729579000000058,
-0.0832224497070312,0.695371930175781,-0.0366791694335955,0.701294131504014,0.732539000000088,
-0.0449152231445312,0.652276300292969,-0.0534385810546905,0.656001090806368,0.735500000000002,
-0.0449152231445312,0.678612518554687,-0.0678037910156277,0.683468859338412,0.738557000000014,
-0.0353384165039062,0.714525543457031,-0.0893516059570327,0.720957186954031,0.741528000000017,
-0.052097828125,0.714525543457031,0.00641646044921629,0.716451049906834,0.744609000000082,
-0.0449152231445312,0.676218316894531,-0.11089942089844,0.686722120605857,0.747553000000039,
-0.0664630380859375,0.733679156738281,-0.0510443793945328,0.738449706568823,0.750514000000067,
-0.0497036264648437,0.676218316894531,-0.0223139594726582,0.67840959263175,0.753603999999996,
-0.0209732065429687,0.716919745117187,-0.000766144531251456,0.717226870180579,0.756625999999983,
-0.0257616098632812,0.666641510253906,-0.0701979926757836,0.670822123898777,0.759735000000092,
-0.0688572397460937,0.709737140136719,-0.0127371528320328,0.713183260191352,0.762722000000053,
-0.0592804331054687,0.707342938476562,-0.043861774414065,0.711176530558047,0.765781000000061,
-0.0664630380859375,0.716919745117187,-0.0582269843750023,0.722344542500262,0.768777999999998,
-0.03294421484375,0.681006720214844,-0.0318907661132837,0.682548529580675,0.771757000000093,
-0.0305500131835937,0.671429913574219,-0.0749863959960955,0.676294604246022,0.774851000000012,
-0.0353384165039062,0.690583526855469,-0.0845632026367209,0.696638605365307,0.777887000000078,
-0.0736456430664062,0.657064703613281,-0.0510443793945328,0.663146465077547,0.780896999999982,
-0.0353384165039062,0.726496551757812,-0.0917458076171904,0.733118910281494,0.783876000000078,
-0.0305500131835937,0.678612518554687,-0.0630153876953141,0.682216382631673,0.78684700000008,
-0.0784340463867187,0.676218316894531,-0.0414675727539091,0.682013688518322,0.789953000000082,
-0.052097828125,0.697766131835937,-0.0318907661132837,0.700434707446684,0.792916999999989,
-0.0473094248046875,0.738467560058594,-0.0989284125976582,0.746565033840546,0.795951000000059,
-0.00900219824218745,0.652276300292969,-0.127658832519533,0.664712109877144,0.798882000000049,
-0.0113963999023437,0.697766131835937,-0.11089942089844,0.706615973654453,0.801852000000054,
-0.102376062988281,0.690583526855469,-0.0558327827148464,0.700359740035649,0.804890999999998,
-0.0353384165039062,0.712131341796875,-0.0893516059570327,0.718584414761079,0.807888000000048,
-0.0161848032226562,0.652276300292969,-0.0965342109375023,0.659579543088296,0.810998000000041,
-0.0281558115234375,0.661853106933594,-0.0965342109375023,0.669448383941227,0.813947999999982,
-0.0592804331054687,0.669035711914063,-0.0534385810546905,0.673779367085893,0.81693400000006,
-0.061674634765625,0.669035711914063,-0.0845632026367209,0.67717315335888,0.819981999999982,
-0.0473094248046875,0.697766131835937,-0.0366791694335955,0.700329292463892,0.822948999999994,
-0.0353384165039062,0.683400921875,-0.0701979926757836,0.687905067488467,0.825997000000029,
-0.0353384165039062,0.712131341796875,-0.0342849677734396,0.713831430146955,0.828951000000075,
-0.03294421484375,0.709737140136719,-0.132447235839846,0.722740893863586,0.831958999999983,
-0.0281558115234375,0.676218316894531,-0.0965342109375023,0.683654017546553,0.835020999999983,
-0.0377326181640625,0.688189325195312,-0.0965342109375023,0.695950538233588,0.837959000000069,
-0.0927992563476562,0.688189325195312,-0.0510443793945328,0.696291446133895,0.841037000000028,
-0.10955866796875,0.683400921875,0.00162805712890446,0.692129014213898,0.844021999999995,
-0.0688572397460937,0.678612518554687,-0.0127371528320328,0.682215878492178,0.846947999999998,
-0.042521021484375,0.657064703613281,-0.0223139594726582,0.658817102684676,0.85003800000004,
-0.0113963999023437,0.712131341796875,-0.043861774414065,0.713571847226964,0.852989000000093,
-0.0664630380859375,0.685795123535156,-0.0486501777343769,0.690723625402953,0.856055000000083,
-0.0281558115234375,0.704948736816406,-0.00555454785156506,0.705532652868331,0.858981000000085,
-0.0473094248046875,0.652276300292969,-0.0175255561523464,0.654224501771129,0.86200800000006,
-0.0281558115234375,0.700160333496094,0.0112048637695281,0.700815804114033,0.864992000000029,
-0.0281558115234375,0.671429913574219,-0.0558327827148464,0.674335360329346,0.867930999999999,
-0.0449152231445312,0.704948736816406,-0.115687824218753,0.715788915450385,0.870953999999983,
-0.0736456430664062,0.681006720214844,-0.0630153876953141,0.68786973534735,0.873929000000089,
-0.052097828125,0.692977728515625,-0.0510443793945328,0.696805456768093,0.877012000000036,
-0.0592804331054687,0.716919745117187,-0.11089942089844,0.727864528771443,0.880002999999988,
-0.0449152231445312,0.70255453515625,-0.122870429199221,0.714630949868768,0.88296200000002,
-0.0137906015624999,0.676218316894531,-0.043861774414065,0.677779645644422,0.886004000000071,
-0.0927992563476562,0.688189325195312,-0.0630153876953141,0.697271244479398,0.888922000000093,
-0.0161848032226562,0.671429913574219,-0.108505219238284,0.68033334425088,0.892036000000076,
-0.0209732065429687,0.70255453515625,-0.120476227539065,0.713117992805786,0.894986000000017,
-0.00900219824218745,0.681006720214844,-0.106111017578128,0.689282772599487,0.897977000000083,
-0.0568862314453125,0.683400921875,-0.0725921943359396,0.689595888927824,0.901055000000042,
-0.0401268198242187,0.685795123535156,-0.0342849677734396,0.687823067473774,0.904085000000009,
-0.0904050546875,0.676218316894531,-0.0630153876953141,0.685138836370493,0.907187000000022,
-0.0305500131835937,0.683400921875,-0.0845632026367209,0.689290257123439,0.910167999999999,
-0.0760398447265624,0.659458905273438,-0.0390733710937532,0.66497731845463,0.913129000000026,
-0.052097828125,0.690583526855469,-0.0606211860351582,0.695194015693309,0.916282000000024,
-0.0688572397460937,0.671429913574219,-0.0989284125976582,0.682162941771851,0.919254000000024,
-0.0473094248046875,0.681006720214844,-0.127658832519533,0.694481901976847,0.922313000000031,
-0.0401268198242187,0.673824115234375,-0.153995050781253,0.692360870937775,0.925286000000028,
-0.0473094248046875,0.700160333496094,-0.0606211860351582,0.704370358883039,0.928258000000028,
-0.0497036264648437,0.640305291992187,-0.0175255561523464,0.642470592755346,0.931331999999998,
-0.0904050546875,0.704948736816406,-0.0582269843750023,0.713103202321728,0.93428300000005,
-0.0449152231445312,0.673824115234375,-0.0701979926757836,0.678958079499184,0.937309000000027,
-0.0209732065429687,0.681006720214844,-0.082169000976565,0.686266546679903,0.940251999999987,
-0.0305500131835937,0.697766131835937,-0.101322614257814,0.705745811325043,0.943192000000067,
-0.0688572397460937,0.714525543457031,-0.0175255561523464,0.718049592184597,0.946250000000077,
-0.0209732065429687,0.692977728515625,-0.0223139594726582,0.693654035091498,0.949295000000006,
-0.061674634765625,0.709737140136719,-0.0127371528320328,0.712525651275228,0.952349000000027,
-0.0449152231445312,0.704948736816406,-0.0845632026367209,0.711421839733184,0.955363000000034,
-0.0401268198242187,0.697766131835937,-0.0678037910156277,0.702200178355562,0.958388000000014,
-0.061674634765625,0.704948736816406,-0.0271023627929718,0.708160306838418,0.961383000000069,
-0.0305500131835937,0.688189325195312,-0.0941400092773463,0.695269869881499,0.964350000000081,
-0.0401268198242187,0.673824115234375,-0.0917458076171904,0.681224187148346,0.967397000000005,
-0.00900219824218745,0.681006720214844,-0.0845632026367209,0.686295947672103,0.970402000000036,
-0.0568862314453125,0.678612518554687,-0.0558327827148464,0.683277610706563,0.97343699999999,
-0.0113963999023437,0.712131341796875,-0.0199197578125023,0.712501033438872,0.976399000000015,
-0.052097828125,0.659458905273438,-0.0127371528320328,0.661636204044223,0.979343000000085,
0.000574608398437537,0.671429913574219,-0.0390733710937532,0.672566121170049,0.982444999999984,
-0.0688572397460937,0.70255453515625,-0.0510443793945328,0.707763889303374,0.985377000000085,
-0.0640688364257812,0.700160333496094,-0.0318907661132837,0.703808446500613,0.988433999999984,
-0.0712514414062499,0.704948736816406,0.00641646044921629,0.708569446424422,0.991445999999996,
-0.061674634765625,0.683400921875,-0.00316034619140915,0.686185520381422,0.994401000000039,
-0.0497036264648437,0.712131341796875,-0.0582269843750023,0.716234514780306,0.997434999999996,
-0.00421379492187496,0.676218316894531,-0.0271023627929718,0.676774339230055,1.00037400000008,
-0.0137906015624999,0.678612518554687,-0.0606211860351582,0.681454370612516,1.00341500000002,
-0.0305500131835937,0.666641510253906,-0.000766144531251456,0.667341586802868,1.00638200000003,
-0.0473094248046875,0.671429913574219,-0.0510443793945328,0.675027287733915,1.00931700000001,
-0.0712514414062499,0.695371930175781,0.0183874687499976,0.699254594683433,1.01236700000004,
-0.0544920297851562,0.695371930175781,-0.0917458076171904,0.703511759533434,1.01534100000003,
-0.0353384165039062,0.652276300292969,-0.0390733710937532,0.654400415596993,1.01844900000003,
-0.0377326181640625,0.659458905273438,-0.0701979926757836,0.664257146287238,1.02141400000005,
-0.042521021484375,0.695371930175781,-0.0582269843750023,0.699099807076123,1.02439100000004,
-0.0497036264648437,0.704948736816406,-0.0247081611328142,0.707130585711981,1.02743300000009,
-0.052097828125,0.707342938476562,-0.0941400092773463,0.71547925033137,1.03038100000003,
