X,Y,Z,Magnitude,Seconds,
-0.00679953271484374,0.0291134921874999,-0.0172382519531205,0.0345106708554196,0.0,
-0.02834734765625,-0.0211647426757813,-0.0052672436523391,0.0357667765862322,0.00384500000018306,
-0.0115879360351562,-0.0020111293945313,-0.0675164868164018,0.0685332101613938,0.00774000000001251,
0.0051714755859375,0.0267192905273437,0.0234631762695354,0.0359330667585698,0.0117510000000038,
-0.0235589443359375,0.0410845004882812,-0.0124498486328086,0.0489689572032652,0.0156930000002831,
0.000383072265625006,0.000383072265624951,-0.0531512768554645,0.0531540376649565,0.0195730000004914,
-0.0259531459960937,-0.018770541015625,-0.0483628735351509,0.0580074696370288,0.0234630000004472,
-0.00440533105468749,0.0482671054687499,0.0378283862304727,0.0614825765305476,0.027381000000787,
-0.00679953271484374,-0.0259531459960938,0.0138863696289118,0.0302097781141397,0.0312040000007983,
-0.0211647426757812,0.000383072265624951,-0.0363918652343695,0.0421006048903011,0.0351000000000568,
0.000383072265625006,0.0339018955078124,0.00430956298828633,0.0341768576164242,0.0389990000003309,
0.0315076938476563,-0.0546835659179689,0.0234631762695354,0.0673316255095462,0.0428550000005998,
-0.00440533105468749,-0.02834734765625,-0.0052672436523391,0.0291671547556289,0.0467160000007425,
-0.00201112939453124,-0.0020111293945313,-0.0363918652343695,0.0365028373982025,0.0506290000002991,
-0.0211647426757812,-0.0163763393554688,-0.00287304199218319,0.0269144049443111,0.0544720000007146,
-0.0211647426757812,0.0147482822265624,-0.0435744702148391,0.0506378575343613,0.0582650000005742,
0.00756567724609375,-0.0211647426757813,-0.0339976635742136,0.0407556981688391,0.0620250000001761,
-0.0498951625976562,0.0315076938476562,-0.0483628735351509,0.0762969826324815,0.0658430000003136,
0.0362960971679688,-0.00440533105468754,0.0378283862304727,0.052609888957589,0.0696870000001582,
-0.02834734765625,-0.0307415493164063,0.0234631762695354,0.0479493025410447,0.0735090000007403,
-0.0546835659179687,0.0554497104492186,-0.0962469067382763,0.123808036197548,0.0774110000002111,
0.0219308872070313,-0.0259531459960938,-0.0746990917968695,0.0820639014187068,0.0813850000004095,
-0.0451067592773437,0.0243250888671874,-0.00287304199218319,0.0513281993760705,0.0852260000001479,
0.0051714755859375,0.0219308872070312,-0.000478840332027275,0.0225374635104984,0.0892130000001998,
-0.0427125576171875,-0.0331357509765625,0.0210689746093795,0.0580193266254703,0.0930740000003425,
0.00277727392578125,0.00995987890624994,-0.0268150585937459,0.0287395164481244,0.0970060000008743,
-0.0235589443359375,0.0554497104492186,-0.0244208569335882,0.0650082494803296,0.100993000000017,
0.019536685546875,0.0171424838867187,-0.045968671874995,0.052807817886321,0.104996000000028,
0.0171424838867188,0.00517147558593745,-0.00766144531249502,0.0194757967184583,0.109017000000676,
-0.0331357509765625,0.0315076938476562,-0.0531512768554645,0.0701125594722132,0.112944000000425,
0.0171424838867188,-0.0139821376953125,-0.000478840332027275,0.02212677600557,0.11691300000075,
-0.057077767578125,-0.00440533105468754,0.0186747729492236,0.0602164897524665,0.120865000000776,
-0.0211647426757812,0.0362960971679687,-0.0220266552734323,0.0474397148462475,0.124837000000298,
-0.02834734765625,-0.018770541015625,0.028251579589849,0.0442047178306246,0.128754000000299,
-0.037924154296875,0.000383072265624951,-0.0316034619140577,0.0493676718961627,0.132567999999992,
-0.00201112939453124,0.0315076938476562,-0.0723048901367136,0.0788972531253237,0.136395000000448,
0.0171424838867188,-0.0618661708984376,0.0186747729492236,0.0668583203509193,0.140305000000808,
-0.0307415493164062,0.0027772739257812,0.028251579589849,0.0418438508523467,0.144180000000233,
-0.0211647426757812,0.0171424838867187,0.00430956298828633,0.0275750506706416,0.147999000000709,
0.0051714755859375,0.0027772739257812,0.0545877978515676,0.0549025052659565,0.15208100000018,
0.019536685546875,0.000383072265624951,-0.0220266552734323,0.0294449039572689,0.156116000000111,
-0.0139821376953125,0.0171424838867187,-0.0172382519531205,0.0280450041671658,0.160007000000405,
-0.018770541015625,0.00995987890624994,-0.0579396801757763,0.0617133610875123,0.163954999999987,
0.0219308872070313,0.0243250888671874,-0.0483628735351509,0.0584092569603577,0.167851000000155,
0.00756567724609375,0.0195366855468749,0.0330399829101609,0.0391223979972247,0.171732000000702,
-0.0331357509765625,-0.00440533105468754,0.00670376464844225,0.0340928936135357,0.175573000000441,
-0.00679953271484374,-0.0331357509765625,-0.0435744702148391,0.0551629050397538,0.179520000000593,
-0.0355299526367187,0.0195366855468749,0.0545877978515676,0.0679991712508951,0.183440000000701,
-0.0331357509765625,0.00995987890624994,0.00909796630859816,0.0357763912596046,0.187322000000677,
0.00995987890625,-0.0163763393554688,-0.0316034619140577,0.0369616352920963,0.19130000000041,
0.000383072265625006,0.0219308872070312,-0.045968671874995,0.0509335778440821,0.195283000000018,
-0.0163763393554687,0.000383072265624951,-0.0244208569335882,0.0294059430798767,0.199281000000155,
0.00995987890625,0.0267192905273437,-0.0292092602539018,0.0408203449114768,0.203205000000708,
-0.00440533105468749,-0.018770541015625,-0.00766144531249502,0.0207469972766424,0.20702700000038,
0.0291134921875,0.0147482822265624,-0.0435744702148391,0.0544411766082426,0.210947000000488,
-0.0403183559570312,-0.00919373437500004,-0.0770932934570272,0.0874841155575528,0.214860000000044,
0.00277727392578125,0.0195366855468749,-0.0387860668945272,0.0435172875735958,0.218760000000657,
0.019536685546875,0.0123540805664062,-0.0890643017578086,0.0920149728924848,0.222642000000633,
-0.037924154296875,-0.018770541015625,-0.00287304199218319,0.0424126049593902,0.22674300000017,
0.00756567724609375,0.0530555087890624,-0.0794874951171831,0.0958665132622573,0.230668000000151,
0.00277727392578125,-0.0211647426757813,-0.0268150585937459,0.0342739981673701,0.234666000000288,
-0.00679953271484374,0.0243250888671874,-0.122583124999995,0.125158164449233,0.238545000000158,
0.0219308872070313,0.0291134921874999,-0.0435744702148391,0.0568092747317112,0.242455000000518,
0.019536685546875,0.0315076938476562,-0.045968671874995,0.0590553608718638,0.246287000000848,
-0.018770541015625,-0.0115879360351563,-0.0387860668945272,0.0446203143951371,0.250236000000768,
-0.0355299526367187,0.0027772739257812,-0.0507570751953086,0.0620191217868208,0.254265000000487,
0.00756567724609375,-0.0163763393554688,0.0114921679687541,0.0213891067485202,0.2581880000007,
-0.037924154296875,0.00756567724609369,-0.000478840332027275,0.0386744132391019,0.262117000000217,
0.00995987890625,-0.02834734765625,0.00191536132813042,0.0301071406146244,0.266068000000814,
0.0051714755859375,0.000383072265624951,0.0378283862304727,0.0381821648011012,0.269971000000623,
-0.0115879360351562,0.0291134921874999,-0.0866701000976509,0.0921606311818843,0.273856000000706,
-0.018770541015625,0.0554497104492186,-0.0172382519531205,0.0610259037566893,0.277837999999974,
-0.0115879360351562,0.0171424838867187,-0.00766144531249502,0.0220645135826203,0.281691000000137,
0.0219308872070313,0.0123540805664062,0.0114921679687541,0.027670508577741,0.285594000000856,
-0.018770541015625,-0.0115879360351563,0.0138863696289118,0.0260661606886188,0.289453000000321,
-0.00440533105468749,0.0362960971679687,-0.0196324536132764,0.0414999620024581,0.293274999999994,
-0.0163763393554687,0.00756567724609369,-0.000478840332027275,0.0180458652034506,0.297174000000268,
0.019536685546875,-0.00679953271484379,-0.0603338818359322,0.0637816041244648,0.301354000000174,
0.0147482822265625,-0.0163763393554688,0.114442839355473,0.11654552672266,0.305246000000807,
-0.114538607421875,0.510348025878906,-1.26222311523437,1.36630208692682,0.309195000000727,
0.318811893066406,-2.35551136132813,-4.63565325439453,5.20954469137995,0.312920000000304,
-0.715483224121094,-4.08173075830078,2.09205341064454,4.642104016526,0.315915000000132,
1.14241726416016,4.63555748632813,0.535822331542974,4.80422896888606,0.318916000000172,
-0.734636837402344,5.55971932714844,-0.259052619628902,5.61402516375488,0.321944000000258,
0.426550967773438,-8.76478920556641,-0.790565388183589,8.81070196857865,0.324907000000167,
0.366695926269531,-1.51035817529297,1.42885955078125,2.11122886866294,0.327974000000722,
-1.81202758447266,7.958709390625,-0.632548078613276,8.1868563077087,0.330924000000778,
1.04425499609375,-1.17756414453125,-0.180043964843746,1.58415328823603,0.333933000000798,
1.89898498876953,-5.92766023828125,0.246123930664067,6.22927579075755,0.337097999999969,
-3.0354646328125,2.68428313330078,0.147961662597661,4.05478903648232,0.340060000000449,
0.369090127929688,3.44563926123047,-0.373974299316401,3.48547187875863,0.343151000000034,
2.51908321875,-3.20305874902344,0.284431157226567,4.08488270283061,0.346120000000155,
-2.07778396875,-1.38585968896484,-0.0579396801757763,2.49822943398542,0.349041000000398,
-0.9668743984375,3.15833506201172,-0.127371528320309,3.30547273056565,0.352136000000428,
2.09291532324219,-0.636474569335938,0.0402225878906304,2.18792419527047,0.355115000000296,
-0.150451632324219,-1.91497825585938,-0.0651222851562459,1.92198291514446,0.358228000000054,
-1.62767405664063,1.46563448828125,-0.105823713378902,2.19285338000827,0.361203000000387,
0.888631888183594,0.464858194335938,-0.0363918652343695,1.0035358196862,0.36415500000021,
1.02270718115234,-1.21108296777344,0.0593762011718795,1.58624634482702,0.367240000000493,
-1.32839884912109,0.275716263183594,-0.13934253662109,1.36384724314792,0.3702200000007,
-0.21988348046875,0.697095755371094,-0.00766144531249502,0.730992431481834,0.373236000000361,
1.33874180029297,-0.48803406640625,0.0641646044921913,1.42636739807608,0.376273000000765,
-0.600561544433594,-0.255796505371094,-0.0866701000976509,0.658496565718808,0.379313000000366,
-0.885471541992188,0.438521976074219,-0.0794874951171831,0.991301990847423,0.382304000000659,
0.922150711425781,-0.0810197841796876,0.0713472094726608,0.928448471543324,0.385256000000481,
0.294869876464844,-0.179182052246094,-0.0794874951171831,0.354080095138824,0.388300000000527,
-0.957297591796875,0.27811046484375,0.0402225878906304,0.997688311293824,0.391295000000355,
0.165582986816406,-0.157634237304688,0.00430956298828633,0.228658808329841,0.394332000000759,
0.651605923828125,-0.102567599121094,0.0713472094726608,0.663476312054097,0.397292999999991,
-0.418602218261719,0.266139456542969,-0.045968671874995,0.498167789260375,0.400300000000243,
-0.320439950195313,-0.1241154140625,0.0162805712890677,0.344022462479674,0.403428000000531,
0.405003152832031,-0.2007298671875,-0.000478840332027275,0.452017989324607,0.406401000000187,
0.0458729038085938,0.273322061523438,0.0210689746093795,0.277944552582606,0.40945499999998,
-0.3539587734375,0.0362960971679687,-0.0603338818359322,0.360893886427019,0.412444000000505,
0.0362960971679688,-0.282132723632813,-0.081881696777339,0.296008264548866,0.415353000000323,
0.165582986816406,0.132064163574219,0.0210689746093795,0.212844005118046,0.418456000000333,
-0.133692220703125,0.211072818359375,-0.0172382519531205,0.250444608361015,0.421410000000833,
-0.10496180078125,-0.186364657226563,0.0186747729492236,0.214703312110275,0.424475000000712,
0.132064163574219,-0.0403183559570313,-0.0507570751953086,0.147114900027217,0.427479000000858,
-0.00919373437499998,0.208678616699219,-0.0148440502929645,0.209407821363858,0.430477000000792,
-0.076231380859375,-0.0666545742187501,-0.0339976635742136,0.106817118574297,0.433556000000863,
0.0243250888671875,-0.0690487758789063,-0.00287304199218319,0.0732645737656397,0.436547000000246,
-0.0115879360351562,0.129669961914062,-0.0052672436523391,0.130293219854459,0.43960000000061,
-0.0403183559570312,0.00995987890624994,0.049799394531254,0.0648440337315973,0.442670000000362,
-0.00440533105468749,-0.0690487758789063,-0.0651222851562459,0.0950160639894551,0.445621000000756,
-0.00201112939453124,0.0362960971679687,-0.0172382519531205,0.0402319355918583,0.448687000000064,
-0.0546835659179687,0.0482671054687499,-0.0555454785156204,0.0916804561254224,0.451684999999998,
0.000383072265625006,-0.0355299526367188,0.00670376464844225,0.0361588818852281,0.454770000000281,
-0.0498951625976562,0.00517147558593745,-0.0651222851562459,0.0822020889902069,0.457791000000725,
-0.00201112939453124,0.0123540805664062,0.00191536132813042,0.0126624072395457,0.460743999999977,
0.0362960971679688,-0.0570777675781251,-0.0148440502929645,0.0692504444060048,0.463767000000189,
-0.00919373437499998,0.0339018955078124,0.028251579589849,0.0450778772803496,0.466743000000861,
-0.0139821376953125,0.0171424838867187,-0.0363918652343695,0.0425879417625882,0.469796000000315,
0.0434787021484375,-0.0307415493164063,-0.0435744702148391,0.068805340267958,0.472751000000244,
-0.0642603725585937,-0.0139821376953125,-0.0555454785156204,0.0860824943843357,0.47587300000032,
-0.0115879360351562,0.0147482822265624,-0.0124498486328086,0.0225120150401748,0.478868000000148,
0.019536685546875,0.00517147558593745,-0.0220266552734323,0.0298931394207441,0.481920000000173,
-0.0211647426757812,0.0410845004882812,-0.0124498486328086,0.0478631512113803,0.48497800000041,
0.0051714755859375,-0.0115879360351563,-0.0316034619140577,0.0340558838711333,0.48797900000045,
-0.00201112939453124,-0.0115879360351563,-0.0292092602539018,0.0314881848885672,0.491011000000071,
0.00756567724609375,0.0267192905273437,0.0186747729492236,0.0334650131208956,0.494002000000364,
-0.0546835659179687,0.0506613071289062,-0.0675164868164018,0.100575028777244,0.496997000000192,
0.0219308872070313,-0.037924154296875,0.00191536132813042,0.0438505861059805,0.500088000000687,
0.019536685546875,-0.0139821376953125,-0.0555454785156204,0.0605184471067905,0.50303200000053,
-0.018770541015625,0.0434787021484374,-0.0339976635742136,0.0582972716260136,0.506081000000449,
-0.0139821376953125,0.0027772739257812,-0.0124498486328086,0.0189264934937603,0.509078000000045,
-0.00201112939453124,0.00995987890624994,-0.0387860668945272,0.0400949225515582,0.512030000000777,
0.00277727392578125,0.0291134921874999,-0.0172382519531205,0.033947989752115,0.515115000000151,
0.00756567724609375,0.0386902988281249,-0.0172382519531205,0.0430271545189887,0.518151000000216,
-0.0475009609375,0.0434787021484374,0.0976834277343794,0.116999106340331,0.521218000000772,
-0.02834734765625,-0.265373312011719,-0.0890643017578086,0.281352122250427,0.524161000000277,
0.0410845004882813,0.0841801303710937,0.028251579589849,0.0978385521100322,0.527104000000691,
-0.057077767578125,0.668365335449219,0.00909796630859816,0.6708597962114,0.530168000000231,
-0.133692220703125,-0.579013729492188,0.00191536132813042,0.59425093809434,0.533133000000817,
0.242197439941406,-0.425784823242188,-0.0387860668945272,0.491382411775899,0.536160999999993,
-0.284526925292969,0.821594241699219,-0.00287304199218319,0.869471634718623,0.539161000000604,
0.0291134921875,-0.0427125576171875,-0.0794874951171831,0.0948167700649911,0.542136000000028,
0.251774246582031,-0.607744149414063,0.0234631762695354,0.658250516923175,0.545269000000189,
-0.262979110351563,0.309235086425781,0.00191536132813042,0.405940906742689,0.548264000000017,
-0.0235589443359375,0.445704581054688,-0.0100556469726509,0.446440044650339,0.551332000000002,
0.309235086425781,-0.466486251464844,-0.0579396801757763,0.56266576937055,0.554291000000376,
-0.229460287109375,-0.1241154140625,-0.0339976635742136,0.263082687565579,0.557214000000386,
-0.179182052246094,0.462463992675781,-0.0196324536132764,0.496351272390456,0.560301000000436,
0.235014834960938,-0.176787850585938,-0.00766144531249502,0.294184660563376,0.563317000000097,
-0.0498951625976562,-0.255796505371094,-0.00287304199218319,0.260633140220118,0.566470000000663,
-0.229460287109375,0.35472491796875,-0.0172382519531205,0.422822596509047,0.569490000000769,
0.141640970214844,0.0123540805664062,0.0809240161132863,0.163595489344746,0.57257700000082,
0.0219308872070313,-0.255796505371094,0.00430956298828633,0.256771081523799,0.575589000000036,
-0.176787850585937,0.187130801757812,-0.0866701000976509,0.271631344531986,0.578573000000688,
0.038690298828125,0.127275760253906,0.00670376464844225,0.133195340879781,0.581722000000809,
0.08657433203125,-0.162422640625,-0.0172382519531205,0.184860451380641,0.584787000000688,
-0.148057430664063,0.0339018955078124,-0.0627280834960899,0.1643324488741,0.587817000000541,
-0.00201112939453124,0.127275760253906,-0.0244208569335882,0.129613047348722,0.590830000000096,
0.1057279453125,-0.114538607421875,-0.0196324536132764,0.157108001849119,0.593839000000116,
-0.107356002441406,-0.037924154296875,-0.0100556469726509,0.114300782041817,0.596932000000379,
-0.0546835659179687,0.115304751953125,-0.0316034619140577,0.131469604888087,0.599938000000293,
0.110516348632812,-0.0451067592773439,-0.0196324536132764,0.120970724898676,0.602991000000657,
-0.0259531459960937,-0.0020111293945313,-0.0220266552734323,0.0340996183420097,0.605934000000161,
-0.0690487758789062,0.0602381137695312,0.0114921679687541,0.0923495193572142,0.608957000000373,
0.0817859287109375,-0.0235589443359375,-0.0148440502929645,0.0863962257418368,0.611988999999994,
-0.0810197841796875,0.0458729038085937,-0.0244208569335882,0.0962543868388678,0.615043000000696,
-0.0977791958007812,0.06742071875,-0.0268150585937459,0.121759483472952,0.618191000000479,
0.038690298828125,-0.0163763393554688,0.0114921679687541,0.0435567863681097,0.621192000000519,
0.00277727392578125,-0.0259531459960938,-0.0268150585937459,0.03742093538301,0.624201000000539,
-0.112144405761719,0.0650265170898438,-0.115400520019527,0.173557182764823,0.627261999999973,
0.0243250888671875,-0.0020111293945313,-0.0555454785156204,0.0606716966415755,0.630259000000478,
0.019536685546875,-0.0139821376953125,-0.0172382519531205,0.0295692337927011,0.633326000000125,
-0.0235589443359375,0.0123540805664062,-0.0435744702148391,0.0510527337110262,0.636334000000716,
-0.0163763393554687,0.00517147558593745,0.00430956298828633,0.0177059589848002,0.63937100000021,
0.0123540805664062,-0.0235589443359375,-0.0220266552734323,0.0345372365339163,0.642441000000872,
-0.0235589443359375,0.0219308872070312,0.0234631762695354,0.0398309968814065,0.645435000000361,
-0.0307415493164062,0.0219308872070312,0.0330399829101609,0.0501761610604506,0.648521000000073,
-0.00679953271484374,-0.0355299526367188,-0.0052672436523391,0.0365561901078438,0.651491000000533,
0.00995987890625,-0.00440533105468754,0.0402225878906304,0.0416708855935177,0.65444000000025,
0.0051714755859375,0.0243250888671874,0.00191536132813042,0.0249423879600533,0.65755800000079,
-0.0211647426757812,-0.02834734765625,-0.0268150585937459,0.0443910556200499,0.66053600000032,
0.0339018955078125,-0.0211647426757813,0.0785298144531303,0.0881147922292152,0.663618000000497,
0.0291134921875,0.0291134921874999,0.0354341845703168,0.0543210115044494,0.666591000000153,
-0.00201112939453124,-0.0211647426757813,-0.0244208569335882,0.0323785303456529,0.669599000000744,
-0.0307415493164062,-0.00679953271484379,-0.045968671874995,0.0557171005478948,0.672549000000799,
-0.0331357509765625,0.0291134921874999,-0.0435744702148391,0.0620024828102575,0.675519000000349,
-0.0115879360351562,0.0219308872070312,-0.000478840332027275,0.0248087356248958,0.678545000000668,
-0.0163763393554687,0.0123540805664062,-0.0172382519531205,0.0267948712951936,0.681539000000157,
-0.02834734765625,0.0243250888671874,-0.0124498486328086,0.0393736053533419,0.684617000000799,
-0.00201112939453124,0.0267192905273437,0.00909796630859816,0.0282973164571931,0.687643000000207,
-0.0355299526367187,-0.00679953271484379,-0.0100556469726509,0.0375463342491153,0.690580000000409,
0.0171424838867188,0.0195366855468749,0.0521935961914117,0.0583071035068287,0.693678000000546,
0.0362960971679688,0.0386902988281249,-0.0172382519531205,0.0557808499705365,0.696650000000773,
0.00277727392578125,-0.0211647426757813,-0.0268150585937459,0.0342739981673701,0.69975500000055,
-0.00679953271484374,-0.02834734765625,0.0138863696289118,0.0322898904574682,0.702762000000803,
-0.018770541015625,0.0243250888671874,-0.0890643017578086,0.0942151421270584,0.705769000000146,
-0.0139821376953125,0.0219308872070312,-0.0842758984374949,0.0881980217786383,0.708886000000348,
-0.00201112939453124,0.0506613071289062,0.0306457812500049,0.0592433674758117,0.711949000000459,
-0.00679953271484374,0.00756567724609369,-0.0148440502929645,0.017994970031438,0.715048000000024,
0.0434787021484375,0.0267192905273437,0.0210689746093795,0.0552106848163272,0.718104000000494,
-0.0235589443359375,0.0291134921874999,-0.0579396801757763,0.0689900414874978,0.721080000000256,
-0.0355299526367187,0.0171424838867187,-0.0172382519531205,0.0430511279593595,0.72422700000061,
0.019536685546875,0.00756567724609369,-0.0339976635742136,0.0399344798746014,0.727266000000782,
0.0219308872070313,0.00995987890624994,-0.0890643017578086,0.0922638219949763,0.730362000000241,
-0.057077767578125,0.0386902988281249,-0.0220266552734323,0.0723877359616025,0.733355000000302,
0.019536685546875,-0.0020111293945313,0.00191536132813042,0.0197331024579594,0.736393000000135,
-0.00679953271484374,-0.00919373437500004,-0.0244208569335882,0.026965471445333,0.739498000000822,
-0.00919373437499998,-0.00440533105468754,-0.00287304199218319,0.0105917922821541,0.742460000000392,
-0.0139821376953125,0.0434787021484374,-0.0268150585937459,0.0529617322453603,0.74551000000065,
-0.0139821376953125,0.0123540805664062,-0.00766144531249502,0.0201698097524068,0.748490000000857,
0.00277727392578125,0.00995987890624994,-0.0196324536132764,0.0221888637195201,0.751505000000179,
0.0123540805664062,-0.0331357509765625,-0.0052672436523391,0.035753952999845,0.754549000000225,
-0.0139821376953125,0.0410845004882812,-0.0100556469726509,0.0445483152424515,0.757633000000169,
-0.0307415493164062,-0.018770541015625,-0.0196324536132764,0.0410220586912669,0.76070400000026,
-0.00679953271484374,0.0362960971679687,0.0258573779296913,0.0450804204524064,0.763750000000073,
0.00756567724609375,0.000383072265624951,0.0545877978515676,0.0551109235164533,0.76683200000025,
-0.00919373437499998,0.0123540805664062,-0.00287304199218319,0.0156653256808839,0.769849000000249,
-0.0355299526367187,-0.0307415493164063,-0.0052672436523391,0.0472775236707002,0.772830000000795,
-0.0307415493164062,0.0291134921874999,0.0234631762695354,0.0484061868192481,0.775895000000673,
-0.0115879360351562,0.0386902988281249,-0.00766144531249502,0.0411086028616983,0.778931000000739,
-0.00679953271484374,0.0123540805664062,-0.045968671874995,0.0480830089088905,0.782019000000219,
0.019536685546875,0.000383072265624951,-0.0100556469726509,0.0219760065197649,0.785037999999986,
-0.00679953271484374,-0.00440533105468754,-0.0603338818359322,0.0608754292324404,0.787978000000294,
-0.0307415493164062,0.00995987890624994,-0.0100556469726509,0.0338431393082672,0.791073000000324,
-0.0331357509765625,0.0195366855468749,-0.0339976635742136,0.0513371327933655,0.79404599999998,
-0.0139821376953125,0.0291134921874999,-0.0339976635742136,0.0468928217362499,0.797108000000662,
0.000383072265625006,0.0315076938476562,-0.0387860668945272,0.049972397392011,0.800153000000137,
-0.0211647426757812,-0.00679953271484379,0.0114921679687541,0.025024985560322,0.803114000000278,
0.0123540805664062,0.0171424838867187,0.0114921679687541,0.0240532323206201,0.806218000000626,
-0.018770541015625,-0.00679953271484379,-0.0339976635742136,0.0394259810742219,0.809135000000424,
-0.018770541015625,0.0291134921874999,-0.0339976635742136,0.0485362726821528,0.81221000000005,
0.00756567724609375,0.00756567724609369,0.0426167895507863,0.0439393866138357,0.815234000000601,
-0.00679953271484374,-0.018770541015625,-0.0675164868164018,0.0704062699423059,0.818138999999974,
-0.0163763393554687,0.000383072265624951,-0.0746990917968695,0.0764740841744659,0.821208000000297,
-0.00201112939453124,0.0147482822265624,-0.0866701000976509,0.0879389715712704,0.824224000000868,
0.0123540805664062,-0.00440533105468754,-0.0124498486328086,0.0180839425823712,0.827330000000075,
-0.00679953271484374,0.00517147558593745,0.00909796630859816,0.0124800158585061,0.83035000000018,
0.0051714755859375,0.0219308872070312,-0.0244208569335882,0.0332277929871103,0.833348000000115,
-0.00201112939453124,0.0291134921874999,-0.045968671874995,0.0544495992891052,0.836412000000564,
-0.0259531459960937,0.0386902988281249,-0.0387860668945272,0.060620656509567,0.839375000000473,
0.0410845004882813,-0.00679953271484379,-0.00287304199218319,0.0417423549383676,0.842473000000609,
-0.00201112939453124,0.00995987890624994,-0.0794874951171831,0.0801342979583207,0.845506000000569,
0.00277727392578125,0.0267192905273437,0.0162805712890677,0.0314116338040834,0.848565000000235,
-0.00679953271484374,-0.0020111293945313,-0.0699106884765577,0.0702693578300533,0.851636000000326,
-0.0139821376953125,0.0410845004882812,0.00430956298828633,0.0436120245809829,0.85467300000073,
-0.0259531459960937,0.0482671054687499,0.00430956298828633,0.0549713706448729,0.85778400000072,
0.00756567724609375,0.00756567724609369,-0.0723048901367136,0.0730922436518838,0.860797000000275,
-0.018770541015625,-0.00679953271484379,-0.0363918652343695,0.0415082487030711,0.863890999999967,
0.000383072265625006,0.0027772739257812,-0.0866701000976509,0.0867154325697354,0.866998000000422,
-0.0307415493164062,-0.00679953271484379,-0.0555454785156204,0.0638480750143849,0.869944000000032,
-0.0115879360351562,0.0219308872070312,0.0162805712890677,0.0296698681618374,0.87304100000074,
-0.0259531459960937,-0.0115879360351563,-0.0411802685546832,0.0500365922789038,0.876035000000229,
0.00756567724609375,0.0243250888671874,-0.0483628735351509,0.0546618418749828,0.879146000000219,
-0.00919373437499998,0.0147482822265624,-0.000478840332027275,0.0173857950193821,0.882157000000007,
-0.0163763393554687,0.0362960971679687,-0.0196324536132764,0.0443962205056866,0.885104000000865,
0.00277727392578125,-0.0235589443359375,-0.0100556469726509,0.0257653477508302,0.888161000000764,
-0.0211647426757812,-0.0020111293945313,0.00909796630859816,0.0231249641064796,0.891172000000552,
-0.0403183559570312,0.00995987890624994,-0.0603338818359322,0.0732457938198316,0.894216000000597,
-0.0259531459960937,-0.0115879360351563,0.0402225878906304,0.0492514225710173,0.897245000000112,
0.0267192905273438,0.0219308872070312,-0.0316034619140577,0.0468365573556108,0.900324000000182,
-0.0451067592773437,0.0291134921874999,-0.0268150585937459,0.0600105201380714,0.903397000000041,
-0.0139821376953125,0.0243250888671874,-0.0435744702148391,0.051826099384684,0.906425000000127,
-0.018770541015625,0.0219308872070312,-0.0435744702148391,0.0522688385006849,0.90948600000047,
-0.0451067592773437,0.0291134921874999,-0.0172382519531205,0.0563859245756874,0.912488000000849,
0.00756567724609375,-0.0259531459960938,-0.0052672436523391,0.0275417703675658,0.915463000000273,
-0.00919373437499998,0.00756567724609369,-0.0411802685546832,0.0428669889563746,0.918553000000429,
0.00756567724609375,0.00517147558593745,-0.0316034619140577,0.0329053557476789,0.921581000000515,
0.0243250888671875,0.0506613071289062,-0.0339976635742136,0.0656819542714081,0.924697000000378,
-0.0259531459960937,0.0219308872070312,0.0138863696289118,0.0367064144565067,0.927678000000014,
0.0147482822265625,-0.0259531459960938,-0.0172382519531205,0.0344707839500084,0.930652000000009,
-0.0163763393554687,0.0195366855468749,-0.0196324536132764,0.0321760750825888,0.933733000000757,
-0.0546835659179687,0.0267192905273437,-0.0220266552734323,0.0647254695643381,0.936675000000832,
-0.00201112939453124,-0.0139821376953125,-0.00287304199218319,0.014415241456912,0.9397570000001,
-0.00679953271484374,0.0339018955078124,-0.0196324536132764,0.0397618585964025,0.942741000000751,
-0.00679953271484374,-0.018770541015625,-0.0675164868164018,0.0704062699423059,0.945686000000023,
-0.0259531459960937,0.00517147558593745,-0.00287304199218319,0.0266188714471397,0.948731000000407,
-0.0307415493164062,0.00995987890624994,-0.0363918652343695,0.0486683664964905,0.951700000000528,
-0.0498951625976562,0.0458729038085937,-0.0435744702148391,0.0805765785385737,0.954771000000619,
-0.018770541015625,0.0123540805664062,0.028251579589849,0.0360985909140799,0.957790000000386,
-0.018770541015625,0.00517147558593745,-0.0675164868164018,0.070267726317169,0.96081200000026,
-0.0451067592773437,0.00756567724609369,-0.0699106884765577,0.0835425853559883,0.963833000000704,
-0.00679953271484374,0.0027772739257812,0.0234631762695354,0.0245859215050879,0.966844000000492,
-0.00440533105468749,0.0195366855468749,-0.0124498486328086,0.0235815129887527,0.969942000000628,
-0.0355299526367187,-0.0139821376953125,-0.0196324536132764,0.0429337972205535,0.972901000000093,
-0.0307415493164062,0.0482671054687499,-0.045968671874995,0.0734021465534586,0.975956000000224,
0.00277727392578125,0.0027772739257812,-0.0483628735351509,0.0485220984448802,0.978951000000052,
0.0051714755859375,0.00517147558593745,-0.0100556469726509,0.0124339999803152,0.981976000000031,
-0.037924154296875,-0.0139821376953125,-0.117794721679683,0.124536493082381,0.985050000000228,
-0.018770541015625,-0.037924154296875,-0.0196324536132764,0.0466477000936798,0.988035000000309,
0.0123540805664062,0.0386902988281249,0.0306457812500049,0.0508795286777896,0.991187999999966,
0.00277727392578125,-0.00919373437500004,-0.00287304199218319,0.010024588395826,0.994204999999965,
-0.0115879360351562,0.0315076938476562,-0.0124498486328086,0.0358052197889128,0.997215000000324,
-0.00201112939453124,0.0195366855468749,0.00670376464844225,0.0207525223541796,1.00034300000061,
-0.00440533105468749,-0.00919373437500004,0.0138863696289118,0.0172268091917863,1.00333000000046,
-0.02834734765625,0.0171424838867187,0.0138863696289118,0.0359203025380004,1.00647200000003,
0.0147482822265625,0.0027772739257812,-0.0339976635742136,0.0371626991430732,1.00951000000077,
0.0147482822265625,0.0147482822265624,-0.0292092602539018,0.0358915664446238,1.01249600000028,
-0.0235589443359375,0.0147482822265624,-0.0268150585937459,0.0386210182963133,1.01557500000035,
-0.0139821376953125,0.00756567724609369,-0.0316034619140577,0.0353768066913343,1.01859300000069,
-0.00440533105468749,-0.0307415493164063,-0.0483628735351509,0.0574753628318381,1.02170700000079,
-0.0139821376953125,-0.0020111293945313,-0.0292092602539018,0.0324457347050794,1.02464600000076,
-0.0522893642578125,0.0171424838867187,-0.0339976635742136,0.0646829459502118,1.02760000000035,
-0.0235589443359375,0.0195366855468749,0.028251579589849,0.0416516228939863,1.03068900000017,
-0.00919373437499998,-0.02834734765625,-0.0052672436523391,0.0302628605157455,1.03366100000039,
