X,Y,Z,Magnitude,Seconds,
-0.0110133276367188,-0.00373495458984374,0.00210689746093884,0.0118187261721735,0.0,
-0.0110133276367188,-0.0348595761718749,0.0332315190429711,0.04940462826922,0.0037649999999303,
0.0320823022460938,-0.00373495458984374,0.035625720703127,0.0480875865355615,0.0075499999998101,
-0.0181959326171875,-0.0468305844726562,0.0452025273437524,0.0675830162401953,0.0113219999998364,
0.015322890625,-0.0157059628906249,0.00928950244140836,0.0238277800694133,0.0151359999999841,
-0.00383072265624995,-0.0109175595703124,0.0308373173828134,0.0329364188461464,0.0189139999997678,
-0.0181959326171875,-0.0348595761718749,-0.0074699091796866,0.0400260110158974,0.0227110000000721,
0.0201112939453125,-0.0181001645507812,-0.0218351191406239,0.0347685566109,0.0264609999999266,
0.024899697265625,-0.0157059628906249,-0.0266235224609357,0.0396923688190741,0.030221999999867,
0.00574608398437504,-0.00852335791015624,-0.0146525141601543,0.0178986391223925,0.0339469999998983,
0.00574608398437504,-0.0444363828125001,0.0284431157226575,0.0530718421634959,0.0376889999997729,
0.0177170922851563,-0.0133117612304687,0.0763271489257829,0.0794791293940516,0.0414059999998244,
0.0201112939453125,0.00344765039062511,0.0164721074218761,0.0262236679411666,0.0451480000001538,
0.0129286889648438,-0.0683783994140624,0.0428083256835947,0.081702565765167,0.0489840000000186,
0.024899697265625,-0.0396479794921876,-0.0457771357421866,0.0654790299140975,0.0527149999998073,
-0.0134075292968751,-0.0444363828125001,-0.0074699091796866,0.0470122697012001,0.0564249999997628,
-0.00861912597656256,-0.0324653745117187,0.00689530078125244,0.0342904512605179,0.0601169999999911,
0.024899697265625,-0.0396479794921876,-0.0170467158203103,0.0498251715701122,0.0638370000001487,
0.0225054956054688,-0.0540131894531251,0.0380199223632829,0.0697813475354053,0.0677820000000793,
-0.00383072265624995,-0.0181001645507812,-0.0242293208007798,0.0304852485523993,0.0717190000000301,
0.0272938989257813,-0.0324653745117187,0.00928950244140836,0.0434194923549994,0.0755110000000059,
0.0225054956054688,-0.0348595761718749,-0.0050757075195289,0.0418025141606856,0.0793049999997493,
-0.00622492431640631,-0.0157059628906249,-0.0218351191406239,0.027607958652387,0.0830499999997301,
0.0225054956054688,-0.0300711728515624,-0.0218351191406239,0.0434458881483801,0.0868709999999737,
-0.00383072265624995,-0.00612915624999988,-0.0194409174804662,0.0207410285397883,0.0906239999999343,
-0.0205901342773438,0.00344765039062511,0.0212605107421897,0.0297967991534962,0.0944639999997889,
0.015322890625,-0.0875320126953125,0.0428083256835947,0.0986366918110638,0.0982539999999972,
0.00335188232421879,-0.0324653745117187,0.0332315190429711,0.0465786379706933,0.102072000000135,
0.0225054956054688,0.00344765039062511,0.00450109912109475,0.0232086949000083,0.105849999999919,
0.0392649072265625,-0.0252827695312499,0.0236547124023456,0.0523497544742909,0.109583999999813,
-0.0110133276367188,-0.0157059628906249,-0.0242293208007798,0.0309035700595012,0.113318000000163,
-0.00622492431640631,0.00584185205078125,0.0260489140625015,0.0274120929876541,0.117075999999997,
0.03447650390625,-0.0252827695312499,0.0571735356445338,0.0713909023256097,0.120918999999958,
0.0129286889648438,-0.0492247861328126,0.0547793339843761,0.0747730298967658,0.124675000000025,
-0.00861912597656256,-0.0109175595703124,0.0428083256835947,0.0450115006126644,0.128369999999904,
0.0488417138671875,-0.0372537778320312,0.0691445439453133,0.092489593650572,0.132106999999905,
-0.0110133276367188,-0.0228885678710937,0.0404141240234388,0.0477334405360149,0.135870999999952,
0.0368707055664063,0.0226012636718751,0.0236547124023456,0.0492931178499385,0.139900000000125,
-0.0277727392578125,-0.0683783994140624,0.0475967290039083,0.0878201523807775,0.143775999999889,
0.0416591088867188,0.00584185205078125,0.0260489140625015,0.0494788289317188,0.147629999999936,
0.000957680664062543,-0.0300711728515624,0.00450109912109475,0.0304212505038958,0.15139999999974,
-0.00861912597656256,-0.0276769711914062,-0.0146525141601543,0.0324807672037362,0.155228999999963,
-0.0445321508789063,-0.0324653745117187,-0.00986411083984251,0.0559858346972565,0.159055999999964,
0.0584185205078125,-0.0516189877929687,-0.0050757075195289,0.0781217399058429,0.162852999999814,
-0.0134075292968751,0.0513316835937501,0.0404141240234388,0.0666933655096017,0.166674999999941,
0.03447650390625,-0.0133117612304687,-0.0170467158203103,0.0406991747940066,0.170588999999836,
-0.0301669409179688,-0.0181001645507812,0.00689530078125244,0.0358497622583124,0.174391000000014,
0.0201112939453125,0.0297838686523437,0.0475967290039083,0.0596405196818934,0.178172999999788,
0.0177170922851563,-0.0588015927734374,0.0523851323242202,0.0807200393976612,0.181907000000137,
-0.0541089575195313,0.00105344873046875,-0.0218351191406239,0.0583580454261741,0.18565099999978,
0.0320823022460938,-0.0204943662109374,0.0140779057617202,0.0405891684373257,0.189363999999841,
0.03447650390625,-0.0109175595703124,0.00928950244140836,0.037337880017188,0.193147999999837,
-0.0014365209960937,-0.00612915624999988,0.0332315190429711,0.0338225369659415,0.19683299999997,
0.0416591088867188,-0.0228885678710937,0.0164721074218761,0.0503060455148581,0.200558999999885,
-0.0397437475585938,-0.0611957944335937,0.0452025273437524,0.0858356522933365,0.204244000000017,
0.024899697265625,-0.0204943662109374,0.0332315190429711,0.0463071034314513,0.208152000000155,
-0.00622492431640631,-0.0372537778320312,0.0475967290039083,0.0607621778524669,0.21205000000009,
0.0512359155273437,-0.0157059628906249,-0.0433829340820289,0.0689483522632155,0.215886999999839,
0.0225054956054688,-0.0157059628906249,0.0380199223632829,0.0468901812672922,0.219694999999774,
0.00814028564453129,0.0417548769531251,-0.0362003291015611,0.0558587309809891,0.223472000000129,
0.0105344873046875,-0.0492247861328126,0.00689530078125244,0.0508094495685369,0.227248000000145,
0.0201112939453125,-0.0420421811523437,-0.00986411083984251,0.0476372734616702,0.231033999999909,
0.0129286889648438,-0.0396479794921876,-0.0074699091796866,0.0423664114519435,0.23475899999994,
0.03447650390625,-0.0228885678710937,-0.0577481440429679,0.071044802773987,0.238492999999835,
0.03447650390625,-0.0635899960937499,0.0260489140625015,0.0768821360826843,0.242378999999801,
0.00574608398437504,-0.0109175595703124,-0.00986411083984251,0.0157959257654469,0.246156000000155,
0.0272938989257813,-0.0372537778320312,-0.0266235224609357,0.0533067803338098,0.249893000000156,
-0.0445321508789063,-0.0468305844726562,-0.0266235224609357,0.0698929756998528,0.253639000000021,
0.0272938989257813,-0.00852335791015624,0.0212605107421897,0.0356316413550394,0.257399999999961,
-0.0349553442382813,-0.0564073911132812,-0.0218351191406239,0.0698601624025357,0.261128999999983,
0.0464475122070312,-0.00134075292968738,0.0212605107421897,0.0510996900740068,0.26495900000009,
0.015322890625,-0.0588015927734374,0.0619619389648456,0.0867853684101308,0.268752999999833,
0.024899697265625,-0.00852335791015624,0.0691445439453133,0.0739838530450379,0.272482999999738,
0.00574608398437504,-0.0348595761718749,-0.0074699091796866,0.0361110381350495,0.276226999999835,
0.0416591088867188,0.0297838686523437,0.0475967290039083,0.0699142960846138,0.28023499999972,
-0.0445321508789063,-0.0276769711914062,0.0643561406250015,0.083011083792326,0.284051999999974,
0.0464475122070312,-0.00373495458984374,0.0499909306640642,0.0683404303810694,0.287839000000076,
-0.0948103857421875,0.0345722719726562,0.0164721074218761,0.102252538143811,0.291740000000118,
0.297838686523437,-0.147387054199219,0.0787213505859388,0.341508239979073,0.295548999999937,
-0.377326181640625,0.0106302553710937,-0.0601423457031238,0.38223703565644,0.299363999999969,
0.393606752929688,0.0609084902343751,0.100269165527346,0.410718913236332,0.302831999999853,
0.132638771972656,-0.475392681640625,0.00450109912109475,0.493570162673127,0.305785999999898,
-0.415633408203125,0.465528570800781,-0.0577481440429679,0.626739841071853,0.30871900000011,
0.261925661621094,0.0872447084960939,0.00450109912109475,0.276110396887756,0.311761999999817,
0.190099611816406,-0.705236041015625,0.0380199223632829,0.731396780452752,0.314730000000054,
-0.23367408203125,0.527777813964844,0.114634375488283,0.58846753314881,0.317751999999928,
-0.0876277807617187,-0.0348595761718749,-0.103237975585936,0.139828100234498,0.320686999999907,
0.305021291503906,-0.458633270019531,0.0667503422851574,0.55483157159151,0.323637999999846,
-0.0205901342773438,0.321876471191406,-0.0290177241210916,0.323837064971505,0.326657000000068,
-0.367749375,0.173435968261719,-0.0816901606445288,0.414720291577226,0.329617999999755,
0.26431986328125,-0.372442010253906,0.0212605107421897,0.457198042913581,0.332648000000063,
0.199676418457031,0.111186725097656,0.0188663090820338,0.229323129108575,0.335625000000164,
-0.300711728515625,0.20456058984375,0.0859039555664083,0.373700505975083,0.338554999999815,
0.147003981933594,-0.231184112304688,-0.0218351191406239,0.274832743526538,0.341564999999719,
0.204464821777344,-0.0420421811523437,0.0667503422851574,0.219155233876978,0.344534999999723,
-0.439575424804688,0.113580926757813,-0.0529597407226543,0.457090707795286,0.347561999999925,
0.372058937988281,-0.00612915624999988,0.0691445439453133,0.378479045457883,0.350524999999834,
0.400789357910156,-0.219213104003906,0.0595677373046897,0.460689493811898,0.353465000000142,
-0.4826710546875,-0.0731668027343749,-0.040988732421873,0.489902851840104,0.356449999999768,
0.123061965332031,0.3386358828125,0.0954807622070337,0.372739968867332,0.359414000000015,
0.261925661621094,-0.413143438476563,0.0547793339843761,0.492233002148024,0.362436999999773,
-0.147482822265625,-0.00852335791015624,0.0116837041015643,0.148190213695208,0.365365999999995,
-0.051714755859375,0.28117504296875,0.0499909306640642,0.290229071443115,0.368388999999752,
0.0584185205078125,-0.288644952148437,-0.0314119257812475,0.296167758239114,0.37133300000005,
0.1302445703125,0.0968215151367189,0.0236547124023456,0.164004875866833,0.374297999999726,
-0.0876277807617187,-0.00612915624999988,0.0332315190429711,0.0939176680687085,0.377288000000135,
0.0320823022460938,-0.111474029296875,-0.0553539423828102,0.128529343974089,0.380235999999968,
0.044053310546875,0.104004120117188,0.0475967290039083,0.122568347395897,0.383260000000064,
-0.032561142578125,-0.0420421811523437,0.0523851323242202,0.0746456635757599,0.386191999999937,
0.0919373437499999,-0.0564073911132812,0.0523851323242202,0.119910262432531,0.389196000000084,
-0.032561142578125,-0.0588015927734374,-0.00986411083984251,0.0679349394740796,0.392291999999998,
-0.0397437475585938,0.0776679018554689,0.00450109912109475,0.0873620532149394,0.39534999999978,
0.00574608398437504,-0.104291424316406,0.0236547124023456,0.107094650127529,0.39846099999977,
0.14939818359375,-0.0420421811523437,0.0236547124023456,0.156993336406346,0.401410999999825,
-0.109175595703125,0.0489374819335937,0.0236547124023456,0.121957915913526,0.404353999999785,
-0.0205901342773438,-0.0564073911132812,-0.0218351191406239,0.063894599377811,0.407337000000098,
0.190099611816406,0.080062103515625,0.00928950244140836,0.206480259801522,0.410343999999895,
-0.142694418945313,-0.0731668027343749,-0.038594530761717,0.164938218813071,0.41333399999985,
0.0201112939453125,0.0393606752929687,0.0667503422851574,0.0800583231079627,0.416318000000047,
0.0464475122070312,-0.0803494077148437,0.0332315190429711,0.0985785603884123,0.419244000000162,
-0.0373495458984375,0.0345722719726562,-0.040988732421873,0.0653475841460318,0.422279999999773,
0.108696755371094,0.0321780703125001,0.0499909306640642,0.123893123238939,0.425255000000107,
-0.0972045874023437,-0.125839239257812,-0.0433829340820289,0.164822100819673,0.428245000000061,
0.0751779321289062,0.0609084902343751,-0.0146525141601543,0.0978583764070451,0.431244999999763,
0.0584185205078125,-0.0611957944335937,-0.000287304199217076,0.084603376637007,0.434197999999924,
-0.0181959326171875,-0.0755610043945312,0.0404141240234388,0.0876005637510483,0.43720600000006,
0.0320823022460938,0.0656968935546876,-0.0888727656249984,0.115081381682623,0.440176000000065,
2.466985390625,3.55165451074219,-4.64025012158203,6.34288482254522,0.443218999999772,
-5.27346857666016,-3.06591887792969,9.37480784655762,11.1846480299984,0.446171999999933,
-2.88644952148438,-19.5811219296875,-10.3504210810547,22.3356921410667,0.449037999999746,
18.739775524292,18.5555177645264,-2.38251795605469,26.4794791871258,0.452017000000069,
-14.6826811010742,3.58038493066406,6.34434709521484,16.3905771903289,0.454979000000094,
-16.2508831884766,-20.6704836850586,-7.29541976269531,27.2870527850427,0.45796399999972,
18.739775524292,11.2370418398438,4.19914240771485,22.2504627585927,0.460959000000003,
5.53395771728516,18.5555177645264,4.6396755131836,19.9112660670784,0.463976000000002,
-20.486225925293,-16.4303525449219,-7.55399354199219,27.3258989942696,0.466887000000042,
11.8642269067383,-4.28456752294922,3.08105023242188,12.9850017130531,0.469827999999779,
13.9687301660156,13.4947740053711,2.34842452441406,19.5639833790019,0.472875999999815,
-14.2397537939453,-10.3873875546875,-3.39287105664062,17.9493727559056,0.47580999999991,
-1.63667625488281,2.38807250390625,0.763463025390626,2.99407335219912,0.478807999999844,
7.50677988525391,6.80058616357422,1.63974083300781,10.2610168313517,0.481781999999839,
-2.57759750732422,-9.42491848730469,-1.79354434765625,9.93427897379127,0.484684000000016,
-0.741244833984375,2.50059998193359,0.219979248535157,2.61740998762917,0.487740000000031,
0.738371791992187,5.91951995263672,0.852048486816408,6.025935279835,0.490718000000015,
-0.944751975097656,-5.76657835058594,-0.773614440429686,5.89444327060145,0.493727000000035,
1.99532766357422,-0.623833184570313,0.145758997070315,2.0956493056861,0.496681999999964,
0.565989272460938,4.3225874453125,0.363631348144533,4.37462385083192,0.499649999999747,
-2.54647288574219,-0.207242095703125,-0.0840843623046865,2.55627534198407,0.502619999999752,
1.80139732910156,-1.99571073583984,0.00210689746093884,2.68847505427474,0.505600999999842,
0.76231380859375,1.08802100244141,0.172095215332034,1.33960024173874,0.508618999999726,
-2.02453692382813,-0.224001507324219,-0.237313268554686,2.05066916362905,0.511535000000094,
1.07356002441406,0.590027057128906,0.124211182128908,1.23129666284368,0.51449300000013,
0.384029946289063,-0.556795538085938,0.0188663090820338,0.676650728587185,0.517512999999781,
-0.65505357421875,-0.552007134765625,-0.119997387207029,0.864989268641772,0.520433000000139,
0.297838686523437,1.17900066552734,0.198431433593752,1.23212235039463,0.523471999999856,
-0.154665427246094,-0.525670916503906,-0.141545202148436,0.565938469353794,0.526393000000098,
0.257137258300781,-0.609467974609375,0.0404141240234388,0.662724741579397,0.529447999999775,
-0.0636857641601563,0.714525543457031,0.150547400390627,0.732985094373416,0.532572000000073,
-0.38690298828125,-0.0851378110351562,-0.0625365473632797,0.40106506824322,0.535616000000118,
0.470221206054688,-0.391595623535156,0.102663367187501,0.620479558049811,0.538686999999754,
0.182917006835938,0.099215716796875,0.140970593750001,0.251346569802661,0.541666000000077,
-0.489853659667969,0.173435968261719,0.0140779057617202,0.519841158824133,0.544589999999971,
0.0799663354492187,-0.125839239257812,-0.0218351191406239,0.150688092993598,0.547618000000057,
0.396000954589844,-0.0396479794921876,0.119422778808595,0.415512356509703,0.550600999999915,
-0.216914670410156,-0.0444363828125001,0.0667503422851574,0.2312621338477,0.553609000000051,
-0.166636435546875,0.125551935058594,-0.0050757075195289,0.208702546356169,0.556541999999808,
0.281079274902344,-0.0492247861328126,0.0452025273437524,0.288915051230827,0.559580000000096,
0.024899697265625,-0.2742797421875,-0.0074699091796866,0.275508931690996,0.56251199999997,
-0.113963999023438,0.199772186523438,0.0475967290039083,0.234866277259296,0.565502999999808,
-0.0229843359375,-0.0157059628906249,0.0260489140625015,0.0381248330179311,0.568523999999798,
0.11109095703125,-0.207242095703125,-0.0314119257812475,0.237228151885119,0.57151500000009,
-0.0205901342773438,0.156676556640625,-0.0122583124999984,0.158498464521489,0.574538999999731,
-0.15705962890625,-0.00373495458984374,0.0284431157226575,0.159658033778353,0.577478000000156,
0.0392649072265625,-0.14020444921875,0.00210689746093884,0.145614077400348,0.580429000000095,
0.11109095703125,0.0297838686523437,0.00210689746093884,0.11503355416108,0.583471999999801,
-0.101992990722656,-0.00612915624999988,0.0140779057617202,0.103142251980091,0.586390999999821,
0.0320823022460938,-0.0157059628906249,0.0164721074218761,0.0393355019117492,0.589422000000013,
0.0416591088867188,-0.0324653745117187,0.0380199223632829,0.0650768498925056,0.592369999999846,
-0.0541089575195313,-0.0228885678710937,-0.0170467158203103,0.0611739842032421,0.595283999999992,
0.0296881005859375,-0.00852335791015624,0.0236547124023456,0.0389047087805969,0.598300000000108,
0.03447650390625,-0.0731668027343749,0.0284431157226575,0.0857380964098288,0.601278000000093,
-0.0612915625,-0.0252827695312499,-0.0457771357421866,0.0805693504108124,0.604262999999719,
0.0272938989257813,0.0441490786132812,0.0164721074218761,0.0544557470235261,0.60724399999981,
0.0392649072265625,-0.142598650878906,0.00689530078125244,0.148066381548475,0.610169000000042,
-0.00622492431640631,0.0609084902343751,0.0571735356445338,0.0837699650439984,0.613199999999779,
-0.0301669409179688,0.0465432802734376,-0.0194409174804662,0.0587730425913299,0.61614499999996,
0.0703895288085937,-0.144992852539062,-0.0577481440429679,0.171208823352412,0.619151999999758,
0.0177170922851563,0.070485296875,0.0284431157226575,0.078045392347083,0.622123000000101,
-0.0349553442382813,0.0321780703125001,-0.000287304199217076,0.0475119652672443,0.625066000000061,
0.024899697265625,-0.111474029296875,0.00928950244140836,0.114598206736446,0.628079999999954,
0.0560243188476562,-0.00134075292968738,0.0236547124023456,0.060828178828566,0.63103799999999,
-0.0469263525390625,0.0178128603515626,0.0188663090820338,0.0536219933880071,0.634046000000126,
0.03447650390625,-0.0827436093749999,-0.00268150585937299,0.0896790091809343,0.636989000000085,
0.0296881005859375,-0.0276769711914062,-0.0792959589843729,0.0890800042769533,0.639913999999862,
-0.0134075292968751,0.0178128603515626,-0.0649307490234357,0.0686517443660045,0.642934999999852,
-0.0158017309570313,0.00105344873046875,-0.0266235224609357,0.0309776758923918,0.64587500000016,
0.015322890625,-0.118656634277344,0.0452025273437524,0.127896271694666,0.648912999999993,
0.0464475122070312,0.0130244570312501,0.0140779057617202,0.0502513213937412,0.651886999999988,
0.000957680664062543,0.247656219726563,-0.108026378906247,0.270192928962069,0.654901999999765,
0.0464475122070312,0.271598236328125,-0.112814782226561,0.297741747921914,0.657870999999886,
-0.0253785375976563,0.154282354980469,0.100269165527346,0.185744504049152,0.660824000000048,
-0.599986936035156,-1.69404132666016,1.26145697070313,2.19568532098315,0.663844000000154,
0.932302126464844,-0.329346380371094,-1.42483729199219,1.73430608657354,0.666862000000037,
-1.05967365478516,2.14146973291016,0.682060168945315,2.48475490656075,0.670000999999957,
-1.73244432128906,-4.95973239111328,-0.500675451171873,5.27740320851374,0.673021000000062,
3.539587734375,2.52454199853516,0.600657312500001,4.38893869161618,0.676065999999992,
-1.49062995361328,1.54531351953125,0.0284431157226575,2.14727281524431,0.679076999999779,
-1.94073986572266,-3.35561727880859,-0.570107299316405,3.9181195593011,0.681998999999905,
3.10384303222656,2.30427544580078,0.564744287597659,3.90672023687338,0.685042000000067,
-1.23205617431641,-0.559189739746094,-0.237313268554686,1.37367141964175,0.687986999999794,
-0.748427438964844,-1.26787343115234,-0.232524865234373,1.490541673946,0.690933999999743,
1.48775691162109,2.13428712792969,0.471370422851564,2.64401063690409,0.693975000000137,
-1.11952869628906,-1.54560082373047,-0.297168310058591,1.93145939968566,0.696934999999939,
0.415154567871094,-0.0228885678710937,-0.0050757075195289,0.415816022503039,0.699955000000045,
0.328963308105469,1.04971377587891,0.191248828613283,1.11655361886279,0.702949999999873,
-0.772369455566406,-0.563978143066406,-0.0912669672851543,0.960705772370505,0.705840999999964,
0.290656081542969,-0.288644952148437,-0.0194409174804662,0.41009122815682,0.708889999999883,
0.350511123046875,0.465528570800781,0.0739329472656269,0.587401888235628,0.711882999999943,
-0.662236179199219,-0.542430328125,-0.0266235224609357,0.856443944376048,0.714869999999792,
0.534864650878906,0.372154706054687,0.112240173828127,0.661193751195089,0.717841000000135,
-0.125935007324219,0.0417548769531251,-0.040988732421873,0.13886386140632,0.720762999999806,
-0.31028853515625,-0.508911504882813,-0.0553539423828102,0.598610018115985,0.723754999999983,
0.489374819335938,0.503835797363281,0.160124207031252,0.720401267476788,0.726737999999841,
-0.336624753417969,-0.123445037597656,-0.0481713374023425,0.361767024020053,0.729722999999922,
-0.0445321508789063,-0.283856548828125,-0.0792959589843729,0.298069625902685,0.732658999999785,
0.3600879296875,0.214137396484375,0.0811155522460947,0.426729275414665,0.73561299999983,
-0.295923325195313,-0.109079827636719,-0.00268150585937299,0.315398499783339,0.738605000000007,
0.0272938989257813,-0.0444363828125001,0.0380199223632829,0.0645373034185646,0.741559999999936,
0.276290871582031,0.0154186586914062,-0.00268150585937299,0.276733755131308,0.744596000000001,
-0.228885678710938,-0.0635899960937499,-0.0721133540039052,0.248259294585041,0.747527999999875,
0.0105344873046875,0.139917145019531,0.0332315190429711,0.144194718180288,0.750574000000142,
0.182917006835938,-0.1210508359375,0.0116837041015643,0.219655287240073,0.753523999999743,
0.00814028564453129,-0.149781255859375,-0.0481713374023425,0.157547347182732,0.756456999999955,
-0.0445321508789063,0.0321780703125001,0.0691445439453133,0.0883148267752547,0.759477999999945,
-0.0158017309570313,0.0202070620117187,-0.0864785639648424,0.0902028939768852,0.762439000000086,
0.199676418457031,0.00584185205078125,0.0140779057617202,0.200257301374623,0.765468000000055,
-0.0253785375976563,-0.195271087402344,0.00928950244140836,0.1971323479328,0.768395000000055,
-0.113963999023438,0.154282354980469,0.0164721074218761,0.192515371995722,0.771346999999878,
0.144609780273437,0.0202070620117187,0.00928950244140836,0.146309974921351,0.774389000000156,
0.044053310546875,-0.288644952148437,0.0571735356445338,0.297532209599246,0.777341999999862,
-0.0756567724609375,0.235685211425781,0.0619619389648456,0.255168077910041,0.780369000000064,
-0.0349553442382813,-0.00852335791015624,0.00450109912109475,0.0362599450382828,0.783301999999821,
0.108696755371094,-0.212030499023438,0.0308373173828134,0.240255816345203,0.786251999999877,
-0.0158017309570313,0.151888153320312,0.0906923588867201,0.177608585886862,0.789267000000109,
-0.154665427246094,-0.0372537778320312,-0.0074699091796866,0.159264050843647,0.792195999999876,
0.161369191894531,-0.147387054199219,0.0188663090820338,0.219360200256556,0.79521399999976,
0.0679953271484375,0.0848505068359375,0.0499909306640642,0.11967483517013,0.798187999999755,
-0.0924161840820312,-0.0324653745117187,-0.0074699091796866,0.0982372188410421,0.801081000000067,
0.113485158691406,-0.0779552060546874,0.0571735356445338,0.149079537738548,0.804117000000133,
0.0129286889648438,-0.0181001645507812,-0.000287304199217076,0.0222452129416178,0.807162999999946,
-0.0373495458984375,-0.0204943662109374,0.00689530078125244,0.0431573029517768,0.810278999999809,
0.0560243188476562,-0.0468305844726562,0.0260489140625015,0.0775266010362252,0.813348000000133,
0.00335188232421879,-0.0755610043945312,-0.0290177241210916,0.0810106709847138,0.816319999999905,
-0.0445321508789063,0.00823605371093761,0.0547793339843761,0.0710754562025664,0.819363000000067,
0.063206923828125,-0.00134075292968738,0.0499909306640642,0.0805978038589895,0.822323999999753,
-0.0134075292968751,-0.0635899960937499,-0.040988732421873,0.0768344039516257,0.825314000000162,
0.115879360351563,-0.0324653745117187,0.0188663090820338,0.121811183050048,0.828328000000056,
-0.0995987890625,-0.0420421811523437,0.0164721074218761,0.109356271432784,0.83123999999998,
0.00574608398437504,-0.0157059628906249,-0.0505655390624984,0.0532594450981066,0.834237999999914,
0.151792385253906,-0.111474029296875,-0.0457771357421866,0.193811593011124,0.837203999999929,
0.00814028564453129,-0.0779552060546874,0.0236547124023456,0.0818707751291083,0.840223000000151,
-0.0636857641601563,0.111186725097656,-0.0074699091796866,0.128351719652514,0.843193000000156,
0.0536301171875,-0.0588015927734374,0.0428083256835947,0.0903679673892849,0.846223999999893,
0.0488417138671875,-0.0731668027343749,0.0404141240234388,0.0968100999712171,0.849214999999731,
-0.0588973608398438,0.0417548769531251,-0.0194409174804662,0.0747684300741407,0.852155999999923,
-0.0493205541992188,0.0106302553710937,-0.0122583124999984,0.0519209555104715,0.855164000000059,
0.194888015136719,-0.0851378110351562,0.0571735356445338,0.22022397346766,0.858135999999831,
-0.032561142578125,-0.0324653745117187,-0.00268150585937299,0.0460588647477659,0.861112999999932,
-0.0541089575195313,0.0345722719726562,-0.0218351191406239,0.0678217789584363,0.864066000000093,
0.0679953271484375,-0.00612915624999988,0.00450109912109475,0.0684192294874611,0.867002999999841,
0.0679953271484375,-0.0827436093749999,0.00210689746093884,0.107118198376077,0.870029000000159,
-0.0732625708007812,0.0249954653320312,-0.0553539423828102,0.0951642606487527,0.872970999999779,
0.000957680664062543,-0.00134075292968738,-0.0290177241210916,0.0290644642792632,0.875979999999799,
0.0847547387695312,-0.0971088193359375,0.0116837041015643,0.129421781313055,0.878948000000037,
-0.0397437475585938,0.0130244570312501,0.0188663090820338,0.0458817999792831,0.8818839999999,
-0.0541089575195313,0.0273896669921876,0.0571735356445338,0.083347383401581,0.884912999999869,
0.0799663354492187,-0.0252827695312499,-0.0625365473632797,0.104616695591416,0.887855999999829,
-0.0014365209960937,-0.0181001645507812,-0.0290177241210916,0.0342302185576627,0.890852999999879,
-0.0469263525390625,0.0393606752929687,-0.0170467158203103,0.0635762207306892,0.893807999999808,
0.0320823022460938,-0.0276769711914062,0.00689530078125244,0.0429282427383603,0.896749,
0.0416591088867188,-0.0492247861328126,-0.0074699091796866,0.0649181058427415,0.899766999999883,
-0.0253785375976563,-0.0324653745117187,-0.0266235224609357,0.0490599904301841,0.902716000000055,
0.015322890625,-0.00612915624999988,0.0164721074218761,0.0233171150951496,0.905750999999782,
0.0512359155273437,-0.0300711728515624,0.0308373173828134,0.0669353017470005,0.908715000000029,
0.00335188232421879,-0.0157059628906249,0.0284431157226575,0.0326637906166688,0.911661999999978,
-0.051714755859375,0.00823605371093761,0.0236547124023456,0.0574612388759753,0.914682999999968,
0.0201112939453125,-0.00134075292968738,0.0284431157226575,0.0348607600976472,0.917649999999867,
0.00574608398437504,-0.0204943662109374,0.0404141240234388,0.0456764485060452,0.920677999999953,
0.0105344873046875,0.00344765039062511,0.0523851323242202,0.0535449699282263,0.923662000000149,
-0.0301669409179688,-0.0396479794921876,0.0882981572265642,0.101383288424514,0.926562999999987,
0.024899697265625,-0.00373495458984374,0.0739329472656269,0.0781026600128955,0.929596999999831,
0.0105344873046875,-0.0300711728515624,0.0523851323242202,0.0613143779880969,0.93255199999976,
-0.0110133276367188,-0.0204943662109374,-0.0242293208007798,0.0335912550895144,0.935543000000052,
0.0129286889648438,-0.0252827695312499,0.035625720703127,0.0455583297448137,0.938497000000098,
0.0464475122070312,-0.0683783994140624,0.0332315190429711,0.0890915863286468,0.941512999999759,
0.000957680664062543,-0.0228885678710937,-0.0194409174804662,0.0300458476985802,0.944508999999925,
0.0392649072265625,-0.0300711728515624,-0.0170467158203103,0.0523125118536428,0.947549999999865,
0.0416591088867188,-0.0707726010742187,-0.0314119257812475,0.0879258295231418,0.950661999999738,
-0.0110133276367188,-0.0228885678710937,-0.0290177241210916,0.0385643389414516,0.953703000000132,
-0.0181959326171875,-0.0204943662109374,0.0236547124023456,0.0362029892278928,0.956702999999834,
0.00335188232421879,-0.00134075292968738,-0.000287304199217076,0.00362150206913698,0.959659999999985,
0.0129286889648438,-0.0324653745117187,0.0332315190429711,0.048223286889626,0.962606000000051,
0.0201112939453125,-0.00134075292968738,0.035625720703127,0.0409323067782704,0.96565499999997,
-0.00383072265624995,-0.0300711728515624,0.0571735356445338,0.0647129280038728,0.968609000000015,
0.0105344873046875,-0.0276769711914062,0.0260489140625015,0.0394402850007216,0.971653999999944,
0.0464475122070312,-0.00852335791015624,-0.0074699091796866,0.0478102349234942,0.97459600000002,
0.0201112939453125,0.0154186586914062,-0.0457771357421866,0.0523234683173374,0.977570000000014,
0.024899697265625,-0.0348595761718749,-0.0314119257812475,0.0531215027657268,0.9805980000001,
0.0129286889648438,-0.0109175595703124,0.00450109912109475,0.0175101113251433,0.983569999999872,
-0.00383072265624995,-0.0228885678710937,0.117028577148439,0.119307371292166,0.98661200000015,
-0.0158017309570313,0.0178128603515626,0.0236547124023456,0.0335639406801459,0.989604999999756,
-0.0181959326171875,-0.00134075292968738,-0.0122583124999984,0.0219808054350907,0.992505000000165,
-0.00383072265624995,-0.0109175595703124,0.0332315190429711,0.0351880860653684,0.995531000000028,
0.0225054956054688,-0.0276769711914062,0.0188663090820338,0.0403540541353224,0.998493999999937,
0.0177170922851563,0.00105344873046875,-0.0170467158203103,0.0246088527470682,1.00153300000011,
-0.0158017309570313,-0.0252827695312499,0.00210689746093884,0.029888997194948,1.00447399999985,
-0.0181959326171875,-0.00134075292968738,0.00928950244140836,0.0204739941837597,1.00739299999987,
0.024899697265625,-0.0396479794921876,-0.0314119257812475,0.05637966196262,1.01040299999977,
0.00335188232421879,-0.0588015927734374,-0.0577481440429679,0.0824846080685115,1.01335900000004,
