X,Y,Z,Magnitude,Seconds,
-0.0113963999023437,-0.0133117612304688,-0.082169000976565,0.0840168175978946,0.0,
-0.0568862314453125,-0.0252827695312501,-0.0366791694335955,0.07225388040485,0.00385099999999738,
-0.0161848032226562,0.0154186586914062,-0.0223139594726582,0.0315847380635903,0.00776700000000119,
-0.0975876596679687,-0.161752264160156,0.00162805712890446,0.188917433950452,0.01163600000001,
0.0364876333007813,0.05133168359375,-0.0414675727539091,0.0754045669343833,0.0155970000000138,
-0.0353384165039062,-0.0348595761718751,-0.0893516059570327,0.102214006960823,0.0194209999999657,
-0.123923877929687,0.0010534487304687,-0.0223139594726582,0.125921205770542,0.0233460000000036,
-0.0209732065429687,-0.0516189877929688,-0.13005303417969,0.141485642355712,0.0271649999999681,
-0.00181959326171871,0.00344765039062495,0.0207816704101536,0.0211441490226095,0.0311120000000074,
-0.0401268198242187,0.0202070620117187,-0.0199197578125023,0.0491455366809592,0.0350429999999733,
-0.0401268198242187,-0.0683783994140626,0.0135990654296858,0.0804406722758783,0.0389429999999606,
-0.052097828125,-0.0181001645507813,0.135703350097653,0.146482759667593,0.0428670000000011,
0.014939818359375,0.0776679018554687,-0.0247081611328142,0.0828612960181468,0.0468899999999621,
-0.0784340463867187,-0.149781255859375,-0.0678037910156277,0.18216387763631,0.0508269999999698,
-0.0209732065429687,0.0130244570312499,-0.00316034619140915,0.0248897501333873,0.0547209999999723,
-0.00900219824218745,0.0393606752929687,0.0566946953124976,0.0696030948254968,0.0585590000000025,
-0.0832224497070312,-0.0779552060546876,-0.0797747993164091,0.139165401203897,0.0623239999999896,
-0.0640688364257812,-0.0683783994140626,-0.0247081611328142,0.0969067311075329,0.0662019999999757,
0.0364876333007813,0.0130244570312499,-0.0510443793945328,0.0640820765317742,0.0701229999999669,
-0.0640688364257812,-0.111474029296875,-0.0127371528320328,0.129203367103573,0.0740769999999884,
-0.0856166513671875,0.022601263671875,-0.0989284125976582,0.13276994739017,0.078013999999996,
0.0484586416015626,-0.0228885678710938,-0.0103429511718769,0.0545811608891034,0.082066999999995,
-0.00181959326171871,-0.0947146176757813,-0.0462559760742209,0.105421938151821,0.0859340000000088,
-0.0784340463867187,0.0154186586914062,0.0088106621093722,0.0804192914370772,0.08990399999999,
-0.0688572397460937,0.0537258852539062,0.0327526787109349,0.0932766218004739,0.0938489999999774,
-0.00181959326171871,-0.0755610043945313,-0.0271023627929718,0.0802951703012724,0.0977479999999673,
0.00536301171875003,-0.0420421811523438,-0.0630153876953141,0.0759423859062427,0.101567999999986,
-0.0664630380859375,0.0106302553710937,0.0183874687499976,0.0697741841077313,0.105506999999989,
-0.0975876596679687,-0.00612915625000006,-0.0127371528320328,0.0986060491961561,0.109358999999984,
0.00536301171875003,-0.0731668027343751,-0.0510443793945328,0.0893737745920995,0.113204999999994,
-0.0233674082031249,0.00344765039062495,-0.0534385810546905,0.0584260558696732,0.117165,
-0.0856166513671875,-0.0204943662109376,0.00641646044921629,0.0882689130012084,0.12116199999997,
-0.00900219824218745,-0.0252827695312501,-0.120476227539065,0.123429248601806,0.125032999999974,
0.0197282216796875,-0.00612915625000006,-0.0917458076171904,0.0940428758721804,0.128896999999995,
-0.00900219824218745,-0.00852335791015631,-0.134841437500002,0.135410119527025,0.132732999999973,
-0.03294421484375,-0.0492247861328126,-0.0582269843750023,0.0830589102438688,0.136543999999958,
-0.0281558115234375,-0.00852335791015631,-0.139629840820314,0.142695093819354,0.140423999999996,
0.000574608398437537,0.00823605371093744,-0.113293622558595,0.113594047678523,0.144280999999978,
-0.0401268198242187,-0.0516189877929688,-0.000766144531251456,0.0653855377542981,0.148205999999959,
-0.0401268198242187,0.0106302553710937,0.00162805712890446,0.0415429244092776,0.152125000000012,
0.00536301171875003,-0.0779552060546876,0.0638773002929671,0.100926139024745,0.155992999999967,
-0.03294421484375,0.0800621035156249,-0.00794874951172098,0.0869393140634195,0.159881999999982,
0.0412760366210938,-0.0564073911132813,-0.0318907661132837,0.0768278981532407,0.163674000000015,
-0.00181959326171871,-0.109079827636719,-0.0989284125976582,0.147270331485968,0.167487999999992,
-0.0832224497070312,0.118369330078125,-0.043861774414065,0.151198973849473,0.171345999999971,
-0.0161848032226562,-0.130627642578125,-0.0318907661132837,0.135434669948897,0.175225000000012,
-0.0497036264648437,0.0249954653320312,-0.0654095893554718,0.0858698908266043,0.179189000000008,
-0.0377326181640625,0.0010534487304687,-0.0773805976562532,0.086096556965895,0.183095999999978,
0.0245166250000001,-0.0731668027343751,-0.043861774414065,0.0887597948313982,0.187022000000013,
-0.0257616098632812,0.022601263671875,-0.0558327827148464,0.0655116576495876,0.190998999999977,
-0.03294421484375,-0.0276769711914063,-0.0510443793945328,0.0667597535478831,0.194880000000012,
-0.0664630380859375,-0.0947146176757813,-0.103716815917972,0.15538781206145,0.198855999999978,
-0.0544920297851562,-0.0276769711914063,-0.0223139594726582,0.0650638826983429,0.202671000000009,
0.0388818349609376,-0.0109175595703126,-0.0701979926757836,0.0809860998728194,0.206502999999998,
-0.238845557617188,0.0561200869140625,-0.134841437500002,0.279962279273073,0.210374999999999,
0.103525279785156,-0.111474029296875,-0.000766144531251456,0.152133263094296,0.214277999999979,
-0.0161848032226562,-0.0109175595703126,-0.0678037910156277,0.0705584512189599,0.218052999999998,
-0.0568862314453125,0.0010534487304687,-0.144418244140628,0.155221719881398,0.22204499999998,
-0.0185790048828124,0.022601263671875,-0.0127371528320328,0.031909741526182,0.226112000000001,
0.0460644399414063,-0.00134075292968756,-0.0486501777343769,0.0670117156855452,0.229996999999969,
-0.00900219824218745,-0.0779552060546876,-0.0366791694335955,0.0866222557692816,0.233965000000012,
-0.140683289550781,0.0010534487304687,-0.0175255561523464,0.141774619842572,0.237860000000012,
0.0269108266601563,-0.00612915625000006,0.0375410820312485,0.0465949781408557,0.241714000000002,
0.0771890615234376,-0.0204943662109376,-0.0917458076171904,0.121636604197041,0.245609000000002,
-0.080828248046875,-0.0133117612304688,-0.0965342109375023,0.126606723955366,0.249560999999972,
-0.0137906015624999,0.00584185205078119,-0.0294965644531278,0.0330810405122989,0.25347099999999,
0.0316992299804688,-0.0228885678710938,-0.122870429199221,0.128941343610748,0.257296999999994,
-0.0544920297851562,-0.0252827695312501,-0.0294965644531278,0.0669226946544607,0.261185000000012,
-0.0449152231445312,-0.00612915625000006,-0.0318907661132837,0.0554253082061986,0.26502099999999,
-0.042521021484375,-0.0420421811523438,-0.0151313544921905,0.0616809545393836,0.268832999999972,
-0.052097828125,-0.0324653745117188,-0.0414675727539091,0.074079307688645,0.272753999999964,
-0.0377326181640625,-0.0204943662109376,0.0231758720703095,0.048794370229795,0.276521000000002,
-0.00660799658203121,0.0154186586914062,-0.0582269843750023,0.0605952338396096,0.280307999999991,
-0.03294421484375,-0.0611957944335938,-0.0127371528320328,0.0706574950751609,0.284147999999959,
-0.00181959326171871,-0.0300711728515626,-0.0510443793945328,0.0592715363735381,0.28792599999997,
0.00296881005859378,-0.00612915625000006,-0.0390733710937532,0.0396624345966189,0.291720999999995,
-0.0688572397460937,0.0154186586914062,-0.0414675727539091,0.0818450614966709,0.295716999999968,
-0.0209732065429687,0.0010534487304687,-0.0414675727539091,0.0464816602223124,0.299703999999963,
-0.0137906015624999,0.00823605371093744,-0.0606211860351582,0.0627131682224262,0.303631999999993,
-1.03611471044922,-5.53673499121094,1.84516333544922,5.92735993428735,0.307442999999978,
3.40752357080078,-1.14576914648438,1.03831737597656,3.74193890862121,0.310932999999977,
-3.1549831796875,19.4916506136475,5.87699893115234,20.601395072795,0.313894000000005,
-2.33137780859375,5.49335205712891,-9.50095833203125,11.2196456511318,0.316814999999963,
2.31816181542969,-13.1455078671875,5.33112095263672,14.3735556457144,0.319843999999989,
2.56476458642578,-15.5397095273438,1.8020677055664,15.8526981171486,0.322795999999983,
-0.918798829101562,1.49264108300781,-5.83304138867188,6.09069294358206,0.325812999999982,
-2.42235747167969,14.7732776918945,2.24978341601562,15.1386615954453,0.328780999999992,
-0.260393372558594,6.40554288964844,2.6615861015625,6.94138494795014,0.331820999999991,
1.55919988916016,-9.43688949560547,0.169222173339842,9.56632760209349,0.334866999999974,
0.42674250390625,-8.49596824316406,-4.3270885444336,9.5439656760102,0.337871000000007,
-0.22448034765625,3.02971854882813,1.28492014697265,3.29857631345605,0.340942999999982,
-1.00259588720703,7.40153078027344,1.8786821586914,7.7017727217677,0.343914999999981,
-0.571639588378906,0.566085040527344,-0.328771771972658,0.869088585908762,0.346899000000008,
1.11627258203125,-4.88551213964844,-1.24335680615235,5.16335448051481,0.349942999999996,
0.673345274902344,-2.40990762304688,0.102184526855467,2.50429436935466,0.352948999999967,
-0.890068409179688,2.73762594628906,0.461314775878904,2.91541230656299,0.356026999999983,
-0.935558240722656,3.05605476708984,0.0519062919921858,3.19647215291875,0.358953999999983,
0.606307628417969,-1.46659216894531,-0.20666748730469,1.60037901154644,0.361894000000007,
0.931919054199219,-2.90311316503906,-0.285676142089846,3.06237653314579,0.364991999999972,
-0.384891858886719,0.379337311035156,0.0159932670898417,0.540642509587309,0.367950000000008,
-0.937952442382813,2.59157964501953,0.262596038085935,2.76857301147538,0.371047999999973,
0.15859191796875,0.0154186586914062,-0.0127371528320328,0.159847948198015,0.374029000000007,
0.682922081542969,-2.18724686865234,-0.434116645019534,2.33214251180572,0.377066000000013,
0.0221224233398438,-0.516094109863281,0.0997903251953094,0.526118466557282,0.380022999999994,
-0.686561268066406,1.85895393701172,0.102184526855467,1.98431796652376,0.382949999999994,
-0.332219422363281,0.776774786621094,0.0351468803710908,0.845567334353366,0.386024999999961,
0.680527879882813,-1.61982107519531,-0.0965342109375023,1.75961852821173,0.388992999999971,
0.309426622558594,-1.00929965185547,-0.156389252441409,1.06718705963986,0.39196899999996,
-0.590793201660156,1.10956881738281,-0.0318907661132837,1.25745639630146,0.395004999999969,
-0.583610596679688,1.22209629541016,0.152462761718748,1.36285200132771,0.39799099999999,
0.512933763671875,-0.757908477539063,0.0519062919921858,0.916635461559585,0.401051999999993,
0.539269981933594,-1.13379813818359,-0.266522528808595,1.28348922470186,0.404008999999974,
-0.155048499511719,0.24286781640625,0.0471178886718722,0.291967307895371,0.407115999999974,
-0.854155384277344,1.21970209375,0.130914946777342,1.4947887279739,0.410036999999988,
-0.138289087890625,-0.0252827695312501,-0.0414675727539091,0.146569607541577,0.412960999999996,
0.855304601074219,-1.24632561621094,-0.139629840820314,1.51801514969048,0.416064000000006,
0.247177379394531,-0.161752264160156,-0.0749863959960955,0.304767799200913,0.419059000000004,
-0.717685889648437,1.12393402734375,0.0806367119140603,1.33596519914627,0.422165000000007,
-0.471083118652344,0.211743194824219,-0.00794874951172098,0.516543965072079,0.425190999999984,
0.42674250390625,-1.01169385351563,-0.139629840820314,1.10685595735352,0.428161999999986,
0.50335695703125,-0.276673943847656,-0.113293622558595,0.585450375615581,0.431266999999991,
-0.169413709472656,0.771986383300781,0.200346794921872,0.815354413242838,0.43426199999999,
-0.667407654785156,0.269204034667969,-0.0582269843750023,0.722007044049254,0.43736100000001,
-0.0832224497070312,-0.640592596191406,-0.201879083984377,0.676786535756184,0.440403000000003,
0.572788805175781,-0.283856548828125,-0.0271023627929718,0.639840678385076,0.443339999999978,
0.0891600698242188,0.4152503359375,0.0590888969726535,0.428805150730155,0.446429999999964,
-0.557274378417969,0.314693866210938,0.0255700737304672,0.640500422281283,0.449437999999986,
-0.126318079589844,-0.300615960449219,-0.132447235839846,0.351949546369488,0.452508999999964,
0.390829479003906,-0.319769573730469,-0.0318907661132837,0.505981504509328,0.455480999999963,
0.0819774648437501,0.197377984863281,-0.00316034619140915,0.213748360084814,0.458431999999959,
-0.286729590820312,0.30032865625,-0.0630153876953141,0.419978688868025,0.461466999999971,
-0.131106482910156,-0.111474029296875,-0.118082025878909,0.208707292408337,0.464417999999966,
0.156197716308594,-0.358076800292969,-0.0510443793945328,0.393982550572793,0.46745199999998,
0.0316992299804688,0.0680910952148437,0.0614830986328094,0.097063947201849,0.470482000000004,
-0.0975876596679687,0.31948226953125,-0.0678037910156277,0.34086599410971,0.473537999999962,
-0.157442701171875,-0.0468305844726563,-0.0797747993164091,0.182607027247914,0.476504999999975,
0.0388818349609376,-0.391595623535156,-0.11089942089844,0.408849129896869,0.479507000000012,
0.125073094726563,-0.0133117612304688,-0.0199197578125023,0.127347079914875,0.482538999999974,
-0.102376062988281,0.28117504296875,-0.0965342109375023,0.314418696872157,0.485514999999964,
-0.178990516113281,0.0106302553710937,-0.0773805976562532,0.195290460804906,0.488518999999997,
0.0340934316406251,-0.262308733886719,-0.0582269843750023,0.270847956727929,0.491507000000013,
0.113102086425781,-0.281462347167969,-0.177937067382814,0.351674188384594,0.494510999999989,
-0.0185790048828124,0.412856134277344,0.133309148437498,0.434242669586947,0.497577999999976,
-0.131106482910156,0.0561200869140625,0.0255700737304672,0.144886861677981,0.500529999999969,
-0.360949842285156,0.175830169921875,0.154856963378904,0.430327452537448,0.503612999999973,
0.105919481445313,-0.784244695800781,-0.369473200195316,0.87336654681976,0.506541999999968,
0.6757394765625,0.465528570800781,-0.204273285644534,0.845617091622912,0.509466999999972,
-0.401651270507813,0.331453277832031,0.468497380859374,0.700481844417277,0.512609999999995,
-0.708109083007813,-0.528065118164063,-0.39820362011719,0.968936203025889,0.515500999999972,
0.228023766113281,0.0273896669921875,-0.082169000976565,0.243919610716142,0.518572000000006,
0.565606200195313,0.168647564941406,0.0973961235351535,0.598195937582094,0.52152000000001,
-0.337007825683594,-0.0324653745117188,0.0590888969726535,0.343685572667249,0.52444399999996,
-0.363344043945312,-0.171329070800781,-0.11089942089844,0.416738798682822,0.527494999999988,
0.165774522949219,0.00823605371093744,0.0519062919921858,0.173905975136418,0.530471999999975,
0.108313683105469,0.154282354980469,-0.00316034619140915,0.188533516368419,0.53349099999997,
-0.155048499511719,-0.0324653745117188,-0.0175255561523464,0.159377485428371,0.536440999999968,
-0.0688572397460937,0.00344765039062495,-0.0773805976562532,0.103638615642558,0.539454999999975,
-0.00421379492187496,-0.0396479794921876,-0.00316034619140915,0.0399963265001437,0.542491999999982,
-0.0137906015624999,-0.0659841977539063,-0.101322614257814,0.121697852095754,0.545399999999972,
0.00536301171875003,0.0633026918945312,0.0088106621093722,0.0641375121328768,0.548491000000013,
-0.0449152231445312,-0.0300711728515626,-0.0606211860351582,0.0812193382335811,0.551376000000005,
-0.052097828125,-0.125839239257813,0.0088106621093722,0.136481960709584,0.55438799999996,
-0.0113963999023437,-0.0133117612304688,-0.0606211860351582,0.0631031624730521,0.557426999999961,
-0.0473094248046875,0.070485296875,-0.0654095893554718,0.107167033786322,0.560420999999963,
-0.0185790048828124,-0.0348595761718751,0.0088106621093722,0.0404721785937433,0.56350900000001,
-0.0185790048828124,-0.0971088193359376,-0.0893516059570327,0.133262941969462,0.566510999999991,
-0.00900219824218745,-0.0420421811523438,-0.0486501777343769,0.0649262994696648,0.569569999999999,
-0.0664630380859375,0.0273896669921875,0.0159932670898417,0.0736431523073443,0.572590999999989,
-0.00660799658203121,0.0585142885742187,-0.0678037910156277,0.089805020250908,0.575556000000006,
-0.00900219824218745,-0.0851378110351563,-0.0271023627929718,0.0897999137528065,0.57868400000001,
-0.03294421484375,-0.0899262143554688,-0.0510443793945328,0.108524531732461,0.581642999999985,
0.000574608398437537,-0.0396479794921876,-0.0151313544921905,0.0424411397277785,0.58466599999997,
-0.061674634765625,0.0728794985351562,-0.0725921943359396,0.119936685625024,0.587668000000008,
-0.080828248046875,-0.0516189877929688,-0.0414675727539091,0.104485813262847,0.590621999999996,
0.053247044921875,-0.183300079101563,-0.0103429511718769,0.191157378697489,0.59372099999996,
-0.00900219824218745,-0.0324653745117188,-0.0366791694335955,0.0498036302463607,0.596663999999976,
-0.140683289550781,0.151888153320312,-0.0271023627929718,0.208797359051415,0.599701999999979,
-0.0736456430664062,0.0824563051757812,-0.0534385810546905,0.122794156827777,0.602642000000003,
0.105919481445313,-0.192876885742188,-0.0869574042968768,0.236605198094419,0.605616999999995,
-0.0257616098632812,-0.0947146176757813,-0.0582269843750023,0.114126688612367,0.608650000000011,
-0.12871228125,0.0752737001953125,-0.043861774414065,0.155424697330969,0.611699999999985,
-0.0257616098632812,0.0489374819335937,-0.0965342109375023,0.111253726059287,0.614768999999967,
0.0604296499023438,-0.149781255859375,-0.0773805976562532,0.179091943112387,0.617794000000004,
-0.0209732065429687,-0.0947146176757813,-0.0678037910156277,0.118355769906897,0.620754999999974,
-0.0664630380859375,0.120763531738281,-0.0869574042968768,0.162980846088018,0.623818999999969,
-0.0473094248046875,0.0609084902343749,-0.0678037910156277,0.102690700329057,0.626803999999993,
-0.00660799658203121,-0.125839239257813,-0.0654095893554718,0.141977442347243,0.629850999999974,
0.0125456166992188,-0.104291424316406,-0.0175255561523464,0.106495252489289,0.63285099999996,
-0.0305500131835937,0.0345722719726562,-0.0654095893554718,0.0800434861467222,0.635840999999971,
-0.0401268198242187,0.0752737001953125,-0.0318907661132837,0.0910676263750805,0.638901999999973,
-0.052097828125,-0.0899262143554688,0.00402225878906037,0.104005222414136,0.641861000000006,
0.00536301171875003,-0.14020444921875,-0.0558327827148464,0.151007778280166,0.644978999999978,
-0.0257616098632812,0.05133168359375,-0.0199197578125023,0.0607897938360175,0.647943999999995,
-0.0832224497070312,0.118369330078125,0.0279642753906231,0.147374608181009,0.650935000000004,
-0.03294421484375,-0.0971088193359376,-0.0103429511718769,0.103065128551973,0.654002999999989,
0.00536301171875003,-0.144992852539063,0.00162805712890446,0.145101136288193,0.656990000000008,
-0.0640688364257812,0.0441490786132812,-0.000766144531251456,0.0778109498772374,0.660036999999988,
-0.0353384165039062,0.101609918457031,0.00641646044921629,0.107770822463895,0.662982999999997,
-0.0281558115234375,-0.0635899960937501,-0.0606211860351582,0.0922570621798448,0.666006999999979,
0.0245166250000001,-0.128233440917969,-0.0175255561523464,0.131727086772242,0.66900499999997,
-0.0185790048828124,0.0441490786132812,-0.0534385810546905,0.0717635179598657,0.671960000000013,
0.0221224233398438,0.0633026918945312,-0.0534385810546905,0.0857456375605193,0.675045000000011,
-0.0209732065429687,-0.00612915625000006,-0.0223139594726582,0.0312306698035501,0.677997000000005,
-0.0209732065429687,-0.0731668027343751,-0.103716815917972,0.128648491321225,0.681048999999973,
-0.0305500131835937,-0.00852335791015631,-0.0534385810546905,0.0621420379511414,0.684032000000002,
-0.042521021484375,0.0393606752929687,0.00402225878906037,0.0580816545335906,0.687027,
-0.00900219824218745,-0.0372537778320313,-0.00316034619140915,0.0384560960577064,0.690065000000004,
-0.0712514414062499,-0.0683783994140626,-0.0342849677734396,0.104536273245812,0.692991000000006,
-0.0209732065429687,-0.0228885678710938,-0.0462559760742209,0.0557079640129003,0.69608199999999,
-0.0161848032226562,0.022601263671875,-0.0127371528320328,0.0305777703109347,0.699064999999962,
0.00775721337890628,-0.0276769711914063,-0.0582269843750023,0.0649351276517,0.702069999999992,
-0.0712514414062499,-0.0540131894531251,-0.0175255561523464,0.091111676835719,0.705132999999989,
-0.0688572397460937,-0.0468305844726563,-0.0630153876953141,0.104428742182851,0.708112999999969,
-0.03294421484375,0.0178128603515624,-0.0630153876953141,0.0733045590121526,0.711178999999959,
-0.0209732065429687,-0.0492247861328126,-0.0486501777343769,0.0723173198902007,0.714150999999958,
-0.0209732065429687,-0.0492247861328126,-0.0342849677734396,0.063548516723374,0.717165999999963,
-0.0712514414062499,0.00344765039062495,-0.00555454785156506,0.0715507316351103,0.720343000000014,
-0.0137906015624999,0.0297838686523437,-0.108505219238284,0.113360672745462,0.723310999999967,
-0.0473094248046875,-0.0228885678710938,-0.0462559760742209,0.0700120242324056,0.726362999999992,
0.00536301171875003,-0.0803494077148438,-0.0510443793945328,0.0953431585515954,0.729376999999999,
-0.0592804331054687,-0.0300711728515626,-0.0869574042968768,0.109453347814907,0.732356999999979,
-0.0449152231445312,0.0202070620117187,-0.0558327827148464,0.074451341498671,0.735429000000011,
-0.00660799658203121,-0.0252827695312501,-0.0582269843750023,0.0638221416391302,0.738361999999995,
-0.0185790048828124,-0.0564073911132813,-0.0390733710937532,0.0710893910740021,0.741377,
-0.0449152231445312,0.0106302553710937,-0.0294965644531278,0.0547761527849047,0.744371000000001,
-0.0568862314453125,0.0178128603515624,-0.0534385810546905,0.0800563755555586,0.747301999999991,
-0.0497036264648437,-0.0204943662109376,-0.0678037910156277,0.086532211379553,0.750359000000003,
-0.0257616098632812,-0.0707726010742188,-0.0318907661132837,0.0817890125191067,0.75338099999999,
-0.0353384165039062,0.0178128603515624,-0.043861774414065,0.0590758574178839,0.75644299999999,
-0.0209732065429687,-0.0157059628906251,-0.0845632026367209,0.0885295877274645,0.759419999999977,
-0.0736456430664062,-0.00134075292968756,0.00162805712890446,0.073675836819801,0.762428999999997,
-0.00660799658203121,-0.0396479794921876,-0.0630153876953141,0.0747433407269959,0.765418000000011,
0.00536301171875003,-0.0252827695312501,-0.0342849677734396,0.0429352925352972,0.768368000000009,
-0.0497036264648437,0.00344765039062495,-0.043861774414065,0.0663791535929995,0.77145999999999,
-0.0233674082031249,-0.0228885678710938,-0.0534385810546905,0.0626546426887893,0.774450000000002,
-0.0856166513671875,-0.0276769711914063,-0.0103429511718769,0.0905715317558685,0.777455999999972,
-0.0449152231445312,-0.0324653745117188,-0.0582269843750023,0.0803850702662874,0.780399999999986,
-0.0353384165039062,-0.00134075292968756,0.00402225878906037,0.035591851106513,0.783377999999971,
-0.0856166513671875,0.0297838686523437,-0.0318907661132837,0.0960953213560512,0.786438999999973,
-0.0257616098632812,-0.00373495458984381,-0.0773805976562532,0.0816417008775236,0.789350000000013,
-0.0377326181640625,0.00344765039062495,-0.0223139594726582,0.0439721452066913,0.792448999999976,
-0.0185790048828124,-0.0109175595703126,-0.0534385810546905,0.0576199138713832,0.79540499999996,
-0.0640688364257812,0.0441490786132812,-0.0510443793945328,0.0930563571774019,0.798389999999984,
-0.0281558115234375,0.00584185205078119,-0.0366791694335955,0.0466072787047791,0.801445000000001,
-0.0113963999023437,-0.0181001645507813,-0.0366791694335955,0.0424600442514831,0.804390000000012,
-0.0257616098632812,-0.0324653745117188,-0.00316034619140915,0.041564995765471,0.807434000000001,
-0.0233674082031249,-0.0324653745117188,-0.0486501777343769,0.0629831414102543,0.810371999999973,
-0.052097828125,-0.0276769711914063,-0.00555454785156506,0.0592541258606293,0.813293999999985,
-0.0209732065429687,-0.0276769711914063,-0.043861774414065,0.0559441273215901,0.816351999999995,
-0.00660799658203121,-0.00134075292968756,-0.0199197578125023,0.021029978329883,0.819367,
-0.0161848032226562,-0.0348595761718751,-0.0510443793945328,0.0638957476989812,0.822413999999981,
-0.052097828125,0.00344765039062495,-0.0223139594726582,0.0567801265928973,0.825359999999989,
-0.080828248046875,-0.0252827695312501,-0.0989284125976582,0.13022770418229,0.828305,
-0.0353384165039062,-0.0348595761718751,-0.0175255561523464,0.052641607596419,0.831314999999961,
-0.0712514414062499,-0.0420421811523438,-0.0151313544921905,0.0841027394754957,0.83429000000001,
-0.0401268198242187,-0.00134075292968756,-0.0318907661132837,0.051273582388165,0.837333999999998,
-0.0497036264648437,-0.0707726010742188,-0.0103429511718769,0.0870987266583792,0.840297999999962,
-0.0161848032226562,0.00823605371093744,-0.0510443793945328,0.0541784930009921,0.843281999999988,
-0.0497036264648437,-0.0109175595703126,-0.0510443793945328,0.0720775433717121,0.846384999999998,
-0.0497036264648437,-0.0492247861328126,-0.0103429511718769,0.0707142608850696,0.84936799999997,
0.0125456166992188,-0.0635899960937501,-0.0103429511718769,0.0656357885647053,0.852463999999998,
-0.0233674082031249,-0.00612915625000006,-0.0606211860351582,0.0652574173468246,0.855405999999959,
-0.0233674082031249,-0.00373495458984381,-0.043861774414065,0.0498381471030976,0.858490999999958,
-0.0401268198242187,-0.0181001645507813,-0.0103429511718769,0.0452189591312593,0.861479999999972,
-0.042521021484375,0.0202070620117187,0.0183874687499976,0.0505416821074671,0.864460000000008,
0.000574608398437537,-0.00373495458984381,-0.0390733710937532,0.0392556797066348,0.867514999999969,
-0.0185790048828124,-0.0420421811523438,0.00162805712890446,0.0459932058949693,0.870516000000009,
-0.0233674082031249,-0.0300711728515626,-0.0654095893554718,0.0756883450899243,0.873540999999989,
0.00775721337890628,0.0202070620117187,-0.0342849677734396,0.0405457609347404,0.876528000000008,
-0.0161848032226562,0.0130244570312499,0.0135990654296858,0.0248297989697028,0.879480000000001,
-0.00660799658203121,-0.0300711728515626,-0.0366791694335955,0.0478884383315545,0.882476999999994,
0.00536301171875003,0.0321780703124999,-0.0414675727539091,0.0527612518220748,0.885454999999979,
-0.03294421484375,-0.0372537778320313,-0.0869574042968768,0.10017362635185,0.888474999999971,
-0.061674634765625,-0.0635899960937501,-0.0534385810546905,0.103455933236403,0.891502000000003,
-0.0233674082031249,-0.0252827695312501,-0.0342849677734396,0.0485871713163832,0.894452999999999,
-0.0353384165039062,-0.0204943662109376,-0.0151313544921905,0.043563523918066,0.897514999999999,
-0.0592804331054687,-0.00852335791015631,-0.0414675727539091,0.0728448829317291,0.900466999999992,
-0.0497036264648437,-0.0516189877929688,0.00402225878906037,0.0717715051416197,0.903511999999978,
-0.0233674082031249,-0.0396479794921876,-0.0318907661132837,0.0559912404509541,0.906443999999965,
-0.0185790048828124,-0.0133117612304688,-0.0223139594726582,0.0319420599968132,0.90936499999998,
0.00296881005859378,-0.0181001645507813,-0.0223139594726582,0.0288849887878947,0.912436000000014,
-0.0592804331054687,-0.0468305844726563,-0.0678037910156277,0.101511710986041,0.915405999999962,
-0.0688572397460937,0.0106302553710937,-0.0223139594726582,0.0731589678853736,0.918450000000007,
-0.00421379492187496,-0.0420421811523438,-0.0654095893554718,0.0778698622275753,0.921370999999965,
-0.0257616098632812,-0.0300711728515626,-0.0510443793945328,0.0646023579073509,0.924328000000003,
-0.0137906015624999,-0.0181001645507813,-0.043861774414065,0.049413074210894,0.927344000000005,
-0.0449152231445312,0.00344765039062495,-0.0510443793945328,0.0680793083918456,0.93031400000001,
-0.0233674082031249,-0.0133117612304688,-0.0414675727539091,0.0494246734262274,0.933390999999972,
-0.03294421484375,-0.0324653745117188,-0.0414675727539091,0.0621198955565611,0.936343999999963,
-0.0209732065429687,0.00823605371093744,-0.0318907661132837,0.039047777615578,0.939281999999992,
-0.00181959326171871,-0.0492247861328126,-0.0294965644531278,0.0574146131572507,0.942273999999998,
-0.0233674082031249,0.0178128603515624,-0.125264630859377,0.128664530871455,0.945254999999975,
-0.0473094248046875,-0.0157059628906251,-0.0725921943359396,0.0880595572563188,0.948276999999962,
-0.03294421484375,-0.0444363828125001,-0.0701979926757836,0.0893737745921005,0.951192999999989,
-0.0137906015624999,-0.00373495458984381,-0.0917458076171904,0.092851622455261,0.954191999999978,
-0.00421379492187496,-0.0133117612304688,-0.0414675727539091,0.0437552127728957,0.957172000000014,
-0.0137906015624999,-0.0228885678710938,-0.0390733710937532,0.0473370421475132,0.960139999999967,
-0.0281558115234375,-0.0540131894531251,-0.0941400092773463,0.112127229985322,0.963180999999963,
-0.042521021484375,-0.0181001645507813,-0.0773805976562532,0.0901299623792164,0.966138999999998,
-0.0401268198242187,-0.00134075292968756,-0.0318907661132837,0.051273582388165,0.969138999999984,
-0.0257616098632812,-0.0204943662109376,-0.0223139594726582,0.0397692390734769,0.972082,
-0.0281558115234375,0.0154186586914062,-0.082169000976565,0.0882169455369667,0.975076999999999,
-0.0401268198242187,-0.0181001645507813,-0.0558327827148464,0.0710990664611985,0.97813199999996,
0.0221224233398438,-0.0204943662109376,-0.0725921943359396,0.0786069166124845,0.981177000000002,
-0.0473094248046875,-0.0252827695312501,-0.0127371528320328,0.0551328864906169,0.984213000000011,
-0.0113963999023437,0.0154186586914062,-0.0390733710937532,0.0435240312379996,0.987239999999986,
-0.0185790048828124,-0.0228885678710938,-0.0223139594726582,0.0369726757075096,0.990194999999972,
-0.03294421484375,0.00584185205078119,-0.0558327827148464,0.0650903076712472,0.99327599999998,
-0.0113963999023437,-0.0252827695312501,-0.082169000976565,0.086722782977665,0.996294999999975,
-0.0305500131835937,-0.0204943662109376,-0.0271023627929718,0.0456931113064938,0.999418999999989,
-0.03294421484375,-0.00852335791015631,-0.0175255561523464,0.0382768081243046,1.00235399999997,
-0.0137906015624999,0.0154186586914062,-0.0725921943359396,0.0754820667828095,1.00532299999998,
-0.0137906015624999,-0.0348595761718751,-0.0869574042968768,0.094694038378289,1.00838599999997,
-0.03294421484375,-0.0252827695312501,-0.0414675727539091,0.0586864491764684,1.01137499999999,
-0.00421379492187496,-0.0157059628906251,-0.082169000976565,0.0837626292534567,1.01443,
-0.00660799658203121,-0.0851378110351563,-0.0247081611328142,0.088896601246905,1.01737499999996,
-0.0401268198242187,0.00344765039062495,-0.0486501777343769,0.0631576421029771,1.02033399999999,
-0.052097828125,-0.00373495458984381,0.00162805712890446,0.052256905296288,1.02341000000001,
-0.0568862314453125,-0.00373495458984381,-0.0342849677734396,0.0665240725532017,1.02633800000001,
