X,Y,Z,Magnitude,Seconds,
0.00866701000976578,-0.0471178886718752,-0.0242772048339823,0.053708427364388,0.0,
0.0230322199707033,0.0438617744140624,-0.00272938989257732,0.0496164083818515,0.00375100000019302,
0.0326090266113283,-0.0135990654296876,0.0283952316894549,0.0453273910543842,0.00749500000006265,
-0.0128808049316405,-0.00881066210937509,-0.000335188232421402,0.0156094603892545,0.0111850000000686,
0.0613394465332033,0.00316034619140615,0.0331836350097667,0.0698116689494719,0.0149180000000797,
0.011061211669922,-0.0135990654296876,-0.0242772048339823,0.0299444094735374,0.0187180000000353,
-0.0248518132324217,0.0199197578124999,-0.00991199487304506,0.0333565138258046,0.0226740000000518,
0.00627280834960953,-0.0207816704101563,0.0236068283691413,0.0320703647512371,0.0265240000001086,
0.011061211669922,0.00316034619140615,-0.000335188232421402,0.0115087159495535,0.0303110000002107,
0.00627280834960953,-0.0255700737304688,0.0403662399902363,0.048193465595679,0.0341170000001512,
-0.0152750065917967,-0.00641646044921884,-0.0147003981933587,0.0221494581901934,0.0378590000000258,
0.0302148249511721,-0.00881066210937509,-0.012306196533201,0.0337935775961841,0.0417429999999968,
0.00627280834960953,-0.0207816704101563,0.0451546433105481,0.0501015744476171,0.0455520000000433,
-0.036822821533203,-0.0231758720703126,0.00924161840820403,0.044479756549339,0.0492940000001454,
0.039791631591797,0.00794874951171864,0.0355778366699226,0.0539660914431372,0.0530990000002021,
0.0134554133300783,-0.0447236870117189,0.0188184250488295,0.0503526508649133,0.0568740000001071,
0.0134554133300783,-0.0159932670898438,0.026001030029299,0.0333599505796222,0.060654999999997,
0.0158496149902345,-0.0207816704101563,-0.02667140649414,0.0373423626026888,0.0643880000000081,
0.0373974299316408,-0.0231758720703126,0.0331836350097667,0.0551075534221298,0.068288000000166,
-0.0152750065917967,-0.0183874687500001,0.112192289794923,0.114710656535649,0.0720220000000609,
0.0278206232910158,-0.0279642753906251,-0.02667140649414,0.0476167166318614,0.0757470000000922,
-0.0152750065917967,-0.0183874687500001,0.0164242233886736,0.0290031023742756,0.0794720000001234,
-0.0272460148925779,-0.0327526787109377,-0.00272938989257732,0.0426911332650492,0.0831730000002153,
-0.0200634099121092,-0.0423294853515627,-0.0218830031738264,0.0517029165070519,0.0868710000002011,
-0.0392170231933592,-0.0231758720703126,-0.0147003981933587,0.0478664565370289,0.0907590000001619,
0.00866701000976578,-0.0351468803710939,-0.0170945998535146,0.0400330564219265,0.0947680000001583,
-0.00809240161132796,-0.0255700737304688,0.00924161840820403,0.0283676425743045,0.098562000000129,
0.0182438166503908,-0.00162805712890635,0.0355778366699226,0.0400158703279055,0.102376000000049,
0.0637336481933595,0.0127371528320311,0.00684741674804812,0.065353653994424,0.106169000000136,
0.0158496149902345,0.00316034619140615,-0.00512359155273323,0.0169543290574249,0.110022000000072,
-0.0128808049316405,0.00316034619140615,0.0188184250488295,0.0230225117017002,0.113943000000063,
-0.000909796630859216,-0.0135990654296876,0.0116358200683599,0.0179207873469247,0.117743000000019,
-0.00809240161132796,-0.0471178886718752,0.047548844970704,0.0674275541213107,0.121499000000085,
-0.0104866032714842,-0.0303584770507814,0.0283952316894549,0.0428706794874323,0.125287000000071,
0.0350032282714846,-0.0207816704101563,-0.00272938989257732,0.0407989385112864,0.129063000000087,
0.0445800349121095,-0.00162805712890635,0.00924161840820403,0.0455569708560912,0.132826000000023,
0.0134554133300783,-0.0255700737304688,0.0044532150878922,0.0292353885399851,0.136543000000074,
-0.00330399829101546,-0.0303584770507814,0.0188184250488295,0.0358704147574051,0.140383000000156,
0.0182438166503908,0.00794874951171864,-0.0625844313964823,0.0656721441556016,0.144123000000036,
0.00866701000976578,-0.0447236870117189,-0.0314598098144518,0.055362847433934,0.147834000000103,
0.049368438232422,0.00316034619140615,0.0427604416503922,0.0653887287817602,0.151563000000124,
-0.046399628173828,-0.0135990654296876,0.0451546433105481,0.0661574023653683,0.15524900000014,
0.0828872614746095,-0.0279642753906251,-0.0194888015136705,0.0896220519588915,0.158966000000191,
-0.0200634099121092,0.0510443793945311,0.0595198532714853,0.0809362836960859,0.162980000000061,
0.0278206232910158,-0.0351468803710939,-0.048219221435545,0.0658360356945247,0.166879000000108,
0.0326090266113283,-0.0399352836914064,-0.0434308181152332,0.0674122500900979,0.1706250000002,
-0.0344286198730467,0.000766144531249902,-0.0314598098144518,0.0466437185199357,0.174400000000105,
0.011061211669922,-0.0327526787109377,0.0547314499511735,0.0647349981084926,0.178157000000056,
-0.0272460148925779,0.0414675727539061,-0.0577960280761705,0.0761727364547747,0.181960000000117,
-0.00569819995117171,-0.0135990654296876,0.0571256516113294,0.0589978316149284,0.185725000000048,
0.0134554133300783,-0.0112048637695313,0.00205901342773629,0.0176305602937797,0.189580000000205,
0.0733104548339845,-0.0183874687500001,0.0499430466308599,0.0905915542518736,0.19332200000008,
-0.0440054265136717,0.0223139594726561,0.064308256591799,0.0810551800681126,0.197108000000071,
0.0134554133300783,-0.0183874687500001,0.0140300217285176,0.0267579645081264,0.200859000000037,
0.0733104548339845,-0.0135990654296876,-0.00991199487304506,0.0752170526602172,0.204581000000189,
-0.0272460148925779,0.0462559760742186,0.0403662399902363,0.0671669113556267,0.208357000000206,
-0.000909796630859216,-0.0447236870117189,-0.012306196533201,0.0463948098707763,0.212146000000075,
0.0254264216308596,-0.00402225878906259,0.0116358200683599,0.0282501998467211,0.215906000000132,
0.00387860668945328,-0.0279642753906251,0.0667024582519549,0.0724310860392689,0.219631000000163,
0.0230322199707033,-0.00162805712890635,-0.0170945998535146,0.0287290631755654,0.223343000000114,
-0.00330399829101546,-0.0159932670898438,0.0116358200683599,0.0200522643503761,0.227059000000054,
0.0302148249511721,-0.0183874687500001,0.0379720383300786,0.0518932591846297,0.230841000000055,
-0.046399628173828,-0.0135990654296876,0.0451546433105481,0.0661574023653683,0.234875000000102,
0.0350032282714846,-0.0399352836914064,-0.048219221435545,0.0717296743948339,0.238694000000123,
0.011061211669922,-0.00402225878906259,0.0307894333496108,0.0329623751474789,0.242497000000185,
0.0278206232910158,-0.0255700737304688,-0.048219221435545,0.0612609913952782,0.246278000000075,
-0.0128808049316405,-0.0231758720703126,0.0212126267089854,0.033956026178003,0.250110000000177,
0.00387860668945328,-0.0207816704101563,0.0427604416503922,0.0477009096875985,0.253972000000203,
-0.00569819995117171,0.0055545478515624,0.0595198532714853,0.0600494414460116,0.257776000000149,
0.039791631591797,-0.0255700737304688,0.0283952316894549,0.055167851127416,0.261699000000135,
0.0517626398925783,-0.00162805712890635,-0.012306196533201,0.0532302914868732,0.26551100000006,
-0.00809240161132796,-0.00641646044921884,-0.012306196533201,0.0160655034670309,0.269304000000147,
0.011061211669922,0.0271023627929686,-0.0170945998535146,0.0338985813378715,0.273110000000088,
0.0326090266113283,-0.0519062919921877,0.0283952316894549,0.0675566499140861,0.276882000000114,
0.0230322199707033,-0.0159932670898438,-0.0314598098144518,0.0421424653116951,0.280623000000105,
0.0302148249511721,0.0294965644531249,-0.00751779321288915,0.0428893946816586,0.284462000000076,
0.0517626398925783,-0.0112048637695313,-0.00991199487304506,0.0538810495731641,0.288202000000183,
0.00866701000976578,-0.0351468803710939,0.0188184250488295,0.040798938511287,0.291936000000078,
0.058945244873047,-0.224288811523438,0.083461869873048,0.246466826551658,0.295659000000114,
0.0613394465332033,0.379050006835937,0.713136906494142,0.809941777405857,0.29941000000008,
0.0326090266113283,0.122870429199219,1.71391320043946,1.71862123506861,0.303116000000045,
0.339066839111328,-1.8188271171875,-2.49509331811523,3.10621780783396,0.306234000000131,
0.372585662353516,0.204273285644531,0.145711113037111,0.449198596927833,0.309196000000156,
-1.1644918034668,1.86824343945313,1.88150731665039,2.8959358577168,0.312186000000111,
0.106829278076172,-0.432584355957031,-1.04899551538086,1.13970755501672,0.31513700000005,
1.04535632885742,-1.33040997851563,-0.330735017333984,1.7239913621904,0.318135000000211,
0.240904571044922,0.608893366210937,0.301334220947266,0.72082484452183,0.321156000000201,
-1.40151776782227,0.450876056640625,0.399496489013673,1.52549621982736,0.324067000000014,
0.087675664794922,-0.4397669609375,-0.112862666259764,0.462406729584139,0.327081000000135,
1.2273156550293,0.462847064941406,-0.47917552026367,1.39647423958512,0.330058000000008,
0.106829278076172,-0.317662676269531,0.624551445068361,0.708792337773184,0.333098000000064,
-1.29377869311523,-0.406248137695313,-0.345100227294921,1.39928375357498,0.336041000000023,
0.118800286376953,0.544249921386719,-0.0506134230957009,0.559359637058449,0.339035000000194,
1.16267221020508,0.0414675727539061,-0.000335188232421402,1.16341150945158,0.342101000000184,
-0.288213995849609,-0.415824944335938,0.0212126267089854,0.506386875094012,0.345075000000179,
-0.843668781005859,0.000766144531249902,0.00924161840820403,0.843719744069177,0.348098000000164,
0.14034810131836,0.304829755371094,-0.0386424147949214,0.33780468546847,0.351080000000138,
0.767628936279297,-0.0231758720703126,0.00684741674804812,0.768009239511886,0.354043000000047,
-0.161321307861328,-0.207529399902344,0.0116358200683599,0.263112919680086,0.357056000000057,
-0.518057355224609,-0.0112048637695313,-0.0458250197753891,0.520200831133348,0.360001000000011,
-0.209205341064453,0.216244293945312,0.0188184250488295,0.301467415345538,0.363066000000117,
0.48511314038086,-0.0638773002929689,0.0595198532714853,0.492907376082319,0.366027000000031,
0.135559697998047,-0.135703350097656,-0.0314598098144518,0.194374768379567,0.369053000000122,
-0.415106683837891,0.0342849677734374,-0.0410366164550773,0.418536762868206,0.372010000000046,
-0.137379291259766,0.0893516059570312,0.0331836350097667,0.167206258216005,0.374968000000081,
0.470747930419922,-0.0543004936523439,-0.0338540114746078,0.475077100793598,0.377983000000086,
0.0804930598144533,-0.0135990654296876,-0.0218830031738264,0.0845158747618444,0.380943000000116,
-0.541999371826172,-0.0495120903320314,-0.000335188232421402,0.544256261792332,0.38395300000002,
-0.046399628173828,-0.0135990654296876,0.0116358200683599,0.0497318045509477,0.386920000000146,
0.509055156982422,0.118082025878906,-0.0530076247558586,0.525252630615329,0.38986900000009,
0.104435076416016,-0.0351468803710939,0.0307894333496108,0.114411439951734,0.39293100000009,
-0.513268951904297,-0.207529399902344,-0.0458250197753891,0.555529838307698,0.395890000000009,
-0.101466266357422,-0.0159932670898438,-0.0721612380371077,0.125532593678974,0.39890400000013,
0.525814568603516,0.110899420898437,0.085856071533204,0.544197489088681,0.401887000000215,
0.200203142822266,0.0055545478515624,-0.00991199487304506,0.20052530772975,0.404856999999993,
-0.510874750244141,-0.0950019218750001,-0.0577960280761705,0.522837217935313,0.407871000000114,
-0.0511880314941405,-0.164433770019531,0.00924161840820403,0.172464740749766,0.410832000000028,
0.44680591381836,0.0941400092773437,-0.048219221435545,0.459154613703976,0.413864000000103,
0.109223479736328,0.149206647460937,-0.0290656081542959,0.187182268790673,0.416849000000184,
-0.333703827392578,-0.118943938476563,0.0379720383300786,0.35629732052278,0.419788000000153,
-0.120619879638672,-0.0830309135742189,-0.112862666259764,0.184881771433205,0.422798000000057,
0.27442339428711,0.0797747993164062,0.0307894333496108,0.287437309937352,0.425776000000042,
0.118800286376953,-0.0135990654296876,0.100221281494141,0.156021626347551,0.428808000000117,
-0.225964752685547,-0.0207816704101563,-0.0194888015136705,0.227753728104977,0.431740000000218,
-0.132590887939453,-0.00881066210937509,-0.0218830031738264,0.134673075108887,0.434651000000031,
0.214568352783203,-0.0519062919921877,0.0236068283691413,0.222016043362018,0.437774000000218,
0.104435076416016,0.0151313544921874,0.0619140549316413,0.122347837221855,0.440851000000066,
-0.144561896240234,0.000766144531249902,0.0810676682128921,0.165742860031709,0.443958000000066,
-0.103860468017578,-0.0782425102539064,0.026001030029299,0.132608222936014,0.446964000000207,
0.145136504638672,0.00316034619140615,0.00205901342773629,0.145185509962518,0.449922000000015,
0.0852814631347658,0.0342849677734374,0.0403662399902363,0.100388347434259,0.452959000000192,
-0.111043072998047,-0.0590888969726564,-0.02667140649414,0.128582369439478,0.455869000000121,
-0.065553241455078,-0.0399352836914064,-0.00991199487304506,0.0773970412299084,0.458907000000181,
0.133165496337891,0.0462559760742186,0.0882502731933599,0.166315289303774,0.46188200000006,
0.0613394465332033,0.0271023627929686,-0.012306196533201,0.0681799695150648,0.464904000000161,
-0.0871010563964843,-0.111761333496094,-0.0170945998535146,0.142721459614034,0.46784700000012,
-0.00569819995117171,-0.0255700737304688,0.0331836350097667,0.0422782661154234,0.470772000000125,
0.0948582697753907,0.0797747993164062,-0.0218830031738264,0.125860938255916,0.473837000000003,
0.0445800349121095,0.000766144531249902,0.0188184250488295,0.0483952436870204,0.47682900000018,
-0.0751300480957029,-0.0926077202148439,-0.00512359155273323,0.119360651643046,0.479835000000094,
-0.0128808049316405,-0.0303584770507814,-0.0362482131347637,0.0490049509742949,0.482786000000033,
0.068522051513672,0.0223139594726561,-0.0458250197753891,0.0853997468872389,0.485736000000088,
0.020638018310547,0.0989284125976562,0.047548844970704,0.111685501641559,0.488784000000123,
-0.0990720646972655,-0.106972930175781,0.00205901342773629,0.145817424644887,0.491710000000012,
-0.0607648381347655,-0.0973961235351564,0.0044532150878922,0.114883425949258,0.494716000000153,
0.157107512939453,0.0869574042968749,0.0140300217285176,0.180114414453073,0.497685000000047,
0.0278206232910158,0.0294965644531249,0.0116358200683599,0.0421832514571981,0.500641000000087,
-0.146956097900391,-0.0878193168945314,-0.0410366164550773,0.176046388829798,0.503614000000198,
0.011061211669922,0.0749863959960937,-0.00512359155273323,0.0759707916142055,0.506574000000001,
0.137953899658203,0.0534385810546874,0.0331836350097667,0.15161831686345,0.509631000000127,
-0.00330399829101546,-0.140491753417969,0.00684741674804812,0.140697321578216,0.512560000000121,
-0.094283661376953,-0.118943938476563,-0.00991199487304506,0.1521029813821,0.515464000000065,
-0.0104866032714842,0.110899420898437,0.0595198532714853,0.12629831090415,0.518508999999995,
0.147530706298828,0.0414675727539061,0.0307894333496108,0.156310134339146,0.521494000000075,
0.00387860668945328,-0.150068560058594,0.0044532150878922,0.150184711047864,0.524539000000004,
-0.12780248461914,-0.0686657036132814,0.0236068283691413,0.146988898469179,0.527480000000196,
0.00866701000976578,0.118082025878906,0.0164242233886736,0.119533413789187,0.530456000000186,
0.164290117919922,0.0294965644531249,-0.00272938989257732,0.166939329487886,0.53349900000012,
-0.0416112248535155,-0.142885955078125,-0.02667140649414,0.151192771377383,0.53645500000016,
-0.137379291259766,0.00794874951171864,-0.0386424147949214,0.142931761715227,0.539479000000028,
0.0828872614746095,0.0989284125976562,0.0738850632324226,0.148714933690976,0.542478000000074,
0.14034810131836,-0.0255700737304688,0.0236068283691413,0.14459841133256,0.545422000000144,
-0.134985089599609,-0.1333091484375,-0.048219221435545,0.195748299576768,0.548423000000184,
-0.0607648381347655,0.0462559760742186,-0.00991199487304506,0.0770079769795714,0.551391000000194,
0.200203142822266,0.0654095893554686,0.0690966599121108,0.221662042728505,0.554451000000199,
0.0134554133300783,-0.0351468803710939,-0.00991199487304506,0.0389178492476975,0.557399000000032,
-0.10864887133789,-0.102184526855469,0.0140300217285176,0.149810200858874,0.560426000000007,
0.00148440502929703,0.0558327827148436,0.047548844970704,0.0733511809177056,0.563414000000193,
0.0924640681152345,0.0318907661132811,-0.0386424147949214,0.10516587410797,0.566380000000208,
-0.00330399829101546,-0.111761333496094,-0.00272938989257732,0.111843469361058,0.569389000000001,
-0.0775242497558592,-0.0447236870117189,0.0355778366699226,0.0963119927228314,0.572353000000021,
-0.00569819995117171,0.0175255561523436,0.0978270798339853,0.0995477380455097,0.575407000000041,
0.068522051513672,0.0390733710937499,0.0379720383300786,0.0875435638251789,0.578499000000193,
-0.000909796630859216,-0.0495120903320314,-0.0242772048339823,0.0551512238622852,0.581492000000026,
-0.0224576115722654,-0.0351468803710939,0.047548844970704,0.0632498235206928,0.584609,
0.0302148249511721,0.0294965644531249,0.0547314499511735,0.0691268007007784,0.587602000000061,
0.0134554133300783,0.0055545478515624,0.0427604416503922,0.045170305731256,0.590647000000217,
-0.0104866032714842,-0.0806367119140626,0.026001030029299,0.0853715509936978,0.593575000000101,
0.011061211669922,-0.0112048637695313,-0.0506134230957009,0.0530058296149113,0.596543999999994,
0.0709162531738283,0.0462559760742186,-0.0290656081542959,0.0895183772427331,0.599600000000009,
0.011061211669922,-0.0231758720703126,-0.000335188232421402,0.0256823636174217,0.602563000000146,
0.00387860668945328,-0.0495120903320314,-0.0218830031738264,0.054271138801433,0.605580000000145,
0.0302148249511721,-0.00402225878906259,0.0571256516113294,0.0647491643545702,0.608568000000105,
0.0278206232910158,0.0606211860351561,-0.0147003981933587,0.0683009295958182,0.611543000000211,
0.0230322199707033,0.000766144531249902,-0.0170945998535146,0.0286931259777217,0.614605000000211,
-0.00330399829101546,-0.0303584770507814,-0.0242772048339823,0.0390120008215548,0.617563000000018,
-0.0296402165527342,-0.0590888969726564,-0.0697670363769518,0.0961118075345641,0.620596000000205,
0.0661278498535158,-0.0566946953125002,0.00205901342773629,0.0871287583930929,0.623572000000195,
0.0230322199707033,-0.00162805712890635,0.0307894333496108,0.0384853599799193,0.626536000000215,
-0.0344286198730467,-0.0303584770507814,-0.0410366164550773,0.0615708606833353,0.629541000000017,
-0.0200634099121092,-0.0399352836914064,0.0164242233886736,0.0476143089284669,0.632511000000022,
0.0326090266113283,-0.0327526787109377,-0.00991199487304506,0.0472687446590609,0.635531000000128,
0.00148440502929703,0.0294965644531249,0.0212126267089854,0.0363624298517455,0.638520000000199,
-0.0296402165527342,-0.00881066210937509,-0.0194888015136705,0.0365511092654902,0.641433000000006,
0.0469742365722658,-0.00162805712890635,-0.0506134230957009,0.0690720498394728,0.644457000000102,
0.0302148249511721,0.0151313544921874,-0.048219221435545,0.0588811247468009,0.647451000000046,
-0.0320344182128905,0.0486501777343749,-0.0242772048339823,0.0631064689106891,0.650491000000102,
0.0302148249511721,-0.0255700737304688,0.0188184250488295,0.0438280439756327,0.653468000000203,
0.0445800349121095,-0.00162805712890635,0.0212126267089854,0.0493964129737641,0.656503000000157,
-0.0416112248535155,-0.0135990654296876,-0.0314598098144518,0.0539087028960281,0.659441000000015,
-0.0224576115722654,0.0294965644531249,0.0786734665527362,0.0869707190466573,0.662406000000146,
0.0134554133300783,-0.0183874687500001,-0.000335188232421402,0.0227872663140323,0.665431000000126,
0.0350032282714846,-0.0255700737304688,-0.0194888015136705,0.0475275503728786,0.668393000000151,
0.0302148249511721,-0.0207816704101563,0.00205901342773629,0.0367294569543566,0.67143400000009,
-0.0320344182128905,0.0103429511718749,-0.0242772048339823,0.0415037740902354,0.67441800000006,
0.0230322199707033,0.0127371528320311,0.00924161840820403,0.0278949050876363,0.677392000000054,
0.0541568415527345,-0.0327526787109377,0.0188184250488295,0.0660290433902258,0.680429000000004,
0.0230322199707033,0.0055545478515624,0.0571256516113294,0.0618439668086803,0.683418000000074,
-0.0248518132324217,0.000766144531249902,0.0164242233886736,0.0297985689640121,0.686451000000034,
0.00866701000976578,0.0247081611328124,0.047548844970704,0.0542816999284514,0.689436999999998,
0.00148440502929703,-0.0183874687500001,0.0499430466308599,0.0532410590812718,0.692390000000159,
-0.0152750065917967,-0.0159932670898438,-0.012306196533201,0.0253091464040232,0.695390000000089,
0.0230322199707033,-0.0303584770507814,-0.0170945998535146,0.0417653639966596,0.698361000000205,
0.0278206232910158,-0.00162805712890635,0.083461869873048,0.0879915983092772,0.701399000000038,
0.0302148249511721,-0.0255700737304688,-0.0218830031738264,0.0452286429745275,0.704361000000063,
0.0182438166503908,-0.0399352836914064,0.0595198532714853,0.0739613186939317,0.707308000000012,
0.0134554133300783,-0.0112048637695313,0.0116358200683599,0.0210235446259724,0.710346000000072,
-0.0200634099121092,0.0342849677734374,-0.0577960280761705,0.0701311649262184,0.713299000000006,
-0.000909796630859216,-0.0255700737304688,-0.02667140649414,0.0369597121859301,0.716387000000168,
0.0158496149902345,0.000766144531249902,0.0283952316894549,0.032528240891251,0.719459000000143,
-0.0320344182128905,0.0151313544921874,0.0044532150878922,0.0357070436136295,0.722491000000218,
-0.00330399829101546,0.0175255561523436,-0.00272938989257732,0.0180419259598771,0.725570000000062,
0.0278206232910158,-0.0231758720703126,-0.0410366164550773,0.0547276165806736,0.728515000000016,
0.00148440502929703,-0.0399352836914064,0.0403662399902363,0.0568019689161693,0.731545000000096,
-0.0440054265136717,0.00316034619140615,0.026001030029299,0.0512105351786545,0.734519000000091,
-0.0224576115722654,0.0606211860351561,0.0403662399902363,0.0762148662977841,0.737487000000101,
0.0613394465332033,-0.0303584770507814,0.00205901342773629,0.0684719239260744,0.740500999999995,
0.020638018310547,0.0199197578124999,-0.00512359155273323,0.0291371882908143,0.74348800000007,
0.00387860668945328,-0.00162805712890635,0.0283952316894549,0.0287051100427133,0.746532000000116,
-0.000909796630859216,0.0199197578124999,-0.0290656081542959,0.0352481780890481,0.749483000000055,
0.0158496149902345,-0.00162805712890635,-0.00751779321288915,0.0176175503446254,0.752516000000014,
0.0182438166503908,-0.0327526787109377,0.0451546433105481,0.058690004440431,0.755486000000019,
0.0373974299316408,-0.00881066210937509,0.00684741674804812,0.0390266914869684,0.7584710000001,
0.00387860668945328,0.0199197578124999,0.0164242233886736,0.0261073831526864,0.761523000000125,
0.020638018310547,-0.00881066210937509,0.0044532150878922,0.0228776461029338,0.764491000000135,
0.00387860668945328,0.0127371528320311,-0.0362482131347637,0.038616209130121,0.76752300000021,
-0.00569819995117171,0.00794874951171864,0.00684741674804812,0.0119389789180244,0.77051100000017,
-0.017669208251953,-0.0183874687500001,-0.0554018264160145,0.0609890342398805,0.773415000000114,
-0.00809240161132796,-0.00881066210937509,-0.00272938989257732,0.0122704645319688,0.776424000000134,
0.049368438232422,-0.00641646044921884,-0.00512359155273323,0.050046626745507,0.779375000000073,
-0.0224576115722654,0.0199197578124999,-0.0242772048339823,0.0386073016849214,0.782405000000153,
0.0182438166503908,-0.0279642753906251,0.0188184250488295,0.038327153108654,0.785367000000178,
0.0302148249511721,-0.0183874687500001,0.0403662399902363,0.0536699914739284,0.788338000000067,
0.020638018310547,-0.0159932670898438,-0.012306196533201,0.0288644221336115,0.791341000000102,
0.0230322199707033,-0.0255700737304688,-0.0147003981933587,0.0374220995456399,0.794297000000142,
0.0469742365722658,-0.0207816704101563,0.00924161840820403,0.0521906527779296,0.797328000000107,
0.0517626398925783,0.0342849677734374,-0.02667140649414,0.0675736178419509,0.800304000000096,
-0.00330399829101546,0.00316034619140615,0.0523372482910176,0.0525365753683298,0.803254000000152,
0.0182438166503908,-0.00881066210937509,0.047548844970704,0.0516851745747917,0.806295000000091,
-0.00330399829101546,-0.0255700737304688,0.0595198532714853,0.0648641504125953,0.809223000000202,
0.0445800349121095,-0.0135990654296876,0.0116358200683599,0.048038592839394,0.812265000000025,
0.0278206232910158,-0.0327526787109377,0.0619140549316413,0.0753662738970212,0.815230000000156,
0.0278206232910158,-0.0112048637695313,0.0140300217285176,0.0331115925635878,0.818173999999999,
0.0158496149902345,0.00316034619140615,0.0283952316894549,0.0326724236334868,0.821211000000176,
-0.00330399829101546,0.00316034619140615,0.0762792648925803,0.076416166125428,0.824158000000125,
0.00148440502929703,0.0247081611328124,0.0116358200683599,0.0273512155766297,0.827191000000084,
0.0445800349121095,-0.0183874687500001,0.0595198532714853,0.0766034689374853,0.830151000000114,
0.00148440502929703,-0.0279642753906251,0.0331836350097667,0.0434207069135814,0.833088000000089,
0.00148440502929703,0.0103429511718749,0.0307894333496108,0.0325141400505214,0.836122000000159,
0.020638018310547,-0.00881066210937509,0.026001030029299,0.0343454382586183,0.83908200000019,
0.0182438166503908,-0.0183874687500001,0.0307894333496108,0.0402358678171036,0.842111000000159,
0.00866701000976578,-0.0135990654296876,0.0451546433105481,0.0479478201336946,0.845078000000058,
0.0254264216308596,-0.00402225878906259,-0.0434308181152332,0.0504868046609696,0.848081000000093,
-0.00330399829101546,0.0055545478515624,-0.00991199487304506,0.0118328799920223,0.851031000000148,
0.0326090266113283,-0.0255700737304688,0.0044532150878922,0.0416774328832638,0.854000000000042,
0.0182438166503908,-0.0543004936523439,0.00684741674804812,0.0576911394668433,0.857119000000012,
0.0254264216308596,-0.0399352836914064,0.0188184250488295,0.0509456859977542,0.860167000000047,
0.0373974299316408,-0.00641646044921884,-0.0218830031738264,0.0438018784767739,0.863246000000117,
0.00148440502929703,-0.0279642753906251,-0.00751779321288915,0.0289951956573065,0.866222000000107,
0.020638018310547,-0.0399352836914064,-0.00991199487304506,0.046032622406972,0.869143000000122,
0.0182438166503908,-0.0566946953125002,0.0044532150878922,0.0597240022701873,0.872173000000203,
-0.017669208251953,-0.0471178886718752,-0.0290656081542959,0.0581128723307081,0.875089000000116,
0.0254264216308596,-0.0183874687500001,0.0307894333496108,0.0439612457736652,0.878159000000096,
0.0421858332519533,0.00794874951171864,0.0355778366699226,0.0557549065829488,0.881125000000111,
0.0134554133300783,0.0199197578124999,-0.0242772048339823,0.0341647124053903,0.884065000000192,
-0.00569819995117171,-0.0303584770507814,0.00924161840820403,0.0322414968996356,0.887086000000181,
-0.0200634099121092,0.0103429511718749,0.0331836350097667,0.040133161957495,0.8900450000001,
0.0421858332519533,-0.0207816704101563,0.00924161840820403,0.0479262961535818,0.893089000000145,
0.0134554133300783,-0.0375410820312502,-0.0410366164550773,0.0572222411134117,0.89607100000012,
0.011061211669922,-0.0207816704101563,-0.00991199487304506,0.025543607243427,0.89901900000018,
0.0134554133300783,0.00316034619140615,0.0355778366699226,0.0381682904784125,0.902071000000205,
0.00627280834960953,-0.0279642753906251,-0.0458250197753891,0.0540488784354352,0.905003000000079,
0.039791631591797,-0.00641646044921884,0.0283952316894549,0.0493034896547041,0.908046000000013,
0.0613394465332033,-0.0183874687500001,0.0044532150878922,0.0641907924289065,0.911006000000043,
0.00866701000976578,-0.0255700737304688,-0.0218830031738264,0.0347535834267013,0.913932000000159,
-0.0487938298339842,-0.0231758720703126,-0.0194888015136705,0.0574262332085829,0.916922999999997,
0.0326090266113283,-0.0231758720703126,0.00684741674804812,0.0405876431796583,0.919890000000123,
0.0134554133300783,-0.0112048637695313,0.0331836350097667,0.0375200046966737,0.922910000000002,
-0.00809240161132796,-0.0183874687500001,-0.0458250197753891,0.0500351717123671,0.925838999999996,
-0.0344286198730467,0.00794874951171864,-0.0170945998535146,0.0392522334309091,0.928772000000208,
0.00387860668945328,-0.00162805712890635,0.0523372482910176,0.0525060160223767,0.931788000000097,
0.011061211669922,-0.0279642753906251,0.0427604416503922,0.0522762515093243,0.934750000000122,
-0.0296402165527342,-0.0255700737304688,-0.0362482131347637,0.0533507644119355,0.937741000000187,
-0.0224576115722654,-0.0112048637695313,0.0164242233886736,0.0299941394866657,0.940688000000137,
-0.00330399829101546,-0.0806367119140626,0.0714908615722667,0.107815300404736,0.943695000000162,
-0.000909796630859216,0.0127371528320311,0.0451546433105481,0.0469255218903196,0.946645000000217,
0.0326090266113283,-0.0207816704101563,0.0331836350097667,0.0509546864776548,0.949590000000171,
-0.017669208251953,-0.0112048637695313,0.0164242233886736,0.026598966263103,0.952612000000045,
-0.000909796630859216,-0.00162805712890635,0.0355778366699226,0.0356266860939408,0.95555400000012,
-0.000909796630859216,-0.0112048637695313,0.00924161840820403,0.0145528077293055,0.958544000000074,
0.0254264216308596,-0.0135990654296876,-0.0147003981933587,0.032365710320561,0.961507000000211,
0.0373974299316408,0.00794874951171864,0.0116358200683599,0.039964267701977,0.964468000000124,
0.00387860668945328,0.0103429511718749,-0.0410366164550773,0.0424973424919298,0.967507000000069,
0.0134554133300783,-0.00162805712890635,0.0619140549316413,0.0633801934043793,0.970475000000079,
-0.000909796630859216,-0.0423294853515627,-0.02667140649414,0.0500397540402962,0.973476000000119,
-0.000909796630859216,-0.0327526787109377,-0.0434308181152332,0.0544040591758547,0.976405999999997,
0.0134554133300783,-0.00162805712890635,0.0451546433105481,0.0471448886985753,0.979365000000143,
0.00148440502929703,-0.0303584770507814,0.0236068283691413,0.0384853599799186,0.982390000000123,
0.0565510432128908,0.0127371528320311,0.0140300217285176,0.0596414039106679,0.985377000000199,
0.0230322199707033,-0.00881066210937509,0.0403662399902363,0.0473026876037059,0.988398000000188,
0.00866701000976578,0.00316034619140615,-0.0147003981933587,0.017355303443104,0.991378000000168,
0.00148440502929703,0.00316034619140615,0.0379720383300786,0.0381322296919744,0.994402000000036,
-0.017669208251953,-0.00641646044921884,-0.0194888015136705,0.0270773940656504,0.997491000000082,
0.00387860668945328,0.0247081611328124,-0.0242772048339823,0.0348556952443589,1.00053900000012,
0.00148440502929703,-0.0399352836914064,-0.0673728347167959,0.0783334487915655,1.00363200000015,
0.020638018310547,-0.00881066210937509,0.0164242233886736,0.0278084641883205,1.0065840000002,
0.0134554133300783,-0.0183874687500001,0.0044532150878922,0.0232159057444354,1.00953000000004,
0.011061211669922,0.00794874951171864,-0.0338540114746078,0.0364914663357029,1.01257200000009,
0.039791631591797,0.0103429511718749,0.0116358200683599,0.0427287127391446,1.01557700000012,
