X,Y,Z,Magnitude,Seconds,
0.0416591088867188,-0.0181001645507812,0.0332315190429711,0.0562799357489345,0.0,
0.00574608398437504,-0.0300711728515624,-0.0122583124999984,0.032978161609945,0.00369599999976344,
0.015322890625,-0.0564073911132812,-0.0529597407226543,0.0788753376330216,0.00742700000000696,
-0.00861912597656256,-0.0300711728515624,-0.040988732421873,0.0515620107716941,0.0113459999997758,
0.00814028564453129,-0.0204943662109374,0.0236547124023456,0.0323392751248425,0.0152149999998983,
0.0320823022460938,-0.0444363828125001,0.0164721074218761,0.0572293330188863,0.0190469999997731,
0.00814028564453129,-0.0372537778320312,-0.0266235224609357,0.0465072054778703,0.0228139999999257,
-0.0158017309570313,-0.0157059628906249,-0.0122583124999984,0.0254290817157778,0.0265669999998863,
0.00574608398437504,-0.0611957944335937,-0.0122583124999984,0.0626754255100176,0.0303859999999077,
-0.0110133276367188,-0.0540131894531251,-0.0050757075195289,0.0553577530916555,0.0341449999996257,
0.00814028564453129,-0.00852335791015624,-0.040988732421873,0.0426495963168596,0.0379069999999047,
0.0129286889648438,-0.0707726010742187,0.00450109912109475,0.0720844779023757,0.041700999999648,
0.000957680664062543,-0.0228885678710937,0.0475967290039083,0.0528228388418823,0.0456580000000031,
0.0272938989257813,-0.0540131894531251,0.00689530078125244,0.0609091678348497,0.0494399999997768,
0.0225054956054688,-0.0348595761718749,-0.0290177241210916,0.0506331481985695,0.0531929999997374,
0.0105344873046875,-0.0109175595703124,0.0308373173828134,0.0343672616469847,0.0569759999998496,
-0.0158017309570313,-0.0420421811523437,-0.0362003291015611,0.0576862507392032,0.0606989999996586,
0.00574608398437504,-0.00852335791015624,0.0260489140625015,0.0280037682295741,0.0644489999999678,
0.0536301171875,-0.0396479794921876,0.0475967290039083,0.081936563018163,0.0682699999997567,
0.0464475122070312,-0.0492247861328126,0.00928950244140836,0.068313584415198,0.0720029999997678,
-0.0158017309570313,-0.0276769711914062,-0.0146525141601543,0.035077137950264,0.0756949999999961,
0.0105344873046875,-0.0396479794921876,0.0404141240234388,0.0575867964134787,0.0795269999998709,
0.00814028564453129,-0.0228885678710937,0.00689530078125244,0.0252526426820673,0.0835169999995742,
-0.0181959326171875,-0.00612915624999988,0.0212605107421897,0.0286473006959627,0.0872599999997874,
0.0392649072265625,-0.0348595761718749,0.0380199223632829,0.0648262098761247,0.0911419999997634,
-0.00383072265624995,-0.0228885678710937,-0.000287304199217076,0.023208694900008,0.0949149999996735,
0.0512359155273437,-0.0348595761718749,-0.00986411083984251,0.0627503766798937,0.0986889999999221,
0.015322890625,-0.0228885678710937,0.0260489140625015,0.0379107298812746,0.102511999999933,
0.0201112939453125,-0.0348595761718749,0.00928950244140836,0.0413031360873051,0.106286999999611,
-0.00861912597656256,-0.0133117612304687,-0.0242293208007798,0.028957767630188,0.110006999999769,
-0.0110133276367188,0.0249954653320312,-0.0433829340820289,0.0512654429646731,0.113758999999845,
-0.0181959326171875,-0.0348595761718749,-0.0433829340820289,0.0585522073389009,0.117622999999639,
0.0177170922851563,-0.0300711728515624,-0.0457771357421866,0.0575648934027317,0.121356999999989,
0.0177170922851563,-0.0324653745117187,-0.0529597407226543,0.0645958980016353,0.125067999999828,
-0.0229843359375,-0.0276769711914062,0.0475967290039083,0.0596635822314523,0.128787999999986,
0.0416591088867188,-0.0133117612304687,-0.0338061274414052,0.0552769264058434,0.132489999999962,
0.00335188232421879,-0.0564073911132812,-0.0122583124999984,0.0578212340984668,0.136207999999897,
-0.0134075292968751,-0.0324653745117187,0.0164721074218761,0.0387955243159639,0.14000999999962,
-0.0229843359375,-0.00852335791015624,0.0547793339843761,0.0600141879918765,0.143726999999672,
0.00335188232421879,-0.0252827695312499,-0.0194409174804662,0.0320687203169693,0.147443999999723,
-0.00622492431640631,-0.0276769711914062,0.0212605107421897,0.0354510046979445,0.151342999999997,
-0.00622492431640631,-0.00134075292968738,0.0811155522460947,0.081365103805946,0.155214999999771,
-0.00861912597656256,-0.0348595761718749,-0.000287304199217076,0.0359104709964307,0.158942999999908,
0.000957680664062543,-0.0348595761718749,0.0236547124023456,0.0421384933519786,0.162709999999606,
0.015322890625,-0.00134075292968738,0.035625720703127,0.0388043885551801,0.166580999999951,
-0.0158017309570313,-0.0181001645507812,0.00928950244140836,0.0257605417957909,0.170359999999619,
-0.0110133276367188,-0.00612915624999988,0.0116837041015643,0.0171862992963447,0.174147999999605,
0.015322890625,-0.0588015927734374,0.0404141240234388,0.0729775288042886,0.177911999999651,
-0.0277727392578125,-0.0276769711914062,-0.040988732421873,0.056722270456711,0.181634999999915,
0.0464475122070312,-0.0228885678710937,0.00689530078125244,0.0522379469569385,0.18543099999988,
0.0129286889648438,-0.0133117612304687,0.0236547124023456,0.0300649198276724,0.189257999999882,
0.0201112939453125,-0.00612915624999988,0.0236547124023456,0.031647687424666,0.19300499999963,
0.00814028564453129,-0.0324653745117187,-0.0074699091796866,0.0342937944198872,0.196719999999914,
-0.0014365209960937,-0.00852335791015624,-0.040988732421873,0.0418901827184931,0.200429999999869,
0.0368707055664063,-0.00852335791015624,0.00450109912109475,0.0381097947032933,0.20416299999988,
-0.00383072265624995,-0.0803494077148437,0.0212605107421897,0.0832028309206727,0.207852000000003,
0.0296881005859375,-0.00852335791015624,0.0332315190429711,0.0453692054632734,0.211648999999852,
-0.0253785375976563,-0.0348595761718749,0.0499909306640642,0.0660178261542871,0.215353999999934,
0.015322890625,0.00344765039062511,0.0404141240234388,0.0433587210478306,0.219106999999894,
0.00574608398437504,-0.0659841977539062,0.0308373173828134,0.0730607416999749,0.223092999999608,
-0.0277727392578125,-0.0228885678710937,0.0428083256835947,0.0559264189172239,0.226893999999902,
-0.00383072265624995,-0.0444363828125001,0.035625720703127,0.0570829092561457,0.230661999999938,
0.0320823022460938,-0.0348595761718749,0.0811155522460947,0.093937197022699,0.234469999999874,
0.00574608398437504,-0.0109175595703124,-0.0266235224609357,0.0293431855181873,0.238377999999557,
-0.0110133276367188,-0.0396479794921876,0.0811155522460947,0.0909559700054678,0.242220999999972,
0.0560243188476562,-0.0300711728515624,0.0308373173828134,0.0706678136238893,0.246025999999802,
0.0105344873046875,-0.0204943662109374,-0.000287304199217076,0.0230451082198266,0.249789999999848,
0.00574608398437504,-0.0588015927734374,-0.0481713374023425,0.0762307191424755,0.253600000000006,
0.0272938989257813,0.0106302553710937,0.035625720703127,0.0461210496784564,0.257416999999805,
0.00814028564453129,-0.00373495458984374,0.0643561406250015,0.0649763570255191,0.261251999999786,
0.044053310546875,-0.0396479794921876,-0.0218351191406239,0.0631619258401576,0.264991999999893,
0.00574608398437504,-0.0228885678710937,-0.0481713374023425,0.0536412319720145,0.268726999999672,
0.0201112939453125,-0.0444363828125001,-0.0601423457031238,0.0774348630029644,0.272447999999713,
-0.00861912597656256,-0.00134075292968738,-0.0481713374023425,0.0489547208974644,0.276145999999699,
0.0105344873046875,-0.00612915624999988,-0.0074699091796866,0.0142948075279908,0.279865999999856,
0.0177170922851563,-0.0516189877929687,-0.0457771357421866,0.0712317444442432,0.283573999999589,
0.00574608398437504,0.0537258852539062,0.117028577148439,0.128899868490466,0.287426999999752,
-0.0397437475585938,-0.0540131894531251,0.0523851323242202,0.0850951948909365,0.291245999999774,
0.0847547387695312,-0.346105791992187,0.035625720703127,0.35810861057792,0.295200999999906,
-0.0565031591796875,0.601998065429688,0.0906923588867201,0.611407705004451,0.298975999999584,
-0.101992990722656,-0.104291424316406,-0.0457771357421866,0.152888251671785,0.3025719999996,
0.271502468261719,-0.451450665039062,-0.119997387207029,0.540296831540711,0.305547999999817,
0.0536301171875,0.183012774902344,0.0164721074218761,0.191418900764576,0.308521999999812,
-0.604775339355469,0.0226012636718751,0.0452025273437524,0.606883264467188,0.311577999999827,
0.661757338867188,0.0944273134765625,0.0882981572265642,0.674266903862699,0.314570000000003,
0.185311208496094,-0.21681890234375,0.0260489140625015,0.286407448107878,0.317625999999564,
-0.810676682128906,0.252444623046875,-0.0170467158203103,0.849244111650513,0.320599999999558,
0.350511123046875,-0.192876885742188,0.0619619389648456,0.404844195109019,0.32355299999972,
0.501345827636719,-0.142598650878906,0.0188663090820338,0.521572575716563,0.326593999999659,
-0.564073911132813,0.288357647949219,-0.040988732421873,0.634830360440508,0.329551999999694,
-0.145088620605469,0.0249954653320312,-0.0314119257812475,0.15053966320425,0.332580999999664,
0.558806667480469,-0.413143438476563,-0.00268150585937299,0.694952935708986,0.335530999999719,
-0.0636857641601563,0.0561200869140626,-0.0314119257812475,0.0905099430625806,0.338477999999668,
-0.413239206542969,0.312299664550781,-0.0122583124999984,0.518119666224069,0.34149699999989,
0.328963308105469,-0.137810247558594,-0.0218351191406239,0.357330791899802,0.344436999999743,
0.242772048339844,-0.425114446777344,0.0667503422851574,0.494081135552771,0.347505999999612,
-0.362960971679688,0.355395294433594,0.0140779057617202,0.508177793394044,0.350462999999763,
0.0225054956054688,0.0321780703125001,0.0260489140625015,0.047121878839023,0.353418999999576,
0.247560451660156,-0.377230413574219,0.0308373173828134,0.452260878581074,0.356440999999904,
-0.0972045874023437,0.202166388183594,-0.0314119257812475,0.226509799798035,0.359389999999621,
-0.08044517578125,0.0561200869140626,-0.000287304199217076,0.0980865587398245,0.36242699999957,
0.163763393554688,-0.276673943847656,0.0404141240234388,0.324037377000471,0.365393999999924,
-0.0205901342773438,0.0920331118164064,0.0475967290039083,0.105638515287,0.368417999999565,
-0.0588973608398438,0.0441490786132812,-0.0553539423828102,0.0920983126534896,0.371385999999802,
0.0991199487304688,-0.245549322265625,0.071538745605471,0.274293685717048,0.374340999999731,
0.0368707055664063,0.178224371582031,0.0188663090820338,0.182973531345803,0.377386999999999,
-0.0972045874023437,-0.0157059628906249,-0.0146525141601543,0.0995495115688424,0.38030899999967,
0.0679953271484375,-0.173723272460937,-0.00986411083984251,0.186816596134339,0.383312999999816,
0.132638771972656,0.0656968935546876,-0.0362003291015611,0.15237975416771,0.386281999999937,
-0.0636857641601563,0.0106302553710937,-0.0050757075195289,0.0647660535523164,0.389217999999801,
-0.00383072265624995,-0.137810247558594,0.0380199223632829,0.143009976102159,0.392229999999927,
0.0608127221679687,-0.0109175595703124,0.00450109912109475,0.0619486898791879,0.395201999999699,
-0.0373495458984375,-0.0109175595703124,-0.0457771357421866,0.0600810106651793,0.398203999999623,
-0.0373495458984375,-0.0468305844726562,-0.00986411083984251,0.0607074369705292,0.401135999999951,
0.11109095703125,-0.0564073911132812,0.00928950244140836,0.124937141643046,0.404079999999794,
-0.0181959326171875,0.00823605371093761,-0.0314119257812475,0.0372241000673661,0.407101999999668,
-0.0660799658203125,0.0249954653320312,0.0380199223632829,0.0802299798484862,0.410064999999577,
0.044053310546875,-0.0588015927734374,0.0499909306640642,0.0888673991489109,0.41312199999993,
0.0368707055664063,-0.0109175595703124,0.0523851323242202,0.064983414226724,0.416178999999829,
-0.0158017309570313,0.0202070620117187,0.0332315190429711,0.0419803991677925,0.419208999999682,
0.0177170922851563,-0.0444363828125001,0.0260489140625015,0.0544704819175981,0.422331999999642,
0.00574608398437504,-0.00852335791015624,-0.0170467158203103,0.0199061706884707,0.425296999999773,
0.00814028564453129,-0.0157059628906249,-0.0074699091796866,0.0192026316907088,0.428316999999879,
0.00814028564453129,-0.0588015927734374,-0.0170467158203103,0.0617614935321852,0.431259999999838,
-0.0469263525390625,0.0202070620117187,0.0236547124023456,0.0563023386424002,0.434211999999661,
-0.0205901342773438,0.00584185205078125,-0.0314119257812475,0.0380103926081916,0.437274999999772,
0.0105344873046875,-0.0516189877929687,0.0475967290039083,0.0709996051778794,0.440226999999595,
-0.0014365209960937,-0.0348595761718749,0.0116837041015643,0.0367935128111991,0.443235999999615,
-0.00622492431640631,-0.00612915624999988,0.0523851323242202,0.053108552302882,0.446192999999766,
0.0608127221679687,-0.0396479794921876,0.0260489140625015,0.0771277860380231,0.449141999999938,
0.0105344873046875,-0.0157059628906249,-0.00986411083984251,0.0213296360905433,0.452180999999655,
0.00574608398437504,0.00823605371093761,0.0643561406250015,0.0651349591082232,0.455179999999928,
0.00814028564453129,-0.0372537778320312,0.0308373173828134,0.0490412923616544,0.458234999999604,
-0.0014365209960937,-0.0396479794921876,0.0164721074218761,0.0429576092596291,0.461182999999892,
0.0129286889648438,-0.0372537778320312,0.0188663090820338,0.04371421484468,0.464224999999715,
-0.00383072265624995,-0.0516189877929687,0.035625720703127,0.0628361863296697,0.467176999999992,
-0.0205901342773438,0.0369664736328126,-0.000287304199217076,0.0423149659825854,0.470113999999739,
-0.0110133276367188,-0.0204943662109374,-0.000287304199217076,0.023267895816438,0.47311499999978,
0.03447650390625,-0.0396479794921876,0.0116837041015643,0.0538247205375328,0.476082999999562,
0.0105344873046875,-0.0228885678710937,-0.0290177241210916,0.0384303301459936,0.479082999999719,
0.000957680664062543,0.00344765039062511,0.0619619389648456,0.0620651699889201,0.482060999999703,
0.0320823022460938,-0.00134075292968738,-0.038594530761717,0.050205672394116,0.484991999999693,
0.000957680664062543,-0.0755610043945312,-0.000287304199217076,0.0755676192629327,0.488013999999566,
-0.0205901342773438,-0.00852335791015624,0.00928950244140836,0.024143241605729,0.490959999999632,
0.0129286889648438,-0.00373495458984374,-0.0290177241210916,0.0319863908139954,0.493979999999738,
-0.0205901342773438,-0.0396479794921876,0.0140779057617202,0.0468412567936413,0.496926999999687,
0.0464475122070312,-0.0109175595703124,-0.0074699091796866,0.048294554976171,0.499851999999919,
-0.0205901342773438,-0.00373495458984374,-0.0170467158203103,0.026990628662661,0.5028599999996,
0.0368707055664063,-0.0300711728515624,-0.0218351191406239,0.0523497544742896,0.50579899999957,
0.00574608398437504,-0.0157059628906249,-0.0218351191406239,0.0275039484322236,0.508824999999888,
0.0201112939453125,-0.0468305844726562,0.0619619389648456,0.0802299798484868,0.511803999999756,
0.0201112939453125,-0.0157059628906249,-0.0649307490234357,0.0697649165642792,0.514736999999968,
0.044053310546875,-0.00134075292968738,0.0284431157226575,0.052454767376954,0.517776999999569,
0.00335188232421879,-0.0588015927734374,0.0164721074218761,0.0611571152910796,0.520743999999922,
0.0584185205078125,-0.0324653745117187,-0.0074699091796866,0.0672497109559634,0.523768999999902,
-0.0732625708007812,0.00105344873046875,0.0332315190429711,0.0804540110402866,0.526741999999558,
0.0392649072265625,-0.0540131894531251,0.0140779057617202,0.0682447434242786,0.52968699999974,
0.118273562011719,-0.00612915624999988,0.00928950244140836,0.118796030585562,0.532717999999932,
-0.0301669409179688,-0.0372537778320312,0.0308373173828134,0.0569984949842969,0.535658999999669,
-0.0158017309570313,-0.0133117612304687,0.0188663090820338,0.0279791941748551,0.538679999999658,
0.0919373437499999,-0.0683783994140624,-0.0290177241210916,0.118195215619764,0.541633999999704,
0.00574608398437504,-0.0276769711914062,-0.0338061274414052,0.0440668409132076,0.544573999999557,
-0.0636857641601563,0.0393606752929687,0.035625720703127,0.0829115871986465,0.547616999999718,
0.0608127221679687,-0.10189722265625,-0.00986411083984251,0.119073640429764,0.550566999999774,
0.0679953271484375,-0.0611957944335937,-0.0433829340820289,0.101244104717002,0.553659999999581,
-0.0876277807617187,0.0297838686523437,0.0308373173828134,0.0975533030527018,0.556717999999819,
-0.00622492431640631,-0.0228885678710937,0.0380199223632829,0.0448123946966094,0.559801999999763,
0.063206923828125,-0.0707726010742187,0.0164721074218761,0.0963078740578501,0.562846999999692,
-0.0541089575195313,0.00823605371093761,0.0284431157226575,0.0616816236539893,0.565784999999778,
-0.0134075292968751,0.00105344873046875,0.0523851323242202,0.0540839503429654,0.568814999999631,
0.0272938989257813,-0.0875320126953125,0.0140779057617202,0.092763126271698,0.571777999999995,
0.0177170922851563,0.0106302553710937,0.0284431157226575,0.0351554906139552,0.574832999999671,
-0.0445321508789063,0.00344765039062511,-0.0122583124999984,0.046317005305452,0.57777999999962,
0.0201112939453125,-0.0683783994140624,0.035625720703127,0.0796822541485934,0.580720999999812,
-0.0158017309570313,0.0106302553710937,-0.0146525141601543,0.0240290075056502,0.583756999999878,
-0.00383072265624995,-0.00373495458984374,0.0332315190429711,0.0336594441392108,0.586693999999625,
0.0703895288085937,-0.0252827695312499,0.00210689746093884,0.0748220770760679,0.589748999999756,
-0.0349553442382813,-0.0204943662109374,-0.00268150585937299,0.0406089351113595,0.592663999999786,
-0.0134075292968751,-0.0564073911132812,-0.0242293208007798,0.0628380107937889,0.595613999999841,
0.0320823022460938,-0.0181001645507812,-0.0194409174804662,0.0416514026973566,0.598647999999685,
-0.051714755859375,-0.0300711728515624,0.0284431157226575,0.0662397331084281,0.601602999999614,
0.0464475122070312,-0.00373495458984374,0.0188663090820338,0.0502718499201028,0.604641999999785,
0.0105344873046875,-0.0133117612304687,-0.0242293208007798,0.0295844282739541,0.607598999999936,
0.0105344873046875,-0.0324653745117187,-0.0481713374023425,0.0590377312579769,0.610533999999916,
-0.0110133276367188,0.00823605371093761,0.0404141240234388,0.0426898979495742,0.613588999999592,
0.0272938989257813,-0.0348595761718749,-0.0505655390624984,0.0672087844714853,0.616534999999658,
-0.0110133276367188,-0.0252827695312499,0.0691445439453133,0.0744411161805717,0.61956599999985,
-0.0181959326171875,-0.0204943662109374,0.0787213505859388,0.0833556359718497,0.622494999999617,
0.0225054956054688,-0.0348595761718749,-0.0122583124999984,0.0432660791923435,0.625455999999758,
-0.0014365209960937,-0.0420421811523437,-0.0146525141601543,0.0445455358013822,0.628462999999556,
-0.0014365209960937,-0.00852335791015624,0.0571735356445338,0.0578232167968335,0.63140999999996,
-0.0205901342773438,-0.0492247861328126,-0.0338061274414052,0.0631655558984856,0.634405999999672,
0.0201112939453125,-0.0324653745117187,-0.0146525141601543,0.0409042889872742,0.637362999999823,
0.0225054956054688,-0.0324653745117187,-0.000287304199217076,0.0395041822891807,0.640292999999929,
-0.0205901342773438,-0.0276769711914062,-0.00986411083984251,0.0358785318338094,0.643288999999641,
-0.00383072265624995,-0.0300711728515624,0.0859039555664083,0.0910957707837916,0.646221999999852,
-0.0110133276367188,-0.00612915624999988,0.0499909306640642,0.0515553400786951,0.649241999999958,
0.000957680664062543,-0.00852335791015624,-0.0362003291015611,0.0372025349859425,0.652197999999771,
0.0584185205078125,-0.0252827695312499,-0.0338061274414052,0.0720749347975878,0.655211999999665,
0.00574608398437504,-0.0204943662109374,0.00210689746093884,0.0213886779501308,0.658174999999574,
0.0296881005859375,-0.00852335791015624,-0.0170467158203103,0.0352791931132755,0.661108999999669,
0.015322890625,-0.0348595761718749,0.0140779057617202,0.040597641047533,0.664140999999745,
0.0225054956054688,-0.0181001645507812,-0.0218351191406239,0.036206155790119,0.667091999999684,
0.00574608398437504,-0.0228885678710937,0.0236547124023456,0.0334133123048709,0.670114999999896,
0.00574608398437504,-0.0492247861328126,0.0523851323242202,0.0721130996394045,0.673078999999689,
-0.0134075292968751,-0.0468305844726562,-0.0050757075195289,0.048975792905485,0.675986999999623,
-0.00622492431640631,-0.00852335791015624,-0.0218351191406239,0.0242522110475488,0.678987999999663,
0.015322890625,-0.0444363828125001,-0.0170467158203103,0.0499997361475356,0.681929999999738,
-0.00622492431640631,-0.0252827695312499,0.0547793339843761,0.0606526466832825,0.68495299999995,
0.024899697265625,-0.0204943662109374,0.071538745605471,0.0784716897556825,0.687905999999657,
-0.0158017309570313,-0.00134075292968738,0.0475967290039083,0.0501691232884167,0.690844999999626,
0.0416591088867188,-0.0252827695312499,0.0499909306640642,0.0698125557264957,0.693971999999576,
0.000957680664062543,-0.0228885678710937,-0.0122583124999984,0.0259821076279735,0.697013999999854,
-0.0277727392578125,-0.0204943662109374,0.0236547124023456,0.0418436316672936,0.700130999999601,
0.0225054956054688,-0.0300711728515624,0.0643561406250015,0.0745150025515754,0.703131999999641,
0.0225054956054688,-0.0157059628906249,0.0739329472656269,0.0788622551931622,0.706073999999717,
-0.0134075292968751,-0.0181001645507812,-0.0457771357421866,0.051018858820739,0.709080999999969,
-0.0134075292968751,-0.0133117612304687,0.0380199223632829,0.0424556159466993,0.71202299999959,
0.0201112939453125,-0.0324653745117187,0.0140779057617202,0.0407019915603253,0.715079999999944,
0.0105344873046875,-0.0157059628906249,-0.0218351191406239,0.0288864175864635,0.718013999999584,
0.03447650390625,-0.0372537778320312,0.0332315190429711,0.0606696558607296,0.720968999999968,
-0.00383072265624995,-0.0396479794921876,-0.0074699091796866,0.0405269818396929,0.723971999999776,
-0.0229843359375,-0.0396479794921876,-0.0481713374023425,0.066488493165593,0.726902999999766,
-0.00622492431640631,-0.0372537778320312,0.00689530078125244,0.0383945154724899,0.729928999999629,
-0.00861912597656256,0.00344765039062511,-0.0050757075195289,0.0105800960600382,0.732896999999866,
-0.0110133276367188,-0.0252827695312499,0.0212605107421897,0.0348212742130838,0.735855999999785,
-0.0110133276367188,-0.0540131894531251,0.0452025273437524,0.0712880529878294,0.738863999999921,
-0.0014365209960937,-0.0444363828125001,0.00689530078125244,0.0449911200449067,0.741799999999785,
0.0105344873046875,-0.00852335791015624,0.0308373173828134,0.0336832776939182,0.744858999999906,
-0.0158017309570313,-0.0420421811523437,0.0284431157226575,0.0531624917521496,0.747784999999567,
-0.0014365209960937,-0.0755610043945312,0.00450109912109475,0.0757085785824863,0.750788999999713,
0.00574608398437504,-0.0133117612304687,-0.0338061274414052,0.0367841639948094,0.753727999999683,
0.00574608398437504,0.00344765039062511,0.0140779057617202,0.0155913823956487,0.756696999999804,
0.00574608398437504,-0.0181001645507812,0.00210689746093884,0.0191068693100612,0.759724999999889,
0.00335188232421879,-0.0468305844726562,-0.000287304199217076,0.0469512651679258,0.762674999999945,
-0.00383072265624995,-0.00852335791015624,-0.0050757075195289,0.0106341371515291,0.765672999999879,
-0.0445321508789063,-0.0324653745117187,0.071538745605471,0.0903045133251496,0.768624999999702,
0.024899697265625,-0.0109175595703124,-0.0242293208007798,0.0364176882484074,0.771565999999893,
0.0225054956054688,-0.0396479794921876,0.0140779057617202,0.0477142226269754,0.774609999999939,
0.03447650390625,-0.0468305844726562,-0.0122583124999984,0.0594306250092987,0.777563999999984,
-0.0277727392578125,-0.0635899960937499,0.0308373173828134,0.0759338711804813,0.780594999999721,
-0.00861912597656256,-0.0372537778320312,-0.0362003291015611,0.0526554567202634,0.783518999999615,
-0.0181959326171875,-0.0276769711914062,-0.0050757075195289,0.0335092450670403,0.786435999999867,
-0.0205901342773438,0.0202070620117187,-0.0122583124999984,0.0313455772008127,0.789478999999574,
0.0320823022460938,0.00584185205078125,-0.00986411083984251,0.0340690774083131,0.792456999999558,
-0.0301669409179688,0.0106302553710937,-0.0553539423828102,0.0639304746652358,0.795489999999972,
-0.00622492431640631,-0.0755610043945312,-0.0050757075195289,0.075986695379383,0.798416999999972,
0.0368707055664063,-0.0228885678710937,0.00928950244140836,0.0443805173895395,0.801370999999563,
0.0225054956054688,-0.0181001645507812,-0.0122583124999984,0.0313748229407076,0.804397999999765,
0.0679953271484375,0.00344765039062511,0.00450109912109475,0.0682313029374124,0.807378999999855,
0.015322890625,-0.0372537778320312,0.0332315190429711,0.0522203868021619,0.810414999999921,
0.0177170922851563,-0.0372537778320312,-0.0242293208007798,0.0478413974322049,0.813358999999764,
-0.00861912597656256,-0.0348595761718749,0.0260489140625015,0.044362431260225,0.81629699999985,
0.00814028564453129,-0.0396479794921876,0.0739329472656269,0.0842870525025609,0.819323999999597,
-0.0158017309570313,-0.00852335791015624,0.0643561406250015,0.0668135852012747,0.822259999999915,
0.024899697265625,-0.0276769711914062,0.0308373173828134,0.0483420086634603,0.825290999999652,
0.0177170922851563,-0.0659841977539062,-0.0314119257812475,0.0751965344517548,0.828233999999611,
0.0464475122070312,-0.0444363828125001,0.0212605107421897,0.0677050428306499,0.831237999999757,
-0.0205901342773438,-0.00373495458984374,0.0428083256835947,0.0476493049600932,0.834336999999778,
0.0201112939453125,-0.0276769711914062,-0.000287304199217076,0.0342134684325863,0.837383999999929,
0.0129286889648438,-0.0228885678710937,-0.0314119257812475,0.0409603054044515,0.840494999999919,
-0.0014365209960937,-0.0133117612304687,0.0212605107421897,0.0251252044100738,0.843445999999858,
0.0512359155273437,-0.0252827695312499,-0.0170467158203103,0.0596232169155088,0.846458999999868,
0.0392649072265625,-0.0252827695312499,-0.00268150585937299,0.0467775784789541,0.849402999999711,
-0.0110133276367188,-0.0683783994140624,0.0212605107421897,0.0724493492661013,0.852360999999746,
0.0201112939453125,-0.00852335791015624,0.0404141240234388,0.0459392337202231,0.855412999999771,
-0.00622492431640631,-0.0181001645507812,0.0164721074218761,0.0252526426820673,0.858349999999973,
-0.0181959326171875,-0.00373495458984374,-0.0314119257812475,0.0364931627963928,0.861338999999589,
0.0105344873046875,-0.0324653745117187,-0.0170467158203103,0.0381518870466088,0.864290999999866,
0.0177170922851563,-0.0492247861328126,-0.0338061274414052,0.0622882748311944,0.867221999999856,
0.024899697265625,0.00105344873046875,-0.0457771357421866,0.0521215006969876,0.870284999999967,
0.0201112939453125,0.00584185205078125,-0.0170467158203103,0.0270033683046467,0.873282999999901,
-0.0253785375976563,-0.0204943662109374,-0.0218351191406239,0.0392538105776866,0.876309999999648,
0.0129286889648438,0.00584185205078125,0.0499909306640642,0.0519650977329223,0.879288999999972,
-0.0134075292968751,0.00344765039062511,0.0236547124023456,0.0274079104256458,0.882224999999835,
-0.00383072265624995,-0.00612915624999988,0.0140779057617202,0.015824930427711,0.885233999999855,
-0.0134075292968751,-0.0420421811523437,-0.10084377392578,0.110076217129255,0.888164999999844,
0.000957680664062543,-0.0444363828125001,0.0212605107421897,0.0492698547464079,0.891210999999657,
0.0201112939453125,0.00584185205078125,0.0212605107421897,0.0298429337793178,0.894183999999768,
0.000957680664062543,-0.0540131894531251,-0.000287304199217076,0.0540224428442142,0.897100999999566,
0.00574608398437504,-0.00852335791015624,-0.00268150585937299,0.0106233509258598,0.900126,
0.0129286889648438,-0.0372537778320312,-0.0122583124999984,0.0412948082264058,0.903086999999687,
0.0536301171875,-0.00612915624999988,-0.0362003291015611,0.064993998591741,0.906113999999889,
-0.0110133276367188,-0.0181001645507812,0.0428083256835947,0.0477646531467757,0.909056999999848,
0.0177170922851563,0.00344765039062511,-0.0194409174804662,0.026527927260512,0.912011999999777,
0.00574608398437504,-0.0348595761718749,-0.0577481440429679,0.0676982693460151,0.915026999999554,
0.0536301171875,-0.0540131894531251,0.00689530078125244,0.0764274772402446,0.917994999999792,
-0.0229843359375,0.00584185205078125,-0.0266235224609357,0.0356541565893659,0.921013999999559,
-0.0469263525390625,0.0273896669921876,0.0308373173828134,0.0624757277983352,0.923975999999584,
0.0368707055664063,0.00344765039062511,-0.0457771357421866,0.0588802291006003,0.926938999999948,
-0.00383072265624995,-0.0276769711914062,-0.000287304199217076,0.0279422925706164,0.929942999999639,
-0.0134075292968751,-0.0228885678710937,0.0428083256835947,0.050360710170419,0.932874999999967,
0.0512359155273437,0.00105344873046875,0.00450109912109475,0.0514440345176265,0.935927999999876,
-0.0229843359375,-0.0109175595703124,0.0164721074218761,0.0303117655107221,0.93885199999977,
-0.0110133276367188,-0.0181001645507812,0.0428083256835947,0.0477646531467757,0.941851999999926,
-0.0134075292968751,-0.0300711728515624,0.00928950244140836,0.0342101174234178,0.944781999999577,
0.015322890625,-0.0396479794921876,-0.0050757075195289,0.0428078971889819,0.947712999999567,
0.0225054956054688,-0.0516189877929687,-0.038594530761717,0.0682682579090425,0.950734999999895,
-0.0014365209960937,-0.0444363828125001,0.0308373173828134,0.0541072624829573,0.953683999999612,
-0.0301669409179688,-0.0372537778320312,-0.0050757075195289,0.0482042642712277,0.956672999999682,
-0.0134075292968751,-0.0204943662109374,-0.0218351191406239,0.0328108719195302,0.959610999999768,
0.00574608398437504,0.00584185205078125,-0.0146525141601543,0.0167881174570656,0.962566999999581,
-0.00861912597656256,-0.00612915624999988,0.00450109912109475,0.0114941629636389,0.965593999999783,
0.0129286889648438,-0.0372537778320312,0.0380199223632829,0.0547769062435811,0.96857,
0.00574608398437504,-0.0468305844726562,0.0835097539062524,0.0959166310953888,0.971698999999717,
0.0536301171875,-0.0588015927734374,0.00928950244140836,0.0801255991418915,0.974746999999752,
0.0392649072265625,-0.0204943662109374,0.0188663090820338,0.0481423888509638,0.977784999999585,
0.00574608398437504,-0.00612915624999988,0.0116837041015643,0.014390725451669,0.980867999999646,
0.0177170922851563,-0.00612915624999988,-0.0314119257812475,0.0365810196230813,0.983797999999751,
0.0368707055664063,-0.00852335791015624,0.00928950244140836,0.0389665422463705,0.986835999999585,
0.0272938989257813,-0.0396479794921876,-0.0146525141601543,0.0503151604150997,0.989794999999958,
0.024899697265625,-0.0468305844726562,0.0380199223632829,0.0652580497906612,0.992773999999827,
0.0177170922851563,-0.0492247861328126,-0.00986411083984251,0.053237915168821,0.995786999999837,
-0.0229843359375,-0.00373495458984374,0.0332315190429711,0.0405778688718296,0.998743999999988,
-0.0110133276367188,-0.0300711728515624,-0.0170467158203103,0.0362789104378931,1.00175899999977,
0.000957680664062543,0.00344765039062511,0.0332315190429711,0.0334236039854119,1.00473399999964,
0.015322890625,-0.0109175595703124,-0.0122583124999984,0.0224555184626107,1.00767899999983,
0.00335188232421879,-0.0204943662109374,-0.0577481440429679,0.061368577479935,1.01071199999978,
-0.04213794921875,-0.0109175595703124,0.035625720703127,0.0562493719693872,1.01369699999987,
