X,Y,Z,Magnitude,Seconds,
-0.018770541015625,-0.00440533105468754,-0.0172382519531205,0.0258630524517102,0.0,
0.0123540805664062,-0.0139821376953125,0.0234631762695354,0.0299773935128995,0.00398399999994581,
-0.0259531459960937,0.0506613071289062,-0.0387860668945272,0.0688802788340078,0.00793099999918923,
0.0339018955078125,0.0027772739257812,-0.0483628735351509,0.0591271452554447,0.0118559999991703,
0.000383072265625006,0.000383072265624951,-0.0531512768554645,0.0531540376649565,0.0157119999994393,
-0.0139821376953125,0.0267192905273437,-0.0316034619140577,0.0436829425035513,0.0196259999993345,
0.0051714755859375,0.0027772739257812,-0.0890643017578086,0.0892575333392132,0.023563999999169,
-0.00201112939453124,0.0362960971679687,0.0234631762695354,0.0432662911713433,0.0274829999998474,
-0.00679953271484374,-0.018770541015625,-0.00287304199218319,0.0201698097524082,0.0313969999997425,
-0.00201112939453124,-0.00919373437500004,-0.00766144531249502,0.0121353672163621,0.0353629999999612,
0.00277727392578125,-0.0259531459960938,-0.000478840332027275,0.0261057144245653,0.0391749999998865,
-0.00679953271484374,-0.0355299526367188,-0.0507570751953086,0.0623289006953429,0.0429979999998977,
-0.0307415493164062,-0.0115879360351563,-0.0531512768554645,0.0624850489900916,0.0467459999999846,
0.0291134921875,0.0291134921874999,0.0162805712890677,0.0442746864043288,0.0505629999997836,
-0.00919373437499998,0.0219308872070312,-0.0124498486328086,0.0268418944269108,0.0544189999991431,
0.0123540805664062,0.0195366855468749,0.0114921679687541,0.0258142463268015,0.0583369999994829,
-0.0163763393554687,-0.0139821376953125,-0.0220266552734323,0.0308035421299365,0.0621399999999994,
-0.0235589443359375,0.0362960971679687,-0.045968671874995,0.0631312071942346,0.0660749999997279,
0.00995987890625,-0.0259531459960938,0.0450109912109422,0.052903254197764,0.0701009999993403,
-0.00679953271484374,0.0147482822265624,-0.0579396801757763,0.0601726849379834,0.0739659999999276,
0.00277727392578125,-0.00440533105468754,-0.0196324536132764,0.0203114112517488,0.0778940000000148,
-0.00440533105468749,0.0123540805664062,-0.0268150585937459,0.0298509231972593,0.0818259999996371,
-0.0115879360351562,-0.00440533105468754,0.0162805712890677,0.0204632403288111,0.0856829999993352,
0.000383072265625006,-0.0020111293945313,-0.0555454785156204,0.0555831950262981,0.0894759999991948,
-0.0427125576171875,-0.0139821376953125,-0.0244208569335882,0.0511492033770129,0.0934159999997064,
-0.0355299526367187,-0.0020111293945313,-0.00287304199218319,0.035702612594849,0.0972869999995964,
-0.00679953271484374,0.000383072265624951,-0.0292092602539018,0.0299926870100211,0.101165999999466,
-0.0115879360351562,0.0171424838867187,-0.0100556469726509,0.0230056743304748,0.105207999999948,
0.00277727392578125,0.00756567724609369,0.00430956298828633,0.00913920433084258,0.109172999999828,
0.00995987890625,-0.0139821376953125,-0.000478840332027275,0.0171734868451756,0.113075999999637,
0.019536685546875,-0.00919373437500004,-0.0507570751953086,0.0551587483206222,0.116965999999593,
0.0362960971679688,0.0243250888671874,0.00670376464844225,0.0442047178306219,0.12080799999967,
-0.0307415493164062,-0.0259531459960938,0.0162805712890677,0.0434012170677967,0.124643999999535,
0.0051714755859375,0.0410845004882812,-0.0100556469726509,0.0426121623031043,0.128621999999268,
-0.00201112939453124,-0.00440533105468754,-0.00766144531249502,0.00906362661517419,0.132534999999734,
-0.0642603725585937,0.0530555087890624,0.00909796630859816,0.0838275341709866,0.136373999999705,
0.0051714755859375,-0.0259531459960938,0.0138863696289118,0.0298854681793889,0.140344999999797,
-0.0427125576171875,-0.00919373437500004,-0.0507570751953086,0.066971396971706,0.144203999999263,
-0.0163763393554687,0.0506613071289062,0.0402225878906304,0.0667278735410797,0.148240999999871,
0.00756567724609375,-0.0163763393554688,-0.0842758984374949,0.0861849814081578,0.152113999999528,
-0.0115879360351562,0.0386902988281249,-0.0196324536132764,0.0449071566661921,0.156180999999378,
-0.0139821376953125,0.0195366855468749,-0.0244208569335882,0.0342572694483803,0.160025999999561,
0.0458729038085938,0.0171424838867187,0.0258573779296913,0.0553786244957185,0.163941999999224,
-0.00679953271484374,-0.00919373437500004,0.0354341845703168,0.0372335847463223,0.168036000000029,
-0.0139821376953125,-0.00919373437500004,-0.0555454785156204,0.0580114222357803,0.172034999999596,
0.0291134921875,0.0291134921874999,0.0354341845703168,0.0543210115044494,0.176097999999911,
-0.0427125576171875,-0.0020111293945313,0.0114921679687541,0.0442772757096139,0.180199999999786,
0.0267192905273438,0.00756567724609369,0.00670376464844225,0.0285674713430917,0.184126999999535,
-0.0451067592773437,0.0243250888671874,0.100077629394535,0.112436033308414,0.187999999999192,
0.0051714755859375,-0.0211647426757813,-0.0124498486328086,0.025093609211268,0.191812000000027,
-0.0259531459960937,0.0458729038085937,-0.0866701000976509,0.101437642627694,0.195643000000018,
0.000383072265625006,-0.0642603725585938,-0.045968671874995,0.0790105120833989,0.199482999999418,
-0.0451067592773437,0.0267192905273437,0.028251579589849,0.0595541095820465,0.203419999999824,
0.112910550292969,-0.00679953271484379,-0.0244208569335882,0.115721235155748,0.207228999999643,
-0.06665457421875,-0.114538607421875,-0.045968671874995,0.140267756980627,0.211057999999866,
0.019536685546875,-0.0259531459960938,-0.0651222851562459,0.0727747201521479,0.215104999999312,
0.20149601171875,0.00995987890624994,-0.0483628735351509,0.207457970352953,0.218990999999733,
-0.260584908691406,-0.0570777675781251,-0.0220266552734323,0.267670580624666,0.222928999999567,
0.211072818359375,-0.0115879360351563,-0.000478840332027275,0.211391211264301,0.226843999999801,
-0.0259531459960937,0.0362960971679687,-0.0244208569335882,0.050866007412534,0.230845000000045,
-0.0810197841796875,-0.0834139858398438,-0.0124498486328086,0.116949122242079,0.234699999999975,
0.0674207187500001,0.127275760253906,-0.0172382519531205,0.145058022168288,0.238705999999183,
-0.037924154296875,-0.0882023891601563,0.0162805712890677,0.0973804905214143,0.242698000000019,
0.00995987890625,0.0530555087890624,-0.0148440502929645,0.0559859985156423,0.246602999999595,
-0.112144405761719,0.0482671054687499,-0.00766144531249502,0.1223306133323,0.250573999999688,
0.000383072265625006,-0.0929907924804688,0.0258573779296913,0.0965196261073632,0.254568999999719,
0.04826710546875,0.0602381137695312,-0.0507570751953086,0.0923830314680387,0.258536999999706,
-0.076231380859375,0.0243250888671874,-0.0387860668945272,0.0889229574478401,0.262428,
-0.0115879360351562,-0.0020111293945313,-0.0483628735351509,0.0497724064072998,0.266233999999713,
0.04826710546875,0.06742071875,0.0186747729492236,0.0849941994009185,0.270082999999431,
-0.0355299526367187,-0.0475009609375001,-0.000478840332027275,0.0593207224535993,0.273944999999912,
-0.0259531459960937,0.0339018955078124,-0.00287304199218319,0.0427920398719906,0.277835999999297,
-0.0115879360351562,-0.00679953271484379,-0.0244208569335882,0.0278727852943671,0.281768999999258,
0.08657433203125,-0.0427125576171875,0.00670376464844225,0.0967699230407899,0.285718999999517,
-0.145663229003906,0.0650265170898438,0.0306457812500049,0.162435796907896,0.28973699999915,
0.1057279453125,-0.0666545742187501,0.0474051928710981,0.133673045134133,0.293675999999323,
0.0315076938476563,0.0171424838867187,0.049799394531254,0.0613724630521176,0.297581999999238,
-0.112144405761719,-0.0307415493164063,-0.0339976635742136,0.121149707909377,0.301499999999578,
0.318811893066406,-0.160028438964844,0.0426167895507863,0.359258006437889,0.305381999999554,
-0.456909444824219,0.232620633300781,-0.13215993164062,0.529476012051619,0.309285999999702,
0.472040799316406,-0.315651546875,-0.0675164868164018,0.571853907266429,0.312815999999657,
0.04826710546875,0.175159793457031,0.0114921679687541,0.182051467005524,0.315822999999909,
-0.48803406640625,0.134458365234375,0.0593762011718795,0.509687978296648,0.318835000000036,
0.249380044921875,-0.188758858886719,-0.00287304199218319,0.312775587256649,0.321864999999889,
0.2589568515625,-0.00679953271484379,0.0138863696289118,0.259418033062032,0.324875999999676,
-0.404237008300781,0.191919205078125,-0.0675164868164018,0.452547252946932,0.327942999999323,
0.00756567724609375,-0.131298019042969,-0.0555454785156204,0.142764524516173,0.330909999999676,
0.266139456542969,-0.0403183559570313,0.028251579589849,0.270654635846841,0.333920999999464,
-0.148057430664063,0.187130801757812,-0.0507570751953086,0.243957415185002,0.33700299999964,
-0.210306673828125,-0.0570777675781251,-0.0316034619140577,0.220194340102795,0.339938999999504,
0.220649625,-0.0905965908203126,0.0569819995117236,0.245236513491074,0.343027999999322,
0.0362960971679688,0.110516348632812,-0.0603338818359322,0.13103986905575,0.346017999999276,
-0.284526925292969,0.0171424838867187,-0.0316034619140577,0.286789495580696,0.348982999999862,
0.0889685336914063,-0.126509615722656,-0.0890643017578086,0.17847277861091,0.352067999999235,
0.223043826660156,0.0889685336914062,0.0737414111328167,0.251200605720336,0.355083999999806,
-0.14326902734375,0.0841801303710937,-0.0770932934570272,0.183182107317745,0.35814499999924,
-0.140874825683594,-0.0618661708984376,-0.0914585034179645,0.178991054135315,0.361065999999482,
0.096151138671875,0.0339018955078124,-0.0220266552734323,0.104305098290809,0.364037999999709,
0.0219308872070313,0.120093155273437,-0.0339976635742136,0.126724784023185,0.367113999999674,
-0.076231380859375,-0.0570777675781251,-0.0292092602539018,0.0996106212409586,0.370056999999179,
-0.0475009609375,-0.0642603725585938,0.0569819995117236,0.098146243125803,0.373092999999244,
0.0746033237304688,0.0410845004882812,-0.0555454785156204,0.101680343604523,0.376095999999961,
-0.018770541015625,0.0434787021484374,0.00430956298828633,0.0475531606066495,0.37916899999982,
-0.116932809082031,-0.0235589443359375,-0.0100556469726509,0.119705562669732,0.382159999999203,
0.019536685546875,-0.02834734765625,-0.0363918652343695,0.0500961281591531,0.385104999999385,
0.0171424838867188,0.0841801303710937,-0.0435744702148391,0.0963270136441728,0.388198999999986,
-0.02834734765625,-0.0211647426757813,-0.0316034619140577,0.0474372981590397,0.391115999999784,
-0.076231380859375,-0.0475009609375001,-0.0555454785156204,0.105607125238983,0.394159999999829,
0.0267192905273438,0.0171424838867187,-0.0363918652343695,0.0482923709847376,0.397181999999702,
0.00277727392578125,0.0410845004882812,0.00430956298828633,0.0414031612800328,0.400185999999849,
-0.0905965908203125,-0.0498951625976564,-0.0244208569335882,0.106271575561297,0.403243999999177,
-0.00201112939453124,-0.0259531459960938,-0.0627280834960899,0.0679148208245338,0.406269999999495,
0.0243250888671875,0.0291134921874999,-0.0579396801757763,0.0692554107245018,0.409374999999272,
-0.0451067592773437,0.0291134921874999,-0.0100556469726509,0.0546198791274243,0.412374999999884,
-0.0618661708984375,0.0291134921874999,-0.000478840332027275,0.0683757838496194,0.415356999999858,
0.0123540805664062,0.0243250888671874,-0.081881696777339,0.0863072738659605,0.418512999999621,
0.0434787021484375,0.0817859287109375,-0.0890643017578086,0.12849819268468,0.421539999999368,
-0.140874825683594,-0.0594719692382814,-0.0316034619140577,0.156145478453317,0.424592999999732,
-0.44972683984375,0.0386902988281249,0.0234631762695354,0.451997445059052,0.427596999999878,
0.3355713046875,-0.0235589443359375,0.0521935961914117,0.340422231752403,0.430602999999792,
-0.14326902734375,0.08657433203125,0.0258573779296913,0.169380439118808,0.433735999999953,
-0.207912472167969,-0.0498951625976564,0.0593762011718795,0.221906864696085,0.436681999999564,
0.199101810058594,0.0410845004882812,0.0521935961914117,0.209889586288534,0.439757999999529,
0.103333743652344,0.00995987890624994,-0.0196324536132764,0.105652709382736,0.442725999999311,
-0.308468941894531,-0.0163763393554688,-0.0746990917968695,0.317806901938102,0.445701999999983,
0.0362960971679688,-0.02834734765625,0.0138863696289118,0.0481020794793915,0.448770999999397,
0.16318878515625,0.096151138671875,-0.000478840332027275,0.189409214022799,0.45183199999974,
-0.164816842285156,-0.0115879360351563,0.00191536132813042,0.165234803753393,0.454935999999179,
-0.1241154140625,-0.0666545742187501,-0.0651222851562459,0.155204317904368,0.457906999999977,
0.129669961914063,0.0458729038085937,0.00430956298828633,0.137612480029164,0.46091399999932,
-0.0259531459960937,0.0410845004882812,-0.0244208569335882,0.0543863973879215,0.463972999999896,
-0.183970455566406,-0.0211647426757813,-0.0483628735351509,0.191394990505029,0.466942999999446,
0.153611978515625,-0.0546835659179689,-0.0052672436523391,0.163140050817335,0.470014999999876,
0.0506613071289063,0.0243250888671874,0.0450109912109422,0.0720018563524403,0.473062000000027,
-0.2007298671875,0.0123540805664062,-0.00766144531249502,0.201255560499652,0.476118999999926,
0.0530555087890625,-0.0594719692382814,-0.0794874951171831,0.112561378891472,0.479119999999966,
0.16318878515625,-0.0163763393554688,-0.0148440502929645,0.164678808352982,0.482079999999769,
0.199101810058594,4.43683874853516,0.590888969726567,4.4804385260615,0.485204999999951,
-3.47839193994141,12.5340287631836,1.5796942553711,13.1033019298426,0.488188999999693,
1.73378507421875,-20.3216006191406,-6.30441181152343,21.3475776306521,0.49123899999995,
-10.9052054897461,9.65380416601563,-1.58783454101562,14.650619788221,0.494277999999213,
3.4001494296875,18.9044008304443,6.60272933837891,20.3109187782877,0.497276999999485,
16.2833485629883,-5.28840839501953,-3.03872074707031,17.3881720590452,0.500340999999935,
-5.04180562402344,-20.3216006191406,-2.957317890625,21.1455192601294,0.503271999999924,
-12.7822595913086,-9.42080046044922,1.06972930175782,15.9148346631135,0.506335000000036,
-0.696329610839844,18.5195329135742,1.91727668945313,18.6315303764294,0.509297999999944,
10.3002386142578,11.40635978125,-1.17124345214843,15.4133633641125,0.512269999999262,
7.28354452246094,-14.1086473110352,1.4647725756836,15.9452033055814,0.515335999999479,
-10.0408986904297,-6.0784949428711,-0.467348164062495,11.7467511077929,0.518305999999939,
-7.02659880029297,7.70492401464844,-1.2550405102539,10.5030505784826,0.521421999999802,
7.53493569677735,4.08010270117188,0.887769975585941,8.61455916087593,0.52441699999963,
5.98349302099609,-5.30995620996094,0.432871660156255,8.01156673555043,0.527415999999903,
-4.80238545800781,-1.61570304833984,-0.227927998046871,5.07201671921468,0.530441999999312,
-5.46079091455078,4.05855488623047,-0.220745393066402,6.80741020547063,0.53342099999918,
4.47514597509766,-0.816039693847656,0.171903679199223,4.55218663449665,0.536532999999508,
3.07214380224609,-1.388253890625,0.179086284179693,3.37600182222934,0.539533999999549,
-2.62605614892578,0.3355713046875,-0.29257144287109,2.66352718158164,0.542584999999235,
-2.6523923671875,0.936515921386719,-0.136948334960932,2.81620350595867,0.545661999999538,
2.29642246435547,-0.741819442382813,0.138384855957035,2.41723035481765,0.54870099999971,
1.64759381445313,-0.0307415493164063,0.133596452636723,1.65328715970205,0.551791999999296,
-1.99398691064453,0.349936514648437,-0.117794721679683,2.02788435581559,0.554824999999255,
-0.224671883789062,-0.401842806640625,-0.0363918652343695,0.461821896914143,0.557849999999235,
1.57576776464844,-0.138480624023438,-0.0052672436523391,1.58184976378629,0.561009999999442,
-0.0690487758789062,0.58456827734375,0.00670376464844225,0.588670319268329,0.56401299999925,
-1.12968011132812,-0.136086422363281,-0.0986411083984322,1.14211502772183,0.567089999999553,
0.136852566894531,-0.394660201660156,-0.0124498486328086,0.417899866679851,0.570119999999406,
0.888631888183594,0.287687271484375,0.124019645996098,0.942237481457759,0.57324299999982,
-0.332410958496094,0.268533658203125,0.00909796630859816,0.4274226759394,0.576250999999502,
-0.626897762695313,-0.344381966796875,-0.0507570751953086,0.717060684049582,0.579164999999193,
0.294869876464844,-0.0714429775390626,-0.0435744702148391,0.306514400217254,0.582209999999577,
0.345148111328125,0.31641769140625,0.00670376464844225,0.468286573209925,0.585244999999304,
-0.33480516015625,0.057843912109375,-0.0746990917968695,0.347879817969721,0.588281999999708,
-0.112144405761719,-0.25819070703125,-0.0986411083984322,0.298276511322996,0.591258999999809,
0.321206094726563,-0.138480624023438,-0.0052672436523391,0.349825645679535,0.59430699999939,
-0.0929907924804687,0.345148111328125,0.0474051928710981,0.360585299964743,0.597397999999885,
-0.0858081875,-0.0163763393554688,-0.0723048901367136,0.113398530283257,0.600399999999354,
0.134458365234375,-0.2773443203125,-0.0483628735351509,0.311990210627962,0.603441999999632,
-0.133692220703125,0.256562649902344,-0.0507570751953086,0.293724843831481,0.606449999999313,
-0.0594719692382812,0.141640970214844,-0.0292092602539018,0.156372185675911,0.609420999999202,
0.0698149204101563,-0.14326902734375,-0.0244208569335882,0.161234349818119,0.612500999999611,
-0.00919373437499998,-0.100173397460938,0.0593762011718795,0.116810819602589,0.615523999999823,
-0.076231380859375,0.206284415039062,-0.0435744702148391,0.224194597995222,0.618620999999621,
-0.00679953271484374,-0.0211647426757813,0.0138863696289118,0.0262108992433116,0.621573999999782,
0.00756567724609375,-0.171999447265625,0.00909796630859816,0.172405981110938,0.624586999999337,
0.0698149204101563,0.0362960971679687,-0.0411802685546832,0.0888107217611641,0.627676999999494,
-0.128903817382813,0.165582986816406,-0.0842758984374949,0.226133471021763,0.630652999999256,
0.0243250888671875,-0.224671883789063,-0.0387860668945272,0.22928917178722,0.633762999999817,
-0.00679953271484374,0.00517147558593745,0.0354341845703168,0.0364494065937904,0.636757999999645,
0.0219308872070313,0.175159793457031,0.00909796630859816,0.176761675847876,0.639744999999493,
-0.0882023891601562,-0.121721212402344,-0.0842758984374949,0.172331488880306,0.642774999999347,
-0.0331357509765625,-0.109750204101563,-0.0723048901367136,0.135539966175286,0.64574999999968,
0.08657433203125,0.215861221679687,-0.00766144531249502,0.232701267155941,0.648815999999897,
-0.0498951625976562,0.0027772739257812,0.028251579589849,0.0574055071437136,0.651836000000003,
-0.112144405761719,-0.126509615722656,-0.0316034619140577,0.171987875790407,0.654840999999578,
0.00756567724609375,0.103333743652344,0.00191536132813042,0.10362803992365,0.657943999999588,
0.000383072265625006,-0.0259531459960938,-0.0268150585937459,0.0373196985363129,0.660924999999224,
-0.0929907924804687,-0.02834734765625,-0.0268150585937459,0.10084595665011,0.663963999999396,
-0.0618661708984375,0.0793917270507812,0.0474051928710981,0.111255209931429,0.666976999999861,
0.0219308872070313,0.0027772739257812,-0.0220266552734323,0.0312065795415162,0.670084999999744,
0.00277727392578125,-0.0786255825195313,-0.0507570751953086,0.0936267918887359,0.673151999999391,
-0.0714429775390625,0.0793917270507812,-0.0316034619140577,0.111381884382991,0.676233999999567,
-0.00440533105468749,0.0434787021484374,0.0593762011718795,0.0737247431180159,0.67938999999933,
0.00277727392578125,-0.0618661708984376,0.0330399829101609,0.0701910024347653,0.682404999999562,
-0.0427125576171875,-0.0139821376953125,0.15514426757813,0.161522773982763,0.685490999999274,
-0.0331357509765625,0.0219308872070312,-0.0555454785156204,0.068295255984567,0.688570999999683,
0.0123540805664062,0.00756567724609369,-0.105823713378902,0.106810678736413,0.691560999999638,
0.0362960971679688,0.0291134921874999,-0.00287304199218319,0.0466181988848464,0.694666999999754,
-0.018770541015625,0.0841801303710937,0.0258573779296913,0.0900401663298802,0.697717000000011,
0.00995987890625,0.156006180175781,-0.0435744702148391,0.162283276696551,0.700826999999663,
-0.0115879360351562,0.996370962890625,-0.0363918652343695,0.99710267465712,0.703794999999445,
0.127275760253906,0.989188357910156,0.0833182177734422,1.0008169922549,0.70679199999995,
0.323600296386719,-6.36101073876953,-0.0962469067382763,6.36996375481208,0.709881999999197,
-1.64682766992188,0.931727518066406,-0.148919343261714,1.89798169462722,0.71287299999949,
2.33233548925781,5.19101227148438,-0.364397492675776,5.70255931751887,0.71608599999945,
1.08256222265625,-6.97871476708985,0.396958635253911,7.07332856047441,0.719111999999768,
-2.93490816308594,-2.64520976220703,-0.239899006347652,3.95832946393683,0.722076000000015,
-0.169605245605469,6.30910444677734,0.167115275878912,6.31359583558487,0.725181999999222,
2.06897330664063,0.54626105078125,0.0186747729492236,2.13995337013141,0.728181999999833,
0.448098782714844,-5.13517948876953,-0.0339976635742136,5.15480520893645,0.731281999999737,
-2.08017817041016,1.31240558203125,-0.00766144531249502,2.45959515574047,0.734295999999631,
-0.148057430664063,3.49112909277344,0.0258573779296913,3.49436288172498,0.73729800000001,
1.91813860205078,-2.15679262353516,0.0905008227539117,2.88776739307932,0.740373999999974,
-0.205518270507813,-1.78090296289063,-0.0339976635742136,1.79304460732957,0.743365999999696,
-1.72104792138672,2.46401658056641,-0.129765729980464,3.00835882196474,0.746447999999873,
0.637240713867188,0.12488155859375,0.0162805712890677,0.649566153742839,0.74949899999956,
1.14720566748047,-1.85991161767578,0.0641646044921913,2.18619970852031,0.752488999999514,
-0.708300619140625,0.780892813476562,-0.105823713378902,1.0595668980898,0.755507999999281,
-0.835193307128906,0.960457937988281,-0.0794874951171831,1.27528254626088,0.758512999999766,
0.807229031738281,-1.05785406152344,-0.0268150585937459,1.33093687774069,0.76162099999965,
0.378666934570313,-0.0882023891601563,0.0186747729492236,0.389251918344845,0.764595999999983,
-0.79449187890625,0.761739200195312,-0.0292092602539018,1.10105273972084,0.767658999999185,
-0.102567599121094,-0.284526925292969,-0.045968671874995,0.30592287001806,0.770719999999528,
0.663576932128906,-0.4305732265625,-0.0579396801757763,0.793148570461376,0.773687999999311,
-0.188758858886719,0.536684244140625,-0.0938527050781204,0.576600567956268,0.776802999999745,
-0.435361629882813,0.0650265170898438,-0.0220266552734323,0.440741840811137,0.779799999999341,
0.2589568515625,-0.480851461425781,-0.0411802685546832,0.547697538286149,0.78286399999979,
0.206284415039063,0.246985843261719,-0.0196324536132764,0.322398355911732,0.785947999999735,
-0.262979110351563,0.213467020019531,0.0330399829101609,0.340320175111647,0.78897699999925,
-0.095384994140625,-0.33480516015625,-0.0411802685546832,0.350554713122923,0.792038999999932,
0.187130801757813,-0.0522893642578126,-0.0675164868164018,0.205695382964804,0.795065999999679,
-0.0882023891601562,0.256562649902344,0.0162805712890677,0.271788726366585,0.798182999999881,
-0.0403183559570312,-0.231854488769531,-0.00287304199218319,0.23535149916656,0.801172999999835,
-0.0163763393554687,-0.0115879360351563,0.0785298144531303,0.0810518137383947,0.804228999999395,
0.0506613071289063,0.325994498046875,0.0689530078125049,0.337036345344585,0.807377999999517,
-0.0331357509765625,-0.313257345214844,-0.0052672436523391,0.315049021867273,0.810342999999193,
-0.109750204101563,-0.351564571777344,0.00191536132813042,0.368302082587567,0.813435999999456,
-0.02834734765625,0.407397354492187,0.0378283862304727,0.410130666216487,0.81648099999984,
0.172765591796875,0.357119119628906,-0.105823713378902,0.410585768904317,0.819490999999289,
0.0698149204101563,-0.523947091308594,-0.0579396801757763,0.531744002449942,0.822566999999253,
-0.303680538574219,0.0243250888671874,-0.0483628735351509,0.308468064787428,0.825561999999991,
0.0554497104492188,0.438521976074219,-0.0148440502929645,0.442262975748637,0.828647999999703,
0.261351053222656,-0.191153060546875,-0.0244208569335882,0.324715635334056,0.831662999999935,
-0.164816842285156,-0.279738521972656,-0.0172382519531205,0.325139031041639,0.834727999999814,
-0.248613900390625,0.287687271484375,-0.0651222851562459,0.385763852201752,0.837839999999233,
0.187130801757813,0.0817859287109375,-0.0172382519531205,0.204948853209847,0.84087399999953,
0.134458365234375,-0.21988348046875,0.0210689746093795,0.25859562768083,0.843991999999162,
-0.255796505371094,0.0554497104492186,-0.0244208569335882,0.262874306090072,0.846991999999773,
-0.0115879360351562,0.134458365234375,-0.0244208569335882,0.137148497973643,0.850007999999434,
0.158400381835938,-0.140874825683594,-0.0148440502929645,0.212501160717427,0.853110999999444,
-0.100173397460937,0.0147482822265624,-0.000478840332027275,0.101254385957177,0.856088999999884,
-0.057077767578125,0.0817859287109375,-0.0220266552734323,0.102137080579717,0.859160999999403,
0.0530555087890625,-0.0618661708984376,-0.0339976635742136,0.0883071415175828,0.862167999999656,
0.0123540805664062,0.0554497104492186,-0.0507570751953086,0.0761811943850033,0.865221999999449,
-0.100173397460937,0.0506613071289062,0.0258573779296913,0.115194972078972,0.86828499999956,
-0.0235589443359375,-0.0666545742187501,0.0330399829101609,0.0780352266172809,0.871279999999388,
0.0793917270507813,0.0027772739257812,-0.0507570751953086,0.0942710997970576,0.874398999999357,
-0.0115879360351562,0.129669961914062,-0.0244208569335882,0.132457380080236,0.877359999999499,
-0.037924154296875,0.000383072265624951,-0.000478840332027275,0.037929111663173,0.880395999999564,
0.019536685546875,-0.037924154296875,-0.0387860668945272,0.0576565915263589,0.883419999999205,
0.000383072265625006,0.0267192905273437,-0.0387860668945272,0.0471001721418514,0.886372999999367,
-0.0163763393554687,0.0027772739257812,-0.0411802685546832,0.044403966707718,0.889484999999695,
-0.0307415493164062,-0.0163763393554688,-0.0483628735351509,0.059600292630452,0.892491999999947,
0.00756567724609375,0.00756567724609369,0.00430956298828633,0.0115347855434823,0.895611999999346,
-0.0498951625976562,0.0889685336914062,-0.0507570751953086,0.11393510398568,0.89860999999928,
-0.0451067592773437,-0.0139821376953125,-0.0052672436523391,0.0475169839397243,0.901550999999927,
-0.00201112939453124,-0.00919373437500004,-0.0411802685546832,0.0422419686027466,0.904648999999154,
-0.0211647426757812,0.0458729038085937,-0.0196324536132764,0.0542005799899039,0.907679999999345,
-0.00440533105468749,0.0315076938476562,0.0234631762695354,0.0395305243318921,0.910853999999745,
-0.0235589443359375,-0.00919373437500004,-0.0268150585937459,0.0368591369590755,0.913855999999214,
0.0291134921875,-0.0020111293945313,0.00909796630859816,0.0305681706967486,0.916885999999977,
-0.0211647426757812,0.0171424838867187,0.0569819995117236,0.0631566255803182,0.920012999999926,
0.00995987890625,0.0315076938476562,0.0689530078125049,0.0764620902527269,0.923035999999229,
-0.0307415493164062,0.0410845004882812,-0.0339976635742136,0.0615533927842327,0.926235999999335,
-0.00201112939453124,0.0650265170898438,-0.0052672436523391,0.0652704866074277,0.929221999999754,
-0.0139821376953125,-0.00919373437500004,0.0593762011718795,0.0616892064456355,0.932215999999244,
-0.0427125576171875,0.0171424838867187,-0.0387860668945272,0.0601879250112073,0.935351999999511,
-0.02834734765625,0.0410845004882812,-0.0699106884765577,0.0859011796355683,0.938403999999537,
-0.0235589443359375,0.00756567724609369,-0.0124498486328086,0.0276994956884725,0.941476999999395,
-0.0451067592773437,0.00517147558593745,-0.0531512768554645,0.0699029478892444,0.944437999999536,
-0.0451067592773437,0.0195366855468749,-0.0244208569335882,0.0548878863505645,0.947464999999283,
-0.02834734765625,0.0171424838867187,0.00909796630859816,0.034354182626037,0.950561999999991,
-0.037924154296875,0.0291134921874999,-0.0579396801757763,0.0751188621143588,0.953615999999784,
0.0243250888671875,-0.0115879360351563,-0.0603338818359322,0.0660769816754948,0.956725999999435,
0.0243250888671875,0.0339018955078124,0.0306457812500049,0.051770767580193,0.959798999999293,
0.00277727392578125,-0.00440533105468754,-0.0316034619140577,0.0320296580861163,0.962826999999379,
-0.037924154296875,-0.018770541015625,-0.0316034619140577,0.0528143303858502,0.965841999999611,
0.0219308872070313,0.0243250888671874,-0.00766144531249502,0.0336358663685127,0.96885999999995,
-0.0211647426757812,-0.0115879360351563,-0.0268150585937459,0.0360731750955323,0.971964999999727,
-0.00201112939453124,-0.0020111293945313,-0.0627280834960899,0.0627925293484466,0.97497199999998,
-0.0211647426757812,-0.00679953271484379,-0.0507570751953086,0.0554117375657403,0.978024999999434,
-0.0235589443359375,-0.0020111293945313,-0.0723048901367136,0.0760727654114636,0.981000999999196,
-0.0403183559570312,0.0243250888671874,-0.0483628735351509,0.067499980089267,0.98400700000002,
-0.0115879360351562,-0.0020111293945313,-0.0100556469726509,0.0154738792497229,0.987031999999999,
-0.018770541015625,0.0147482822265624,-0.0292092602539018,0.0377230158289838,0.990076000000045,
0.000383072265625006,0.0195366855468749,0.0617704028320354,0.0647874331375313,0.993203999999423,
-0.00919373437499998,0.0386902988281249,-0.0675164868164018,0.0783577690289675,0.996150999999372,
-0.0163763393554687,0.0362960971679687,-0.0124498486328086,0.0417203774107084,0.999132999999347,
-0.00919373437499998,0.00995987890624994,-0.0244208569335882,0.0279303095750119,1.00220099999933,
0.00995987890625,-0.0211647426757813,-0.0052672436523391,0.0239768508368448,1.00516999999945,
-0.0211647426757812,-0.0307415493164063,0.00191536132813042,0.03737188509993,1.00824899999952,
-0.0139821376953125,-0.00919373437500004,-0.0316034619140577,0.0357603653678487,1.01124899999922,
-0.00679953271484374,0.0219308872070312,-0.0579396801757763,0.0623233824314679,1.01422299999922,
-0.00201112939453124,0.0267192905273437,-0.0627280834960899,0.0682112716991743,1.01730199999929,
-0.00201112939453124,-0.0307415493164063,-0.0148440502929645,0.0341969783009354,1.0202849999996,
-0.0163763393554687,0.00756567724609369,-0.00766144531249502,0.0195990231173364,1.02333699999963,
-0.00201112939453124,0.00995987890624994,-0.0196324536132764,0.022106041349508,1.02634799999942,
-0.0522893642578125,0.00517147558593745,-0.0172382519531205,0.0552999014883517,1.02933399999984,
0.0267192905273438,0.0219308872070312,-0.0411802685546832,0.0537652194100234,1.0324729999993,
0.000383072265625006,-0.00679953271484379,-0.0100556469726509,0.0121448106423899,1.03549899999962,
