X,Y,Z,Magnitude,Seconds,
0.053247044921875,0.764803778320313,-0.0342849677734396,0.767421348504955,0.0,
-0.181384717773437,0.649882098632813,-0.0390733710937532,0.675850491080511,0.00291700000002493,
-0.0927992563476562,0.556508233886719,-0.103716815917972,0.573646488934218,0.00594999999998436,
0.0747948598632813,0.731284955078125,-0.0701979926757836,0.738444117561574,0.00890500000002703,
0.0747948598632813,0.719313946777344,-0.043861774414065,0.724521000623942,0.0119469999999637,
-0.111952869628906,0.633122687011719,-0.0965342109375023,0.650151240642062,0.0148950000000241,
-0.0975876596679687,0.6450936953125,-0.0678037910156277,0.655947087140037,0.0178240000000187,
0.00536301171875003,0.724102350097656,-0.0797747993164091,0.728503255941672,0.0208860000000186,
0.0269108266601563,0.70255453515625,-0.0462559760742209,0.704589726566267,0.0238419999999451,
-0.0640688364257812,0.621151678710937,-0.082169000976565,0.629830110813905,0.02685299999996,
-0.0951934580078125,0.642699493652344,-0.0749863959960955,0.654024000456365,0.0297899999999345,
0.00536301171875003,0.678612518554687,-0.0271023627929718,0.679174683202189,0.03273200000001,
0.00536301171875003,0.709737140136719,-0.0486501777343769,0.711422806619053,0.0357659999999669,
-0.0856166513671875,0.659458905273438,-0.106111017578128,0.673406123217807,0.0386969999999565,
-0.0904050546875,0.671429913574219,-0.144418244140628,0.69271049652506,0.0417119999999613,
-0.0161848032226562,0.70255453515625,-0.082169000976565,0.707528492320597,0.044638999999961,
0.00296881005859378,0.657064703613281,-0.0965342109375023,0.664124756690262,0.0475850000000264,
-0.0401268198242187,0.673824115234375,-0.0749863959960955,0.679170125612925,0.0505979999999226,
-0.0209732065429687,0.709737140136719,-0.0869574042968768,0.715351853037506,0.0535249999999223,
-0.0353384165039062,0.678612518554687,-0.0294965644531278,0.680171891020702,0.0565369999999348,
0.00536301171875003,0.681006720214844,-0.0414675727539091,0.682289142858491,0.0594810000000052,
-0.0281558115234375,0.690583526855469,-0.0797747993164091,0.695745913313657,0.0624689999999646,
-0.0544920297851562,0.697766131835937,-0.0223139594726582,0.700246291553722,0.065405999999939,
-0.0640688364257812,0.676218316894531,-0.0558327827148464,0.681537473313324,0.068318999999974,
-0.0209732065429687,0.700160333496094,-0.0654095893554718,0.703521700002002,0.071329999999989,
-0.042521021484375,0.669035711914063,-0.0725921943359396,0.674304417724619,0.0742689999999584,
-0.0305500131835937,0.66424730859375,-0.0390733710937532,0.666096478453526,0.0772650000000112,
-0.0544920297851562,0.688189325195312,0.00162805712890446,0.690345260860753,0.0802189999999428,
-0.0209732065429687,0.657064703613281,-0.0773805976562532,0.661937804495817,0.0831339999999727,
-0.0137906015624999,0.66424730859375,-0.0486501777343769,0.666169278381316,0.0861419999999953,
-0.0568862314453125,0.673824115234375,-0.0630153876953141,0.679150882121071,0.0890650000000051,
-0.03294421484375,0.673824115234375,-0.103716815917972,0.682555080170987,0.0920750000000226,
-0.0353384165039062,0.714525543457031,0.00162805712890446,0.715400731411133,0.0949979999999186,
-0.0544920297851562,0.692977728515625,-0.0175255561523464,0.695337801825293,0.0979089999999587,
-0.052097828125,0.683400921875,-0.11089942089844,0.694297980171735,0.100921999999969,
-0.0568862314453125,0.657064703613281,-0.0773805976562532,0.664046553304885,0.103844999999978,
-0.0568862314453125,0.690583526855469,-0.0725921943359396,0.696714631374062,0.106855999999993,
-0.0281558115234375,0.654670501953125,0.0375410820312485,0.656350172309094,0.109792999999968,
-0.0401268198242187,0.70255453515625,-0.0486501777343769,0.705379242912213,0.112711999999988,
-0.0640688364257812,0.688189325195312,-0.101322614257814,0.698552528643173,0.115773999999988,
-0.00421379492187496,0.692977728515625,-0.0414675727539091,0.694230111617481,0.11879399999998,
-0.0353384165039062,0.673824115234375,-0.0462559760742209,0.676333761744134,0.121894999999995,
-0.0233674082031249,0.700160333496094,-0.0630153876953141,0.703378608897003,0.124895999999922,
-0.00181959326171871,0.700160333496094,-0.0917458076171904,0.706148069979894,0.127813999999944,
-0.00421379492187496,0.671429913574219,-0.0917458076171904,0.677682210276511,0.130827999999951,
0.00775721337890628,0.688189325195312,-0.0654095893554718,0.691334315690923,0.133786999999984,
0.0269108266601563,0.676218316894531,-0.0654095893554718,0.679907213577601,0.136836000000017,
-0.0233674082031249,0.681006720214844,-0.0223139594726582,0.681772763852632,0.139783999999963,
-0.0449152231445312,0.676218316894531,-0.0917458076171904,0.683890256246663,0.142707999999971,
-0.0568862314453125,0.676218316894531,-0.0773805976562532,0.683004401395307,0.145714999999996,
-0.052097828125,0.681006720214844,-0.0630153876953141,0.685897423642567,0.148656999999957,
-0.042521021484375,0.676218316894531,-0.0654095893554718,0.68070380030627,0.151695000000018,
-0.0185790048828124,0.678612518554687,-0.0749863959960955,0.682995673006832,0.15462100000002,
-0.0497036264648437,0.66424730859375,-0.0366791694335955,0.667113407846174,0.157640000000015,
-0.0161848032226562,0.676218316894531,-0.0941400092773463,0.682931549502414,0.160598999999934,
-0.03294421484375,0.671429913574219,-0.0773805976562532,0.676676589684905,0.163521999999944,
-0.0449152231445312,0.690583526855469,-0.0414675727539091,0.693283884440106,0.166532999999959,
-0.0473094248046875,0.678612518554687,-0.0965342109375023,0.687074949256493,0.169465999999943,
-0.00660799658203121,0.688189325195312,-0.0917458076171904,0.694309373512225,0.172453000000019,
-0.0688572397460937,0.692977728515625,-0.0414675727539091,0.697623832214917,0.17539499999998,
-0.0353384165039062,0.688189325195312,-0.0749863959960955,0.693163985344209,0.178315999999995,
-0.0377326181640625,0.681006720214844,-0.0390733710937532,0.683169548340618,0.181329000000005,
-0.0257616098632812,0.709737140136719,-0.0654095893554718,0.713210265638295,0.184258,
-0.0473094248046875,0.661853106933594,-0.0294965644531278,0.664197082308812,0.187288999999964,
-0.0473094248046875,0.673824115234375,0.0566946953124976,0.677857955934218,0.190237000000025,
-0.0137906015624999,0.70255453515625,-0.0965342109375023,0.709289721793144,0.193145999999956,
-0.0736456430664062,0.697766131835937,-0.0965342109375023,0.708251445011782,0.196158999999966,
-0.0473094248046875,0.666641510253906,-0.0294965644531278,0.668968707925488,0.199075999999991,
0.366887462402344,0.178224371582031,0.0495120903320281,0.410879281277224,0.20210499999996,
-0.420804883789063,1.21491369042969,-0.0845632026367209,1.28850415624257,0.205044999999927,
-0.49263093359375,1.01858915429688,-0.113293622558595,1.13712116632183,0.207963999999947,
0.309426622558594,0.20456058984375,-0.0199197578125023,0.37146556558657,0.210982999999942,
0.19689914453125,0.58763285546875,-0.000766144531251456,0.619743683244079,0.213945999999964,
-0.138289087890625,0.961128314453125,-0.0749863959960955,0.9739170746309,0.216960999999969,
-0.351373035644531,0.980281927734375,-0.11089942089844,1.0472413043689,0.219880999999987,
-0.00181959326171871,0.475105377441406,-0.0558327827148464,0.478378229248638,0.222805999999991,
0.146620909667969,0.551719830566406,-0.101322614257814,0.579791975411979,0.225833999999963,
0.04367023828125,0.829447223144531,-0.0749863959960955,0.833974067509415,0.228792999999996,
-0.238845557617188,0.831841424804687,-0.0845632026367209,0.869573626356467,0.231807000000003,
-0.0688572397460937,0.669035711914063,0.0088106621093722,0.672627483120199,15.591429,
-0.0377326181640625,0.700160333496094,-0.082169000976565,0.705974495145797,15.59573,
-0.0401268198242187,0.690583526855469,-0.0271023627929718,0.692279067502626,15.598666,
-0.0544920297851562,0.709737140136719,-0.0941400092773463,0.71802404607805,15.60159,
-0.0473094248046875,0.685795123535156,-0.0989284125976582,0.69450699345582,15.604609,
-0.0497036264648437,0.669035711914063,-0.0534385810546905,0.673004395413026,15.607547,
-0.0185790048828124,0.688189325195312,-0.0294965644531278,0.689071675553242,15.610559,
-0.0401268198242187,0.678612518554687,0.00162805712890446,0.679799795953453,15.613555,
-0.0784340463867187,0.640305291992187,-0.0701979926757836,0.648899471999711,15.616573,
-0.0257616098632812,0.681006720214844,-0.115687824218753,0.691243434828133,15.6196689999999,
-0.052097828125,0.642699493652344,-0.0606211860351582,0.647650948453432,15.622693,
-0.0712514414062499,0.673824115234375,-0.000766144531251456,0.677581207790844,15.6257079999999,
-0.00900219824218745,0.676218316894531,-0.0701979926757836,0.679911766226011,15.628649,
-0.0305500131835937,0.688189325195312,-0.0606211860351582,0.691529304378785,15.631574,
-0.0353384165039062,0.690583526855469,-0.0486501777343769,0.693196401490031,15.634603,
-0.0377326181640625,0.692977728515625,-0.0606211860351582,0.696646833688706,15.637564,
-0.0185790048828124,0.714525543457031,-0.0630153876953141,0.717539455891725,15.640574,
-0.0664630380859375,0.678612518554687,-0.0941400092773463,0.688327412731389,15.643501,
-0.0137906015624999,0.685795123535156,-0.043861774414065,0.687334698244462,15.6464179999999,
-0.0473094248046875,0.669035711914063,-0.043861774414065,0.672138989158089,15.649405,
0.000574608398437537,0.649882098632813,-0.0989284125976582,0.657368924666578,15.652374,
-0.0688572397460937,0.688189325195312,-0.0486501777343769,0.693334483905003,15.655405,
-0.0233674082031249,0.712131341796875,-0.11089942089844,0.72109345114982,15.658362,
-0.00660799658203121,0.690583526855469,-0.043861774414065,0.692006595660559,15.661346,
-0.00900219824218745,0.700160333496094,-0.0606211860351582,0.70283743523724,15.664283,
-0.0449152231445312,0.666641510253906,-0.0869574042968768,0.673787704418671,15.66721,
-0.0281558115234375,0.707342938476562,-0.108505219238284,0.716170485943919,15.67021,
-0.0473094248046875,0.719313946777344,-0.0606211860351582,0.723412512955132,15.673153,
-0.0233674082031249,0.683400921875,-0.0869574042968768,0.689307221743528,15.6761349999999,
-0.0161848032226562,0.671429913574219,-0.0678037910156277,0.675038836492931,15.67908,
-0.0353384165039062,0.685795123535156,-0.0582269843750023,0.689169164178876,15.681976,
-0.0353384165039062,0.671429913574219,-0.0390733710937532,0.673493623467896,15.684988,
-0.0401268198242187,0.671429913574219,-0.082169000976565,0.677628242647084,15.687925,
-0.0401268198242187,0.74086176171875,-0.0175255561523464,0.742154604354554,15.690928,
-0.0736456430664062,0.678612518554687,-0.0462559760742209,0.684162441532988,15.693865,
-0.0353384165039062,0.654670501953125,-0.0606211860351582,0.658420229036798,15.69679,
-0.0401268198242187,0.66424730859375,-0.103716815917972,0.67349226168339,15.699797,
-0.03294421484375,0.676218316894531,-0.000766144531251456,0.677020768051311,15.7027499999999,
-0.00900219824218745,0.697766131835937,-0.0318907661132837,0.698552528643173,15.705747,
-0.0473094248046875,0.697766131835937,-0.0318907661132837,0.700094834558811,15.7086939999999,
-0.0497036264648437,0.681006720214844,-0.0462559760742209,0.684383093584371,15.711603,
-0.052097828125,0.719313946777344,-0.122870429199221,0.731589967191556,15.714606,
-0.0161848032226562,0.640305291992187,-0.0294965644531278,0.641188632247246,15.717541,
-0.0544920297851562,0.659458905273438,0.0231758720703095,0.662112188455073,15.720565,
-0.042521021484375,0.649882098632813,-0.0223139594726582,0.651653813139163,15.723492,
-0.0185790048828124,0.685795123535156,-0.0534385810546905,0.688124852648249,15.726411,
-0.0257616098632812,0.685795123535156,-0.0941400092773463,0.69270553148801,15.729414,
-0.00421379492187496,0.692977728515625,-0.0271023627929718,0.693520314306135,15.732358,
0.0101514150390625,0.671429913574219,-0.0271023627929718,0.672053359591737,15.735382,
-0.0497036264648437,0.678612518554687,-0.0701979926757836,0.684041781617616,15.7383239999999,
-0.03294421484375,0.700160333496094,-0.0893516059570327,0.706607050191359,15.7412399999999,
-0.0233674082031249,0.683400921875,-0.0582269843750023,0.686274899362594,15.744237,
-0.00421379492187496,0.666641510253906,-0.0390733710937532,0.667798912540207,15.747171,
-0.0233674082031249,0.673824115234375,-0.0654095893554718,0.677394558892505,15.750182,
-0.00660799658203121,0.681006720214844,-0.0893516059570327,0.686875191052718,15.75321,
-0.0401268198242187,0.666641510253906,-0.0175255561523464,0.668077996929448,15.756296,
-0.0497036264648437,0.659458905273438,-0.0462559760742209,0.66294503056496,15.759328,
-0.0353384165039062,0.685795123535156,-0.0773805976562532,0.691051019852545,15.762291,
-0.0257616098632812,0.6450936953125,-0.0869574042968768,0.65143773795869,15.7652949999999,
-0.03294421484375,0.688189325195312,-0.0797747993164091,0.693580483585304,15.76824,
-0.0760398447265624,0.633122687011719,-0.11089942089844,0.647244216930972,15.7712319999999,
-0.0473094248046875,0.716919745117187,-0.0582269843750023,0.720834574866973,15.7742019999999,
-0.00900219824218745,0.673824115234375,-0.0271023627929718,0.674429029560221,15.777112,
-0.03294421484375,0.700160333496094,-0.137235639160158,0.714243260065315,15.7801079999999,
-0.0233674082031249,0.676218316894531,-0.0294965644531278,0.677264568085724,15.783047,
-0.0161848032226562,0.700160333496094,-0.043861774414065,0.701719527811125,15.7860479999999,
-0.0281558115234375,0.685795123535156,-0.0606211860351582,0.689044722339162,15.789003,
-0.0233674082031249,0.661853106933594,-0.0223139594726582,0.662641293394194,15.791934,
-0.042521021484375,0.676218316894531,-0.0965342109375023,0.684396159583814,15.7949609999999,
-0.0544920297851562,0.697766131835937,-0.0462559760742209,0.701417544241639,15.7978909999999,
-0.0544920297851562,0.683400921875,-0.101322614257814,0.693016935932841,15.800885,
-0.0185790048828124,0.673824115234375,-0.0654095893554718,0.677246286127488,15.803811,
-0.00900219824218745,0.666641510253906,-0.082169000976565,0.67174674356359,15.8067129999999,
0.00296881005859378,0.690583526855469,-0.0893516059570327,0.696346272255695,15.809726,
-0.0664630380859375,0.66424730859375,-0.0797747993164091,0.672313796535239,15.812654,
-0.0305500131835937,0.676218316894531,-0.11089942089844,0.685932355968721,15.815644,
-0.0473094248046875,0.678612518554687,-0.122870429199221,0.691267151241897,15.818571,
-0.0353384165039062,0.649882098632813,-0.113293622558595,0.660629238466511,15.82148,
-0.0161848032226562,0.707342938476562,-0.0701979926757836,0.711001925907183,15.824478,
-0.042521021484375,0.671429913574219,-0.00316034619140915,0.672782397137743,15.827397,
-0.0257616098632812,0.690583526855469,-0.043861774414065,0.692454419699691,15.830384,
-0.0401268198242187,0.669035711914063,-0.0414675727539091,0.67151954928778,15.833303,
-0.0449152231445312,0.714525543457031,-0.082169000976565,0.720635743107553,15.8362,
-0.0305500131835937,0.657064703613281,-0.00794874951172098,0.657822552561652,15.839176,
-0.00900219824218745,0.709737140136719,0.0183874687499976,0.710032356072364,15.8421129999999,
-0.0568862314453125,0.661853106933594,-0.0151313544921905,0.664465602100266,15.845104,
-0.0137906015624999,0.669035711914063,-0.00316034619140915,0.669185289957768,15.848037,
-0.0353384165039062,0.657064703613281,-0.0366791694335955,0.659035803189592,15.851035,
-0.0449152231445312,0.66424730859375,-0.0318907661132837,0.666527482709795,15.853975,
-0.052097828125,0.671429913574219,-0.0869574042968768,0.679038955215145,15.856898,
-0.0401268198242187,0.707342938476562,-0.0558327827148464,0.710676785822885,15.8599019999999,
-0.0640688364257812,0.637911090332031,-0.0342849677734396,0.642036474029926,15.862845,
-0.00181959326171871,0.635516888671875,-0.0725921943359396,0.639651978333004,15.8658419999999,
-0.0257616098632812,0.657064703613281,-0.0701979926757836,0.661305862255028,15.868788,
-0.0497036264648437,0.704948736816406,-0.0678037910156277,0.709944030257945,15.871716,
-0.0377326181640625,0.673824115234375,-0.0366791694335955,0.675875765370561,15.874732,
-0.00900219824218745,0.695371930175781,-0.00316034619140915,0.695437379379073,15.8776809999999,
-0.0401268198242187,0.669035711914063,-0.0678037910156277,0.67365888961822,15.8806939999999,
-0.0353384165039062,0.685795123535156,-0.0701979926757836,0.690283647004123,15.883635,
-0.0832224497070312,0.66424730859375,-0.127658832519533,0.681503661493854,15.8865549999999,
-0.0305500131835937,0.678612518554687,-0.043861774414065,0.680714410674112,15.8896,
0.00296881005859378,0.661853106933594,-0.11089942089844,0.671086455344186,15.892654,
0.014939818359375,0.678612518554687,-0.0127371528320328,0.678896445397981,15.895773,
-0.0401268198242187,0.70255453515625,-0.101322614257814,0.710956615200856,15.8988039999999,
-0.0760398447265624,0.697766131835937,-0.137235639160158,0.715187565173657,15.9017309999999,
-0.0233674082031249,0.659458905273438,-0.0558327827148464,0.662230611748094,15.9047459999999,
-0.061674634765625,0.700160333496094,-0.0318907661132837,0.703594538166782,15.907701,
-0.0497036264648437,0.676218316894531,-0.120476227539065,0.688662605336949,15.9107369999999,
-0.061674634765625,0.690583526855469,-0.101322614257814,0.700696539378959,15.913698,
-0.0209732065429687,0.673824115234375,-0.0582269843750023,0.676660324958904,15.9166309999999,
-0.00900219824218745,0.654670501953125,-0.0582269843750023,0.657316428678118,15.919633,
0.00775721337890628,0.66424730859375,-0.0558327827148464,0.666634803291225,15.922615,
-0.00900219824218745,0.692977728515625,0.0112048637695281,0.693126771062813,15.92566,
-0.0473094248046875,0.700160333496094,-0.0582269843750023,0.704168343498995,15.928602,
-0.0257616098632812,0.671429913574219,-0.0534385810546905,0.674045600334406,15.931553,
-0.0257616098632812,0.683400921875,-0.0797747993164091,0.688523419477015,15.934588,
-0.0353384165039062,0.688189325195312,0.0088106621093722,0.689152362515423,15.937544,
-0.0592804331054687,0.719313946777344,-0.0414675727539091,0.722942793980044,15.940559,
-0.0161848032226562,0.681006720214844,-0.0893516059570327,0.687034067801762,15.943506,
-0.0497036264648437,0.637911090332031,-0.0294965644531278,0.640524048703009,15.946498,
-0.0305500131835937,0.659458905273438,-0.0869574042968768,0.665868561513463,15.949436,
-0.061674634765625,0.6450936953125,-0.106111017578128,0.656665199593275,15.952356,
-0.0353384165039062,0.654670501953125,-0.0271023627929718,0.656183516920017,15.955366,
-0.0233674082031249,0.685795123535156,-0.0725921943359396,0.690022183635598,15.958307,
-0.0449152231445312,0.659458905273438,0.00162805712890446,0.660988710633229,15.961321,
0.00775721337890628,0.697766131835937,-0.00794874951172098,0.697854520452145,15.964285,
-0.0305500131835937,0.695371930175781,-0.0366791694335955,0.697008454792514,15.9672019999999,
-0.03294421484375,0.642699493652344,-0.0773805976562532,0.648178769573865,15.97021,
-0.0305500131835937,0.661853106933594,-0.0869574042968768,0.668239798743849,15.9731489999999,
-0.03294421484375,0.673824115234375,-0.0366791694335955,0.675625355528786,15.9761589999999,
-0.052097828125,0.681006720214844,-0.0247081611328142,0.683443362612942,15.979105,
-0.0377326181640625,0.652276300292969,-0.0486501777343769,0.655175520140202,15.9820189999999,
-0.0305500131835937,0.692977728515625,-0.0558327827148464,0.695894198244156,15.9850369999999,
-0.052097828125,0.690583526855469,-0.0582269843750023,0.694989332989282,15.9879989999999,
-0.061674634765625,0.649882098632813,-0.0510443793945328,0.654794648240679,15.991,
-0.00900219824218745,0.666641510253906,-0.0941400092773463,0.673315887317045,15.993937,
-0.00181959326171871,0.657064703613281,-0.0869574042968768,0.662796292850298,15.996862,
-0.03294421484375,0.700160333496094,-0.0486501777343769,0.702621273294951,15.99987,
-0.0353384165039062,0.635516888671875,-0.0989284125976582,0.644140784524064,16.002805,
-0.0233674082031249,0.666641510253906,-0.0390733710937532,0.668194333475203,16.005816,
0.0221224233398438,0.719313946777344,-0.0294965644531278,0.720258289058421,16.008782,
-0.0377326181640625,0.685795123535156,-0.082169000976565,0.691730038858804,16.01172,
-0.061674634765625,0.704948736816406,-0.0630153876953141,0.710441708515844,16.014727,
-0.0544920297851562,0.6450936953125,-0.0294965644531278,0.648062731806559,16.0176809999999,
-0.0161848032226562,0.659458905273438,-0.0797747993164091,0.664463704204955,16.0206899999999,
-0.0592804331054687,0.695371930175781,-0.103716815917972,0.705558976223622,16.023637,
-0.03294421484375,0.695371930175781,-0.0701979926757836,0.699682214111358,16.026555,
-0.0401268198242187,0.661853106933594,-0.0294965644531278,0.663724147625649,16.029646,
-0.061674634765625,0.630728485351562,-0.0678037910156277,0.637353541516355,16.03268,
-0.0185790048828124,0.654670501953125,-0.11089942089844,0.66425697369738,16.035789,
0.0197282216796875,0.661853106933594,-0.0941400092773463,0.668805711126208,16.038804,
-0.0281558115234375,0.709737140136719,-0.0151313544921905,0.710456554407629,16.0418079999999,
-0.042521021484375,0.712131341796875,-0.0989284125976582,0.720226295032738,16.044753,
-0.0473094248046875,0.659458905273438,-0.082169000976565,0.666240177519547,16.047701,
-0.0137906015624999,0.659458905273438,-0.0654095893554718,0.662838323285209,16.0507309999999,
-0.03294421484375,0.652276300292969,-0.0725921943359396,0.657129606618102,16.053684,
-0.0305500131835937,0.681006720214844,-0.0725921943359396,0.685545828491286,16.056692,
-0.061674634765625,0.676218316894531,-0.043861774414065,0.680440172191425,16.0596429999999,
-0.0784340463867187,0.657064703613281,-0.0725921943359396,0.665699294761163,16.062555,
-0.0544920297851562,0.678612518554687,-0.0773805976562532,0.68518033286346,16.065608,
-0.03294421484375,0.6450936953125,-0.122870429199221,0.657516797804595,16.068547,
-0.0568862314453125,0.661853106933594,-0.082169000976565,0.669355901749725,16.071599,
-0.052097828125,0.690583526855469,-0.0486501777343769,0.694252570073072,16.0745439999999,
-0.0281558115234375,0.719313946777344,-0.0558327827148464,0.722026733145405,16.0774699999999,
-0.0449152231445312,0.707342938476562,-0.0103429511718769,0.708842991445726,16.080472,
-0.0449152231445312,0.692977728515625,-0.0247081611328142,0.69487121304265,16.0834199999999,
-0.0161848032226562,0.671429913574219,-0.0294965644531278,0.672272358506712,16.08642,
-0.0353384165039062,0.637911090332031,-0.0199197578125023,0.639199624218376,16.0893649999999,
-0.0257616098632812,0.669035711914063,-0.0701979926757836,0.673201457614891,16.092278,
-0.0185790048828124,0.671429913574219,-0.082169000976565,0.676694209363583,16.09529,
-0.0544920297851562,0.685795123535156,-0.0845632026367209,0.693134379478385,16.098226,
-0.0377326181640625,0.709737140136719,-0.125264630859377,0.721693692855424,16.1012539999999,
-0.0449152231445312,0.681006720214844,-0.0845632026367209,0.687705216999319,16.10419,
-0.0305500131835937,0.673824115234375,-0.0486501777343769,0.676268497987665,16.107115,
-0.0185790048828124,0.657064703613281,-0.0462559760742209,0.658952820374436,16.1101189999999,
0.000574608398437537,0.671429913574219,-0.0678037910156277,0.674845028946043,16.113085,
-0.0592804331054687,0.661853106933594,-0.0678037910156277,0.667952886798847,16.116091,
-0.0161848032226562,0.676218316894531,-0.0678037910156277,0.679801819676235,16.119028,
-0.0760398447265624,0.647487896972656,-0.0247081611328142,0.652405646770993,16.121943,
-0.0377326181640625,0.666641510253906,-0.0534385810546905,0.669843515764886,16.124945,
-0.0568862314453125,0.678612518554687,-0.0630153876953141,0.683901990605069,16.127886,
-0.0736456430664062,0.676218316894531,-0.000766144531251456,0.680217229878647,16.130891,
-0.0449152231445312,0.601998065429687,-0.0797747993164091,0.608919589648077,16.133838,
-0.0281558115234375,0.685795123535156,-0.115687824218753,0.696054145781499,16.13684,
-0.0856166513671875,0.752832770019531,-0.0725921943359396,0.761155054693272,16.139785,
-0.0544920297851562,0.649882098632813,-0.0678037910156277,0.655677876330738,16.142716,
-0.0856166513671875,0.669035711914063,-0.142024042480472,0.689282107304536,16.145727,
-0.0449152231445312,0.688189325195312,-0.0318907661132837,0.690390429790416,16.1486699999999,
-0.0161848032226562,0.688189325195312,-0.0606211860351582,0.691043720298828,16.1516809999999,
-0.03294421484375,0.66424730859375,-0.0558327827148464,0.667403257327528,16.154623,
-0.0353384165039062,0.652276300292969,-0.0869574042968768,0.658995269912415,16.157547,
-0.0401268198242187,0.707342938476562,-0.0606211860351582,0.711068999801125,16.1605549999999,
-0.0544920297851562,0.70255453515625,-0.082169000976565,0.709439215789632,16.163493,
-0.042521021484375,0.657064703613281,-0.11089942089844,0.667713069782293,16.166527,
-0.0281558115234375,0.714525543457031,-0.0223139594726582,0.715428133890789,16.1695639999999,
-0.0161848032226562,0.697766131835937,-0.00555454785156506,0.697975913334034,16.1725709999999,
-0.0497036264648437,0.681006720214844,-0.0390733710937532,0.683935180985863,16.175661,
-0.00421379492187496,0.654670501953125,-0.0199197578125023,0.654987037235478,16.17862,
-0.0760398447265624,0.678612518554687,-0.0510443793945328,0.684764585089612,16.1816319999999,
-0.080828248046875,0.690583526855469,-0.108505219238284,0.703713148838654,16.184585,
-0.0401268198242187,0.654670501953125,-0.0678037910156277,0.659394405400025,16.187505,
-0.0544920297851562,0.685795123535156,-0.151600849121095,0.70446231285211,16.190557,
-0.0353384165039062,0.70255453515625,-0.0773805976562532,0.707685972337489,16.193498,
-0.0113963999023437,0.712131341796875,-0.0893516059570327,0.717805430034666,16.196501,
-0.03294421484375,0.714525543457031,-0.0127371528320328,0.715398007130649,16.1994599999999,
-0.00660799658203121,0.640305291992187,-0.0941400092773463,0.64722243001828,16.2023859999999,
-0.0353384165039062,0.66424730859375,-0.0294965644531278,0.66584032467971,16.205412,
-0.00900219824218745,0.726496551757812,-0.0247081611328142,0.726972332703074,16.2083799999999,
-0.0353384165039062,0.681006720214844,-0.0630153876953141,0.684828369553403,16.211416,
-0.0473094248046875,0.66424730859375,-0.0773805976562532,0.670410639491223,16.214355,
-0.00660799658203121,0.731284955078125,0.00162805712890446,0.731316622067664,16.217302,
-0.0353384165039062,0.697766131835937,-0.0582269843750023,0.701082562989337,16.2203089999999,
-0.061674634765625,0.657064703613281,-0.00794874951172098,0.660000733277382,16.223252,
-0.0688572397460937,0.673824115234375,-0.0965342109375023,0.684177690090934,16.226261,
-0.0185790048828124,0.707342938476562,-0.0869574042968768,0.712910094049133,16.229198,
0.0221224233398438,0.66424730859375,-0.0486501777343769,0.666393823787447,16.232206,
-0.0305500131835937,0.657064703613281,-0.0558327827148464,0.66013985462598,16.235145,
-0.0281558115234375,0.685795123535156,-0.122870429199221,0.697283904560219,16.238073,
-0.0473094248046875,0.805505206542969,-0.0582269843750023,0.808991471619193,16.24108,
-0.0305500131835937,0.455951764160156,0.0471178886718722,0.45939678925649,16.24403,
-0.0640688364257812,0.733679156738281,-0.0989284125976582,0.743085965183196,16.24704,
-0.0305500131835937,0.738467560058594,-0.0318907661132837,0.739786902781945,16.2499799999999,
-0.0401268198242187,0.714525543457031,-0.11089942089844,0.724193065057503,16.252894,
-0.0544920297851562,0.678612518554687,-0.0366791694335955,0.681784198349874,16.255906,
0.0293050283203126,0.640305291992187,-0.0917458076171904,0.647508258521376,16.2588579999999,
-0.0353384165039062,0.709737140136719,-0.101322614257814,0.717803513456496,16.2618749999999,
-0.0401268198242187,0.652276300292969,-0.115687824218753,0.663670254166599,16.264834,
-0.0473094248046875,0.616363275390625,-0.108505219238284,0.627626681656825,16.2677649999999,
-0.0544920297851562,0.733679156738281,-0.0749863959960955,0.739511626633946,16.270769,
-0.0281558115234375,0.728890753417969,-0.000766144531251456,0.729434758644116,16.27372,
-0.03294421484375,0.642699493652344,-0.0678037910156277,0.64710533494072,16.2767269999999,
-0.0113963999023437,0.642699493652344,-0.0606211860351582,0.645652728072934,16.279681,
-0.0592804331054687,0.728890753417969,-0.082169000976565,0.735899208376305,16.2826,
-0.0161848032226562,0.697766131835937,-0.0510443793945328,0.699817870063645,16.285609,
-0.0161848032226562,0.676218316894531,-0.0678037910156277,0.679801819676235,16.288551,
-0.0377326181640625,0.659458905273438,-0.082169000976565,0.665628682479536,16.291563,
-0.0568862314453125,0.678612518554687,-0.0366791694335955,0.681979732204355,16.294498,
-0.0281558115234375,0.714525543457031,-0.0342849677734396,0.715901502296465,16.297422,
-0.0592804331054687,0.685795123535156,-0.0582269843750023,0.690810757677657,16.300425,
-0.052097828125,0.6450936953125,-0.0701979926757836,0.650989875192378,16.30337,
