X,Y,Z,Magnitude,Seconds,
0.0147482822265625,-0.0020111293945313,0.0138863696289118,0.0203565157025128,0.0,
-0.0163763393554687,-0.018770541015625,-0.00766144531249502,0.0260617621234844,0.00369899999986956,
-0.00201112939453124,0.0434787021484374,-0.0411802685546832,0.0599187508230096,0.00742900000022928,
0.019536685546875,-0.00679953271484379,0.0234631762695354,0.0312799675184134,0.0113590000000841,
-0.00919373437499998,0.0506613071289062,0.0258573779296913,0.0576168099183416,0.0152570000000196,
0.0267192905273438,-0.00679953271484379,0.0186747729492236,0.0333001693108292,0.019029999999475,
-0.057077767578125,0.0195366855468749,0.0450109912109422,0.0752698011399754,0.0229030000000421,
0.019536685546875,0.0195366855468749,-0.0268150585937459,0.0385020977571479,0.0266869999995833,
0.00995987890625,-0.00919373437500004,-0.0579396801757763,0.0595040374971016,0.0304729999998017,
0.00277727392578125,0.0315076938476562,-0.0555454785156204,0.0639198576780777,0.0342949999994744,
0.0267192905273438,-0.0259531459960938,-0.0148440502929645,0.0400977817650705,0.0380450000002384,
-0.0235589443359375,0.0219308872070312,-0.00287304199218319,0.0323147341347592,0.041798999999628,
-0.018770541015625,0.00517147558593745,-0.0531512768554645,0.0566050845871768,0.0456400000002759,
0.000383072265625006,-0.0259531459960938,-0.0339976635742136,0.0427732820807646,0.0494199999993725,
-0.0355299526367187,0.000383072265624951,0.0114921679687541,0.0373442660036347,0.0531879999998637,
0.000383072265625006,-0.0139821376953125,-0.0124498486328086,0.0187255347018775,0.0569489999998041,
-0.0403183559570312,0.0482671054687499,-0.0172382519531205,0.0652107401262136,0.0607009999994261,
-0.0331357509765625,-0.0307415493164063,-0.0220266552734323,0.0502811534244037,0.0644249999995736,
-0.037924154296875,0.00756567724609369,-0.0411802685546832,0.056491552196422,0.068159999999807,
-0.0163763393554687,0.000383072265624951,0.0713472094726608,0.0732035213263809,0.0720229999997173,
0.00995987890625,-0.0020111293945313,-0.0220266552734323,0.024257315840862,0.0757589999993797,
-0.00201112939453124,0.0147482822265624,-0.0531512768554645,0.0551961475235557,0.0795509999998103,
-0.00919373437499998,0.000383072265624951,-0.0435744702148391,0.0445354460022873,0.0835360000000946,
-0.018770541015625,0.0267192905273437,-0.0220266552734323,0.039388161150763,0.0873649999994086,
-0.0331357509765625,0.0195366855468749,-0.0172382519531205,0.0421523119809281,0.0911660000001575,
-0.02834734765625,-0.0163763393554688,-0.0196324536132764,0.03817315607475,0.0950309999998353,
-0.00679953271484374,0.0458729038085937,-0.00766144531249502,0.0470027094245541,0.09890600000017,
0.0147482822265625,-0.0163763393554688,-0.0363918652343695,0.0425448489779472,0.102759999999762,
-0.0163763393554687,-0.0115879360351563,-0.0387860668945272,0.043667192918564,0.106550999999854,
0.0123540805664062,0.00756567724609369,-0.0052672436523391,0.0154144943000548,0.110362999999779,
-0.0307415493164062,-0.018770541015625,-0.0244208569335882,0.0435172875735963,0.114152000000104,
0.00756567724609375,0.00756567724609369,-0.0124498486328086,0.0164157751983867,0.118007999999463,
0.0243250888671875,0.00517147558593745,-0.0555454785156204,0.0608584775660858,0.121909999999843,
-0.0139821376953125,0.0267192905273437,-0.0124498486328086,0.0326254408674446,0.125672000000122,
0.0171424838867188,-0.0020111293945313,0.0330399829101609,0.0372766665080407,0.129449000000022,
0.0219308872070313,-0.02834734765625,-0.0387860668945272,0.0528099888087337,0.133154999999533,
-0.0211647426757812,-0.0115879360351563,-0.0387860668945272,0.0456791591344855,0.136843999999655,
0.019536685546875,0.0339018955078124,0.00430956298828633,0.0393648692914141,0.140585000000101,
-0.037924154296875,0.0219308872070312,0.0138863696289118,0.0459568988759193,0.144350999999915,
0.00756567724609375,-0.00919373437500004,0.00191536132813042,0.0120595535973524,0.148105999999643,
-0.0427125576171875,-0.0020111293945313,0.0234631762695354,0.0487742540721885,0.151944000000185,
-0.0115879360351562,0.0650265170898438,0.0378283862304727,0.0761164567698236,0.155918999999813,
-0.0522893642578125,-0.0163763393554688,0.00191536132813042,0.0548272807477169,0.159646999999495,
-0.0139821376953125,0.0315076938476562,-0.0339976635742136,0.0484156593948045,0.163423999999395,
-0.0211647426757812,0.0123540805664062,0.00191536132813042,0.0245812580676943,0.167297999999391,
0.0171424838867188,0.000383072265624951,-0.0531512768554645,0.0558486322977863,0.171142000000145,
-0.018770541015625,0.0123540805664062,0.0258573779296913,0.0342572694483872,0.17496299999948,
0.0315076938476563,0.0027772739257812,-0.0196324536132764,0.0372274261389894,0.178745999999592,
0.00756567724609375,0.0315076938476562,-0.0363918652343695,0.0487272213349603,0.182506999999532,
-0.0427125576171875,-0.0115879360351563,0.0402225878906304,0.0598038411506813,0.186265000000276,
0.0123540805664062,0.0171424838867187,0.0450109912109422,0.0497240122097884,0.190010000000257,
-0.0307415493164062,0.00517147558593745,-0.045968671874995,0.0555419283790178,0.193830000000162,
-0.0139821376953125,0.0291134921874999,-0.000478840332027275,0.032300540087526,0.197564000000057,
-0.00440533105468749,0.000383072265624951,-0.0196324536132764,0.0201242868430047,0.201286999999866,
0.0051714755859375,0.00517147558593745,0.0330399829101609,0.0338397516269788,0.205011999999442,
-0.0115879360351562,-0.00919373437500004,-0.0172382519531205,0.0227148045052602,0.208703000000241,
-0.0211647426757812,0.0195366855468749,-0.0100556469726509,0.0305081046728257,0.212415999999394,
-0.0259531459960937,0.0243250888671874,-0.0316034619140577,0.0475820821364978,0.216190000000097,
-0.0115879360351562,0.0362960971679687,-0.0148440502929645,0.0408904971879966,0.219935000000078,
-0.0235589443359375,-0.0115879360351563,-0.0124498486328086,0.0290568899016829,0.223877999999786,
0.0410845004882813,0.00756567724609369,0.0114921679687541,0.0433271921221039,0.22775399999955,
-0.00679953271484374,0.0362960971679687,-0.0052672436523391,0.0373012623172455,0.231499999999869,
-0.0355299526367187,0.0027772739257812,-0.0316034619140577,0.0476326525587186,0.235260999999809,
0.0147482822265625,0.0291134921874999,-0.0363918652343695,0.0488822576322174,0.239031000000068,
-0.00440533105468749,0.0386902988281249,0.00909796630859816,0.0399889879349726,0.242989999999736,
0.0123540805664062,0.0171424838867187,-0.0172382519531205,0.0272698623180779,0.246801999999661,
-0.02834734765625,0.0291134921874999,-0.045968671874995,0.0613537801642806,0.250578999999561,
-0.00679953271484374,-0.0020111293945313,0.0474051928710981,0.0479325630206417,0.254331999999522,
-0.0546835659179687,0.0195366855468749,0.066558806152349,0.0883292088727634,0.258138999999574,
0.0147482822265625,0.0219308872070312,0.0354341845703168,0.0442047178306246,0.261915000000045,
-0.0618661708984375,0.0123540805664062,0.00670376464844225,0.063442784213318,0.265731999999844,
0.0051714755859375,0.000383072265624951,0.0330399829101609,0.0334444520780407,0.269553000000087,
-0.0355299526367187,0.00517147558593745,0.0186747729492236,0.0404705922715307,0.273306000000048,
-0.0403183559570312,-0.0235589443359375,0.0402225878906304,0.0616315687121557,0.277046999999584,
-0.00679953271484374,-0.102567599121094,-0.134554133300776,0.169325605928131,0.280762999999752,
-0.06665457421875,0.148823575195312,-0.103429511718746,0.193103476645491,0.28449399999954,
0.0793917270507813,-0.171999447265625,0.363439812011723,0.409847963443645,0.288298999999824,
0.146429373535156,0.306840884765625,0.150355864257817,0.371752304517894,0.292144000000008,
-0.109750204101563,0.0339018955078124,0.164721074218754,0.200817026447305,0.296111999999994,
0.151217776855469,-0.375506588378906,-0.187226569824213,0.446010989103651,0.299919999999474,
0.134458365234375,0.0291134921874999,0.00430956298828633,0.137641635205348,0.303571999999804,
-0.126509615722656,0.407397354492187,0.0545877978515676,0.430066407653296,0.30654499999946,
-0.116932809082031,-0.188758858886719,0.0210689746093795,0.223040557610318,0.309486999999535,
0.16318878515625,-0.349170370117188,0.0210689746093795,0.385997964579656,0.312523999999939,
-0.0331357509765625,0.433733572753906,-0.124977326660151,0.452594876579228,0.315509999999449,
-0.0618661708984375,-0.00919373437500004,-0.0794874951171831,0.101144499274043,0.318529999999555,
-0.00679953271484374,-0.555071712890625,-0.0052672436523391,0.555138346677804,0.321493999999802,
0.0530555087890625,0.321206094726562,-0.00287304199218319,0.325571031685321,0.32445800000005,
-0.0642603725585937,0.416974161132813,0.0641646044921913,0.426748102518829,0.327518999999484,
0.103333743652344,-0.485639864746094,-0.0914585034179645,0.504864931100652,0.330479999999625,
-0.102567599121094,-0.121721212402344,0.0378283862304727,0.163606701399923,0.333509999999478,
-0.0522893642578125,0.579779874023437,-0.0244208569335882,0.582645053347654,0.336464999999407,
0.211072818359375,-0.152845833984375,-0.0244208569335882,0.261744077048402,0.339399999999841,
-0.272555916992188,-0.3539587734375,-0.0316034619140577,0.447853011585034,0.342418999999609,
-0.114538607421875,0.311629288085937,-0.00766144531249502,0.332100291368988,0.345366999999897,
0.208678616699219,0.120093155273437,-0.0316034619140577,0.24283309044688,0.348418999999922,
-0.00440533105468749,-0.358747176757813,0.0857124194335981,0.3688706583866,0.351378999999724,
-0.315651546875,0.27811046484375,0.00430956298828633,0.420713562930097,0.354325999999674,
0.136852566894531,0.0362960971679687,-0.0339976635742136,0.145608629084111,0.357358999999633,
0.206284415039063,-0.198335665527344,-0.0244208569335882,0.287204934431067,0.360306999999921,
-0.301286336914063,0.290081473144531,-0.10103531005859,0.430266024398198,0.36335599999984,
0.0267192905273438,-0.00679953271484379,-0.0052672436523391,0.0280695206071985,0.366310999999769,
0.0458729038085938,-0.102567599121094,-0.0723048901367136,0.133612996489788,0.369316999999683,
0.144035171875,-0.00919373437500004,0.0258573779296913,0.146626257819729,0.372292000000016,
-0.057077767578125,0.177553995117187,0.0330399829101609,0.189406792920635,0.375256000000263,
-0.203124068847656,0.0817859287109375,-0.0220266552734323,0.220076120973795,0.378276999999798,
0.285293069824219,-0.262979110351563,0.0785298144531303,0.395875081217635,0.38125299999956,
-0.0618661708984375,0.12488155859375,0.109654436035161,0.177332800464629,0.384269000000131,
-0.229460287109375,0.172765591796875,-0.0196324536132764,0.287898256861897,0.387230999999701,
0.146429373535156,-0.215095077148438,-0.0292092602539018,0.261840857262519,0.390155999999479,
-0.00201112939453124,-0.00440533105468754,0.0809240161132863,0.0810687854050272,0.39319499999965,
-0.121721212402344,0.256562649902344,0.00191536132813042,0.283979075783105,0.396158999999898,
0.115304751953125,-0.188758858886719,-0.0651222851562459,0.230577545860735,0.399177999999665,
-0.126509615722656,-0.0618661708984376,-0.0052672436523391,0.140924979430979,0.402113999999528,
-0.0139821376953125,0.170371390136719,0.0162805712890677,0.171717697844885,0.405066000000261,
0.103333743652344,-0.126509615722656,0.0162805712890677,0.16415724915154,0.408099999999649,
-0.095384994140625,-0.0738371791992188,-0.0196324536132764,0.122211535356455,0.411033999999745,
-0.095384994140625,0.0913627353515625,-0.0627280834960899,0.146219899388623,0.414056999999957,
0.244591641601563,-0.0139821376953125,-0.00766144531249502,0.245110728162099,0.417091999999684,
-0.145663229003906,-0.037924154296875,-0.0244208569335882,0.15248736346448,0.420100000000275,
-0.095384994140625,0.100939541992187,-0.0196324536132764,0.140258766142003,0.42322299999978,
0.172765591796875,0.0147482822265624,-0.0292092602539018,0.175836976834052,0.426265000000058,
-0.037924154296875,0.0147482822265624,0.0258573779296913,0.0482115888678895,0.429309999999532,
-0.114538607421875,-0.0331357509765625,-0.0363918652343695,0.124665305671464,0.432230999999774,
0.00995987890625,0.00995987890624994,0.0641646044921913,0.0656924260877436,0.435190000000148,
0.076997525390625,0.00756567724609369,0.0234631762695354,0.0808478758479609,0.438255000000026,
-0.0594719692382812,0.00995987890624994,-0.00287304199218319,0.0603686067687095,0.441201999999976,
-0.0307415493164062,-0.0570777675781251,0.0258573779296913,0.0697962635065402,0.444217999999637,
0.096151138671875,-0.0259531459960938,0.0186747729492236,0.101327954680324,0.447185999999419,
-0.0211647426757812,0.0219308872070312,-0.0531512768554645,0.0612696366692818,0.450119000000086,
-0.0331357509765625,-0.0570777675781251,0.00909796630859816,0.0666229880404325,0.453142999999727,
-0.0522893642578125,0.0386902988281249,0.049799394531254,0.0819212825435204,0.456114999999954,
0.0410845004882813,0.00517147558593745,-0.0555454785156204,0.0692818917440682,0.45918999999958,
0.057843912109375,-0.0594719692382814,0.0138863696289118,0.0841169694809968,0.462168999999449,
-0.100173397460937,0.057843912109375,0.0114921679687541,0.116244129536102,0.465196000000105,
0.0698149204101563,-0.0115879360351563,-0.0052672436523391,0.0709658173286579,0.468149000000267,
0.0219308872070313,-0.0235589443359375,0.00191536132813042,0.0322437014148287,0.471106999999392,
-0.0163763393554687,0.0362960971679687,-0.0914585034179645,0.0997509348716387,0.474130999999943,
-0.0115879360351562,0.00995987890624994,-0.0172382519531205,0.0230355546879448,0.477092999999513,
0.0410845004882813,0.000383072265624951,0.00191536132813042,0.0411309072808949,0.480131000000256,
-0.0355299526367187,0.000383072265624951,0.00909796630859816,0.0366782942580562,0.483083000000079,
0.019536685546875,0.0458729038085937,-0.0675164868164018,0.0839314087694191,0.486028999999689,
-0.0259531459960937,-0.0570777675781251,0.0162805712890677,0.0647803545860583,0.489077000000179,
0.00995987890625,0.00517147558593745,-0.0292092602539018,0.031290960869607,0.492044999999962,
0.0339018955078125,0.0195366855468749,-0.0435744702148391,0.0585641106453774,0.495098999999755,
-0.0355299526367187,0.0243250888671874,-0.045968671874995,0.0629857624921299,0.498050999999577,
-0.0451067592773437,-0.0020111293945313,0.0306457812500049,0.0545694812360255,0.500992999999653,
0.0219308872070313,0.0267192905273437,-0.045968671874995,0.0575152422747491,0.504030999999486,
-0.018770541015625,0.0243250888671874,0.0186747729492236,0.0359553932410825,0.507023999999547,
-0.00440533105468749,0.0027772739257812,0.0138863696289118,0.014830760386136,0.510049999999865,
-0.0115879360351562,-0.00919373437500004,-0.0435744702148391,0.0460167303034106,0.513001000000259,
-0.02834734765625,0.00517147558593745,0.0186747729492236,0.0343374929717547,0.515964000000167,
0.0458729038085938,0.0434787021484374,0.0162805712890677,0.0652669736225256,0.519014999999854,
-0.00679953271484374,0.0339018955078124,-0.000478840332027275,0.0345803622338812,0.521975999999995,
-0.0163763393554687,0.00517147558593745,0.0593762011718795,0.0618098852613797,0.525024999999914,
0.0315076938476563,0.000383072265624951,0.0138863696289118,0.0344341803652866,0.527998999999909,
-0.057077767578125,-0.0403183559570313,0.028251579589849,0.0753763432921889,0.530931999999666,
0.0219308872070313,0.0698149204101562,0.00430956298828633,0.0733052471431206,0.533983999999691,
0.000383072265625006,-0.102567599121094,-1.38911580322265,1.39289733070917,0.536935999999514,
-1.85272901269531,6.29473923681641,-1.99963722656249,6.85965712640606,0.539972999999918,
1.19269549902344,1.7912459140625,9.3698279071045,9.61377966706075,0.542970999999852,
3.70181883886719,-15.530803097168,-17.3943539013672,23.6108630762368,0.545890999999756,
-6.03539931298828,12.8596401889648,9.09030486328126,16.8650536069191,0.548913999999968,
3.49831169775391,1.61168078955078,-2.77296436279296,4.74605426216016,0.551878999999644,
2.80638741796875,-5.47515612451172,0.60764838134766,6.18242521045471,0.554943000000094,
-3.36347026025391,-1.86948842431641,-1.26461731689453,4.05057725743566,0.557969999999841,
-2.64520976220703,6.87174183691406,1.2732364428711,7.47255656376889,0.561080999999831,
4.95398630712891,-1.94849707910156,-0.388339509277339,5.33754894806163,0.564112000000023,
-0.612532552734375,-3.25333698388672,-0.426646735839839,3.33787733388859,0.567046000000119,
-2.30283892480469,1.36028961523438,0.315555778808598,2.69314507601235,0.570079000000078,
0.285293069824219,2.39219053076172,0.224576115722661,2.41958717613333,0.573059999999714,
0.989188357910156,-1.35712926904297,-0.43861774414062,1.73570705644504,0.576073000000179,
1.03707239111328,-2.03229413720703,0.674686027832037,2.37927296472836,0.5790649999999,
-2.23340707666016,3.04820178564453,-0.105823713378902,3.78032273151321,0.581989000000249,
0.237409036621094,-0.351564571777344,-0.0603338818359322,0.428486728027526,0.585041000000274,
1.19748390234375,-2.20467665673828,0.112048637695317,2.51139836631875,0.588002999999844,
-0.0259531459960937,1.48718230322266,0.049799394531254,1.48824216729046,0.591057999999975,
-1.28290901757813,1.03946659277344,-0.0986411083984322,1.65410894838924,0.594025999999758,
-0.210306673828125,-1.33318725244141,-0.00287304199218319,1.34967603575792,0.596966999999495,
1.14720566748047,-0.789703475585938,0.124019645996098,1.39824650739589,0.600034000000051,
-0.392266,1.48957650488281,-0.0794874951171831,1.54241014018156,0.603016000000025,
-0.234248690429688,-0.842375912109375,-0.0699106884765577,0.877130053431868,0.606039000000237,
0.479223404296875,-0.837587508789063,0.0234631762695354,0.965276347346194,0.609027999999853,
0.211072818359375,0.668365335449219,0.066558806152349,0.704055417532414,0.611979000000247,
-0.464092049804688,0.421762564453125,0.0306457812500049,0.627856874912122,0.615006999999423,
0.0650265170898438,-0.739425240722656,-0.0052672436523391,0.742297702002564,0.617962999999691,
0.1823423984375,0.199101810058594,-0.0172382519531205,0.270531769607467,0.621014999999716,
-0.0786255825195312,0.390637942871094,0.028251579589849,0.399472322428497,0.62398899999971,
-0.109750204101563,-0.270161715332031,-0.0124498486328086,0.291868906296063,0.626921999999468,
0.0243250888671875,-0.128903817382813,-0.0100556469726509,0.131563749263605,0.629944000000251,
0.0315076938476563,0.361907522949219,0.0833182177734422,0.372708619905389,0.632939000000079,
0.115304751953125,0.0027772739257812,0.104866032714849,0.155883879509019,0.635983999999553,
-0.112144405761719,-0.246219698730469,0.0737414111328167,0.280425219091349,0.638930000000073,
-0.107356002441406,0.153611978515625,-0.0363918652343695,0.190909190608835,0.641867000000275,
0.220649625,0.20149601171875,-0.0220266552734323,0.299619881339236,0.644922999999835,
0.0315076938476563,-0.0451067592773439,-0.0148440502929645,0.0569885982737069,0.647874000000229,
-0.150451632324219,-0.0882023891601563,-0.0220266552734323,0.175785462041422,0.650892999999996,
-0.0858081875,0.156006180175781,0.049799394531254,0.184880915701846,0.653882999999951,
0.220649625,0.00517147558593745,-0.0052672436523391,0.220773062279051,0.656930999999531,
0.00277727392578125,-0.0642603725585938,-0.0148440502929645,0.0660110184812215,0.659883000000264,
-0.14326902734375,0.0339018955078124,-0.0292092602539018,0.150095081863554,0.662841999999728,
-0.00679953271484374,0.0219308872070312,-0.0124498486328086,0.0261188856923032,0.665866999999707,
0.0841801303710938,-0.0403183559570313,-0.0363918652343695,0.100180996359633,0.668838999999934,
0.08657433203125,0.0482671054687499,-0.00766144531249502,0.0994159251894026,0.671878999999535,
-0.095384994140625,0.000383072265624951,-0.0316034619140577,0.1004849374609,0.674855000000207,
-0.076231380859375,-0.0427125576171875,0.00191536132813042,0.0874028295591507,0.677781999999752,
0.057843912109375,0.0554497104492186,-0.0124498486328086,0.0810899949932119,0.680833999999777,
0.0817859287109375,0.0171424838867187,-0.045968671874995,0.095372541556089,0.683812000000216,
-0.21988348046875,-0.0163763393554688,-0.00287304199218319,0.22051118757112,0.686824999999772,
-0.018770541015625,0.000383072265624951,0.0306457812500049,0.0359394471688576,0.689792000000125,
0.0817859287109375,0.0410845004882812,-0.0555454785156204,0.107061545379335,0.692758999999569,
-0.0259531459960937,-0.0163763393554688,-0.045968671874995,0.0552708700106212,0.695832999999766,
0.0243250888671875,0.00517147558593745,-0.0794874951171831,0.0832869496868311,0.698913000000175,
0.00756567724609375,0.0027772739257812,-0.00766144531249502,0.0111198231517968,0.702048999999533,
-0.0546835659179687,-0.0020111293945313,0.00430956298828633,0.0548899750054269,0.705085999999937,
0.0339018955078125,0.000383072265624951,0.0306457812500049,0.0457017414526677,0.70804599999974,
0.0458729038085938,0.0243250888671874,0.0258573779296913,0.0580054932366578,0.711088999999447,
-0.0810197841796875,0.0123540805664062,-0.0603338818359322,0.101769376693368,0.714039999999841,
-0.0139821376953125,0.0027772739257812,-0.0603338818359322,0.0619950862761053,0.717099999999846,
0.0626323154296875,0.0410845004882812,-0.0435744702148391,0.0866572418840996,0.720068999999967,
-0.0235589443359375,0.0123540805664062,0.00430956298828633,0.0269484600304927,0.723042999999961,
-0.0139821376953125,-0.0211647426757813,-0.0483628735351509,0.0546114827086732,0.726047000000108,
0.0267192905273438,-0.0163763393554688,-0.0363918652343695,0.0480257517609729,0.729008000000249,
-0.0139821376953125,0.0530555087890624,-0.141736738281246,0.151985822253272,0.732049000000188,
-0.126509615722656,0.175159793457031,-0.203985981445308,0.297146288451345,0.735012999999526,
-0.100173397460937,0.213467020019531,0.502303508300786,0.554897911913681,0.737997999999607,
0.615692898925781,-1.67795229150391,0.624407792968755,1.89327407690248,0.741025999999692,
-0.64126297265625,1.07298541601563,-0.66846110351562,1.41751760130006,0.743972000000213,
-0.401842806640625,1.60210398291016,-0.0531512768554645,1.65258581366801,0.747030999999879,
0.895814493164063,-1.59654943505859,-0.0603338818359322,1.83169153572486,0.749972999999954,
-0.100173397460937,-0.397054403320313,0.0258573779296913,0.410311482593792,0.752988999999616,
-0.83279910546875,1.42253885839844,-0.0579396801757763,1.64940236457389,0.755951999999525,
0.620481302246094,-0.29649793359375,0.0258573779296913,0.688169074469183,0.758904999999686,
0.203890213378906,-0.825616500488281,-0.0148440502929645,0.850549334735683,0.761935999999878,
-0.48803406640625,0.639634915527344,-0.0292092602539018,0.805085868724121,0.764909999999873,
0.108122146972656,0.337965506347656,0.100077629394535,0.368682267070216,0.767971000000216,
0.146429373535156,-0.634080367675781,-0.00766144531249502,0.650813469321302,0.770929000000251,
0.0410845004882813,0.0506613071289062,0.00191536132813042,0.0652546766860295,0.773895000000266,
-0.2007298671875,0.529501639160156,0.0162805712890677,0.566506418724362,0.776930999999422,
0.100939541992188,-0.279738521972656,0.00909796630859816,0.297531855107972,0.779902999999649,
0.0410845004882813,-0.222277682128906,-0.0172382519531205,0.226699054879746,0.782936999999947,
-0.0307415493164062,0.39303214453125,0.0378283862304727,0.396043301034127,0.78592000000026,
-0.0331357509765625,-0.0427125576171875,0.028251579589849,0.0609958385490674,0.788853000000017,
0.0171424838867188,-0.274950118652344,-0.000478840332027275,0.275484412968879,0.791886999999406,
-0.0594719692382812,0.270927859863281,-0.00766144531249502,0.277484266435871,0.794860999999401,
-0.00201112939453124,0.0841801303710937,-0.0555454785156204,0.100874373228611,0.797886999999719,
-0.0259531459960937,-0.198335665527344,-0.0435744702148391,0.204717699434545,0.800841000000219,
-0.0594719692382812,0.076997525390625,-0.0268150585937459,0.100918687113661,0.803777999999511,
0.0602381137695312,0.096151138671875,-0.0387860668945272,0.119908426741226,0.806826000000001,
-0.0427125576171875,-0.1241154140625,0.0474051928710981,0.139557339102082,0.809785999999804,
0.0171424838867188,-0.0020111293945313,-0.0603338818359322,0.0627541766947842,0.812807000000248,
0.0291134921875,0.0817859287109375,0.00909796630859816,0.0872886393147159,0.81579099999999,
-0.0427125576171875,-0.0714429775390626,0.0114921679687541,0.0840269691377157,0.818718999999874,
0.0506613071289063,-0.0403183559570313,0.00191536132813042,0.0647750451648206,0.821753000000172,
-0.037924154296875,0.0291134921874999,-0.0196324536132764,0.0516843316814898,0.824717999999848,
-0.00679953271484374,-0.0020111293945313,-0.0244208569335882,0.0254294423838306,0.82771799999955,
0.0554497104492188,-0.0451067592773439,-0.0387860668945272,0.0813243451037461,0.830672999999479,
-0.0498951625976562,0.0171424838867187,-0.0124498486328086,0.054206925161208,0.833619999999428,
-0.0235589443359375,0.00756567724609369,-0.0627280834960899,0.0674320086421003,0.836733999999524,
0.057843912109375,-0.00679953271484379,0.0330399829101609,0.0669611251694672,0.839790999999423,
0.0937569370117188,0.0793917270507812,-0.0244208569335882,0.125258883179182,0.842940999999882,
-0.018770541015625,0.0171424838867187,-0.0268150585937459,0.0369492263953076,0.845937999999478,
-0.0905965908203125,-0.0259531459960938,0.0474051928710981,0.105491991954383,0.848957999999584,
0.0051714755859375,0.108122146972656,-0.0292092602539018,0.112117454975988,0.851937999999791,
0.0650265170898438,0.00995987890624994,0.0545877978515676,0.0854837691433089,0.854940999999599,
-0.0714429775390625,-0.0786255825195313,0.0521935961914117,0.118364913507233,0.857973000000129,
-0.018770541015625,0.0410845004882812,-0.0507570751953086,0.0679451990413822,0.860928999999487,
0.0219308872070313,0.0817859287109375,0.0402225878906304,0.0937430452109252,0.863991000000169,
0.0315076938476563,-0.0475009609375001,0.0162805712890677,0.0592801236763383,0.866978000000017,
-0.0618661708984375,0.0171424838867187,0.028251579589849,0.0701387168742247,0.869926999999734,
-0.076231380859375,0.0841801303710937,-0.0579396801757763,0.127493232431736,0.872977999999421,
0.04826710546875,-0.0020111293945313,-0.0148440502929645,0.0505381434252689,0.87594799999988,
-0.0307415493164062,-0.037924154296875,0.00191536132813042,0.0488564524144306,0.879004999999779,
-0.0786255825195312,0.0291134921874999,0.00430956298828633,0.0839532607290345,0.881975999999668,
0.0171424838867188,0.0123540805664062,-0.0938527050781204,0.0962019662529218,0.884944999999789,
0.0506613071289063,-0.00919373437500004,0.0641646044921913,0.082269005472333,0.887987999999496,
-0.00679953271484374,0.00517147558593745,-0.0651222851562459,0.065680208806364,0.890956000000187,
-0.0211647426757812,0.0171424838867187,0.028251579589849,0.039242360220303,0.893987999999808,
0.0698149204101563,-0.00679953271484379,-0.00287304199218319,0.0702040677404489,0.896952000000056,
-0.018770541015625,0.0219308872070312,-0.0148440502929645,0.0324598652616865,0.899899000000005,
-0.0331357509765625,0.0195366855468749,0.0162805712890677,0.0417698105865546,0.902946999999585,
0.0362960971679688,-0.0451067592773439,-0.0052672436523391,0.0581357915386381,0.905905999999959,
0.0171424838867188,-0.0020111293945313,-0.0866701000976509,0.0883720297729139,0.908951999999772,
-0.018770541015625,0.0147482822265624,0.00191536132813042,0.0239481449734817,0.91193099999964,
-0.00919373437499998,-0.018770541015625,-0.0172382519531205,0.0270927165890868,0.914855999999418,
0.0291134921875,0.0147482822265624,-0.0746990917968695,0.0815172470785361,0.917892999999822,
0.0291134921875,-0.0020111293945313,-0.0220266552734323,0.0365624617788217,0.92086399999971,
0.000383072265625006,0.00995987890624994,0.00670376464844225,0.0120119270997437,0.923915999999736,
-0.00919373437499998,0.0219308872070312,0.0306457812500049,0.0387898501398076,0.926875000000109,
0.0267192905273438,0.000383072265624951,0.0114921679687541,0.029088436796558,0.929838000000018,
0.0291134921875,0.00995987890624994,-0.0124498486328086,0.0331932726039274,0.932885999999598,
-0.0307415493164062,-0.0403183559570313,-0.000478840332027275,0.0507034709809347,0.935832999999548,
-0.0451067592773437,-0.0115879360351563,-0.0220266552734323,0.0515177011967123,0.938844000000245,
0.0410845004882813,0.057843912109375,-0.0531512768554645,0.0886505080631517,0.941821999999775,
0.0530555087890625,0.0530555087890624,-0.0339976635742136,0.0823748453973541,0.944868999999926,
-0.02834734765625,0.000383072265624951,-0.0675164868164018,0.0732270090576854,0.947830999999496,
0.00277727392578125,-0.0163763393554688,0.0114921679687541,0.0201982094693158,0.950796000000082,
0.0530555087890625,0.0386902988281249,-0.0244208569335882,0.0700585789867785,0.953833999999915,
0.00995987890625,0.0386902988281249,-0.0052672436523391,0.0402974225842035,0.956822000000102,
-0.00679953271484374,-0.0211647426757813,-0.00287304199218319,0.0224150473557634,0.959818000000269,
0.0147482822265625,0.0123540805664062,-0.0220266552734323,0.0292456608372972,0.962805999999546,
0.00277727392578125,0.0027772739257812,-0.0435744702148391,0.0437511251903485,0.965769999999793,
0.0123540805664062,0.00756567724609369,-0.0172382519531205,0.0225171070351539,0.968823000000157,
-0.00440533105468749,0.00995987890624994,0.028251579589849,0.0302780098231395,0.971795999999813,
0.0219308872070313,0.0219308872070312,-0.0148440502929645,0.0343842035893681,0.974906999999803,
0.019536685546875,-0.0235589443359375,0.028251579589849,0.0416516228939864,0.977968999999575,
0.0147482822265625,0.00756567724609369,-0.0531512768554645,0.055675933150623,0.981033000000025,
-0.00201112939453124,-0.0211647426757813,-0.0268150585937459,0.0342204374805409,0.984109999999419,
-0.0235589443359375,0.0267192905273437,-0.0052672436523391,0.0360095570675551,0.987073000000237,
0.0219308872070313,0.0267192905273437,0.0378283862304727,0.051243254236767,0.99011900000005,
0.0291134921875,0.0219308872070312,0.0114921679687541,0.0382181784712616,0.993096000000151,
0.0434787021484375,-0.0115879360351563,-0.0627280834960899,0.0771977348188394,0.996030000000246,
0.00277727392578125,0.00517147558593745,0.00670376464844225,0.00891054828035152,0.999092999999448,
-0.0307415493164062,-0.0115879360351563,0.0114921679687541,0.0348050720520726,1.00203499999952,
-0.0427125576171875,0.0339018955078124,-0.0292092602539018,0.0618617974343161,1.00506399999995,
0.0147482822265625,0.0267192905273437,0.00191536132813042,0.0305794199411342,1.00805500000024,
-0.00919373437499998,0.0171424838867187,-0.0268150585937459,0.0331275847738783,1.01101599999947,
-0.0139821376953125,-0.00919373437500004,0.066558806152349,0.0686301653991501,1.01403399999981,
0.000383072265625006,0.000383072265624951,0.00909796630859816,0.00911408139494976,1.01706399999966,
