X,Y,Z,Magnitude,Seconds,
-0.738850632324219,-0.137810247558594,-0.0170467158203103,0.751786214118294,0.0,
-0.65505357421875,0.070485296875,0.00928950244140836,0.658900339222803,0.00379799999973329,
-0.554497104492188,-0.231184112304688,0.0619619389648456,0.603947360746456,0.00755300000037096,
-0.779552060546875,-0.0204943662109374,-0.0290177241210916,0.780361110296018,0.0113670000000639,
-0.676601389160156,-0.0396479794921876,0.0667503422851574,0.681041122316745,0.0151450000003024,
-0.597592734375,-0.147387054199219,-0.0433829340820289,0.617026821858563,0.0189099999997779,
-0.822647690429688,0.0273896669921876,0.0308373173828134,0.8236809798524,0.0228230000002441,
-0.561679709472656,-0.173723272460937,-0.0529597407226543,0.590312294946696,0.0266149999997651,
-0.645476767578125,0.00823605371093761,0.093086560546876,0.652206407372913,0.0303750000002765,
-0.750821640625,-0.0396479794921876,0.035625720703127,0.752711292783792,0.0341260000004695,
-0.576044919433594,-0.152175457519531,-0.0050757075195289,0.595827896194327,0.0378440000004048,
-0.65505357421875,0.0106302553710937,0.0116837041015643,0.655243997582234,0.0416269999996075,
-0.738850632324219,-0.0420421811523437,-0.0529597407226543,0.741938364029894,0.045404999999846,
-0.6358999609375,-0.113868230957031,0.00928950244140836,0.6460812868341,0.049141999999847,
-0.647870969238281,0.0393606752929687,-0.038594530761717,0.65021196032216,0.0528569999996762,
-0.676601389160156,-0.10189722265625,-0.0338061274414052,0.685065937009785,0.0565599999999904,
-0.645476767578125,-0.0588015927734374,0.035625720703127,0.649127935596224,0.0603689999998096,
-0.671812985839844,-0.00134075292968738,0.0140779057617202,0.671961809176757,0.0643399999999019,
-0.671812985839844,-0.104291424316406,-0.076901757324217,0.68419534448032,0.0681660000000193,
-0.667024582519531,-0.0492247861328126,-0.0194409174804662,0.669120932662892,0.0719790000002831,
-0.650265170898438,-0.0492247861328126,0.0787213505859388,0.656859896090079,0.0757340000000113,
-0.667024582519531,-0.0947146176757813,0.00689530078125244,0.673750842418537,0.0795809999999619,
-0.659841977539063,-0.0827436093749999,-0.076901757324217,0.669441424244583,0.0833840000004784,
-0.626323154296875,-0.0755610043945312,-0.0074699091796866,0.630908835361061,0.0871580000002723,
-0.659841977539063,-0.0779552060546874,0.0428083256835947,0.665808532704052,0.0909359999996013,
-0.607169541015625,-0.0420421811523437,0.0212605107421897,0.608994586059835,0.0948319999997693,
-0.667024582519531,-0.0252827695312499,0.0164721074218761,0.667706778790992,0.0985810000001948,
-0.671812985839844,-0.0731668027343749,0.0116837041015643,0.675886512594348,0.102327999999943,
-0.645476767578125,-0.0707726010742187,0.00689530078125244,0.649381677997447,0.106029999999919,
-0.690966599121094,0.0441490786132812,-0.0050757075195289,0.692394212172658,0.109784000000218,
-0.643082565917969,-0.0803494077148437,0.00928950244140836,0.648149295119091,0.113511000000472,
-0.7125144140625,-0.0875320126953125,0.0691445439453133,0.721193185943077,0.117320000000291,
-0.719697019042969,0.0417548769531251,0.0547793339843761,0.722985507738902,0.121062000000165,
-0.561679709472656,-0.221607305664063,-0.0433829340820289,0.605372590167856,0.124772000000121,
-0.719697019042969,-0.0755610043945312,-0.00268150585937299,0.723657691922168,0.128483000000415,
-0.650265170898438,0.0537258852539062,0.00210689746093884,0.65248425440527,0.132416000000376,
-0.576044919433594,-0.161752264160156,-0.0338061274414052,0.599278231223842,0.13628400000016,
-0.772369455566406,0.0130244570312501,0.0284431157226575,0.773002731693051,0.140075999999681,
-0.645476767578125,-0.0683783994140624,-0.0122583124999984,0.649204227662514,0.143965000000208,
-0.638294162597656,-0.154569659179687,0.00689530078125244,0.656779082125818,0.147729999999683,
-0.722091220703125,-0.00134075292968738,0.0140779057617202,0.722229683733356,0.151528000000326,
-0.621534750976562,-0.0611957944335937,-0.0290177241210916,0.625213883595865,0.155324000000292,
-0.667024582519531,-0.104291424316406,0.0116837041015643,0.675229593407185,0.159064000000399,
-0.710120212402344,0.0130244570312501,-0.0290177241210916,0.710832174888332,0.162816000000021,
-0.631111557617188,-0.1976652890625,0.0212605107421897,0.661683741658485,0.166654999999992,
-0.714908615722656,-0.106685625976563,0.00210689746093884,0.722828188881291,0.170436000000336,
-0.717302817382813,-0.0109175595703124,0.0691445439453133,0.720710408478813,0.174146000000292,
-0.597592734375,-0.104291424316406,0.00689530078125244,0.606664093660238,0.17790100000002,
-0.753215842285156,-0.0803494077148437,0.0428083256835947,0.758698019726753,0.181614000000081,
-0.681389792480469,-0.0252827695312499,-0.00268150585937299,0.681863958723014,0.185332000000017,
-0.631111557617188,-0.0420421811523437,0.0116837041015643,0.632618251472064,0.18911399999979,
-0.755610043945313,-0.161752264160156,-0.0218351191406239,0.773037583756352,0.192831000000297,
-0.707726010742188,-0.0204943662109374,0.0164721074218761,0.708214272413623,0.196565000000192,
-0.566468112792969,-0.104291424316406,0.035625720703127,0.577089261702892,0.200286000000233,
-0.700543405761719,-0.0851378110351562,-0.0218351191406239,0.706035610045252,0.203959000000395,
-0.652659372558594,-0.00612915624999988,-0.00986411083984251,0.652762685688739,0.207671000000119,
-0.592804331054688,-0.0444363828125001,0.0763271489257829,0.599347479095218,0.211424000000079,
-0.738850632324219,-0.0707726010742187,-0.0146525141601543,0.742377070039156,0.215119999999843,
-0.690966599121094,-0.0564073911132812,0.0452025273437524,0.69473729088875,0.218815999999606,
-0.592804331054688,-0.0635899960937499,-0.0433829340820289,0.597781516517502,0.222522000000026,
-0.738850632324219,-0.0588015927734374,-0.0505655390624984,0.742909656646939,0.226204999999936,
-0.650265170898438,-0.104291424316406,-0.0577481440429679,0.661102368631308,0.229895000000397,
-0.607169541015625,-0.0564073911132812,0.0308373173828134,0.610563334513873,0.233675999999832,
-0.748427438964844,-0.0109175595703124,0.0475967290039083,0.750018848506034,0.237407999999959,
-0.722091220703125,-0.1210508359375,-0.076901757324217,0.736194890078198,0.241070000000036,
-0.602381137695312,-0.0683783994140624,-0.0314119257812475,0.607062887713303,0.24489900000026,
-0.722091220703125,-0.0683783994140624,-0.0888727656249984,0.730745992115451,0.248826000000008,
-0.690966599121094,-0.0540131894531251,0.00450109912109475,0.693089118100383,0.252590000000055,
-0.611957944335938,-0.0803494077148437,0.0452025273437524,0.618863330174163,0.256360999999742,
-0.6742071875,-0.0324653745117187,0.00928950244140836,0.675052314324198,0.260258999999678,
-0.686178195800781,-0.0468305844726562,-0.0601423457031238,0.690398958415451,0.264016000000083,
-0.6358999609375,-0.0755610043945312,-0.0242293208007798,0.640831714018502,0.267835999999988,
-0.659841977539063,-0.0707726010742187,-0.000287304199217076,0.663626611076721,0.271579000000202,
-0.671812985839844,-0.0516189877929687,0.0284431157226575,0.674393222590374,0.275356000000102,
-0.65505357421875,-0.0492247861328126,0.0236547124023456,0.657326258478557,0.279117000000042,
-0.628717355957031,-0.133021844238281,0.112240173828127,0.65236353465466,0.282978999999614,
-0.724485422363281,-0.0659841977539062,-0.0074699091796866,0.727522399045749,0.286697999999888,
-0.54013189453125,-0.0611957944335937,0.00689530078125244,0.543631248107704,0.290434000000459,
-0.73166802734375,-0.1976652890625,-0.0745075556640611,0.761551734676174,0.294135000000097,
-0.142694418945313,0.5684792421875,-1.28836779736328,1.41542287931167,0.297853000000032,
-1.88327902587891,10.3440046206055,-9.02403336132812,13.8556251965325,0.301202999999987,
7.03033375488281,-20.047991253418,9.37480784655762,23.2214247659795,0.30413099999987,
-11.8383695288086,-12.2452880429688,-21.4044501459961,27.3540592674712,0.307012999999642,
-3.60710422119141,18.5555177645264,3.04513720751953,19.1465741318078,0.310023000000001,
-0.626323154296875,18.5555177645264,-14.997566503418,23.8668498387975,0.312955999999758,
18.739775524292,-20.6704836850586,9.37480784655762,29.4335710479548,0.315983000000415,
-10.1001791235352,-20.6704836850586,-9.11501302441406,24.7460295105499,0.318895000000339,
-20.3377854223633,4.87325382714844,2.40588536425781,21.0514228292498,0.321826000000328,
-8.40029594482422,18.5555177645264,-7.19725749462891,21.6026092617136,0.324910000000273,
18.739775524292,-1.96219191259766,3.97169325,19.2562647228068,0.327970999999707,
11.1842736352539,-14.71610415625,1.03640201464844,18.5128557338354,0.331092000000353,
-14.0170930395508,-3.34125206884766,2.08266814013672,14.5595456401957,0.334076000000096,
-18.1446967016602,11.2538012514648,-4.51575163525391,21.8236127585239,0.336999000000105,
6.06307628417969,1.92599158349609,1.41468587695313,6.51702951795759,0.340030999999726,
13.9543649560547,-7.48561514257813,-0.0290177241210916,15.8353900304942,0.342999000000418,
-0.4060566015625,-1.62939788183594,0.595868909179689,1.78181906430785,0.346062999999958,
-11.8742825537109,5.59869693017578,-0.325898729980468,13.1320296779868,0.349014000000352,
-3.79864035400391,1.12153982568359,0.0332315190429711,3.9608868266487,0.351945000000342,
7.00160333496094,-5.33322785009766,-0.550953686035154,8.81869142930793,0.354967000000215,
3.17088067871094,-0.554401336425781,0.100269165527346,3.22054328118853,0.357923000000483,
-5.11784546875,4.34174105859375,0.708396387207033,6.74869491852252,0.360974999999598,
-4.51929505371094,0.494258990722656,-0.0290177241210916,4.54633498113805,0.363889999999628,
2.28263186279297,-3.98529231542969,-0.692211583984374,4.64457962979028,0.36693699999978,
2.30417967773438,-0.666928814453125,0.102663367187501,2.40095351845766,0.36989900000026,
-2.37887876953125,3.24280249658203,0.686848572265626,4.08002367556715,0.372822999999698,
-3.11389867919922,0.692977728515625,-0.201400243652342,3.19642693873652,0.375849000000017,
-0.499430466308594,-2.33568737158203,-0.294774108398435,2.40660716848992,0.378772000000026,
1.37522943359375,-2.07711359228516,-0.0481713374023425,2.49158129468526,0.381779000000279,
-0.930386765136719,1.82543511376953,0.0835097539062524,2.05056254874652,0.384764999999788,
-2.12030499023438,1.66023519921875,0.0859039555664083,2.6943373318721,0.387660000000324,
-0.248039291992188,-1.66531090673828,-0.0864785639648424,1.68590107909654,0.390664999999899,
0.202070620117188,-1.44025595068359,-0.151122008789061,1.46219273713642,0.393613000000187,
-1.19614314941406,1.4112382265625,0.148153198730471,1.85588284552003,0.396670000000086,
-1.12192289794922,0.997041339355469,0.0763271489257829,1.50287333298241,0.39961299999959,
-0.183395847167969,-1.46419796728516,-0.151122008789061,1.48335686390729,0.402536999999938,
-0.556891306152344,-0.712418645996094,-0.0194409174804662,0.904459066682099,0.40553699999964,
-1.13149970458984,1.20533688378906,0.172095215332034,1.66215081988651,0.408500000000458,
-0.595198532714844,0.154282354980469,0.0428083256835947,0.616357762303725,0.411525999999867,
-0.281558115234375,-1.05478948339844,-0.129574193847654,1.09938405402914,0.414442999999665,
-0.966299790039063,-0.0588015927734374,0.102663367187501,0.973515628279539,0.417371000000458,
-0.908838950195313,0.652276300292969,0.0188663090820338,1.11884250318549,0.420414000000164,
-0.382114584960938,-0.180905877441406,-0.0505655390624984,0.42578793580067,0.423316000000341,
-0.4826710546875,-0.559189739746094,-0.0433829340820289,0.739963911984911,0.426308000000063,
-1.02854903320313,0.070485296875,0.0428083256835947,1.03184971944875,0.429258000000118,
-0.803494077148438,0.247656219726563,0.00210689746093884,0.840797701114116,0.432182999999895,
-0.34859576171875,-0.29343335546875,-0.0433829340820289,0.457716307508801,0.435163000000102,
-0.588015927734375,-0.2742797421875,-0.0242293208007798,0.649291281498702,0.438078000000132,
-0.992636008300781,0.0944273134765625,0.0811155522460947,1.00041116313339,0.441107999999986,
-0.659841977539063,0.0776679018554689,-0.0433829340820289,0.665812148635677,0.44403500000044,
-0.365355173339844,-0.233578313964844,-0.0122583124999984,0.433812744932873,0.446947999999793,
-0.734062229003906,-0.116262432617187,0.0380199223632829,0.744183998608382,0.449947000000066,
-0.956722983398438,0.0561200869140626,0.0547793339843761,0.959931823907209,0.452906999999868,
-0.69336080078125,-0.00373495458984374,0.0116837041015643,0.693469291956996,0.455898000000161,
-0.444363828125,-0.183300079101562,-0.000287304199217076,0.480685149852007,0.458805000000211,
-0.657447775878906,-0.0564073911132812,0.0284431157226575,0.660475875874615,0.461830000000191,
-0.834618698730469,0.0369664736328126,0.0499909306640642,0.83693129084295,0.464877999999771,
-0.671812985839844,-0.111474029296875,0.0428083256835947,0.682342802335131,0.467883999999685,
-0.571256516113281,-0.0492247861328126,0.0380199223632829,0.574632579365471,0.47098300000016,
-0.695755002441406,0.0297838686523437,0.0308373173828134,0.697074631870584,0.473957000000155,
-0.6742071875,-0.14020444921875,0.00210689746093884,0.688634197723511,0.476942999999665,
-0.678995590820313,-0.111474029296875,0.0116837041015643,0.688184554100598,0.479884000000311,
-0.607169541015625,-0.0396479794921876,0.0164721074218761,0.608685587259839,0.482790000000023,
-0.657447775878906,0.0633026918945312,0.035625720703127,0.661448411279997,0.485878999999841,
-0.6742071875,-0.17851167578125,0.0164721074218761,0.697633915739343,0.488795999999638,
-0.698149204101563,-0.113868230957031,-0.0266235224609357,0.707875057589372,0.491796000000249,
-0.619140549316406,-0.00852335791015624,-0.0050757075195289,0.619220017638892,0.494721000000027,
-0.554497104492188,0.0920331118164064,-0.158304613769529,0.583949897937786,0.497647000000143,
-0.475488449707031,0.326664874511719,-0.335475536621091,0.667340274309712,0.500686000000314,
-0.566468112792969,-0.0181001645507812,0.162518408691408,0.589598144443807,0.503635000000031,
-1.14107651123047,-2.41469602636719,2.04914931689453,3.3662776812326,0.506658999999672,
-1.87849062255859,-0.319769573730469,-1.45835611523437,2.39953790513212,0.509594000000106,
-0.197761057128906,4.68171769433594,-1.54694157666015,4.93463456061082,0.512507000000369,
2.47177379394531,-0.745937469238281,1.4051090703125,2.93945911621898,0.515553000000182,
-1.29430541748047,-4.91184835791016,0.574321094238282,5.11188082060909,0.518473000000085,
-4.80659925292969,1.09999201074219,-0.735307213867186,4.9853841878762,0.521485000000212,
-0.322259543457031,4.13344551416016,-0.17027562207031,4.14948392204998,0.524419999999736,
4.07588890625,-1.59587905859375,0.255892273437501,4.38465291686297,0.527374999999665,
-0.935175168457031,-2.97493921484375,0.234344458496096,3.12725650577972,0.53035699999964,
-5.21600773681641,1.39687301660156,-0.143939403808591,5.40173208212023,0.533298000000286,
-0.57843912109375,1.77036847558594,-0.0745075556640611,1.86396022811948,0.53632000000016,
3.38396462646484,-1.58390805029297,0.193643030273439,3.7413204792054,0.539291000000048,
-0.947146176757813,-0.757908477539063,-0.0888727656249984,1.21630979151792,0.542185999999674,
-3.85131279052734,0.886908062988281,-0.0673249506835916,3.95268880278447,0.545197000000371,
-0.52097828125,0.168647564941406,0.0571735356445338,0.55057168822322,0.548136000000341,
1.81815674072266,-0.863253350585938,-0.0290177241210916,2.01289401346575,0.551159999999982,
-0.875320126953125,0.0872447084960939,-0.0194409174804662,0.879872100411353,0.554113000000143,
-2.47225263427734,0.448769159179688,-0.0601423457031238,2.51337302199033,0.557093999999779,
-0.453940634765625,-0.453844866699219,0.0164721074218761,0.642112601685692,0.56005499999992,
0.568383474121094,-0.511305706542969,-0.0050757075195289,0.764538463390948,0.562982999999804,
-0.264798703613281,0.178224371582031,0.00210689746093884,0.319196991022778,0.566020000000208,
-1.53372558349609,0.199772186523438,0.0811155522460947,1.54880690365035,0.568959000000177,
-1.03333743652344,-0.336528985351563,-0.0433829340820289,1.0876213011302,0.571944000000258,
-0.0732625708007812,-0.231184112304688,-0.038594530761717,0.245566764581779,0.574875999999676,
-0.492247861328125,0.171041766601563,0.0667503422851574,0.525374962383517,0.577806999999666,
-1.14107651123047,-0.0204943662109374,-0.00986411083984251,1.14130316928104,0.580826999999772,
-0.767581052246094,-0.233578313964844,-0.0505655390624984,0.803925602442515,0.583748000000014,
-0.322259543457031,-0.118656634277344,-0.000287304199217076,0.34341038532762,0.586750999999822,
-0.547314499511719,0.123157733398437,0.0906923588867201,0.568283461515502,0.589692000000468,
-0.944751975097656,-0.0564073911132812,-0.0146525141601543,0.94654782467361,0.592612999999801,
-0.738850632324219,-0.233578313964844,0.00450109912109475,0.774906023678907,0.595613000000412,
-0.525766684570313,-0.0492247861328126,0.102663367187501,0.537953021309627,0.598544000000402,
-0.671812985839844,-0.0228885678710937,0.0859039555664083,0.677669583251448,0.601614999999583,
-0.860954916992188,-0.111474029296875,0.0164721074218761,0.868297851329613,0.604631000000154,
-0.652659372558594,-0.0348595761718749,-0.0242293208007798,0.654038612488534,0.607614999999896,
-0.434787021484375,-0.00134075292968738,-0.0194409174804662,0.435223506881413,0.610682000000452,
-0.681389792480469,-0.149781255859375,0.0978749638671896,0.704489873919698,0.613597000000482,
-0.913627353515625,-0.092320416015625,-0.0146525141601543,0.918396807745147,0.616608000000269,
-0.604775339355469,0.00584185205078125,-0.0290177241210916,0.605499270553709,0.619534000000385,
-0.403662399902344,-0.0899262143554688,0.0404141240234388,0.415527807184799,0.622483000000102,
-0.80828248046875,-0.144992852539062,0.0547793339843761,0.823009277561257,0.625479999999698,
-0.860954916992188,-0.0851378110351562,-0.0194409174804662,0.865372616410622,0.628402000000278,
-0.580833322753906,-0.0157059628906249,0.0380199223632829,0.582288193756472,0.631419000000278,
-0.516189877929688,-0.0707726010742187,0.00689530078125244,0.52106457979097,0.634350999999697,
-0.801099875488281,-0.0635899960937499,-0.0170467158203103,0.803800527886615,0.637263999999959,
-0.796311472167969,-0.0803494077148437,-0.0338061274414052,0.80106856278288,0.640247000000272,
-0.542526096191406,-0.0875320126953125,0.00210689746093884,0.549546046580348,0.643203999999969,
-0.614352145996094,-0.0683783994140624,-0.00986411083984251,0.61822444587633,0.646209999999883,
-0.710120212402344,-0.0540131894531251,0.0212605107421897,0.712488701674818,0.649158999999599,
-0.755610043945313,-0.104291424316406,-0.0314119257812475,0.763419903315514,0.652141999999913,
-0.590410129394531,-0.1210508359375,0.0140779057617202,0.602856212710353,0.65508200000022,
-0.678995590820313,-0.0635899960937499,0.0380199223632829,0.683025778761782,0.65800500000023,
-0.758004245605469,-0.0396479794921876,-0.0122583124999984,0.759139423860385,0.66099899999972,
-0.700543405761719,-0.123445037597656,0.0308373173828134,0.712004691562551,0.663940999999795,
-0.652659372558594,-0.0779552060546874,0.00450109912109475,0.657313875277941,0.666925000000447,
-0.6358999609375,-0.00373495458984374,0.0404141240234388,0.637193857179025,0.669867999999951,
-0.698149204101563,-0.0372537778320312,-0.0074699091796866,0.699182347241087,0.672776999999769,
-0.683783994140625,-0.144992852539062,0.0763271489257829,0.703142454694253,0.675792000000001,
-0.683783994140625,-0.0396479794921876,-0.0074699091796866,0.684973220253078,0.678702000000158,
-0.662236179199219,-0.0133117612304687,-0.0266235224609357,0.662904798576436,0.681701999999859,
-0.686178195800781,-0.0779552060546874,-0.0433829340820289,0.691953473517555,0.684602999999697,
-0.664630380859375,-0.116262432617187,-0.040988732421873,0.67596639900582,0.687512000000424,
-0.645476767578125,-0.0611957944335937,0.0260489140625015,0.648894235344481,0.690515000000232,
-0.6358999609375,-0.0444363828125001,-0.00268150585937299,0.637456306668502,0.693425000000389,
-0.683783994140625,-0.0803494077148437,0.0140779057617202,0.688632532918442,0.696436999999605,
-0.6742071875,-0.0827436093749999,0.0380199223632829,0.680328855088165,0.699373000000378,
-0.650265170898438,-0.092320416015625,-0.00268150585937299,0.656791475409468,0.702264999999898,
-0.6742071875,-0.0300711728515624,0.0116837041015643,0.674978604145985,0.705283999999665,
-0.638294162597656,-0.0779552060546874,0.0236547124023456,0.643471831221935,0.708200000000033,
-0.645476767578125,-0.0947146176757813,0.0380199223632829,0.653495700659985,0.711212999999589,
-0.688572397460938,-0.0611957944335937,0.0452025273437524,0.692762686841407,0.714140000000043,
-0.65505357421875,-0.0611957944335937,0.0978749638671896,0.665146313907791,0.717053999999735,
-0.619140549316406,-0.0611957944335937,0.0284431157226575,0.622807318434998,0.720065000000432,
-0.695755002441406,-0.0564073911132812,0.0811155522460947,0.702735049652881,0.723007999999936,
-0.686178195800781,-0.0851378110351562,0.0260489140625015,0.691930277689963,0.726018999999724,
-0.626323154296875,-0.0779552060546874,-0.0050757075195289,0.631176259507786,0.728943000000072,
-0.686178195800781,-0.0157059628906249,-0.0362003291015611,0.687311906989686,0.731856999999764,
-0.667024582519531,-0.0947146176757813,-0.0194409174804662,0.673995995358509,0.73485299999993,
-0.6358999609375,-0.0611957944335937,0.0284431157226575,0.639470637643892,0.737793000000238,
-0.662236179199219,-0.0707726010742187,0.00689530078125244,0.66604283891958,0.74090200000046,
-0.667024582519531,-0.0827436093749999,0.0308373173828134,0.672844141477895,0.74391100000048,
-0.633505759277344,-0.0755610043945312,-0.0122583124999984,0.638113844582628,0.746983,
-0.676601389160156,-0.0851378110351562,-0.0122583124999984,0.682047031301111,0.749936000000162,
-0.686178195800781,-0.104291424316406,0.0116837041015643,0.694156845763184,0.752865000000384,
-0.65505357421875,-0.0827436093749999,-0.0362003291015611,0.661250447119867,0.755858999999873,
-0.669418784179688,-0.0731668027343749,0.00689530078125244,0.673440743353004,0.758789000000434,
-0.659841977539063,-0.0659841977539062,-0.0290177241210916,0.663767563224549,0.761805000000095,
-0.671812985839844,-0.0468305844726562,-0.00986411083984251,0.673515472923791,0.764726000000337,
-0.676601389160156,-0.0492247861328126,-0.0194409174804662,0.678668157979846,0.76762299999973,
-0.652659372558594,-0.0827436093749999,0.0547793339843761,0.660160235785791,0.770647000000281,
-0.645476767578125,-0.0803494077148437,-0.0194409174804662,0.65074897931208,0.773551000000225,
-0.669418784179688,-0.0516189877929687,-0.0433829340820289,0.67280614405856,0.776576999999634,
-0.669418784179688,-0.0683783994140624,0.0260489140625015,0.673406014260992,0.779516999999942,
-0.669418784179688,-0.0683783994140624,0.0499909306640642,0.674756405873779,0.78245700000025,
-0.6358999609375,-0.0635899960937499,-0.0074699091796866,0.639115206724633,0.785461000000396,
-0.676601389160156,-0.0420421811523437,0.00689530078125244,0.677941391259129,0.788389000000279,
-0.683783994140625,-0.0755610043945312,0.0308373173828134,0.688637027882893,0.791403999999602,
-0.662236179199219,-0.0779552060546874,-0.00268150585937299,0.666814038293348,0.794316000000435,
-0.659841977539063,-0.0420421811523437,0.0236547124023456,0.661602997074186,0.797223999999915,
-0.652659372558594,-0.0827436093749999,-0.000287304199217076,0.657883609785715,0.800213999999869,
-0.726879624023438,-0.0492247861328126,-0.0170467158203103,0.728743890479044,0.80313600000045,
-0.700543405761719,-0.0252827695312499,0.0428083256835947,0.70230537128747,0.806155999999646,
-0.686178195800781,-0.0875320126953125,0.0140779057617202,0.691881895318517,0.809078999999656,
-0.667024582519531,-0.109079827636719,0.0428083256835947,0.677239068003644,0.811999999999898,
-0.690966599121094,-0.0324653745117187,-0.038594530761717,0.692804719562355,0.814994000000297,
-0.628717355957031,-0.0659841977539062,0.00928950244140836,0.632238659756295,0.817939999999908,
-0.645476767578125,-0.0779552060546874,0.0236547124023456,0.650597277163816,0.820953000000372,
-0.652659372558594,-0.0588015927734374,-0.0697191523437475,0.659001247422796,0.823879000000488,
-0.65505357421875,-0.10189722265625,0.0284431157226575,0.663541437977938,0.826798000000053,
-0.669418784179688,-0.0540131894531251,-0.0194409174804662,0.671875645130847,0.829784000000473,
-0.650265170898438,-0.0300711728515624,0.0332315190429711,0.651807795119195,0.832715999999891,
-0.664630380859375,-0.0516189877929687,0.0284431157226575,0.667238393600114,0.835737999999765,
-0.6358999609375,-0.0875320126953125,0.0260489140625015,0.642424438740185,0.838660000000345,
-0.659841977539063,-0.0611957944335937,0.0571735356445338,0.665135455194742,0.841642999999749,
-0.698149204101563,-0.0683783994140624,0.0140779057617202,0.701631031329651,0.844579999999951,
-0.643082565917969,-0.0540131894531251,0.00928950244140836,0.645413747977332,0.847491000000446,
-0.667024582519531,-0.0564073911132812,0.117028577148439,0.679558147127198,0.850499000000127,
-0.686178195800781,-0.0659841977539062,-0.0457771357421866,0.690861763960346,0.853415999999925,
-0.65505357421875,-0.0995030209960938,0.00210689746093884,0.662571109618447,0.856404000000111,
-0.659841977539063,-0.0564073911132812,0.0404141240234388,0.663480618040534,0.859339999999975,
-0.688572397460938,-0.0659841977539062,-0.0074699091796866,0.691767056487574,0.862227999999959,
-0.633505759277344,-0.0588015927734374,0.0332315190429711,0.63709615303199,0.865240000000085,
-0.647870969238281,-0.0683783994140624,0.0523851323242202,0.653572184518899,0.868161000000327,
-0.6742071875,-0.0492247861328126,0.0404141240234388,0.677208765940802,0.871170000000347,
-0.638294162597656,-0.092320416015625,0.0739329472656269,0.649159901650528,0.87409099999968,
-0.65505357421875,-0.0779552060546874,-0.0050757075195289,0.659695355489647,0.877051999999821,
-0.652659372558594,-0.0659841977539062,-0.00986411083984251,0.656060570088208,0.880138000000443,
-0.662236179199219,-0.113868230957031,-0.000287304199217076,0.671954472866553,0.883147000000463,
-0.667024582519531,-0.0611957944335937,0.0164721074218761,0.670028394371934,0.886233000000175,
-0.698149204101563,-0.0779552060546874,0.0236547124023456,0.702886100842456,0.8891679999997,
-0.683783994140625,-0.0611957944335937,-0.040988732421873,0.687739450725939,0.892057000000023,
-0.631111557617188,-0.0564073911132812,-0.000287304199217076,0.633627394036828,0.895058000000063,
-0.628717355957031,-0.0635899960937499,-0.0074699091796866,0.631969145471483,0.897992000000158,
-0.683783994140625,-0.0324653745117187,0.0380199223632829,0.685609266041236,0.901026000000456,
-0.652659372558594,-0.0683783994140624,-0.0050757075195289,0.656251190400315,0.90393800000038,
-0.659841977539063,-0.0803494077148437,0.00928950244140836,0.664780984609515,0.906871000000137,
-0.676601389160156,-0.0779552060546874,-0.00986411083984251,0.681148849112397,0.909870999999839,
-0.698149204101563,-0.0731668027343749,0.0140779057617202,0.702113865153404,0.912806000000273,
-0.650265170898438,-0.0540131894531251,-0.0505655390624984,0.654460916219719,0.915802999999869,
-0.652659372558594,-0.0444363828125001,0.0116837041015643,0.654274680579624,0.918784999999843,
-0.621534750976562,-0.0851378110351562,-0.000287304199217076,0.627338804859909,0.921701999999641,
-0.643082565917969,-0.0707726010742187,-0.0505655390624984,0.648938226174981,0.924705999999787,
-0.681389792480469,-0.0540131894531251,-0.0242293208007798,0.683956529260407,0.927606999999625,
-0.688572397460938,-0.0396479794921876,-0.0122583124999984,0.689821842977057,0.930607000000236,
-0.686178195800781,-0.0588015927734374,0.0332315190429711,0.689494363691983,0.933525000000373,
-0.645476767578125,-0.0827436093749999,-0.040988732421873,0.65204818729988,0.936499000000367,
-0.6358999609375,-0.0492247861328126,-0.0314119257812475,0.63857540586169,0.939416000000165,
-0.705331809082031,-0.0324653745117187,0.0212605107421897,0.706398591987651,0.942339000000175,
-0.645476767578125,-0.0707726010742187,-0.0122583124999984,0.649460764612662,0.945321000000149,
-0.662236179199219,-0.0899262143554688,-0.0649307490234357,0.671460708632627,0.948245999999926,
-0.657447775878906,-0.0659841977539062,-0.0601423457031238,0.663482173165204,0.951210000000174,
-0.664630380859375,-0.0779552060546874,-0.0242293208007798,0.66962498258262,0.954136999999719,
-0.688572397460938,-0.0611957944335937,0.00689530078125244,0.691320777189812,0.957048999999643,
-0.657447775878906,-0.0683783994140624,-0.0122583124999984,0.661107744425897,0.960041999999703,
-0.671812985839844,-0.0731668027343749,0.0308373173828134,0.676488735389427,0.962975999999799,
-0.647870969238281,-0.0540131894531251,0.071538745605471,0.654042819347062,0.965991000000031,
-0.662236179199219,-0.0588015927734374,0.035625720703127,0.66579544631117,0.968907999999828,
-0.662236179199219,-0.0803494077148437,-0.000287304199217076,0.667092847289048,0.971819999999752,
-0.678995590820313,-0.092320416015625,0.105057568847657,0.693249712830019,0.974836999999752,
-0.628717355957031,-0.0420421811523437,0.0260489140625015,0.630659658295568,0.977780000000166,
-0.678995590820313,-0.0875320126953125,0.0212605107421897,0.684944431992068,0.980792000000292,
-0.659841977539063,-0.0707726010742187,0.0499909306640642,0.665506791501132,0.983726000000388,
-0.707726010742188,-0.0851378110351562,0.00928950244140836,0.712889085345342,0.986630999999761,
-0.631111557617188,-0.0683783994140624,-0.0050757075195289,0.634825303899621,0.989634999999907,
-0.669418784179688,-0.0779552060546874,0.0332315190429711,0.674761333081219,0.992572000000109,
-0.667024582519531,-0.0707726010742187,-0.038594530761717,0.671878033985993,0.995571999999811,
-0.638294162597656,-0.0971088193359375,-0.0266235224609357,0.646187567775248,0.998486999999841,
-0.652659372558594,-0.0947146176757813,-0.0362003291015611,0.660488894090664,1.00138799999968,
-0.700543405761719,-0.0731668027343749,0.0380199223632829,0.705379301422369,1.00438899999972,
-0.676601389160156,-0.0803494077148437,-0.0218351191406239,0.681705390591467,1.00730000000021,
