X,Y,Z,Magnitude,Seconds,
0.0416591088867188,0.00584185205078125,0.0236547124023456,0.048261309632628,0.0,
0.0129286889648438,-0.0372537778320312,0.0571735356445338,0.0694536402156488,0.00398600000016813,
0.000957680664062543,-0.00134075292968738,0.0380199223632829,0.038055607565546,0.00798299999996743,
-0.00622492431640631,-0.0133117612304687,-0.0816901606445288,0.0830014157465457,0.0119470000004185,
0.00335188232421879,-0.00612915624999988,0.00928950244140836,0.0116231031597098,0.0158800000003794,
-0.0229843359375,-0.00612915624999988,-0.0194409174804662,0.0307212553016159,0.0197150000003603,
0.0177170922851563,-0.0228885678710937,-0.0170467158203103,0.0335912550895143,0.0235999999999876,
0.0225054956054688,-0.0324653745117187,0.00450109912109475,0.0397587445467264,0.0275750000000698,
0.0129286889648438,-0.0133117612304687,0.0452025273437524,0.0488633038554432,0.0315490000002683,
0.0368707055664063,-0.0228885678710937,-0.00986411083984251,0.0445043385617064,0.0354270000002543,
0.00574608398437504,-0.0157059628906249,0.0308373173828134,0.0350804061385489,0.0394020000003366,
-0.00861912597656256,-0.0444363828125001,-0.0290177241210916,0.0537671810980145,0.0434270000000652,
-0.0014365209960937,0.0178128603515626,0.0595677373046897,0.0621906497319091,0.047418000000107,
-0.00861912597656256,-0.00134075292968738,-0.0170467158203103,0.0191488242792276,0.051394000000073,
-0.0158017309570313,-0.0109175595703124,-0.0074699091796866,0.0206079438897355,0.0554470000001857,
-0.00622492431640631,-0.0444363828125001,0.00689530078125244,0.04539699299588,0.635424000000057,
-0.0301669409179688,-0.0204943662109374,-0.0338061274414052,0.049728438778236,0.641015000000152,
0.108696755371094,-0.0635899960937499,-0.0218351191406239,0.127810189966574,0.644766000000345,
-0.0995987890625,-0.00612915624999988,-0.0314119257812475,0.104614503871786,0.648486000000048,
0.0991199487304688,-0.0540131894531251,-0.0170467158203103,0.114161199150536,0.652242000000115,
-0.051714755859375,-0.0444363828125001,-0.00268150585937299,0.0682363434302254,0.656033000000207,
0.0608127221679687,0.0130244570312501,-0.000287304199217076,0.0621924931333382,0.659783000000061,
0.0177170922851563,-0.0300711728515624,0.0332315190429711,0.0481923713217417,0.663497000000007,
-0.0349553442382813,-0.0133117612304687,-0.00268150585937299,0.0375002606863953,0.667145000000346,
0.0536301171875,-0.0492247861328126,-0.0170467158203103,0.0747653633685046,0.670783000000029,
0.00814028564453129,0.0106302553710937,0.00210689746093884,0.013553803766476,0.674478000000363,
-0.0229843359375,0.0226012636718751,-0.0840843623046865,0.0900515230423077,0.678178000000116,
0.0488417138671875,-0.0252827695312499,-0.0050757075195289,0.0552312796835119,0.681912000000011,
-0.00622492431640631,-0.0372537778320312,-0.0505655390624984,0.0631147160825776,0.685793000000103,
0.03447650390625,-0.0133117612304687,0.071538745605471,0.080520956473821,0.689609000000019,
-0.0181959326171875,-0.0157059628906249,-0.0314119257812475,0.039553486766877,0.693286000000171,
0.0177170922851563,-0.0133117612304687,0.0691445439453133,0.0726089960232416,0.69700899999998,
0.0105344873046875,-0.0276769711914062,-0.0266235224609357,0.0398221308486939,0.700784000000112,
-0.0181959326171875,-0.00612915624999988,0.00928950244140836,0.0213296360905449,0.704636000000392,
0.0225054956054688,-0.0133117612304687,-0.0433829340820289,0.0506535219809092,0.708325000000059,
0.00814028564453129,-0.0133117612304687,0.0595677373046897,0.061577451758189,0.712080000000242,
-0.00622492431640631,-0.00612915624999988,-0.040988732421873,0.0419093357694177,0.71579200000042,
-0.0134075292968751,-0.0181001645507812,0.0571735356445338,0.0614507199039091,0.719514000000345,
0.0105344873046875,0.00344765039062511,0.0140779057617202,0.0179178443632172,0.723227000000406,
0.00335188232421879,-0.0157059628906249,-0.0721133540039052,0.0738799581153755,0.726958000000195,
0.00814028564453129,0.0202070620117187,-0.0050757075195289,0.0223685585665195,0.730665000000045,
0.0225054956054688,-0.0492247861328126,0.0284431157226575,0.0611439918085284,0.734393000000182,
-0.0876277807617187,0.00344765039062511,-0.00268150585937299,0.0877365643737756,0.738275000000158,
0.0895431420898437,-0.0588015927734374,0.00210689746093884,0.107144951467281,0.742153000000144,
0.00814028564453129,-0.0516189877929687,-0.0242293208007798,0.0576007303565876,0.745902000000115,
-0.0780509741210937,0.0824563051757814,0.00450109912109475,0.113627711047047,0.749675000000025,
0.0895431420898437,-0.152175457519531,0.0475967290039083,0.182868238845547,0.753574000000299,
-0.104387192382812,0.106398321777344,-0.0625365473632797,0.161641914634544,0.757343000000219,
0.0225054956054688,-0.0971088193359375,0.0260489140625015,0.103029927929234,0.761153000000377,
0.0895431420898437,0.0656968935546876,-0.0194409174804662,0.112747529421004,0.764929000000393,
-0.133117612304688,-0.147387054199219,-0.0362003291015611,0.201875472205729,0.76862200000005,
0.147003981933594,0.125551935058594,0.0116837041015643,0.193674902976154,0.772399000000405,
-0.0588973608398438,-0.123445037597656,-0.0433829340820289,0.143490959265562,0.776144000000386,
-0.00622492431640631,0.123157733398437,-0.040988732421873,0.12994865587661,0.779854000000341,
-0.104387192382812,-0.154569659179687,0.0428083256835947,0.191366188811722,0.78357700000015,
-0.051714755859375,0.14709975,0.0116837041015643,0.156362595799603,0.787338999999974,
0.0129286889648438,-0.262308733886719,-0.0314119257812475,0.264499020703083,0.791049000000385,
0.0105344873046875,0.180618573242188,-0.0146525141601543,0.181517879543668,0.794773000000077,
0.0392649072265625,-0.207242095703125,-0.0338061274414052,0.213620863736477,0.798539000000346,
0.03447650390625,-0.0516189877929687,0.0212605107421897,0.0656137069474594,0.802278999999999,
-0.0924161840820312,-0.0204943662109374,-0.0122583124999984,0.0954517488159306,0.805953000000045,
0.154186586914063,-0.0276769711914062,0.0212605107421897,0.158087088769312,0.809895000000324,
-0.125935007324219,-0.00612915624999988,-0.0194409174804662,0.127574064364863,0.813684000000194,
0.161369191894531,-0.0157059628906249,0.0116837041015643,0.162552152568179,0.817453000000114,
-0.0541089575195313,-0.0707726010742187,-0.00268150585937299,0.0891276097532902,0.8212410000001,
0.0177170922851563,0.00823605371093761,-0.0194409174804662,0.0275622425113141,0.825011000000359,
0.0608127221679687,-0.0540131894531251,-0.038594530761717,0.0900286044382276,0.828831000000264,
-0.0110133276367188,0.0609084902343751,0.0404141240234388,0.073921843786844,0.83262300000024,
0.00335188232421879,-0.0109175595703124,0.00210689746093884,0.0116132355094366,0.836403000000246,
0.0536301171875,-0.0659841977539062,-0.000287304199217076,0.0850305025651058,0.840174000000388,
-0.0780509741210937,0.0633026918945312,0.0428083256835947,0.109232495669459,0.844033000000309,
0.0895431420898437,-0.137810247558594,-0.0362003291015611,0.168285776150405,0.847803000000113,
-0.0229843359375,0.0465432802734376,0.0452025273437524,0.0688318611935077,0.851536000000124,
-0.0636857641601563,0.0202070620117187,0.0164721074218761,0.0688152035143856,0.855293000000074,
0.1302445703125,-0.0683783994140624,0.035625720703127,0.151355361906785,0.859025000000202,
-0.0732625708007812,0.0202070620117187,0.0523851323242202,0.0923034762298311,0.862759000000096,
0.0225054956054688,-0.0564073911132812,0.035625720703127,0.0704093962498732,0.866475000000264,
0.0368707055664063,-0.0252827695312499,0.0475967290039083,0.0653001988971428,0.870309000000361,
-0.0301669409179688,0.0321780703125001,0.0523851323242202,0.068481199040397,0.874017000000094,
0.142215578613281,-0.271885540527344,-0.685028979003905,0.750607567256878,0.877807000000303,
-0.688572397460938,1.63389898095703,1.68762486621094,2.44782260704713,0.881858000000193,
-0.7125144140625,-6.07543036474609,-1.93480224560547,6.41576111125762,0.884827000000314,
5.11736662841797,5.36645936914063,1.64931763964844,7.59648445313611,0.887785000000349,
-6.26227386230469,4.02091803613281,-0.783191247070311,7.48313064895236,0.890838000000258,
-2.85053649658203,-9.07297084326172,-0.912478136718748,9.55389839756595,0.893752000000404,
12.7931771508789,0.199772186523438,2.59023889208984,13.0542953872805,0.896810000000187,
-6.21438982910156,8.03599422021485,-1.07767805126953,10.2155388520408,0.899773000000096,
-9.33642879394531,-4.05711836523438,-1.43201989697265,10.2800677546045,0.902659000000313,
12.6040352197266,-3.85361122412109,1.52481915332031,13.2678972236414,0.905711000000338,
2.58430127197266,3.14942863183594,0.437851599609377,4.0974660211682,0.908678000000236,
-11.4576914648438,0.640305291992188,-1.48708653515625,11.5715215479015,0.911751000000095,
4.06870630126953,-0.149781255859375,0.634176135742189,4.12055636555819,0.914698000000044,
5.46452586914063,-0.63819839453125,0.634176135742189,5.53809710427998,0.917646000000332,
-5.89835520996094,-1.85445283789063,-1.01064040478516,6.26506053750626,0.920680000000175,
-0.398873996582031,4.12626290917969,0.342083533203127,4.15958738392525,0.923637000000326,
2.61782009521484,-1.31815166601563,0.490524036132815,2.97171998942606,0.926688000000013,
-0.599986936035156,-3.53518240332031,-0.436032006347654,3.61214934058906,0.929614000000129,
-0.384508786621094,4.02810064111328,0.160124207031252,4.04957794635483,0.932562000000416,
-0.877714328613281,-0.602285369628906,0.107451770507815,1.06989531829397,0.935577000000194,
0.594719692382813,-2.95099719824219,-0.10084377392578,3.01201683980697,0.9385070000003,
0.235589443359375,1.52615990625,-0.0745075556640611,1.54603293015331,0.941585000000032,
-1.88567322753906,-0.152175457519531,-0.124785790527342,1.89591465642481,0.944512000000032,
0.257137258300781,-0.286250750488281,0.107451770507815,0.399505875735027,0.94753800000035,
1.43987287841797,-0.0444363828125001,0.169701013671876,1.4505195387041,0.950503000000026,
-1.24642138427734,-0.341317388671875,-0.13915100048828,1.29977953050913,0.953439000000344,
-0.145088620605469,0.611574872070313,0.0763271489257829,0.633166933470278,0.956493000000137,
0.922725319824219,-0.31258696875,0.0643561406250015,0.976357691480518,0.959459000000152,
-0.473094248046875,-0.432297051757813,-0.00986411083984251,0.640933857099308,0.962446,
-0.178607443847656,0.681006720214844,0.00928950244140836,0.704100182382579,0.965429000000313,
0.26431986328125,-0.329346380371094,0.00450109912109475,0.422320125357362,0.968381000000136,
0.0177170922851563,-0.338923187011719,0.0164721074218761,0.339785450506844,0.971429000000171,
-0.0756567724609375,0.499047394042969,0.0882981572265642,0.512414688792087,0.974384999999984,
-0.0732625708007812,-0.202453692382813,-0.038594530761717,0.218733718581501,0.977399000000332,
0.259531459960938,-0.271885540527344,-0.0529597407226543,0.379582744595579,0.980337000000418,
-0.0158017309570313,0.247656219726563,0.0595677373046897,0.25520895987032,0.983302999999978,
-0.197761057128906,-0.0372537778320312,0.00928950244140836,0.201453653566049,0.986311999999998,
0.166157595214844,-0.0540131894531251,0.0140779057617202,0.175282510573973,0.989287000000331,
0.0129286889648438,0.0633026918945312,0.00689530078125244,0.0649763570255178,0.992341000000124,
-0.0852335791015625,-0.0707726010742187,0.0260489140625015,0.113807161431557,0.99527100000023,
0.0703895288085937,-0.00852335791015624,0.00928950244140836,0.0715096374733462,0.998220000000401,
0.0201112939453125,0.0465432802734376,-0.000287304199217076,0.0507032900951153,1.0012670000001,
-0.0277727392578125,-0.0300711728515624,-0.0481713374023425,0.063214541283484,1.00419300000021,
0.0201112939453125,-0.0204943662109374,0.0475967290039083,0.0555871550127749,1.00727800000004,
0.00335188232421879,0.00105344873046875,-0.00986411083984251,0.0104711772023892,1.01033700000016,
0.0129286889648438,-0.0779552060546874,-0.0146525141601543,0.0803670412581673,1.01336500000025,
0.0416591088867188,-0.0468305844726562,0.0404141240234388,0.0745780558600717,1.01650600000039,
0.0177170922851563,0.0465432802734376,0.0475967290039083,0.0688884671735697,1.01949300000024,
0.03447650390625,-0.0588015927734374,-0.0290177241210916,0.074082959899417,1.02250200000026,
0.0320823022460938,0.0178128603515626,-0.00986411083984251,0.0379983261996457,1.02548999999999,
-0.0181959326171875,0.00823605371093761,0.0212605107421897,0.0291707706712977,1.02846600000021,
-0.0277727392578125,-0.0899262143554688,0.0284431157226575,0.0983212078150011,1.03149300000041,
0.0272938989257813,-0.0420421811523437,-0.0146525141601543,0.0522225821444207,1.03443200000038,
0.0296881005859375,-0.00612915624999988,0.00450109912109475,0.030646529428886,1.03749600000037,
0.015322890625,-0.00852335791015624,-0.0122583124999984,0.0213940373122502,1.0404510000003,
0.00814028564453129,-0.0252827695312499,-0.0529597407226543,0.0592470828223266,1.04348600000003,
0.00814028564453129,-0.0157059628906249,-0.0577481440429679,0.0603969342028519,1.04644300000018,
0.00814028564453129,-0.0803494077148437,0.0428083256835947,0.0914048374996283,1.04942700000038,
0.0129286889648438,-0.0348595761718749,0.0452025273437524,0.0585287068667599,1.05249700000013,
0.00814028564453129,-0.0109175595703124,-0.0146525141601543,0.0200038378457586,1.05545400000028,
0.0272938989257813,-0.0372537778320312,-0.0146525141601543,0.0484509757646079,1.05846200000042,
-0.00383072265624995,-0.0731668027343749,-0.0433829340820289,0.0851477212144031,1.06140700000014,
-0.00383072265624995,0.00584185205078125,-0.0481713374023425,0.048675244412151,1.06433600000037,
0.015322890625,-0.0109175595703124,-0.038594530761717,0.0429362537815557,1.06737300000032,
-0.00383072265624995,-0.0396479794921876,0.0284431157226575,0.0489453526485867,1.07031800000004,
0.0105344873046875,-0.0372537778320312,-0.0481713374023425,0.0618004622366312,1.07334600000013,
-0.0014365209960937,-0.0372537778320312,-0.0290177241210916,0.0472433685134574,1.07626900000014,
0.00335188232421879,-0.0540131894531251,0.0140779057617202,0.0559182186827376,1.07923200000005,
0.0512359155273437,-0.0228885678710937,0.0763271489257829,0.0947356281567468,1.08227000000034,
0.0488417138671875,-0.00852335791015624,0.0380199223632829,0.0624793977248412,1.08522900000025,
-0.0301669409179688,0.0441490786132812,0.00450109912109475,0.0536604636585245,1.0882630000001,
0.00574608398437504,-0.0827436093749999,0.0428083256835947,0.093338497531248,1.09122400000024,
0.000957680664062543,-0.336528985351563,-0.0146525141601543,0.33684918183843,1.09414600000036,
0.218830031738281,0.331453277832031,0.0499909306640642,0.400308570136631,1.09720200000038,
-0.396479794921875,0.676218316894531,-0.10084377392578,0.790339741266095,1.10012900000038,
-0.236068283691406,-1.56954284033203,-0.0433829340820289,1.58778935667554,1.10315800000035,
1.16932809082031,0.678612518554688,0.251103870117189,1.37509864660992,1.10613400000011,
-0.975876596679688,0.877331256347656,-0.179852428710936,1.3245346961952,1.10908500000005,
-0.429998618164063,-1.40434292578125,-0.038594530761717,1.46920638530452,1.11210200000005,
1.50212212158203,0.649882098632813,0.231950256835939,1.65303313091896,1.11507100000017,
-0.983059201660156,0.175830169921875,-0.105632177246092,1.0042309492807,1.11811699999998,
-0.322259543457031,-0.489757891601562,-0.0481713374023425,0.588246957903118,1.12103500000012,
1.01131078125,0.43440394921875,0.179277820312501,1.11516672485568,1.12399700000014,
-0.707726010742188,-0.441873858398437,-0.13196839550781,0.844715496738328,1.12699300000031,
0.139821376953125,0.168647564941406,0.105057568847657,0.242959073479288,1.12997500000029,
0.249954653320313,0.216531598144531,0.093086560546876,0.343552571618886,1.1330240000002,
-0.377326181640625,-0.530459319824219,-0.0697191523437475,0.654692979604484,1.13593100000026,
0.307415493164062,0.412856134277344,0.0116837041015643,0.514869868985619,1.13896599999998,
-0.188184250488281,-0.154569659179687,-0.0218351191406239,0.244503300792947,1.14188600000034,
-0.0445321508789063,-0.156963860839844,-0.0338061274414052,0.166624188892958,1.14479400000027,
0.230801040039063,0.285963446289063,0.00210689746093884,0.367489662049889,1.1479290000002,
-0.23367408203125,-0.329346380371094,-0.00268150585937299,0.403831407087614,1.15093500000012,
0.0943315454101562,0.104004120117188,0.0739329472656269,0.15868641451681,1.1540600000003,
0.0703895288085937,0.104004120117188,0.00928950244140836,0.125927906449902,1.15709100000004,
-0.130723410644531,-0.207242095703125,0.00928950244140836,0.245202347414479,1.1599970000002,
0.151792385253906,0.154282354980469,-0.0242293208007798,0.217786669164705,1.16305899999998,
-0.0828393774414062,-0.0492247861328126,0.00928950244140836,0.0968077315110205,1.16599500000029,
-0.0134075292968751,-0.104291424316406,0.0140779057617202,0.106087937384168,1.16904400000021,
0.125456166992188,0.0728794985351564,0.00210689746093884,0.145103790991202,1.17201300000033,
-0.0876277807617187,-0.0755610043945312,-0.0050757075195289,0.115818203030258,1.17491500000006,
0.024899697265625,0.0202070620117187,-0.00986411083984251,0.0335502751363669,1.17796300000009,
0.0847547387695312,-0.0204943662109374,0.0236547124023456,0.0903489358493899,1.18091900000036,
-0.0636857641601563,-0.0659841977539062,0.0404141240234388,0.100215230032523,1.18394600000011,
0.000957680664062543,0.0537258852539062,-0.0218351191406239,0.0580013821081485,1.18691500000023,
0.0225054956054688,-0.113868230957031,-0.0625365473632797,0.131845709485942,1.18988400000035,
0.0320823022460938,-0.0181001645507812,0.0164721074218761,0.0403512130808096,1.19293100000004,
-0.0373495458984375,0.0465432802734376,-0.0050757075195289,0.059891805151081,1.19587500000034,
0.0201112939453125,-0.0228885678710937,0.0308373173828134,0.0433507880748758,1.19892500000014,
0.0512359155273437,0.00344765039062511,0.0691445439453133,0.0861276569433213,1.20189500000015,
-0.0229843359375,0.00823605371093761,0.0164721074218761,0.0294523785480075,1.20483000000013,
-0.0134075292968751,-0.0827436093749999,0.0859039555664083,0.1200239822544,1.20784200000026,
0.0560243188476562,0.0513316835937501,-0.0505655390624984,0.0912717907329191,1.21080100000017,
0.015322890625,-0.0444363828125001,0.00928950244140836,0.0479132335599853,1.2138460000001,
0.044053310546875,-0.0228885678710937,0.100269165527346,0.111886041421078,1.21679700000004,
0.03447650390625,0.0154186586914062,0.102663367187501,0.109389813601247,1.21977600000037,
-0.00861912597656256,-0.0252827695312499,0.0140779057617202,0.0301942908246911,1.22277300000042,
0.0608127221679687,0.00105344873046875,0.0595677373046897,0.085132909378846,1.22575000000006,
0.00335188232421879,0.0297838686523437,-0.0218351191406239,0.0370821570961118,1.22879700000021,
0.0201112939453125,-0.0827436093749999,0.0164721074218761,0.086731190234397,1.23175500000025,
0.0392649072265625,-0.0133117612304687,0.0547793339843761,0.0687001554462535,1.23478100000011,
-0.0373495458984375,-0.0276769711914062,0.0308373173828134,0.0557847959261104,1.23772000000008,
-0.0134075292968751,-0.0396479794921876,0.0428083256835947,0.0598688305171581,1.24064500000031,
0.0129286889648438,0.0297838686523437,0.0308373173828134,0.0447791243060659,1.2437060000002,
-0.00861912597656256,-0.0300711728515624,-0.0266235224609357,0.0410776912386315,1.24662100000023,
0.0368707055664063,-0.0324653745117187,0.0452025273437524,0.066758654490736,1.24964200000022,
-0.0134075292968751,-0.0276769711914062,-0.0266235224609357,0.0406766336414955,1.25257200000033,
0.0225054956054688,-0.0276769711914062,-0.0170467158203103,0.0395360922074517,1.25550199999998,
0.024899697265625,-0.0516189877929687,0.0212605107421897,0.0611271146195303,1.25855000000001,
0.00335188232421879,-0.0276769711914062,0.0308373173828134,0.0415715045772186,1.26152200000024,
0.024899697265625,-0.0228885678710937,0.0452025273437524,0.0564548486967428,1.26456900000039,
0.0177170922851563,-0.0492247861328126,0.0380199223632829,0.0646721688624399,1.26754400000027,
0.00335188232421879,-0.0348595761718749,-0.0170467158203103,0.0389488855585955,1.27049400000033,
-0.0014365209960937,-0.0133117612304687,0.0164721074218761,0.0212272679011467,1.27353000000039,
0.024899697265625,-0.0372537778320312,-0.0314119257812475,0.0547224631021367,1.27647400000023,
0.0105344873046875,-0.0252827695312499,0.035625720703127,0.0449375770770981,1.27951800000028,
0.000957680664062543,0.00105344873046875,-0.00986411083984251,0.00996632274927638,1.28248500000018,
0.015322890625,0.00823605371093761,0.0523851323242202,0.0551980583577105,1.28548500000034,
0.0177170922851563,-0.00852335791015624,0.0164721074218761,0.0256490411521209,1.28861200000028,
0.00335188232421879,0.00584185205078125,0.0116837041015643,0.0134859664848886,1.29167000000007,
-0.00383072265624995,-0.0204943662109374,-0.0601423457031238,0.063653713396244,1.29476400000021,
0.0272938989257813,-0.0133117612304687,-0.0362003291015611,0.0472506479605212,1.29771400000027,
-0.0229843359375,-0.0300711728515624,0.0308373173828134,0.0488210536400512,1.30065300000024,
-0.00622492431640631,-0.0157059628906249,0.0332315190429711,0.0372794958518757,1.30366800000002,
0.0320823022460938,-0.0204943662109374,-0.0122583124999984,0.0399944919850889,1.30663400000003,
0.00814028564453129,-0.0252827695312499,0.00210689746093884,0.0266443559212034,1.30969600000026,
-0.0301669409179688,-0.0348595761718749,0.0308373173828134,0.0554632717985455,1.31262500000003,
-0.00383072265624995,0.0154186586914062,0.0523851323242202,0.0547413149324826,1.31558000000041,
0.0129286889648438,-0.0181001645507812,0.0116837041015643,0.0251252044100728,1.31861700000036,
0.0129286889648438,-0.0157059628906249,0.0643561406250015,0.0674947487202992,1.32158800000025,
0.00814028564453129,0.0154186586914062,0.00928950244140836,0.0197558634796248,1.32465300000013,
-0.0014365209960937,-0.0348595761718749,0.0595677373046897,0.0690331005464442,1.3275920000001,
0.0225054956054688,-0.0228885678710937,0.00928950244140836,0.0334167432172312,1.33065000000033,
-0.0397437475585938,-0.0444363828125001,0.0332315190429711,0.0682531423845352,1.33359000000019,
0.0392649072265625,-0.0109175595703124,0.00689530078125244,0.0413336572220003,1.33654700000034,
0.015322890625,-0.00852335791015624,-0.0218351191406239,0.0280037682295718,1.33956699999999,
0.0296881005859375,-0.0372537778320312,-0.038594530761717,0.0613087684093899,1.34252100000003,
0.044053310546875,-0.0420421811523437,0.0643561406250015,0.0885999548664155,1.34554600000001,
0.0105344873046875,0.00823605371093761,-0.0050757075195289,0.0143028252567762,1.34852300000011,
0.000957680664062543,-0.0468305844726562,0.0188663090820338,0.0504971129143413,1.35147300000017,
0.0201112939453125,-0.0181001645507812,0.0380199223632829,0.0466647039788123,1.35451600000033,
0.00814028564453129,-0.0109175595703124,-0.0050757075195289,0.0145334154337404,1.35746800000015,
-0.00861912597656256,-0.0204943662109374,-0.038594530761717,0.0445403882302904,1.36048300000039,
0.00335188232421879,-0.0252827695312499,-0.000287304199217076,0.0255056090691556,1.36342600000035,
-0.0110133276367188,-0.0228885678710937,0.0499909306640642,0.0560738180747723,1.36637400000018,
0.0392649072265625,-0.0516189877929687,0.0140779057617202,0.0663659571686952,1.36941500000012,
0.0201112939453125,-0.0276769711914062,0.0236547124023456,0.041593560767532,1.37238200000002,
0.015322890625,-0.0181001645507812,-0.0218351191406239,0.0322363050264187,1.37540800000033,
0.015322890625,-0.00612915624999988,-0.0362003291015611,0.0397846875129611,1.37835900000027,
0.0225054956054688,-0.0109175595703124,0.0116837041015643,0.0276079586523887,1.38130900000033,
0.0296881005859375,-0.0420421811523437,-0.0122583124999984,0.0529074147714179,1.38435700000036,
0.024899697265625,-0.0516189877929687,-0.038594530761717,0.0690945195323591,1.3872980000001,
0.024899697265625,-0.0181001645507812,0.0212605107421897,0.0374114982018082,1.39034400000037,
0.0679953271484375,-0.0396479794921876,0.0284431157226575,0.0836919208995017,1.3932990000003,
-0.0181959326171875,-0.0396479794921876,-0.0242293208007798,0.0499010443587031,1.39621600000009,
0.00574608398437504,-0.0420421811523437,-0.0194409174804662,0.0466745299888951,1.39923900000031,
0.000957680664062543,-0.0157059628906249,-0.0074699091796866,0.0174182078793649,1.40218800000002,
0.0129286889648438,-0.00852335791015624,-0.0170467158203103,0.0230301790846861,1.40520800000013,
0.015322890625,-0.0588015927734374,0.0380199223632829,0.0716793749017731,1.40817400000014,
0.00574608398437504,-0.0420421811523437,0.0380199223632829,0.0569743536489185,1.411114,
-0.00622492431640631,-0.0396479794921876,0.0140779057617202,0.0425311578868221,1.41412100000025,
0.0129286889648438,-0.0444363828125001,-0.0266235224609357,0.0533905896580724,1.41706599999998,
0.000957680664062543,-0.0252827695312499,0.0475967290039083,0.0539034711247439,1.42011400000001,
-0.0445321508789063,-0.00134075292968738,-0.00268150585937299,0.0446329536776807,1.42304600000034,
-0.0181959326171875,-0.0540131894531251,0.00450109912109475,0.057173214812588,1.42605200000025,
-0.0014365209960937,-0.0228885678710937,0.0428083256835947,0.0485644198935249,1.4290060000003,
0.000957680664062543,-0.0109175595703124,-0.0290177241210916,0.0310183586347411,1.43194500000027,
-0.00861912597656256,-0.0181001645507812,0.0428083256835947,0.047270054338851,1.43497100000013,
0.044053310546875,-0.0372537778320312,0.0188663090820338,0.0606998826298419,1.43792500000018,
0.0225054956054688,-0.0348595761718749,0.0308373173828134,0.0516974615111698,1.44094600000017,
-0.0014365209960937,-0.0204943662109374,0.0452025273437524,0.0496523022348704,1.44390300000032,
-0.0134075292968751,-0.00852335791015624,-0.0290177241210916,0.0330822880871164,1.44681000000037,
0.000957680664062543,-0.0228885678710937,0.0380199223632829,0.0443882663319265,1.44988700000022,
0.0129286889648438,-0.0348595761718749,0.0332315190429711,0.0498665710384799,1.45286600000009,
0.00574608398437504,-0.0228885678710937,0.00689530078125244,0.0245855484626456,1.45590500000026,
-0.00622492431640631,-0.0276769711914062,-0.0218351191406239,0.0357985592581623,1.45883600000025,
0.0177170922851563,-0.0181001645507812,-0.0194409174804662,0.0319289929106509,1.461769,
0.0129286889648438,-0.0372537778320312,-0.00986411083984251,0.0406484396228036,1.464786,
-0.00861912597656256,-0.0396479794921876,0.0332315190429711,0.052446024332795,1.46773600000006,
0.015322890625,-0.0659841977539062,-0.0050757075195289,0.0679298766166708,1.47074800000019,
0.0105344873046875,-0.0396479794921876,0.0284431157226575,0.0499194203952533,1.4737240000004,
-0.00861912597656256,-0.0252827695312499,-0.0481713374023425,0.0550816259282573,1.47662900000023,
-0.00622492431640631,-0.00373495458984374,0.00689530078125244,0.0100122295917104,1.47967500000004,
-0.0373495458984375,-0.0181001645507812,0.00928950244140836,0.042531157886822,1.48261400000001,
0.0129286889648438,0.00105344873046875,0.00689530078125244,0.0146903344223792,1.48567200000025,
-0.0110133276367188,-0.0468305844726562,-0.0242293208007798,0.0538651744093659,1.48858900000005,
-0.0205901342773438,-0.0228885678710937,-0.000287304199217076,0.0307883535196606,1.4914990000002,
0.0296881005859375,-0.00612915624999988,0.0595677373046897,0.0668376031911541,1.49455200000011,
-0.0014365209960937,-0.0396479794921876,0.0116837041015643,0.041358612306484,1.4974900000002,
-0.00861912597656256,-0.0564073911132812,0.00450109912109475,0.0572393483375243,1.50050300000021,
-0.0253785375976563,-0.00852335791015624,0.0164721074218761,0.0314332327891692,1.50345200000038,
0.0225054956054688,-0.0659841977539062,0.00689530078125244,0.0700568116498197,1.5064110000003,
0.0129286889648438,-0.0540131894531251,-0.00268150585937299,0.055603651920739,1.50943000000007,
-0.0014365209960937,0.00105344873046875,-0.0074699091796866,0.00767938083133727,1.51238899999998,
0.015322890625,0.00344765039062511,0.0308373173828134,0.03460660939315,1.51545000000033,
-0.0229843359375,-0.00134075292968738,-0.0074699091796866,0.0242048933081534,1.51836600000024,
-0.0110133276367188,0.0154186586914062,0.0188663090820338,0.0267388488879873,1.52140099999997,
-0.00861912597656256,-0.00612915624999988,-0.0266235224609357,0.0286473006959594,1.52432900000031,
-0.0181959326171875,-0.0348595761718749,-0.0170467158203103,0.0428587509728222,1.52725600000031,
0.0225054956054688,-0.0468305844726562,0.035625720703127,0.0629983567255176,1.53030000000035,
0.0105344873046875,-0.0204943662109374,0.0260489140625015,0.0347784472482057,1.53327400000035,
0.000957680664062543,-0.00134075292968738,-0.0266235224609357,0.0266744581744547,1.53628700000036,
0.0392649072265625,-0.00373495458984374,-0.038594530761717,0.055183517738686,1.53925400000026,
0.00335188232421879,-0.0300711728515624,-0.0122583124999984,0.0326462367989263,1.54218800000035,
-0.0014365209960937,0.0178128603515626,0.00928950244140836,0.0201409146288201,1.54526299999998,
0.03447650390625,-0.0133117612304687,-0.0218351191406239,0.0429255720583887,1.54830000000038,
0.0584185205078125,-0.00612915624999988,-0.000287304199217076,0.058739872645091,1.55142999999998,
0.0225054956054688,-0.0300711728515624,-0.000287304199217076,0.037561353980111,1.55447000000004,
0.015322890625,0.0130244570312501,0.0619619389648456,0.0651437590130309,1.55748100000028,
0.000957680664062543,-0.0516189877929687,-0.0122583124999984,0.0530632007927583,1.56050600000026,
0.00335188232421879,0.0106302553710937,-0.0050757075195289,0.0122474589688588,1.56348200000002,
0.000957680664062543,-0.0252827695312499,-0.0433829340820289,0.0502216542637763,1.56653800000004,
0.00814028564453129,-0.0204943662109374,0.0116837041015643,0.0249558057031923,1.56951500000014,
0.0225054956054688,-0.0252827695312499,0.0523851323242202,0.0623692059933757,1.57246299999997,
0.0225054956054688,-0.0181001645507812,0.0140779057617202,0.032129436967507,1.5755180000001,
0.00335188232421879,-0.0109175595703124,0.0452025273437524,0.0466229203327013,1.57849699999997,
0.0177170922851563,-0.00852335791015624,-0.0721133540039052,0.0747454267149363,1.58153500000026,
0.0129286889648438,-0.0133117612304687,0.0308373173828134,0.0359901948977086,1.58451400000013,
-0.00383072265624995,-0.00612915624999988,-0.0170467158203103,0.0185157098882121,1.58744700000034,
-0.00622492431640631,0.0321780703125001,0.0212605107421897,0.0390664460733242,1.59052600000041,
-0.0158017309570313,-0.0300711728515624,-0.0122583124999984,0.0361142127597233,1.59346500000038,
