X,Y,Z,Magnitude,Seconds,
0.0254264216308596,-0.00881066210937509,0.0307894333496108,0.0408915625740317,0.0,
0.020638018310547,0.0103429511718749,0.0403662399902363,0.0465009437504188,0.00399600000014289,
0.00866701000976578,-0.0183874687500001,-0.0242772048339823,0.0316638396928222,0.00790900000015426,
-0.0128808049316405,-0.00881066210937509,0.0116358200683599,0.0194662582731196,0.0117270000000644,
0.0158496149902345,-0.00641646044921884,-0.00272938989257732,0.0173156238472877,0.0156950000000506,
-0.0511880314941405,-0.00162805712890635,0.047548844970704,0.069883887959301,0.0197170000001279,
0.068522051513672,0.0055545478515624,0.0140300217285176,0.0701638514847945,0.0236310000000231,
-0.0511880314941405,-0.0758483085937501,0.0331836350097667,0.0973361911995702,0.0275880000001507,
-0.0272460148925779,0.0199197578124999,-0.0362482131347637,0.04952852747961,0.0315060000000358,
0.0541568415527345,0.0510443793945311,0.047548844970704,0.088314125782849,0.0354310000000169,
0.0182438166503908,-0.0590888969726564,-0.0601902297363264,0.0862971514427332,0.0394060000000991,
-0.0200634099121092,0.0223139594726561,0.00924161840820403,0.0313984189960501,0.0432700000001205,
0.0445800349121095,-0.00162805712890635,-0.00751779321288915,0.0452387809028012,0.047064999999975,
0.00387860668945328,-0.0231758720703126,-0.0290656081542959,0.0373761182234062,0.0509500000000571,
-0.000909796630859216,-0.0375410820312502,-0.0410366164550773,0.0556252142473869,0.054747000000134,
0.0230322199707033,0.0271023627929686,-0.0147003981933587,0.0384853599799178,0.0586370000000898,
0.058945244873047,-0.0159932670898438,-0.0458250197753891,0.0763561321883538,0.062610000000177,
-0.0104866032714842,0.000766144531249902,-0.00272938989257732,0.0108630288042502,0.0665280000000621,
0.0278206232910158,0.0462559760742186,0.0379720383300786,0.0659960460771723,0.0705130000001191,
0.0230322199707033,-0.0255700737304688,-0.0697670363769518,0.0777930022057472,0.0743740000000344,
-0.046399628173828,0.00316034619140615,0.0331836350097667,0.0571320130503069,0.0782460000000356,
0.0182438166503908,0.00316034619140615,-0.00272938989257732,0.0187156138880966,0.0820600000001832,
0.0254264216308596,-0.0447236870117189,-0.0147003981933587,0.0535052595911443,0.085997000000134,
-0.0152750065917967,0.000766144531249902,0.0810676682128921,0.0824977553227829,0.0899500000000444,
-0.00330399829101546,-0.0447236870117189,0.0403662399902363,0.0603370360191697,0.0938090000001921,
0.020638018310547,-0.00162805712890635,0.0571256516113294,0.0607611589901019,0.097686000000067,
-0.0416112248535155,0.0199197578124999,0.083461869873048,0.0953633813778857,0.101524000000154,
0.011061211669922,-0.0327526787109377,0.0499430466308599,0.0607404006664508,0.10540600000013,
0.011061211669922,-0.0351468803710939,-0.0170945998535146,0.0406187019435455,0.109247000000096,
-0.000909796630859216,-0.0519062919921877,-0.00751779321288915,0.0524557727336042,0.113104000000021,
-0.0104866032714842,-0.0399352836914064,0.0116358200683599,0.0428974129796875,0.117045000000189,
-0.0104866032714842,-0.0279642753906251,-0.0218830031738264,0.0370247940467185,0.120906999999988,
0.0541568415527345,0.0294965644531249,-0.0242772048339823,0.0662751346739973,0.124773000000005,
0.0302148249511721,-0.0112048637695313,0.0571256516113294,0.0655882969053375,0.128755000000183,
0.00866701000976578,-0.0351468803710939,-0.02667140649414,0.0449642545440823,0.132655000000113,
0.0326090266113283,0.00794874951171864,-0.0170945998535146,0.0376663852724169,0.13668500000017,
0.0350032282714846,-0.0183874687500001,-0.0194888015136705,0.0440810433281374,0.140692000000172,
-0.00330399829101546,0.0175255561523436,-0.0218830031738264,0.0282299017189518,0.144572000000153,
0.0182438166503908,-0.0135990654296876,0.0236068283691413,0.0327880126293756,0.148413000000119,
-0.0128808049316405,-0.0159932670898438,0.00205901342773629,0.0206382960582906,0.152347000000191,
0.0230322199707033,-0.0519062919921877,0.0116358200683599,0.05796670263022,0.156285000000025,
0.0254264216308596,-0.0351468803710939,0.0188184250488295,0.0472857191770268,0.160163000000011,
0.0421858332519533,0.0390733710937499,0.0331836350097667,0.066389204606268,0.164242000000058,
-0.0224576115722654,-0.0471178886718752,0.00684741674804812,0.052643393379867,0.168214000000035,
0.116406084716797,-0.0710599052734376,0.0403662399902363,0.142229814130208,0.172103000000106,
-0.094283661376953,0.0654095893554686,0.0283952316894549,0.11821214981969,0.175950000000057,
-0.0416112248535155,-0.0566946953125002,0.00684741674804812,0.0706588255387004,0.179759999999987,
0.097252471435547,-0.0303584770507814,0.0236068283691413,0.104579934379473,0.18361700000014,
-0.0440054265136717,0.0510443793945311,-0.0218830031738264,0.0708581121561158,0.187456999999995,
0.0182438166503908,-0.0159932670898438,0.0451546433105481,0.0512597624914804,0.191442000000052,
0.0733104548339845,-0.0279642753906251,-0.0242772048339823,0.08213285676658,0.1953460000002,
-0.0703416447753905,0.0630153876953123,0.0571256516113294,0.110373122399055,0.199359000000186,
0.0541568415527345,-0.0614830986328126,-0.000335188232421402,0.0819344082520361,0.20330899999999,
0.133165496337891,-0.0399352836914064,-0.0147003981933587,0.139799778274049,0.207178999999996,
-0.0679474431152342,0.0223139594726561,-0.012306196533201,0.0725686591192031,0.211074000000053,
-0.0128808049316405,-0.0112048637695313,0.00684741674804812,0.0183943258615851,0.214967999999999,
0.058945244873047,-0.0614830986328126,0.0403662399902363,0.0942557512387705,0.218902000000071,
-0.0487938298339842,0.0151313544921874,-0.0242772048339823,0.0565612799818673,0.222862000000077,
-0.0392170231933592,-0.00162805712890635,0.064308256591799,0.0753404097681988,0.22669000000019,
0.0804930598144533,-0.0519062919921877,0.0212126267089854,0.0980987836752636,0.23063900000011,
-0.0104866032714842,0.00316034619140615,0.0307894333496108,0.0326794406655494,0.234540000000152,
-0.0416112248535155,-0.0255700737304688,-0.0314598098144518,0.0580951145790497,0.238454000000047,
0.0852814631347658,-0.0159932670898438,-0.0410366164550773,0.0959828965842072,0.242340000000013,
0.0613394465332033,0.0271023627929686,0.0116358200683599,0.0680621633407625,0.246262999999999,
-0.101466266357422,-0.0638773002929689,-0.0697670363769518,0.138719688819058,0.250144999999975,
0.078098858154297,0.00316034619140615,0.0595198532714853,0.0982447574505311,0.254110000000082,
0.0158496149902345,-0.0279642753906251,-0.00751779321288915,0.0330110316144944,0.258025000000089,
-0.0823126530761717,-0.0447236870117189,-0.0530076247558586,0.107635446385558,0.262000000000171,
0.049368438232422,0.00316034619140615,0.0236068283691413,0.0548134365571809,0.266120000000001,
0.0733104548339845,0.0103429511718749,-0.0194888015136705,0.076558558054268,0.270171000000119,
-0.0679474431152342,-0.0686657036132814,0.0188184250488295,0.0984173104688571,0.274141999999983,
0.0182438166503908,0.0055545478515624,-0.048219221435545,0.0518534778357103,0.278074000000061,
0.106829278076172,-0.00881066210937509,0.0762792648925803,0.131562337595659,0.282015000000001,
-0.0296402165527342,-0.0399352836914064,-0.00751779321288915,0.0502979774503693,0.286002000000053,
0.0350032282714846,-0.0351468803710939,0.0427604416503922,0.0654903394355399,0.289993000000095,
0.039791631591797,-0.00162805712890635,0.0164242233886736,0.0430787607606502,0.294129000000112,
-0.084706854736328,-0.0303584770507814,-0.0290656081542959,0.0945605517408992,0.298226999999997,
0.039791631591797,0.0175255561523436,-0.0913148513183586,0.101138128984474,0.302341000000069,
0.0302148249511721,-0.442161162597656,-0.33312921899414,0.554431696337959,0.306257000000187,
-0.00330399829101546,1.06139747998047,1.01001791235352,1.46516610327585,0.310146000000032,
-0.190051727783203,-0.3631525078125,-1.65472853540039,1.70473632243588,0.313850000000002,
0.79157095288086,-2.94170769580078,-1.43206778100586,3.36616203863886,0.316827999999987,
0.0828872614746095,1.02309025341797,0.588638420166017,1.18324940500689,0.319809000000078,
-1.2794134831543,2.33750696484375,2.26218538061524,3.49547140852838,0.322876000000178,
0.272029192626953,-1.28492014697266,-1.78162122338867,2.21341226376074,0.325884000000087,
1.2105562434082,-0.932972502929688,-0.335523420654296,1.56475559608682,0.329011000000037,
-0.0799184514160154,0.750151264160156,0.56709060522461,0.943772023600948,0.332023000000163,
-1.5475640690918,-0.164433770019531,0.298940019287111,1.58472652145352,0.335021999999981,
0.398921880615235,-0.332027886230469,-0.323552412353514,0.611610454135675,0.338077999999996,
1.27041128491211,1.13801193310547,-0.395378462158202,1.7508112751125,0.341063000000076,
-0.178080719482422,-0.715100151855469,0.679618083251954,1.00247778475044,0.344209000000092,
-1.3009612980957,-0.990433342773438,-0.313975605712889,1.66494419924603,0.347181999999975,
0.164290117919922,0.994359833496094,-0.110468464599608,1.01387671981731,0.350156000000197,
1.2656228815918,0.484394879882812,0.251055986083985,1.37821217024594,0.353269000000182,
-0.348069037353516,-0.755801580078125,0.100221281494141,0.838112396088449,0.356253000000152,
-0.920283234130859,-0.339210491210938,-0.0314598098144518,0.981312747294909,0.359253000000081,
0.166684319580078,0.5562209296875,-0.191871321044921,0.611539032978128,0.362224000000197,
0.853820196044922,0.168360260742187,0.172047331298829,0.8871044971019,0.365218000000141,
-0.0918894597167967,-0.370335112792969,-0.0458250197753891,0.384306779815086,0.368224000000055,
-0.570729791748047,-0.104578728515625,-0.00272938989257732,0.580238446861201,0.371306000000004,
0.0613394465332033,0.235397907226562,0.064308256591799,0.251615290261784,0.374354000000039,
0.511449358642578,0.0055545478515624,0.047548844970704,0.513684915211444,0.377361000000064,
-0.0487938298339842,-0.15246276171875,-0.122439472900389,0.201536984359946,0.38035600000012,
-0.465384918701172,-0.0878193168945314,0.0451546433105481,0.475746042323865,0.383350000000064,
0.157107512939453,0.0773805976562499,0.105009684814455,0.204199807591707,0.386327000000165,
0.544968181884766,0.0701979926757811,-0.048219221435545,0.551582424265265,0.389409000000114,
-0.307367609130859,-0.0327526787109377,0.00205901342773629,0.309114581736058,0.392367000000149,
-0.496509540283203,-0.183587383300781,-0.0769496413574213,0.53492737657041,0.395357999999987,
0.33188423413086,0.0055545478515624,0.047548844970704,0.335319087623282,0.398353000000043,
0.568910198486329,0.185119672363281,0.0164242233886736,0.598496334284149,0.401295000000118,
-0.290608197509766,0.0414675727539061,-0.06497863305664,0.300657457589006,0.404365000000098,
-0.618613824951172,-0.231471416503906,-0.10328585961914,0.668528271560978,0.407344000000194,
0.291182805908203,-0.00402225878906259,0.0571256516113294,0.296760753965816,0.410397000000103,
0.643130449951172,0.233003705566406,0.0667024582519549,0.687282125767088,0.413389000000052,
-0.211599542724609,0.0199197578124999,0.0044532150878922,0.21258173570933,0.416341999999986,
-0.613825421630859,-0.219500408203125,-0.0673728347167959,0.655363392553641,0.419373000000178,
0.260058184326172,-0.0902135185546876,-0.0242772048339823,0.276329732094817,0.422328999999991,
0.540179778564453,0.185119672363281,0.0714908615722667,0.575477566508179,0.425417000000152,
-0.235541559326172,0.0630153876953123,0.0954328781738294,0.261836207375405,0.428405999999995,
-0.362434247314453,-0.164433770019531,-0.000335188232421402,0.397991407822306,0.431338000000096,
0.14034810131836,-0.0758483085937501,-0.048219221435545,0.166660279539101,0.434371000000056,
0.276817595947266,0.0486501777343749,0.0427604416503922,0.284294348501244,0.43735300000003,
-0.00569819995117171,0.0606211860351561,0.0786734665527362,0.0994832248090955,0.440436999999974,
-0.281031390869141,0.0510443793945311,-0.012306196533201,0.285894410219455,0.443458000000192,
0.020638018310547,-0.1333091484375,-0.112862666259764,0.175884161572839,0.446446000000151,
0.305548015869141,0.0127371528320311,-0.0194888015136705,0.306433742346163,0.449567999999999,
-0.120619879638672,0.110899420898437,0.0523372482910176,0.172008791863474,0.452583000000004,
-0.230753156005859,-0.104578728515625,-0.0554018264160145,0.259332010817869,0.455632000000151,
0.133165496337891,-0.0973961235351564,0.0355778366699226,0.16877451453553,0.458716999999979,
0.209779949462891,0.108505219238281,0.0978270798339853,0.255638704713205,0.46172300000012,
-0.0823126530761717,0.0462559760742186,0.100221281494141,0.137692750148092,0.464787999999999,
-0.0990720646972655,-0.0973961235351564,-0.0362482131347637,0.143579984115189,0.467761999999993,
0.114011883056641,-0.00881066210937509,0.0236068283691413,0.116763091730978,0.470862000000125,
0.109223479736328,0.0701979926757811,0.0451546433105481,0.137464426357963,0.473831000000018,
-0.130196686279297,-0.0878193168945314,0.0236068283691413,0.158810238598089,0.476830000000064,
0.00148440502929703,-0.126126543457031,-0.0506134230957009,0.13591109969452,0.479829999999993,
0.10204087475586,0.0845632026367187,0.0331836350097667,0.136617820922386,0.482818000000179,
-0.00569819995117171,0.0965342109374999,0.0283952316894549,0.100784981751782,0.48596600000019,
-0.0296402165527342,-0.135703350097656,0.0355778366699226,0.143386624645159,0.488918000000012,
0.0733104548339845,-0.0854251152343751,0.0236068283691413,0.115018065739353,0.492024000000129,
0.00387860668945328,0.0869574042968749,0.0762792648925803,0.115737461543158,0.495024000000058,
0.0661278498535158,0.0199197578124999,-0.0242772048339823,0.0732056825124178,0.498031000000083,
-0.0152750065917967,-0.0734541069335939,0.0307894333496108,0.0810976008139662,0.501094000000194,
-0.0440054265136717,-0.0159932670898438,-0.012306196533201,0.0484118232250244,0.504095000000007,
0.0541568415527345,-0.0973961235351564,-0.0769496413574213,0.135426052411193,0.507146000000148,
0.0541568415527345,0.0438617744140624,0.0236068283691413,0.0735805754759242,0.510118000000148,
-0.10864887133789,0.1348414375,0.00924161840820403,0.173413373246894,0.513112000000092,
-0.0128808049316405,-0.221894609863281,-0.000335188232421402,0.22226840840123,0.516108000000031,
0.0948582697753907,-0.0973961235351564,-0.00272938989257732,0.13598362325531,0.519111000000066,
0.0326090266113283,0.26891673046875,-0.0242772048339823,0.271972313328198,0.522199000000001,
-0.130196686279297,-0.104578728515625,0.0403662399902363,0.171806056083608,0.525150000000167,
-0.0727358464355467,-0.214712004882813,-0.00991199487304506,0.226914071930005,0.528081000000157,
0.152319109619141,0.194696479003906,0.0164242233886736,0.247745000364503,0.531171000000086,
0.111617681396485,0.0678037910156248,0.12655749975586,0.181858905805771,0.534129000000121,
-0.168503912841797,-0.181193181640625,-0.0673728347167959,0.256444217275074,0.537161000000197,
-0.0679474431152342,-0.0207816704101563,0.026001030029299,0.0756623183197479,0.54015000000004,
0.262452385986328,0.108505219238281,0.0307894333496108,0.285661734780587,0.543157000000065,
0.00866701000976578,0.0151313544921874,-0.0170945998535146,0.0244192607469882,0.546248000000105,
-0.197234332763672,-0.0950019218750001,-0.0434308181152332,0.223188223575602,0.549197000000049,
0.106829278076172,-0.00162805712890635,0.0164242233886736,0.108096717518212,0.552273000000014,
0.152319109619141,0.0342849677734374,0.085856071533204,0.17817922210378,0.555284000000029,
-0.132590887939453,-0.0830309135742189,-0.0314598098144518,0.159575047570425,0.558238000000074,
-0.094283661376953,-0.0854251152343751,-0.00272938989257732,0.127256861051324,0.561304000000064,
0.202597344482422,0.0127371528320311,0.0140300217285176,0.203481597603563,0.564368000000059,
0.068522051513672,0.0486501777343749,0.0164242233886736,0.0856263186826903,0.567483000000038,
-0.156532904541015,-0.0399352836914064,-0.000335188232421402,0.161547174035051,0.570429000000104,
-0.0344286198730467,-0.0327526787109377,-0.02667140649414,0.0544924926341263,0.573548000000073,
0.154713311279297,0.0821690009765624,-0.0362482131347637,0.178890710669823,0.576587000000018,
0.0254264216308596,0.0055545478515624,-0.0194888015136705,0.0325141400505193,0.579572999999982,
-0.0918894597167967,-0.0183874687500001,0.0236068283691413,0.0966387818617719,0.582689000000073,
-0.0152750065917967,0.0151313544921874,-0.048219221435545,0.0527956156418106,0.585712000000058,
0.10204087475586,0.0294965644531249,-0.00512359155273323,0.10634208304278,0.588752000000113,
-0.0487938298339842,-0.0447236870117189,0.0116358200683599,0.067204451626758,0.591711000000032,
-0.094283661376953,-0.0495120903320314,0.0523372482910176,0.118659358882335,0.594680000000153,
0.0757046564941408,-0.0159932670898438,-0.012306196533201,0.0783480828113662,0.597745000000032,
0.10204087475586,-0.00402225878906259,0.0427604416503922,0.110711219200422,0.600826999999981,
-0.00330399829101546,-0.0231758720703126,-0.00512359155273323,0.0239643201724098,0.603851000000077,
-0.113437274658203,-0.0375410820312502,-0.02667140649414,0.122428395588333,0.606848000000127,
0.0469742365722658,0.0103429511718749,-0.0410366164550773,0.0632262558639376,0.609824000000117,
0.0852814631347658,-0.00881066210937509,-0.0290656081542959,0.0905282569068413,0.612921000000142,
-0.0392170231933592,-0.0279642753906251,0.0283952316894549,0.0559130109095282,0.615891000000147,
-0.0703416447753905,-0.00881066210937509,0.00684741674804812,0.0712212178541918,0.618991000000051,
0.0421858332519533,0.0199197578124999,-0.000335188232421402,0.0466535489499075,0.621992000000091,
0.068522051513672,-0.0207816704101563,-0.000335188232421402,0.0716049001104662,0.624946000000136,
-0.0296402165527342,-0.0519062919921877,-0.0218830031738264,0.0636527408174772,0.627991000000065,
-0.055976434814453,-0.0495120903320314,-0.012306196533201,0.0757380407503238,0.630934000000025,
-0.000909796630859216,-0.0303584770507814,-0.0410366164550773,0.0510535870319948,0.633975000000191,
0.0828872614746095,-0.00402225878906259,0.0283952316894549,0.0877084138679084,0.636992000000191,
-0.0416112248535155,0.0103429511718749,0.0140300217285176,0.0451144343027405,0.639959999999974,
-0.0296402165527342,-0.0375410820312502,-0.0530076247558586,0.0713980641168089,0.642990000000054,
0.0134554133300783,-0.00881066210937509,0.0619140549316413,0.0639689464722307,0.645976000000019,
0.0469742365722658,0.0318907661132811,0.0571256516113294,0.0805415416841407,0.649044000000004,
-0.00569819995117171,0.0366791694335936,-0.0242772048339823,0.0443532820383445,0.651978000000099,
-0.036822821533203,-0.0112048637695313,-0.00512359155273323,0.0388293748103045,0.654938000000129,
0.039791631591797,-0.00162805712890635,-0.00512359155273323,0.0401531531159325,0.65802100000019,
0.0326090266113283,0.0151313544921874,-0.00272938989257732,0.0360521299577745,0.661008000000038,
-0.0224576115722654,0.0271023627929686,0.0164242233886736,0.0388411830460079,0.664085000000114,
0.0326090266113283,-0.0375410820312502,0.0307894333496108,0.0584864998320595,0.667049000000134,
0.011061211669922,0.0103429511718749,-0.0170945998535146,0.0228375214658331,0.670174000000088,
0.011061211669922,-0.00162805712890635,0.0523372482910176,0.0535181140577415,0.673200000000179,
0.00866701000976578,0.00794874951171864,0.0355778366699226,0.0374710840972225,0.676196000000118,
-0.000909796630859216,-0.0495120903320314,-0.0242772048339823,0.0551512238622852,0.679276000000073,
-0.065553241455078,-0.0135990654296876,0.0523372482910176,0.0849785243723631,0.682250000000067,
0.0230322199707033,-0.0112048637695313,-0.012306196533201,0.02841609758546,0.685286000000133,
0.049368438232422,0.0055545478515624,0.00684741674804812,0.0501496043001858,0.688371000000188,
0.00866701000976578,-0.0495120903320314,-0.0218830031738264,0.0548218020450105,0.691332000000102,
0.00148440502929703,-0.00641646044921884,-0.0721612380371077,0.0724611530272291,0.694361000000072,
0.0182438166503908,-0.0112048637695313,0.00924161840820403,0.0233193766827007,0.697382000000061,
0.039791631591797,0.0175255561523436,-0.00991199487304506,0.0445955906514256,0.700490000000173,
0.00627280834960953,-0.00402225878906259,0.00684741674804812,0.0101199706757763,0.703449999999975,
-0.0487938298339842,-0.00881066210937509,-0.0625844313964823,0.0798453295434015,0.706345000000056,
0.00627280834960953,0.0247081611328124,0.0595198532714853,0.0647491643545698,0.709418000000142,
0.0421858332519533,0.0103429511718749,0.107403886474611,0.115854287775449,0.712374000000182,
-0.017669208251953,-0.0231758720703126,-0.0147003981933587,0.0326408283215007,0.715436000000182,
-0.017669208251953,0.00794874951171864,0.0499430466308599,0.0535695010787218,0.718426000000136,
-0.0392170231933592,-0.0207816704101563,-0.00272938989257732,0.0444668674674813,0.721405000000004,
-0.0104866032714842,0.0055545478515624,0.0954328781738294,0.0961678537066819,0.72445300000004,
0.0158496149902345,-0.0399352836914064,0.0283952316894549,0.0515007413689318,0.72743800000012,
0.0613394465332033,-0.0327526787109377,0.0140300217285176,0.0709373468170631,0.730494000000135,
-0.0224576115722654,0.0055545478515624,-0.00512359155273323,0.0236949047215912,0.73350100000016,
0.00387860668945328,0.0247081611328124,-0.0362482131347637,0.0440394115750852,0.736476000000039,
0.00866701000976578,-0.0566946953125002,0.0403662399902363,0.0701344342675975,0.739526000000069,
-0.0248518132324217,-0.0159932670898438,-0.00751779321288915,0.0304944983224518,0.742480000000114,
-0.0272460148925779,-0.0135990654296876,-0.0218830031738264,0.0374986097874734,0.745479000000159,
-0.0224576115722654,-0.00402225878906259,0.026001030029299,0.0345915661091175,0.748456000000033,
0.0230322199707033,0.0055545478515624,0.0331836350097667,0.0407736408856945,0.751449999999977,
0.020638018310547,-0.00641646044921884,0.0116358200683599,0.0245456935763916,0.754516000000194,
-0.0152750065917967,-0.0159932670898438,0.0164242233886736,0.027547514089434,0.757416000000148,
0.020638018310547,-0.00881066210937509,0.0044532150878922,0.0228776461029338,0.760505000000194,
0.0134554133300783,0.0055545478515624,-0.00991199487304506,0.0176110417659438,0.763461000000007,
0.00387860668945328,-0.0351468803710939,-0.0242772048339823,0.0428920676142174,0.766452000000072,
0.00627280834960953,0.0199197578124999,-0.00272938989257732,0.0210616819149204,0.769472000000178,
-0.0152750065917967,-0.0112048637695313,-0.02667140649414,0.0327145032493058,0.772447000000057,
-0.00809240161132796,-0.0279642753906251,0.0212126267089854,0.0360203164041698,0.775498000000198,
-0.00330399829101546,-0.00402225878906259,-0.02667140649414,0.0271746001782709,0.778446000000031,
0.00866701000976578,0.0151313544921874,0.026001030029299,0.0313070042300781,0.781458000000157,
-0.000909796630859216,-0.0231758720703126,0.083461869873048,0.0866246644947882,0.784462000000076,
-0.00330399829101546,-0.0255700737304688,-0.0386424147949214,0.0464540772857604,0.787432000000081,
0.0421858332519533,-0.00641646044921884,0.0499430466308599,0.0656895988618461,0.790566000000126,
0.00387860668945328,0.0175255561523436,0.0690966599121108,0.0713900351541468,0.793562000000065,
0.020638018310547,0.0103429511718749,0.0044532150878922,0.023510328865188,0.796674000000166,
-0.000909796630859216,0.0438617744140624,-0.0458250197753891,0.063439856731194,0.799641000000065,
0.0302148249511721,-0.0327526787109377,-0.00272938989257732,0.0446444081465706,0.802603999999974,
-0.00569819995117171,-0.0183874687500001,0.0188184250488295,0.0269202825214405,0.805689000000029,
-0.0152750065917967,-0.0159932670898438,-0.0170945998535146,0.0279523838471479,0.808688000000075,
0.0302148249511721,0.0127371528320311,0.0379720383300786,0.0501701744469505,0.811751000000186,
0.00387860668945328,-0.0327526787109377,-0.00751779321288915,0.0338274853837104,0.814683000000059,
0.0637336481933595,-0.0375410820312502,-0.02667140649414,0.0786299858609146,0.81766000000016,
-0.0248518132324217,0.0223139594726561,0.0571256516113294,0.0661729966096859,0.820773000000145,
0.0134554133300783,0.0223139594726561,-0.0506134230957009,0.0569269666563661,0.823751000000129,
0.0134554133300783,-0.00162805712890635,0.0355778366699226,0.0380720524796067,0.826807000000144,
-0.0344286198730467,-0.0279642753906251,0.0164242233886736,0.0472978401029742,0.829728000000159,
0.00866701000976578,-0.0135990654296876,0.0810676682128921,0.0826560250226556,0.832701000000043,
0.00627280834960953,0.0103429511718749,-0.0362482131347637,0.0382133186074956,0.835758000000169,
-0.017669208251953,-0.0135990654296876,0.0331836350097667,0.039978608445933,0.838752000000113,
-0.036822821533203,-0.0183874687500001,-0.0218830031738264,0.046614214791242,0.841836000000058,
0.0254264216308596,0.0199197578124999,-0.0218830031738264,0.0390149393971667,0.844801000000189,
0.0158496149902345,-0.00881066210937509,0.0427604416503922,0.0464466729947457,0.847801000000118,
0.00387860668945328,-0.0135990654296876,0.0140300217285176,0.0199203333334328,0.850854000000027,
-0.0104866032714842,-0.00881066210937509,-0.0147003981933587,0.0200922453205804,0.853813000000173,
0.00627280834960953,0.0127371528320311,-0.0218830031738264,0.0260854176651083,0.856871000000183,
0.0302148249511721,0.000766144531249902,0.0355778366699226,0.0466830278193738,0.859867000000122,
0.00387860668945328,0.0199197578124999,0.0355778366699226,0.0409587939674963,0.862966000000142,
0.049368438232422,0.0151313544921874,0.00684741674804812,0.0520873084195964,0.865947000000006,
0.0278206232910158,-0.0327526787109377,0.0116358200683599,0.0445209765358507,0.868901000000051,
0.0230322199707033,-0.0135990654296876,-0.086526447998045,0.0905662406225309,0.871936000000005,
0.0302148249511721,-0.0207816704101563,-0.0147003981933587,0.0395084190889694,0.874924000000192,
-0.00330399829101546,-0.00641646044921884,0.047548844970704,0.0480934509829713,0.87791900000002,
0.0182438166503908,-0.0159932670898438,0.0116358200683599,0.0269075035416407,0.880921000000171,
-0.0200634099121092,-0.0351468803710939,0.0188184250488295,0.0446315666142218,0.88388000000009,
-0.017669208251953,0.0055545478515624,0.0331836350097667,0.0380027308827615,0.886936999999989,
-0.0152750065917967,-0.0183874687500001,-0.0601902297363264,0.064763327501939,0.889859999999999,
-0.00569819995117171,-0.0112048637695313,-0.0362482131347637,0.0383660189521997,0.892897000000175,
0.00148440502929703,0.0199197578124999,-0.0314598098144518,0.0372655315695501,0.895870000000059,
-0.0224576115722654,-0.00402225878906259,-0.0386424147949214,0.0448749273479044,0.898796000000175,
-0.0272460148925779,0.00316034619140615,0.0738850632324226,0.0788120275366343,0.90181500000017,
0.0158496149902345,-0.0327526787109377,-0.0194888015136705,0.041276647665718,0.904813000000104,
-0.00330399829101546,0.00316034619140615,0.0236068283691413,0.0240455097348063,0.907929000000195,
0.0254264216308596,-0.0207816704101563,-0.00512359155273323,0.0332360035561716,0.910902000000078,
0.0134554133300783,-0.0135990654296876,-0.0506134230957009,0.0541082371354732,0.913843000000043,
0.0158496149902345,0.0342849677734374,0.0307894333496108,0.0487304680518711,0.916924999999992,
-0.0128808049316405,-0.0207816704101563,0.064308256591799,0.068799308329372,0.919847000000118,
-0.00330399829101546,-0.0183874687500001,0.00205901342773629,0.0187950777608091,0.922924000000194,
0.0254264216308596,-0.0183874687500001,-0.00512359155273323,0.031793916310856,0.925910000000158,
0.0278206232910158,-0.0183874687500001,0.0331836350097667,0.0470450817811411,0.928915000000188,
0.00627280834960953,0.0175255561523436,-0.0242772048339823,0.0305920891341375,0.932006000000001,
0.039791631591797,-0.0159932670898438,0.0044532150878922,0.0431160023838414,0.935073000000102,
0.0134554133300783,-0.00641646044921884,0.00924161840820403,0.0175392879953119,0.938191000000188,
0.0254264216308596,-0.00881066210937509,-0.0601902297363264,0.0659317407586632,0.941193999999996,
0.00866701000976578,-0.0135990654296876,0.00924161840820403,0.0185865315180956,0.944159000000127,
0.00866701000976578,-0.0112048637695313,0.0212126267089854,0.025507676618969,0.947327000000087,
0.0158496149902345,-0.0135990654296876,0.0355778366699226,0.041254422041901,0.95034099999998,
-0.000909796630859216,-0.0183874687500001,-0.0697670363769518,0.0721551529813683,0.953364000000192,
-0.0248518132324217,-0.00162805712890635,0.0212126267089854,0.0327145032493069,0.956338000000187,
0.0302148249511721,-0.0135990654296876,0.0236068283691413,0.0406835663756386,0.959426000000121,
0.00387860668945328,0.0318907661132811,0.00205901342773629,0.0321916773318675,0.962433000000146,
-0.00569819995117171,-0.0471178886718752,0.0523372482910176,0.0706523352356763,0.965352000000166,
0.011061211669922,-0.00162805712890635,0.0044532150878922,0.0120346208183238,0.968389000000116,
-0.000909796630859216,-0.00641646044921884,0.0164242233886736,0.0176565514335887,0.971336000000065,
-0.00330399829101546,-0.0327526787109377,-0.02667140649414,0.0423676561993297,0.974333999999999,
-0.0272460148925779,0.0127371528320311,0.0906444748535176,0.0955039329622769,0.977322000000186,
0.00387860668945328,0.00316034619140615,0.0307894333496108,0.0311932778638465,0.980397000000039,
0.020638018310547,-0.0471178886718752,-0.0218830031738264,0.0559007071564161,0.983431999999993,
-0.00809240161132796,0.0175255561523436,0.0188184250488295,0.0269585831157052,0.986508000000185,
0.00387860668945328,0.00316034619140615,0.00684741674804812,0.00848047722846167,0.989590000000135,
-0.046399628173828,-0.0399352836914064,0.00924161840820403,0.061912518031376,0.992550000000165,
0.00627280834960953,0.0175255561523436,0.0427604416503922,0.0466363443376137,0.995544000000109,
0.011061211669922,-0.0112048637695313,0.0451546433105481,0.0478209283494518,0.998590000000149,
-0.0128808049316405,-0.0447236870117189,0.00924161840820403,0.0474502984860161,1.001575,
-0.0224576115722654,-0.0135990654296876,-0.00512359155273323,0.0267493941705399,1.00462900000002,
0.020638018310547,-0.0159932670898438,-0.0290656081542959,0.0390707303409167,1.00756799999999,
0.0158496149902345,-0.0112048637695313,0.00205901342773629,0.0195191906524841,1.01052900000013,
0.00866701000976578,-0.00402225878906259,0.0236068283691413,0.025467194072486,1.01364400000011,
-0.0128808049316405,0.0247081611328124,-0.0290656081542959,0.0402643507290391,1.01657599999999,
-0.0152750065917967,0.0103429511718749,0.047548844970704,0.0510019129383523,1.019677,
0.00148440502929703,-0.0183874687500001,-0.0458250197753891,0.049398733817154,1.02266900000018,
0.0230322199707033,-0.00641646044921884,0.0379720383300786,0.0448723725293884,1.02565500000014,
0.020638018310547,-0.0135990654296876,-0.0218830031738264,0.0330110316144936,1.02870400000006,
-0.00809240161132796,-0.00402225878906259,-0.0290656081542959,0.0304380536004569,1.03161900000009,
