X,Y,Z,Magnitude,Seconds,
-0.000957680664062498,0.0289698400878908,0.000670376464842803,0.0289934163488351,0.0,
0.00622492431640626,0.0169988317871097,-0.0232716401367199,0.0294835411632394,0.00376599999981408,
-0.024899697265625,-0.016519991455078,-0.0041180268554708,0.0301639385156846,0.00748799999928451,
0.00622492431640626,0.0169988317871097,0.0892558378906241,0.0910731275537895,0.0112499999995634,
-0.0201112939453125,0.0529118566894533,0.00785298144531055,0.0571471612598596,0.0149639999999636,
-0.0464475122070312,0.00263362182617222,0.0341891997070292,0.0577339478188763,0.0186759999996866,
-0.015322890625,-0.0213083947753905,0.0150355864257801,0.0302474383076766,0.0224449999986973,
-0.0177170922851563,-0.00215478149414028,0.017429788085936,0.0249466622025647,0.0261789999985922,
0.00143652099609375,-0.0308852014160154,-0.0256658417968758,0.0401832638572617,0.0301089999993565,
-0.000957680664062498,0.0169988317871097,-0.0256658417968758,0.03079955956703,0.0339919999987615,
0.0541089575195313,-0.0308852014160154,0.00306457812499872,0.0623784144511745,0.0377749999988737,
-0.0320823022460938,0.0169988317871097,-0.0424252534179708,0.0558402769254881,0.041574999999284,
-0.0105344873046875,-0.00215478149414028,-0.00890643017578263,0.0139621991296573,0.0453449999986333,
0.013407529296875,0.0361524450683597,0.000670376464842803,0.0385643686694329,0.0491979999987961,
0.0181959326171875,0.0241814367675783,-0.0041180268554708,0.0305416435893027,0.0529729999998381,
0.00622492431640626,-0.0404620080566404,0.00306457812499872,0.0410525933140019,0.0567460000002029,
0.0229843359375,0.0289698400878908,-0.0232716401367199,0.0436932554046825,0.0605259999992995,
0.0110133276367188,0.0529118566894533,-0.0352426484375012,0.0645213316109352,0.0643479999998817,
0.0301669409179688,-0.0213083947753905,-0.020877438476564,0.0424259289773933,0.0681100000001607,
-0.005746083984375,0.00263362182617222,-0.0041180268554708,0.00754397708514284,0.0719709999993938,
-0.005746083984375,0.00742202514648471,-0.0448194550781267,0.0457917841094967,0.0757240000002639,
-0.0272938989257813,0.00742202514648471,-0.0280600434570317,0.0398423068440612,0.0794800000003306,
-0.044053310546875,-0.0117315881347655,0.000670376464842803,0.0455935712015169,0.0832099999988714,
0.013407529296875,-0.0237025964355466,-0.0400310517578131,0.048415493640669,0.0869320000001608,
0.0229843359375,0.0169988317871097,-0.0376368500976572,0.0472628021374931,0.0906749999994645,
-0.00814028564453125,0.0122104284667972,-0.0520020600585944,0.0540330737979526,0.0944799999997485,
0.013407529296875,-0.00933738647460913,-0.0591846650390639,0.0613984788395362,0.0982789999998204,
-0.0225054956054688,0.00502782348632835,0.0341891997070292,0.0412392739759634,0.102316999998948,
0.013407529296875,-0.0141257897949216,-0.0280600434570317,0.0341564901298038,0.106136999998853,
-0.0320823022460938,0.0217872351074222,0.00785298144531055,0.0395680053656511,0.109970999999859,
-0.000957680664062498,-0.00454898315429664,-0.0591846650390639,0.0593669518821591,0.113733000000138,
0.0086191259765625,-0.0141257897949216,0.0317949980468732,0.0358433978680989,0.117597000000387,
-0.063206923828125,-0.0117315881347655,-0.00651222851562672,0.0646154354641204,0.121530000000348,
0.0110133276367188,0.000239420166015858,0.00545877978515463,0.0122942663218437,0.125360000000001,
0.0158017309570313,0.00502782348632835,0.00545877978515463,0.0174577199826005,0.129163999999946,
-0.00335188232421875,-0.00933738647460913,-0.0280600434570317,0.0297621897733035,0.132938999999169,
-0.0177170922851563,0.00263362182617222,-0.0184832368164081,0.0257383248517742,0.136737999999241,
0.00383072265625,-0.00694318481445277,-0.00890643017578263,0.0119250471660638,0.140492999998969,
0.0181959326171875,0.0169988317871097,-0.0136948334960945,0.0284183164600127,0.144322999998622,
0.0110133276367188,0.00263362182617222,0.00545877978515463,0.0125709039571471,0.148137999998653,
0.0301669409179688,0.0600944616699222,-0.0520020600585944,0.085003546385334,0.151864999999816,
-0.0129286889648438,0.000239420166015858,-0.00890643017578263,0.0157013635981611,0.155600000000049,
-0.000957680664062498,0.00263362182617222,-0.0113006318359385,0.0116429118380686,0.159303000000364,
0.00622492431640626,-0.00215478149414028,0.0557370146484359,0.0561249282222476,0.16305199999988,
-0.0105344873046875,-0.0189141931152341,-0.00172382519531311,0.0217185104755595,0.166806999999608,
0.0253785375976563,-0.00933738647460913,-0.0304542451171894,0.0407273618397966,0.170677999998588,
-0.0296881005859375,0.0193930334472658,0.0461602080078105,0.0582085721007812,0.174627000000328,
0.013407529296875,0.00981622680664085,-0.020877438476564,0.0266830955458449,0.178404999998747,
-0.0129286889648438,0.0217872351074222,0.0222181914062478,0.0336969233215798,0.182174999999916,
-0.015322890625,-0.016519991455078,0.0150355864257801,0.0270881884582315,0.185894999998709,
-0.0656011254882813,0.0169988317871097,0.0365834013671869,0.0770117731457234,0.189658999999665,
-0.015322890625,-0.00215478149414028,-0.0974918916015639,0.0987122230954419,0.193538999999873,
0.0205901342773438,-0.0332794030761716,0.000670376464842803,0.0391397713747789,0.197303999999349,
-0.0129286889648438,0.0313640417480472,-0.0113006318359385,0.0357569348940083,0.201066999999966,
0.0110133276367188,-0.0572214196777341,0.0581312163085919,0.0823093103183679,0.204843999999866,
0.0110133276367188,-0.0500388146972653,-0.0376368500976572,0.0635744354848275,0.208603999999468,
0.0253785375976563,0.000239420166015858,0.00545877978515463,0.0259600803033111,0.212354999999661,
0.0205901342773438,-0.026096798095703,-0.0591846650390639,0.0678809330828115,0.21617999999944,
0.00622492431640626,0.0361524450683597,0.0341891997070292,0.0501462894317503,0.219971999998961,
0.0229843359375,-0.00215478149414028,-0.0328484467773453,0.0401490129076598,0.223702999999659,
-0.0177170922851563,0.00981622680664085,-0.0113006318359385,0.023193920489033,0.227423000000272,
-0.0105344873046875,0.0146046301269533,0.0748906279296868,0.0770251698837498,0.231159999999363,
0.00143652099609375,-0.0237025964355466,-0.0759440766601571,0.0795699657541866,0.234845999999379,
-0.000957680664062498,0.0553060583496097,-0.0136948334960945,0.0569844339000617,0.23856700000033,
-0.0392649072265625,-0.016519991455078,-0.0424252534179708,0.0601210876878109,0.24261099999967,
-0.00335188232421875,0.00502782348632835,0.0198239897460919,0.0207244950138295,0.246471999998903,
-0.024899697265625,-0.0308852014160154,-0.0304542451171894,0.0500135145344283,0.250216000000364,
0.0086191259765625,-0.0117315881347655,0.0341891997070292,0.0371593981298237,0.254015999998956,
0.00383072265625,0.0241814367675783,-0.0136948334960945,0.0280528926262382,0.257818000000043,
-0.005746083984375,-0.0117315881347655,-0.0041180268554708,0.0136969261698251,0.261634999998932,
-0.00335188232421875,0.0361524450683597,-0.0136948334960945,0.0388044180992568,0.265504999999393,
-0.0201112939453125,0.00263362182617222,0.0270065947265614,0.0337750835202933,0.269322000000102,
-0.00335188232421875,-0.0284909997558591,0.0341891997070292,0.0446304106950731,0.273113999999623,
0.0158017309570313,0.00263362182617222,-0.020877438476564,0.0263153586808997,0.27693299999919,
0.00383072265625,0.00502782348632835,0.0246123930664055,0.0254110869018629,0.280724000000191,
0.0469263525390625,-0.0117315881347655,0.00545877978515463,0.0486776231910203,0.284453000000212,
0.00143652099609375,-0.00454898315429664,0.000670376464842803,0.00481728605284219,0.288259999999354,
-0.03447650390625,-0.0332794030761716,0.05334281298828,0.0717049767324876,0.292035999998916,
-0.000957680664062498,0.00981622680664085,-0.0448194550781267,0.0458918186006389,0.295742000000246,
-0.0105344873046875,0.203746561279297,-1.0312305390625,1.05121836996461,0.299441999999544,
1.61512843994141,18.5834341558838,-6.27453217480469,19.6805086041046,0.303237999998601,
8.30692208007813,-20.6425672937012,9.45477418200684,24.176709737932,0.306193000000349,
-19.6429881005859,3.3664869543457,-29.7712272675781,35.8260546104553,0.309105999998792,
2.7811046484375,18.5834341558838,-6.45409729931641,19.8679123221508,0.312202999999499,
8.73069577392578,14.4971304724121,9.45477418200684,19.3851643135602,0.315300000000207,
5.76667411865234,-20.6425672937012,-2.01524742138672,21.5274554240654,0.318419999999605,
-1.01849338623047,-16.3377927087402,-3.93779135449219,16.8364782577318,0.321414000000004,
-7.90182315917969,15.3327068518066,1.01581188037109,17.2789635805707,0.324372999999468,
-3.62577899414063,12.502760489502,-0.813358187988282,13.0432681761194,0.327392999999574,
7.339664609375,-8.81999949584961,1.26002044970703,11.543427533388,0.330345000000307,
-0.261925661621094,-8.81999949584961,-0.0328484467773453,8.82394895607736,0.333343000000241,
-0.362482131347656,5.28903088745117,-0.0496078583984385,5.30166973354374,0.336325999998735,
0.968693991699219,5.0304571081543,-0.949827682617189,5.21018611886372,0.339275000000271,
-2.22995942626953,0.517386978759766,0.718930874511717,2.39943116819897,0.342319999999745,
-1.45902649169922,-5.46093456665039,-0.248326596191408,5.65793520138692,0.345250000000306,
1.56006180175781,-1.98455375610352,0.228119534179687,2.53461731984194,0.348297999998977,
1.05488525146484,3.8261736730957,-0.0735498750000012,3.96960923197249,0.351262999998653,
-0.829351455078125,3.44788981079102,0.153899282714843,3.54957081527005,0.354258999999729,
1.01657802490234,-4.01244256225586,-0.248326596191408,4.14666037848444,0.357267999999749,
-0.0584185205078125,-2.19524350219727,0.16826449267578,2.20245764930295,0.360193999998955,
-1.61464959960938,3.04805813354492,-0.119039706542971,3.45136526127298,0.363230999999359,
0.23367408203125,1.05129394897461,-0.300999032714845,1.11822312686648,0.366210999998657,
0.714908615722656,-2.5328259362793,0.16826449267578,2.63716030832769,0.369225999998889,
0.0756567724609375,-0.0644040246582029,0.165870291015624,0.193351439231748,0.372192999999243,
0.113963999023438,1.8341978918457,-0.152558529785157,1.84405634527116,0.375156000000061,
-0.290656081542969,0.0936132849121096,-0.0256658417968758,0.306436192844597,0.378187999998772,
-0.261925661621094,-1.62063510375977,0.0317949980468732,1.64197262877762,0.381123999999545,
0.0086191259765625,0.0409408483886722,-0.0184832368164081,0.0457391784206441,0.384158999999272,
-0.005746083984375,1.15424462036133,-0.0424252534179708,1.15503833842942,0.387131999999838,
0.0565031591796875,-0.160172091064453,-0.0256658417968758,0.17177439037408,0.390061999998579,
0.350989963378906,-0.911951412353515,0.144322476074217,0.987764298801334,0.393113000000085,
-0.0775721337890625,0.505415970458985,-0.0304542451171894,0.51224037343931,0.396052999998574,
-0.295444484863281,0.579636221923828,-0.109462899902345,0.659733067124341,0.399089999998978,
0.0876277807617187,-0.701261666259765,0.0461602080078105,0.708221234735284,0.402052999999796,
0.0301669409179688,-0.301429989013672,0.0461602080078105,0.306432451617734,0.40500499999871,
-0.082360537109375,0.673010086669922,-0.0496078583984385,0.679843198426873,0.408024000000296,
0.111569797363281,0.0193930334472658,-0.0496078583984385,0.123631909492857,0.411024999999427,
0.0588973608398438,-0.550426961669922,0.0509486113281241,0.555908715746879,0.414058999998815,
-0.11109095703125,0.143891519775391,-0.0280600434570317,0.183938403375155,0.417034000000058,
-0.0967257470703125,0.368946475830078,-0.00651222851562672,0.38147055101801,0.419968000000154,
0.106781394042969,-0.255940157470703,-0.00172382519531311,0.277327607520766,0.422985999999582,
0.0924161840820313,-0.208056124267578,-0.00890643017578263,0.227832013606529,0.425935999999638,
-0.0536301171875,0.292332022705078,-0.0352426484375012,0.299292908765438,0.428960999999617,
-0.09193734375,0.184592947998047,-0.0543962617187521,0.2132744356818,0.431903999999122,
0.0086191259765625,-0.272699569091797,0.0126413847656242,0.273128447665643,0.434864999999263,
0.051714755859375,-0.0572214196777341,0.00785298144531055,0.0775266158239254,0.437885999999708,
-0.0416591088867188,0.249236392822266,0.0150355864257801,0.253140928574297,0.440851999999722,
0.0684741674804688,-0.0572214196777341,-0.0328484467773453,0.095089552200874,0.443862000000081,
0.0397437475585938,-0.167354696044922,0.0437660063476546,0.17748978300148,0.446829999998954,
-0.0608127221679688,0.105584293212891,0.0246123930664055,0.124306074039845,0.449762999998711,
-0.015322890625,0.0505176550292972,0.0222181914062478,0.0572754090001062,0.452889999998661,
0.0277727392578125,-0.150595284423828,-0.0400310517578131,0.158280604754382,0.455936000000293,
0.032561142578125,0.0768538732910158,-0.0160890351562522,0.0850035463853339,0.45908799999961,
-0.015322890625,0.0457292517089847,-0.056790463378908,0.0745057861495366,0.462099999998827,
0.00383072265625,-0.105105452880859,-0.0448194550781267,0.114326786952402,0.465118000000075,
0.00383072265625,-0.00694318481445277,0.0294007963867173,0.030451421635286,0.468082999999751,
0.0205901342773438,0.0696712683105472,-0.00651222851562672,0.0729414037279174,0.471035999999003,
-0.005746083984375,0.0265756384277347,-0.0496078583984385,0.0565705016229899,0.474102999998649,
0.0397437475585938,0.0984016882324221,-0.344094662597657,0.36008831492453,0.47707999999875,
0.0445321508789063,0.80229697631836,-0.791810373046877,1.12810780404007,0.480123999999705,
0.166636435546875,1.24043588012695,-0.289028024414064,1.28451783687686,0.483132999999725,
0.724485422363281,-3.5288138269043,5.42353713671875,6.51092629550783,0.486090000000331,
-1.25791355224609,-3.04039668823242,-3.15009900830078,4.55515996303496,0.489104000000225,
-1.85646396728516,5.64576693481445,-2.0439778413086,6.28482204679121,0.492076999998972,
2.45309902099609,1.38887638305664,1.9567331328125,3.43154148558206,0.495159000000058,
0.753215842285156,-4.00765415893555,-0.334517855957033,4.09151905270607,0.498106999999436,
-0.597113894042969,0.333033450927735,-0.17650054638672,0.706122315729226,0.501056999999491,
-0.0871489404296875,1.93475436157227,0.256849954101561,1.95367378964936,0.504081999999471,
-0.803015236816406,0.948343277587891,-0.336912057617189,1.28751628233328,0.507045000000289,
-0.518105239257813,-2.16172467895508,0.196994912597654,2.23165714708581,0.510021000000052,
0.588015927734375,-1.06518031860352,0.170658694335936,1.22861557550035,0.513003000000026,
1.00939541992188,1.44394302124023,-0.133404916503908,1.76681844967021,0.515941999999995,
-0.678516750488281,1.26677209838867,0.0365834013671869,1.4375099565585,0.518985999999131,
0.135511813964844,-1.68288434692383,0.0629196196289055,1.68950349374588,0.521944999998595,
0.109175595703125,-0.674925447998047,-0.00890643017578263,0.683756532364388,0.524980999998661,
-0.850899270019531,1.5277400793457,0.0126413847656242,1.74876502777468,0.527955999999904,
0.240856687011719,-0.191296712646484,0.108409451171873,0.326127252849251,0.530901999998605,
0.487459458007813,-1.06518031860352,-0.0280600434570317,1.17175645950017,0.533928999999262,
-0.170945998535156,0.653856473388672,0.0150355864257801,0.676000659072623,0.536901999999827,
-0.0488417138671875,0.594001431884766,0.0581312163085919,0.598834244515252,0.539898999999423,
-0.00814028564453125,-0.653377633056641,0.0126413847656242,0.653550610310988,0.542846000000281,
-0.166157595214844,-0.306218392333984,0.0341891997070292,0.350067067328243,0.545781999999235,
0.0541089575195313,0.481473953857422,0.0581312163085919,0.487979698180637,0.548822999999174,
0.0780509741210938,0.18938135131836,-0.0328484467773453,0.207451852833624,0.551792000000205,
0.106781394042969,-0.416351668701172,-0.0615788666992199,0.434215309458304,0.554819999999381,
0.0086191259765625,0.105584293212891,-0.0615788666992199,0.122532808381371,0.557799000000159,
-0.170945998535156,0.376129080810547,-0.0615788666992199,0.41771710124261,0.5608229999998,
0.00143652099609375,-0.23199814086914,-0.0352426484375012,0.234664111504506,0.563771999999517,
0.130723410644531,-0.25115175415039,0.0365834013671869,0.285489332478377,0.566726999999446,
-0.0967257470703125,0.206140762939453,0.0557370146484359,0.234428025401166,0.569754000000103,
-0.015322890625,-0.172143099365234,0.0677080229492173,0.185613614823553,0.572683000000325,
-0.00814028564453125,-0.246363350830078,-0.0855208833007826,0.260911836379925,0.575667999999496,
-0.0320823022460938,0.347398660888672,-0.107068698242189,0.364936720333717,0.578638999999384,
0.123540805664063,0.119949503173828,-0.0304542451171894,0.174864733498301,0.58159599999999,
0.0852335791015625,-0.253545955810547,0.0317949980468732,0.26937192989461,0.584634999999253,
-0.101514150390625,0.096007486572266,-0.0113006318359385,0.140179401080707,0.587585999999646,
-0.127850368652344,0.143891519775391,0.00545877978515463,0.19256241716533,0.590653999999631,
-0.00335188232421875,-0.224815535888672,0.0126413847656242,0.225195614745977,0.593698999999106,
0.0828393774414063,-0.0428562097167966,-0.0376368500976572,0.100576088865313,0.59673599999951,
0.0158017309570313,0.256418997802735,0.0317949980468732,0.258865445813453,0.599881000000096,
-0.0177170922851563,-0.0117315881347655,0.0150355864257801,0.0260306430648883,0.6028239999996,
-0.00335188232421875,-0.169748897705078,-0.0328484467773453,0.172930459557848,0.605813000000126,
-0.0129286889648438,0.105584293212891,0.0509486113281241,0.117944711487543,0.608793999999762,
0.0229843359375,0.0624886633300783,0.00306457812499872,0.0666521146127559,0.611767999998847,
0.08044517578125,-0.0931344445800779,-0.0376368500976572,0.128693370299287,0.614787999998953,
-0.0105344873046875,0.0241814367675783,-0.0184832368164081,0.0322078771440844,0.617745999999897,
-0.00335188232421875,0.0768538732910158,-0.0160890351562522,0.0785914117903861,0.620757999999114,
-0.0177170922851563,-0.0763750329589842,-0.0041180268554708,0.0785111403796241,0.623712999999043,
-0.0129286889648438,-0.026096798095703,-0.0543962617187521,0.0617020839046181,0.626634999998714,
0.013407529296875,0.0768538732910158,-0.0328484467773453,0.0846480958873982,0.629683999999543,
0.0086191259765625,-0.00454898315429664,-0.0448194550781267,0.0458668304315673,0.632674999998926,
0.0086191259765625,-0.0835576379394529,-0.0472136567382826,0.0963602489267277,0.635715999998865,
-0.005746083984375,0.0289698400878908,-0.0041180268554708,0.0298199138338097,0.638675999998668,
0.00383072265625,0.0720654699707033,0.0701022246093732,0.100610279262859,0.641642999999021,
0.0158017309570313,-0.0404620080566404,0.0150355864257801,0.0459667016043258,0.644666000000143,
0.0373495458984375,0.0217872351074222,0.0270065947265614,0.0509806664449408,0.64763899999889,
-0.044053310546875,0.0169988317871097,0.0126413847656242,0.0488820934602684,0.650664999999208,
-0.0296881005859375,-0.0380678063964841,-0.0472136567382826,0.0675253328969307,0.653629999998884,
-0.0272938989257813,-0.0404620080566404,-0.0113006318359385,0.0500982564011745,0.656638000000385,
-0.0272938989257813,0.0193930334472658,-0.0472136567382826,0.0578807053123743,0.659584999999424,
-0.000957680664062498,-0.0141257897949216,0.0270065947265614,0.0304928065010318,0.662521000000197,
0.013407529296875,-0.0213083947753905,-0.0041180268554708,0.0255101484694392,0.665535000000091,
-0.0177170922851563,0.000239420166015858,-0.0041180268554708,0.018190954516985,0.66849799999909,
-0.0201112939453125,-0.00933738647460913,0.0198239897460919,0.0297429235244979,0.671495999999024,
0.0301669409179688,0.0169988317871097,0.0198239897460919,0.0398998142342521,0.674474999999802,
-0.005746083984375,-0.0189141931152341,-0.0184832368164081,0.0270627830344051,0.677372999998624,
-0.00335188232421875,-0.00215478149414028,-0.0376368500976572,0.0378472017945371,0.680376999998771,
-0.00814028564453125,-0.00215478149414028,-0.00651222851562672,0.0106450201456734,0.683301999999458,
-0.0201112939453125,-0.0428562097167966,0.0126413847656242,0.0489992190166065,0.686319000000367,
-0.0105344873046875,-0.00215478149414028,0.0222181914062478,0.0246833250479909,0.68927900000017,
-0.0177170922851563,0.0169988317871097,-0.0448194550781267,0.0511041993838805,0.692218000000139,
0.0110133276367188,0.0337582434082033,0.0198239897460919,0.0406682056783229,0.695270000000164,
0.0445321508789063,-0.0189141931152341,0.0198239897460919,0.0522862288997323,0.698237999999037,
0.0158017309570313,0.00742202514648471,-0.0280600434570317,0.0330476504054972,0.701280999999653,
-0.0105344873046875,-0.0141257897949216,-0.0376368500976572,0.0415577411005032,0.704225999999835,
-0.005746083984375,-0.0308852014160154,0.00545877978515463,0.0318859126324799,0.707156999998915,
0.00383072265625,-0.0284909997558591,-0.0424252534179708,0.0512475719496691,0.710183999999572,
-0.0177170922851563,-0.026096798095703,0.0509486113281241,0.0599224434260894,0.713141000000178,
-0.0368707055664063,-0.00933738647460913,-0.0472136567382826,0.0606280883563156,0.716157999999268,
-0.00814028564453125,-0.0237025964355466,0.0246123930664055,0.0351261614842299,0.719113999999536,
-0.000957680664062498,0.00742202514648471,0.0389776030273428,0.0396895092850301,0.722068999999465,
0.00143652099609375,0.000239420166015858,-0.0041180268554708,0.00436795830686283,0.725103999999192,
0.0349553442382813,-0.00454898315429664,-0.056790463378908,0.0668410507797859,0.728062000000136,
0.00143652099609375,0.0217872351074222,-0.0160890351562522,0.0271220253384113,0.731202999999368,
0.051714755859375,0.0217872351074222,0.00785298144531055,0.0566636471187766,0.734290999998848,
-0.0656011254882813,0.00263362182617222,0.017429788085936,0.0679282057909169,0.737310999998954,
-0.0296881005859375,-0.0332794030761716,0.0341891997070292,0.05619433567642,0.740406999999323,
-0.0320823022460938,-0.0332794030761716,-0.0663672700195335,0.0808789670826827,0.743366999999125,
0.0205901342773438,-0.0141257897949216,0.0102471831054682,0.0269906711381239,0.746412999998938,
0.00383072265625,-0.0117315881347655,-0.020877438476564,0.0242522583190843,0.749367000000348,
0.0205901342773438,0.0122104284667972,-0.0304542451171894,0.0387364071457289,0.752419000000373,
0.0086191259765625,-0.0117315881347655,0.00545877978515463,0.0155472753081187,0.755379999998695,
-0.024899697265625,0.0146046301269533,0.00785298144531055,0.0299158730884672,0.758331999999427,
-0.00814028564453125,-0.0237025964355466,-0.0113006318359385,0.0274914824637082,0.761338000000251,
-0.0177170922851563,-0.00454898315429664,0.017429788085936,0.0252663040332268,0.764296999999715,
0.013407529296875,-0.00933738647460913,-0.0352426484375012,0.0388457577724014,0.767327999999907,
-0.0296881005859375,-0.00215478149414028,0.0365834013671869,0.0471632447492846,0.770332999998573,
0.00622492431640626,-0.0308852014160154,0.0150355864257801,0.0349100874880016,0.773329999999987,
-0.024899697265625,-0.00933738647460913,-0.0184832368164081,0.032385363257302,0.776347999999416,
0.0086191259765625,-0.0380678063964841,0.00545877978515463,0.0394112356211127,0.779313999999431,
0.013407529296875,0.0193930334472658,0.0413718046874987,0.0476180408168361,0.782374000000345,
-0.0105344873046875,0.00981622680664085,-0.0496078583984385,0.0516553322162539,0.785318999998708,
-0.03447650390625,0.00263362182617222,-0.00890643017578263,0.0357055987766212,0.788273000000117,
0.013407529296875,0.0217872351074222,0.0365834013671869,0.0446406844824913,0.791325000000143,
-0.000957680664062498,0.0385466467285158,-0.00172382519531311,0.0385970555816284,0.794280999998591,
-0.0225054956054688,0.000239420166015858,-0.0400310517578131,0.0459242828936977,0.797300999998697,
0.0205901342773438,-0.0237025964355466,-0.0160890351562522,0.0352792256094795,0.800255999998626,
-0.0129286889648438,-0.00694318481445277,-0.00651222851562672,0.0160551528786574,0.803189999998722,
0.00622492431640626,-0.0620098229980467,0.05334281298828,0.0820330636298358,0.806233999999677,
-0.0177170922851563,-0.00933738647460913,0.00545877978515463,0.0207576593564826,0.809178999999858,
0.00143652099609375,0.0122104284667972,0.00545877978515463,0.013452004782106,0.812235999999757,
-0.0392649072265625,-0.0141257897949216,-0.00651222851562672,0.0422336358496473,0.815180999999939,
-0.000957680664062498,-0.00215478149414028,0.00306457812499872,0.00386676539578357,0.818129999999655,
-0.0296881005859375,-0.0356736047363279,0.000670376464842803,0.0464159325651129,0.821178000000145,
-0.03447650390625,-0.0237025964355466,-0.00890643017578263,0.0427757746611344,0.82414400000016,
-0.005746083984375,-0.00215478149414028,-0.0232716401367199,0.0240671934195903,0.827166999999463,
-0.005746083984375,-0.016519991455078,0.0102471831054682,0.020271466657061,0.830114000000322,
0.013407529296875,-0.0237025964355466,-0.0543962617187521,0.0608319669960451,0.833047999998598,
-0.005746083984375,-0.0284909997558591,-0.00172382519531311,0.0291157366650382,0.836045000000013,
-0.0368707055664063,0.00263362182617222,-0.00172382519531311,0.0370048167971672,0.839020999999775,
-0.000957680664062498,-0.00694318481445277,-0.0256658417968758,0.0266056460692881,0.842028999999457,
0.00143652099609375,-0.00454898315429664,-0.0400310517578131,0.0403142895900077,0.844986999998582,
-0.0296881005859375,0.0313640417480472,-0.0136948334960945,0.0453060139016857,0.84804499999882,
0.032561142578125,-0.00454898315429664,0.000670376464842803,0.0328842007404114,0.851034999999683,
-0.0201112939453125,-0.00454898315429664,-0.0184832368164081,0.0276909269455585,0.853949000000284,
-0.0201112939453125,-0.00215478149414028,-0.0232716401367199,0.0308330417262917,0.856948999999076,
-0.0272938989257813,-0.0284909997558591,0.0317949980468732,0.0506716477574965,0.859884999999849,
-0.015322890625,0.0146046301269533,-0.0184832368164081,0.0281018903538934,0.862892999999531,
-0.0129286889648438,0.0122104284667972,0.00306457812499872,0.0180454204932073,0.865867999998954,
0.00622492431640626,0.0122104284667972,-0.00172382519531311,0.0138136099333865,0.868862999999692,
-0.03447650390625,0.00502782348632835,-0.0352426484375012,0.0495575685389896,0.87200699999994,
0.00383072265625,-0.0452504113769528,0.0317949980468732,0.0554364146266084,0.87508600000001,
-0.0225054956054688,-0.00215478149414028,-0.0496078583984385,0.0545167866864399,0.878193999998985,
-0.0105344873046875,-0.00933738647460913,-0.0424252534179708,0.0446997129356317,0.881149999999252,
0.0253785375976563,-0.0189141931152341,0.0126413847656242,0.0340825685738117,0.884103999998842,
-0.0201112939453125,-0.0213083947753905,-0.056790463378908,0.0639035880279797,0.887103999999454,
-0.005746083984375,-0.00215478149414028,-0.00651222851562672,0.00894816655425691,0.890035000000353,
-0.0320823022460938,0.0122104284667972,0.0629196196289055,0.0716745925345839,0.893095999999787,
-0.015322890625,-0.0284909997558591,0.00545877978515463,0.0328074125913168,0.896040999999968,
0.0181959326171875,-0.0213083947753905,-0.00890643017578263,0.0294017712083678,0.898967999999513,
-0.005746083984375,0.0122104284667972,0.0557370146484359,0.057347422317121,0.902033999998821,
0.013407529296875,-0.00694318481445277,0.0270065947265614,0.0309406822151507,0.90500499999871,
0.00383072265625,0.0313640417480472,0.00306457812499872,0.0317453806076817,0.90807599999971,
-0.000957680664062498,0.0241814367675783,0.0222181914062478,0.0328528091000355,0.911063999999897,
0.0181959326171875,0.000239420166015858,-0.00651222851562672,0.0193276590942842,0.914049999999406,
-0.0129286889648438,-0.0380678063964841,0.0988326445312495,0.106696768963405,0.917072000000189,
-0.044053310546875,0.00263362182617222,-0.00651222851562672,0.0446098560219873,0.920046999999613,
-0.0129286889648438,-0.0404620080566404,-0.0280600434570317,0.0509086547959756,0.923059999999168,
0.00383072265625,0.0337582434082033,0.017429788085936,0.0381849570747074,0.926041999999143,
0.0110133276367188,-0.0356736047363279,-0.0615788666992199,0.0720128897106466,0.928959999999279,
0.013407529296875,0.00742202514648471,0.00306457812499872,0.0156281776994579,0.932004999998753,
-0.0177170922851563,-0.0524330163574216,0.0461602080078105,0.0720685879333203,0.934939999999187,
-0.00814028564453125,-0.0213083947753905,-0.0448194550781267,0.0502901132607461,0.937936999998783,
0.0086191259765625,-0.0237025964355466,-0.0041180268554708,0.0255550495121536,0.940898999999263,
-0.0201112939453125,0.0241814367675783,-0.0184832368164081,0.0364806259747633,0.943911000000298,
-0.0368707055664063,0.0169988317871097,-0.0256658417968758,0.0480327455620989,0.946872999998959,
-0.0225054956054688,-0.0141257897949216,0.0102471831054682,0.0284787645689745,0.949817999999141,
-0.0129286889648438,0.0122104284667972,0.017429788085936,0.024900664135984,0.95284299999912,
-0.015322890625,-0.0117315881347655,-0.0328484467773453,0.0380977898696706,0.955774000000019,
0.0158017309570313,0.00742202514648471,-0.0376368500976572,0.0414887170660526,0.958806999999069,
-0.00335188232421875,0.00502782348632835,-0.0543962617187521,0.054730863441938,0.96176000000014,
0.0086191259765625,-0.0141257897949216,0.0294007963867173,0.0337377251471313,0.964721999998801,
0.0445321508789063,-0.0356736047363279,-0.0496078583984385,0.0756085851716917,0.967746999998781,
0.00622492431640626,-0.00933738647460913,0.0150355864257801,0.0187618050327867,0.97071700000015,
-0.00814028564453125,-0.026096798095703,-0.00172382519531311,0.0273912156452839,0.973713999999745,
-0.0201112939453125,-0.0284909997558591,0.00785298144531055,0.0357473149876116,0.976671000000351,
0.013407529296875,0.00263362182617222,-0.0041180268554708,0.0142708076489115,0.979623999999603,
0.00622492431640626,0.0193930334472658,0.0270065947265614,0.0338259602636273,0.982668999999078,
0.00622492431640626,0.00981622680664085,-0.0136948334960945,0.0179626405617368,0.985638999998628,
-0.0129286889648438,-0.0213083947753905,-0.0232716401367199,0.034099382998913,0.98862999999983,
-0.0105344873046875,0.000239420166015858,0.000670376464842803,0.0105585107564056,0.991608000000269,
-0.024899697265625,-0.0213083947753905,0.0270065947265614,0.0424664428760921,0.994531999998799,
0.0086191259765625,0.00742202514648471,-0.020877438476564,0.0237748444204714,0.997585999999501,
0.00622492431640626,0.00742202514648471,-0.0400310517578131,0.0411864206366218,1.00055900000007,
0.0086191259765625,-0.0117315881347655,0.0365834013671869,0.0393734015339837,1.00359599999865,
-0.03447650390625,0.00981622680664085,0.0341891997070292,0.0495367440081018,1.00655799999913,
0.0086191259765625,-0.0117315881347655,-0.00172382519531311,0.0146591632117124,1.0095769999989,
0.0229843359375,-0.016519991455078,-0.0160890351562522,0.0325583609603251,1.01269599999978,
0.00383072265625,0.0481234533691408,-0.0735498750000012,0.087977981977065,1.01577899999938,
