X,Y,Z,Magnitude,Seconds,
0.0110133276367188,-0.0117315881347655,0.0653138212890614,0.0672667733519078,0.0,
0.0158017309570313,0.000239420166015858,0.0126413847656242,0.0202375055786737,0.00384500000109256,
-0.00814028564453125,0.0169988317871097,-0.00172382519531311,0.0189260694758581,0.00781500000084634,
-0.0225054956054688,0.00263362182617222,0.000670376464842803,0.02266898103082,0.0119969999996101,
0.0373495458984375,0.0337582434082033,-0.00172382519531311,0.0503743898239074,0.0158900000005815,
-0.00814028564453125,-0.0356736047363279,0.0317949980468732,0.0484746555022208,0.019839000000502,
0.00383072265625,0.0313640417480472,0.0437660063476546,0.0539800042836725,0.0237209999995684,
-0.0225054956054688,0.00742202514648471,0.0581312163085919,0.0627759675292952,0.0275620000011259,
0.0373495458984375,0.00263362182617222,0.017429788085936,0.0413003880788476,0.0313939999996364,
0.00383072265625,0.00742202514648471,-0.0352426484375012,0.0362188509237036,0.0354050000005373,
0.0158017309570313,0.00742202514648471,-0.0352426484375012,0.0393297015931059,0.0393459999995684,
0.00383072265625,-0.00215478149414028,-0.0424252534179708,0.0426523111558522,0.0432130000008328,
-0.00335188232421875,-0.00694318481445277,-0.0687614716796894,0.0691923617030072,0.0471950000010111,
0.051714755859375,-0.0117315881347655,-0.0328484467773453,0.0623784144511755,0.0511790000000474,
-0.00335188232421875,0.000239420166015858,-0.0232716401367199,0.0235130106916213,0.0551269999996293,
-0.0296881005859375,0.00263362182617222,0.0246123930664055,0.0386534496879551,0.0591249999997672,
0.0469263525390625,0.0122104284667972,0.0126413847656242,0.05010969701321,0.0632010000008449,
-0.00335188232421875,-0.00933738647460913,-0.0472136567382826,0.0482447021328975,0.0670829999999114,
0.0110133276367188,-0.0189141931152341,-0.0424252534179708,0.0477382678195714,0.0710460000009334,
-0.0320823022460938,0.00981622680664085,0.00545877978515463,0.033991626952412,0.0749880000003031,
0.0110133276367188,-0.0332794030761716,-0.078338278320313,0.0858236442067735,0.0788450000000012,
-0.0464475122070312,-0.00215478149414028,0.0102471831054682,0.0476132254222165,0.0828220000003057,
0.0253785375976563,-0.026096798095703,0.0317949980468732,0.0483325453731149,0.0868080000000191,
0.00143652099609375,0.00742202514648471,-0.0328484467773453,0.0337071284082664,0.0908070000004955,
0.0660799658203125,0.0122104284667972,0.0557370146484359,0.0873056197966454,0.0947059999998601,
-0.000957680664062498,-0.00215478149414028,-0.020877438476564,0.0210101802201819,0.0985650000002352,
0.032561142578125,-0.00454898315429664,-0.0639730683593758,0.0719268707024324,0.102374000000054,
0.00622492431640626,0.000239420166015858,-0.0280600434570317,0.0287432260466947,0.106249000000389,
0.0229843359375,0.0169988317871097,-0.0400310517578131,0.049190701209182,0.110366000000795,
0.051714755859375,-0.0332794030761716,-0.0256658417968758,0.0666383529046398,0.114297000000079,
0.0158017309570313,0.0122104284667972,0.017429788085936,0.0265063535270661,0.118293999999878,
-0.00335188232421875,-0.0189141931152341,-0.0113006318359385,0.022286455442874,0.122242000001279,
-0.0296881005859375,0.00742202514648471,-0.0184832368164081,0.0357505219106969,0.126196000001073,
-0.0177170922851563,-0.0141257897949216,0.0126413847656242,0.0259468284220559,0.130110000000059,
-0.000957680664062498,-0.00215478149414028,-0.00172382519531311,0.00292092602539073,0.133942000000388,
0.013407529296875,-0.0237025964355466,-0.0184832368164081,0.0329120792847303,0.137932999999975,
0.00143652099609375,0.0217872351074222,0.0126413847656242,0.0252299784976298,0.141848999999638,
0.0110133276367188,-0.00215478149414028,0.0222181914062478,0.024891454322435,0.145723999999973,
0.0158017309570313,-0.0237025964355466,0.0341891997070292,0.0445017882295971,0.14955800000098,
-0.024899697265625,0.0169988317871097,0.0748906279296868,0.0807314149371173,0.153443000001062,
0.0110133276367188,-0.00694318481445277,0.0294007963867173,0.0321544402715173,0.157527999999729,
0.00383072265625,-0.0284909997558591,0.0629196196289055,0.069175790833236,0.161436000000322,
-0.0201112939453125,-0.0141257897949216,-0.0256658417968758,0.0355350181740116,0.16540200000054,
0.0110133276367188,0.0289698400878908,0.000670376464842803,0.0309999100798098,0.169310999999652,
0.013407529296875,-0.0476446130371091,-0.152558529785157,0.160386645340287,0.173156000000745,
-0.0225054956054688,0.0289698400878908,-0.020877438476564,0.0422091981031203,0.177019000000655,
-0.0177170922851563,-0.026096798095703,0.00785298144531055,0.0325055002648632,0.180946000000404,
0.0086191259765625,0.00502782348632835,-0.0903092866210944,0.0908588773407448,0.184943000000203,
0.00143652099609375,0.00981622680664085,-0.0448194550781267,0.0459043075842763,0.188975000000937,
0.00622492431640626,0.00981622680664085,0.000670376464842803,0.0116429118380676,0.192995999999766,
0.0229843359375,-0.0117315881347655,-0.0184832368164081,0.0317417690411711,0.196896999999808,
0.0253785375976563,-0.0117315881347655,-0.0496078583984385,0.056944182719914,0.200757000000522,
-0.015322890625,0.0122104284667972,0.00545877978515463,0.020339218696678,0.204668000000311,
0.0349553442382813,0.00742202514648471,-0.00890643017578263,0.0368278026301853,0.208486000001358,
-0.000957680664062498,-0.00933738647460913,-0.0160890351562522,0.0186268889160174,0.212351000000126,
-0.0225054956054688,-0.0452504113769528,0.0437660063476546,0.066854770763605,0.216254000000845,
0.0181959326171875,0.00263362182617222,-0.0113006318359385,0.0215808296324295,0.220143000000462,
0.0110133276367188,-0.0332794030761716,0.0605254179687496,0.0699438222792538,0.223986000000878,
-0.0272938989257813,0.0146046301269533,0.0246123930664055,0.0395477184192859,0.227915999999823,
0.00143652099609375,-0.0237025964355466,-0.0304542451171894,0.0386178419388818,0.231873000000633,
-0.00814028564453125,0.0169988317871097,0.0222181914062478,0.0291354176538741,0.235916999999972,
0.00143652099609375,-0.0117315881347655,-0.0160890351562522,0.0199637372502021,0.239836000000651,
0.0181959326171875,0.000239420166015858,-0.0280600434570317,0.0334442121246058,0.243789000000106,
-0.0129286889648438,0.00502782348632835,0.00306457812499872,0.0142063945617306,0.247640999999931,
-0.00335188232421875,-0.00454898315429664,-0.056790463378908,0.0570708778068515,0.251436000000467,
-0.000957680664062498,0.0193930334472658,-0.0520020600585944,0.0555087483994978,0.255380000000514,
-0.0225054956054688,-0.00694318481445277,-0.078338278320313,0.0818021454364508,0.259235999999873,
0.0588973608398438,0.0146046301269533,-0.0400310517578131,0.0726958007032083,0.263230000000476,
0.032561142578125,0.00502782348632835,0.017429788085936,0.037273375587989,0.26718400000027,
-0.015322890625,-0.0237025964355466,0.05334281298828,0.0603494801335912,0.271077000001242,
-0.0392649072265625,0.0217872351074222,0.103621047851561,0.112932449326986,0.274971000000733,
0.0349553442382813,0.0146046301269533,-0.0280600434570317,0.0471437944036367,0.278803000001062,
-0.03447650390625,-0.0213083947753905,-0.0184832368164081,0.0445455615377445,0.282629999999699,
-0.0105344873046875,-0.026096798095703,0.0126413847656242,0.0308516272247197,0.286514999999781,
0.0373495458984375,0.0146046301269533,-0.0496078583984385,0.0637904649210533,0.290425000001051,
-0.005746083984375,-0.016519991455078,0.101226846191405,0.102726831882862,0.294243000000279,
-0.024899697265625,-0.00933738647460913,-0.0400310517578131,0.0480589930703162,0.29811300000074,
0.0205901342773438,0.0217872351074222,0.0126413847656242,0.032533703324056,0.302212000000509,
0.070868369140625,0.00263362182617222,-0.0424252534179708,0.0826387550496389,0.306102000000465,
-0.0608127221679688,0.0864306799316408,-0.444651132324219,0.45703728413351,0.310073000000557,
-1.23875993896484,15.8618254187012,-16.0596343598633,22.6062798260183,0.314164999999775,
16.0617412573242,-20.6425672937012,9.45477418200684,27.8116499245362,0.317173999999795,
-19.6429881005859,-16.9267663171387,-29.7712272675781,39.480227614498,0.320052000000942,
-2.14616236816406,18.5834341558838,-9.65275071728516,21.0505495022491,0.323083999999653,
13.1910934667969,18.5834341558838,9.45477418200684,24.6726919226213,0.326070000000982,
3.62146943115234,-17.4295486657715,0.718930874511717,17.8163146900697,0.329117000001133,
-4.79175520263672,-19.2228057092285,-3.06390774853516,20.0465634947309,0.332139000000097,
-3.25946614013672,10.3695268103027,-1.375995578125,10.9564852767347,0.335116000000198,
-2.42628396240234,12.5075488928223,-0.861242221191407,12.7697835273787,0.338224000000992,
4.27269228271484,-5.03955507446289,1.2504436430664,6.72433074705586,0.341183000000456,
0.480276853027344,-8.52311848999024,0.20657171923828,8.53913851188493,0.344216000001325,
0.736456430664063,3.7878664465332,-0.114251303222657,3.86048619364538,0.347223000000668,
-0.261925661621094,4.75991232055664,-0.81575238964844,4.83640592928465,0.350185999999667,
-2.05757690673828,0.0505176550292972,0.505846926757812,2.11944706796906,0.353315000000293,
-0.585142885742188,-5.24785061889648,-0.162135336425782,5.28286060598847,0.356243000000177,
1.67498348144531,-0.694079061279297,0.170658694335936,1.82110949598684,0.359280000000581,
0.418027609863281,4.14220829223633,-0.119039706542971,4.16494982810276,0.362318999999843,
-0.613873305664063,1.36493436645508,0.0341891997070292,1.49701541792784,0.365286000000197,
0.724485422363281,-4.09145121704102,-0.200442562988282,4.15993141886986,0.368293000001358,
-0.558806667480469,-0.236786544189453,0.0892558378906241,0.61343244430611,0.371328999999605,
-1.17172229248047,2.93313645385742,-0.0543962617187521,3.15898425778476,0.374394000000393,
0.947146176757813,-0.63422401977539,-0.217201974609376,1.16038902320782,0.377355000000534,
0.724485422363281,-1.89596829467773,0.103621047851561,2.03231695933433,0.380420000001322,
-0.328963308105469,1.29071411499023,0.09165003955078,1.3351252804379,0.383380999999645,
-0.407971962890625,0.957920084228516,-0.169317941406252,1.05485571314528,0.386328000000503,
0.0349553442382813,-1.28784107299805,0.0270065947265614,1.28859840972675,0.389371999999639,
0.171424838867188,-0.514513936767578,0.0724964262695291,0.547144220777818,0.392367000000377,
-0.00335188232421875,1.18536924194336,0.00545877978515463,1.18538655009125,0.395464000001084,
-0.113485158691406,0.141497318115235,-0.00172382519531311,0.18139278885976,0.398454000000129,
0.204943662109375,-1.09630494018555,-0.0615788666992199,1.11699524767924,0.401442000000316,
-0.170945998535156,0.34261025756836,-0.00651222851562672,0.38294481603291,0.404507999999623,
-0.199676418457031,0.735259329833985,-0.0328484467773453,0.76259817377924,0.407465000000229,
0.291134921875,-0.526484945068359,0.0413718046874987,0.603040269253966,0.410562000000937,
0.0588973608398438,-0.301429989013672,0.000670376464842803,0.307130895214541,0.413567999999941,
-0.230801040039063,0.471897147216797,0.0605254179687496,0.528790472545371,0.4165780000003,
0.0732625708007813,-0.282276375732422,-0.0663672700195335,0.299085223818925,0.419679000000542,
0.113963999023438,-0.253545955810547,-0.0041180268554708,0.278011335967583,0.422696999999971,
-0.0225054956054688,0.316274039306641,0.05334281298828,0.321529502486613,0.425782000000254,
-0.0967257470703125,0.0385466467285158,0.0126413847656242,0.104888124824098,0.428749000000607,
0.0445321508789063,-0.334948812255859,-0.020877438476564,0.338540524503131,0.431781000001138,
0.0349553442382813,0.0648828649902347,-0.00651222851562672,0.0739869676388856,0.434860000001208,
-0.0296881005859375,0.239659586181641,0.05334281298828,0.247312669029831,0.437916000000769,
0.0565031591796875,-0.152989486083984,-0.095097689941408,0.188790784949157,0.440994000000501,
0.00143652099609375,-0.112288057861328,-0.00890643017578263,0.112649882509114,0.444008000000395,
-0.0799663354492188,0.179804544677735,0.00545877978515463,0.196860578503385,0.446986000000834,
0.0612915625,-0.0237025964355466,0.0365834013671869,0.0752117940689523,0.450028000001112,
0.0612915625,-0.133835872802734,-0.0184832368164081,0.148358776369221,0.452977000000828,
-0.0368707055664063,0.0624886633300783,-0.00172382519531311,0.0725758468572602,0.456052999999883,
-0.0512359155273438,0.0433350500488283,-0.0591846650390639,0.0894755283775724,0.459020000000237,
0.0277727392578125,-0.0907402429199217,-0.0448194550781267,0.104947130901941,0.462036000000808,
0.0253785375976563,0.00742202514648471,-0.00651222851562672,0.0272317048329781,0.465174000000843,
-0.0320823022460938,0.100795889892578,-0.102280294921876,0.1471405595543,0.468189000001075,
-0.000957680664062498,0.0984016882324221,-0.210019369628908,0.231930905699454,0.471267000000807,
0.0828393774414063,0.28514941772461,-0.346488864257815,0.456319061554779,0.474275000000489,
0.109175595703125,0.440772525634766,-0.056790463378908,0.457629639318056,0.477350000001024,
0.0828393774414063,-0.923922420654297,1.62154490039062,1.86812817168026,0.480326000000787,
-0.266714064941406,-2.17369568725586,-0.131010714843752,2.19391274681473,0.483319000000847,
-0.867658681640625,1.91560074829102,-1.52443608105469,2.59735696043128,0.486413000000539,
0.420421811523438,1.60196033081055,0.572884573242186,1.75249197868469,0.489386999999624,
0.92320416015625,-2.0563798059082,0.0605254179687496,2.25492065352579,0.492392000000109,
0.0469263525390625,-0.152989486083984,-0.0352426484375012,0.16385942049132,0.495385000000169,
-0.80062103515625,1.73124722045899,0.09165003955078,1.90961009371842,0.498342000000775,
-0.281079274902344,-0.720415279541015,-0.157346933105471,0.789152577853918,0.501405000000887,
0.437181223144531,-1.31657149291992,0.0748906279296868,1.38927913825525,0.504392000000735,
0.140300217285156,1.15424462036133,0.0365834013671869,1.16331558051069,0.507458000000042,
-0.0320823022460938,0.718499918212891,-0.0879150849609385,0.724569160779722,0.510408000000098,
0.0612915625,-1.11785275512695,0.0605254179687496,1.12116669768545,0.513424000000668,
-0.204464821777344,-0.167354696044922,-0.020877438476564,0.265045892384832,0.516460000000734,
-0.154186586914063,0.84060420288086,-0.0113006318359385,0.854702658101088,0.519382000000405,
0.23367408203125,-0.186508309326172,-0.0232716401367199,0.299884136451909,0.52245000000039,
0.228885678710938,-0.50014872680664,0.00306457812499872,0.550042538795277,0.5254359999999,
-0.221224233398438,0.428801517333985,-0.0328484467773453,0.483621673590357,0.528427999999622,
-0.151792385253906,0.117555301513672,0.0102471831054682,0.192263313964567,0.531499000000622,
0.209732065429688,-0.490571920166015,-0.0280600434570317,0.534261840452399,0.534456999999747,
0.121146604003906,0.182198746337891,-0.0352426484375012,0.221618878026371,0.537514999999985,
-0.0536301171875,0.373734879150391,-0.0400310517578131,0.379679383780498,0.540496999999959,
-0.0129286889648438,-0.260728560791015,0.00545877978515463,0.261105977884932,0.543493000001035,
0.0158017309570313,-0.200873519287109,-0.0160890351562522,0.20213540635991,0.546631000001071,
-0.00335188232421875,0.316274039306641,-0.0615788666992199,0.322230445300276,0.549612000000707,
0.113963999023438,0.0169988317871097,-0.0113006318359385,0.11577762147942,0.552771000000575,
0.0301669409179688,-0.253545955810547,0.0892558378906241,0.270485120902776,0.555773000000045,
-0.161369191894531,0.0193930334472658,-0.0041180268554708,0.162582483632657,0.558823999999731,
-0.00335188232421875,-0.0237025964355466,0.0389776030273428,0.0457416848253201,0.5619200000001,
0.0852335791015625,-0.0811634362792967,-0.0472136567382826,0.126812443307927,0.564969000000929,
0.0158017309570313,0.141497318115235,0.000670376464842803,0.142378492545914,0.568076999999903,
-0.0536301171875,0.0241814367675783,-0.0543962617187521,0.080124182633362,0.571018000000549,
-0.000957680664062498,-0.112288057861328,0.0150355864257801,0.113294280304393,0.574121999999988,
-0.0105344873046875,0.00742202514648471,-0.0184832368164081,0.022532019955146,0.57716100000107,
0.0469263525390625,0.0600944616699222,-0.00890643017578263,0.0767642585093754,0.580137000000832,
0.0445321508789063,-0.0428562097167966,0.00785298144531055,0.0623011756772865,0.583199000000604,
-0.0177170922851563,-0.0237025964355466,-0.0232716401367199,0.037646748484831,0.58615699999973,
-0.0679953271484375,0.0313640417480472,-0.0328484467773453,0.0817685030099021,0.589176999999836,
0.0445321508789063,-0.0189141931152341,0.0629196196289055,0.0793708869633456,0.592221000000791,
0.0373495458984375,-0.0524330163574216,-0.00651222851562672,0.0647040872232726,0.595272000000477,
-0.0177170922851563,0.0385466467285158,-0.00651222851562672,0.0429202569108514,0.598351000000548,
-0.0320823022460938,-0.0907402429199217,-0.0424252534179708,0.105180644275243,0.60135900000023,
-0.0177170922851563,-0.0787692346191404,0.00545877978515463,0.0809214802031497,0.604425999999876,
0.0253785375976563,0.0122104284667972,-0.020877438476564,0.0350575551241261,0.60742300000129,
-0.000957680664062498,-0.00215478149414028,0.017429788085936,0.0175885686814603,0.610389999999825,
-0.0296881005859375,-0.0476446130371091,-0.056790463378908,0.0798532979822856,0.613489000001209,
0.0253785375976563,-0.016519991455078,-0.0136948334960945,0.0332344512931574,0.616507000000638,
0.0181959326171875,-0.00215478149414028,0.0294007963867173,0.0346430638839859,0.619591000000582,
0.0253785375976563,-0.0117315881347655,-0.00890643017578263,0.0293432245882336,0.622550000000047,
0.0110133276367188,-0.0332794030761716,-0.0113006318359385,0.0368309154737082,0.625546000001123,
-0.0368707055664063,0.00502782348632835,0.00785298144531055,0.0380315297556473,0.628608000000895,
-0.0129286889648438,0.0217872351074222,-0.0304542451171894,0.0396143365163878,0.631633000000875,
0.00143652099609375,-0.0332794030761716,0.00785298144531055,0.0342235529899938,0.634740000001329,
0.0110133276367188,-0.0117315881347655,0.0485544096679682,0.0511512878039485,0.637756000000081,
0.00143652099609375,-0.00215478149414028,-0.0376368500976572,0.0377258420864694,0.640697000000728,
-0.0201112939453125,-0.0141257897949216,0.0102471831054682,0.0266271824097494,0.6437590000005,
0.0086191259765625,0.00502782348632835,0.017429788085936,0.0200839700838795,0.646740000000136,
0.013407529296875,0.0313640417480472,-0.0328484467773453,0.0473548879452153,0.649811999999656,
0.00383072265625,0.00263362182617222,0.0341891997070292,0.0345037936551841,0.652772999999797,
-0.0129286889648438,-0.026096798095703,-0.0687614716796894,0.0746748542466223,0.655740000000151,
-0.024899697265625,0.0193930334472658,-0.0639730683593758,0.0713346910382313,0.65884300000107,
0.013407529296875,-0.026096798095703,-0.0376368500976572,0.0477214542733975,0.661819000000833,
0.0205901342773438,-0.0284909997558591,-0.0160890351562522,0.0386593811242049,0.664899000001242,
-0.00335188232421875,-0.00215478149414028,0.0126413847656242,0.0132545391166745,0.667881999999736,
0.0110133276367188,-0.0141257897949216,0.0317949980468732,0.0364931942115883,0.670951000000059,
-0.015322890625,0.0193930334472658,0.0437660063476546,0.0502627499746624,0.67399099999966,
0.0253785375976563,0.0241814367675783,-0.0328484467773453,0.0480399053956617,0.677010000001246,
-0.024899697265625,0.0289698400878908,-0.0041180268554708,0.0384214094460383,0.68011000000115,
0.00383072265625,0.0122104284667972,-0.0472136567382826,0.0489172605734648,0.683184000001347,
0.0158017309570313,0.00502782348632835,-0.0496078583984385,0.052305958791782,0.686281000000236,
-0.024899697265625,0.0337582434082033,0.0437660063476546,0.0606224152731497,0.689320000001317,
0.0158017309570313,0.0217872351074222,0.0222181914062478,0.0349002341572253,0.692348000000493,
0.0229843359375,0.0409408483886722,-0.00172382519531311,0.0469830218118853,0.695535000000746,
-0.000957680664062498,0.00502782348632835,-0.0352426484375012,0.035612363445204,0.698510000000169,
-0.0177170922851563,-0.0524330163574216,-0.00890643017578263,0.0560574799813056,0.70157300000028,
0.00383072265625,0.00742202514648471,-0.0280600434570317,0.0292767302162428,0.704612000001362,
0.0229843359375,-0.0189141931152341,0.0317949980468732,0.0435539699739174,0.707615999999689,
-0.0368707055664063,-0.0356736047363279,-0.0496078583984385,0.0713652199515135,0.710682000000816,
0.00383072265625,0.0146046301269533,-0.0328484467773453,0.0361523182230173,0.713671000001341,
0.0086191259765625,0.0122104284667972,0.000670376464842803,0.0149610594727526,0.716755999999805,
0.0205901342773438,0.0433350500488283,0.0102471831054682,0.0490600137983113,0.719748999999865,
0.00383072265625,-0.0141257897949216,-0.0232716401367199,0.0274914824637089,0.722695000000385,
0.0086191259765625,-0.00694318481445277,-0.0448194550781267,0.0461657957958889,0.725836999999956,
0.0301669409179688,0.00981622680664085,-0.0735498750000012,0.0800998548412132,0.728855999999723,
-0.0392649072265625,0.00981622680664085,0.09165003955078,0.100188926523292,0.732017000000269,
-0.0416591088867188,-0.0284909997558591,0.0126413847656242,0.0520290594679205,0.735001000000921,
0.0397437475585938,-0.0189141931152341,-0.0160890351562522,0.0468633035909838,0.73800300000039,
-0.0296881005859375,0.00502782348632835,0.0222181914062478,0.0374207209280511,0.741136000000552,
-0.00814028564453125,-0.0189141931152341,-0.0256658417968758,0.0329051118630098,0.744135000000824,
-0.0105344873046875,-0.0141257897949216,-0.0376368500976572,0.0415577411005032,0.747212000000218,
0.0301669409179688,-0.0189141931152341,-0.0304542451171894,0.0468535171700742,0.750195000000531,
-0.00814028564453125,0.00263362182617222,-0.0304542451171894,0.0316332303117419,0.753147000001263,
0.013407529296875,-0.00933738647460913,-0.0448194550781267,0.0477046348012747,0.756220000001122,
-0.000957680664062498,0.00263362182617222,-0.0328484467773453,0.0329677656486104,0.759211000000505,
-0.044053310546875,-0.016519991455078,0.017429788085936,0.0501737162320661,0.762260000001334,
0.00143652099609375,0.00981622680664085,0.000670376464842803,0.00994340514593707,0.76532700000098,
-0.0177170922851563,-0.0117315881347655,0.000670376464842803,0.0212597018748883,0.768377000000328,
-0.00335188232421875,0.0193930334472658,0.0317949980468732,0.0373931379025999,0.771378000001278,
0.00383072265625,-0.00215478149414028,0.0437660063476546,0.0439861436247773,0.774327000000994,
-0.0177170922851563,0.000239420166015858,-0.0328484467773453,0.0373225553350883,0.777404000000388,
-0.005746083984375,0.0337582434082033,-0.020877438476564,0.0401061580870782,0.780388000001039,
-0.0392649072265625,0.00981622680664085,-0.0304542451171894,0.0506512812660038,0.783414000001358,
0.0086191259765625,0.00742202514648471,-0.0424252534179708,0.0439235462759321,0.786460000001171,
-0.0105344873046875,0.0265756384277347,-0.0304542451171894,0.041769618459739,0.789502999999968,
-0.005746083984375,-0.00215478149414028,-0.00890643017578263,0.0108159633375429,0.792542999999569,
-0.000957680664062498,-0.0452504113769528,-0.0256658417968758,0.0520312628828096,0.795518000000811,
-0.024899697265625,-0.0332794030761716,0.0222181914062478,0.0471292013765429,0.79857500000071,
-0.03447650390625,-0.00933738647460913,-0.020877438476564,0.0413724974483847,0.801536000000851,
0.0181959326171875,0.00502782348632835,-0.0184832368164081,0.0264197088558963,0.804577000000791,
-0.000957680664062498,-0.00454898315429664,0.0102471831054682,0.0112523402716674,0.807673000001159,
-0.0416591088867188,-0.0189141931152341,0.00545877978515463,0.0460763098693751,0.810693000001265,
0.0110133276367188,-0.00694318481445277,0.0102471831054682,0.0165682214675672,0.813770000000659,
0.0158017309570313,-0.00454898315429664,0.0150355864257801,0.0222813107366595,0.816797000001316,
-0.00814028564453125,-0.0332794030761716,-0.00172382519531311,0.0343038553632804,0.819757000001118,
0.00622492431640626,-0.0428562097167966,0.0150355864257801,0.0458418286415599,0.822820000001229,
-0.005746083984375,0.0265756384277347,-0.0496078583984385,0.0565705016229899,0.825850000001083,
-0.00814028564453125,-0.00215478149414028,-0.00172382519531311,0.0085952839956599,0.828912000000855,
0.00383072265625,0.00263362182617222,-0.0424252534179708,0.0426791814304286,0.831900999999561,
0.0110133276367188,-0.0380678063964841,-0.0232716401367199,0.0459567242536596,0.834877000001143,
0.0301669409179688,0.0265756384277347,-0.078338278320313,0.0880522272993746,0.837976000000708,
0.00383072265625,-0.0308852014160154,-0.0639730683593758,0.0711415741876036,0.840976999999839,
-0.03447650390625,0.0146046301269533,0.017429788085936,0.0413003880788476,0.844036000000415,
-0.000957680664062498,-0.0428562097167966,-0.00172382519531311,0.0429015551798343,0.846967999999833,
-0.005746083984375,-0.00215478149414028,-0.0232716401367199,0.0240671934195903,0.849926000000778,
0.00383072265625,-0.016519991455078,0.017429788085936,0.0243183483498693,0.852950000000419,
0.0158017309570313,0.0122104284667972,-0.0304542451171894,0.0364177197287121,0.855997000000571,
0.0181959326171875,-0.00215478149414028,-0.0113006318359385,0.0215276409991468,0.859096000000136,
0.0158017309570313,0.00742202514648471,-0.0855208833007826,0.0872846071140812,0.862119000001258,
-0.0512359155273438,-0.0189141931152341,0.00306457812499872,0.0547015299622387,0.865190000000439,
0.00383072265625,0.00263362182617222,0.017429788085936,0.0180390662927169,0.86819000000105,
0.0110133276367188,-0.0117315881347655,-0.0232716401367199,0.028292981116356,0.871149000000514,
-0.0272938989257813,0.000239420166015858,0.000670376464842803,0.0273031801296346,0.874207000000752,
-0.0177170922851563,-0.0237025964355466,-0.020877438476564,0.0362156854714893,0.877190000001065,
-0.0296881005859375,0.00502782348632835,0.0389776030273428,0.0492535873126774,0.880310000000463,
0.013407529296875,0.0217872351074222,-0.0543962617187521,0.0601115525040539,0.883308000000397,
0.0205901342773438,0.00742202514648471,0.0126413847656242,0.0252753772598284,0.886280000000625,
-0.03447650390625,0.00742202514648471,0.0509486113281241,0.0619635116430386,0.889369000000443,
0.0181959326171875,-0.0117315881347655,-0.0041180268554708,0.022038154849156,0.892297000000326,
0.0205901342773438,-0.0308852014160154,0.0102471831054682,0.0385078441056349,0.895400000001246,
0.0565031591796875,-0.0213083947753905,0.101226846191405,0.11787081519633,0.89838200000122,
-0.024899697265625,0.0313640417480472,0.00545877978515463,0.0404165351735627,0.90135200000077,
-0.0225054956054688,-0.00933738647460913,0.0102471831054682,0.0264327236625547,0.90437700000075,
0.0205901342773438,0.0265756384277347,0.0222181914062478,0.0402972234374206,0.907377000001361,
-0.0177170922851563,0.00742202514648471,-0.0352426484375012,0.0401375894294252,0.910422000000835,
0.013407529296875,-0.00454898315429664,-0.0711556733398453,0.072550568144098,0.913355000000593,
-0.00335188232421875,0.00742202514648471,-0.0041180268554708,0.00912577216310161,0.916301999999632,
0.0205901342773438,-0.00215478149414028,0.0317949980468732,0.0379409885697145,0.919382000000041,
0.0158017309570313,-0.016519991455078,-0.0232716401367199,0.0326216807287307,0.922398000000612,
-0.0201112939453125,-0.0117315881347655,-0.0136948334960945,0.027011900503376,0.925430000001143,
0.013407529296875,-0.016519991455078,-0.0759440766601571,0.0788680844149662,0.928423000001203,
0.00622492431640626,-0.0117315881347655,-0.00890643017578263,0.0159907579990708,0.931349000000409,
0.00622492431640626,-0.00215478149414028,0.00785298144531055,0.0102499796884124,0.934454000000187,
-0.03447650390625,0.00981622680664085,-0.020877438476564,0.041483190181805,0.937455999999656,
-0.044053310546875,-0.0308852014160154,0.0581312163085919,0.0792075005675822,0.940563000000111,
-0.0177170922851563,-0.016519991455078,-0.0448194550781267,0.0509469236580268,0.943547000000763,
-0.005746083984375,0.0122104284667972,0.0413718046874987,0.0435171031618466,0.946588000000702,
-0.0536301171875,0.0122104284667972,-0.0472136567382826,0.0724873327933104,0.94970000000103,
0.00143652099609375,0.00742202514648471,-0.0520020600585944,0.0525486850471535,0.952737999999954,
0.00383072265625,0.00742202514648471,-0.0520020600585944,0.0526685403602741,0.955885000001217,
-0.0105344873046875,0.00502782348632835,-0.0041180268554708,0.0123779068086925,0.958952000000863,
-0.0129286889648438,-0.00933738647460913,0.0270065947265614,0.0313638955369167,0.961994000001141,
0.0205901342773438,-0.00215478149414028,0.0222181914062478,0.0303684827117062,0.965003999999681,
-0.005746083984375,-0.016519991455078,-0.056790463378908,0.05942292764264,0.968014000000039,
0.0253785375976563,0.000239420166015858,-0.0256658417968758,0.0360951925850771,0.971150999999736,
0.0229843359375,0.00502782348632835,0.0222181914062478,0.032360573803043,0.974151000000347,
-0.015322890625,-0.00454898315429664,0.00785298144531055,0.0178088051936164,0.977147999999943,
0.0301669409179688,0.00981622680664085,-0.0448194550781267,0.0549107110368082,0.980137000000468,
-0.000957680664062498,-0.0117315881347655,-0.0520020600585944,0.0533175539832404,0.983092000000397,
0.0277727392578125,-0.026096798095703,-0.104674496582033,0.111396221441449,0.986146999999619,
0.051714755859375,-0.0117315881347655,0.0365834013671869,0.0644235313325125,0.989230999999563,
0.00383072265625,0.0193930334472658,-0.00890643017578263,0.0216815285630873,0.992309999999634,
-0.00814028564453125,0.0169988317871097,0.000670376464842803,0.0188593196352792,0.995359000000462,
-0.0416591088867188,-0.0237025964355466,0.00785298144531055,0.0485691645862091,0.998313000000053,
-0.0272938989257813,0.0337582434082033,-0.0304542451171894,0.0530286428473907,1.00141799999983,
-0.015322890625,-0.00933738647460913,0.0126413847656242,0.0219495415003248,1.00438200000099,
0.00622492431640626,0.000239420166015858,0.00545877978515463,0.00828283052486853,1.00749600000017,
-0.0225054956054688,0.0122104284667972,-0.0831266816406266,0.0869806708204337,1.01048199999968,
-0.000957680664062498,0.0193930334472658,0.000670376464842803,0.019428234689382,1.01347700000042,
0.0086191259765625,-0.026096798095703,0.0246123930664055,0.036893117188752,1.01654700000108,
0.0110133276367188,-0.0189141931152341,0.0222181914062478,0.03118794825247,1.01955799999996,
-0.0201112939453125,-0.016519991455078,0.0150355864257801,0.0300573305700575,1.0225989999999,
0.0277727392578125,-0.00215478149414028,0.0150355864257801,0.0316549678302953,1.02560199999971,
0.0445321508789063,0.0481234533691408,0.0150355864257801,0.0672684776491979,1.02864200000113,
-0.00335188232421875,-0.00215478149414028,-0.0256658417968758,0.0259733254233099,1.03170599999976,
-0.00335188232421875,-0.0141257897949216,-0.0041180268554708,0.0150907653095561,1.03463499999998,
