X,Y,Z,Magnitude,Seconds,
-1.08126935375977,0.316513459472656,-0.0368228215332049,1.12724447463409,0.0,
-1.0573273371582,0.311725056152344,0.00387860668945095,1.10232874049672,0.003882999999405,
-1.09084616040039,0.33327287109375,-0.0942836613769558,1.14451105764426,0.00766299999941111,
-1.04535632885742,0.330878669433594,-0.0894952580566439,1.10011815246501,0.0114379999995435,
-1.06450994213867,0.290177241210937,-0.0320344182128931,1.10381631269841,0.0151969999997164,
-1.05253893383789,0.309330854492188,-0.0416112248535185,1.09784119016335,0.0189439999994647,
-1.06450994213867,0.306936652832031,-0.0440054265136745,1.10875064975244,0.0226889999994455,
-1.07169254711914,0.330878669433594,0.0230322199707,1.12184495033567,0.026651999999558,
-1.05014473217773,0.323696064453125,-0.051188031494144,1.10009241213242,0.0306829999999536,
-1.06211574047852,0.302148249511719,-0.0535822331542999,1.10555617974168,0.0344930000001114,
-1.04775053051758,0.338061274414063,-0.051188031494144,1.10212831105392,0.0383190000002287,
-1.05253893383789,0.359609089355469,-0.0296402165527372,1.11267041248924,0.0421319999995831,
-1.07648095043945,0.350032282714844,-0.0463996281738304,1.13291074718897,0.0459839999994074,
-1.0357795222168,0.33327287109375,-0.0416112248535185,1.08887167255124,0.0498349999998027,
-1.0956345637207,0.357214887695313,-0.101466266357424,1.1568547775841,0.0537379999996119,
-1.08845195874023,0.285388837890625,-0.0631590397949235,1.12701531470776,0.0575360000002547,
-1.0573273371582,0.318907661132813,-0.0392170231933626,1.1050706625096,0.0613560000001598,
-1.05493313549805,0.316513459472656,-0.0368228215332049,1.10200753653719,0.0651559999996607,
-1.05253893383789,0.345243879394531,-0.0368228215332049,1.10832642470062,0.0688979999995354,
-1.10999977368164,0.33327287109375,0.0206380183105441,1.15913598511139,0.0726439999998547,
-1.04535632885742,0.316513459472656,-0.00330399829101857,1.09222778792444,0.0764870000002702,
-1.05972153881836,0.330878669433594,-0.0583706364746117,1.11170929874862,0.0802709999998115,
-1.06929834545898,0.318907661132813,-0.0990720646972676,1.12023047714919,0.0840259999995396,
-1.09324036206055,0.290177241210937,-0.0679474431152371,1.13313466789299,0.0877759999993941,
-1.0573273371582,0.347638081054688,-0.0176692082519558,1.11315117312146,0.0915169999998398,
-1.10042296704102,0.342849677734375,-0.0368228215332049,1.15318364890402,0.0952779999997801,
-1.04056792553711,0.33327287109375,-0.0631590397949235,1.09445944583228,0.099315999999817,
-1.08845195874023,0.335667072753906,-0.0559764348144558,1.14040931751331,0.103243999999904,
-1.05014473217773,0.359609089355469,-0.0440054265136745,1.11088214191712,0.107034999999996,
-1.05972153881836,0.347638081054688,-0.0847068547363303,1.11849775434475,0.110850999999457,
-1.07648095043945,0.292571442871094,-0.0272460148925813,1.11586362570443,0.114606999999523,
-1.08605775708008,0.366791694335938,-0.103860468017581,1.15101893796951,0.118433999999979,
-1.05493313549805,0.350032282714844,-0.12301408129883,1.11827500352646,0.122239999999692,
-1.06929834545898,0.311725056152344,-0.0176692082519558,1.11394957837182,0.126115999999456,
-1.10999977368164,0.350032282714844,-0.103860468017581,1.16850720722325,0.129885000000286,
-1.08126935375977,0.318907661132813,-0.0440054265136745,1.1281763998914,0.133681000000252,
-1.07648095043945,0.350032282714844,-0.0272460148925813,1.13228802913796,0.137431999999535,
-1.07169254711914,0.335667072753906,-0.034428619873049,1.12355802215473,0.141184000000067,
-1.08366355541992,0.297359846191406,-0.0487938298339863,1.12478016398859,0.144943000000239,
-1.06929834545898,0.328484467773438,-0.103860468017581,1.12342689748223,0.148764999999912,
-1.07887515209961,0.328484467773438,0.0254264216308577,1.12806034515149,0.152541999999812,
-1.04535632885742,0.316513459472656,-0.0871010563964862,1.09569029307328,0.15630499999952,
-1.0573273371582,0.335667072753906,-0.0104866032714863,1.10937975936169,0.160053999999946,
-1.10042296704102,0.290177241210937,0.0182438166503882,1.13818556244319,0.163824999999633,
-1.05493313549805,0.359609089355469,-0.0631590397949235,1.11632955789347,0.167655999999624,
-1.03099111889648,0.311725056152344,-0.0583706364746117,1.0786669222142,0.171693000000232,
-1.05014473217773,0.318907661132813,-0.0775242497558626,1.10023454960752,0.175650000000132,
-1.10999977368164,0.342849677734375,-0.0583706364746117,1.16320786203426,0.179498999999851,
-1.0573273371582,0.345243879394531,-0.0655532414550812,1.11419552217136,0.183363000000099,
-1.06450994213867,0.328484467773438,-0.113437274658205,1.1197997489562,0.187229999999545,
-1.0573273371582,0.323696064453125,-0.0320344182128931,1.10623073723104,0.191119999999501,
-1.08605775708008,0.328484467773438,-0.0224576115722677,1.13486908566572,0.194938999999977,
-1.02380851391602,0.326090266113281,-0.0966778630371117,1.0788259099698,0.1988309999997,
-1.06450994213867,0.290177241210937,-0.0559764348144558,1.10477038767493,0.202701000000161,
-1.07169254711914,0.33327287109375,-0.0392170231933626,1.12300209130078,0.206500999999662,
-1.02620271557617,0.321301862792969,-0.0248518132324236,1.07561355193726,0.210274000000027,
-1.06690414379883,0.354820686035156,-0.0272460148925813,1.12468863096463,0.214019000000008,
-1.10999977368164,0.342849677734375,-0.120619879638674,1.16798739482064,0.217779999999948,
-1.10999977368164,0.309330854492188,-0.051188031494144,1.1534319614448,0.221591999999873,
-1.08605775708008,0.299754047851563,-0.0440054265136745,1.12752402124294,0.225378000000092,
-1.08845195874023,0.292571442871094,-0.0487938298339863,1.12814296678169,0.229115999999522,
-1.11478817700195,0.345243879394531,-0.0559764348144558,1.16836611432259,0.232860000000073,
-1.08845195874023,0.340455476074219,-0.0440054265136745,1.14130367354049,0.236592000000201,
-1.04056792553711,0.330878669433594,-0.0224576115722677,1.09213856532048,0.240483999999924,
-1.10281716870117,0.352426484375,-0.0703416447753931,1.15989572008034,0.244434000000183,
-1.11718237866211,0.309330854492188,-0.0392170231933626,1.15987931253305,0.248332999999548,
-1.09324036206055,0.323696064453125,-0.0296402165527372,1.14054029907672,0.252155999999559,
-1.04775053051758,0.357214887695313,-0.0128808049316422,1.10704542152828,0.255946000000222,
-1.08126935375977,0.352426484375,-0.0607648381347676,1.13887673074066,0.25979499999994,
-1.08126935375977,0.33327287109375,0.0206380183105441,1.13165372344499,0.263664000000063,
-1.04296212719727,0.316513459472656,-0.0104866032714863,1.08998198959587,0.267487000000074,
-1.06211574047852,0.338061274414063,0.0134554133300764,1.11470010297773,0.271385999999438,
-1.1123939753418,0.338061274414063,-0.0368228215332049,1.16321180436791,0.275251999999455,
-1.10281716870117,0.338061274414063,-0.0559764348144558,1.15482660780529,0.2790559999994,
-1.07887515209961,0.328484467773438,-0.00569819995117449,1.12778814893092,0.282850999999937,
-1.08126935375977,0.304542451171875,-0.0847068547363303,1.12652774985136,0.286651999999776,
-1.08126935375977,0.309330854492188,-0.0392170231933626,1.12532971516311,0.290446999999403,
-1.0956345637207,0.347638081054688,0.130771294677732,1.15687875947764,0.294251999999688,
-0.973530279052735,0.247081611328125,-0.348069037353518,1.06299698101792,0.298139999999876,
-1.28238229321289,0.0675164868164062,0.518631963623044,1.38493391020275,0.301932999999735,
-0.777205742919922,0.646913288574219,-0.860428192626955,1.32773575851105,0.305757999999514,
-1.02141431225586,0.958159504394531,1.06211574047851,1.75768218950836,0.308720999999423,
-1.46434161938477,-0.708204851074219,-0.355251642333988,1.66494871354299,0.311727000000246,
-1.07648095043945,-0.803972917480469,-0.661709454833987,1.49767923512272,0.314833999999792,
-0.571304400146485,2.59100503662109,0.671860869873045,2.73698608799701,0.317911000000095,
-1.36857355297852,1.30053034179688,-0.0894952580566439,1.89007463901857,0.320982999999615,
-1.3805445612793,-2.33147357666016,-0.589883405029299,2.7730190687897,0.323935999999776,
-0.413287090576172,-0.418506450195312,0.43244070385742,0.730040293713093,0.32687900000019,
-1.23449826000977,2.61494705322266,-0.16132130786133,2.89619726702017,0.329901999999493,
-1.67263716381836,0.498472785644531,-0.185263324462893,1.7551389401428,0.332924999999705,
-0.609611626708984,-0.818338127441406,0.104435076416014,1.02577303114729,0.335963999999876,
-0.662284063232422,0.376368500976562,-0.173292316162112,0.781219339097427,0.338947999999618,
-1.55771548413086,0.48650177734375,-0.072735846435549,1.63353971859161,0.341934000000037,
-1.46434161938477,0.0962469067382812,-0.146956097900393,1.47484098804895,0.344967999999426,
-0.652707256591797,0.60142345703125,-0.034428619873049,0.888212962831197,0.348000999999385,
-0.652707256591797,0.73549875,0.0421858332519509,0.984258512072064,0.351080999999795,
-1.38772716625977,-0.138384855957031,-0.0583706364746117,1.39583100249853,0.354040000000168,
-1.32308372143555,-0.212605107421875,-0.249906769287112,1.36315988019202,0.356979999999567,
-1.02380851391602,0.737892951660156,-0.000909796630862658,1.26201058197092,0.360012999999526,
-0.875368010986328,0.917458076171875,0.0637336481933577,1.26966942709636,0.362991999999394,
-0.920857842529297,0.282994636230469,-0.134985089599612,0.97277238072282,0.366036999999778,
-1.29435330151367,-0.214999309082031,-0.120619879638674,1.31762070695976,0.368988000000172,
-1.30632430981445,0.02681505859375,-0.134985089599612,1.31355366247208,0.372011999999813,
-0.90649263256836,0.816901606445312,-0.000909796630862658,1.22026962399445,0.374985999999808,
-0.954376665771484,0.800142194824219,-0.0224576115722677,1.24561900131009,0.377939999999398,
-1.1890084284668,-0.0617704028320313,-0.0248518132324236,1.19087120976706,0.380989000000227,
-1.10521137036133,-0.155144267578125,-0.0463996281738304,1.11701156772568,0.38394100000005,
-1.02141431225586,0.5439626171875,-0.0080924016113304,1.15725883584548,0.386962999999923,
-1.1339417902832,0.79295958984375,0.0278206232910136,1.38397358426964,0.389940000000024,
-1.09084616040039,0.290177241210937,0.00387860668945095,1.1287883860879,0.392879999999423,
-0.995078093994141,-0.0545877978515625,-0.0871010563964862,1.00037334772908,0.395921000000271,
-1.10760557202148,0.244687409667969,-0.0918894597167998,1.13802711058661,0.39888400000018,
-1.16746061352539,0.634942280273438,-0.0296402165527372,1.32928346331744,0.401936000000205,
-1.08126935375977,0.484107575683594,-0.0392170231933626,1.18534447951743,0.404910999999629,
-0.971136077392578,0.146525141601562,-0.0320344182128931,0.982650040393344,0.40787199999977,
-1.0573273371582,0.199197578125,-0.0416112248535185,1.0767322169726,0.410928999999669,
-1.17464321850586,0.455377155761719,0.00627280834960686,1.25983903451831,0.413899999999558,
-1.10281716870117,0.436223542480469,-0.0583706364746117,1.18739370800031,0.416932000000088,
-1.04296212719727,0.287783039550781,-0.0751300480957049,1.08454303775728,0.419925000000148,
-1.00944330395508,0.304542451171875,-0.0655532414550812,1.05641805926006,0.422875000000204,
-1.09084616040039,0.347638081054688,-0.0272460148925813,1.14522483660947,0.42593399999987,
-1.16267221020508,0.280600434570312,-0.0224576115722677,1.19626402461235,0.428898000000117,
-1.0573273371582,0.340455476074219,-0.0559764348144558,1.11219799961406,0.431958999999551,
-1.01183750561523,0.373974299316406,-0.0248518132324236,1.07902248676281,0.434927999999672,
-1.04056792553711,0.33327287109375,-0.0559764348144558,1.09406845102042,0.437907999999879,
-1.10521137036133,0.282994636230469,-0.0487938298339863,1.14191023077169,0.440943999999945,
-1.10999977368164,0.335667072753906,-0.0583706364746117,1.16111111118055,0.443925999999919,
-1.06211574047852,0.335667072753906,-0.0871010563964862,1.11729531634603,0.446963999999753,
-1.0357795222168,0.326090266113281,-0.142167694580081,1.09516470618793,0.449999999999818,
-1.06690414379883,0.27581203125,-0.0463996281738304,1.10295496468896,0.453037999999651,
-1.10521137036133,0.335667072753906,-0.0799184514160185,1.15782188430858,0.456173999999919,
-1.0573273371582,0.33327287109375,-0.0104866032714863,1.10865768989229,0.459224999999606,
-1.0357795222168,0.33327287109375,-0.051188031494144,1.08927968851851,0.462287999999717,
-1.10521137036133,0.309330854492188,-0.113437274658205,1.15327610137326,0.465240999999878,
-1.1123939753418,0.3141192578125,0.0110612116699187,1.15594706406003,0.468316999999843,
-1.03099111889648,0.311725056152344,-0.0775242497558626,1.0798727736066,0.471305999999458,
-1.04535632885742,0.383551105957031,-0.0751300480957049,1.11603128508568,0.474376999999549,
-1.08126935375977,0.316513459472656,-0.0823126530761744,1.12964576671798,0.477452999999514,
-1.0956345637207,0.318907661132813,-0.103860468017581,1.14582031329763,0.480456000000231,
-1.01662590893555,0.29496564453125,-0.0918894597167998,1.06253312559177,0.483502999999473,
-1.10042296704102,0.335667072753906,-0.0272460148925813,1.15080208352699,0.486499999999978,
-1.05493313549805,0.340455476074219,-0.106254669677737,1.11359054700953,0.489478999999847,
-1.05253893383789,0.330878669433594,0.039791631591795,1.10403907316521,0.492530999999872,
-1.09084616040039,0.364397492675781,-0.0631590397949235,1.1518332963743,0.4955259999997,
-1.06211574047852,0.330878669433594,-0.0679474431152371,1.11453460919088,0.498596999999791,
-1.04296212719727,0.280600434570312,0.0326090266113255,1.08054150834914,0.50155900000027,
-1.0740867487793,0.290177241210937,-0.0416112248535185,1.11337175698591,0.504519000000073,
-1.12197078198242,0.488895979003906,-0.101466266357424,1.22806071393761,0.507598000000144,
-1.07169254711914,0.400310517578125,-0.0080924016113304,1.14404497857305,0.510553000000073,
-1.02141431225586,0.074699091796875,-0.0128808049316422,1.02422315280025,0.513605000000098,
-1.05253893383789,0.311725056152344,-0.0655532414550812,1.09968538470921,0.516620999999759,
-1.15548960522461,0.570298835449219,0.0350032282714814,1.28903926064581,0.519575999999688,
-1.08366355541992,0.309330854492188,0.00148440502929503,1.12694919244148,0.522618999999395,
-0.932828850830078,0.211168586425781,-0.0392170231933626,0.957235504848298,0.525552000000062,
-1.02859691723633,0.424252534179688,-0.051188031494144,1.11383214420945,0.528605999999854,
-1.18182582348633,0.33327287109375,-0.0823126530761744,1.23067398466151,0.53157899999951,
-1.07648095043945,0.3141192578125,-0.0631590397949235,1.12315235346569,0.534531999999672,
-0.966347674072266,0.400310517578125,-0.0320344182128931,1.04647147195649,0.537583999999697,
-1.01423170727539,0.292571442871094,-0.034428619873049,1.05614834899875,0.540603999999803,
-1.06211574047852,0.225533796386719,-0.0487938298339863,1.08689290057241,0.543727999999646,
-1.14112439526367,0.402704719238281,-0.051188031494144,1.21117966913704,0.546707999999853,
-1.10281716870117,0.354820686035156,-0.0847068547363303,1.16158455484732,0.549645999999484,
-1.01662590893555,0.263841022949219,-0.0775242497558626,1.05316206417157,0.552698999999848,
-1.0573273371582,0.359609089355469,-0.0583706364746117,1.11833220746412,0.555652000000009,
-1.12197078198242,0.335667072753906,-0.113437274658205,1.17658779299945,0.558743999999933,
-1.08845195874023,0.306936652832031,-0.0942836613769558,1.13482473719065,0.561736999999994,
-1.06450994213867,0.400310517578125,-0.0487938298339863,1.13833684172376,0.564878000000135,
-1.05014473217773,0.385945307617187,-0.00330399829101857,1.11882467589747,0.567884999999478,
-1.09802876538086,0.316513459472656,-0.072735846435549,1.14504953735105,0.570923000000221,
-1.10281716870117,0.271023627929687,-0.0990720646972676,1.13994508134454,0.574039999999513,
-1.07169254711914,0.306936652832031,-0.0583706364746117,1.11630737505621,0.57707500000015,
-1.06450994213867,0.381156904296875,-0.0631590397949235,1.13245356059888,0.58017000000018,
-1.05014473217773,0.321301862792969,-0.0440054265136745,1.09907930701907,0.583246999999574,
-1.06211574047852,0.268629426269531,-0.0368228215332049,1.09617860543608,0.586212999999589,
-1.12675918530273,0.340455476074219,-0.0799184514160185,1.17978097616877,0.589277000000038,
-1.08366355541992,0.373974299316406,-0.072735846435549,1.14868358622,0.592305999999553,
-1.05014473217773,0.342849677734375,-0.0655532414550812,1.10663773996212,0.595428999999967,
-1.05014473217773,0.345243879394531,-0.0440054265136745,1.10631540364522,0.598426999999901,
-1.07648095043945,0.3141192578125,-0.0607648381347676,1.12302026265836,0.601388000000043,
-1.11957658032227,0.342849677734375,-0.0583706364746117,1.17235009785094,0.604435000000194,
-1.07887515209961,0.373974299316406,-0.0871010563964862,1.14517027746643,0.607479000000239,
-1.06450994213867,0.304542451171875,-0.0751300480957049,1.10976215722321,0.610548999999992,
-1.04535632885742,0.297359846191406,-0.072735846435549,1.08925811255457,0.613558999999441,
-1.10760557202148,0.354820686035156,-0.0703416447753931,1.16517628254321,0.616656999999577,
-1.06929834545898,0.338061274414063,-0.0894952580566439,1.12503056761779,0.619725999999901,
-1.08126935375977,0.340455476074219,-0.0894952580566439,1.13712916934868,0.622787999999673,
-1.05493313549805,0.321301862792969,0.0110612116699187,1.10283324116096,0.625855000000229,
-1.06450994213867,0.335667072753906,-0.0176692082519558,1.11631805573658,0.628864999999678,
-1.04775053051758,0.357214887695313,-0.0631590397949235,1.10877081243098,0.631867000000057,
-1.08605775708008,0.330878669433594,-0.0272460148925813,1.13566918199249,0.634973000000173,
-1.06450994213867,0.311725056152344,-0.0368228215332049,1.10982424181981,0.638001999999688,
-1.07169254711914,0.345243879394531,-0.00330399829101857,1.12593479749709,0.641107999999804,
-1.09084616040039,0.342849677734375,-0.0416112248535185,1.14421271676933,0.644081999999798,
-1.05493313549805,0.330878669433594,-0.0320344182128931,1.10606998793391,0.647066999999879,
-1.06211574047852,0.335667072753906,-0.0894952580566439,1.11748451046,0.650193999999829,
-1.07169254711914,0.323696064453125,-0.0559764348144558,1.12090919299812,0.653161999999611,
-1.04056792553711,0.309330854492188,-0.0248518132324236,1.08585671145801,0.656296000000111,
-1.07648095043945,0.268629426269531,-0.0368228215332049,1.11010311480627,0.659313000000111,
-1.03817372387695,0.350032282714844,-0.0894952580566439,1.09924368595218,0.662395999999717,
-1.05972153881836,0.345243879394531,0.00148440502929503,1.11454263245209,0.665382000000136,
-1.05493313549805,0.350032282714844,-0.0631590397949235,1.1132814485215,0.668373999999858,
-1.04296212719727,0.338061274414063,-0.0200634099121118,1.09656644324163,0.671456999999464,
-1.0573273371582,0.304542451171875,0.00627280834960686,1.10033020070905,0.674425000000156,
-1.12436498364258,0.345243879394531,-0.0368228215332049,1.17675225637626,0.677459999999883,
-1.06929834545898,0.347638081054688,-0.0368228215332049,1.12499204761028,0.6805260000001,
-1.03817372387695,0.350032282714844,-0.0751300480957049,1.09816747539616,0.683532999999443,
-1.05972153881836,0.328484467773438,-0.0224576115722677,1.10969190756781,0.686651999999413,
-1.08605775708008,0.311725056152344,-0.0463996281738304,1.13086112668252,0.689666999999645,
-1.07648095043945,0.316513459472656,0.0134554133300764,1.12212880492137,0.692771999999422,
-1.03817372387695,0.330878669433594,-0.103860468017581,1.09456492345202,0.695722999999816,
-1.05493313549805,0.3141192578125,-0.0703416447753931,1.10295184640587,0.698763999999755,
-1.0740867487793,0.347638081054688,-0.0320344182128931,1.12939841652665,0.701853999999912,
-1.11478817700195,0.330878669433594,-0.0703416447753931,1.16498125326513,0.704889999999978,
-1.08126935375977,0.330878669433594,-0.0751300480957049,1.13325576697984,0.70799100000022,
-1.0740867487793,0.340455476074219,-0.108648871337893,1.13197917486816,0.711059999999634,
-1.09084616040039,0.378762702636719,-0.0296402165527372,1.15511258023027,0.7140559999998,
-1.0573273371582,0.342849677734375,-0.0416112248535185,1.11230323808682,0.71716699999979,
-1.10999977368164,0.316513459472656,-0.0703416447753931,1.15638584157294,0.720163999999386,
-1.06929834545898,0.3141192578125,-0.0272460148925813,1.11481487479201,0.723343999999997,
-1.09084616040039,0.352426484375,-0.0152750065917999,1.14646548067335,0.726388000000043,
-1.05014473217773,0.330878669433594,-0.0272460148925813,1.10137504862527,0.729397999999492,
-1.05972153881836,0.357214887695313,-0.0296402165527372,1.11870047745767,0.732468999999583,
-1.07169254711914,0.352426484375,-0.0368228215332049,1.12875385386952,0.735504000000219,
-1.07648095043945,0.335667072753906,-0.101466266357424,1.13215680168372,0.738631000000169,
-1.1123939753418,0.330878669433594,-0.0559764348144558,1.16190981212718,0.741587999999865,
-1.08366355541992,0.378762702636719,-0.0799184514160185,1.15072796313062,0.744531000000279,
-1.06690414379883,0.347638081054688,-0.000909796630862658,1.12211296899395,0.747582999999395,
-1.08366355541992,0.330878669433594,-0.0416112248535185,1.1338160738256,0.750589000000218,
-1.06450994213867,0.316513459472656,-0.0559764348144558,1.11197821390258,0.753670999999486,
-1.10281716870117,0.359609089355469,-0.0272460148925813,1.16028735667362,0.756723999999849,
-1.05014473217773,0.304542451171875,-0.034428619873049,1.09395401775065,0.759801000000152,
-1.07887515209961,0.330878669433594,-0.0440054265136745,1.12933111409664,0.762823000000026,
-1.05253893383789,0.338061274414063,0.00627280834960686,1.10551480344121,0.765822999999727,
-1.07887515209961,0.326090266113281,-0.0559764348144558,1.1284679068216,0.768911999999546,
-1.0573273371582,0.335667072753906,-0.0272460148925813,1.10966473628784,0.771907000000283,
-1.04296212719727,0.311725056152344,-0.0152750065917999,1.08865781365285,0.774929999999586,
-1.0573273371582,0.352426484375,-0.0631590397949235,1.11630398597282,0.777963999999884,
-1.08126935375977,0.304542451171875,-0.0535822331542999,1.1246157457797,0.780963999999585,
-1.05253893383789,0.342849677734375,-0.0631590397949235,1.10877101922578,0.78404799999953,
-1.06211574047852,0.297359846191406,-0.0487938298339863,1.10403512721701,0.78703299999961,
-1.06211574047852,0.345243879394531,-0.0583706364746117,1.11834266378157,0.790125999999873,
-1.09324036206055,0.299754047851563,-0.0751300480957049,1.13607724322272,0.793085999999676,
-1.07887515209961,0.318907661132813,0.00148440502929503,1.12502261915281,0.796057999999903,
-1.07887515209961,0.366791694335938,-0.0320344182128931,1.13997102805379,0.799159000000145,
-1.06929834545898,0.352426484375,-0.0487938298339863,1.12693576406116,0.802152000000206,
-1.07887515209961,0.335667072753906,-0.0894952580566439,1.13342550649073,0.80522000000019,
-1.09084616040039,0.347638081054688,-0.0775242497558626,1.14752237030912,0.808184999999867,
-1.0573273371582,0.345243879394531,0.00627280834960686,1.11228313944159,0.8111600000002,
-1.06690414379883,0.350032282714844,-0.034428619873049,1.12338434245099,0.814228999999614,
-1.08605775708008,0.352426484375,-0.0631590397949235,1.14355364671298,0.817208999999821,
-1.08366355541992,0.33327287109375,-0.0176692082519558,1.13389140082843,0.820259000000078,
-1.05253893383789,0.297359846191406,0.0110612116699187,1.09379314121784,0.823285999999825,
-1.06450994213867,0.3141192578125,-0.0463996281738304,1.11085788944195,0.826309999999467,
-1.07169254711914,0.309330854492188,-0.0823126530761744,1.11847479450724,0.829399999999623,
-1.04056792553711,0.335667072753906,-0.0679474431152371,1.09547745134881,0.832366999999977,
-1.06450994213867,0.345243879394531,-0.0463996281738304,1.12005699795418,0.835452000000259,
-1.10999977368164,0.309330854492188,0.00148440502929503,1.15229652371794,0.838415999999597,
-1.0740867487793,0.345243879394531,-0.072735846435549,1.13055127416644,0.841421999999511,
-1.07887515209961,0.328484467773438,-0.0416112248535185,1.12854115273665,0.844532000000072,
-1.07887515209961,0.340455476074219,-0.0392170231933626,1.13199801232821,0.847592999999506,
-1.06690414379883,0.354820686035156,-0.0894952580566439,1.12791470090082,0.850687000000107,
-1.00944330395508,0.330878669433594,-0.0368228215332049,1.06292633703919,0.853710999999748,
-1.09802876538086,0.318907661132813,-0.0463996281738304,1.14434356354536,0.856780999999501,
-1.05253893383789,0.338061274414063,-0.0871010563964862,1.10892300297561,0.859811999999692,
-1.08605775708008,0.340455476074219,-0.0392170231933626,1.13884562510065,0.862831999999798,
-1.06211574047852,0.335667072753906,-0.0607648381347676,1.11555125182886,0.865998000000218,
-1.1123939753418,0.323696064453125,-0.12301408129883,1.16504590584104,0.868972999999642,
-1.05493313549805,0.326090266113281,0.0182438166503882,1.10433311046602,0.872024000000238,
-1.08605775708008,0.326090266113281,-0.0296402165527372,1.13434335886668,0.875058999999965,
-1.09084616040039,0.318907661132813,-0.034428619873049,1.13702804356614,0.87806399999954,
-1.08845195874023,0.290177241210937,-0.0320344182128931,1.12692355630383,0.881153999999697,
-1.05253893383789,0.311725056152344,-0.0320344182128931,1.09819712339271,0.884124999999585,
-1.07887515209961,0.362003291015625,-0.0128808049316422,1.13806146216265,0.887187000000267,
-1.0573273371582,0.359609089355469,-0.0104866032714863,1.1168570919761,0.890199999999822,
-1.06929834545898,0.316513459472656,-0.0631590397949235,1.11694618757418,0.893153999999413,
-1.05972153881836,0.326090266113281,-0.0463996281738304,1.10972858257506,0.896244999999908,
-1.05972153881836,0.345243879394531,-0.072735846435549,1.11691252094854,0.899319000000105,
-1.07169254711914,0.311725056152344,-0.00569819995117449,1.11612270636636,0.902398000000176,
-1.07887515209961,0.3141192578125,-0.12301408129883,1.13038708686203,0.905450000000201,
-1.05493313549805,0.335667072753906,-0.0368228215332049,1.10766069908099,0.908411999999771,
-1.04296212719727,0.362003291015625,-0.0894952580566439,1.10762167850246,0.911505999999463,
-1.0740867487793,0.357214887695313,-0.0894952580566439,1.13546211786615,0.91449399999965,
-1.08605775708008,0.304542451171875,-0.0751300480957049,1.13044773448685,0.917590999999447,
-1.06690414379883,0.33327287109375,-0.0487938298339863,1.11881012530816,0.920614999999998,
-1.08366355541992,0.330878669433594,-0.0272460148925813,1.13337978654951,0.92360699999972,
-1.10760557202148,0.290177241210937,-0.0823126530761744,1.14794089889082,0.926688999999897,
-1.10521137036133,0.323696064453125,-0.0392170231933626,1.1523060748892,0.929656999999679,
-1.07648095043945,0.323696064453125,-0.0080924016113304,1.12412448855334,0.932789999999841,
-1.06211574047852,0.330878669433594,-0.051188031494144,1.11363852062804,0.935735999999451,
-1.05014473217773,0.306936652832031,-0.0463996281738304,1.09506483500615,0.938775999999962,
-1.09802876538086,0.347638081054688,-0.0392170231933626,1.1524137190746,0.941851999999926,
-1.06211574047852,0.326090266113281,-0.0416112248535185,1.11182561665932,0.944856000000073,
-1.04775053051758,0.369185895996094,-0.00330399829101857,1.11089617715024,0.947911999999633,
-1.1123939753418,0.364397492675781,-0.0463996281738304,1.17147719335026,0.950898999999481,
-1.06929834545898,0.3141192578125,-0.103860468017581,1.11931088467272,0.953950999999506,
-1.06211574047852,0.323696064453125,-0.0463996281738304,1.11131539798985,0.956959000000097,
-1.06690414379883,0.383551105957031,-0.0272460148925813,1.13408035353034,0.959920000000238,
-1.07169254711914,0.366791694335938,-0.0679474431152371,1.13475896894911,0.963034999999763,
-1.06450994213867,0.309330854492188,-0.0799184514160185,1.11141979167625,0.966034000000036,
-1.04535632885742,0.316513459472656,-0.0559764348144558,1.09365624652546,0.969100000000253,
-1.09324036206055,0.316513459472656,-0.0248518132324236,1.13840804278895,0.972133000000213,
-1.06450994213867,0.345243879394531,-0.0823126530761744,1.12211858821958,0.975152999999409,
-1.05253893383789,0.316513459472656,-0.0080924016113304,1.09912895705454,0.97820799999954,
-1.04296212719727,0.345243879394531,-0.0368228215332049,1.09923575961342,0.981240000000071,
-1.04535632885742,0.359609089355469,-0.0392170231933626,1.1061765348883,0.984349000000293,
-1.05014473217773,0.328484467773438,-0.0463996281738304,1.10129874674573,0.987406000000192,
-1.07648095043945,0.350032282714844,-0.0487938298339863,1.13301132978954,0.990409999999429,
-1.06929834545898,0.345243879394531,-0.0655532414550812,1.12556186650311,0.993563999999424,
-1.09802876538086,0.328484467773438,-0.0320344182128931,1.14655807490177,0.996564000000035,
-1.07887515209961,0.306936652832031,-0.051188031494144,1.1228543615438,0.999659000000065,
-1.04296212719727,0.33327287109375,-0.0583706364746117,1.0964706729217,1.00264199999947,
-1.0357795222168,0.345243879394531,-0.0440054265136745,1.09268890012926,1.00569499999983,
-1.06450994213867,0.350032282714844,-0.0104866032714863,1.12063106538362,1.00883499999964,
-1.0740867487793,0.316513459472656,0.0302148249511696,1.12015893942666,1.01181600000018,
-1.07648095043945,0.323696064453125,-0.0224576115722677,1.1243196712319,1.01485499999944,
-1.08126935375977,0.350032282714844,0.0182438166503882,1.13666127371728,1.01788299999953,
-1.07169254711914,0.304542451171875,-0.0559764348144558,1.11552874520158,1.02091399999972,
-1.06929834545898,0.347638081054688,-0.0176692082519558,1.12452807342501,1.02397000000019,
-1.09324036206055,0.29496564453125,-0.0847068547363303,1.13549745571328,1.02692599999955,
