X,Y,Z,Magnitude,Seconds,
-1.07169254711914,0.316513459472656,-0.0607648381347676,1.11910591595774,0.0,
-1.08126935375977,0.340455476074219,-0.0440054265136745,1.13445573916819,0.003882999999405,
-1.06450994213867,0.326090266113281,-0.034428619873049,1.11386785950232,0.00771699999950215,
-1.05972153881836,0.335667072753906,-0.0751300480957049,1.11414839572365,0.011529999999766,
-1.0573273371582,0.350032282714844,-0.00569819995117449,1.11377563554214,0.0153389999995852,
-1.08126935375977,0.323696064453125,-0.0583706364746117,1.13019011176216,0.0190929999998843,
-1.08126935375977,0.330878669433594,-0.0751300480957049,1.13325576697984,0.0228219999999055,
-1.07887515209961,0.3141192578125,-0.0847068547363303,1.12686190510903,0.0265739999995276,
-1.05253893383789,0.330878669433594,-0.000909796630862658,1.10332213286087,0.0304299999997966,
-1.08366355541992,0.338061274414063,-0.000909796630862658,1.13517089212758,0.0341669999997976,
-1.11957658032227,0.316513459472656,-0.0224576115722677,1.16367385188075,0.0378989999999249,
-1.09802876538086,0.316513459472656,0.0158496149902323,1.14284694947596,0.0416529999993145,
-1.03099111889648,0.318907661132813,-0.0535822331542999,1.08051646876965,0.0453949999991892,
-1.08605775708008,0.340455476074219,0.0110612116699187,1.13822393811866,0.0493159999996351,
-1.07887515209961,0.342849677734375,-0.0416112248535185,1.13280580391095,0.0533049999994546,
-1.05014473217773,0.302148249511719,-0.0775242497558626,1.09549419555918,0.0571009999994203,
-1.08126935375977,0.318907661132813,-0.034428619873049,1.12784344728141,0.0609099999992395,
-1.05493313549805,0.364397492675781,-0.0799184514160185,1.11895326618982,0.0646769999993921,
-1.04775053051758,0.321301862792969,-0.0631590397949235,1.09772725462289,0.0685119999998278,
-1.06211574047852,0.306936652832031,-0.0128808049316422,1.10565178521976,0.0723199999993085,
-1.06450994213867,0.326090266113281,-0.0463996281738304,1.11430211525447,0.0761099999999715,
-1.0956345637207,0.321301862792969,-0.0631590397949235,1.14352046267721,0.0800099999996746,
-1.05972153881836,0.316513459472656,-0.0775242497558626,1.10869315825575,0.0838049999993018,
-1.07169254711914,0.297359846191406,-0.0679474431152371,1.11425519909202,0.0876089999992473,
-1.03817372387695,0.318907661132813,-0.0918894597167998,1.08993139696257,0.091363999999885,
-1.06450994213867,0.3141192578125,-0.0703416447753931,1.11211522425982,0.0951369999993403,
-1.05972153881836,0.330878669433594,-0.0463996281738304,1.11114506668408,0.0988809999998921,
-1.06211574047852,0.345243879394531,-0.0966778630371117,1.12099500071724,0.102689999999711,
-1.05253893383789,0.316513459472656,-0.0368228215332049,1.09971582577392,0.106440999999904,
-1.05972153881836,0.316513459472656,-0.072735846435549,1.10836862695567,0.11015899999984,
-1.10521137036133,0.335667072753906,-0.0152750065917999,1.15516140981835,0.113878999999542,
-1.06211574047852,0.350032282714844,-0.0631590397949235,1.12008995595113,0.117628999999397,
-1.07648095043945,0.316513459472656,-0.144561896240237,1.13132230090764,0.121623,
-1.08126935375977,0.3141192578125,0.0302148249511696,1.12637793797445,0.125549999999748,
-1.08845195874023,0.347638081054688,-0.0176692082519558,1.1427563619622,0.129355999999461,
-1.02141431225586,0.323696064453125,-0.0942836613769558,1.07561877457871,0.133144999999786,
-1.06450994213867,0.3141192578125,-0.0918894597167998,1.1136857715926,0.136969999999565,
-1.07887515209961,0.290177241210937,-0.0703416447753931,1.1194294851059,0.140805999999429,
-1.08366355541992,0.342849677734375,-0.0176692082519558,1.13674306850236,0.144626999999673,
-1.09084616040039,0.316513459472656,-0.0679474431152371,1.13786772988495,0.148400999999467,
-1.06450994213867,0.3141192578125,-0.0416112248535185,1.11066818585686,0.152328999999554,
-1.03338532055664,0.33327287109375,-0.000909796630862658,1.08579779658965,0.156113000000005,
-1.04535632885742,0.311725056152344,-0.0440054265136745,1.09173203785457,0.159871999999268,
-1.06929834545898,0.282994636230469,-0.0751300480957049,1.10866110234977,0.163633999999547,
-1.03099111889648,0.33327287109375,-0.034428619873049,1.08406587609649,0.167378999999528,
-1.09084616040039,0.340455476074219,0.0445800349121068,1.14360948595312,0.171117999999296,
-1.05253893383789,0.352426484375,-0.0368228215332049,1.11058478033836,0.174919999999474,
-1.06690414379883,0.330878669433594,-0.0272460148925813,1.11736631919384,0.178664999999455,
-1.10999977368164,0.321301862792969,-0.051188031494144,1.15669987428709,0.182386999999835,
-1.07648095043945,0.328484467773438,-0.0368228215332049,1.12608578821202,0.186096999999791,
-1.09324036206055,0.318907661132813,-0.0440054265136745,1.13965479998556,0.189951999999721,
-1.05972153881836,0.328484467773438,-0.0248518132324236,1.10974294231813,0.193900999999641,
-1.09084616040039,0.335667072753906,-0.0080924016113304,1.1413514867714,0.197682999999415,
-1.08366355541992,0.321301862792969,-0.0392170231933626,1.13097283932362,0.201572999999371,
-1.08366355541992,0.342849677734375,-0.0679474431152371,1.1386349098345,0.205332999999882,
-1.05972153881836,0.3141192578125,0.00627280834960686,1.1053144331315,0.209149999999681,
-1.12436498364258,0.330878669433594,-0.0918894597167998,1.17563641621667,0.212971999999354,
-1.08126935375977,0.304542451171875,-0.0200634099121118,1.12351771697786,0.216716999999335,
-1.04775053051758,0.330878669433594,-0.0583706364746117,1.10030404856497,0.220463999999993,
-1.06690414379883,0.326090266113281,-0.0248518132324236,1.11590184439756,0.224299999999857,
-1.06929834545898,0.335667072753906,-0.072735846435549,1.12310366337627,0.22807499999999,
-1.10760557202148,0.309330854492188,-0.101466266357424,1.15445705157118,0.231782999999268,
-1.03338532055664,0.321301862792969,-0.0871010563964862,1.08568259717174,0.235514999999396,
-1.08366355541992,0.326090266113281,-0.0607648381347676,1.13329339914813,0.239244999999755,
-1.12915338696289,0.33327287109375,-0.0535822331542999,1.17852841866738,0.242968999999903,
-1.0357795222168,0.350032282714844,-0.034428619873049,1.09386797533001,0.246764999999868,
-1.06450994213867,0.321301862792969,-0.0871010563964862,1.11534877862115,0.250514999999723,
-1.07648095043945,0.33327287109375,-0.0440054265136745,1.12774931648339,0.254230999999891,
-1.10042296704102,0.347638081054688,-0.051188031494144,1.15516369245185,0.257958999999573,
-1.07169254711914,0.302148249511719,-0.0224576115722677,1.11369781563548,0.261872999999468,
-1.09084616040039,0.335667072753906,-0.111043072998049,1.14671194877018,0.265749999999571,
-1.06450994213867,0.261446821289062,-0.101466266357424,1.10083207642344,0.269507999999405,
-1.07648095043945,0.323696064453125,-0.051188031494144,1.12526023362141,0.273408000000018,
-1.06690414379883,0.378762702636719,-0.0535822331542999,1.13340932265161,0.277160999999978,
-1.06211574047852,0.290177241210937,-0.0607648381347676,1.10271711832299,0.280981999999312,
-1.09084616040039,0.352426484375,-0.0416112248535185,1.14711868025196,0.284764999999425,
-1.04296212719727,0.340455476074219,-0.0631590397949235,1.09893994115447,0.288538999999219,
-1.10281716870117,0.29496564453125,-0.0440054265136745,1.1424302677181,0.292304999999942,
-1.02141431225586,0.443406147460938,0.154713311279295,1.12420301439476,0.296179999999367,
-1.25844027661133,-0.140779057617188,-0.460596515380862,1.34745679813572,0.299927999999454,
-0.808330364501953,0.656490095214844,-0.90831222583008,1.38181341826002,0.303507999999965,
-0.985501287353516,1.07308118408203,1.14351859692383,1.85212062148149,0.306460999999217,
-1.4954662409668,-0.638773002929688,-0.31455021411133,1.65631882931417,0.309360999999626,
-1.02859691723633,-1.02184526855469,-0.671286261474611,1.59774986022852,0.312347000000045,
-0.583275408447266,2.45692974365234,0.671860869873045,2.61306544039935,0.315305999999509,
-1.48828363598633,1.48488386962891,-0.0440054265136745,2.10280877993969,0.318323999999848,
-1.43082279614258,-2.17106206542969,-0.697622479736332,2.6921072582909,0.321243999999751,
-0.190626336181641,-0.363439812011719,0.609611626708983,0.734883142016417,0.324169999999867,
-1.10042296704102,2.39946890380859,-0.249906769287112,2.65157219778593,0.327182999999422,
-1.93599934643555,0.213562788085938,-0.158927106201174,1.95421604715021,0.330133999999816,
-0.832272381103516,-0.614830986328125,0.193020537841795,1.05259269716527,0.333128999999644,
-0.386950872314453,0.709162531738281,-0.254695172607425,0.847060862604271,0.336055999999189,
-1.29674750317383,0.306936652832031,0.221750957763669,1.35090254389737,0.338983999999982,
-1.67742556713867,-0.0857124194335938,-0.264271979248049,1.7002772806667,0.341987999999219,
-0.908886834228516,0.780988581542969,-0.16132130786133,1.20914970384338,0.344919999999547,
-0.614400030029297,0.764229169921875,0.200203142822263,1.00080713399505,0.34795799999938,
-1.10042296704102,-0.1838746875,-0.204416937744144,1.13425168791202,0.350899000000027,
-1.27041128491211,-0.167115275878906,-0.180474921142581,1.29400291553981,0.353916999999456,
-1.19379683178711,0.618182868652344,-0.0679474431152371,1.34607495694188,0.357028999999784,
-0.992683892333985,0.804930598144531,0.0254264216308577,1.27827269424236,0.360084999999344,
-0.803541961181641,0.326090266113281,-0.0463996281738304,0.868428160833202,0.363113999999769,
-1.1123939753418,-0.128808049316406,-0.108648871337893,1.12508508442181,0.366031999999905,
-1.29914170483398,0.0339976635742187,-0.072735846435549,1.30162034162199,0.3690289999995,
-1.04535632885742,0.814507404785156,-0.0416112248535185,1.32586713541211,0.371979999999894,
-0.990289690673828,0.79295958984375,-0.0416112248535185,1.26932662329829,0.374943999999232,
-1.12197078198242,-0.124019645996094,-0.0320344182128931,1.12925883311377,0.377938999999969,
-1.06929834545898,-0.229364519042969,-0.072735846435549,1.09603719715794,0.380839999999807,
-1.0573273371582,0.326090266113281,-0.0631590397949235,1.10827118696811,0.383851999999933,
-1.2273156550293,0.737892951660156,0.00148440502929503,1.43205863310411,0.386810999999398,
-1.08126935375977,0.48650177734375,0.0613394465332,1.18726152234446,0.389736999999514,
-0.86818540600586,0.036391865234375,-0.0631590397949235,0.871240111200473,0.392772999999579,
-0.98310708569336,0.144130939941406,-0.0440054265136745,0.994590240929165,0.395751999999447,
-1.23689246166992,0.534385810546875,-0.0583706364746117,1.34865795791675,0.398768999999447,
-1.16027800854492,0.488895979003906,-0.0128808049316422,1.25913869392329,0.401711999999861,
-0.961559270751953,0.259052619628906,0.00866701000976278,0.995881322230785,0.404657000000043,
-0.961559270751953,0.170467158203125,-0.0607648381347676,0.978441438589159,0.407672999999704,
-1.09802876538086,0.383551105957031,0.0373974299316373,1.16369119110276,0.410624999999527,
-1.16746061352539,0.450588752441406,-0.00330399829101857,1.25140138419473,0.413648999999168,
-1.05972153881836,0.3141192578125,-0.00330399829101857,1.10530157168482,0.416599999999562,
-0.997472295654297,0.292571442871094,-0.0559764348144558,1.0410006681247,0.419542999999976,
-1.01662590893555,0.321301862792969,-0.0392170231933626,1.06691194606744,0.422571000000062,
-1.18661422680664,0.330878669433594,-0.051188031494144,1.23294534822688,0.425527999999758,
-1.18661422680664,0.299754047851563,-0.0679474431152371,1.22577431343997,0.428563999999824,
-1.00465490063477,0.37158009765625,-0.0847068547363303,1.07451314072142,0.431512999999541,
-1.02859691723633,0.29496564453125,-0.0272460148925813,1.07040118410311,0.434453999999278,
-1.09802876538086,0.29496564453125,-0.0176692082519558,1.13709458796434,0.437486999999237,
-1.15548960522461,0.33327287109375,-0.0607648381347676,1.20412599006198,0.440438999999969,
-1.03099111889648,0.381156904296875,0.00627280834960686,1.09920999861773,0.443456999999398,
-0.992683892333985,0.33327287109375,0.0278206232910136,1.04750470346759,0.446412999999666,
-1.0357795222168,0.326090266113281,-0.0655532414550812,1.08787467465823,0.449340999999549,
-1.10281716870117,0.304542451171875,-0.0200634099121118,1.14427022707276,0.452357999999549,
-1.0740867487793,0.342849677734375,-0.0463996281738304,1.12843306000866,0.455299999999625,
-1.05493313549805,0.330878669433594,-0.0368228215332049,1.10621902643353,0.458331999999245,
-1.08845195874023,0.287783039550781,-0.0392170231933626,1.12653660359825,0.461276999999427,
-1.07648095043945,0.3141192578125,-0.0631590397949235,1.12315235346569,0.464285999999447,
-1.08366355541992,0.357214887695313,-0.0296402165527372,1.1414060275703,0.467243000000053,
-1.06929834545898,0.359609089355469,-0.0871010563964862,1.13150529948992,0.470182000000023,
-1.06450994213867,0.328484467773438,-0.0248518132324236,1.11431641606028,0.473204999999325,
-1.08605775708008,0.316513459472656,0.00387860668945095,1.13124589074657,0.47616299999936,
-1.08126935375977,0.290177241210937,-0.0440054265136745,1.12039400402693,0.479160999999294,
-1.05972153881836,0.347638081054688,-0.0296402165527372,1.11567939735044,0.482124999999542,
-1.07887515209961,0.342849677734375,-0.0559764348144558,1.13342439385918,0.485055999999531,
-1.07648095043945,0.347638081054688,-0.0679474431152371,1.13326092630264,0.488082999999278,
-1.06211574047852,0.287783039550781,-0.108648871337893,1.10576376377068,0.491092999999637,
-1.09084616040039,0.340455476074219,0.00627280834960686,1.14275746550779,0.494229999999334,
-1.1123939753418,0.321301862792969,-0.0871010563964862,1.16113816466273,0.49727299999995,
-1.05253893383789,0.362003291015625,-0.0799184514160185,1.11591735752585,0.500286999999844,
-1.05972153881836,0.345243879394531,-0.0176692082519558,1.11468169313719,0.503315999999359,
-1.07169254711914,0.211168586425781,-0.0751300480957049,1.09487972470525,0.506266999999752,
-1.06929834545898,0.364397492675781,-0.101466266357424,1.13423096743046,0.509293000000071,
-1.1339417902832,0.548751020507813,-0.0942836613769558,1.26326603495134,0.512283000000025,
-1.10042296704102,0.251870014648437,-0.0655532414550812,1.13078133966547,0.515218999999888,
-0.966347674072266,0.093852705078125,-0.0894952580566439,0.975010542840428,0.518249999999171,
-1.08605775708008,0.493684382324219,-0.0416112248535185,1.19372409504813,0.521192999999585,
-1.19858523510742,0.455377155761719,0.0493684382324187,1.28312593399894,0.524231999999756,
-1.09084616040039,0.189620771484375,-0.072735846435549,1.10959086423569,0.527192999999897,
-1.00944330395508,0.352426484375,-0.051188031494144,1.07042067681679,0.530123999999887,
-1.06211574047852,0.366791694335938,-0.0535822331542999,1.12494313141414,0.533191999999872,
-1.08845195874023,0.266235224609375,0.00627280834960686,1.12055709780129,0.536156999999548,
-1.07887515209961,0.362003291015625,-0.0080924016113304,1.13801733883449,0.539176999999654,
-1.06690414379883,0.37158009765625,-0.0463996281738304,1.13071178755862,0.542132999999922,
-1.0573273371582,0.273417829589844,-0.0535822331542999,1.09342099081254,0.545061999999234,
-1.00944330395508,0.239899006347656,-0.034428619873049,1.03812939801005,0.548078999999234,
-1.07648095043945,0.400310517578125,0.0373974299316373,1.14911196795969,0.551009999999224,
-1.13873019360352,0.326090266113281,-0.0559764348144558,1.18582236305977,0.554026999999223,
-1.0357795222168,0.306936652832031,-0.034428619873049,1.08084904466894,0.556979999999385,
-1.0357795222168,0.366791694335938,-0.0463996281738304,1.09978556599555,0.559987999999976,
-1.10760557202148,0.326090266113281,0.0350032282714814,1.15514076666712,0.562953999999991,
-1.10521137036133,0.249475812988281,0.00627280834960686,1.13303561398869,0.565869000000021,
-1.07648095043945,0.381156904296875,-0.0583706364746117,1.14345920502424,0.568868999999722,
-1.0573273371582,0.354820686035156,-0.0583706364746117,1.1168016602526,0.571822999999313,
-1.05493313549805,0.302148249511719,-0.0847068547363303,1.10061470837621,0.57482600000003,
-1.08605775708008,0.328484467773438,-0.0224576115722677,1.13486908566572,0.577788999999939,
-1.08605775708008,0.311725056152344,-0.0655532414550812,1.13180881327734,0.580723000000035,
-1.06929834545898,0.33327287109375,-0.0176692082519558,1.12017050448967,0.583761999999297,
-1.06450994213867,0.306936652832031,-0.0248518132324236,1.10815573742356,0.586703999999372,
-1.05253893383789,0.316513459472656,-0.0440054265136745,1.09997975201119,0.589752999999291,
-1.07648095043945,0.309330854492188,-0.0679474431152371,1.1221023434722,0.592685999999958,
-1.1123939753418,0.316513459472656,-0.108648871337893,1.16163923127926,0.595636999999442,
-1.0740867487793,0.350032282714844,-0.051188031494144,1.13084267580159,0.598664999999528,
-1.10042296704102,0.323696064453125,-0.0703416447753931,1.14919876240949,0.601621999999224,
-1.08605775708008,0.263841022949219,-0.0942836613769558,1.12161622041915,0.604652999999416,
-1.13154758862305,0.352426484375,0.00627280834960686,1.18517666207707,0.607608999999684,
-1.07169254711914,0.37158009765625,-0.034428619873049,1.13480483537536,0.610541999999441,
-1.05253893383789,0.285388837890625,-0.0679474431152371,1.09265815837482,0.613585999999486,
-1.0740867487793,0.290177241210937,-0.0799184514160185,1.1154605031541,0.616542999999183,
-1.08845195874023,0.340455476074219,-0.118225677978518,1.14656657399728,0.619576999999481,
-1.0956345637207,0.338061274414063,-0.0080924016113304,1.14663246484728,0.622526999999536,
-1.05972153881836,0.287783039550781,-0.0607648381347676,1.09978233448359,0.625473000000056,
-1.05972153881836,0.316513459472656,-0.0320344182128931,1.10644327184594,0.628521999999975,
-1.12915338696289,0.335667072753906,-0.103860468017581,1.18255940731862,0.631591999999728,
-1.12915338696289,0.345243879394531,-0.0487938298339863,1.18176205108263,0.634722999999212,
-1.04775053051758,0.366791694335938,-0.072735846435549,1.11247823555807,0.637775999999576,
-1.06211574047852,0.304542451171875,-0.0535822331542999,1.10621291189707,0.640751999999338,
-1.08845195874023,0.33327287109375,-0.0463996281738304,1.13927669974734,0.643775999999889,
-1.1507012019043,0.376368500976562,-0.0679474431152371,1.21259364983379,0.646722999999838,
-1.03817372387695,0.306936652832031,-0.0775242497558626,1.08536850843411,0.649775999999292,
-1.05493313549805,0.330878669433594,-0.0392170231933626,1.10630131029753,0.652749999999287,
-1.07887515209961,0.369185895996094,0.0134554133300764,1.14037312655476,0.655765999999858,
-1.04056792553711,0.323696064453125,0.0182438166503882,1.08990531086192,0.658728999999767,
-1.06450994213867,0.321301862792969,-0.0416112248535185,1.11272089850965,0.66167299999961,
-1.08366355541992,0.3141192578125,-0.0296402165527372,1.12866122105409,0.664721999999529,
-1.04775053051758,0.323696064453125,-0.0535822331542999,1.09792138700916,0.667699999999968,
-1.08605775708008,0.318907661132813,-0.0080924016113304,1.13194038491736,0.67073899999923,
-1.10521137036133,0.311725056152344,-0.0368228215332049,1.14892149601042,0.673725999999988,
-1.09324036206055,0.335667072753906,-0.0440054265136745,1.14445766655307,0.676692000000003,
-1.05253893383789,0.302148249511719,-0.034428619873049,1.09558984195453,0.679728999999497,
-1.0573273371582,0.330878669433594,-0.0080924016113304,1.10792024927431,0.682693999999174,
-1.0956345637207,0.282994636230469,-0.0152750065917999,1.13169535970642,0.685733999999684,
-1.09084616040039,0.354820686035156,-0.051188031494144,1.14824356278055,0.688685999999507,
-1.05493313549805,0.306936652832031,-0.0918894597167998,1.10251426386715,0.691633999999794,
-1.07169254711914,0.347638081054688,-0.106254669677737,1.1316656775649,0.694678999999269,
-1.10281716870117,0.357214887695313,-0.0320344182128931,1.15966994766765,0.697637999999642,
-1.05493313549805,0.3141192578125,0.00866701000976278,1.10074063501032,0.700683999999455,
-1.04535632885742,0.335667072753906,0.039791631591795,1.09864717355399,0.703649000000041,
-1.04775053051758,0.316513459472656,-0.0152750065917999,1.09462106231042,0.706576999999925,
-1.08845195874023,0.297359846191406,-0.0847068547363303,1.13151482352276,0.70961299999999,
-1.07887515209961,0.304542451171875,-0.106254669677737,1.12605850345888,0.712563000000046,
-1.09324036206055,0.306936652832031,-0.0631590397949235,1.13726587146446,0.71559999999954,
-1.00704910229492,0.350032282714844,-0.072735846435549,1.06862575148284,0.718559999999343,
-1.0740867487793,0.304542451171875,-0.000909796630862658,1.11642701337748,0.721499999999651,
-1.06690414379883,0.302148249511719,-0.0320344182128931,1.10932602091916,0.724538999999822,
-1.06929834545898,0.335667072753906,0.0110612116699187,1.12080046651315,0.727519000000029,
-1.0357795222168,0.342849677734375,-0.113437274658205,1.09692895642703,0.730538999999226,
-1.10521137036133,0.318907661132813,-0.0487938298339863,1.1513362268838,0.733494999999493,
-1.10281716870117,0.318907661132813,-0.0966778630371117,1.15206528161936,0.736433999999463,
-1.07648095043945,0.345243879394531,-0.0871010563964862,1.13383912745318,0.739470999999867,
-1.08605775708008,0.316513459472656,-0.0463996281738304,1.13219042004242,0.742416000000048,
-1.04296212719727,0.321301862792969,-0.051188031494144,1.09253151001256,0.745460999999523,
-1.12197078198242,0.33327287109375,-0.0990720646972676,1.1746082394708,0.748403999999937,
-1.05972153881836,0.342849677734375,-0.0392170231933626,1.11449253755522,0.75141899999926,
-1.07648095043945,0.335667072753906,-0.0080924016113304,1.12762986274488,0.754369999999653,
-1.0956345637207,0.287783039550781,-0.0200634099121118,1.13297692628307,0.757307999999284,
-1.06929834545898,0.373974299316406,0.00627280834960686,1.13282614565303,0.760328999999729,
-1.08126935375977,0.297359846191406,-0.0631590397949235,1.12318981379589,0.763272999999572,
-1.06211574047852,0.290177241210937,-0.072735846435549,1.10344151673105,0.76628299999993,
-1.08126935375977,0.316513459472656,-0.0871010563964862,1.13000476965046,0.769298999999592,
-1.08605775708008,0.369185895996094,-0.0966778630371117,1.15115867139056,0.77233299999989,
-1.10281716870117,0.335667072753906,-0.0847068547363303,1.15587773685307,0.775468999999248,
-1.08845195874023,0.3141192578125,-0.0104866032714863,1.13292036060012,0.778504999999313,
-1.04775053051758,0.359609089355469,0.0326090266113255,1.1082252568695,0.781535999999505,
-1.04775053051758,0.306936652832031,-0.0392170231933626,1.09248764659366,0.784469999999601,
-1.08366355541992,0.362003291015625,-0.0440054265136745,1.14337638667857,0.787411999999676,
-1.06929834545898,0.326090266113281,0.00627280834960686,1.11793253883217,0.790460999999596,
-1.07169254711914,0.309330854492188,0.0110612116699187,1.11549668018116,0.793416999999863,
-1.05253893383789,0.335667072753906,-0.0990720646972676,1.10920055219025,0.796437999999398,
-1.04775053051758,0.364397492675781,-0.0487938298339863,1.11038171125885,0.799384999999347,
-1.07648095043945,0.354820686035156,-0.051188031494144,1.13460529280703,0.802314999999908,
-1.09084616040039,0.323696064453125,-0.0918894597167998,1.14156390999793,0.805348999999296,
-1.06450994213867,0.338061274414063,-0.034428619873049,1.1174310591875,0.808297999999922,
-1.07169254711914,0.302148249511719,-0.0823126530761744,1.11650967442748,0.811369999999442,
-1.05014473217773,0.304542451171875,-0.072735846435549,1.0958287121823,0.814328999999816,
-1.04296212719727,0.352426484375,-0.106254669677737,1.1060128753704,0.817278999999871,
-1.02380851391602,0.309330854492188,-0.0655532414550812,1.07152539781988,0.820303999999851,
-1.06690414379883,0.364397492675781,-0.0799184514160185,1.13024640835538,0.823268999999527,
-1.05493313549805,0.340455476074219,-0.0751300480957049,1.11105282308607,0.826290999999401,
-1.09324036206055,0.321301862792969,-0.0583706364746117,1.1409717382455,0.829243999999562,
-1.05972153881836,0.304542451171875,-0.0248518132324236,1.10289322104285,0.832163999999466,
-1.12197078198242,0.323696064453125,-0.0296402165527372,1.16810792318261,0.835199999999531,
-1.06929834545898,0.292571442871094,-0.163715509521486,1.12062472257347,0.838140999999268,
-1.03817372387695,0.342849677734375,-0.0104866032714863,1.0933711864318,0.841184999999314,
-1.08845195874023,0.350032282714844,-0.0823126530761744,1.1463095734942,0.84412599999996,
-1.08366355541992,0.338061274414063,-0.0918894597167998,1.13888357588072,0.847139999999854,
-1.05972153881836,0.304542451171875,-0.0823126530761744,1.10568133621662,0.850088999999571,
-1.05014473217773,0.311725056152344,-0.0080924016113304,1.09546426510301,0.853024999999434,
-1.06211574047852,0.316513459472656,-0.0942836613769558,1.11227695516999,0.856041999999434,
-1.06211574047852,0.350032282714844,-0.0440054265136745,1.1191733211069,0.858993999999257,
-1.06450994213867,0.328484467773438,-0.0559764348144558,1.11544467533581,0.861999999999171,
-1.07169254711914,0.326090266113281,-0.0583706364746117,1.12172497003811,0.864952999999332,
-1.05972153881836,0.290177241210937,-0.0823126530761744,1.101811210693,0.867894999999407,
-1.06211574047852,0.366791694335938,-0.0463996281738304,1.12462390100012,0.870928999999705,
-1.06929834545898,0.316513459472656,-0.0583706364746117,1.11668565533507,0.873866999999336,
-1.0573273371582,0.345243879394531,-0.0631590397949235,1.11405722405506,0.876900999999634,
-1.07648095043945,0.328484467773438,-0.0631590397949235,1.12725433977219,0.87984299999971,
-1.0740867487793,0.347638081054688,-0.0440054265136745,1.12980133513168,0.882780999999341,
-1.07648095043945,0.335667072753906,-0.111043072998049,1.13305524333594,0.885804999999891,
-1.09084616040039,0.29496564453125,-0.0655532414550812,1.13192195162886,0.888758000000053,
-1.05014473217773,0.335667072753906,-0.0320344182128931,1.10295174246295,0.891783999999461,
-1.09084616040039,0.302148249511719,-0.0966778630371117,1.13603940052478,0.894736999999623,
-1.08126935375977,0.316513459472656,-0.0272460148925813,1.12697228481225,0.897672999999486,
-1.03817372387695,0.352426484375,-0.0200634099121118,1.09654532430482,0.900711999999658,
-1.08126935375977,0.316513459472656,-0.0942836613769558,1.13058108696814,0.903660999999374,
-1.10760557202148,0.340455476074219,0.00627280834960686,1.15876631918888,0.90671199999997,
-1.0740867487793,0.27581203125,-0.0463996281738304,1.10990429586528,0.909753999999339,
-1.0573273371582,0.287783039550781,0.00387860668945095,1.09579889548447,0.912796999999955,
-1.05253893383789,0.3141192578125,-0.0080924016113304,1.09844189756997,0.915919000000031,
-1.08605775708008,0.299754047851563,-0.051188031494144,1.12782718334213,0.918918999999732,
-1.08126935375977,0.330878669433594,-0.0799184514160185,1.13358328681352,0.921946999999818,
-1.08126935375977,0.285388837890625,0.0158496149902323,1.11841021743722,0.924892999999429,
-1.08845195874023,0.326090266113281,-0.0080924016113304,1.13627814161108,0.927834999999504,
-1.07887515209961,0.33327287109375,-0.0320344182128931,1.12963206592911,0.930879999999888,
-1.09084616040039,0.311725056152344,-0.0463996281738304,1.13546060336241,0.933825999999499,
-1.07887515209961,0.321301862792969,-0.0487938298339863,1.12675965435494,0.936860999999226,
-1.07169254711914,0.326090266113281,-0.0559764348144558,1.12160293261879,0.939828999999918,
-1.06929834545898,0.342849677734375,-0.0200634099121118,1.12309723245193,0.942834999999832,
-1.10281716870117,0.316513459472656,-0.0248518132324236,1.14760798630471,0.945812999999362,
-1.12197078198242,0.285388837890625,-0.00330399829101857,1.15770295880226,0.948764999999185,
-1.0573273371582,0.309330854492188,-0.0368228215332049,1.10226248944096,0.95182399999976,
-1.03817372387695,0.326090266113281,-0.0368228215332049,1.08880460266663,0.954784999999902,
-1.06690414379883,0.335667072753906,-0.051188031494144,1.11963255148934,0.957792999999583,
-1.10760557202148,0.311725056152344,-0.034428619873049,1.15115070415328,0.960761999999704,
-1.11957658032227,0.318907661132813,-0.0990720646972676,1.16831891602365,0.963700999999674,
-1.05493313549805,0.316513459472656,-0.0823126530761744,1.10446369938334,0.966730999999527,
-1.05493313549805,0.33327287109375,-0.0224576115722677,1.10655278739712,0.969677000000047,
-1.09802876538086,0.326090266113281,-0.0248518132324236,1.14569613941856,0.972713999999542,
-1.0740867487793,0.340455476074219,-0.0080924016113304,1.12678203839786,0.975664999999935,
-1.11957658032227,0.285388837890625,0.00627280834960686,1.15539510823062,0.978607000000011,
-1.07648095043945,0.321301862792969,-0.0679474431152371,1.12546122932741,0.981648999999379,
-1.07648095043945,0.311725056152344,-0.0823126530761744,1.12372555374907,0.984604999999647,
-1.09324036206055,0.323696064453125,-0.034428619873049,1.14067478329587,0.987636999999268,
-1.05493313549805,0.306936652832031,-0.0272460148925813,1.09901609385441,0.990589999999429,
-1.04296212719727,0.321301862792969,-0.0703416447753931,1.09359628418891,0.993522999999186,
-1.0573273371582,0.29496564453125,-0.0320344182128931,1.09816757979191,0.99656799999957,
-1.08126935375977,0.352426484375,-0.0966778630371117,1.14135640860794,0.999507999999878,
-1.1123939753418,0.323696064453125,-0.0272460148925813,1.15885367663338,1.0025399999995,
-1.06929834545898,0.369185895996094,-0.0392170231933626,1.13191658363676,1.00549799999953,
-1.05014473217773,0.328484467773438,-0.0871010563964862,1.10376292658996,1.00844199999938,
-1.05014473217773,0.292571442871094,-0.0655532414550812,1.09210770309965,1.01147299999957,
-1.06450994213867,0.347638081054688,-0.0679474431152371,1.12189594318607,1.0144309999996,
