X,Y,Z,Magnitude,Seconds,
-0.015322890625,-0.0380678063964841,-0.0376368500976572,0.0556819660771728,0.0,
-0.0416591088867188,0.0241814367675783,0.017429788085936,0.0512251964378909,0.00396899999941525,
-0.0488417138671875,0.0122104284667972,-0.0280600434570317,0.0576365649187865,0.00794300000052317,
-0.0560243188476563,0.0361524450683597,-0.0041180268554708,0.0668033062950255,0.0118750000001455,
-0.0320823022460938,-0.026096798095703,-0.0113006318359385,0.0428721502627175,0.0157579999995505,
0.00622492431640626,0.00263362182617222,0.0509486113281241,0.0513950060116013,0.0197140000000218,
-0.0320823022460938,0.00981622680664085,-0.0113006318359385,0.0354024957597703,0.0235200000006444,
-0.0105344873046875,-0.0356736047363279,-0.0424252534179708,0.056422368128566,0.0272769999992306,
0.00622492431640626,-0.0189141931152341,0.00545877978515463,0.0206469043851171,0.0312639999992825,
-0.0368707055664063,-0.0237025964355466,0.0509486113281241,0.0672088015293776,0.0351019999998243,
-0.0129286889648438,-0.0117315881347655,-0.0113006318359385,0.0207962842451451,0.0388829999992595,
0.0158017309570313,-0.0596156213378904,-0.0496078583984385,0.0791495838499525,0.0429149999999936,
-0.00814028564453125,-0.0308852014160154,-0.0520020600585944,0.0610276508414019,0.0467709999993531,
0.00622492431640626,-0.0452504113769528,-0.0041180268554708,0.0458618311639519,0.0507469999993191,
-0.024899697265625,-0.0284909997558591,-0.0424252534179708,0.0568474636073341,0.0546510000003764,
-0.0296881005859375,-0.0500388146972653,0.00545877978515463,0.0584385537932863,0.0586829999992915,
-0.0751779321289062,-0.0332794030761716,-0.0304542451171894,0.0876738341464692,0.0626229999998031,
-0.015322890625,0.0265756384277347,0.0317949980468732,0.0441811887090883,0.0665719999997236,
-0.0488417138671875,-0.0117315881347655,-0.0352426484375012,0.0613611232176962,0.0704370000003109,
-0.015322890625,-0.00215478149414028,-0.00651222851562672,0.0167881857457244,0.0743569999995088,
-0.0105344873046875,-0.00454898315429664,-0.0639730683593758,0.0649940162309121,0.0782249999992928,
0.00383072265625,-0.0213083947753905,-0.0543962617187521,0.0585463526869776,0.0822430000007444,
-0.024899697265625,-0.00694318481445277,-0.0663672700195335,0.0712237128288963,0.0861370000002353,
-0.0320823022460938,-0.016519991455078,-0.0256658417968758,0.0442822726407286,0.0900010000004841,
-0.015322890625,0.00263362182617222,-0.0639730683593758,0.0658352520792802,0.0938719999994646,
-0.0201112939453125,0.0122104284667972,-0.0496078583984385,0.0549044472003595,0.0977480000001378,
-0.0320823022460938,0.00502782348632835,0.0317949980468732,0.04544749748028,0.101705999999467,
-0.0272938989257813,-0.0596156213378904,-0.0041180268554708,0.0656957941671754,0.10559000000103,
-0.0129286889648438,-0.00933738647460913,-0.0232716401367199,0.0282118241022958,0.109684999999445,
-0.0177170922851563,0.0169988317871097,-0.00651222851562672,0.0254020621487102,0.113617999999406,
-0.044053310546875,0.00981622680664085,0.00785298144531055,0.0458118084825213,0.117475000000923,
-0.005746083984375,0.000239420166015858,-0.0376368500976572,0.0380737086247833,0.121386000000712,
-0.0129286889648438,-0.0237025964355466,-0.0280600434570317,0.0389400836535641,0.125334000000294,
-0.044053310546875,0.0289698400878908,0.0222181914062478,0.0572153286648083,0.129257000000507,
-0.00335188232421875,-0.0141257897949216,-0.0136948334960945,0.0199579938102875,0.133380999999645,
-0.0608127221679688,-0.00933738647460913,-0.0136948334960945,0.0630311226945905,0.137399999999616,
-0.0177170922851563,-0.0141257897949216,0.0772848295898427,0.0805380542420916,0.141413999999713,
-0.000957680664062498,-0.0141257897949216,0.0198239897460919,0.0243607401167901,0.145273000000088,
-0.0488417138671875,-0.016519991455078,0.0677080229492173,0.0851046385507382,0.149131000000125,
-0.044053310546875,-0.00933738647460913,-0.0448194550781267,0.0635347504112186,0.153045999999449,
-0.0201112939453125,-0.00215478149414028,-0.0136948334960945,0.0244265366339152,0.157032999999501,
-0.0512359155273438,0.0217872351074222,-0.00651222851562672,0.0560554348283102,0.161082000000533,
-0.005746083984375,-0.026096798095703,-0.0472136567382826,0.0542511726564851,0.165155000000595,
-0.0129286889648438,-0.0141257897949216,-0.0113006318359385,0.0222349548137929,0.169165999999677,
-0.00814028564453125,0.000239420166015858,0.0389776030273428,0.0398192806332256,0.173117000000275,
-0.00335188232421875,-0.00215478149414028,-0.0304542451171894,0.0307138282221666,0.176956999999675,
-0.015322890625,-0.0524330163574216,-0.0280600434570317,0.0614115479389167,0.180775000000722,
-0.0105344873046875,0.00263362182617222,-0.0711556733398453,0.0719794500891934,0.184955000000627,
-0.0488417138671875,0.0146046301269533,-0.0735498750000012,0.0894896214493342,0.188860000000204,
-0.0129286889648438,-0.0237025964355466,0.0126413847656242,0.0298122237501434,0.192806999999448,
-0.0129286889648438,-0.00694318481445277,0.00785298144531055,0.0166441620785701,0.196710000000166,
-0.015322890625,-0.00694318481445277,-0.0424252534179708,0.0456388093627825,0.200600000000122,
0.0110133276367188,-0.0237025964355466,0.00785298144531055,0.0272905804445507,0.20449600000029,
-0.024899697265625,-0.00454898315429664,-0.0136948334960945,0.0287791006833709,0.208362999999736,
-0.0320823022460938,-0.0237025964355466,0.0126413847656242,0.0418436590654863,0.212287000000288,
-0.000957680664062498,0.000239420166015858,-0.0591846650390639,0.0591928969561079,0.216142999999647,
-0.000957680664062498,0.0122104284667972,-0.0280600434570317,0.0306166254575451,0.220080000000962,
-0.0320823022460938,-0.0620098229980467,0.0198239897460919,0.0725774264844928,0.224143999999797,
0.0181959326171875,-0.0117315881347655,-0.0520020600585944,0.0563288236545968,0.228182999999262,
-0.0703895288085937,0.00502782348632835,-0.00890643017578263,0.0711286810884443,0.232081000000107,
-0.0129286889648438,-0.0141257897949216,0.0317949980468732,0.0371161802517535,0.236049000001003,
-0.0392649072265625,0.00981622680664085,0.0270065947265614,0.048656422052538,0.239874000000782,
0.0086191259765625,-0.00215478149414028,-0.0113006318359385,0.0143748633307859,0.243796000000657,
-0.0368707055664063,-0.00454898315429664,0.000670376464842803,0.0371563128055962,0.247692999999344,
-0.0584185205078125,-0.00933738647460913,-0.020877438476564,0.0627357773669908,0.251609000000826,
-0.000957680664062498,0.00502782348632835,0.0413718046874987,0.0416871968878279,0.25556300000062,
-0.0392649072265625,0.0122104284667972,0.0605254179687496,0.0731720829493405,0.25954400000046,
-0.0201112939453125,-0.00933738647460913,0.0294007963867173,0.0368246895235274,0.263363000000027,
0.00143652099609375,0.0217872351074222,-0.0184832368164081,0.0286072936400795,0.267202000000907,
-0.0416591088867188,0.0193930334472658,-0.0352426484375012,0.0579104081181576,0.271142999999938,
0.00143652099609375,-0.0404620080566404,-0.0496078583984385,0.0640326268665231,0.274977999999464,
-0.0272938989257813,0.0289698400878908,0.0246123930664055,0.0467972055334929,0.278830999999627,
-0.0536301171875,-0.0141257897949216,-0.00890643017578263,0.0561698487211011,0.282755000000179,
-0.0320823022460938,0.00742202514648471,-0.0591846650390639,0.067728761619204,0.286819000000833,
-0.005746083984375,-0.0117315881347655,0.0341891997070292,0.0365998499713644,0.290660000000571,
-0.0512359155273438,-0.00933738647460913,0.0461602080078105,0.0695921736219358,0.294567999999344,
-0.0464475122070312,-0.00454898315429664,-0.0376368500976572,0.0599549591212763,0.298414999999295,
-0.0177170922851563,-0.0308852014160154,0.0581312163085919,0.0681691230328283,0.302202999999281,
-0.108696755371094,-0.129047469482422,-0.427891720703126,0.459956039915014,0.305985999999393,
0.197761057128906,1.51576907104492,-1.79498086865235,2.35767292712137,0.310007000000041,
-0.182917006835938,-5.85597784057617,3.65661631152344,6.90628539450899,0.313754000000699,
-4.51881621337891,5.66013214477539,-6.87787099316406,9.98808816867489,0.31671599999936,
6.00130588134766,3.9195475378418,1.73167817675781,7.37409211298306,0.319668000000092,
0.513795676269531,-9.20307176147461,8.14813862597656,12.3025476594052,0.322705000000497,
-7.46607845703125,3.52689846557617,-8.35030501416016,11.7434634645209,0.32568800000081,
2.70927859863281,3.38564056762695,0.0844674345703105,4.33703669867734,0.328755000000456,
3.51851875976563,-3.21038500610352,3.82660462939453,6.10978306815721,0.331694000000425,
-5.51240990234375,1.33380974487305,-3.39909598095703,6.6120771966708,0.334618999999293,
3.48499993652344,-2.55916215454102,2.11475044238281,4.81318033366315,0.337686999999278,
3.32458842529297,0.179804544677735,-1.1629116303711,3.52669552583309,0.340629000000263,
-4.22193520751953,4.49176173461914,-0.482958358886719,6.1833574337491,0.343705999999656,
0.394085593261719,-3.08828072143555,0.908072805664061,3.24305064554865,0.346671999999671,
2.30226431640625,-3.50726601196289,-0.131010714843752,4.19743965634665,0.349627999999939,
-2.37600572753906,3.87405770629883,-0.233961386230471,4.55065536590925,0.352657999999792,
0.128329208984375,0.874123026123047,-0.0424252534179708,0.884510798580011,0.35563700000057,
2.25677448486328,-3.19601979614258,0.536971548339842,3.94916599506676,0.358694000000469,
-1.32495119873047,1.02016932739258,-0.46380474560547,1.73532589954051,0.361652999999933,
-0.60908490234375,1.47746184448242,-0.0903092866210944,1.60063540114996,0.364557000000787,
1.22487356933594,-1.38600334106445,0.290368777343749,1.87233398440441,0.367636999999377,
-0.858081875,-0.176931502685547,-0.198048361328127,0.898238506339401,0.370559999999386,
-0.369664736328125,0.505415970458985,-0.133404916503908,0.640229796422311,0.373627999999371,
1.25360398925781,-0.311006795654297,0.0246123930664055,1.29184130554752,0.37659800000074,
-0.630632717285156,0.443166727294922,0.00306457812499872,0.77078126853916,0.379624999999578,
-0.403183559570313,-0.322977803955078,0.0653138212890614,0.520708689966676,0.382560000000012,
0.532949289550781,-0.598310994873047,0.0701022246093732,0.804316675019137,0.385534999999436,
-0.427125576171875,0.742441934814454,0.017429788085936,0.856714702747599,0.388592999999673,
-0.211647426757813,0.0529118566894533,-0.00172382519531311,0.218167984371752,0.391563999999562,
0.614352145996094,-0.753934102783203,0.0509486113281241,0.9738793311421,0.394621999999799,
-0.185311208496094,0.462320340576172,-0.104674496582033,0.508956866089311,0.397693999999319,
-0.288261879882813,0.383311685791016,-0.0184832368164081,0.479962904713203,0.40068600000086,
0.248039291992187,-0.691684859619141,0.0509486113281241,0.736578031436317,0.40376599999945,
-0.14939818359375,0.0433350500488283,-0.0903092866210944,0.179870817738335,0.406748999999763,
-0.154186586914063,0.467108743896485,0.0126413847656242,0.49206085682317,0.409851000000344,
0.298317526855469,-0.263122762451172,-0.00651222851562672,0.397830798291609,0.412857999999687,
-0.127850368652344,-0.164960494384765,-0.0160890351562522,0.209324003698729,0.415786999999909,
-0.2068590234375,0.213323367919922,-0.0543962617187521,0.302086855336656,0.418838999999934,
0.171424838867188,-0.0428562097167966,-0.00651222851562672,0.176820641363419,0.421840999999404,
-0.0847547387695313,-0.0835576379394529,-0.0304542451171894,0.122852373390057,0.42490700000053,
-0.0679953271484375,-0.00933738647460913,-0.0136948334960945,0.0699864255744284,0.427847000000838,
0.197761057128906,0.00742202514648471,0.00306457812499872,0.197924010198616,0.430825999999797,
-0.063206923828125,0.0696712683105472,-0.0879150849609385,0.128756603758812,0.433853000000454,
-0.135032973632813,-0.11707646118164,-0.0615788666992199,0.189031104728551,0.436814000000595,
0.0110133276367188,-0.0811634362792967,-0.00172382519531311,0.0819253828041173,0.439850000000661,
-0.024899697265625,0.139103116455078,-0.0376368500976572,0.146240228448633,0.442882999999711,
-0.082360537109375,-0.0117315881347655,0.0748906279296868,0.111935224057538,0.445890999999392,
0.104387192382813,-0.164960494384765,0.0294007963867173,0.19741595039258,0.448985000000903,
-0.07278373046875,0.0864306799316408,0.0461602080078105,0.122059406264809,0.451968999999735,
-0.0799663354492188,0.0289698400878908,-0.0041180268554708,0.08515177382226,0.455020999999761,
0.0181959326171875,-0.160172091064453,0.0222181914062478,0.162726269388606,0.45802200000071,
-0.0201112939453125,-0.00454898315429664,-0.0448194550781267,0.0493349870314471,0.460955000000467,
-0.0488417138671875,0.122343704833985,-0.00651222851562672,0.131893533754423,0.464046000000963,
0.0277727392578125,-0.105105452880859,-0.0352426484375012,0.114282656339719,0.467048000000432,
-0.0320823022460938,-0.0620098229980467,0.0126413847656242,0.0709527791876495,0.470118999999613,
-0.0679953271484375,0.0385466467285158,-0.0687614716796894,0.104102586305974,0.473046000000977,
0.0349553442382813,-0.016519991455078,0.00545877978515463,0.0390459278956898,0.476104999999734,
-0.0320823022460938,-0.0500388146972653,-0.0136948334960945,0.0609975864948993,0.479074999999284,
-0.0296881005859375,-0.0189141931152341,-0.0304542451171894,0.0465466546946069,0.482062000000951,
0.0493205541992188,0.0193930334472658,-0.102280294921876,0.115194902413738,0.485181000000011,
-0.0464475122070312,-0.0141257897949216,-0.00172382519531311,0.0485786053819645,0.48813599999994,
-0.024899697265625,-0.0332794030761716,-0.0328484467773453,0.05297673120069,0.491121000000931,
0.0110133276367188,-0.0332794030761716,-0.00890643017578263,0.036168170443307,0.494087000000945,
-0.0512359155273438,0.0313640417480472,0.0126413847656242,0.0613891420651153,0.497049999999945,
-0.0392649072265625,-0.0141257897949216,-0.0543962617187521,0.068558180881758,0.500108000000182,
-0.005746083984375,-0.0213083947753905,0.0509486113281241,0.0555232038459925,0.503044000000955,
-0.0488417138671875,0.0146046301269533,0.0413718046874987,0.0656538990291503,0.506079000000682,
-0.0296881005859375,-0.0572214196777341,-0.0256658417968758,0.0693859468587002,0.509095999999772,
0.0181959326171875,-0.0356736047363279,-0.0376368500976572,0.0549566240226462,0.512135999999373,
-0.0272938989257813,0.0600944616699222,-0.0807324799804707,0.104278639067479,0.515198999999484,
0.106781394042969,-0.0548272180175778,0.101226846191405,0.157019630426152,0.518174000000727,
-0.137427175292969,-0.787452926025391,0.773997512695312,1.11267267822729,0.521216999999524,
-0.604296499023438,1.34099234985352,-1.6441461640625,2.20604880950061,0.524167999999918,
0.937569370117188,-0.48099511352539,1.84899405810547,2.12818506007503,0.527189000000362,
0.0110133276367188,-1.30938888793945,-0.741532138183596,1.50482240321045,0.530281999999715,
-1.06637741943359,1.86292831176758,-0.514082980468752,2.20724806178886,0.533298000000286,
0.980665,-0.725203682861328,0.785968520996093,1.45098957262188,0.536390999999639,
-0.386424147949219,-0.732386287841797,-0.542813400390626,0.990131145041202,0.539409999999407,
-0.580354482421875,0.692163699951172,0.287974575683592,0.948067122643436,0.542430999999851,
0.84658970703125,-0.0715866296386717,-0.0639730683593758,0.852016039209119,0.54550399999971,
-0.194888015136719,-0.239180745849609,-0.126222311523438,0.3333479256804,0.548509000000195,
-0.271502468261719,0.0768538732910158,0.0150355864257801,0.282570658369202,0.551681000000826,
0.523372482910156,-0.260728560791015,0.0294007963867173,0.585459259989856,0.554659999999785,
-0.362482131347656,0.242053787841797,0.0126413847656242,0.436054052112458,0.557639000000563,
-0.199676418457031,-0.0308852014160154,-0.0280600434570317,0.203990033563274,0.56068199999936,
0.46351744140625,-0.375650240478515,0.0294007963867173,0.597349084277808,0.563685999999507,
-0.218830031738281,0.376129080810547,-0.0903092866210944,0.444427086789245,0.566774999999325,
-0.237983645019531,0.0864306799316408,-0.0496078583984385,0.258006622676837,0.569719000000987,
0.276769711914063,-0.483389315185547,0.0389776030273428,0.558377969664189,0.572731000000203,
-0.185311208496094,0.292332022705078,-0.0041180268554708,0.346143342617343,0.575720999999248,
-0.120667763671875,0.196563956298828,0.0317949980468732,0.23282830585266,0.578679000000193,
0.23367408203125,-0.401986458740234,-0.0280600434570317,0.465815473833225,0.581711999999243,
-0.127850368652344,0.115161099853516,0.0102471831054682,0.172374013254924,0.584773000000496,
-0.142215578613281,0.210929166259766,0.0294007963867173,0.256087467103573,0.587777000000642,
0.166636435546875,-0.27030536743164,0.0485544096679682,0.321232352063622,0.590851999999359,
-0.103908352050781,0.0241814367675783,0.0126413847656242,0.107431336763749,0.593821000000389,
-0.0608127221679688,0.158256729736328,0.0437660063476546,0.175096667575196,0.5968840000005,
0.15705962890625,-0.11707646118164,-0.0400310517578131,0.199942766560388,0.599856000000727,
-0.082360537109375,-0.0380678063964841,-0.0472136567382826,0.102281696013438,0.602906000000075,
-0.108696755371094,0.0816422766113283,-0.0184832368164081,0.137193571284137,0.605926000000181,
0.0732625708007813,-0.0811634362792967,0.0246123930664055,0.11207442866889,0.608915999999226,
-0.118273562011719,0.0409408483886722,-0.0256658417968758,0.127763547120712,0.611985999999888,
-0.0272938989257813,-0.0308852014160154,0.0629196196289055,0.0752178909523841,0.614962999999989,
0.0493205541992188,0.00502782348632835,0.0246123930664055,0.0553494893199838,0.618102000000363,
-0.0608127221679688,0.0768538732910158,-0.00890643017578263,0.098407466768463,0.621043999999529,
-0.00335188232421875,-0.141018477783203,0.00306457812499872,0.141091593762674,0.624039000000266,
0.0253785375976563,-0.0428562097167966,-0.0639730683593758,0.0810757569017957,0.627144000000044,
-0.0536301171875,0.127132108154297,-0.00172382519531311,0.137991789489828,0.630126000000018,
0.00143652099609375,-0.016519991455078,0.00545877978515463,0.0174577199826003,0.633202999999412,
0.0181959326171875,-0.0787692346191404,0.0389776030273428,0.0897493054237833,0.636179999999513,
-0.024899697265625,0.105584293212891,-0.0184832368164081,0.11004393640904,0.639160000000629,
-0.0129286889648438,-0.00454898315429664,0.0437660063476546,0.0458618311639504,0.642230999999811,
-0.0272938989257813,-0.0811634362792967,-0.00651222851562672,0.0858770599605853,0.64514699999927,
-0.044053310546875,0.0146046301269533,0.017429788085936,0.0495760718896239,0.648258999999598,
0.0086191259765625,0.0337582434082033,-0.00890643017578263,0.0359615465335329,0.651261000000886,
-0.00335188232421875,-0.0548272180175778,-0.020877438476564,0.0587633081778514,0.654216999999335,
-0.024899697265625,-0.0667982263183592,0.0126413847656242,0.0724002940048662,0.657309000000168,
-0.00814028564453125,-0.00933738647460913,0.0629196196289055,0.0641274478737219,0.66027799999938,
-0.005746083984375,-0.0356736047363279,0.00785298144531055,0.0369769235283256,0.663323000000673,
-0.00335188232421875,0.00502782348632835,0.000670376464842803,0.00607976387121245,0.666300000000774,
-0.0177170922851563,0.0241814367675783,-0.0136948334960945,0.0329573316224309,0.66938300000038,
-0.00335188232421875,0.0409408483886722,-0.0400310517578131,0.0573574170159044,0.672419000000446,
-0.0272938989257813,-0.00933738647460913,-0.0136948334960945,0.0319326192040792,0.675413000000844,
0.00383072265625,-0.016519991455078,-0.020877438476564,0.0268970628710213,0.678501000000324,
-0.0105344873046875,0.0385466467285158,-0.00651222851562672,0.0404873871350741,0.681516000000556,
-0.000957680664062498,-0.0117315881347655,-0.00651222851562672,0.0134520047821071,0.684529000000111,
-0.024899697265625,-0.0811634362792967,-0.00651222851562672,0.0851463882547167,0.687527000000046,
-0.0368707055664063,-0.0117315881347655,0.000670376464842803,0.0386979132994662,0.690544000000955,
-0.005746083984375,0.00742202514648471,0.0317949980468732,0.0331515586244631,0.693699999999808,
0.0158017309570313,-0.0213083947753905,-0.0328484467773453,0.0422227763751554,0.696651000000202,
0.00143652099609375,-0.026096798095703,-0.0184832368164081,0.0320115058476093,0.699705999999424,
0.00622492431640626,-0.0189141931152341,0.00306457812499872,0.0201466628261252,0.702713000000585,
-0.0368707055664063,-0.0213083947753905,-0.0184832368164081,0.0464233417590756,0.705733000000691,
-0.005746083984375,-0.0476446130371091,-0.00651222851562672,0.0484296990786759,0.708775000000969,
-0.044053310546875,-0.0308852014160154,-0.0113006318359385,0.0549753955560001,0.711714000000939,
-0.0177170922851563,-0.0141257897949216,-0.0520020600585944,0.0567243117781848,0.714731000000029,
-0.0201112939453125,-0.00933738647460913,-0.0136948334960945,0.0260614541961251,0.717689999999493,
-0.0105344873046875,-0.0213083947753905,-0.0113006318359385,0.0263197148648677,0.720608999999968,
0.0181959326171875,0.0169988317871097,0.0294007963867173,0.0385286785928208,0.72374900000068,
-0.0368707055664063,-0.0141257897949216,-0.0113006318359385,0.0410693455777708,0.726770999999644,
-0.044053310546875,-0.0213083947753905,-0.0256658417968758,0.0552582780512165,0.729844999999841,
-0.03447650390625,-0.0404620080566404,-0.0184832368164081,0.0562799561192502,0.732846000000791,
0.00143652099609375,-0.0332794030761716,0.017429788085936,0.0375949434684926,0.7358320000003,
-0.0105344873046875,-0.0404620080566404,-0.107068698242189,0.114942836497214,0.738901000000624,
-0.0105344873046875,-0.0332794030761716,0.0102471831054682,0.0363799237695177,0.741856000000553,
-0.0201112939453125,-0.00694318481445277,-0.0304542451171894,0.037150141388429,0.744935000000623,
-0.000957680664062498,0.000239420166015858,0.0341891997070292,0.0342034479384365,0.747977999999421,
0.0110133276367188,-0.0213083947753905,-0.0424252534179708,0.0487364668509797,0.750938999999562,
-0.0296881005859375,-0.00215478149414028,-0.0352426484375012,0.0461310163401755,0.754012999999759,
-0.015322890625,-0.0428562097167966,0.0246123930664055,0.0517418165592493,0.757004000000961,
-0.0368707055664063,0.00502782348632835,-0.056790463378908,0.0678961314712804,0.760088000000906,
-0.0225054956054688,0.0217872351074222,0.0341891997070292,0.04636898017728,0.763049999999566,
-0.00814028564453125,-0.0308852014160154,-0.0520020600585944,0.0610276508414019,0.766082000000097,
0.0086191259765625,0.0265756384277347,-0.0041180268554708,0.0282402555870856,0.769099999999526,
-0.0201112939453125,-0.00694318481445277,0.017429788085936,0.027503990114946,0.77205800000047,
-0.0488417138671875,0.00502782348632835,0.0485544096679682,0.0690530428055041,0.775096999999732,
-0.0129286889648438,-0.0117315881347655,0.0102471831054682,0.0202431697150035,0.778050000000803,
-0.0129286889648438,-0.00933738647460913,0.000670376464842803,0.0159620546650643,0.781071999999767,
-0.00335188232421875,-0.0213083947753905,-0.0256658417968758,0.0335263812267527,0.784025999999358,
-0.0320823022460938,-0.0189141931152341,-0.0400310517578131,0.0546763744541168,0.786964999999327,
-0.0392649072265625,-0.0189141931152341,-0.0184832368164081,0.0473403599893616,0.790081999999529,
-0.0225054956054688,-0.0237025964355466,0.0222181914062478,0.0395216199009963,0.793100999999297,
-0.0105344873046875,-0.0213083947753905,0.0341891997070292,0.0416404189134023,0.796163999999408,
-0.00335188232421875,-0.0213083947753905,-0.0184832368164081,0.0284062114022747,0.799114999999802,
-0.0368707055664063,-0.0691924279785154,-0.00890643017578263,0.0789073223281766,0.802084000000832,
-0.0368707055664063,-0.0141257897949216,0.0437660063476546,0.0589444668982414,0.805125000000771,
-0.0105344873046875,-0.0189141931152341,-0.0663672700195335,0.0698092877332139,0.808134000000791,
-0.0129286889648438,-0.00454898315429664,-0.0256658417968758,0.0290960423636962,0.811186000000816,
-0.0201112939453125,0.0193930334472658,-0.00651222851562672,0.0286873318850199,0.814183000000412,
-0.0368707055664063,-0.00454898315429664,-0.0855208833007826,0.0932414267225077,0.817168999999922,
-0.03447650390625,-0.0356736047363279,-0.0352426484375012,0.0608545780148933,0.820342000000892,
-0.0201112939453125,-0.0189141931152341,0.0341891997070292,0.0439444219664141,0.823367000000871,
-0.0320823022460938,-0.0332794030761716,-0.0352426484375012,0.058127764926972,0.826471000000311,
-0.0392649072265625,-0.0476446130371091,-0.0591846650390639,0.0855252399397548,0.82946500000071,
-0.0225054956054688,-0.00694318481445277,-0.020877438476564,0.0314733631053012,0.832531000000017,
-0.0105344873046875,-0.026096798095703,-0.0256658417968758,0.0380887611870321,0.835607999999411,
0.00143652099609375,-0.0213083947753905,-0.0400310517578131,0.0453717575735481,0.838599000000613,
0.032561142578125,0.0217872351074222,0.00306457812499872,0.0392976240847115,0.841719000000012,
-0.0105344873046875,-0.00215478149414028,-0.0256658417968758,0.0278272158363421,0.8446899999999,
-0.0584185205078125,-0.00694318481445277,-0.0424252534179708,0.072531603327573,0.84767599999941,
-0.0488417138671875,-0.00694318481445277,0.0126413847656242,0.0509266672544397,0.85070000000087,
0.0158017309570313,-0.00694318481445277,0.0126413847656242,0.0213940908990918,0.853677999999491,
-0.0105344873046875,-0.0452504113769528,0.000670376464842803,0.0464653048753659,0.856727000000319,
-0.0512359155273438,-0.0380678063964841,-0.0184832368164081,0.0664522909084158,0.859656000000541,
-0.00335188232421875,-0.0452504113769528,-0.0184832368164081,0.0489945393703247,0.862672999999631,
-0.0416591088867188,-0.0332794030761716,-0.0232716401367199,0.058177050947902,0.865749000000505,
-0.0416591088867188,-0.00454898315429664,-0.0232716401367199,0.047934787322221,0.868719000000056,
-0.015322890625,-0.00215478149414028,-0.0184832368164081,0.0241052712825354,0.871871999999712,
-0.0177170922851563,-0.00215478149414028,-0.020877438476564,0.0274664500740621,0.874836999999388,
-0.03447650390625,0.0193930334472658,0.017429788085936,0.0432263412817356,0.877920000000813,
0.00143652099609375,-0.0141257897949216,0.0365834013671869,0.0392421557192673,0.880934999999226,
-0.005746083984375,0.000239420166015858,0.0796790312499986,0.0798863118694914,0.883906000000934,
-0.0296881005859375,-0.0356736047363279,0.0102471831054682,0.0475288770420835,0.887038000000757,
-0.0105344873046875,-0.0141257897949216,-0.0041180268554708,0.0180961737747324,0.890042000000903,
-0.015322890625,-0.026096798095703,0.0653138212890614,0.0719842281290356,0.893094000000929,
-0.015322890625,-0.026096798095703,-0.0376368500976572,0.0482945787146665,0.896055999999589,
-0.0201112939453125,0.0146046301269533,0.0270065947265614,0.0367030724057893,0.899081999999908,
-0.0392649072265625,-0.0237025964355466,-0.0232716401367199,0.0514306839537444,0.902105000001029,
-0.0368707055664063,0.0169988317871097,-0.0304542451171894,0.0507530319956249,0.905130999999528,
-0.0272938989257813,0.00742202514648471,-0.0160890351562522,0.0325407502695456,0.90824000000066,
0.0205901342773438,0.00502782348632835,-0.0160890351562522,0.0266099547317886,0.911255000000892,
-0.0105344873046875,-0.0428562097167966,0.0150355864257801,0.046622944922321,0.914204000000609,
-0.0225054956054688,-0.0284909997558591,-0.020877438476564,0.0418819989599213,0.917219999999361,
0.0181959326171875,0.0193930334472658,0.0270065947265614,0.0379016868862157,0.920242000000144,
-0.024899697265625,0.0146046301269533,-0.0304542451171894,0.0419613058748502,0.92329299999983,
-0.015322890625,-0.0524330163574216,0.0294007963867173,0.0620356269382084,0.926251999999295,
0.013407529296875,-0.0452504113769528,-0.0543962617187521,0.0720160736266912,0.929229999999734,
-0.0105344873046875,-0.0117315881347655,0.00545877978515463,0.0166854385521989,0.932300000000396,
0.00143652099609375,-0.00694318481445277,0.0270065947265614,0.0279218116651588,0.935325000000375,
-0.0416591088867188,-0.0237025964355466,-0.0352426484375012,0.0594923415231842,0.938406999999643,
0.0086191259765625,-0.0141257897949216,-0.0879150849609385,0.0894588700667474,0.941388999999617,
-0.005746083984375,0.00742202514648471,0.00306457812499872,0.00987398488528127,0.944378000000142,
-0.0464475122070312,-0.0620098229980467,-0.0136948334960945,0.0786774300734153,0.94739699999991,
-0.024899697265625,-0.0284909997558591,-0.0304542451171894,0.0485715249571803,0.950403999999253,
-0.024899697265625,-0.0237025964355466,-0.0136948334960945,0.0370048167971672,0.953482999999324,
-0.03447650390625,0.00742202514648471,0.00306457812499872,0.0353992573079852,0.956522000000405,
-0.00814028564453125,0.0265756384277347,-0.0663672700195335,0.0719523685368447,0.959586999999374,
-0.0488417138671875,-0.016519991455078,-0.0424252534179708,0.0667706916149526,0.962579999999434,
0.0086191259765625,-0.00454898315429664,-0.0496078583984385,0.0505561291557953,0.965550999999323,
-0.015322890625,-0.0308852014160154,-0.0615788666992199,0.0705736740404936,0.968592999999601,
-0.0272938989257813,-0.00215478149414028,-0.00651222851562672,0.0281426566282928,0.971606999999494,
-0.0512359155273438,0.0313640417480472,0.00545877978515463,0.0603209783693962,0.97472899999957,
-0.024899697265625,0.0265756384277347,-0.0448194550781267,0.0577498314738812,0.977686000000176,
-0.03447650390625,-0.0380678063964841,-0.078338278320313,0.0936732248597682,0.980643000000782,
-0.0560243188476563,-0.0380678063964841,-0.0136948334960945,0.0691044908140549,0.983688000000257,
-0.0560243188476563,0.00502782348632835,-0.0113006318359385,0.057373404912424,0.986709000000701,
-0.000957680664062498,0.0122104284667972,-0.00890643017578263,0.0151438507016274,0.989745000000767,
-0.0368707055664063,0.0337582434082033,0.0222181914062478,0.0547057214223228,0.992711000000781,
-0.0272938989257813,-0.0237025964355466,-0.0113006318359385,0.0378744541379619,0.995613000000958,
-0.00814028564453125,0.0169988317871097,-0.0256658417968758,0.0318427380676234,0.998673000000053,
0.00383072265625,-0.00694318481445277,-0.0160890351562522,0.0179370929555453,1.00160300000061,
0.0086191259765625,0.0169988317871097,-0.0280600434570317,0.0339207260172422,1.00468200000068,
0.0277727392578125,-0.00933738647460913,-0.0711556733398453,0.0769522038703598,1.00771800000075,
-0.00814028564453125,-0.0189141931152341,0.00785298144531055,0.0220381548491548,1.01065799999924,
-0.03447650390625,-0.0189141931152341,-0.0424252534179708,0.0578470236950622,1.01372000000083,
-0.00814028564453125,0.0337582434082033,-0.00651222851562672,0.0353311812514358,1.01668100000097,
-0.0392649072265625,0.0217872351074222,-0.0160890351562522,0.047699828148493,1.01974599999994,
-0.0320823022460938,-0.0404620080566404,0.0365834013671869,0.0632834375565837,1.02272500000072,
-0.0536301171875,-0.0237025964355466,-0.0663672700195335,0.0885585516885695,1.02566800000022,
-0.044053310546875,-0.0117315881347655,-0.0352426484375012,0.0576226396409648,1.02875300000051,
-0.0320823022460938,-0.00454898315429664,-0.0184832368164081,0.0373041205278882,1.03170800000044,
