X,Y,Z,Magnitude,Seconds,
-0.0230322199707032,-0.040222587890625,-0.0176692082519558,0.0496038370859443,0.0,
-0.00148440502929698,-0.04979939453125,0.0613394465332,0.0790234829336787,0.00376300000061747,
-0.00148440502929698,-0.0258573779296875,0.0302148249511696,0.0397962699071095,0.00750200000038603,
0.00330399829101552,-0.0330399829101563,0.0373974299316373,0.050011245144489,0.011264000000665,
0.0296402165527343,-0.0450109912109375,-0.0799184514160185,0.0963923785567022,0.0151270000005752,
0.046399628173828,0.0100556469726562,-0.0080924016113304,0.0481614835168857,0.0189580000005662,
-0.00627280834960947,0.0100556469726562,0.0326090266113255,0.0346960052047459,0.0227170000007391,
-0.039791631591797,-0.00670376464843752,-0.0080924016113304,0.0411558181675204,0.0264240000005884,
-0.0373974299316407,-0.01149216796875,-0.0152750065917999,0.0419995656702956,0.0301640000006955,
-0.0661278498535157,-0.0186747729492188,0.0445800349121068,0.0819086026234037,0.0338879999999335,
-0.068522051513672,-0.00909796630859377,0.0421858332519509,0.0809795595305138,0.0376490000007834,
-0.00866701000976572,-0.00191536132812502,0.0541568415527323,0.0548794055953087,0.0413670000007187,
-0.00866701000976572,-0.00909796630859377,0.0804930598144509,0.0814679245577942,0.0450690000006944,
-0.0134554133300782,-0.00670376464843752,0.0134554133300764,0.0201751519505575,0.0487580000008165,
0.00809240161132801,0.0148440502929687,-0.0296402165527372,0.0341229428718035,0.0524820000000545,
-0.0469742365722657,-0.0234631762695313,0.0469742365722627,0.0704533778022686,0.0561840000000302,
-0.00148440502929698,-0.0737414111328125,0.0278206232910136,0.0788288415140676,0.0598589999999604,
-0.0469742365722657,0.0100556469726562,0.0421858332519509,0.063932303765368,0.063680000000204,
-0.00387860668945322,-0.01149216796875,0.0350032282714814,0.0370451009432944,0.0675730000002659,
-0.00148440502929698,0.0100556469726562,-0.00330399829101857,0.0106881195276225,0.0714020000004894,
0.0104866032714843,-0.01149216796875,0.0709162531738254,0.0726027116367535,0.0751430000000255,
-0.00387860668945322,0.00047884033203123,0.0350032282714814,0.0352207164512661,0.0788890000003448,
0.00569819995117177,-0.0138863696289063,-0.0176692082519558,0.0231840821341956,0.0825979999999618,
0.0200634099121093,-0.00430956298828127,-0.0368228215332049,0.0421548684746798,0.0864460000002509,
0.00330399829101552,-0.0354341845703125,-0.0224576115722677,0.0420813754338051,0.0902270000005956,
0.0104866032714843,-0.0234631762695313,0.00148440502929503,0.0257428232157935,0.0939870000001974,
0.000909796630859272,-0.01149216796875,0.0613394465332,0.0624133427684401,0.0977480000001378,
-0.00627280834960947,-0.0258573779296875,0.00627280834960686,0.0273367928364049,0.101501000000098,
-0.0326090266113282,-0.0521935961914063,-0.0152750065917999,0.0634101405637097,0.105227000000014,
0.0200634099121093,-0.0282515795898438,0.00866701000976278,0.0357184718196612,0.108946000000287,
-0.0278206232910157,0.0627280834960937,0.0254264216308577,0.0731799320602559,0.112805000000662,
0.0272460148925781,-0.0833182177734375,0.0206380183105441,0.0900566407337899,0.116525000000365,
-0.00866701000976572,0.0148440502929687,0.0158496149902323,0.0233810433246286,0.120247000000745,
-0.0134554133300782,-0.0186747729492188,-0.000909796630862658,0.0230352560762334,0.123918000000231,
0.00809240161132801,0.00766144531249998,-0.0176692082519558,0.0208898451015424,0.127645000000484,
0.00569819995117177,-0.0426167895507813,0.0278206232910136,0.0512117888244455,0.13136300000042,
-0.0230322199707032,-0.0186747729492188,0.00866701000976278,0.0308925130734465,0.135188000000198,
-0.0134554133300782,-0.00909796630859377,0.0685220515136695,0.0704208256304734,0.139168000000609,
-0.0421858332519532,0.00047884033203123,0.0278206232910136,0.0505357387946953,0.142950000000383,
0.0176692082519531,-0.01149216796875,-0.0248518132324236,0.0325865534509576,0.146725999999944,
-0.0373974299316407,-0.0282515795898438,-0.034428619873049,0.0581553899580783,0.150470000000496,
-0.0350032282714844,-0.021068974609375,0.0493684382324187,0.064080967330591,0.154284000000189,
0.036822821533203,-0.04979939453125,0.0134554133300764,0.0633793975139273,0.158186999999998,
-0.0421858332519532,-0.0258573779296875,0.0206380183105441,0.0536113450712314,0.161946000000171,
-0.00148440502929698,0.0316034619140625,0.0326090266113255,0.0454349081630274,0.165742000000137,
0.0416112248535155,-0.0330399829101563,-0.0224576115722677,0.0576843030818965,0.169520000000375,
-0.0757046564941407,-0.0282515795898438,-0.00330399829101857,0.0808718935658376,0.173275000000103,
-0.0182438166503907,0.0196324536132812,0.0254264216308577,0.0369428341874424,0.177022000000761,
0.055976434814453,-0.00909796630859377,0.0469742365722627,0.073639073507452,0.18075300000055,
-0.118800286376953,-0.0282515795898438,-0.0583706364746117,0.135346928280691,0.184579000000667,
0.0104866032714843,-0.00430956298828127,0.0110612116699187,0.0158395575989424,0.188294999999925,
-0.011061211669922,0.017238251953125,-0.0248518132324236,0.0322043530434241,0.191988999999921,
-0.011061211669922,-0.040222587890625,-0.0320344182128931,0.0525966817438554,0.195697000000109,
-0.011061211669922,-0.0162805712890625,-0.0200634099121118,0.0281060104320497,0.199368999999933,
0.0152750065917968,-0.00909796630859377,0.0373974299316373,0.0414085327296617,0.203085000000101,
-0.0517626398925782,0.00047884033203123,-0.0272460148925813,0.0584973974142361,0.207012000000759,
-0.0350032282714844,0.00287304199218748,-0.0320344182128931,0.0475361368850379,0.210923000000548,
-0.00387860668945322,0.00287304199218748,0.0254264216308577,0.0258805115306961,0.214664000000084,
-0.030214824951172,0.00047884033203123,-0.0440054265136745,0.0533820428378677,0.218417000000045,
0.0104866032714843,-0.00670376464843752,0.0493684382324187,0.0509131810255781,0.222173000000112,
-0.00627280834960947,-0.00191536132812502,0.0661278498535136,0.0664523081604924,0.225936000000729,
-0.0541568415527345,-0.0378283862304688,0.00627280834960686,0.0663573538981205,0.229753999999957,
0.00330399829101552,-0.0521935961914063,-0.00330399829101857,0.0524023309863757,0.233642000000145,
-0.0469742365722657,-0.0162805712890625,0.00387860668945095,0.0498666170187721,0.237359000000652,
-0.0230322199707032,-0.0713472094726563,-0.0224576115722677,0.0782639877200543,0.241093000000546,
0.0272460148925781,-0.0186747729492188,0.0709162531738254,0.0782317546552905,0.244829000000209,
-0.0350032282714844,0.0148440502929687,-0.0416112248535185,0.0563654668421713,0.248545000000377,
-0.011061211669922,-0.00909796630859377,0.0134554133300764,0.0196512478596735,0.252258000000438,
-0.020638018310547,-0.0258573779296875,-0.00330399829101857,0.0332482811268826,0.256006999999954,
0.00809240161132801,0.00047884033203123,0.0828872614746068,0.0832827375070154,0.259761000000253,
-0.00387860668945322,0.00766144531249998,-0.00569819995117449,0.0103058632249542,0.263457000000017,
-0.0134554133300782,-0.0354341845703125,0.0493684382324187,0.0622404392461554,0.267152000000351,
-0.00866701000976572,-0.03064578125,0.0350032282714814,0.0473234292962552,0.270843000000241,
-0.00387860668945322,0.0292092602539062,-0.0152750065917999,0.0331896113386618,0.274554999999964,
-0.0565510432128907,-0.0282515795898438,-0.0368228215332049,0.0731579963056245,0.27854600000046,
-0.0158496149902345,-0.00670376464843752,0.00387860668945095,0.0176407013934186,0.282375000000684,
-0.0134554133300782,0.0100556469726562,0.00627280834960686,0.017930764303644,0.286173000000417,
0.0296402165527343,-0.059376201171875,0.0373974299316373,0.0761750843018088,0.289964000000509,
0.0583706364746093,-0.104866032714844,0.358220452392576,0.377790826426666,0.293724000000111,
-0.272029192626953,-0.655532414550781,-1.38475835620117,1.55604573622919,0.297501000000011,
0.118225677978516,2.02118504150391,0.142742302978514,2.02966540296479,0.301167000000532,
-0.0517626398925782,-0.325132585449219,-1.86120448657227,1.8900985979166,0.304098000000522,
-0.0373974299316407,-2.35541559326172,1.66066615551758,2.88222019714446,0.307021000000532,
-0.238510369384766,-0.4903325,-0.728747101318362,0.910156851614172,0.310010000000148,
-0.0613394465332032,2.12413571289063,0.219356756103513,2.13631281438993,0.312973000000056,
0.218782147705078,2.86154982421875,0.166684319580076,2.87473767273375,0.316007000000354,
0.86282239428711,-3.83503221923828,0.27921179760742,3.94079862903476,0.318962000000283,
-0.705379693115234,-2.71933424560547,-1.14773239184571,3.03473703870267,0.321867000000566,
-1.14351859692383,4.01076662109375,1.1339417902832,4.32200273648006,0.324888000000101,
0.221176349365234,1.57346933105469,-0.175686517822268,1.5986214266776,0.32785100000001,
1.86599288989258,-3.17662676269531,-0.0583706364746117,3.68460231039989,0.33088300000054,
-0.145136504638672,-0.332315190429688,-0.115831476318363,0.380676925588014,0.333810000000085,
-2.28794699047852,1.21194488037109,0.185837932861325,2.59577494432541,0.336740000000646,
0.125408282958984,0.383551105957031,-0.0631590397949235,0.408445532015469,0.339776000000711,
2.13653767749023,-0.303584770507813,0.0924640681152322,2.15997837121395,0.342754000000241,
-0.171472722900391,-0.839885942382813,0.181049529541013,0.876122264902657,0.345769000000473,
-1.68221397045898,0.201591779785156,-0.422289288818362,1.7460845717018,0.348716000000422,
-0.516237761962891,0.79295958984375,0.221750957763669,0.971833229145169,0.35166400000071,
0.884370209228516,0.0124498486328125,0.0757046564941373,0.887691872620654,0.354713000000629,
0.558758783447266,-0.679474431152344,-0.190051727783205,0.900009188787898,0.357644000000619,
-0.300759612548828,0.196803376464844,0.130771294677732,0.382477509195213,0.360695000000305,
-0.63834204663086,0.405098920898438,0.0469742365722627,0.757490780875583,0.363647000000128,
0.168503912841797,-0.265277543945313,-0.0440054265136745,0.317336133346493,0.366644000000633,
0.577912396728516,-0.226970317382813,0.0469742365722627,0.622659491348923,0.369613000000754,
-0.171472722900391,0.199197578125,0.0924640681152322,0.278625508024944,0.372536000000764,
-0.355826250732422,0.0699106884765625,-0.0607648381347676,0.367684906716476,0.375558000000638,
0.139773492919922,-0.138384855957031,-0.051188031494144,0.203241758134319,0.378484000000753,
0.101466266357422,-0.0521935961914063,-0.0679474431152371,0.132802220304501,0.381508000000395,
-0.0134554133300782,0.0100556469726562,0.0733104548339814,0.0752102850140003,0.384495000000243,
0.000909796630859272,0.055545478515625,-0.0200634099121118,0.0590649501035995,0.387549000000035,
-0.118800286376953,0.0435744702148437,0.00387860668945095,0.126598918192858,0.390705000000708,
-0.0254264216308595,-0.107260234375,0.0134554133300764,0.111050929500898,0.393750000000182,
0.161321307861328,-0.00670376464843752,0.00627280834960686,0.161582341099335,0.396818000000167,
-0.0661278498535157,0.0914585034179687,-0.0176692082519558,0.114235508025984,0.399758000000475,
-0.147530706298828,0.0244208569335937,0.0709162531738254,0.165501669232115,0.402705000000424,
0.0248518132324218,-0.1838746875,-0.0224576115722677,0.186900662496666,0.405750000000808,
0.0511880314941405,-0.0809240161132813,-0.034428619873049,0.101755790098208,0.408701000000292,
-0.011061211669922,0.170467158203125,0.0613394465332,0.181504628399541,0.411751999999979,
-0.0350032282714844,0.0411802685546875,0.0350032282714814,0.0643915095108607,0.414716000000226,
0.0440054265136718,-0.200634099121094,0.0278206232910136,0.207278813131211,0.417663000000175,
-0.020638018310547,-0.0450109912109375,0.0445800349121068,0.0666280469647898,0.42070700000022,
-0.0326090266113282,0.151313544921875,0.106829278076169,0.188073475396288,0.423665000000256,
0.046399628173828,0.0124498486328125,-0.0535822331542999,0.0719651299967644,0.426739000000453,
0.0440054265136718,-0.121625444335938,0.0134554133300764,0.130039510997418,0.429722000000766,
-0.111617681396484,0.0100556469726562,0.0493684382324187,0.122461690049884,0.432653000000755,
-0.0445800349121095,-0.00191536132812502,0.0517626398925763,0.0683404639319248,0.435660000000098,
0.0535822331542968,-0.0378283862304688,-0.0200634099121118,0.0685899623261623,0.438653000000158,
0.036822821533203,-0.040222587890625,-0.0296402165527372,0.0620670540591249,0.44172300000082,
-0.0373974299316407,-0.0282515795898438,0.00387860668945095,0.0470293855441968,0.444664999999986,
-0.00866701000976572,-0.01149216796875,-0.0583706364746117,0.0601191998415033,0.447576000000481,
-0.039791631591797,-0.01149216796875,-0.0152750065917999,0.0441448716810774,0.450575000000754,
0.00569819995117177,-0.00670376464843752,-0.0080924016113304,0.0119539494303865,0.453513000000385,
0.0440054265136718,0.00287304199218748,0.0469742365722627,0.064430666879103,0.456585000000814,
-0.00148440502929698,-0.0258573779296875,-0.00330399829101857,0.0261098421365727,0.459505000000718,
-0.0421858332519532,-0.021068974609375,0.00627280834960686,0.0475698890354286,0.462508000000525,
-0.0158496149902345,-0.03064578125,-0.0104866032714863,0.036060269715229,0.46543500000007,
0.00569819995117177,-0.0138863696289063,0.0254264216308577,0.0295263214963242,0.468395000000783,
-0.0182438166503907,0.00047884033203123,0.00387860668945095,0.0186576987832934,0.471425000000636,
-0.0134554133300782,-0.0258573779296875,0.0804930598144509,0.0856083221397003,0.474370000000818,
-0.0541568415527345,0.0124498486328125,0.0493684382324187,0.0743317221074291,0.477387000000817,
0.00569819995117177,-0.0545877978515625,0.0278206232910136,0.0615327899356683,0.480365000000347,
-0.011061211669922,-0.0521935961914063,-0.0535822331542999,0.0756146652230911,0.483293000000231,
-0.087675664794922,0.0244208569335937,0.039791631591795,0.0993316384408297,0.486329000000296,
-0.0182438166503907,0.0675164868164062,0.00387860668945095,0.0700453883410927,0.489283000000796,
0.151744501220703,-0.08810662109375,-0.0080924016113304,0.175654938146118,0.492299000000457,
-0.0278206232910157,-0.040222587890625,0.0541568415527323,0.0729712761563576,0.495271000000685,
-0.195414739501953,0.055545478515625,-0.0463996281738304,0.208387010374485,0.498196000000462,
0.046399628173828,-0.03064578125,0.0589452448730441,0.0810347536322255,0.501234000000295,
0.103860468017578,-0.0857124194335938,-0.0176692082519558,0.13581537682546,0.504168000000391,
-0.106829278076172,0.045968671875,-0.0440054265136745,0.124346656613187,0.507200000000012,
-0.0852814631347657,-0.0450109912109375,-0.0248518132324236,0.0995817749647834,0.510141000000658,
0.0727358464355468,-0.0545877978515625,0.0230322199707,0.0938126547314231,0.513085000000501,
0.0320344182128905,0.00526724365234373,-0.0440054265136745,0.0546847818737712,0.516116000000693,
-0.0326090266113282,-0.0354341845703125,-0.0128808049316422,0.0498482215168034,0.519028000000617,
0.0200634099121093,-0.0186747729492188,-0.051188031494144,0.0580646375193342,0.522061000000576,
0.0176692082519531,-0.0138863696289063,-0.0176692082519558,0.0285872891679586,0.525069000000258,
-0.0230322199707032,-0.0617704028320313,-0.000909796630862658,0.065930975669406,0.528109000000768,
-0.0278206232910157,-0.0186747729492188,0.0206380183105441,0.039353043399359,0.531219000000419,
-0.00148440502929698,-0.0378283862304688,0.0804930598144509,0.0889512391222589,0.53427499999998,
0.00809240161132801,-0.0258573779296875,0.0541568415527323,0.0605562089649399,0.537338000000091,
-0.00866701000976572,0.0100556469726562,0.0206380183105441,0.0245389669369846,0.540291000000252,
-0.0373974299316407,0.036391865234375,-0.000909796630862658,0.0521896862477484,0.543217000000368,
-0.00866701000976572,-0.03064578125,0.0493684382324187,0.0587496694836692,0.546264000000519,
-0.00387860668945322,-0.040222587890625,-0.000909796630862658,0.0404194000002481,0.549215000000004,
-0.0445800349121095,0.00766144531249998,0.0182438166503882,0.0487741130418003,0.552261000000726,
0.0200634099121093,-0.0282515795898438,0.00627280834960686,0.0352142058154589,0.555217000000084,
-0.0326090266113282,-0.00191536132812502,0.0206380183105441,0.0386386467845594,0.558214000000589,
-0.0541568415527345,-0.0234631762695313,-0.0152750065917999,0.0609656456867523,0.561156000000665,
0.0104866032714843,-0.0426167895507813,0.0685220515136695,0.0813721767155768,0.564133000000766,
0.0272460148925781,0.0292092602539062,0.0254264216308577,0.0473500700005519,0.567211999999927,
-0.0613394465332032,-0.00670376464843752,-0.034428619873049,0.0706597341335519,0.570144000000255,
-0.0565510432128907,-0.0138863696289063,-0.0200634099121118,0.0615905201085221,0.5731250000008,
0.0320344182128905,-0.0282515795898438,-0.00330399829101857,0.0428400759134097,0.576085000000603,
0.00330399829101552,0.0100556469726562,0.00148440502929503,0.0106881195276213,0.579054000000724,
-0.00148440502929698,-0.0258573779296875,-0.00569819995117449,0.0265193690417638,0.582048000000214,
-0.049368438232422,-0.03064578125,-0.0487938298339863,0.0758765077728234,0.584962000000814,
0.0344286198730468,-0.0354341845703125,0.0254264216308577,0.0555645050322225,0.587999000000309,
-0.0278206232910157,-0.00909796630859377,-0.0248518132324236,0.0383975610187962,0.590927000000192,
-0.0230322199707032,0.045968671875,-0.00569819995117449,0.0517307590647367,0.593859000000521,
-0.0254264216308595,-0.021068974609375,-0.0152750065917999,0.036383106442692,0.596878000000288,
0.00330399829101552,-0.0186747729492188,-0.0176692082519558,0.0259203485636843,0.599825000000237,
0.000909796630859272,-0.01149216796875,-0.0463996281738304,0.0478102828814179,0.602851000000555,
-0.049368438232422,0.0339976635742187,0.0134554133300764,0.0614339643023094,0.60582500000055,
-0.0230322199707032,-0.0761356127929688,-0.0583706364746117,0.0986622820260661,0.608731000000262,
0.0200634099121093,-0.00670376464843752,0.0828872614746068,0.0855440178652067,0.611786000000393,
-0.0182438166503907,0.00766144531249998,0.0230322199707,0.0303647451335956,0.614746000000196,
-0.0254264216308595,0.00526724365234373,-0.0463996281738304,0.0531711601087761,0.617772000000514,
-0.0421858332519532,-0.03064578125,-0.0200634099121118,0.0558690330405483,0.620710000000145,
-0.00387860668945322,-0.0641646044921875,-0.0296402165527372,0.070786174474847,0.623643000000811,
-0.0373974299316407,0.00047884033203123,0.0158496149902323,0.0406202824817129,0.626701000000139,
-0.0182438166503907,-0.0234631762695313,0.0230322199707,0.0376010723704376,0.629641000000447,
-0.0254264216308595,-0.021068974609375,0.0421858332519509,0.0535728395290201,0.632669999999962,
-0.00148440502929698,-0.03064578125,-0.0416112248535185,0.0516997234085825,0.635592999999972,
-0.011061211669922,-0.0162805712890625,0.0900698664550763,0.0921953808405841,0.638529000000744,
-0.0350032282714844,0.00287304199218748,0.0182438166503882,0.0395767255554007,0.641567000000578,
0.000909796630859272,-0.0138863696289063,0.0541568415527323,0.0559162094418772,0.644524000000274,
0.000909796630859272,-0.00430956298828127,-0.0224576115722677,0.0228854622105462,0.647553000000698,
-0.0230322199707032,0.00766144531249998,0.00866701000976278,0.0257739784194178,0.650517000000036,
-0.00627280834960947,-0.00909796630859377,-0.0679474431152371,0.0688402218288235,0.653496000000814,
-0.0278206232910157,0.0244208569335937,-0.0368228215332049,0.0522138441348453,0.656447000000298,
-0.0158496149902345,-0.00670376464843752,0.0230322199707,0.0287512419310718,0.659376999999949,
-0.0254264216308595,-0.0354341845703125,-0.00330399829101857,0.0437378641204651,0.662398000000394,
-0.0182438166503907,-0.03064578125,0.0685220515136695,0.077248121647312,0.665445999999974,
-0.0565510432128907,-0.0330399829101563,0.0900698664550763,0.111365352791633,0.668545000000449,
-0.011061211669922,-0.040222587890625,0.0757046564941373,0.0864372720249846,0.671618000000308,
-0.0254264216308595,0.0244208569335937,0.0445800349121068,0.0568353823167044,0.67459400000007,
0.000909796630859272,-0.0450109912109375,-0.0080924016113304,0.0457417098886747,0.677637000000686,
0.00809240161132801,-0.00430956298828127,0.0373974299316373,0.0385048966039478,0.680591000000277,
0.0200634099121093,-0.00430956298828127,0.00866701000976278,0.022276216307098,0.683653000000049,
-0.030214824951172,-0.0330399829101563,0.0182438166503882,0.0483467988961665,0.686606000000211,
0.00809240161132801,-0.0186747729492188,0.0182438166503882,0.0273325987516167,0.689554000000498,
0.0128808049316406,-0.0330399829101563,-0.000909796630862658,0.0354736992192797,0.69257800000014,
0.000909796630859272,-0.00191536132812502,0.00627280834960686,0.0066215151980266,0.695557000000008,
0.0152750065917968,-0.0378283862304688,0.0302148249511696,0.0507666059335344,0.698648000000503,
-0.0182438166503907,-0.021068974609375,-0.0104866032714863,0.0297776322973656,0.7016050000002,
0.000909796630859272,-0.0234631762695313,-0.00330399829101857,0.0237121229600319,0.704561000000467,
-0.0158496149902345,0.0148440502929687,0.0469742365722627,0.0517507007294177,0.707648000000518,
-0.0278206232910157,-0.040222587890625,-0.051188031494144,0.0707958913014388,0.710605000000214,
-0.011061211669922,-0.0234631762695313,0.0350032282714814,0.0435671554463606,0.713618000000679,
-0.0182438166503907,-0.0450109912109375,0.00627280834960686,0.0489711578416834,0.716594000000441,
-0.039791631591797,-0.0330399829101563,0.0373974299316373,0.0638246204918794,0.719517000000451,
-0.0158496149902345,-0.0665588061523438,0.0445800349121068,0.0816618912622565,0.722552000000178,
-0.020638018310547,-0.00909796630859377,-0.0272460148925813,0.0353701303116845,0.725476999999955,
-0.0373974299316407,-0.0138863696289063,-0.0559764348144558,0.0687368917067073,0.728480000000673,
0.0392170231933593,-0.0162805712890625,-0.0128808049316422,0.0443728187670532,0.731422000000748,
0.00569819995117177,-0.00670376464843752,0.00627280834960686,0.0108054647163402,0.73438299999998,
-0.0230322199707032,-0.0162805712890625,0.0278206232910136,0.0396172593521763,0.737399000000551,
-0.0350032282714844,0.00766144531249998,-0.0176692082519558,0.0399515288062054,0.740340000000288,
0.0104866032714843,-0.0426167895507813,-0.0775242497558626,0.0890851777794625,0.743390000000545,
0.00569819995117177,-0.03064578125,0.00387860668945095,0.0314114148194226,0.746339000000262,
-0.00866701000976572,-0.0162805712890625,0.0541568415527323,0.0572113411044993,0.749338999999964,
-0.011061211669922,-0.00670376464843752,0.0350032282714814,0.0373164421333799,0.752286000000822,
-0.0158496149902345,0.00526724365234373,-0.0104866032714863,0.0197211307790747,0.755212000000029,
-0.0134554133300782,-0.00191536132812502,0.00148440502929503,0.0136718767984326,0.758236000000579,
-0.0421858332519532,0.00766144531249998,0.00866701000976278,0.0437431061305363,0.761208000000806,
-0.0134554133300782,-0.00670376464843752,0.00148440502929503,0.0151060274935498,0.76419900000019,
-0.0254264216308595,-0.0186747729492188,-0.034428619873049,0.0466966800534901,0.767125000000306,
-0.0517626398925782,0.00287304199218748,0.0206380183105441,0.0557992209508695,0.770085000000108,
-0.0134554133300782,-0.0234631762695313,0.0230322199707,0.0355253704458807,0.773100000000341,
0.0224576115722656,-0.0186747729492188,0.0828872614746068,0.0878828173023343,0.776060000000143,
0.00569819995117177,0.0100556469726562,0.0254264216308577,0.0279300632951731,0.779122000000825,
-0.00148440502929698,-0.0234631762695313,0.0134554133300764,0.0270882307807154,0.782048000000032,
-0.011061211669922,-0.0138863696289063,0.0685220515136695,0.0707845548740642,0.784977000000254,
-0.0182438166503907,-0.0378283862304688,-0.034428619873049,0.0543061093905419,0.788024000000405,
-0.0182438166503907,-0.00430956298828127,-0.0200634099121118,0.0274581426251752,0.790972000000693,
-0.0182438166503907,-0.040222587890625,0.0709162531738254,0.0835452475417138,0.793996000000334,
-0.0230322199707032,-0.0234631762695313,0.0613394465332,0.0695954847560764,0.796933999999965,
0.0104866032714843,-0.03064578125,0.0493684382324187,0.0590455370887969,0.799883000000591,
-0.00627280834960947,-0.0258573779296875,0.00866701000976278,0.0279833732866313,0.802973000000748,
-0.00148440502929698,-0.0282515795898438,-0.00569819995117449,0.0288587021588956,0.805992000000515,
-0.0230322199707032,-0.0330399829101563,0.0182438166503882,0.0442149349593015,0.80913000000055,
-0.00866701000976572,-0.03064578125,0.00866701000976278,0.0330060302587506,0.812141000000338,
-0.039791631591797,0.00047884033203123,0.0158496149902323,0.0428347233928208,0.815093000000161,
-0.0350032282714844,-0.00191536132812502,-0.0607648381347676,0.0701516938639933,0.818094000000201,
-0.00387860668945322,-0.00909796630859377,0.0421858332519509,0.043329679296819,0.821040000000721,
0.00809240161132801,0.00526724365234373,0.0493684382324187,0.0503038121124067,0.82411300000058,
-0.00866701000976572,-0.0258573779296875,0.00627280834960686,0.0279833732866316,0.827052999999978,
-0.0373974299316407,-0.021068974609375,0.0469742365722627,0.0636321330628588,0.829980000000432,
-0.020638018310547,0.00287304199218748,0.0350032282714814,0.0407358338505643,0.833004000000074,
0.000909796630859272,0.00526724365234373,-0.00569819995117449,0.0078128783611575,0.835974000000533,
0.00809240161132801,0.0196324536132812,-0.000909796630862658,0.0212543625786847,0.839042000000518,
-0.00387860668945322,0.00287304199218748,-0.00330399829101857,0.00584930464648556,0.841997000000447,
-0.030214824951172,-0.021068974609375,0.00627280834960686,0.0373655651972689,0.845041000000492,
0.0176692082519531,-0.0282515795898438,0.0445800349121068,0.0556572742984852,0.84802800000034,
0.00569819995117177,-0.021068974609375,-0.0104866032714863,0.0242144589439362,0.850961000000098,
-0.0373974299316407,-0.01149216796875,-0.0104866032714863,0.0405044014680811,0.853971000000456,
-0.0158496149902345,-0.01149216796875,-0.0392170231933626,0.0438321243850828,0.856893000000127,
-0.0158496149902345,-0.040222587890625,0.0469742365722627,0.0638407845621012,0.859926000000087,
-0.0230322199707032,0.0100556469726562,0.00387860668945095,0.0254291718832722,0.862877000000481,
-0.0421858332519532,0.0148440502929687,-0.00330399829101857,0.0448431350483978,0.865806000000703,
-0.020638018310547,0.0124498486328125,-0.0559764348144558,0.0609449570128935,0.868836999999985,
0.0128808049316406,-0.0234631762695313,-0.0440054265136745,0.0515064397817639,0.871782000000167,
-0.0373974299316407,-0.0521935961914063,-0.0224576115722677,0.0680226695037353,0.874823000000106,
-0.0230322199707032,-0.0569819995117188,-0.00569819995117449,0.0617243947545534,0.87776600000052,
-0.0134554133300782,-0.01149216796875,-0.000909796630862658,0.0177185158073339,0.880673999999999,
-0.0134554133300782,-0.0330399829101563,0.0254264216308577,0.0438085783327514,0.883700000000317,
-0.0350032282714844,0.0148440502929687,0.0326090266113255,0.0500891249181293,0.886651000000711,
-0.00387860668945322,-0.0474051928710938,0.00627280834960686,0.0479754523229117,0.889693000000079,
0.0200634099121093,0.00526724365234373,-0.00569819995117449,0.021511712058273,0.892659000000094,
-0.0182438166503907,-0.01149216796875,0.039791631591795,0.0452579353852137,0.895586999999978,
-0.0278206232910157,-0.0330399829101563,-0.000909796630862658,0.0432024916053872,0.898597000000336,
-0.00148440502929698,-0.0258573779296875,-0.0152750065917999,0.0300688090563831,0.901538000000073,
-0.0158496149902345,-0.01149216796875,-0.0080924016113304,0.021184125750186,0.904543999999987,
-0.00627280834960947,-0.04979939453125,-0.00569819995117449,0.0505153175081934,0.90748800000074,
-0.030214824951172,-0.0330399829101563,0.0996466730957,0.109243011568588,0.910401000000093,
0.000909796630859272,-0.00909796630859377,-0.0487938298339863,0.0496431118155363,0.913422000000537,
-0.020638018310547,-0.00430956298828127,-0.0104866032714863,0.0235471650333959,0.916350000000421,
0.00330399829101552,-0.00909796630859377,0.00387860668945095,0.0104275109930795,0.919395000000804,
-0.00387860668945322,0.00526724365234373,0.0326090266113255,0.0332586238753614,0.922344000000521,
-0.0134554133300782,-0.0378283862304688,0.0110612116699187,0.0416459524598911,0.925306000000091,
-0.00627280834960947,0.017238251953125,0.0709162531738254,0.0732503953518645,0.928361000000223,
-0.020638018310547,-0.021068974609375,0.0326090266113255,0.0439679213451704,0.93129399999998,
-0.00866701000976572,-0.01149216796875,-0.0152750065917999,0.0209883971162848,0.934298000000126,
-0.00387860668945322,0.0148440502929687,0.00866701000976278,0.0176211940986127,0.93726500000048,
-0.00866701000976572,0.0100556469726562,-0.0176692082519558,0.0221005434050626,0.940283000000818,
0.00569819995117177,-0.00191536132812502,-0.0631590397949235,0.063444482813855,0.943336000000272,
-0.030214824951172,-0.0258573779296875,0.0613394465332,0.0731031281220438,0.946380000000318,
-0.0182438166503907,-0.01149216796875,-0.000909796630862658,0.021580882755452,0.949485000000095,
-0.00148440502929698,-0.00909796630859377,0.0469742365722627,0.0478701927172872,0.952471000000514,
-0.0350032282714844,-0.0258573779296875,-0.0104866032714863,0.0447638116227594,0.95545200000015,
-0.0230322199707032,-0.021068974609375,0.0182438166503882,0.0361555209316963,0.958403999999973,
0.000909796630859272,-0.01149216796875,0.0182438166503882,0.0215808827554498,0.961346000000049,
0.000909796630859272,0.0292092602539062,0.0134554133300764,0.0321722980586272,0.964447000000291,
0.000909796630859272,-0.0186747729492188,0.00866701000976278,0.0206080551514141,0.967399000000114,
-0.00866701000976572,-0.0186747729492188,-0.0104866032714863,0.0231048275342579,0.970400000000154,
-0.00387860668945322,-0.0162805712890625,-0.0152750065917999,0.022658914751798,0.973338000000695,
-0.030214824951172,0.0124498486328125,-0.0200634099121118,0.0383467703348187,0.976267000000007,
-0.0373974299316407,-0.00909796630859377,-0.0607648381347676,0.0719284805205059,0.979309000000285,
-0.011061211669922,-0.0450109912109375,0.0278206232910136,0.0540585498667732,0.982278000000406,
-0.00148440502929698,-0.00670376464843752,0.0302148249511696,0.0309851507271219,0.985322000000451,
0.0104866032714843,-0.0162805712890625,-0.0176692082519558,0.0262150103933364,0.988281000000825,
-0.00148440502929698,-0.0258573779296875,-0.0224576115722677,0.0342804867121303,0.991183000000092,
0.00809240161132801,-0.0258573779296875,0.0158496149902323,0.0313895086386568,0.994230000000243,
-0.0230322199707032,-0.00191536132812502,0.0302148249511696,0.0380406021590873,0.997160000000804,
0.00569819995117177,0.00526724365234373,0.0254264216308577,0.0265841354067955,1.00021100000049,
0.000909796630859272,0.0100556469726562,0.0206380183105441,0.0229754557241977,1.00316700000076,
0.0392170231933593,0.00526724365234373,0.0302148249511696,0.0497860865169322,1.00611700000081,
-0.011061211669922,-0.0330399829101563,-0.0487938298339863,0.0599568903811584,1.0091110000003,
0.00569819995117177,0.0220266552734375,-0.0320344182128931,0.0392918181744867,1.01207700000032,
