X,Y,Z,Magnitude,Seconds,
-1.08605775708008,0.354820686035156,-0.0248518132324236,1.1428196636273,0.0,
-1.05972153881836,0.316513459472656,0.00627280834960686,1.10599722331817,0.0037320000001273,
-1.0357795222168,0.357214887695313,-0.0176692082519558,1.09578916564962,0.00748800000019401,
-1.07887515209961,0.359609089355469,-0.00330399829101857,1.13723401609771,0.0112410000001546,
-1.04535632885742,0.338061274414063,-0.0703416447753931,1.10091018095503,0.0150880000001052,
-1.05972153881836,0.328484467773438,-0.0607648381347676,1.11112742336669,0.0191070000000764,
-1.06450994213867,0.354820686035156,-0.0535822331542999,1.12336556465842,0.0229770000005374,
-1.05253893383789,0.3141192578125,-0.0583706364746117,1.0999619296029,0.0267950000006749,
-1.08605775708008,0.29496564453125,-0.0751300480957049,1.12790545139848,0.0306070000006002,
-1.09802876538086,0.335667072753906,-0.0775242497558626,1.15080387670324,0.0344080000004396,
-1.07887515209961,0.323696064453125,0.00148440502929503,1.12638933740456,0.0383590000001277,
-1.04056792553711,0.33327287109375,0.0158496149902323,1.09275048595689,0.0422180000005028,
-1.04775053051758,0.373974299316406,-0.0631590397949235,1.1142831844091,0.0460220000004483,
-1.04775053051758,0.330878669433594,-0.0607648381347676,1.10043365708231,0.049818000000414,
-1.0740867487793,0.318907661132813,-0.0823126530761744,1.12344996020692,0.0536490000004051,
-1.05493313549805,0.326090266113281,-0.0751300480957049,1.10673542735038,0.0574300000007497,
-1.04296212719727,0.29496564453125,-0.0751300480957049,1.08647100943764,0.0612160000000586,
-1.1123939753418,0.309330854492188,-0.072735846435549,1.15689084933467,0.0651170000001002,
-1.07169254711914,0.328484467773438,-0.0942836613769558,1.12486282271295,0.0688990000007834,
-1.06929834545898,0.316513459472656,-0.0320344182128931,1.11561907727455,0.0726610000001529,
-1.05972153881836,0.297359846191406,-0.113437274658205,1.10648119425701,0.076429000000644,
-1.08126935375977,0.309330854492188,-0.0152750065917999,1.12474989164139,0.0801970000002257,
-1.05253893383789,0.311725056152344,-0.0296402165527372,1.09812989227827,0.0839310000001205,
-1.10281716870117,0.338061274414063,-0.0583706364746117,1.15494513464622,0.087839000000713,
-1.04296212719727,0.340455476074219,-0.0440054265136745,1.09800565003984,0.0918600000004517,
-1.07169254711914,0.33327287109375,0.0637336481933577,1.12412530443444,0.0956599999999526,
-1.0740867487793,0.338061274414063,-0.0176692082519558,1.12617048890565,0.0994720000007874,
-1.06929834545898,0.326090266113281,-0.0703416447753931,1.12012577876097,0.103291000000354,
-1.08366355541992,0.338061274414063,-0.0320344182128931,1.13562244190314,0.107124000000113,
-1.09324036206055,0.340455476074219,-0.0440054265136745,1.14587123970796,0.110956000000442,
-1.08126935375977,0.3141192578125,-0.0894952580566439,1.12952367160824,0.114880000000085,
-1.07648095043945,0.318907661132813,-0.0487938298339863,1.12378564273535,0.118664999999964,
-1.06211574047852,0.342849677734375,-0.0703416447753931,1.11829499448245,0.122468000000481,
-1.02859691723633,0.350032282714844,-0.0440054265136745,1.08741468385032,0.126256000000467,
-1.0956345637207,0.321301862792969,-0.0463996281738304,1.14271733589211,0.13001500000064,
-1.12915338696289,0.3141192578125,-0.0583706364746117,1.17348430352557,0.133759000000282,
-1.02620271557617,0.328484467773438,-0.0440054265136745,1.07839257072133,0.137594000000718,
-1.0740867487793,0.3141192578125,-0.0416112248535185,1.11985032306365,0.141349000000446,
-0.995078093994141,0.311725056152344,-0.0487938298339863,1.04390313804014,0.145112000000154,
-1.05253893383789,0.330878669433594,-0.051188031494144,1.10450854034679,0.148838000000069,
-1.04296212719727,0.340455476074219,-0.0894952580566439,1.1007676099756,0.152577000000747,
-1.06211574047852,0.3141192578125,-0.0463996281738304,1.10856379148679,0.156316999999945,
-1.09324036206055,0.340455476074219,-0.0416112248535185,1.14578179181771,0.160329000000274,
-1.07169254711914,0.373974299316406,-0.051188031494144,1.13622264836966,0.164248000000043,
-1.05014473217773,0.309330854492188,-0.0152750065917999,1.09486202869946,0.168010000000322,
-1.06929834545898,0.338061274414063,-0.00569819995117449,1.12147975743767,0.171777000000475,
-1.09084616040039,0.373974299316406,0.0230322199707,1.15340045316718,0.175532000000203,
-1.10281716870117,0.309330854492188,-0.0751300480957049,1.14783962697312,0.179361000000426,
-1.04775053051758,0.342849677734375,0.0421858332519509,1.10322559807575,0.183205000000271,
-1.03099111889648,0.328484467773438,-0.0392170231933626,1.08276622948814,0.18711600000006,
-1.0573273371582,0.309330854492188,-0.00569819995117449,1.10166199213988,0.190905000000384,
-1.0573273371582,0.330878669433594,-0.0751300480957049,1.11043519212742,0.194715999999971,
-1.06211574047852,0.357214887695313,-0.0655532414550812,1.12249256105716,0.198507000000063,
-1.05253893383789,0.309330854492188,-0.0296402165527372,1.09745265374993,0.202282000000196,
-1.05014473217773,0.299754047851563,-0.0703416447753931,1.09435112953464,0.206055000000561,
-1.06929834545898,0.354820686035156,-0.000909796630862658,1.12663103923587,0.209907000000385,
-1.03817372387695,0.326090266113281,-0.0176692082519558,1.0883252011796,0.213698000000477,
-1.06211574047852,0.352426484375,-0.0463996281738304,1.12002107058565,0.217450000000099,
-1.09324036206055,0.321301862792969,-0.0200634099121118,1.13965429700844,0.221220000000358,
-1.06690414379883,0.280600434570312,-0.0679474431152371,1.10527730048258,0.224942000000738,
-1.07169254711914,0.3141192578125,-0.0559764348144558,1.1181811950368,0.228724000000511,
-1.06450994213867,0.354820686035156,-0.0416112248535185,1.12285824135745,0.232713000000331,
-1.06690414379883,0.299754047851563,-0.0440054265136745,1.10908674990785,0.23664700000063,
-1.05253893383789,0.297359846191406,-0.051188031494144,1.09493438156806,0.240451000000576,
-1.06929834545898,0.342849677734375,-0.0535822331542999,1.12419567195115,0.244274000000587,
-1.08126935375977,0.347638081054688,-0.0487938298339863,1.13682737854492,0.248112000000219,
-1.07169254711914,0.285388837890625,-0.0128808049316422,1.10911569255825,0.251972000000023,
-1.04535632885742,0.316513459472656,-0.0440054265136745,1.09310891583239,0.255796000000373,
-1.10521137036133,0.273417829589844,-0.0942836613769558,1.14242675542734,0.259673000000475,
-1.0740867487793,0.304542451171875,-0.0392170231933626,1.11711522385885,0.263518000000659,
-1.01423170727539,0.338061274414063,-0.00330399829101857,1.06909414819553,0.26733300000069,
-1.10042296704102,0.369185895996094,-0.0224576115722677,1.16091915158262,0.271107000000484,
-1.1123939753418,0.338061274414063,-0.0392170231933626,1.16329005692619,0.274868000000424,
-1.08845195874023,0.33327287109375,-0.0655532414550812,1.14021739179763,0.278631000000132,
-1.05972153881836,0.357214887695313,-0.0176692082519558,1.11844732408235,0.282435000000078,
-1.11957658032227,0.323696064453125,-0.00330399829101857,1.16543630360189,0.286188000000038,
-1.08605775708008,0.311725056152344,-0.0104866032714863,1.12995749087971,0.289911000000757,
-1.05972153881836,0.345243879394531,0.0254264216308577,1.11483163706987,0.293638000000101,
-1.09084616040039,0.376368500976562,0.0876756647949186,1.15727508241768,0.297377000000779,
-1.06690414379883,-0.313161577148438,-1.67445675708008,2.01001493944407,0.301244000000224,
-1.33505472973633,1.56149832275391,1.39251556958008,2.48188391244988,0.305035000000316,
-1.0740867487793,1.15927244384766,-2.78776052905274,3.20455671042224,0.307964000000538,
-0.590458013427734,-0.277248552246094,1.31111271313476,1.4644193292521,0.310889000000316,
-1.50743724926758,-1.54138702880859,1.0956345637207,2.41839949765919,0.313940000000002,
-1.1339417902832,-1.00269165527344,-1.88514650317383,2.41764180095691,0.316827999999987,
-0.729321709716797,4.45608812988281,0.0278206232910136,4.51546294023404,0.31985000000077,
-1.46434161938477,1.98048361328125,1.85220228833008,3.08176330006591,0.322785000000295,
-1.07648095043945,-3.9762901171875,-1.87317549487305,4.52531554339528,0.325673000000279,
-0.444411712158203,-0.808761320800781,0.307942217529295,0.972843796949782,0.328731999999945,
-1.70136758374023,3.42658141601563,0.652707256591794,3.88099711651443,0.331676000000698,
-0.968741875732422,0.127371528320312,-0.563547186767581,1.12794936044925,0.334702000000107,
-0.600034820068359,-0.406535441894531,0.185837932861325,0.748230304185163,0.33766900000046,
-1.58884010571289,1.18560866210938,-0.216387946044925,1.99421777255747,0.340591000000131,
-0.880156414306641,-0.784819304199219,0.219356756103513,1.19947240082343,0.343603000000257,
-0.940011455810547,0.113006318359375,-0.501297943603518,1.07130368864544,0.3465240000005,
-1.27519968823242,1.56868092773438,0.0661278498535136,2.0226880605847,0.349540000000161,
-0.966347674072266,0.771411774902344,0.236116167724607,1.25883072662841,0.352464999999938,
-0.920857842529297,-0.365834013671875,-0.178080719482425,1.006740500009,0.355366000000686,
-1.17943162182617,0.110612116699219,-0.0128808049316422,1.18467713156787,0.358369999999923,
-1.16027800854492,0.4673481640625,-0.178080719482425,1.26347619930766,0.361301000000822,
-1.1507012019043,0.539174213867188,0.0326090266113255,1.27117482573399,0.364352000000508,
-0.853820196044922,0.48650177734375,-0.000909796630862658,0.982697173224146,0.367282000000159,
-0.951982464111328,0.220745393066406,-0.221176349365237,1.00195714382106,0.370296000000053,
-1.38772716625977,-0.00430956298828127,-0.1301966862793,1.39382797985498,0.373218000000634,
-1.07887515209961,0.321301862792969,-0.0176692082519558,1.12584132175562,0.376151000000391,
-0.832272381103516,0.701979926757812,-0.0224576115722677,1.08901674837265,0.379180000000815,
-1.10521137036133,0.412281525878906,-0.0894952580566439,1.18299519482187,0.382124000000658,
-1.16267221020508,0.0148440502929687,-0.0152750065917999,1.16286729253111,0.385123000000021,
-1.04535632885742,0.249475812988281,-0.0679474431152371,1.07685880716755,0.38808599999993,
-0.973530279052735,0.472136567382813,-0.0871010563964862,1.08547719299758,0.391019000000597,
-1.1339417902832,0.491290180664063,-0.120619879638674,1.24166790275486,0.394043000000238,
-1.08126935375977,0.21835119140625,-0.0463996281738304,1.10407136710598,0.396981000000778,
-0.940011455810547,0.136948334960938,-0.0631590397949235,0.952032272463205,0.400002000000313,
-1.14112439526367,0.443406147460938,-0.0392170231933626,1.22487218597704,0.402931999999964,
-1.13873019360352,0.484107575683594,-0.0463996281738304,1.23823241927888,0.405876000000717,
-1.0190201105957,0.285388837890625,-0.0128808049316422,1.05830746464661,0.408906999999999,
-1.04775053051758,0.326090266113281,-0.0966778630371117,1.10157280515412,0.411858000000393,
-1.09324036206055,0.326090266113281,-0.0272460148925813,1.14116243200503,0.41488500000014,
-1.10521137036133,0.44819455078125,-0.0272460148925813,1.19294294660453,0.417836999999963,
-1.0740867487793,0.273417829589844,0.00866701000976278,1.10837483303412,0.420765000000756,
-1.09084616040039,0.268629426269531,-0.0392170231933626,1.12411969523993,0.423783000000185,
-1.03817372387695,0.340455476074219,-0.0655532414550812,1.09453727191116,0.426732000000811,
-1.04296212719727,0.335667072753906,-0.0655532414550812,1.09760630918572,0.429802000000564,
-1.09324036206055,0.297359846191406,-0.0320344182128931,1.13341235713905,0.432854000000589,
-1.08126935375977,0.316513459472656,-0.0799184514160185,1.12947383514809,0.43590100000074,
-1.04056792553711,0.316513459472656,-0.0918894597167998,1.09151548339499,0.439039000000776,
-1.06929834545898,0.306936652832031,-0.0942836613769558,1.11646695842541,0.441994000000705,
-1.10999977368164,0.376368500976562,-0.0128808049316422,1.17214276486967,0.445018000000346,
-1.11718237866211,0.359609089355469,-0.0440054265136745,1.17445802049407,0.447962000000189,
-1.03817372387695,0.304542451171875,0.0278206232910136,1.08227758573973,0.450898000000052,
-1.04535632885742,0.304542451171875,-0.0416112248535185,1.08960885315872,0.453938999999991,
-1.10999977368164,0.359609089355469,-0.0416112248535185,1.16754001591131,0.456891000000724,
-1.08366355541992,0.3141192578125,0.00148440502929503,1.12827293370545,0.459913000000597,
-1.06211574047852,0.350032282714844,-0.0583706364746117,1.11983015512052,0.462871000000632,
-1.08366355541992,0.311725056152344,-0.0487938298339863,1.12866294783181,0.465887000000293,
-1.09084616040039,0.357214887695313,-0.0392170231933626,1.1485146044172,0.468877000000248,
-1.09084616040039,0.345243879394531,-0.0296402165527372,1.1445598386965,0.471846000000369,
-1.00944330395508,0.340455476074219,0.00866701000976278,1.06534540509225,0.4749010000005,
-1.05493313549805,0.338061274414063,-0.00330399829101857,1.10778168518662,0.477843000000576,
-1.08845195874023,0.340455476074219,-0.034428619873049,1.14097455166219,0.480849000000489,
-1.05493313549805,0.285388837890625,-0.0128808049316422,1.0929302925164,0.483812000000398,
-1.02141431225586,0.340455476074219,-0.0248518132324236,1.07694695370337,0.4867490000006,
-1.09324036206055,0.347638081054688,-0.0296402165527372,1.14756492935039,0.48977400000058,
-1.08366355541992,0.304542451171875,-0.0535822331542999,1.12691785930516,0.492716000000655,
-1.08126935375977,0.340455476074219,0.0254264216308577,1.13388705323146,0.49574500000017,
-1.12197078198242,0.40988732421875,-0.0847068547363303,1.19749793545408,0.498677999999927,
-1.09324036206055,0.445800349121094,-0.0799184514160185,1.18334246919119,0.501625000000786,
-1.05972153881836,0.199197578125,-0.0871010563964862,1.08179296031718,0.504649000000427,
-1.05972153881836,0.0986411083984375,0.0637336481933577,1.06620907237448,0.507586000000629,
-1.05253893383789,0.534385810546875,-0.242724164306644,1.20512299027809,0.510589000000436,
-1.16746061352539,0.464953962402344,0.0685220515136695,1.25850774444592,0.513526000000638,
-0.978318682373047,0.151313544921875,-0.0535822331542999,0.991400165859761,0.516462999999931,
-0.942405657470703,0.201591779785156,-0.0990720646972676,0.968804904463801,0.519471999999951,
-1.14591279858398,0.421858332519531,-0.0128808049316422,1.22116604514309,0.522409000000152,
-1.15788380688477,0.385945307617187,-0.0703416447753931,1.22253696782854,0.525444000000789,
-1.0956345637207,0.328484467773438,-0.0559764348144558,1.14518579455143,0.528410000000804,
-0.971136077392578,0.29496564453125,-0.0631590397949235,1.01690662136452,0.531349000000773,
-1.05493313549805,0.309330854492188,-0.0655532414550812,1.10130228610399,0.534375000000182,
-1.10999977368164,0.37158009765625,-0.0104866032714863,1.17059012271405,0.537332000000788,
-1.06450994213867,0.366791694335938,-0.0463996281738304,1.1268853044745,0.540357000000768,
-1.06450994213867,0.369185895996094,-0.0918894597167998,1.13045270379683,0.543304000000717,
-0.987895489013672,0.263841022949219,-0.0104866032714863,1.02257496128774,0.546258000000307,
-1.04296212719727,0.352426484375,-0.0224576115722677,1.10112613717698,0.549275000000307,
-1.11718237866211,0.376368500976562,-0.034428619873049,1.17937909324646,0.552230000000236,
-1.06690414379883,0.282994636230469,-0.0799184514160185,1.10668756885901,0.555268000000069,
-1.06211574047852,0.306936652832031,-0.0583706364746117,1.10711656397437,0.558216000000357,
-1.01423170727539,0.378762702636719,-0.034428619873049,1.08319549058228,0.561227000000144,
-1.08126935375977,0.33327287109375,-0.000909796630862658,1.13146588535273,0.564188000000286,
-1.08605775708008,0.330878669433594,-0.0607648381347676,1.13696724277945,0.567127000000255,
-1.06690414379883,0.326090266113281,-0.0775242497558626,1.1183153951409,0.570249000000331,
-1.0740867487793,0.328484467773438,-0.0631590397949235,1.12496820123037,0.573304000000462,
-1.08605775708008,0.362003291015625,0.00866701000976278,1.14483315443014,0.576412000000346,
-1.0956345637207,0.290177241210937,-0.0894952580566439,1.13693769827149,0.579427000000578,
-1.10042296704102,0.326090266113281,-0.0128808049316422,1.14779418154165,0.582361000000674,
-1.06690414379883,0.328484467773438,-0.00330399829101857,1.11633212532302,0.585393000000295,
-1.06929834545898,0.326090266113281,-0.0320344182128931,1.11837382712821,0.588355000000774,
-1.05253893383789,0.342849677734375,-0.0847068547363303,1.1102068996392,0.591409999999996,
-1.12675918530273,0.302148249511719,-0.113437274658205,1.17206989622162,0.594355000000178,
-1.10999977368164,0.321301862792969,0.00387860668945095,1.15557320330535,0.597298000000592,
-1.04056792553711,0.282994636230469,-0.0607648381347676,1.0800740425292,0.60033199999998,
-1.08605775708008,0.362003291015625,-0.0320344182128931,1.14524846141359,0.603296000000228,
-1.07169254711914,0.321301862792969,-0.034428619873049,1.11935031712655,0.606340000000273,
-1.0956345637207,0.297359846191406,-0.0416112248535185,1.13603233641488,0.609300000000076,
-1.09802876538086,0.328484467773438,0.0110612116699187,1.14616384761334,0.612276000000747,
-1.05253893383789,0.345243879394531,-0.0966778630371117,1.11192542587415,0.615320000000793,
-1.08126935375977,0.282994636230469,-0.0320344182128931,1.1181482833084,0.618272000000616,
-1.12197078198242,0.328484467773438,-0.0128808049316422,1.16913916893,0.62131700000009,
-1.06211574047852,0.330878669433594,-0.0655532414550812,1.11439120937113,0.624269000000822,
-1.07169254711914,0.359609089355469,-0.0583706364746117,1.13192347086728,0.627210999999988,
-1.07648095043945,0.335667072753906,-0.00569819995117449,1.12761522243755,0.630241000000751,
-1.10999977368164,0.33327287109375,-0.0631590397949235,1.16067194697218,0.633203000000321,
-1.08605775708008,0.306936652832031,-0.0152750065917999,1.12870052998655,0.636232000000746,
-1.04056792553711,0.354820686035156,-0.0272460148925813,1.09973709231915,0.63918300000023,
-1.0956345637207,0.321301862792969,-0.0320344182128931,1.14222422851379,0.64213700000073,
-1.07887515209961,0.321301862792969,-0.0535822331542999,1.12697716771991,0.645159000000604,
-1.07887515209961,0.316513459472656,-0.0607648381347676,1.12598611421227,0.648105000000214,
-1.0740867487793,0.352426484375,-0.0176692082519558,1.13056577504914,0.651139999999941,
-1.09084616040039,0.323696064453125,-0.0583706364746117,1.13935579122817,0.654088000000229,
-1.04056792553711,0.316513459472656,-0.0655532414550812,1.08961442958012,0.6571040000008,
-1.05972153881836,0.318907661132813,-0.0392170231933626,1.10736164421245,0.660057000000052,
-1.10760557202148,0.350032282714844,-0.034428619873049,1.16210930294098,0.66298900000038,
-1.1123939753418,0.33327287109375,-0.0320344182128931,1.16168729309313,0.666020000000572,
-1.08366355541992,0.323696064453125,-0.125408282958986,1.13790732527852,0.668981000000713,
-1.08845195874023,0.330878669433594,-0.0583706364746117,1.13912926903581,0.67198499999995,
-1.07648095043945,0.323696064453125,-0.0080924016113304,1.12412448855334,0.674944000000323,
-1.06690414379883,0.302148249511719,0.0206380183105441,1.10905542897454,0.677889999999934,
-1.06929834545898,0.326090266113281,-0.0966778630371117,1.1220875288749,0.680912000000717,
-1.09324036206055,0.354820686035156,-0.0871010563964862,1.15267462993775,0.683862000000772,
-1.05493313549805,0.299754047851563,-0.115831476318363,1.10279342602376,0.686889999999948,
-1.04775053051758,0.321301862792969,-0.0607648381347676,1.09759210401116,0.689841000000342,
-1.09802876538086,0.357214887695313,-0.0847068547363303,1.15777584049518,0.692778000000544,
-1.05014473217773,0.3141192578125,-0.0775242497558626,1.098856167089,0.695807000000059,
-1.08845195874023,0.280600434570312,-0.0990720646972676,1.12839689133296,0.698750000000473,
-1.09324036206055,0.335667072753906,-0.106254669677737,1.14853686392635,0.701781000000665,
-1.06450994213867,0.350032282714844,-0.0559764348144558,1.12197922311832,0.704724000000169,
-1.05493313549805,0.340455476074219,-0.0847068547363303,1.1117414730053,0.707694000000629,
-1.0956345637207,0.273417829589844,-0.034428619873049,1.12976003497355,0.710827000000791,
-1.10042296704102,0.3141192578125,-0.0775242497558626,1.1470011437746,0.713884000000689,
-1.04535632885742,0.33327287109375,-0.0559764348144558,1.09862369451231,0.717014000000745,
-1.07169254711914,0.318907661132813,-0.072735846435549,1.12049877966761,0.719986000000063,
-1.09802876538086,0.33327287109375,-0.0655532414550812,1.1493629555872,0.722917000000052,
-1.1123939753418,0.342849677734375,-0.0392170231933626,1.16469061677659,0.725944000000709,
-1.06690414379883,0.318907661132813,-0.0440054265136745,1.11441600219441,0.728895000000193,
-1.05972153881836,0.347638081054688,-0.0871010563964862,1.11868162104341,0.731962000000749,
-1.09084616040039,0.342849677734375,-0.0871010563964862,1.14676843399538,0.734906000000592,
-1.06450994213867,0.311725056152344,-0.034428619873049,1.10974738450317,0.737839000000349,
-1.07169254711914,0.354820686035156,-0.0918894597167998,1.13263688249863,0.740876000000753,
-1.05493313549805,0.364397492675781,-0.072735846435549,1.11846321191036,0.743820000000596,
-1.09802876538086,0.290177241210937,-0.111043072998049,1.14114002864743,0.746860000000197,
-1.06450994213867,0.366791694335938,-0.0535822331542999,1.12720389444666,0.749837000000298,
-1.08126935375977,0.340455476074219,-0.034428619873049,1.13412463002765,0.752865000000384,
-1.04535632885742,0.33327287109375,-0.106254669677737,1.10232967651137,0.755828000000292,
-1.08845195874023,0.306936652832031,-0.0583706364746117,1.13240668778475,0.758765000000494,
-1.05493313549805,0.33327287109375,-0.0392170231933626,1.10701973870702,0.761803000000327,
-1.07648095043945,0.311725056152344,-0.034428619873049,1.12123551368951,0.764750000000276,
-1.08366355541992,0.338061274414063,0.00627280834960686,1.13518785878303,0.767763000000741,
-1.07169254711914,0.342849677734375,-0.0224576115722677,1.12542221472246,0.770709000000352,
-1.07648095043945,0.354820686035156,-0.0631590397949235,1.13520835982004,0.77364100000068,
-1.08126935375977,0.321301862792969,-0.0966778630371117,1.13213290368919,0.776671000000533,
-1.10281716870117,0.328484467773438,-0.1301966862793,1.15804098816431,0.779629000000568,
-1.0956345637207,0.338061274414063,-0.0272460148925813,1.1469275774021,0.782656000000316,
-1.07887515209961,0.323696064453125,-0.0631590397949235,1.12815770186097,0.785603000000265,
-1.0573273371582,0.338061274414063,-0.0416112248535185,1.11083662938991,0.78853700000036,
-1.07887515209961,0.297359846191406,0.0373974299316373,1.11972900279953,0.791566000000785,
-1.0573273371582,0.326090266113281,-0.051188031494144,1.10765345398465,0.794496000000436,
-1.05493313549805,0.326090266113281,-0.00330399829101857,1.10418734752318,0.797529000000395,
-1.07169254711914,0.321301862792969,-0.0272460148925813,1.11915242389608,0.800470000000132,
-1.06690414379883,0.302148249511719,-0.0392170231933626,1.10955666445939,0.803413000000546,
-1.05014473217773,0.350032282714844,-0.0128808049316422,1.10701963514605,0.806450000000041,
-1.02620271557617,0.354820686035156,-0.0176692082519558,1.08595669048753,0.809391000000687,
-1.06450994213867,0.318907661132813,-0.0296402165527372,1.11164835072903,0.812420000000202,
-1.05014473217773,0.364397492675781,-0.0104866032714863,1.11162019594699,0.815373000000363,
-1.05014473217773,0.321301862792969,-0.0535822331542999,1.0995043889247,0.818308000000798,
-1.07169254711914,0.342849677734375,-0.072735846435549,1.12754659346298,0.821341000000757,
-1.04296212719727,0.3141192578125,-0.0416112248535185,1.09003321092998,0.824298000000454,
-1.05014473217773,0.33327287109375,-0.0679474431152371,1.10385307906153,0.827334999999948,
-1.03099111889648,0.352426484375,-0.0296402165527372,1.08996589697552,0.83028800000011,
-1.0573273371582,0.330878669433594,-0.101466266357424,1.11252739067257,0.833228000000418,
-1.08366355541992,0.318907661132813,-0.0487938298339863,1.1306677829957,0.836248000000523,
-1.01662590893555,0.330878669433594,-0.0799184514160185,1.07209882542698,0.839203000000452,
-1.07887515209961,0.335667072753906,-0.132590887939456,1.13763980288741,0.842231999999967,
-1.0740867487793,0.347638081054688,-0.0487938298339863,1.12999797218072,0.845188000000235,
-1.08366355541992,0.328484467773438,-0.0463996281738304,1.13330563944967,0.848280000000159,
-1.0357795222168,0.306936652832031,-0.0248518132324236,1.08058638716038,0.851341999999931,
-1.05014473217773,0.359609089355469,-0.0535822331542999,1.11130270915602,0.854380000000674,
-1.07887515209961,0.362003291015625,-0.0871010563964862,1.14131703332137,0.857490000000325,
-1.10999977368164,0.326090266113281,-0.118225677978518,1.16293235837713,0.860430000000633,
-1.07887515209961,0.33327287109375,-0.0440054265136745,1.13003490122548,0.863444999999956,
-1.05253893383789,0.309330854492188,-0.0104866032714863,1.09710243534214,0.866401000000224,
-1.05493313549805,0.340455476074219,-0.0296402165527372,1.10890594461296,0.869362000000365,
-1.05253893383789,0.335667072753906,-0.034428619873049,1.10530354240007,0.872387000000344,
-1.06690414379883,0.335667072753906,-0.0559764348144558,1.11986168656706,0.875347000000147,
-1.05972153881836,0.297359846191406,-0.0942836613769558,1.10468186676761,0.878379000000677,
-1.06450994213867,0.338061274414063,-0.0320344182128931,1.11735985524842,0.881328000000394,
-1.04056792553711,0.302148249511719,-0.0631590397949235,1.08538667609632,0.884288000000197,
-1.09084616040039,0.359609089355469,-0.103860468017581,1.15327838773827,0.887331000000813,
-1.07887515209961,0.302148249511719,-0.034428619873049,1.12091502281275,0.890313000000788,
-1.11957658032227,0.316513459472656,-0.0272460148925813,1.1637761101522,0.893363000000136,
-1.02141431225586,0.330878669433594,-0.0392170231933626,1.07438627414697,0.896318000000065,
-1.06929834545898,0.316513459472656,-0.0368228215332049,1.11576684025577,0.899277000000438,
-1.06929834545898,0.357214887695313,-0.0152750065917999,1.12749046710776,0.902312000000165,
-1.02620271557617,0.302148249511719,0.0230322199707,1.07000750525204,0.905265000000327,
-1.05493313549805,0.366791694335938,-0.0918894597167998,1.1206532649364,0.908292000000074,
-1.06929834545898,0.328484467773438,-0.0463996281738304,1.1195775643806,0.91124900000068,
-1.07648095043945,0.342849677734375,-0.0224576115722677,1.12998295672949,0.914192000000185,
-1.02141431225586,0.321301862792969,0.0182438166503882,1.07091312493653,0.917218000000503,
-1.09084616040039,0.33327287109375,-0.000909796630862658,1.14062131314352,0.920184000000518,
-1.08605775708008,0.33327287109375,-0.0583706364746117,1.13754093971309,0.923220000000583,
-1.07887515209961,0.354820686035156,-0.0152750065917999,1.13582685251001,0.926167999999961,
-1.11957658032227,0.316513459472656,-0.0104866032714863,1.16350438679088,0.929112000000714,
-1.05493313549805,0.335667072753906,-0.0392170231933626,1.10774287585661,0.932131000000481,
-1.08126935375977,0.299754047851563,0.00387860668945095,1.1220565708436,0.93508600000041,
-1.07648095043945,0.316513459472656,-0.0080924016113304,1.12207731179728,0.938110000000052,
-1.07169254711914,0.304542451171875,-0.0368228215332049,1.1147317795336,0.941053000000466,
-1.02620271557617,0.359609089355469,-0.0703416447753931,1.08965988161109,0.944072000000233,
-1.08126935375977,0.350032282714844,-0.0463996281738304,1.13746162125027,0.947035000000142,
-1.03338532055664,0.309330854492188,-0.0703416447753931,1.08098045554604,0.949971000000005,
-1.07887515209961,0.352426484375,-0.0176692082519558,1.13511595074121,0.952998000000662,
-1.09802876538086,0.3141192578125,-0.0463996281738304,1.14301837396744,0.955942999999934,
-1.0573273371582,0.369185895996094,-0.0751300480957049,1.12244547655169,0.958948000000419,
-1.07648095043945,0.309330854492188,-0.0416112248535185,1.12081591183999,0.961907000000792,
-1.05014473217773,0.323696064453125,-0.0703416447753931,1.10114987519992,0.964840999999979,
-1.08845195874023,0.309330854492188,-0.0583706364746117,1.13305797522844,0.967869000000064,
-1.08126935375977,0.3141192578125,-0.0392170231933626,1.12665535920124,0.970820000000458,
-1.11478817700195,0.340455476074219,-0.137379291259768,1.17368465971031,0.973848999999973,
-1.0740867487793,0.316513459472656,-0.0224576115722677,1.11997654361516,0.976794000000154,
-1.0573273371582,0.326090266113281,-0.0200634099121118,1.10665193262073,0.979729000000589,
-1.08605775708008,0.29496564453125,0.0302148249511696,1.12580598631131,0.98276100000021,
-1.07648095043945,0.328484467773438,-0.0320344182128931,1.12593937944175,0.985724000000118,
-1.0573273371582,0.359609089355469,-0.0775242497558626,1.11949533467064,0.988862000000154,
-1.08605775708008,0.3141192578125,-0.0392170231933626,1.13125166729187,0.991907000000538,
-1.04535632885742,0.3141192578125,-0.0104866032714863,1.09158175656206,0.994948000000477,
-1.07169254711914,0.335667072753906,-0.0607648381347676,1.12467313688708,0.99800200000027,
-1.06211574047852,0.304542451171875,0.0110612116699187,1.10496981910892,1.00094800000079,
-1.03099111889648,0.323696064453125,-0.0104866032714863,1.08066266625346,1.00396400000045,
-1.07648095043945,0.323696064453125,-0.0320344182128931,1.12455172524509,1.00690400000076,
-1.04056792553711,0.33327287109375,-0.0392170231933626,1.09333910072394,1.00989200000004,
-1.08605775708008,0.323696064453125,-0.118225677978518,1.13941998612879,1.01291500000025,
-1.03817372387695,0.340455476074219,-0.0248518132324236,1.09285507948602,1.01585599999999,
