X,Y,Z,Magnitude,Seconds,
-0.0512359155273438,-0.026096798095703,-0.0041180268554708,0.0576465094863112,0.0,
0.013407529296875,-0.0452504113769528,0.0748906279296868,0.0885210015947222,0.00392599999941012,
-0.0177170922851563,0.00263362182617222,-0.0160890351562522,0.0240767185310447,0.00769799999943643,
-0.0272938989257813,-0.0380678063964841,-0.0136948334960945,0.0488022875170489,0.0114149999990332,
-0.0201112939453125,0.0193930334472658,0.0317949980468732,0.0423258288901967,0.015159999999014,
0.00622492431640626,-0.0308852014160154,-0.0280600434570317,0.042190181180736,0.0188989999987825,
-0.000957680664062498,0.00742202514648471,0.0317949980468732,0.0326638257148492,0.0226499999989755,
-0.005746083984375,-0.026096798095703,0.0150355864257801,0.0306615265629499,0.0264320000005682,
-0.0225054956054688,0.00263362182617222,-0.0160890351562522,0.0277901124256485,0.0301779999990686,
-0.000957680664062498,0.0265756384277347,0.0605254179687496,0.0661098172012889,0.0339179999991757,
-0.0368707055664063,-0.0117315881347655,0.00785298144531055,0.0394809879145492,0.037663999999495,
-0.024899697265625,0.000239420166015858,-0.0352426484375012,0.0431520163471532,0.0416449999993347,
-0.0201112939453125,-0.0237025964355466,-0.0400310517578131,0.0506829589386596,0.045455999999831,
-0.0296881005859375,-0.0189141931152341,0.0270065947265614,0.0443676253176328,0.0492730000005395,
-0.0129286889648438,-0.0213083947753905,-0.0520020600585944,0.0576663934765408,0.0531659999996918,
-0.0177170922851563,-0.00454898315429664,0.0270065947265614,0.0326181661885452,0.0570109999989654,
0.013407529296875,-0.0117315881347655,-0.00651222851562672,0.0189684243481127,0.0608579999989161,
-0.0177170922851563,-0.0596156213378904,0.017429788085936,0.0645888162088772,0.0646660000002157,
-0.0296881005859375,0.0241814367675783,-0.0496078583984385,0.062666297285101,0.0684849999997823,
-0.0320823022460938,-0.0189141931152341,0.0294007963867173,0.0474492112345747,0.0723099999995611,
-0.0225054956054688,-0.0404620080566404,0.00545877978515463,0.0466204858958614,0.0761330000004818,
-0.0536301171875,-0.0141257897949216,-0.0424252534179708,0.0698257082631772,0.0799040000001696,
-0.0105344873046875,-0.0284909997558591,-0.020877438476564,0.0368589192354266,0.0836039999994682,
-0.0225054956054688,-0.00933738647460913,0.00545877978515463,0.0249696294599419,0.0873549999996612,
-0.0225054956054688,0.0241814367675783,-0.0496078583984385,0.0596001579819356,0.0910549999989598,
-0.00814028564453125,-0.0213083947753905,-0.0328484467773453,0.0399916540538465,0.0947569999989355,
0.00383072265625,-0.0237025964355466,-0.0448194550781267,0.0508455609405158,0.0985239999990881,
-0.0584185205078125,0.000239420166015858,-0.0352426484375012,0.0682262788757156,0.102281999999832,
-0.044053310546875,-0.00454898315429664,-0.0328484467773453,0.0551398936665784,0.10598199999913,
-0.0272938989257813,-0.0476446130371091,-0.0041180268554708,0.0550629114305538,0.109802999999374,
-0.0320823022460938,0.00263362182617222,0.00545877978515463,0.0326497834307644,0.113787000000229,
-0.005746083984375,-0.00454898315429664,0.0317949980468732,0.0326287086734097,0.117512999999235,
-0.00814028564453125,-0.0332794030761716,0.0126413847656242,0.0365183177086981,0.121282000000065,
-0.0201112939453125,-0.0404620080566404,0.000670376464842803,0.0451894638686387,0.125146999998833,
-0.0129286889648438,-0.00933738647460913,-0.0280600434570317,0.0322754368419142,0.128920999999536,
-0.0272938989257813,-0.0117315881347655,0.0102471831054682,0.0314259739758615,0.132717999998931,
-0.024899697265625,-0.0117315881347655,0.0629196196289055,0.0686768055338168,0.136462000000392,
-0.00814028564453125,-0.00454898315429664,0.00785298144531055,0.0121912598074616,0.140198999999484,
-0.0392649072265625,0.000239420166015858,-0.020877438476564,0.0444708634823878,0.143965999999637,
-0.0584185205078125,-0.00933738647460913,-0.056790463378908,0.0820065061765773,0.14774000000034,
-0.0225054956054688,-0.0189141931152341,-0.0136948334960945,0.0324313505444022,0.151449999999386,
-0.024899697265625,-0.016519991455078,-0.0256658417968758,0.0393908679358285,0.155138000000079,
-0.0560243188476563,-0.0356736047363279,-0.0328484467773453,0.0740969016417805,0.158859999999549,
0.0086191259765625,0.00742202514648471,-0.0256658417968758,0.028073318738923,0.162619999999151,
-0.044053310546875,0.00502782348632835,-0.0232716401367199,0.0500753673356679,0.16637499999888,
-0.0272938989257813,-0.0213083947753905,-0.0256658417968758,0.043101508577043,0.170076000000336,
-0.0296881005859375,-0.0189141931152341,0.0150355864257801,0.0382779163065104,0.173963999999614,
-0.0177170922851563,-0.00215478149414028,-0.0280600434570317,0.0332551421758913,0.177684000000227,
-0.0129286889648438,-0.0141257897949216,-0.0352426484375012,0.0401090164996512,0.181595000000016,
-0.0464475122070312,0.0265756384277347,0.0198239897460919,0.0570668600635882,0.185459999998784,
-0.0416591088867188,-0.0237025964355466,-0.0448194550781267,0.0656207130753857,0.189198000000033,
-0.015322890625,0.000239420166015858,0.0317949980468732,0.0352954699631877,0.192999999999302,
-0.005746083984375,0.00981622680664085,-0.0113006318359385,0.0160337166547976,0.196802000000389,
-0.0225054956054688,0.0241814367675783,-0.0591846650390639,0.0677795234003483,0.200671999999031,
-0.0201112939453125,-0.016519991455078,0.0294007963867173,0.0392655203709797,0.204427999999098,
-0.0296881005859375,-0.0189141931152341,0.0126413847656242,0.0374023345045957,0.208198000000266,
-0.00335188232421875,-0.0620098229980467,-0.0759440766601571,0.0981017637105894,0.211919999999736,
0.00143652099609375,-0.0141257897949216,-0.0280600434570317,0.0314478547553413,0.215695999999298,
-0.0536301171875,0.0122104284667972,-0.0639730683593758,0.0843672774729701,0.219499999999243,
-0.0512359155273438,-0.00933738647460913,-0.00651222851562672,0.0524853784052383,0.223238000000492,
-0.0272938989257813,-0.0380678063964841,0.00545877978515463,0.0471583829149577,0.22697799999878,
-0.0775721337890625,-0.0213083947753905,-0.0831266816406266,0.115678558207968,0.230686999999307,
-0.00335188232421875,0.00263362182617222,0.0126413847656242,0.0133407528959671,0.234425999999075,
-0.0272938989257813,-0.00454898315429664,-0.0136948334960945,0.0308739150545341,0.238121999998839,
-0.0272938989257813,0.00263362182617222,-0.00651222851562672,0.0281833639357298,0.241839000000255,
-0.0296881005859375,-0.0404620080566404,-0.0280600434570317,0.0574971603749862,0.245695999999953,
-0.00814028564453125,0.00502782348632835,-0.0400310517578131,0.0411585758283853,0.249483999999939,
-0.03447650390625,-0.00454898315429664,-0.020877438476564,0.0405609418859876,0.253473999999187,
-0.0464475122070312,-0.0284909997558591,-0.0280600434570317,0.06129008481085,0.257228000000396,
-0.0392649072265625,-0.0380678063964841,0.0102471831054682,0.0556407726846757,0.261035999999876,
-0.0129286889648438,-0.0213083947753905,0.00545877978515463,0.0255146421294984,0.264803000000029,
-0.0129286889648438,-0.00933738647460913,-0.00172382519531311,0.0160408652456743,0.268637999999555,
-0.0320823022460938,-0.0117315881347655,0.0294007963867173,0.0450700688455952,0.272506999999678,
-0.0656011254882813,0.00263362182617222,-0.00890643017578263,0.0662553252782643,0.276309999999285,
-0.0129286889648438,-0.0380678063964841,-0.0280600434570317,0.0490272875142035,0.280075999999099,
0.0205901342773438,-0.0237025964355466,-0.0328484467773453,0.0454399291706042,0.28390699999909,
-0.0464475122070312,-0.0787692346191404,-0.0184832368164081,0.0932930530957098,0.287671000000046,
-0.101514150390625,0.213323367919922,-0.267480209472657,0.356872028169434,0.291414999999688,
0.19536685546875,-0.21284452758789,0.218542727539061,0.362259471787933,0.295258000000103,
-0.307415493164063,-0.437899483642578,-0.286633822753908,0.60697544559748,0.298999999999069,
-0.288261879882813,2.03770503295898,-0.470987350585938,2.11120008458505,0.302394000000277,
0.140300217285156,-0.0452504113769528,-0.0831266816406266,0.169238872309607,0.305318999999145,
1.17938373779297,-2.55676795288086,0.572884573242186,2.87336128951929,0.308246999999028,
-0.917936916503906,0.0433350500488283,0.402896255371093,1.00339997101629,0.311288999999306,
-1.16693388916016,3.73279980834961,-1.02165373242188,4.04219067584112,0.314194999999017,
1.73005011962891,-1.60387569213867,-0.332123654296876,2.38239307714004,0.317236999999295,
-0.015322890625,-3.30375887084961,1.20016540820312,3.51503264205924,0.320171999999729,
-1.46142069335938,3.08157695678711,-0.336912057617189,3.42715285888274,0.323091000000204,
1.5552733984375,1.10396638549805,-0.703224911621096,2.03276717813956,0.326116000000184,
-0.522893642578125,-2.18566669555664,0.0844674345703105,2.24893117124935,0.329009999999471,
-1.12144405761719,-0.497754525146484,0.517817935058593,1.33174012312352,0.332028999999238,
1.39246768554688,1.16621562866211,-0.221990377929689,1.82983739051354,0.335028999999849,
-0.700064565429688,0.761595548095704,-0.0639730683593758,1.03644137708062,0.338053999999829,
-0.357693728027344,-1.58232787719727,-0.0041180268554708,1.62225869458939,0.341180999999779,
0.856166513671875,-0.430716878662109,0.139534072753905,0.968508072324013,0.344189999999799,
-0.697670363769531,1.98503259643555,-0.152558529785157,2.10959058833798,0.347222999998849,
-0.0584185205078125,-0.593522591552734,-0.210019369628908,0.632289432017584,0.350113999998939,
0.772369455566406,-1.57035686889648,0.158687686035154,1.75720148340522,0.353058999999121,
-0.695276162109375,1.43436621459961,0.0150355864257801,1.59406444287598,0.356107999999949,
-0.03447650390625,0.433589920654297,-0.0831266816406266,0.442830547518099,0.359030999999959,
0.293529123535156,-1.28784107299805,-0.0136948334960945,1.32093963682243,0.362084000000323,
-0.324174904785156,0.306697232666016,0.0198239897460919,0.446705218222163,0.365007000000332,
0.106781394042969,0.66822168334961,-0.0472136567382826,0.678344760129351,0.368003999999928,
-0.0464475122070312,-0.40438066040039,-0.0448194550781267,0.409499540231217,0.370946999999433,
-0.0608127221679688,-0.418745870361328,-0.0974918916015639,0.434224550261953,0.373841999999058,
0.0445321508789063,0.397676895751953,0.0317949980468732,0.401423651243437,0.376937999999427,
-0.209253225097656,0.179804544677735,-0.00651222851562672,0.275969193245872,0.3798740000002,
0.152271225585938,-0.490571920166015,-0.0400310517578131,0.515218225707953,0.382835000000341,
0.0301669409179688,0.0984016882324221,0.0724964262695291,0.125891494522832,0.385828000000402,
-0.175734401855469,0.385705887451172,0.0581312163085919,0.427821048943962,0.388742999999522,
0.0995987890625,-0.354102425537109,0.0126413847656242,0.368060118951745,0.391766999999163,
0.0995987890625,-0.291853182373047,-0.00172382519531311,0.308384776565406,0.394672000000355,
-0.120667763671875,0.251630594482422,0.0270065947265614,0.2803712207554,0.397713999998814,
0.0277727392578125,0.0888248815917971,0.0150355864257801,0.0942722307726211,0.400628999999753,
-0.005746083984375,-0.243969149169922,0.00545877978515463,0.244097852314587,0.403527000000395,
-0.0296881005859375,-0.0284909997558591,0.0198239897460919,0.0456739636219834,0.406596999999238,
-0.005746083984375,0.141497318115235,-0.00890643017578263,0.141893738457465,0.409537999999884,
0.00143652099609375,-0.0739808312988279,0.0102471831054682,0.0747009488148233,0.41257399999995,
0.0445321508789063,-0.114682259521484,0.0270065947265614,0.125954314215828,0.415512999999919,
-0.0656011254882813,0.143891519775391,-0.0160890351562522,0.158956390814777,0.418427999999039,
-0.024899697265625,-0.00933738647460913,0.000670376464842803,0.0266013367089062,0.421468000000459,
0.0158017309570313,-0.172143099365234,-0.0400310517578131,0.177441332459898,0.424391000000469,
-0.0272938989257813,0.0864306799316408,-0.0424252534179708,0.100075578837175,0.427429999999731,
-0.03447650390625,0.0505176550292972,-0.0304542451171894,0.0683236696680923,0.430382000000463,
0.0588973608398438,-0.0955286462402342,0.00306457812499872,0.11226759552727,0.433342999998786,
0.00622492431640626,-0.0141257897949216,-0.00890643017578263,0.017821675525926,0.436367000000246,
-0.0703895288085937,0.0720654699707033,-0.0280600434570317,0.104572863434089,0.439298999999664,
-0.0368707055664063,-0.0644040246582029,-0.0639730683593758,0.0979789814013822,0.442322999999305,
-0.0129286889648438,-0.0835576379394529,-0.0424252534179708,0.0945987948334936,0.445239999999103,
-0.000957680664062498,0.0696712683105472,-0.095097689941408,0.117892210991425,0.448171000000002,
-0.0368707055664063,0.0313640417480472,-0.0136948334960945,0.050306068304168,0.451218000000154,
-0.00814028564453125,-0.0428562097167966,-0.0376368500976572,0.0576146808282241,0.454117999999653,
-0.0296881005859375,-0.0237025964355466,0.0198239897460919,0.0428507521945681,0.457202999999936,
-0.044053310546875,0.0313640417480472,-0.00651222851562672,0.0544683982245889,0.460155999999188,
0.00383072265625,-0.0332794030761716,-0.0807324799804707,0.0874066726799077,0.463141000000178,
0.04213794921875,0.000239420166015858,0.0701022246093732,0.0817923344914477,0.466115999999602,
-0.0296881005859375,0.0146046301269533,-0.0184832368164081,0.0378986619916492,0.469068999998854,
-0.00335188232421875,-0.0213083947753905,-0.056790463378908,0.0607489879241654,0.472117999999682,
-0.044053310546875,-0.0237025964355466,0.0150355864257801,0.0522357742078444,0.475152999999409,
-0.005746083984375,0.00502782348632835,-0.0184832368164081,0.0199981632500735,0.478240999998889,
-0.024899697265625,-0.026096798095703,0.017429788085936,0.040060395748024,0.481305999999677,
-0.0272938989257813,-0.0380678063964841,-0.0280600434570317,0.054602938027376,0.484248999999181,
-0.044053310546875,-0.0452504113769528,-0.0448194550781267,0.0774407996693157,0.487285999999585,
-0.0272938989257813,0.0385466467285158,-0.0160890351562522,0.0498964722685169,0.490208999999595,
-0.000957680664062498,-0.0117315881347655,-0.00890643017578263,0.0147604813910042,0.49321400000008,
0.0110133276367188,-0.0237025964355466,-0.0639730683593758,0.0691061497895337,0.496165999998993,
-0.0488417138671875,0.00981622680664085,0.0581312163085919,0.0765578841904603,0.499089999999342,
-0.0368707055664063,0.00502782348632835,0.0222181914062478,0.0433402349709708,0.502124000000549,
-0.0177170922851563,0.0289698400878908,-0.0232716401367199,0.0411669312484147,0.505065999999715,
-0.0272938989257813,-0.0572214196777341,0.0653138212890614,0.0910227611088874,0.508083999999144,
-0.024899697265625,0.00263362182617222,-0.0280600434570317,0.0376071393043073,0.511032000000341,
-0.0225054956054688,-0.0452504113769528,0.0102471831054682,0.0515664796532421,0.513992000000144,
-0.0129286889648438,-0.00454898315429664,-0.020877438476564,0.0249742203768298,0.517021999999997,
-0.0177170922851563,0.0457292517089847,0.0461602080078105,0.0673485309730565,0.51998999999887,
0.0373495458984375,-0.176931502685547,-0.00172382519531311,0.18083892499871,0.523011999999653,
-0.09193734375,-0.0284909997558591,0.0389776030273428,0.103843467684064,0.525940999999875,
-0.106302553710938,0.292332022705078,-0.0807324799804707,0.321365800526606,0.528874999999971,
0.0636857641601563,0.0792480749511721,-0.135799118164064,0.169639424764018,0.531912000000375,
0.19536685546875,-0.569580574951172,0.23769634082031,0.647371446711098,0.53485499999988,
-0.271502468261719,0.0816422766113283,0.163476089355468,0.327266685431688,0.537879999999859,
-0.204464821777344,0.797508572998047,-0.456622140625001,0.941450777608038,0.540805999999066,
0.379720383300781,-0.718021077880859,0.149110879394529,0.825818316658751,0.543729999999414,
-0.108696755371094,-0.514513936767578,0.297551382324217,0.604215525188924,0.546763000000283,
-0.166157595214844,1.02256352905273,-0.380007687500001,1.10347195703174,0.549677999999403,
0.0995987890625,-0.160172091064453,0.141928274414061,0.236047987953358,0.552719999999681,
-0.0488417138671875,-0.868855782470703,-0.0232716401367199,0.870538599363012,0.555605999999898,
-0.000957680664062498,0.512598575439454,-0.0807324799804707,0.518918057132924,0.558606000000509,
-0.0679953271484375,0.49583916381836,-0.00890643017578263,0.500558853071833,0.561556000000564,
0.0732625708007813,-0.670137044677734,-0.135799118164064,0.687671770122843,0.564487999999983,
0.133117612304688,-0.176931502685547,0.0509486113281241,0.227202148635375,0.567526999999245,
-0.293050283203125,0.72568252319336,0.0557370146484359,0.784601942232896,0.570470999999088,
0.109175595703125,-0.311006795654297,-0.0663672700195335,0.336227827774757,0.573431999999229,
0.135511813964844,-0.473812508544922,-0.0615788666992199,0.49664242851536,0.576395000000048,
-0.197282216796875,0.526963785400391,0.0246123930664055,0.563220093817909,0.57935499999985,
-0.00335188232421875,0.0720654699707033,-0.0304542451171894,0.0783079058771948,0.582378999999491,
-0.0177170922851563,-0.445082088623047,-0.00890643017578263,0.445523608207882,0.585282000000007,
-0.082360537109375,0.134314713134766,-0.0639730683593758,0.170047798317804,0.588318000000072,
-0.0296881005859375,0.311485635986329,-0.056790463378908,0.318009184573338,0.591286999999284,
0.0158017309570313,-0.267911165771484,-0.0376368500976572,0.271002988787112,0.594225999999253,
0.0660799658203125,-0.191296712646484,-0.111857101562501,0.231242308676697,0.59726000000046,
-0.127850368652344,0.287543619384766,0.00785298144531055,0.314783606833348,0.600195999999414,
-0.0320823022460938,-0.0548272180175778,-0.0184832368164081,0.0661583554524154,0.603213000000324,
0.0541089575195313,-0.27030536743164,-0.00651222851562672,0.275744773416368,0.606136999998853,
-0.0320823022460938,0.155862528076172,-0.0448194550781267,0.165321460582725,0.609078999999838,
-0.00814028564453125,0.134314713134766,-0.0711556733398453,0.152216412595015,0.612191000000166,
0.0086191259765625,-0.196085115966797,-0.0520020600585944,0.203046487993882,0.61521299999913,
-0.000957680664062498,0.00742202514648471,0.0461602080078105,0.0467628956850803,0.618372999999337,
-0.03447650390625,0.158256729736328,0.0150355864257801,0.162664964536319,0.621393999999782,
-0.0105344873046875,-0.0907402429199217,0.0605254179687496,0.109581446094815,0.624309999999241,
-0.005746083984375,-0.148201082763672,-0.00890643017578263,0.148579618090626,0.627317000000403,
-0.00814028564453125,0.0744596716308596,0.000670376464842803,0.0749063171858998,0.630280999999741,
-0.0416591088867188,0.0672770666503908,0.017429788085936,0.0810276654176661,0.633347999999387,
0.0253785375976563,-0.148201082763672,-0.0184832368164081,0.151490135474663,0.636277999999947,
-0.03447650390625,-0.00454898315429664,0.0270065947265614,0.0440304295693385,0.639224999998987,
-0.0584185205078125,0.119949503173828,0.0294007963867173,0.13661996076029,0.642239999999219,
0.0205901342773438,-0.129047469482422,0.0509486113281241,0.140260343667196,0.645182000000204,
-0.0416591088867188,-0.0715866296386717,0.00545877978515463,0.0830055731442332,0.648236999999426,
-0.0272938989257813,0.155862528076172,-0.0376368500976572,0.162648753644594,0.651168000000325,
-0.03447650390625,-0.0332794030761716,-0.00172382519531311,0.0479491351747659,0.654200999999375,
-0.0296881005859375,-0.15538368774414,-0.0160890351562522,0.159010473823671,0.657193999999436,
-0.015322890625,0.0792480749511721,0.0413718046874987,0.0907010175448591,0.660167000000001,
-0.005746083984375,0.0241814367675783,-0.0041180268554708,0.0251936005859079,0.663204999998925,
-0.024899697265625,-0.100317049560547,-0.00651222851562672,0.103565990927006,0.666121000000203,
-0.005746083984375,-0.0380678063964841,-0.0615788666992199,0.0726232207283316,0.66907799999899,
-0.0392649072265625,0.0864306799316408,-0.0328484467773453,0.10045404834371,0.672059000000445,
-0.0320823022460938,-0.0404620080566404,-0.0280600434570317,0.0587691607239362,0.674982000000455,
0.0301669409179688,-0.0715866296386717,0.0126413847656242,0.0787051108643214,0.678031999999803,
-0.00814028564453125,0.0577002600097658,0.0150355864257801,0.0601801721062365,0.68095700000049,
-0.0464475122070312,-0.0117315881347655,-0.00651222851562672,0.0483467751833132,0.683982000000469,
-0.03447650390625,-0.0596156213378904,-0.0352426484375012,0.0773608162960405,0.686901999999463,
0.00383072265625,0.00742202514648471,0.0246123930664055,0.0259909750836594,0.689854000000196,
-0.0177170922851563,0.0122104284667972,0.0581312163085919,0.061985709900749,0.692880000000514,
-0.015322890625,-0.0404620080566404,-0.020877438476564,0.048039905395661,0.695772999999463,
-0.0368707055664063,-0.0237025964355466,0.0653138212890614,0.0786584849722549,0.698816000000079,
-0.0129286889648438,0.0505176550292972,-0.0639730683593758,0.0825332535607443,0.701739000000089,
-0.0272938989257813,0.0337582434082033,-0.0280600434570317,0.0516908304768725,0.704652999998871,
0.00622492431640626,-0.0452504113769528,-0.0663672700195335,0.0805665187430493,0.70769300000029,
-0.0416591088867188,-0.0284909997558591,-0.00651222851562672,0.0508883831592594,0.710622999999032,
-0.0368707055664063,0.00502782348632835,0.0246123930664055,0.0446149955780514,0.713684000000285,
-0.0129286889648438,-0.026096798095703,-0.020877438476564,0.0358338011734769,0.716570999999021,
-0.03447650390625,-0.00215478149414028,-0.0998860932617198,0.105690605220966,0.719492000000173,
-0.0392649072265625,0.0193930334472658,-0.0328484467773453,0.0547434301216267,0.722537999999986,
-0.0225054956054688,0.0169988317871097,-0.0520020600585944,0.0591580245183347,0.725478000000294,
-0.0416591088867188,0.000239420166015858,-0.0041180268554708,0.0418628334018824,0.728517999999895,
-0.0464475122070312,-0.00215478149414028,0.0246123930664055,0.0526097364179393,0.731439999999566,
-0.0177170922851563,-0.016519991455078,0.00306457812499872,0.0244171479866264,0.734362999999576,
-0.0105344873046875,-0.0141257897949216,-0.0472136567382826,0.0503948682179377,0.737366999999722,
-0.0488417138671875,-0.026096798095703,-0.0424252534179708,0.0697600029523447,0.740262999999686,
-0.0416591088867188,-0.0404620080566404,0.00785298144531055,0.0586031122619909,0.743309999999838,
-0.0656011254882813,-0.016519991455078,-0.0639730683593758,0.0931073104450904,0.746203999999125,
0.00143652099609375,0.000239420166015858,0.0605254179687496,0.0605429362921881,0.749244999999064,
-0.0177170922851563,0.0289698400878908,0.000670376464842803,0.0339646345242125,0.752306000000317,
0.00143652099609375,-0.00694318481445277,0.00306457812499872,0.00772418584862421,0.755342999998902,
-0.0177170922851563,-0.0189141931152341,-0.0160890351562522,0.0305040835381139,0.758453999998892,
-0.0272938989257813,-0.0452504113769528,-0.0136948334960945,0.0545903390064577,0.761392000000342,
-0.0105344873046875,-0.026096798095703,-0.0041180268554708,0.0284425111198517,0.76435599999968,
-0.00335188232421875,-0.00215478149414028,-0.0113006318359385,0.0119825906336788,0.76729399999931,
-0.0296881005859375,-0.0117315881347655,-0.0615788666992199,0.0693611584427827,0.77023299999928,
0.0110133276367188,-0.016519991455078,-0.0496078583984385,0.0534335392631734,0.773321999999098,
-0.0177170922851563,-0.0237025964355466,-0.0615788666992199,0.0683203136760028,0.776225999999951,
0.013407529296875,0.00263362182617222,-0.0520020600585944,0.0537672024203186,0.779305000000022,
0.00383072265625,-0.016519991455078,-0.0256658417968758,0.030762314426701,0.782232999999906,
-0.0272938989257813,0.0241814367675783,-0.0639730683593758,0.0736359441986624,0.7851529999989,
-0.0416591088867188,-0.0213083947753905,-0.020877438476564,0.0512386229175033,0.788209000000279,
-0.0272938989257813,-0.0284909997558591,0.0317949980468732,0.0506716477574965,0.79115499999898,
-0.024899697265625,-0.0332794030761716,-0.00651222851562672,0.0420704494065112,0.794194000000061,
-0.00335188232421875,0.0193930334472658,0.00785298144531055,0.0211894827445734,0.797147999999652,
-0.03447650390625,-0.0428562097167966,-0.0256658417968758,0.0606961239951118,0.800073999998858,
-0.000957680664062498,-0.0117315881347655,0.0581312163085919,0.0593109232935586,0.803099999999176,
0.0086191259765625,0.00742202514648471,0.00785298144531055,0.0138219067952037,0.806048999998893,
-0.0416591088867188,-0.0404620080566404,0.00306457812499872,0.0581553702446759,0.809073999998873,
-0.0464475122070312,-0.0213083947753905,-0.00890643017578263,0.0518723777804941,0.811965999999302,
-0.0296881005859375,-0.00933738647460913,-0.0304542451171894,0.0435434397841375,0.814910999999483,
-0.044053310546875,-0.0141257897949216,-0.00651222851562672,0.0467187459988971,0.817947999999888,
-0.0296881005859375,-0.0332794030761716,0.0198239897460919,0.0488046366133403,0.82092399999965,
-0.0225054956054688,-0.0428562097167966,-0.0160890351562522,0.0510098921386523,0.823951999998826,
-0.0656011254882813,-0.00454898315429664,-0.020877438476564,0.0689932485857132,0.826853000000483,
-0.0536301171875,-0.0308852014160154,-0.0639730683593758,0.0890092052057886,0.829750999999305,
0.0205901342773438,-0.026096798095703,-0.0352426484375012,0.048446266825177,0.832765999999538,
-0.00335188232421875,-0.00454898315429664,-0.0615788666992199,0.0618375709970385,0.835669000000053,
-0.0105344873046875,-0.0284909997558591,0.0198239897460919,0.036272621346053,0.83868799999982,
-0.0272938989257813,-0.0332794030761716,-0.0184832368164081,0.0468412812686468,0.841576999999234,
-0.0392649072265625,-0.00215478149414028,0.0102471831054682,0.0406371847498697,0.844586999999592,
-0.005746083984375,-0.00454898315429664,-0.0496078583984385,0.0501462894317525,0.847530999999435,
-0.0225054956054688,-0.0117315881347655,0.00545877978515463,0.025960080303311,0.850458999999319,
-0.0656011254882813,-0.0213083947753905,-0.0807324799804707,0.106185162226322,0.853454000000056,
0.00383072265625,-0.0428562097167966,-0.0184832368164081,0.0468290421701168,0.856390999999348,
0.00622492431640626,-0.0380678063964841,-0.0543962617187521,0.0666847872873578,0.859375,
0.0110133276367188,0.00981622680664085,0.0198239897460919,0.0247111769004692,0.86236800000006,
-0.0105344873046875,-0.0117315881347655,-0.0232716401367199,0.0281100483384391,0.865266999999221,
-0.024899697265625,-0.0189141931152341,0.00785298144531055,0.0322398967538752,0.868297999999413,
0.00383072265625,-0.0691924279785154,-0.0136948334960945,0.0706386225100469,0.871225999999297,
-0.0272938989257813,-0.0284909997558591,-0.0376368500976572,0.0545273002351358,0.874238999998852,
-0.0225054956054688,-0.0428562097167966,-0.0232716401367199,0.0537096013613099,0.877146999999241,
-0.0129286889648438,-0.00933738647460913,0.0437660063476546,0.0465811238180105,0.880067000000054,
-0.00335188232421875,-0.0308852014160154,-0.0496078583984385,0.0585326438536888,0.883067999999184,
-0.0464475122070312,-0.0189141931152341,-0.0184832368164081,0.0534485559639745,0.885972000000038,
-0.0201112939453125,-0.016519991455078,0.0437660063476546,0.0509199133292031,0.889051000000109,
-0.005746083984375,-0.0213083947753905,-0.0256658417968758,0.03384967657455,0.892047999999704,
-0.0129286889648438,0.00263362182617222,0.0294007963867173,0.0322256697439506,0.895094999999856,
-0.0272938989257813,0.0146046301269533,0.0246123930664055,0.0395477184192859,0.898213999998916,
-0.00335188232421875,-0.0237025964355466,-0.0472136567382826,0.0529355983767273,0.901115999999092,
-0.0201112939453125,-0.0284909997558591,-0.0184832368164081,0.0394693710927163,0.904129000000466,
0.0205901342773438,0.000239420166015858,-0.0376368500976572,0.0429015551798353,0.907065999999759,
-0.0105344873046875,0.0385466467285158,-0.00890643017578263,0.0409407363790847,0.910014999999476,
-0.0416591088867188,-0.0284909997558591,-0.0400310517578131,0.0644181925015019,0.913048000000344,
-0.00335188232421875,-0.00694318481445277,-0.0280600434570317,0.0290999822902621,0.915967999999339,
-0.024899697265625,0.000239420166015858,-0.0496078583984385,0.0555066830283993,0.918994999999995,
-0.024899697265625,-0.0500388146972653,-0.0136948334960945,0.0575449942628617,0.921904999999242,
-0.0464475122070312,-0.00215478149414028,-0.00172382519531311,0.0465294105573432,0.924811999999292,
0.0110133276367188,-0.0380678063964841,0.0629196196289055,0.0743594634442722,0.927854999999909,
-0.0225054956054688,-0.0691924279785154,-0.020877438476564,0.0756964785135513,0.930789000000004,
-0.0225054956054688,-0.00694318481445277,-0.0735498750000012,0.0772288110767686,0.933811999999307,
0.0086191259765625,0.00502782348632835,-0.0184832368164081,0.021004722917024,0.93675599999915,
-0.0201112939453125,0.00981622680664085,-0.0591846650390639,0.0632743789274962,0.939752000000226,
-0.03447650390625,0.0122104284667972,0.0126413847656242,0.0386979132994661,0.942729000000327,
-0.0225054956054688,-0.0284909997558591,0.0102471831054682,0.0377258420864681,0.945631999999023,
-0.0368707055664063,-0.00215478149414028,0.0485544096679682,0.0610051039705449,0.948663999999553,
-0.0416591088867188,-0.0356736047363279,0.000670376464842803,0.0548501306536626,0.951598999999987,
-0.0560243188476563,-0.016519991455078,0.0724964262695291,0.093098690870887,0.954571000000215,
0.013407529296875,-0.026096798095703,-0.0903092866210944,0.0949556315481363,0.957527000000482,
-0.03447650390625,-0.00215478149414028,0.0581312163085919,0.067620342459954,0.960478999999395,
-0.0536301171875,-0.016519991455078,-0.0424252534179708,0.0703491415356284,0.963486999999077,
-0.015322890625,-0.00694318481445277,0.000670376464842803,0.016835919846506,0.966398000000481,
-0.063206923828125,0.000239420166015858,-0.00651222851562672,0.0635419677226794,0.969434000000547,
-0.015322890625,-0.00933738647460913,-0.0448194550781267,0.04827795891276,0.972342999999455,
-0.0296881005859375,-0.0404620080566404,-0.0113006318359385,0.0514418282360551,0.975295000000187,
0.0158017309570313,-0.0117315881347655,0.0150355864257801,0.0247667866419782,0.978360999999495,
0.0086191259765625,-0.00454898315429664,-0.0256658417968758,0.0274539253200737,0.981283999999505,
-0.0416591088867188,0.0122104284667972,-0.056790463378908,0.0714823939678111,0.984331999999995,
-0.005746083984375,-0.0404620080566404,-0.0400310517578131,0.0572073131860589,0.987259999999878,
-0.005746083984375,-0.00454898315429664,-0.0424252534179708,0.0430536044538968,0.990160999999716,
0.0229843359375,-0.0284909997558591,-0.0041180268554708,0.0368371403716222,0.993194999999105,
0.00143652099609375,-0.00215478149414028,-0.0113006318359385,0.0115935738989811,0.996122000000469,
-0.0368707055664063,-0.016519991455078,0.0605254179687496,0.0727714591507708,0.999174999999013,
-0.0536301171875,-0.0380678063964841,0.00785298144531055,0.0662345579812047,1.00207599999885,
-0.0201112939453125,-0.00933738647460913,0.00306457812499872,0.0223839801960062,1.00500099999954,
-0.0272938989257813,0.0313640417480472,0.0270065947265614,0.0495783843228956,1.00802599999952,
-0.0536301171875,-0.0308852014160154,0.000670376464842803,0.0618913123197225,1.01094000000012,
