X,Y,Z,Magnitude,Seconds,
-0.01608903515625,0.0261446821289063,0.0601902297363299,0.0675667463445797,0.0,
0.0270065947265625,-0.00737414111328116,-0.05473144995117,0.061475732851596,0.00373000000035972,
-0.0232716401367187,0.00220266552734383,0.02188300317383,0.032020099905905,0.00749400000040623,
0.02221819140625,-0.0337103593749999,-0.05473144995117,0.0680115282309832,0.0111950000000434,
0.02221819140625,0.0381156904296875,0.0242772048339859,0.0503570904724235,0.0149490000003425,
0.0174297880859375,0.0213562788085938,-0.00684741674804457,0.028403789771657,0.0187430000005406,
-0.025665841796875,-0.00258573779296867,-0.0571256516113259,0.0626798336556087,0.022530000000188,
-0.05439626171875,0.0237504804687501,0.019488801513674,0.0624728100529391,0.026531999999861,
-0.0184832368164062,-0.0265277543945311,0.0147003981933604,0.0355169467081741,0.0302980000005846,
0.00306457812499999,-0.0169509477539062,0.000335188232423178,0.017229005194469,0.0341290000005756,
-0.05439626171875,-0.00497993945312492,-0.052337248291014,0.0756501199246028,0.0378880000007484,
0.00306457812499999,0.0213562788085938,0.0170945998535164,0.0275264895652617,0.0417580000002999,
-0.00411802685546875,-0.00976834277343741,-0.0379720383300768,0.0394240327803048,0.0456650000005538,
-0.0232716401367187,-0.0169509477539062,-0.05473144995117,0.061842020327331,0.0494360000002416,
-0.044819455078125,-0.0313161577148436,0.0123061965332045,0.0560439805923427,0.0531989999999496,
0.00306457812499999,0.0261446821289063,-0.033183635009765,0.0423566957536477,0.0570189999998547,
-0.044819455078125,0.0165678754882813,0.0386424147949231,0.0614533503796022,0.0608050000000731,
-0.0496078583984375,0.00699106884765632,-0.0427604416503886,0.0658655450797182,0.0645480000002863,
0.0629196196289062,0.00220266552734383,-0.0403662399902327,0.0747874561716111,0.068369999999959,
0.0437660063476563,-0.00258573779296867,-0.0595198532714836,0.07392403049764,0.0721340000000055,
-0.0472136567382813,-0.00497993945312492,-0.0762792648925767,0.0898468443080164,0.0758290000003399,
0.000670376464843747,-0.0289219560546874,0.0075177932128927,0.0298905697741897,0.0795550000002549,
0.0653138212890625,0.0165678754882813,0.0290656081542977,0.0733839173590097,0.0832749999999578,
-0.01608903515625,-0.0121625444335937,-0.0475488449707022,0.0516495614444698,0.0869490000004589,
-0.0304542451171875,0.00459686718750008,0.0386424147949231,0.0494148606674161,0.0906789999999091,
0.0198239897460938,0.0213562788085938,0.00512359155273501,0.0295860170418879,0.0947190000006231,
0.02221819140625,-0.00976834277343741,-0.0212126267089836,0.0322342067034201,0.0986190000003262,
-0.00890643017578124,-0.0121625444335937,0.00272938989257909,0.0153199724138433,0.102397999999994,
-0.0376368500976562,-0.00019153613281242,0.00512359155273501,0.0379844752729701,0.106185000000551,
0.0365834013671875,0.00220266552734383,0.0242772048339859,0.0439611153813162,0.109973999999966,
0.0246123930664063,-0.00258573779296867,0.0314598098144554,0.0400271853363558,0.113780000000588,
-0.0472136567382813,-0.0265277543945311,-0.00684741674804457,0.0545869787764282,0.117630000000645,
-0.0184832368164062,-0.00976834277343741,0.019488801513674,0.0285808318316683,0.121401000000333,
0.0677080229492188,0.00459686718750008,-0.0236068283691395,0.0718525567066438,0.125159000000167,
-0.0017238251953125,-0.0193451494140624,0.0290656081542977,0.034957344815297,0.128939000000173,
-0.0759440766601562,-0.0169509477539062,0.0147003981933604,0.0791892613714934,0.132693999999901,
0.0485544096679688,0.00220266552734383,0.0673728347167977,0.0830751544771794,0.136465000000499,
0.0629196196289062,-0.0289219560546874,-0.0690966599121072,0.0978248766280077,0.140275000000656,
-0.01608903515625,-0.0217393510742186,0.0482192214355486,0.0552860719642628,0.14404900000045,
-0.0280600434570312,0.00699106884765632,-0.0140300217285141,0.0321416022025307,0.147786000000451,
0.0677080229492188,-0.00976834277343741,0.0075177932128927,0.068820884235987,0.151526999999987,
0.0246123930664063,-0.0313161577148436,0.0338540114746113,0.0522739487641728,0.155246000000261,
-0.0400310517578125,-0.00497993945312492,0.0410366164550791,0.0575437989002701,0.158965000000535,
-0.0208774384765625,0.0285388837890626,-0.0116358200683582,0.0372253627777014,0.162729000000581,
0.0246123930664063,-0.0217393510742186,-0.0738850632324208,0.0808540156482177,0.166830000000118,
-0.0184832368164062,0.0189620771484376,0.057796028076174,0.0635733534932408,0.170697000000473,
-0.0496078583984375,0.00220266552734383,-0.0236068283691395,0.0549824853562913,0.174504000000525,
-0.00411802685546875,-0.00976834277343741,-0.0260010300292954,0.0280790353877417,0.178300999999919,
0.02221819140625,-0.00497993945312492,0.0554018264160163,0.0598983321683664,0.182147000000441,
-0.0687614716796875,0.0165678754882813,0.0482192214355486,0.0856021483468851,0.186005999999907,
-0.0136948334960937,0.0357214887695313,0.0170945998535164,0.041902250160932,0.189900000000307,
0.012641384765625,0.0500866987304688,0.0170945998535164,0.0544123822549717,0.193745999999919,
0.0413718046875,-0.00497993945312492,-0.0236068283691395,0.0478926754912215,0.197551000000203,
-0.025665841796875,-0.0169509477539062,-0.0355778366699209,0.0470303362417221,0.201326000000336,
-0.0759440766601562,-0.0361045610351562,0.0601902297363299,0.103411343009445,0.2050990000007,
0.031794998046875,0.00938527050781257,-0.00684741674804457,0.0338510312904497,0.208864000000176,
-0.0017238251953125,0.0381156904296875,-0.00445321508788865,0.038413650631706,0.212623000000349,
-0.0232716401367187,-0.0241335527343749,0.0362482131347672,0.0493754043801092,0.21646200000032,
-0.0400310517578125,-0.00976834277343741,0.0290656081542977,0.0504253428620491,0.220174000000043,
0.012641384765625,0.0189620771484376,0.0554018264160163,0.0599059875872711,0.223941000000195,
-0.01608903515625,-0.00258573779296867,-0.00684741674804457,0.0176756954124706,0.227646000000277,
0.0102471831054687,-0.00258573779296867,-0.0738850632324208,0.0746370777187171,0.231375000000298,
-0.00411802685546875,-0.00019153613281242,-0.0643082565917954,0.064440256805422,0.235209000000395,
-0.0017238251953125,0.0261446821289063,-0.0140300217285141,0.0297213304989552,0.239246000000094,
-0.01608903515625,0.00459686718750008,0.02188300317383,0.0275473060044792,0.243078999999852,
-0.01608903515625,0.00699106884765632,0.0410366164550791,0.0446288694229754,0.246861999999965,
-0.0280600434570312,0.0189620771484376,-0.0379720383300768,0.0508802722431258,0.250683000000208,
-0.006512228515625,0.0189620771484376,0.0290656081542977,0.0353097588125747,0.254511000000093,
0.0174297880859375,0.00938527050781257,0.0266714064941418,0.0332151281737894,0.258365000000595,
-0.0017238251953125,0.00220266552734383,0.00991199487304861,0.010299075254249,0.262220000000525,
0.02221819140625,0.00220266552734383,0.0697670363769554,0.0732525708054914,0.26601699999992,
-0.0017238251953125,-0.0217393510742186,0.0482192214355486,0.0529213026510364,0.269782000000305,
-0.0113006318359375,-0.0145567460937499,0.0482192214355486,0.0516206979086856,0.273512000000665,
-0.0567904633789063,-0.0313161577148436,0.00512359155273501,0.0650546666674352,0.277215000000069,
-0.00890643017578124,0.0285388837890626,-0.00684741674804457,0.0306704988958948,0.280943000000661,
-0.01608903515625,0.0405098920898438,-0.0307894333496073,0.0533656969914171,0.284741000000395,
-0.0352426484375,0.0716345136718751,0.0745554396972672,0.109233975512878,0.288486000000375,
-0.044819455078125,-0.230034895507812,0.0673728347167977,0.24385228225827,0.29219700000067,
0.0413718046875,-0.131872627441406,-0.318093632568358,0.346822108828047,0.2959350000001,
0.170658694335938,0.476254594238281,0.302004597412111,0.589194030302046,0.29969600000004,
-0.370430880859375,-0.191727668945312,-0.124163298095702,0.43519542866103,0.303238999999849,
0.144322476074219,-0.921959175292969,-0.38752548071289,1.01045222361517,0.306368000000475,
0.350223818847656,0.545686442382813,0.21341913598633,0.682625918269881,0.309447999999975,
-0.1884715546875,0.859326859863281,0.139198884521486,0.890696642219357,0.312555999999859,
-0.305787436035156,-0.651414387695312,-0.239084977783202,0.758293008760471,0.315488000000187,
0.287974575683594,-0.675356404296875,0.105680061279298,0.741757308300327,0.318535000000338,
0.031794998046875,0.402034342773438,-0.0307894333496073,0.404463254049191,0.321507999999994,
-0.384796090820313,0.433158964355469,-0.00924161840820226,0.579465380694049,0.324470000000474,
0.17544709765625,-0.198910273925781,0.105680061279298,0.285508767818481,0.327527000000373,
0.426838271972656,-0.141449434082031,-0.0475488449707022,0.452172252002241,0.330480999999963,
-0.327335250976563,-0.0265277543945311,-0.0499430466308581,0.332184280470762,0.33350800000062,
-0.569149618652344,-0.100748005859375,-0.00684741674804457,0.578038351852946,0.336449000000357,
0.283186172363281,0.121912748535156,-0.124163298095702,0.332375767869989,0.339441000000079,
0.632739614746094,0.392457536132813,0.266091572509767,0.790687715028628,0.342519000000721,
-0.063973068359375,-0.289889937011719,0.0386424147949231,0.299369279113864,0.345502000000124,
-0.700830709960938,-0.58916514453125,-0.243873381103514,0.947498536972876,0.348516000000018,
-0.22677878125,0.33020829296875,0.0697670363769554,0.406612311342629,0.351500000000669,
0.738084487792969,0.615118290527344,0.170323506103516,0.975781389038183,0.354478000000199,
0.525000540039063,-0.230034895507812,0.0482192214355486,0.575210147257894,0.357530000000224,
-0.696042306640625,-0.438330439941406,-0.148105314697265,0.835789238656735,0.360455000000002,
-0.698436508300781,0.0764229169921876,-0.0260010300292954,0.703086105631143,0.363494000000173,
0.508241128417969,0.299083671386719,0.141593086181642,0.606472331735069,0.366477999999915,
0.637528018066406,0.141066361816406,0.0721612380371113,0.656923843783163,0.369528000000173,
-0.320152645996094,-0.249188508789063,0.00272938989257909,0.405709353133499,0.372467000000142,
-0.573938021972656,-0.265947920410156,-0.133740104736328,0.646544325666273,0.375420000000304,
0.0677080229492188,0.179373588378906,0.0242772048339859,0.193257970739032,0.378486000000521,
0.434020876953125,0.265564848144531,0.057796028076174,0.512092951584544,0.381448000000091,
0.110803652832031,-0.1103248125,-0.033183635009765,0.159844197162558,0.384450999999899,
-0.233961386230469,-0.198910273925781,-0.136134306396483,0.335910370036657,0.387397000000419,
-0.186077353027344,0.0740287153320314,0.0170945998535164,0.200990689703592,0.390339999999924,
0.02221819140625,0.141066361816406,0.000335188232423178,0.142805738038194,0.393410000000586,
0.211360122558594,-0.0241335527343749,0.00991199487304861,0.212964263241348,0.396357999999964,
0.115592056152344,-0.0744117875976562,0.0075177932128927,0.137677720760467,0.399414999999863,
-0.2650860078125,-0.00737414111328116,-0.05473144995117,0.27077758605336,0.402353000000403,
-0.221990377929687,0.0189620771484376,-0.0403662399902327,0.226425973762062,0.405300000000352,
0.170658694335938,-0.0408929643554687,-0.00445321508788865,0.175546163759974,0.408330000000205,
0.199389114257813,0.0213562788085938,0.00272938989257909,0.200548146583934,0.411317000000054,
-0.133404916503906,-0.0384987626953125,-0.00445321508788865,0.138920328250056,0.414314999999988,
-0.198048361328125,-0.0337103593749999,-0.0475488449707022,0.206447170995379,0.41725900000074,
-0.0208774384765625,-0.0145567460937499,-0.00684741674804457,0.0263562783848926,0.420171000000664,
0.132351467773437,-0.0217393510742186,0.0147003981933604,0.134928173907286,0.423221000000012,
0.0820732329101563,0.0381156904296875,-0.00924161840820226,0.0909627886998819,0.426196000000346,
-0.116645504882813,0.0117794721679688,0.00272938989257909,0.11727053910982,0.429259999999886,
-0.0807324799804687,-0.0552581743164062,-0.052337248291014,0.110952182093253,0.432186000000002,
0.0389776030273438,-0.062440779296875,-0.01642422338867,0.0754178995390298,0.435134000000289,
0.13713987109375,0.0213562788085938,-0.00684741674804457,0.138961584635043,0.438191000000188,
-0.006512228515625,0.0189620771484376,-0.0260010300292954,0.0328332613763443,0.44118299999991,
-0.121433908203125,-0.0193451494140624,0.00991199487304861,0.12336400005553,0.444301000000451,
-0.0304542451171875,-0.0361045610351562,-0.0403662399902327,0.062132388527628,0.447336000000178,
0.0437660063476563,0.0165678754882813,0.0123061965332045,0.0483880179686267,0.450411000000713,
0.000670376464843747,0.052480900390625,0.043430818115235,0.0681243735572955,0.453489999999874,
-0.0496078583984375,0.0405098920898438,0.02188300317383,0.0676820271557824,0.456437000000733,
0.000670376464843747,-0.0145567460937499,0.0242772048339859,0.0283148536283313,0.459482000000207,
-0.00411802685546875,-0.0241335527343749,-0.0355778366699209,0.0431876020968609,0.462411000000429,
0.0557370146484375,0.00699106884765632,-0.0236068283691395,0.0609325216218959,0.465465000000222,
0.031794998046875,0.033327287109375,0.0170945998535164,0.0491310015267687,0.468448000000535,
-0.01608903515625,-0.0289219560546874,-0.0619140549316395,0.0702046066320892,0.471350000000712,
-0.0400310517578125,-0.0265277543945311,-0.00684741674804457,0.0485086999843805,0.474379000000226,
0.00545877978515624,-0.00019153613281242,0.0410366164550791,0.0413985368450899,0.4773380000006,
-0.00890643017578124,0.0141736738281251,0.0482192214355486,0.0510422456805401,0.480378000000201,
-0.0184832368164062,-0.0265277543945311,-0.0307894333496073,0.0446468476201605,0.483347000000322,
-0.0328484467773437,-0.0313161577148436,0.0266714064941418,0.05264110669506,0.486308000000463,
-0.025665841796875,-0.0552581743164062,-0.0307894333496073,0.0682655877431262,0.489336000000549,
0.00785298144531249,-0.0289219560546874,-0.05473144995117,0.0623993627641109,0.492293000000245,
0.0294007963867188,0.0237504804687501,0.0625844313964858,0.0731115805046726,0.495364000000336,
-0.0208774384765625,-0.00737414111328116,0.0266714064941418,0.0346642368858307,0.498296000000664,
-0.0304542451171875,0.00459686718750008,-0.00445321508788865,0.0311195012526912,0.501240999999936,
0.012641384765625,-0.0289219560546874,-0.0283952316894514,0.0424567230661937,0.504273000000467,
0.0294007963867188,0.00459686718750008,0.057796028076174,0.0650070679041495,0.507257000000209,
-0.0520020600585938,-0.00019153613281242,-0.00924161840820226,0.0528172173370634,0.510247000000163,
-0.0328484467773437,0.00220266552734383,0.00272938989257909,0.0330351594561771,0.51321900000039,
0.00545877978515624,-0.0337103593749999,-0.00684741674804457,0.0348292078872873,0.516172000000552,
0.0198239897460938,-0.0408929643554687,0.0242772048339859,0.0515228859613102,0.519221000000471,
-0.0232716401367187,-0.0337103593749999,-0.0212126267089836,0.0461295252060897,0.522155999999995,
0.0365834013671875,0.0189620771484376,-0.00205901342773274,0.041257061961216,0.525211000000127,
0.0150355864257813,-0.00497993945312492,0.02188300317383,0.0270135981318628,0.528178999999909,
-0.025665841796875,-0.0408929643554687,-0.0307894333496073,0.0572621967349294,0.531106000000364,
-0.0184832368164062,-0.0121625444335937,-0.0116358200683582,0.0249989967593442,0.534128000000237,
0.0389776030273438,-0.00737414111328116,0.00512359155273501,0.0399985335395567,0.537100999999893,
0.0341891997070313,-0.00019153613281242,0.02188300317383,0.0405931507843785,0.540152999999918,
-0.0136948334960937,-0.0289219560546874,0.0290656081542977,0.0432300541740833,0.543102000000545,
-0.0496078583984375,-0.00976834277343741,-0.05473144995117,0.0745110176361605,0.546022000000448,
-0.0017238251953125,0.0165678754882813,0.00991199487304861,0.0193833359838426,0.549081000000115,
-0.00890643017578124,-0.0337103593749999,-0.00924161840820226,0.0360710457080264,0.552016999999978,
-0.0113006318359375,-0.0145567460937499,0.0458250197753927,0.0493916549038847,0.555053000000044,
0.0174297880859375,-0.0169509477539062,0.00512359155273501,0.0248471996988716,0.558034000000589,
-0.00890643017578124,-0.0337103593749999,-0.0236068283691395,0.0421069492283366,0.561032999999952,
-0.01608903515625,0.0117794721679688,-0.0427604416503886,0.0471812291801654,0.564006000000518,
-0.006512228515625,0.0309330854492188,-0.00924161840820226,0.032934365129014,0.566952000000128,
0.0294007963867188,0.0165678754882813,0.043430818115235,0.0550012480633586,0.570011000000704,
0.02221819140625,-0.0169509477539062,-0.0236068283691395,0.0365823045306119,0.572962000000189,
-0.0208774384765625,-0.0361045610351562,0.00272938989257909,0.0417954104426513,0.575972000000547,
-0.0328484467773437,0.00220266552734383,0.0817380446777349,0.0881191247054164,0.578946999999971,
-0.00411802685546875,0.0165678754882813,0.0410366164550791,0.0444461081924933,0.581958000000668,
-0.0280600434570312,-0.00258573779296867,-0.0236068283691395,0.0367605008724647,0.585063999999875,
0.00785298144531249,0.0165678754882813,0.02188300317383,0.0285487240289556,0.588154000000031,
-0.0113006318359375,0.0165678754882813,-0.00684741674804457,0.0211916468026437,0.59125800000038,
-0.0400310517578125,0.00459686718750008,0.0170945998535164,0.0437703282707363,0.594235000000481,
0.000670376464843747,-0.0145567460937499,-0.0260010300292954,0.0298060702546787,0.597173000000112,
-0.0424252534179688,0.00459686718750008,-0.0475488449707022,0.0638899520548127,0.600213000000622,
0.012641384765625,-0.00737414111328116,-0.0307894333496073,0.0340906405328657,0.60319200000049,
-0.0424252534179688,-0.043287166015625,0.0314598098144554,0.0682890950504167,0.606228000000556,
0.0150355864257813,-0.0241335527343749,-0.0690966599121072,0.0747184424205925,0.609189000000697,
0.012641384765625,-0.0121625444335937,-0.0116358200683582,0.0210505202917867,0.612129000000095,
0.0246123930664063,-0.00258573779296867,0.0314598098144554,0.0400271853363558,0.615187000000333,
-0.00411802685546875,0.0213562788085938,-0.0307894333496073,0.0376966576200419,0.618148999999903,
-0.0232716401367187,-0.00497993945312492,-0.01642422338867,0.0289158113413866,0.621176999999989,
-0.0017238251953125,-0.0313161577148436,-0.0116358200683582,0.0334524381172458,0.624155999999857,
0.00785298144531249,0.0117794721679688,-0.0307894333496073,0.0338882647553144,0.627136000000064,
-0.0113006318359375,-0.0480755693359375,-0.0236068283691395,0.0547379849146454,0.630162000000382,
0.00306457812499999,0.0117794721679688,-0.0188184250488259,0.0224116203108668,0.633162000000084,
-0.025665841796875,0.0165678754882813,0.0338540114746113,0.0455996055493962,0.636234000000513,
0.0102471831054687,-0.00019153613281242,-0.0355778366699209,0.0370246392257743,0.63919900000019,
-0.0328484467773437,-0.0289219560546874,0.0170945998535164,0.0469864378503531,0.642158000000563,
-0.0136948334960937,-0.00976834277343741,0.00272938989257909,0.0170416711096891,0.645188999999846,
-0.00411802685546875,0.0165678754882813,0.0506134230957045,0.0534150843942266,0.648177000000032,
0.0341891997070313,-0.00976834277343741,0.0314598098144554,0.0474767472633534,0.651232000000164,
-0.0136948334960937,-0.0289219560546874,-0.0379720383300768,0.0496578664609729,0.654190000000199,
0.0174297880859375,-0.0145567460937499,-0.033183635009765,0.0402100733898844,0.657213000000411,
-0.006512228515625,0.0165678754882813,-0.00445321508788865,0.0183503335951669,0.660190999999941,
-0.0304542451171875,-0.00019153613281242,-0.0236068283691395,0.0385328441384479,0.663121000000501,
0.0174297880859375,-0.0361045610351562,0.000335188232423178,0.0400930067644367,0.666188000000147,
-0.0280600434570312,-0.0193451494140624,-0.0212126267089836,0.0401444439064432,0.66913999999997,
-0.00890643017578124,-0.00497993945312492,0.0601902297363299,0.0610490626557446,0.672166000000288,
-0.0352426484375,-0.0145567460937499,0.019488801513674,0.042822383284522,0.675133000000642,
-0.01608903515625,-0.00737414111328116,0.0147003981933604,0.0230073187586252,0.678088000000571,
0.00545877978515624,-0.0217393510742186,-0.0116358200683582,0.0252545039653161,0.681148000000576,
0.00306457812499999,0.00220266552734383,-0.0403662399902327,0.0405422829334836,0.684138999999959,
-0.0328484467773437,0.00459686718750008,-0.00924161840820226,0.034431949616981,0.687190999999984,
-0.0136948334960937,0.00220266552734383,0.0458250197753927,0.0478783107192203,0.690178000000742,
-0.025665841796875,0.00699106884765632,0.079343843017579,0.0836842631775719,0.69314200000008,
0.0198239897460938,-0.00497993945312492,0.0314598098144554,0.0375167962381082,0.696193000000676,
0.012641384765625,-0.0193451494140624,0.0170945998535164,0.0287448214257249,0.699161999999887,
0.02221819140625,-0.0145567460937499,0.019488801513674,0.0329448064289662,0.702220000000125,
0.00545877978515624,0.00220266552734383,0.0601902297363299,0.0604773822836303,0.705214000000524,
-0.0400310517578125,-0.0408929643554687,-0.0403662399902327,0.0700296577855651,0.708136000000195,
-0.0017238251953125,-0.00737414111328116,0.0242772048339859,0.0254309300855058,0.711182000000008,
0.0174297880859375,0.0237504804687501,-0.00205901342773274,0.0295317180589405,0.714163000000553,
-0.0304542451171875,-0.0121625444335937,-0.0260010300292954,0.041850234113338,0.717194000000745,
0.00545877978515624,-0.0193451494140624,0.019488801513674,0.0279972582056639,0.720191000000341,
0.0174297880859375,-0.0121625444335937,-0.0116358200683582,0.0242305036778652,0.723230999999942,
0.0174297880859375,0.00220266552734383,-0.0403662399902327,0.0440236593105923,0.726403000000573,
-0.0400310517578125,-0.0169509477539062,-0.00924161840820226,0.044443528723484,0.729460000000472,
0.00785298144531249,-0.00976834277343741,-0.0834618698730463,0.0843977106373455,0.732536000000437,
0.012641384765625,-0.0121625444335937,-0.0116358200683582,0.0210505202917867,0.735496000000239,
0.012641384765625,0.00220266552734383,0.0314598098144554,0.0339761089264152,0.738478000000214,
0.0150355864257813,-0.0241335527343749,0.0170945998535164,0.0331771392814666,0.741517000000385,
-0.0400310517578125,-0.0193451494140624,0.00272938989257909,0.0445440173297692,0.744493000000148,
-0.0113006318359375,0.0165678754882813,-0.0212126267089836,0.0291920247667284,0.747532000000319,
-0.0280600434570312,0.0141736738281251,-0.033183635009765,0.0457100940827938,0.750495000000228,
-0.0280600434570312,-0.00258573779296867,0.0314598098144554,0.0422347216435266,0.753531000000294,
-0.0184832368164062,-0.00497993945312492,0.0362482131347672,0.0409922284784769,0.756484000000455,
0.000670376464843747,0.00938527050781257,-0.00924161840820226,0.0131886397294132,0.759480000000622,
-0.0520020600585938,0.00220266552734383,-0.0451546433105463,0.0689057892942647,0.762548000000606,
-0.0208774384765625,-0.0289219560546874,-0.0427604416503886,0.0556848484734242,0.765511999999944,
-0.0376368500976562,-0.00737414111328116,-0.00684741674804457,0.038958921424411,0.76852400000007,
-0.044819455078125,0.0261446821289063,0.0242772048339859,0.0572862167687213,0.771504000000277,
0.0246123930664063,0.0357214887695313,0.00991199487304861,0.0444976661717261,0.774476999999933,
-0.00411802685546875,-0.0121625444335937,-0.0188184250488259,0.0227819830919036,0.777480000000651,
-0.0520020600585938,-0.0241335527343749,0.0458250197753927,0.0733932902610012,0.780428000000029,
-0.0017238251953125,-0.0121625444335937,0.000335188232423178,0.012288670048231,0.783460999999988,
0.00306457812499999,-0.0289219560546874,0.0362482131347672,0.0464736929517873,0.786423999999897,
0.00306457812499999,0.00459686718750008,-0.00445321508788865,0.00709605183484045,0.789384000000609,
0.0102471831054687,-0.0169509477539062,-0.0140300217285141,0.0242730488619629,0.792422000000442,
-0.00411802685546875,0.0117794721679688,-0.00205901342773274,0.0126472782065509,0.795396999999866,
0.0174297880859375,0.0117794721679688,0.0147003981933604,0.0256642783713082,0.798454000000675,
0.012641384765625,0.0189620771484376,-0.01642422338867,0.0280912814320886,0.801424000000225,
-0.0113006318359375,-0.0169509477539062,-0.0188184250488259,0.0277339508719068,0.804347000000234,
-0.006512228515625,-0.00976834277343741,0.00991199487304861,0.0153648066418822,0.807386000000406,
0.0174297880859375,0.0309330854492188,-0.0116358200683582,0.0373636935646433,0.81037600000036,
-0.006512228515625,0.00459686718750008,0.0147003981933604,0.0167225002682789,0.813444000000345,
0.0198239897460938,0.0189620771484376,-0.0427604416503886,0.0508036052792793,0.816432999999961,
-0.0113006318359375,-0.0337103593749999,0.02188300317383,0.0417487537177926,0.819397000000208,
0.0677080229492188,0.0357214887695313,0.0170945998535164,0.0784386797170601,0.822461000000658,
0.0198239897460938,0.00459686718750008,-0.0212126267089836,0.0293955317911997,0.82543700000042,
0.0174297880859375,-0.0241335527343749,0.0865264479980485,0.0915043828647707,0.828494000000319,
-0.00890643017578124,-0.00497993945312492,-0.0355778366699209,0.0370122514519777,0.831441000000268,
-0.0280600434570312,-0.0169509477539062,0.0170945998535164,0.0369719625218621,0.834380000000237,
0.0174297880859375,-0.0480755693359375,0.0362482131347672,0.0626816626706626,0.837446000000455,
-0.0328484467773437,-0.00737414111328116,0.0386424147949231,0.0512507037417581,0.840387000000192,
-0.0208774384765625,0.0213562788085938,-0.00205901342773274,0.0299365598923562,0.843440000000555,
0.00785298144531249,-0.0241335527343749,-0.00205901342773274,0.0254624669162055,0.846403000000464,
0.012641384765625,-0.0265277543945311,0.0290656081542977,0.0413320207513293,0.849449000000277,
-0.0136948334960937,0.0309330854492188,-0.0188184250488259,0.0387109462712123,0.852421000000504,
0.0198239897460938,-0.0289219560546874,-0.0140300217285141,0.0377665410275428,0.855366000000686,
0.0102471831054687,0.00938527050781257,-0.0116358200683582,0.0181240274984626,0.858436999999867,
0.00306457812499999,-0.00258573779296867,0.0147003981933604,0.0152374337098335,0.861482000000251,
0.0341891997070313,0.0644519086914063,0.0147003981933604,0.0744248051231308,0.864618999999948,
-0.0017238251953125,0.0141736738281251,0.00991199487304861,0.0173813763969777,0.867692000000716,
0.00306457812499999,-0.0121625444335937,0.0147003981933604,0.0193240998037871,0.870754000000488,
-0.0232716401367187,0.00459686718750008,-0.00684741674804457,0.0246898266238112,0.873795999999857,
-0.01608903515625,-0.0121625444335937,0.019488801513674,0.0280463531283048,0.876753000000463,
-0.0113006318359375,-0.00019153613281242,0.0314598098144554,0.0334284399807003,0.879786000000422,
-0.0136948334960937,0.0285388837890626,0.057796028076174,0.0658968680120174,0.882782000000589,
0.0102471831054687,-0.0241335527343749,-0.0260010300292954,0.0369254206714586,0.885742000000391,
0.0365834013671875,0.00459686718750008,0.0147003981933604,0.0396935530102258,0.888824000000568,
-0.044819455078125,-0.0217393510742186,-0.0283952316894514,0.0573382256555417,0.891752000000452,
0.00306457812499999,0.0309330854492188,0.0410366164550791,0.0514805915328696,0.894826000000648,
0.00545877978515624,-0.0265277543945311,0.0506134230957045,0.0574041690770295,0.897793000000092,
-0.0208774384765625,-0.0265277543945311,-0.0188184250488259,0.0386487038835392,0.900732000000062,
-0.0424252534179688,0.00699106884765632,0.0338540114746113,0.0547254169845663,0.903823999999986,
0.00785298144531249,-0.0121625444335937,-0.0283952316894514,0.0318729664037909,0.906802000000425,
-0.006512228515625,-0.0169509477539062,0.0314598098144554,0.0363244185577289,0.909851000000344,
0.02221819140625,0.0165678754882813,0.02188300317383,0.0353130054720043,0.912847000000511,
0.0246123930664063,-0.0145567460937499,-0.0188184250488259,0.0342315917043229,0.91579400000046,
-0.0113006318359375,-0.0145567460937499,-0.0116358200683582,0.021794390227591,0.918817000000672,
-0.00890643017578124,-0.00019153613281242,-0.0690966599121072,0.0696685696392257,0.921758000000409,
-0.0113006318359375,0.0141736738281251,0.019488801513674,0.0266159856874936,0.924823000000288,
-0.044819455078125,-0.00976834277343741,0.0338540114746113,0.0570113862922359,0.927782000000661,
0.0270065947265625,-0.00737414111328116,-0.052337248291014,0.0593542051969246,0.930734999999913,
-0.0017238251953125,-0.00976834277343741,-0.0188184250488259,0.0212726400609243,0.93377000000055,
-0.0280600434570312,0.0165678754882813,0.0242772048339859,0.0406354920181481,0.936751000000186,
-0.0376368500976562,-0.0193451494140624,0.000335188232423178,0.0423187859263117,0.939785999999913,
-0.044819455078125,0.00699106884765632,0.0266714064941418,0.0526215024634273,0.942764000000352,
-0.0136948334960937,0.00220266552734383,0.057796028076174,0.0594372026704906,0.94579800000065,
0.0198239897460938,0.033327287109375,-0.00924161840820226,0.0398635942474681,0.948785000000498,
0.00545877978515624,-0.0121625444335937,0.0170945998535164,0.0216783557493139,0.951764000000367,
-0.0280600434570312,-0.0289219560546874,0.019488801513674,0.0447622493322122,0.95478600000024,
0.0174297880859375,-0.00258573779296867,-0.0355778366699209,0.0397022167487691,0.957762000000002,
0.000670376464843747,0.00938527050781257,-0.0379720383300768,0.039120434584118,0.960822000000007,
0.0198239897460938,0.0309330854492188,-0.0714908615722649,0.080379037274694,0.963818000000174,
-0.025665841796875,-0.00976834277343741,-0.0427604416503886,0.0508193991091775,0.966750000000502,
-0.00411802685546875,-0.00976834277343741,0.0170945998535164,0.0201147709376361,0.969790000000103,
-0.0113006318359375,0.0213562788085938,-0.0212126267089836,0.032152300949333,0.972753000000012,
-0.0328484467773437,0.00459686718750008,-0.0236068283691395,0.0407115952680991,0.975801999999931,
-0.00411802685546875,-0.00737414111328116,-0.0619140549316395,0.0624874891511814,0.978737000000365,
0.00306457812499999,0.00699106884765632,-0.0140300217285141,0.015972106699477,0.981711000000359,
-0.0136948334960937,-0.0552581743164062,-0.0403662399902327,0.0697885923644913,0.984733000000233,
0.0174297880859375,-0.0193451494140624,0.0410366164550791,0.0486007840333297,0.987712000000101,
-0.0136948334960937,0.00220266552734383,-0.00205901342773274,0.0140228291085167,0.990749000000505,
-0.0232716401367187,0.0189620771484376,0.0841322463378926,0.0893272885421699,0.993733000000248,
-0.01608903515625,0.0141736738281251,-0.0212126267089836,0.0301616580104577,0.996680000000197,
0.00785298144531249,0.0141736738281251,-0.0188184250488259,0.0248333539556134,0.999761000000035,
0.02221819140625,0.0117794721679688,0.00991199487304861,0.0270305685527341,1.00283800000034,
-0.0113006318359375,-0.00258573779296867,0.0314598098144554,0.0335277490056683,1.00596500000029,
-0.0208774384765625,0.0165678754882813,-0.00445321508788865,0.0270220846745184,1.00904200000059,
-0.0017238251953125,-0.0193451494140624,-0.0236068283691395,0.0305694083162629,1.01202900000044,
-0.006512228515625,0.00938527050781257,-0.00924161840820226,0.0146935337324742,1.01506700000027,
-0.025665841796875,-0.0792001909179687,-0.0140300217285141,0.0844289475611741,1.01800700000058,
