X,Y,Z,Magnitude,Seconds,
-1.0573273371582,0.330878669433594,-0.0296402165527372,1.10828711723339,0.0,
-1.05493313549805,0.357214887695313,-0.0152750065917999,1.11387599048965,0.00389599999925849,
-1.07169254711914,0.323696064453125,-0.0392170231933626,1.12019731860119,0.00773799999933544,
-1.07648095043945,0.338061274414063,-0.0440054265136745,1.12917365337672,0.0115969999997105,
-1.0573273371582,0.328484467773438,-0.0128808049316422,1.10725293343759,0.0155349999995451,
-1.06929834545898,0.345243879394531,-0.0392170231933626,1.12433547607858,0.0193989999997939,
-1.07887515209961,0.285388837890625,-0.0416112248535185,1.11675864744551,0.0234059999993406,
-1.0573273371582,0.302148249511719,-0.0440054265136745,1.10053220768304,0.0273189999998067,
-1.05972153881836,0.302148249511719,-0.072735846435549,1.10435221187592,0.0311649999994188,
-1.07169254711914,0.330878669433594,-0.0392170231933626,1.12229389392663,0.0350429999998596,
-1.04535632885742,0.323696064453125,0.0469742365722627,1.09533354523919,0.0388769999999568,
-1.07648095043945,0.321301862792969,-0.000909796630862658,1.1234086306519,0.0426729999999225,
-1.03338532055664,0.354820686035156,0.039791631591795,1.09332809070523,0.0466579999992973,
-1.05493313549805,0.328484467773438,-0.0224576115722677,1.1051200433698,0.0505909999992582,
-1.06929834545898,0.316513459472656,-0.00330399829101857,1.11516395118986,0.0544369999997798,
-1.08605775708008,0.316513459472656,-0.072735846435549,1.13357519604914,0.0584140000000843,
-1.07887515209961,0.338061274414063,-0.0368228215332049,1.13119977866957,0.0623189999996612,
-1.03338532055664,0.328484467773438,-0.0535822331542999,1.0856603161303,0.0663599999998041,
-1.05972153881836,0.335667072753906,-0.0655532414550812,1.11354360086707,0.0703819999998814,
-1.07169254711914,0.306936652832031,0.00866701000976278,1.11481394926012,0.0743119999997361,
-1.06450994213867,0.347638081054688,0.039791631591795,1.12054318357491,0.0781819999992877,
-1.07887515209961,0.345243879394531,0.0110612116699187,1.13282270478701,0.0821539999997185,
-1.08366355541992,0.328484467773438,-0.0894952580566439,1.13588650318963,0.0861449999993056,
-1.10042296704102,0.299754047851563,-0.0799184514160185,1.14331542212614,0.0900539999993271,
-1.06929834545898,0.338061274414063,-0.0248518132324236,1.12174060703922,0.0940529999998034,
-1.10521137036133,0.304542451171875,-0.0990720646972676,1.15067525903059,0.0981349999992744,
-1.0956345637207,0.306936652832031,-0.0463996281738304,1.13876166583085,0.102054999999382,
-1.04056792553711,0.316513459472656,-0.0463996281738304,1.08863001206958,0.105915000000095,
-1.06690414379883,0.292571442871094,-0.0176692082519558,1.10643332476884,0.109789999999521,
-1.07648095043945,0.335667072753906,-0.0392170231933626,1.1282825866326,0.113735999999335,
-1.06450994213867,0.302148249511719,0.00148440502929503,1.10656097213546,0.117637999999715,
-1.04296212719727,0.29496564453125,-0.0607648381347676,1.085572243462,0.121607999999469,
-1.07648095043945,0.350032282714844,-0.0248518132324236,1.13223294786123,0.125605999999607,
-1.08845195874023,0.33327287109375,-0.0463996281738304,1.13927669974734,0.129680999999437,
-1.08126935375977,0.318907661132813,-0.0200634099121118,1.12749636457355,0.133702000000085,
-1.07887515209961,0.369185895996094,-0.0248518132324236,1.14056452348884,0.137597999999343,
-1.03099111889648,0.340455476074219,-0.0128808049316422,1.08582619860088,0.141515999999683,
-1.08845195874023,0.330878669433594,-0.0559764348144558,1.1390090963755,0.145400999999765,
-1.08366355541992,0.299754047851563,-0.111043072998049,1.12982731185327,0.14946400000008,
-1.05014473217773,0.354820686035156,-0.0535822331542999,1.10976246713831,0.153469999999288,
-1.06929834545898,0.311725056152344,-0.0799184514160185,1.11667292485814,0.15737099999933,
-1.06450994213867,0.311725056152344,0.0158496149902323,1.10932643430173,0.161368000000039,
-1.0573273371582,0.316513459472656,-0.0559764348144558,1.10510417119109,0.165333999999348,
-1.05253893383789,0.340455476074219,-0.034428619873049,1.1067671246924,0.169208999999682,
-1.0956345637207,0.378762702636719,-0.0583706364746117,1.16072538239266,0.173124999999345,
-1.07648095043945,0.309330854492188,-0.0440054265136745,1.12090735199772,0.177006999999321,
-1.07648095043945,0.338061274414063,-0.00569819995117449,1.12833024039958,0.180875999999444,
-1.08366355541992,0.362003291015625,-0.0416112248535185,1.14328674359729,0.184778999999253,
-1.0573273371582,0.309330854492188,-0.0272460148925813,1.10198412909191,0.188631999999416,
-1.04775053051758,0.306936652832031,-0.0655532414550812,1.09374974766482,0.192618999999468,
-1.04535632885742,0.3141192578125,-0.127802484619144,1.0989878240844,0.196700999999848,
-1.05253893383789,0.330878669433594,-0.120619879638674,1.10989551602608,0.20064099999945,
-1.06211574047852,0.321301862792969,-0.0655532414550812,1.11158533665739,0.204645999999229,
-1.04775053051758,0.347638081054688,-0.0416112248535185,1.10470127348214,0.20861799999966,
-1.08126935375977,0.328484467773438,-0.0631590397949235,1.13182795744595,0.21249699999953,
-1.06690414379883,0.335667072753906,-0.0463996281738304,1.11942385238164,0.216382999999951,
-1.04296212719727,0.330878669433594,-0.0751300480957049,1.09676579850981,0.220428999999967,
-1.05972153881836,0.304542451171875,-0.0296402165527372,1.10301150802638,0.224463999999898,
-1.05493313549805,0.311725056152344,-0.00569819995117449,1.10004040857034,0.228448999999273,
-1.08605775708008,0.335667072753906,-0.0871010563964862,1.14007913298611,0.23239299999932,
-1.05493313549805,0.37158009765625,-0.0368228215332049,1.11906729446072,0.236348999999791,
-1.08126935375977,0.304542451171875,-0.0320344182128931,1.12379523219138,0.240264999999454,
-1.12915338696289,0.316513459472656,-0.0583706364746117,1.17412745156545,0.244092999999339,
-1.08366355541992,0.287783039550781,-0.0368228215332049,1.12182962137042,0.247957999999926,
-1.06690414379883,0.328484467773438,-0.0224576115722677,1.11655310753275,0.25186499999927,
-1.0740867487793,0.29496564453125,-0.0942836613769558,1.11783562483921,0.25568099999964,
-1.07648095043945,0.290177241210937,-0.0535822331542999,1.11619224315779,0.25958399999945,
-1.06450994213867,0.309330854492188,-0.0152750065917999,1.10864796950129,0.263594999999441,
-1.04535632885742,0.335667072753906,-0.0440054265136745,1.09880786108222,0.267409000000043,
-1.04775053051758,0.354820686035156,-0.0583706364746117,1.1077391500894,0.271400999999969,
-1.06450994213867,0.318907661132813,0.0182438166503882,1.1114028747881,0.275426999999581,
-1.06690414379883,0.357214887695313,-0.0416112248535185,1.12588561678356,0.279324000000088,
-1.08126935375977,0.3141192578125,-0.0224576115722677,1.12619654937594,0.28317799999968,
-1.0190201105957,0.306936652832031,-0.0392170231933626,1.06496482080788,0.287139000000025,
-1.05493313549805,0.326090266113281,-0.0583706364746117,1.10572415783866,0.291027999999642,
-1.0740867487793,0.342849677734375,-0.0392170231933626,1.12816054723341,0.294953999999962,
-1.07648095043945,0.309330854492188,-0.0200634099121118,1.12022290398706,0.298963999999614,
-1.05972153881836,0.318907661132813,-0.0080924016113304,1.10669658133049,0.302909999999429,
-1.03338532055664,0.33327287109375,-0.180474921142581,1.10069397405021,0.306826000000001,
-1.17703742016602,0.596635053710938,0.413287090576169,1.38282200410054,0.310700999999426,
-1.02380851391602,-0.267671745605469,-0.575518195068362,1.20459670820451,0.314551999999821,
-0.837060784423828,0.821690009765625,0.1762611262207,1.1861337250013,0.317524999999478,
-1.1722490168457,0.924640681152344,0.305548015869139,1.52397104196214,0.320482000000084,
-1.37096775463867,-0.619619389648438,-0.434260297119144,1.56590637585435,0.323521999999684,
-0.880156414306641,-0.0857124194335938,-0.0463996281738304,0.885536480324189,0.32645599999978,
-0.839454986083985,1.53516210449219,0.286394402587888,1.77297183129451,0.329517999999553,
-1.16985481518555,0.263841022949219,-0.3217328190918,1.24164583552817,0.332462999999734,
-1.09084616040039,-0.622013591308594,-0.101466266357424,1.2598181045855,0.33543599999939,
-0.973530279052735,0.591846650390625,0.178655327880858,1.15323951891674,0.338537999999971,
-1.29914170483398,0.939005891113281,-0.216387946044925,1.61750578854542,0.341541999999208,
-1.31111271313477,0.00766144531249998,-0.0847068547363303,1.31386852292275,0.344618000000082,
-0.65749565991211,0.0244208569335937,0.0709162531738254,0.661759802360982,0.347653999999238,
-0.595246416748047,0.661278498535156,-0.0607648381347676,0.891795893032618,0.350633000000016,
-1.61996472729492,0.498472785644531,-0.0607648381347676,1.69601096731757,0.353707999999642,
-1.75164581860352,-0.100077629394531,-0.12301408129883,1.7588095604511,0.356740999999602,
-0.564121795166016,0.48650177734375,-0.0535822331542999,0.746852351438862,0.35982999999942,
-0.291182805908203,0.852814631347656,0.0852814631347627,0.905181280104499,0.3628149999995,
-1.30871851147461,-0.179086284179688,-0.175686517822268,1.33254710686044,0.365769,
-1.82826027172852,-0.119231242675781,-0.180474921142581,1.84101138170633,0.368853999999374,
-1.16027800854492,0.989284125976563,-0.0559764348144558,1.52579864342472,0.371803,
-0.410892888916016,0.577481440429688,-0.0416112248535185,0.709964276732503,0.374847999999474,
-0.71495649975586,-0.289219560546875,-0.0104866032714863,0.771311039460898,0.377782999999908,
-1.59123430737305,0.146525141601562,-0.185263324462893,1.6086698659058,0.380827999999383,
-1.62954153393555,0.718739338378906,-0.0176692082519558,1.78109630516562,0.383777000000009,
-0.700591289794922,0.558327827148438,0.0302148249511696,0.896365468741204,0.386810999999398,
-0.511449358642578,0.120188923339844,0.00627280834960686,0.525419044072525,0.3899279999996,
-1.30153590649414,0.0531512768554687,-0.0966778630371117,1.30620342340935,0.392918999999893,
-1.49786044262695,0.393127912597656,-0.154138702880863,1.55624361877432,0.395958000000064,
-1.05014473217773,0.618182868652344,-0.0583706364746117,1.21998407728066,0.398951999999554,
-0.815512969482422,0.321301862792969,0.0110612116699187,0.876594912620348,0.401922999999442,
-0.90649263256836,0.0435744702148437,-0.0272460148925813,0.907948221366585,0.404955999999402,
-1.2105562434082,0.261446821289062,-0.0440054265136745,1.23924869835695,0.407958999999209,
-1.33505472973633,0.553539423828125,-0.0320344182128931,1.44561517323026,0.411025999999765,
-1.07648095043945,0.4673481640625,0.0326090266113255,1.17400549050171,0.413955999999416,
-0.892127422607422,0.194409174804687,-0.0128808049316422,0.913155069280179,0.41691499999979,
-0.961559270751953,0.184832368164063,-0.0296402165527372,0.97961103399638,0.419985999999881,
-1.27519968823242,0.3907337109375,-0.0679474431152371,1.3354489629922,0.422915999999532,
-1.22970985668945,0.481713374023438,-0.000909796630862658,1.32069486789423,0.426002999999582,
-0.990289690673828,0.273417829589844,-0.0128808049316422,1.0274224526105,0.428977999999915,
-0.928040447509766,0.27581203125,-0.0200634099121118,0.968366608890289,0.431929999999738,
-1.10521137036133,0.338061274414063,-0.0703416447753931,1.15789703576101,0.434973999999784,
-1.22492145336914,0.378762702636719,-0.118225677978518,1.28758341973098,0.437944999999672,
-1.10999977368164,0.33327287109375,-0.0559764348144558,1.16030326442482,0.440998000000036,
-0.930434649169922,0.3141192578125,-0.00569819995117449,0.982044812616672,0.443944999999985,
-1.01423170727539,0.364397492675781,-0.034428619873049,1.0782563788717,0.446930999999495,
-1.14112439526367,0.328484467773438,-0.120619879638674,1.19357282408671,0.450015999999778,
-1.1507012019043,0.345243879394531,-0.0894952580566439,1.20470577052573,0.453002999999626,
-1.02859691723633,0.352426484375,-0.0104866032714863,1.08734815670289,0.456069999999272,
-0.942405657470703,0.323696064453125,-0.0631590397949235,0.99844710910646,0.459045999999944,
-1.08366355541992,0.297359846191406,-0.0535822331542999,1.12499806007927,0.46196400000008,
-1.13154758862305,0.326090266113281,-0.0440054265136745,1.17841897665266,0.465072999999393,
-1.0740867487793,0.352426484375,-0.101466266357424,1.13497232301088,0.468080999999984,
-1.04775053051758,0.323696064453125,-0.0416112248535185,1.09740230106198,0.471262999999453,
-1.05014473217773,0.330878669433594,-0.0128808049316422,1.10111333092579,0.474287000000004,
-1.07648095043945,0.328484467773438,-0.0463996281738304,1.12643961565727,0.477368999999271,
-1.07169254711914,0.328484467773438,-0.0392170231933626,1.12159036017044,0.480376999999862,
-1.08366355541992,0.381156904296875,-0.0392170231933626,1.14941083253407,0.483383999999205,
-1.01662590893555,0.326090266113281,0.0182438166503882,1.06779957727039,0.486508999999387,
-1.07887515209961,0.285388837890625,-0.108648871337893,1.1212595417001,0.489540999999917,
-1.12436498364258,0.326090266113281,-0.0607648381347676,1.17227293905854,0.492598999999245,
-1.12197078198242,0.350032282714844,-0.0296402165527372,1.17567834759432,0.495589999999538,
-1.04775053051758,0.299754047851563,-0.0416112248535185,1.09058019303354,0.498622000000069,
-1.08366355541992,0.335667072753906,-0.0918894597167998,1.13817518769457,0.501733000000058,
-1.09324036206055,0.316513459472656,-0.072735846435549,1.14045857558366,0.504687999999987,
-1.08126935375977,0.273417829589844,-0.0679474431152371,1.11737083367322,0.5077339999998,
-1.07887515209961,0.316513459472656,-0.156532904541018,1.13518937365065,0.510722999999416,
-1.08366355541992,0.335667072753906,-0.0631590397949235,1.13621659439754,0.513669999999365,
-1.12675918530273,0.27581203125,-0.0392170231933626,1.16068794822488,0.516814999999951,
-1.06690414379883,0.330878669433594,-0.0894952580566439,1.12061346911229,0.519847999999911,
-1.07648095043945,0.340455476074219,-0.0104866032714863,1.12908420265989,0.522941999999603,
-1.10760557202148,0.338061274414063,-0.034428619873049,1.15855982076795,0.525950999999623,
-1.07887515209961,0.318907661132813,-0.0655532414550812,1.12692986366163,0.528921000000082,
-1.06450994213867,0.3141192578125,0.00387860668945095,1.10989520614813,0.532003999999688,
-1.08126935375977,0.302148249511719,-0.0655532414550812,1.12460402254675,0.534958999999617,
-1.05253893383789,0.33327287109375,0.0206380183105441,1.10423500290992,0.538067999999839,
-1.09324036206055,0.3141192578125,-0.0631590397949235,1.13922537791026,0.541067999999541,
-1.08366355541992,0.330878669433594,-0.0080924016113304,1.13308114545929,0.544026999999915,
-1.06929834545898,0.33327287109375,-0.0751300480957049,1.12254812027603,0.547098999999434,
-1.04775053051758,0.316513459472656,-0.034428619873049,1.09505583149608,0.550104999999348,
-1.12675918530273,0.340455476074219,-0.0416112248535185,1.17780630278786,0.553138999999646,
-1.08366355541992,0.309330854492188,-0.051188031494144,1.12811014243045,0.556163999999626,
-1.04535632885742,0.3141192578125,-0.0894952580566439,1.0951941214349,0.55916199999956,
-1.05972153881836,0.352426484375,-0.0894952580566439,1.12036760393145,0.562212999999247,
-1.06211574047852,0.251870014648437,-0.0104866032714863,1.09162187560501,0.565169999999853,
-1.10760557202148,0.328484467773438,-0.0559764348144558,1.156644072304,0.568253999999797,
-1.09084616040039,0.376368500976562,-0.0487938298339863,1.15498027343219,0.571246999999858,
-1.02141431225586,0.306936652832031,-0.0176692082519558,1.06668153966078,0.574273999999605,
-1.03099111889648,0.299754047851563,-0.051188031494144,1.07490250302763,0.577268999999433,
-1.10760557202148,0.335667072753906,-0.0368228215332049,1.15793713434274,0.580265999999938,
-1.10760557202148,0.297359846191406,-0.0607648381347676,1.14843604386729,0.583367999999609,
-1.10281716870117,0.347638081054688,-0.0918894597167998,1.1599575922371,0.586349999999584,
-1.04535632885742,0.297359846191406,-0.12301408129883,1.0937665183242,0.589407999999821,
-1.06211574047852,0.342849677734375,-0.0607648381347676,1.11773347147177,0.592376999999942,
-1.0740867487793,0.3141192578125,-0.0583706364746117,1.12059822560738,0.595375999999305,
-1.10281716870117,0.33327287109375,-0.0320344182128931,1.15252015953708,0.598457999999482,
-1.08845195874023,0.364397492675781,-0.0176692082519558,1.14796576607236,0.60149999999976,
-1.07169254711914,0.347638081054688,-0.0440054265136745,1.12752544472963,0.604599999999664,
-1.07887515209961,0.37158009765625,-0.0559764348144558,1.14244331327498,0.607633999999962,
-1.09084616040039,0.338061274414063,-0.0416112248535185,1.14278706019649,0.610600999999406,
-1.10042296704102,0.311725056152344,-0.00569819995117449,1.14373759512714,0.613712999999734,
-1.02859691723633,0.354820686035156,-0.0080924016113304,1.08810607219626,0.616737999999714,
-1.07887515209961,0.309330854492188,-0.0679474431152371,1.12439940696566,0.619879999999284,
-1.04296212719727,0.316513459472656,-0.1301966862793,1.09768025668375,0.622884999999769,
-1.08366355541992,0.328484467773438,-0.103860468017581,1.13710850130081,0.625851999999213,
-1.05253893383789,0.357214887695313,-0.0559764348144558,1.11291241546238,0.62897299999986,
-1.04535632885742,0.316513459472656,-0.0703416447753931,1.09448552813608,0.631992999999966,
-1.0740867487793,0.318907661132813,-0.0463996281738304,1.12139081756859,0.635051999999632,
-1.10281716870117,0.321301862792969,-0.0607648381347676,1.15027516715343,0.638033999999607,
-1.07169254711914,0.342849677734375,-0.0487938298339863,1.12625559039818,0.64100899999994,
-1.08605775708008,0.357214887695313,-0.0631590397949235,1.14503842381503,0.644091999999546,
-1.08366355541992,0.345243879394531,-0.0440054265136745,1.13818123124895,0.647133999999824,
-1.07169254711914,0.335667072753906,-0.0535822331542999,1.12430794491175,0.650306999999884,
-1.02620271557617,0.366791694335938,-0.0392170231933626,1.09048894327173,0.653304999999818,
-1.04535632885742,0.326090266113281,-0.0152750065917999,1.09514293211547,0.656334999999672,
-1.06690414379883,0.323696064453125,-0.0440054265136745,1.11579571237759,0.659393999999338,
-1.10042296704102,0.302148249511719,0.0110612116699187,1.14120402272247,0.662413999999444,
-1.09802876538086,0.326090266113281,-0.000909796630862658,1.14542693306363,0.665476999999555,
-1.06450994213867,0.33327287109375,0.0110612116699187,1.11551538488842,0.668506999999408,
-1.0740867487793,0.326090266113281,0.00627280834960686,1.12251349821804,0.671589999999924,
-1.09802876538086,0.302148249511719,-0.0200634099121118,1.1390185576645,0.674568999999792,
-1.08126935375977,0.345243879394531,-0.0104866032714863,1.13509767002123,0.677558999999746,
-1.0740867487793,0.369185895996094,-0.0440054265136745,1.13661649084833,0.680675999999949,
-1.05493313549805,0.338061274414063,-0.0392170231933626,1.10847071253071,0.683633999999984,
-1.06690414379883,0.311725056152344,-0.034428619873049,1.11204419541431,0.686721000000034,
-1.06690414379883,0.306936652832031,-0.00569819995117449,1.11019233936716,0.689738999999463,
-1.06929834545898,0.323696064453125,-0.072735846435549,1.11958411792078,0.692733999999291,
-1.08845195874023,0.335667072753906,-0.0799184514160185,1.14183493075548,0.695807999999488,
-1.09324036206055,0.29496564453125,-0.0823126530761744,1.13532136135477,0.698800999999548,
-1.06211574047852,0.366791694335938,-0.0320344182128931,1.12412285678937,0.701877999999851,
-1.06929834545898,0.3141192578125,-0.072735846435549,1.11685288336768,0.704850999999508,
-1.07648095043945,0.326090266113281,-0.0080924016113304,1.12481624511593,0.7078419999998,
-1.06690414379883,0.326090266113281,-0.0751300480957049,1.11815197439159,0.710940999999366,
-1.08605775708008,0.328484467773438,0.0206380183105441,1.13483453643339,0.714019999999437,
-1.05972153881836,0.304542451171875,-0.0368228215332049,1.10322788425012,0.717100999999275,
-1.05972153881836,0.321301862792969,-0.0823126530761744,1.11041433695996,0.720128999999361,
-1.06929834545898,0.352426484375,-0.103860468017581,1.13065926578571,0.72308399999929,
-1.07648095043945,0.318907661132813,-0.051188031494144,1.12389214231459,0.726202999999259,
-1.05972153881836,0.330878669433594,-0.0368228215332049,1.11078636735754,0.729230999999345,
-1.07887515209961,0.350032282714844,-0.0200634099121118,1.13441470952109,0.732357999999294,
-1.08845195874023,0.342849677734375,-0.0487938298339863,1.14221469340833,0.735370999999759,
-1.05972153881836,0.338061274414063,-0.0535822331542999,1.11362750540915,0.738434999999299,
-1.08126935375977,0.297359846191406,-0.034428619873049,1.12194100708255,0.741538999999648,
-1.08845195874023,0.302148249511719,-0.0942836613769558,1.13353898917112,0.744566999999734,
-1.07169254711914,0.326090266113281,-0.0272460148925813,1.12053653333217,0.747675999999956,
-1.09084616040039,0.304542451171875,-0.1301966862793,1.14001869605027,0.750740999999834,
-1.03817372387695,0.335667072753906,-0.0918894597167998,1.09495239051146,0.753697999999531,
-1.08126935375977,0.318907661132813,-0.0607648381347676,1.12895432913064,0.756757999999536,
-1.07169254711914,0.318907661132813,-0.0463996281738304,1.11909782296928,0.759757999999238,
-1.06450994213867,0.326090266113281,-0.0607648381347676,1.1149926655003,0.762901999999485,
-1.05493313549805,0.316513459472656,-0.111043072998049,1.10697572442215,0.765879999999925,
-1.03817372387695,0.304542451171875,-0.0248518132324236,1.08220534009737,0.768922999999631,
-1.10521137036133,0.347638081054688,-0.0535822331542999,1.15983424000378,0.771898999999394,
-1.04535632885742,0.321301862792969,-0.118225677978518,1.09999184190156,0.774871999999959,
-1.06450994213867,0.278206232910156,-0.0894952580566439,1.10389742555944,0.777939999999944,
-1.05972153881836,0.347638081054688,-0.0272460148925813,1.11561835793539,0.781011999999464,
-1.06211574047852,0.362003291015625,-0.0128808049316422,1.12218632321645,0.784041999999317,
-1.06211574047852,0.311725056152344,0.0350032282714814,1.10746899857054,0.787096999999449,
-1.06450994213867,0.359609089355469,-0.0104866032714863,1.12365923789524,0.79004199999963,
-1.07648095043945,0.328484467773438,-0.0966778630371117,1.12962820938079,0.793142999999873,
-1.06929834545898,0.316513459472656,-0.0559764348144558,1.116563067132,0.796117999999296,
-1.08366355541992,0.318907661132813,-0.0799184514160185,1.13243797028856,0.799202999999579,
-1.06211574047852,0.309330854492188,-0.0535822331542999,1.10754073488197,0.802227999999559,
-1.05253893383789,0.33327287109375,-0.000909796630862658,1.10404249989825,0.805211999999301,
-1.06929834545898,0.330878669433594,-0.0631590397949235,1.12110156087452,0.808280999999624,
-1.10281716870117,0.309330854492188,-0.0152750065917999,1.14548007880946,0.811302000000069,
-1.08605775708008,0.309330854492188,-0.0487938298339863,1.1303043249871,0.814349999999649,
-1.03817372387695,0.326090266113281,-0.0152750065917999,1.08828896366211,0.817369999999755,
-1.06690414379883,0.373974299316406,-0.0128808049316422,1.13062245853335,0.820380999999543,
-1.08366355541992,0.330878669433594,-0.0655532414550812,1.13494696911211,0.823461999999381,
-1.06929834545898,0.297359846191406,-0.0487938298339863,1.11094674379925,0.826426999999967,
-1.05493313549805,0.306936652832031,-0.0176692082519558,1.09882038120146,0.82951199999934,
-1.08845195874023,0.338061274414063,-0.0559764348144558,1.14111631878545,0.832476999999926,
-1.06690414379883,0.33327287109375,-0.0655532414550812,1.11966623871913,0.835446999999476,
-1.08126935375977,0.306936652832031,-0.0847068547363303,1.12717734872163,0.838487999999415,
-1.07169254711914,0.345243879394531,-0.0200634099121118,1.12610869467712,0.841496999999436,
-1.06929834545898,0.273417829589844,-0.00330399829101857,1.10370611013243,0.844643999999789,
-1.08605775708008,0.302148249511719,-0.106254669677737,1.13230078655149,0.847629999999299,
-1.0357795222168,0.335667072753906,-0.0392170231933626,1.08951804816762,0.850612999999612,
-1.10281716870117,0.347638081054688,-0.0655532414550812,1.15816888684109,0.853670999999849,
-1.07887515209961,0.3141192578125,-0.0463996281738304,1.12463124064793,0.856661999999233,
-1.06211574047852,0.33327287109375,-0.0703416447753931,1.1153961627014,0.85975899999994,
-1.09084616040039,0.304542451171875,-0.0823126530761744,1.13554692685176,0.862779999999475,
-1.07887515209961,0.306936652832031,-0.111043072998049,1.12717002565298,0.865868999999293,
-1.0956345637207,0.328484467773438,-0.0775242497558626,1.14644108094924,0.868946999999935,
-1.0740867487793,0.297359846191406,-0.101466266357424,1.11909813029903,0.87199899999996,
-1.06690414379883,0.326090266113281,-0.0607648381347676,1.11727869364026,0.875111999999717,
-1.0573273371582,0.304542451171875,-0.0823126530761744,1.10338686566601,0.87815799999953,
-1.08126935375977,0.318907661132813,-0.0583706364746117,1.12882799527285,0.88132399999995,
-1.06211574047852,0.359609089355469,0.0254264216308577,1.12163053018195,0.884347999999591,
-1.0357795222168,0.330878669433594,-0.0487938298339863,1.08843959426312,0.887330999999904,
-1.0740867487793,0.3141192578125,-0.0583706364746117,1.12059822560738,0.890466999999262,
-1.04775053051758,0.299754047851563,-0.0272460148925813,1.09012660215719,0.893481999999494,
-1.08366355541992,0.340455476074219,-0.0823126530761744,1.13886434898574,0.896562999999333,
-1.06929834545898,0.335667072753906,-0.0631590397949235,1.12252411984791,0.899531000000025,
-1.07169254711914,0.304542451171875,0.0134554133300764,1.11420467969955,0.902497999999468,
-1.04535632885742,0.340455476074219,-0.0607648381347676,1.10107772251769,0.905573999999433,
-1.07169254711914,0.338061274414063,-0.0128808049316422,1.12382216384304,0.908566999999493,
-1.05972153881836,0.345243879394531,-0.051188031494144,1.11571649206381,0.911740999999893,
-1.04775053051758,0.335667072753906,-0.0368228215332049,1.10082218278735,0.914740999999594,
-1.07648095043945,0.318907661132813,0.00148440502929503,1.12272683073245,0.917782999999872,
-1.07887515209961,0.37158009765625,0.0230322199707,1.14130357309042,0.920843999999306,
-1.07887515209961,0.326090266113281,-0.0248518132324236,1.12735268132591,0.923843999999917,
-1.0357795222168,0.309330854492188,-0.0966778630371117,1.08529784178627,0.926958000000013,
-1.05493313549805,0.340455476074219,0.0350032282714814,1.1090622514314,0.929952999999841,
-1.06929834545898,0.352426484375,-0.0320344182128931,1.1263345783738,0.932976000000053,
-1.08845195874023,0.311725056152344,-0.0416112248535185,1.13297470013785,0.936037999999826,
-1.07887515209961,0.318907661132813,-0.0799184514160185,1.12785666155939,0.93901299999925,
-1.09802876538086,0.311725056152344,-0.0607648381347676,1.14303632741507,0.942129000000023,
-1.03817372387695,0.359609089355469,-0.00569819995117449,1.09870644285828,0.945114999999532,
-1.07648095043945,0.354820686035156,-0.0631590397949235,1.13520835982004,0.948120999999446,
-1.06690414379883,0.311725056152344,0.0158496149902323,1.11162411497036,0.95123699999931,
-1.06690414379883,0.350032282714844,0.00387860668945095,1.12286334635499,0.954246999999668,
-1.08126935375977,0.311725056152344,-0.108648871337893,1.13053991670186,0.957319000000098,
-1.06929834545898,0.318907661132813,-0.072735846435549,1.11820908209834,0.960322999999335,
-1.08845195874023,0.304542451171875,-0.101466266357424,1.13479917794284,0.96338999999989,
-1.07887515209961,0.335667072753906,-0.072735846435549,1.13222545498051,0.966394000000037,
-1.0740867487793,0.311725056152344,-0.127802484619144,1.12568571529148,0.969360000000052,
-1.0956345637207,0.366791694335938,-0.0152750065917999,1.1555018693536,0.972471000000041,
-1.04296212719727,0.342849677734375,-0.0655532414550812,1.09982413492143,0.975513999999748,
-1.07648095043945,0.285388837890625,0.00866701000976278,1.11370244792498,0.978572999999415,
-1.08366355541992,0.345243879394531,0.0158496149902323,1.13744065686965,0.9816009999995,
-1.07648095043945,0.347638081054688,-0.0487938298339863,1.13227395531659,0.984563999999409,
-1.0740867487793,0.347638081054688,-0.0272460148925813,1.12927274147134,0.987660999999207,
-1.09324036206055,0.316513459472656,0.00148440502929503,1.13813771694111,0.99067500000001,
-1.10042296704102,0.359609089355469,0.00866701000976278,1.15772385334368,0.993797999999515,
-1.07887515209961,0.357214887695313,-0.0942836613769558,1.14037865580331,0.996795999999449,
-0.995078093994141,0.347638081054688,-0.0104866032714863,1.05410749802597,0.999841999999262,
-1.0573273371582,0.3141192578125,0.0326090266113255,1.10348328245029,1.00292499999978,
-1.09802876538086,0.340455476074219,-0.0847068547363303,1.15271520855416,1.00594299999921,
-1.05014473217773,0.328484467773438,-0.0607648381347676,1.10199744538841,1.00900299999921,
-1.03338532055664,0.350032282714844,-0.072735846435549,1.09347991432912,1.01211499999954,
-1.07887515209961,0.321301862792969,-0.0751300480957049,1.1282069867622,1.01507799999945,
-1.08126935375977,0.316513459472656,-0.108648871337893,1.13186958729812,1.01813899999979,
-1.08126935375977,0.316513459472656,-0.0296402165527372,1.12703270930559,1.02115799999956,
-1.06211574047852,0.304542451171875,0.00866701000976278,1.10494844576591,1.02427499999976,
-1.07169254711914,0.330878669433594,-0.0607648381347676,1.123253299568,1.02724799999942,
-1.06929834545898,0.350032282714844,0.0302148249511696,1.12553742105303,1.03022499999952,
-1.08126935375977,0.323696064453125,-0.0990720646972676,1.13302154945344,1.61024399999951,
-1.07648095043945,0.299754047851563,-0.0104866032714863,1.11748543378006,1.61385399999926,
