X,Y,Z,Magnitude,Seconds,
0.449152231445313,-0.370861837158203,0.0389776030273428,0.58377691185111,0.0,
0.449152231445313,-0.34691982055664,-0.0041180268554708,0.567545634334841,0.0037030000003142,
0.427604416503906,-0.38522704711914,0.0198239897460919,0.575880547870157,0.00744400000075984,
0.429998618164063,-0.370861837158203,0.00785298144531055,0.567889939337669,0.0113670000009733,
0.470700046386719,-0.363679232177734,0.00545877978515463,0.594853692820838,0.0153250000003027,
0.437181223144531,-0.349314022216797,-0.0184832368164081,0.559901185952161,0.0190729999994801,
0.427604416503906,-0.354102425537109,0.00306457812499872,0.555196772706753,0.0228729999998905,
0.444363828125,-0.380438643798828,-0.00890643017578263,0.58504025326457,0.0266129999999976,
0.46351744140625,-0.370861837158203,0.0365834013671869,0.594748069356889,0.0304589999996097,
0.485065256347656,-0.356496627197265,0.0437660063476546,0.603567404214531,0.0342650000002322,
0.441969626464844,-0.368467635498047,-0.0136948334960945,0.575580661238267,0.0381059999999707,
0.427604416503906,-0.38522704711914,0.0102471831054682,0.575630454030514,0.0418809999991936,
0.446758029785156,-0.349314022216797,0.0222181914062478,0.567544422335517,0.0457040000001143,
0.470700046386719,-0.370861837158203,-0.0472136567382826,0.601104121855288,0.0494440000002214,
0.441969626464844,-0.34691982055664,-0.0041180268554708,0.561878519573144,0.0532079999993584,
0.46351744140625,-0.354102425537109,0.0270065947265614,0.583923199074831,0.0569680000007793,
0.451546433105469,-0.342131417236328,0.0126413847656242,0.566663826725513,0.0607290000007197,
0.449152231445313,-0.320583602294922,0.108409451171873,0.562373703311311,0.0645779999995284,
0.451546433105469,-0.34691982055664,0.00306457812499872,0.569435628306139,0.0683260000005248,
0.499430466308594,-0.370861837158203,0.0677080229492173,0.625742494409057,0.0720629999996163,
0.473094248046875,-0.342131417236328,-0.0113006318359385,0.583951863148897,0.0757790000006935,
0.446758029785156,-0.34691982055664,0.0198239897460919,0.565985061324077,0.0795969999999215,
0.451546433105469,-0.375650240478515,-0.0472136567382826,0.589267692822573,0.0836080000008224,
0.461123239746094,-0.354102425537109,0.00785298144531055,0.581450633607685,0.087507000000187,
0.492247861328125,-0.344525618896484,0.0126413847656242,0.600970601333302,0.091338000000178,
0.434787021484375,-0.325372005615234,-0.0184832368164081,0.543367579206329,0.0951519999998709,
0.413239206542969,-0.339737215576172,0.0413718046874987,0.536562804986344,0.0990170000004582,
0.465911643066406,-0.354102425537109,0.0389776030273428,0.586499309849431,0.102876999999353,
0.461123239746094,-0.337343013916015,-0.0136948334960945,0.571508967328038,0.106674000000567,
0.456334836425781,-0.368467635498047,0.05334281298828,0.588944256311893,0.110462000000553,
0.418027609863281,-0.332554610595703,0.0126413847656242,0.534321491468629,0.11438199999975,
0.46351744140625,-0.358890828857422,0.0605254179687496,0.58933383726548,0.118187000000034,
0.458729038085938,-0.361285030517578,0.0437660063476546,0.585555007638872,0.121954000000187,
0.46351744140625,-0.366073433837891,0.0557370146484359,0.593266206901742,0.125715000000127,
0.475488449707031,-0.399592257080078,0.0126413847656242,0.621227045718343,0.129499000000578,
0.439575424804688,-0.34691982055664,-0.00651222851562672,0.560019932776962,0.133208999999624,
0.451546433105469,-0.34691982055664,-0.0160890351562522,0.569654632384906,0.137024999999994,
0.494642062988281,-0.399592257080078,0.0677080229492173,0.639475659245405,0.140794999999343,
0.470700046386719,-0.344525618896484,0.000670376464842803,0.583315425090979,0.144512000000759,
0.453940634765625,-0.361285030517578,0.0222181914062478,0.580588168323184,0.148232999999891,
0.4826710546875,-0.332554610595703,-0.020877438476564,0.586514947378961,0.152110999999422,
0.458729038085938,-0.378044442138672,0.0581312163085919,0.597268087984538,0.156050999999934,
0.451546433105469,-0.34691982055664,-0.0256658417968758,0.570005507500117,0.159864999999627,
0.449152231445313,-0.339737215576172,0.00785298144531055,0.563223554174836,0.163662000000841,
0.451546433105469,-0.370861837158203,0.0365834013671869,0.585466505247074,0.167425999999978,
0.497036264648438,-0.337343013916015,0.0748906279296868,0.605354411535354,0.17120900000009,
0.429998618164063,-0.397198055419922,-0.0256658417968758,0.585938428751275,0.174997000000076,
0.449152231445313,-0.334948812255859,0.00306457812499872,0.560301548706586,0.178766999999425,
0.494642062988281,-0.337343013916015,-0.0280600434570317,0.599381719402631,0.182515000000421,
0.427604416503906,-0.387621248779297,0.0581312163085919,0.580064658316971,0.186405000000377,
0.439575424804688,-0.368467635498047,0.0748906279296868,0.578449270596347,0.190177000000403,
0.46351744140625,-0.344525618896484,-0.0160890351562522,0.577758753820365,0.193896999999197,
0.4826710546875,-0.342131417236328,-0.0113006318359385,0.591737237271049,0.197631000000911,
0.432392819824219,-0.358890828857422,-0.0591846650390639,0.565038938701832,0.201365000000806,
0.461123239746094,-0.366073433837891,-0.00172382519531311,0.588767672999377,0.205125000000407,
0.451546433105469,-0.375650240478515,0.0437660063476546,0.589001483642835,0.20894700000099,
0.446758029785156,-0.306218392333984,0.0126413847656242,0.541776933423634,0.212702000000718,
0.444363828125,-0.354102425537109,0.0150355864257801,0.568395820160859,0.216429000000062,
0.465911643066406,-0.38522704711914,0.0389776030273428,0.60579929887276,0.220176999999239,
0.408450803222656,-0.390015450439453,-0.0256658417968758,0.565334277812574,0.224142999999458,
0.477882651367188,-0.363679232177734,-0.0160890351562522,0.600743930012928,0.228003000000172,
0.42521021484375,-0.332554610595703,0.0461602080078105,0.541781377161722,0.231798999999228,
0.497036264648438,-0.370861837158203,-0.0041180268554708,0.620161679549141,0.235710999999355,
0.451546433105469,-0.354102425537109,-0.0520020600585944,0.576183064027287,0.239507000000231,
0.434787021484375,-0.366073433837891,0.0270065947265614,0.569015702043312,0.243356000000858,
0.432392819824219,-0.330160408935547,0.0365834013671869,0.545259380038179,0.247181000000637,
0.42521021484375,-0.394803853759765,0.0317949980468732,0.581106471872265,0.250981999999567,
0.429998618164063,-0.358890828857422,-0.0184832368164081,0.560395457426434,0.254778000000442,
0.432392819824219,-0.351708223876953,0.00785298144531055,0.557426133847168,0.25869000000057,
0.451546433105469,-0.375650240478515,-0.0136948334960945,0.587532835581403,0.26246700000047,
0.473094248046875,-0.337343013916015,-0.020877438476564,0.58142440954119,0.266222000000198,
0.458729038085938,-0.313400997314453,-0.0448194550781267,0.557369983991283,0.270002999999633,
0.477882651367188,-0.342131417236328,-0.00651222851562672,0.587765381983416,0.273750000000291,
0.456334836425781,-0.363679232177734,0.00306457812499872,0.583535310407361,0.277485000000524,
0.492247861328125,-0.344525618896484,0.0150355864257801,0.601025729829668,0.281318999999712,
0.432392819824219,-0.380438643798828,0.0270065947265614,0.576564366302459,0.285078999999314,
0.46351744140625,-0.354102425537109,0.0317949980468732,0.584164247587835,0.288837000000058,
0.437181223144531,-0.390015450439453,0.0509486113281241,0.588077575195571,0.292672999999922,
0.456334836425781,-0.406774862060547,0.00306457812499872,0.611323697380697,0.296694000000571,
0.590410129394531,0.186987149658203,-0.0041180268554708,0.619326467361237,0.300504999999248,
-0.0416591088867188,-2.23594493041992,0.328676003906249,2.26035685872111,0.304163999999219,
0.547314499511719,2.17656872924805,-0.157346933105471,2.2498361388941,0.307155000000421,
1.61512843994141,-1.2303802331543,-0.166923739746094,2.03723806427604,0.310128000000987,
-1.42550766845703,-1.4434641809082,0.225725332519531,2.04122827732124,0.313174999999319,
1.23923877929688,0.835815799560547,0.374165835449217,1.54087665805075,0.316147999999885,
1.67258927978516,-0.176931502685547,-0.667311886718752,1.80946533806286,0.319196000000375,
-1.74633069091797,-1.48416560913086,0.311916592285154,2.31294409744628,0.322195000000647,
1.58879222167969,-0.0644040246582029,0.127563064453124,1.59520560978036,0.325133000000278,
1.55766760009766,1.2595894934082,0.0772848295898427,2.00471119844806,0.328188999999838,
-1.43987287841797,-2.73872727905273,0.0150355864257801,3.09420217243321,0.331125000000611,
0.84658970703125,0.828633194580078,-0.171712143066408,1.19700967551967,0.334172000000763,
1.74920373291016,0.0577002600097658,0.235302139160154,1.76590206861121,0.33715200000006,
-0.491769020996094,-1.23756283813477,-0.0400310517578131,1.33229164729367,0.340089999999691,
-0.127850368652344,-0.107499654541015,-0.0543962617187521,0.175672552722253,0.343086999999286,
1.76356894287109,-0.255940157470703,0.151505081054687,1.78847269200594,0.346043999999893,
-0.03447650390625,-0.150595284423828,-0.0113006318359385,0.154904077713218,0.349066000000676,
-0.199676418457031,-0.911951412353515,0.017429788085936,0.933718291613761,0.352030000000013,
1.21290256103516,0.115161099853516,0.0892558378906241,1.2216224073267,0.354988000000958,
0.358172568359375,-0.253545955810547,-0.00651222851562672,0.438879880551928,0.357991999999285,
-0.0560243188476563,-0.895192000732422,0.0126413847656242,0.897032467130623,0.360919000000649,
0.834618698730469,0.215717569580078,-0.00890643017578263,0.862091507088751,0.363950999999361,
0.690966599121094,-0.57676317993164,0.0126413847656242,0.900139106713302,0.36690500000077,
0.013407529296875,-0.401986458740234,-0.0400310517578131,0.404197179551265,0.369903999999224,
0.65505357421875,-0.260728560791015,0.0102471831054682,0.70510961720183,0.372854999999618,
0.671812985839844,-0.342131417236328,0.00545877978515463,0.753933944639666,0.375803000000815,
0.0948103857421875,-0.445082088623047,-0.0352426484375012,0.456430848132031,0.378799000000072,
0.319865341796875,-0.488177718505859,0.0222181914062478,0.584059046465152,0.38176200000089,
0.657447775878906,-0.255940157470703,-0.00172382519531311,0.705511101108659,0.384744999999384,
0.367749375,-0.397198055419922,0.0820732329101546,0.54748690724307,0.387704000000667,
0.331836350097656,-0.418745870361328,0.0365834013671869,0.535538805733434,0.390631000000212,
0.621534750976562,-0.32776620727539,0.0126413847656242,0.702777303213461,0.393651000000318,
0.418027609863281,-0.394803853759765,0.017429788085936,0.575257301617538,0.396597000000838,
0.343807358398438,-0.358890828857422,-0.0232716401367199,0.497541652489047,0.399604000000181,
0.566468112792969,-0.322977803955078,-0.00890643017578263,0.652135039050463,0.402543000000151,
0.456334836425781,-0.361285030517578,0.0868616362304682,0.588483899576247,0.405479999999443,
0.413239206542969,-0.401986458740234,0.00545877978515463,0.576532352181141,0.408500999999887,
0.50182466796875,-0.334948812255859,0.00785298144531055,0.60339073039875,0.411458000000493,
0.475488449707031,-0.339737215576172,0.12277466113281,0.597146764931807,0.414482000000135,
0.403662399902344,-0.399592257080078,0.0509486113281241,0.570274553184284,0.417552000000796,
0.487459458007813,-0.356496627197265,0.0389776030273428,0.60516594578847,0.420577999999296,
0.489853659667969,-0.409169063720703,0.0317949980468732,0.63905152569803,0.423706999999922,
0.34859576171875,-0.397198055419922,0.0198239897460919,0.528846188307239,0.426704999999856,
0.489853659667969,-0.375650240478515,0.0485544096679682,0.619215020618746,0.429727000000639,
0.477882651367188,-0.366073433837891,0.0341891997070292,0.602951481311892,0.432677999999214,
0.415633408203125,-0.361285030517578,0.0701022246093732,0.555150722944513,0.43561100000079,
0.429998618164063,-0.34691982055664,0.0341891997070292,0.553553136468995,0.438647000000856,
0.477882651367188,-0.351708223876953,0.00306457812499872,0.593363206526574,0.441593999999895,
0.415633408203125,-0.366073433837891,-0.0256658417968758,0.554454348356609,0.444588000000294,
0.434787021484375,-0.380438643798828,0.0365834013671869,0.578888297517179,0.44756899999993,
0.470700046386719,-0.332554610595703,0.0772848295898427,0.581484348526811,0.450489000000744,
0.458729038085938,-0.387621248779297,0.0198239897460919,0.600895626093188,0.453536000000895,
0.451546433105469,-0.349314022216797,-0.056790463378908,0.573706914807848,0.456481999999596,
0.477882651367188,-0.363679232177734,0.0389776030273428,0.601792045421736,0.459552000000258,
0.465911643066406,-0.356496627197265,0.0270065947265614,0.587275795948198,0.462507000000187,
0.437181223144531,-0.38522704711914,0.000670376464842803,0.582690096969981,0.465514999999868,
0.468305844726563,-0.378044442138672,0.0389776030273428,0.603114597713201,0.468473999999333,
0.475488449707031,-0.342131417236328,0.017429788085936,0.58604348812836,0.471412000000782,
0.439575424804688,-0.378044442138672,-0.00651222851562672,0.579815973774784,0.474411999999575,
0.441969626464844,-0.332554610595703,0.0126413847656242,0.55325358051686,0.477372999999716,
0.42521021484375,-0.354102425537109,0.00306457812499872,0.553354900780517,0.480383000000074,
0.413239206542969,-0.325372005615234,0.0341891997070292,0.527069715729285,0.483334000000468,
0.422816013183594,-0.34691982055664,-0.0328484467773453,0.54791036069343,0.486253999999462,
0.458729038085938,-0.354102425537109,-0.00172382519531311,0.579503088626642,0.489283999999316,
0.429998618164063,-0.390015450439453,-0.0041180268554708,0.580540973015407,0.49221899999975,
0.427604416503906,-0.354102425537109,-0.0232716401367199,0.555675835374873,0.495236999999179,
0.437181223144531,-0.354102425537109,-0.0160890351562522,0.562827510604867,0.49818199999936,
0.4826710546875,-0.354102425537109,-0.00172382519531311,0.598634150694488,0.501118000000133,
0.432392819824219,-0.425928475341797,0.0701022246093732,0.610977036096865,0.50414500000079,
0.444363828125,-0.421140072021484,-0.020877438476564,0.612579822917396,0.50709199999983,
0.518584079589844,-0.210450325927734,-0.0232716401367199,0.56014315716769,0.510097000000314,
0.437181223144531,-0.51930234008789,0.00306457812499872,0.67883115273976,0.513079000000289,
0.398873996582031,-0.421140072021484,0.0389776030273428,0.581359337199757,0.516010999999708,
0.595198532714844,-0.217632930908203,-0.00172382519531311,0.63374155421189,0.519019999999728,
0.429998618164063,-0.397198055419922,-0.0543962617187521,0.587898001477591,0.521961000000374,
0.324653745117188,-0.528879146728515,0.0724964262695291,0.624795116726077,0.524987999999212,
0.631111557617188,-0.145806881103515,0.0246123930664055,0.648203065888756,0.527931000000535,
0.434787021484375,-0.476206710205078,-0.0113006318359385,0.64493432935105,0.530856999999742,
0.343807358398438,-0.464235701904297,-0.0352426484375012,0.578757575225047,0.533857000000353,
0.604775339355469,-0.198479317626953,0.0246123930664055,0.636987457106212,0.536818000000494,
0.451546433105469,-0.433111080322265,0.0365834013671869,0.626751732669152,0.539844999999332,
0.336624753417969,-0.356496627197265,0.0557370146484359,0.493470044297173,0.542803000000276,
0.561679709472656,-0.334948812255859,0.0724964262695291,0.657974569939258,0.54573100000016,
0.480276853027344,-0.339737215576172,0.0317949980468732,0.589150365443407,0.548742999999376,
0.372537778320313,-0.387621248779297,0.00785298144531055,0.537676759864731,0.55169399999977,
0.52097828125,-0.342131417236328,0.0748906279296868,0.627758617898667,0.554770000000644,
0.489853659667969,-0.325372005615234,0.0509486113281241,0.590270540451111,0.557833999999275,
0.365355173339844,-0.418745870361328,0.05334281298828,0.558281257367965,0.560943000000407,
0.50182466796875,-0.30861259399414,0.000670376464842803,0.589126624723703,0.563991999999416,
0.50182466796875,-0.378044442138672,0.0437660063476546,0.629810337264727,0.566931999999724,
0.398873996582031,-0.392409652099609,-0.0160890351562522,0.559771968986049,0.569927000000462,
0.461123239746094,-0.339737215576172,0.0748906279296868,0.577637104100045,0.572887000000264,
0.470700046386719,-0.368467635498047,0.0701022246093732,0.601864813702516,0.575897000000623,
0.42521021484375,-0.354102425537109,-0.0352426484375012,0.554467581421693,0.578860999999961,
0.4826710546875,-0.349314022216797,0.0294007963867173,0.596536704636516,0.581795000000056,
0.485065256347656,-0.354102425537109,-0.0711556733398453,0.604764384314526,0.584807999999612,
0.413239206542969,-0.440293685302734,0.0198239897460919,0.604167329231877,0.587762999999541,
0.439575424804688,-0.332554610595703,0.0341891997070292,0.552257208642212,0.590793999999732,
0.494642062988281,-0.375650240478515,-0.0041180268554708,0.621128675713859,0.59375,
0.429998618164063,-0.361285030517578,-0.0280600434570317,0.562328241277193,0.596718000000692,
0.441969626464844,-0.380438643798828,0.0796790312499986,0.588574090861893,0.59976800000004,
0.475488449707031,-0.342131417236328,0.0150355864257801,0.585977167920476,0.60273000000052,
0.42521021484375,-0.370861837158203,0.000670376464842803,0.564218644208458,0.605749000000287,
0.434787021484375,-0.370861837158203,-0.0280600434570317,0.572158738769603,0.60869300000013,
0.42521021484375,-0.380438643798828,0.0294007963867173,0.571315757993015,0.611623000000691,
0.418027609863281,-0.358890828857422,-0.00651222851562672,0.550991940745248,0.614622999999483,
0.465911643066406,-0.349314022216797,0.0270065947265614,0.582943652011787,0.617573999999877,
0.451546433105469,-0.337343013916015,0.0341891997070292,0.564679901948723,0.620602000000872,
0.432392819824219,-0.38522704711914,0.0557370146484359,0.581781783205346,0.623551000000589,
0.439575424804688,-0.363679232177734,-0.095097689941408,0.578388026018693,0.626475000000937,
0.477882651367188,-0.337343013916015,-0.020877438476564,0.585327263121253,0.629478999999264,
0.449152231445313,-0.344525618896484,-0.0184832368164081,0.566372014784912,0.632421000000249,
0.492247861328125,-0.397198055419922,0.0365834013671869,0.633571304169525,0.635442000000694,
0.487459458007813,-0.322977803955078,0.000670376464842803,0.584749377471682,0.638398000000961,
0.473094248046875,-0.387621248779297,0.0413718046874987,0.613008993623552,0.641322999999829,
0.468305844726563,-0.354102425537109,0.0437660063476546,0.588739632849655,0.644342999999935,
0.422816013183594,-0.34691982055664,0.0485544096679682,0.5490758359259,0.647289000000455,
0.441969626464844,-0.382832845458984,0.0389776030273428,0.586018252119721,0.650310999999419,
0.439575424804688,-0.373256038818359,0.0461602080078105,0.578513084908128,0.65328000000045,
0.441969626464844,-0.401986458740234,0.000670376464842803,0.597436785888342,0.656290000000809,
0.446758029785156,-0.390015450439453,0.0701022246093732,0.597175946145009,0.659249000000273,
0.401268198242188,-0.380438643798828,0.0581312163085919,0.555993675256778,0.662191999999777,
0.444363828125,-0.344525618896484,0.113197854492187,0.573559820841335,0.665209000000687,
0.473094248046875,-0.337343013916015,0.0485544096679682,0.583074615526336,0.668169000000489,
0.46351744140625,-0.375650240478515,0.0772848295898427,0.601609895650075,0.671177000000171,
0.418027609863281,-0.382832845458984,0.0653138212890614,0.570590891463936,0.674136999999973,
0.465911643066406,-0.334948812255859,0.0341891997070292,0.574833251780946,0.677073000000746,
0.441969626464844,-0.361285030517578,0.017429788085936,0.571111041310078,0.680096000000049,
0.432392819824219,-0.378044442138672,0.0150355864257801,0.574549579868131,0.683046000000104,
0.420421811523438,-0.368467635498047,0.0222181914062478,0.559478816438598,0.686068999999407,
0.427604416503906,-0.368467635498047,-0.00651222851562672,0.56449654077187,0.689008999999714,
0.439575424804688,-0.344525618896484,0.0294007963867173,0.559275301614867,0.691947999999684,
0.444363828125,-0.342131417236328,0.0437660063476546,0.562519850065458,0.695063999999547,
0.441969626464844,-0.344525618896484,-0.020877438476564,0.560777068210552,0.698114000000714,
0.453940634765625,-0.368467635498047,0.0629196196289055,0.588038584478252,0.701245000000199,
0.451546433105469,-0.361285030517578,0.0102471831054682,0.578382277812828,0.704255000000558,
0.444363828125,-0.373256038818359,0.0461602080078105,0.582159812305523,0.70719199999985,
0.477882651367188,-0.373256038818359,0.0796790312499986,0.61158862564067,0.710218000000168,
0.456334836425781,-0.339737215576172,0.0222181914062478,0.569347439278126,0.71318699999938,
0.408450803222656,-0.370861837158203,0.09165003955078,0.559258697440862,0.71623499999987,
0.427604416503906,-0.370861837158203,0.0413718046874987,0.567534726247746,0.719183999999586,
0.494642062988281,-0.356496627197265,0.0796790312499986,0.614905979562134,0.722142000000531,
0.475488449707031,-0.342131417236328,0.0150355864257801,0.585977167920476,0.725171000000046,
0.456334836425781,-0.378044442138672,-0.00890643017578263,0.592653699613999,0.728132000000187,
0.444363828125,-0.363679232177734,-0.0041180268554708,0.57422883400999,0.73116200000004,
0.446758029785156,-0.325372005615234,0.0413718046874987,0.554230372172705,0.734141000000818,
0.427604416503906,-0.356496627197265,0.0270065947265614,0.557373069295061,0.737118000000919,
0.434787021484375,-0.337343013916015,0.000670376464842803,0.550309469747523,0.740148999999292,
0.46351744140625,-0.363679232177734,0.0317949980468732,0.59001857962778,0.743110999999772,
0.427604416503906,-0.354102425537109,0.0413718046874987,0.556727663232222,0.7461600000006,
0.446758029785156,-0.363679232177734,-0.00172382519531311,0.576071430178762,0.749117999999726,
0.458729038085938,-0.382832845458984,0.00545877978515463,0.597514113826791,0.752145000000382,
0.461123239746094,-0.373256038818359,0.0198239897460919,0.593588833552114,0.755111000000397,
0.494642062988281,-0.344525618896484,0.0150355864257801,0.602988176843025,0.758056000000579,
0.487459458007813,-0.337343013916015,0.0270065947265614,0.593419234940978,0.761091000000306,
0.458729038085938,-0.373256038818359,0.0629196196289055,0.594736310840248,0.764060999999856,
0.465911643066406,-0.375650240478515,0.000670376464842803,0.59848743656071,0.767090999999709,
0.432392819824219,-0.351708223876953,0.00545877978515463,0.557397545433206,0.770059000000401,
0.439575424804688,-0.344525618896484,-0.0304542451171894,0.559331670133102,0.772985999999946,
0.477882651367188,-0.325372005615234,0.0246123930664055,0.578657532922771,0.776025999999547,
0.449152231445313,-0.368467635498047,0.00545877978515463,0.580978419305371,0.778988000000027,
0.50182466796875,-0.361285030517578,-0.00651222851562672,0.618382793889249,0.78201799999988,
0.437181223144531,-0.339737215576172,0.0437660063476546,0.55539558949385,0.784979000000021,
0.470700046386719,-0.370861837158203,0.0413718046874987,0.600673507116734,0.787920000000668,
0.42521021484375,-0.366073433837891,0.0198239897460919,0.561432521625516,0.790962999999465,
0.456334836425781,-0.344525618896484,0.0341891997070292,0.572807372847415,0.793926000000283,
0.427604416503906,-0.354102425537109,0.0485544096679682,0.557307451487162,0.796947000000728,
0.485065256347656,-0.373256038818359,0.0389776030273428,0.613292448158093,0.799913999999262,
0.4826710546875,-0.358890828857422,0.0940442412109359,0.608784274908651,0.802852000000712,
0.46351744140625,-0.354102425537109,0.0844674345703105,0.589382468149461,0.805881000000227,
0.415633408203125,-0.370861837158203,0.0294007963867173,0.557811831268463,0.808838999999352,
0.475488449707031,-0.368467635498047,0.00785298144531055,0.601597318421465,0.811868000000686,
0.461123239746094,-0.342131417236328,0.0365834013671869,0.575349367036816,0.814834000000701,
0.444363828125,-0.354102425537109,0.0605254179687496,0.571411467978601,0.817786999999953,
0.4826710546875,-0.394803853759765,0.00306457812499872,0.623579041995311,0.820808000000397,
0.434787021484375,-0.375650240478515,0.0892558378906241,0.581480405362363,0.823773000000074,
0.420421811523438,-0.334948812255859,0.0748906279296868,0.542728120321734,0.826800000000731,
0.465911643066406,-0.363679232177734,0.0485544096679682,0.593037750704312,0.829767999999603,
0.449152231445313,-0.375650240478515,0.103621047851561,0.594632787308037,0.832754999999452,
0.429998618164063,-0.334948812255859,0.0222181914062478,0.545511838995249,0.835881000000882,
0.434787021484375,-0.351708223876953,0.0461602080078105,0.561132064310408,0.8389389999993,
0.470700046386719,-0.375650240478515,-0.0232716401367199,0.602671723307705,0.842060999999376,
0.437181223144531,-0.30861259399414,0.0413718046874987,0.536731572822991,0.845036000000619,
0.444363828125,-0.332554610595703,0.0629196196289055,0.558579143281067,0.84806000000026,
0.453940634765625,-0.363679232177734,-0.0160890351562522,0.581879318124527,0.851016000000527,
0.489853659667969,-0.342131417236328,0.0605254179687496,0.600561271454073,0.853970000000118,
0.444363828125,-0.382832845458984,0.0724964262695291,0.59099571160033,0.857038000000102,
0.420421811523438,-0.354102425537109,0.0317949980468732,0.550594178389777,0.860006000000794,
0.444363828125,-0.351708223876953,0.0605254179687496,0.569930884150769,0.863031999999293,
0.480276853027344,-0.349314022216797,-0.0496078583984385,0.595942179482209,0.865992000000915,
0.461123239746094,-0.358890828857422,0.0294007963867173,0.585065531457865,0.868932999999743,
0.432392819824219,-0.380438643798828,-0.0160890351562522,0.576156202243185,0.871981000000233,
0.429998618164063,-0.378044442138672,-0.00890643017578263,0.572621809184228,0.874955999999656,
0.432392819824219,-0.378044442138672,0.0102471831054682,0.574444214549225,0.878028999999515,
0.458729038085938,-0.375650240478515,-0.0304542451171894,0.59369427704878,0.880966000000626,
0.46351744140625,-0.320583602294922,0.00306457812499872,0.563588197345605,0.883909000000131,
0.468305844726563,-0.315795198974609,0.0365834013671869,0.566017064368262,0.886925999999221,
0.470700046386719,-0.322977803955078,0.0317949980468732,0.571737804781969,0.889876999999615,
0.427604416503906,-0.354102425537109,-0.00172382519531311,0.55519099088351,0.892869999999675,
0.434787021484375,-0.38522704711914,-0.0160890351562522,0.58111830889729,0.895822000000408,
0.427604416503906,-0.342131417236328,0.0988326445312495,0.556477614373503,0.898752999999488,
0.468305844726563,-0.332554610595703,0.0270065947265614,0.575006338567014,0.901776000000609,
0.408450803222656,-0.356496627197265,0.0509486113281241,0.544534355989155,0.904733999999735,
0.458729038085938,-0.351708223876953,0.103621047851561,0.587254907756237,0.907761000000392,
0.46351744140625,-0.342131417236328,0.00545877978515463,0.576135507866576,0.91070899999977,
0.494642062988281,-0.375650240478515,0.0222181914062478,0.621512286023562,0.913651000000755,
0.456334836425781,-0.375650240478515,0.00785298144531055,0.591114418217735,0.916672999999719,
0.429998618164063,-0.322977803955078,0.0820732329101546,0.544012397865134,0.919635000000198,
0.492247861328125,-0.339737215576172,0.0413718046874987,0.59953395137612,0.922662000000855,
0.444363828125,-0.337343013916015,0.0126413847656242,0.558049572522583,0.925623999999516,
0.441969626464844,-0.32776620727539,-0.00172382519531311,0.550246134854641,0.928547999999864,
0.485065256347656,-0.325372005615234,0.00785298144531055,0.584137752821437,0.931586000000607,
0.427604416503906,-0.344525618896484,0.12277466113281,0.562687352360019,0.934541000000536,
0.446758029785156,-0.416351668701172,0.0317949980468732,0.611516452034257,0.937573999999586,
0.468305844726563,-0.358890828857422,0.0892558378906241,0.596724053345082,0.940533999999388,
0.453940634765625,-0.318189400634765,0.0294007963867173,0.555131517206421,0.943552000000636,
0.427604416503906,-0.332554610595703,0.0629196196289055,0.545341163471411,0.946512000000439,
0.458729038085938,-0.344525618896484,0.017429788085936,0.573963439577797,0.949447999999393,
0.461123239746094,-0.370861837158203,0.0270065947265614,0.592370239506523,0.952475000000049,
0.453940634765625,-0.368467635498047,-0.0352426484375012,0.585723947410236,0.955425000000105,
0.468305844726563,-0.34691982055664,-0.0376368500976572,0.584020768967495,0.958424000000377,
0.429998618164063,-0.356496627197265,-0.0160890351562522,0.558791118288657,0.961380000000645,
0.449152231445313,-0.351708223876953,-0.0280600434570317,0.571160019428702,0.964310999999725,
0.432392819824219,-0.375650240478515,-0.0184832368164081,0.573077903823134,0.967333000000508,
0.468305844726563,-0.301429989013672,-0.0639730683593758,0.560591612457014,0.970283000000563,
0.468305844726563,-0.351708223876953,0.0341891997070292,0.586666805200658,0.973416999999245,
0.434787021484375,-0.332554610595703,0.0126413847656242,0.547532764031986,0.976478000000498,
0.468305844726563,-0.349314022216797,-0.0328484467773453,0.585157816984461,0.979520000000775,
0.391691391601563,-0.380438643798828,-0.0113006318359385,0.54615328638593,0.982586000000083,
0.441969626464844,-0.351708223876953,0.017429788085936,0.565101427155228,0.985552000000098,
0.458729038085938,-0.358890828857422,0.00785298144531055,0.582491739631385,0.988578000000416,
0.432392819824219,-0.370861837158203,0.0413718046874987,0.571151187619353,0.99153699999988,
0.487459458007813,-0.38522704711914,-0.0304542451171894,0.622048279540311,0.994485999999597,
0.446758029785156,-0.363679232177734,-0.0136948334960945,0.576231611037946,0.997507000000041,
0.4826710546875,-0.373256038818359,0.00545877978515463,0.610181297504487,1.00047400000039,
0.461123239746094,-0.339737215576172,0.0102471831054682,0.572853404147152,1.0035229999994,
0.410845004882813,-0.361285030517578,-0.00172382519531311,0.547104617862571,1.00646100000085,
0.458729038085938,-0.356496627197265,0.0437660063476546,0.582612769254072,1.00943299999926,
0.477882651367188,-0.334948812255859,-0.020877438476564,0.583950685200973,1.01245700000072,
0.456334836425781,-0.375650240478515,0.0126413847656242,0.591197421100687,1.01546600000074,
