X,Y,Z,Magnitude,Seconds,
-0.00814028564453125,-0.0332794030761716,0.0461602080078105,0.0574851956838036,0.0,
-0.015322890625,-0.0141257897949216,-0.0160890351562522,0.026328425070542,0.00373399999989488,
-0.0488417138671875,-0.0284909997558591,-0.0304542451171894,0.064223913974706,0.00748799999928451,
0.00383072265625,0.00263362182617222,0.0413718046874987,0.0416321585207029,0.0113079999991896,
-0.00335188232421875,0.0122104284667972,-0.0304542451171894,0.0329816725487965,0.0150649999995949,
0.00143652099609375,-0.026096798095703,-0.0639730683593758,0.0691061497895337,0.0188689999995404,
0.00143652099609375,-0.0308852014160154,-0.0352426484375012,0.0468828703042952,0.0226449999991019,
-0.0751779321289062,0.0169988317871097,0.0102471831054682,0.0777540129054564,0.0264090000000579,
-0.000957680664062498,-0.00933738647460913,0.0198239897460919,0.0219338666879255,0.0301290000006702,
-0.00814028564453125,0.00263362182617222,-0.0831266816406266,0.0835658148699571,0.0338719999999739,
-0.0368707055664063,-0.0237025964355466,0.0294007963867173,0.0527794357200247,0.0376409999989846,
-0.0105344873046875,-0.0213083947753905,-0.0328484467773453,0.0405468071043899,0.0414139999993495,
-0.0320823022460938,-0.00694318481445277,-0.0280600434570317,0.043183885554543,0.0451539999994566,
-0.0560243188476563,-0.026096798095703,0.0437660063476546,0.0757313045233917,0.0488609999993059,
-0.005746083984375,0.00742202514648471,0.000670376464842803,0.00941027858435431,0.0525920000000042,
-0.0129286889648438,-0.0213083947753905,-0.0113006318359385,0.0273660915394396,0.0563339999989694,
-0.0177170922851563,-0.0213083947753905,-0.0543962617187521,0.0610483114911429,0.060312999999951,
-0.015322890625,-0.0284909997558591,-0.0113006318359385,0.034267073468353,0.0641230000001087,
-0.024899697265625,-0.0213083947753905,-0.00172382519531311,0.0328178942823524,0.0680520000005345,
-0.044053310546875,-0.00933738647460913,0.0198239897460919,0.0492023528478952,0.0718679999990854,
-0.03447650390625,-0.026096798095703,-0.0376368500976572,0.0573254278459313,0.075713000000178,
-0.005746083984375,-0.0284909997558591,-0.0160890351562522,0.0332206502119235,0.0795369999996183,
-0.0608127221679688,-0.0117315881347655,0.0605254179687496,0.0865975955667024,0.0833359999996901,
-0.044053310546875,-0.00933738647460913,-0.0663672700195335,0.0802028396390133,0.0871509999997215,
-0.024899697265625,-0.0117315881347655,-0.0520020600585944,0.05883739741373,0.0910339999991265,
-0.0201112939453125,0.00263362182617222,0.017429788085936,0.0267431789583567,0.0948699999989913,
-0.07278373046875,-0.0213083947753905,-0.0472136567382826,0.0893344753801796,0.0986169999996491,
0.00622492431640626,-0.00933738647460913,-0.0448194550781267,0.0462030304462966,0.102359999998953,
0.00143652099609375,0.000239420166015858,0.0341891997070292,0.0342202029683524,0.106141000000207,
-0.03447650390625,-0.0213083947753905,0.017429788085936,0.0441188680976994,0.109881000000314,
-0.00335188232421875,0.00981622680664085,-0.00172382519531311,0.0105149891649407,0.113681999999244,
0.0253785375976563,-0.00454898315429664,-0.00651222851562672,0.0265927158931439,0.117405999999391,
-0.0560243188476563,0.00263362182617222,0.0294007963867173,0.0633250905600644,0.121134999999413,
-0.015322890625,-0.0213083947753905,-0.020877438476564,0.0335366382088652,0.12481200000002,
-0.0129286889648438,0.0146046301269533,-0.00651222851562672,0.0205634466890774,0.128658999999971,
0.0229843359375,0.00742202514648471,0.0509486113281241,0.0563837490064927,0.132641000000149,
-0.0296881005859375,-0.00454898315429664,0.0246123930664055,0.0388309986556367,0.136430999998993,
-0.0177170922851563,-0.0189141931152341,-0.0232716401367199,0.034831182794934,0.140325000000303,
-0.0656011254882813,-0.00933738647460913,0.0341891997070292,0.0745626972963865,0.144110999999612,
-0.024899697265625,-0.0213083947753905,0.0150355864257801,0.0360570585460151,0.147907000000487,
-0.03447650390625,-0.0476446130371091,-0.0448194550781267,0.0739420180043374,0.151742000000013,
-0.024899697265625,-0.0476446130371091,-0.0280600434570317,0.0606413234864325,0.155475999999908,
-0.015322890625,0.0122104284667972,0.0150355864257801,0.0246972549004052,0.159252999999808,
0.0110133276367188,0.0193930334472658,0.0222181914062478,0.0314806474089265,0.163134000000355,
-0.00335188232421875,-0.0356736047363279,-0.0280600434570317,0.045510517782263,0.166900000000169,
-0.0201112939453125,-0.00215478149414028,-0.0184832368164081,0.0273995852277671,0.170604999999341,
-0.063206923828125,-0.0213083947753905,-0.0376368500976572,0.0765878279688868,0.174299000000246,
-0.005746083984375,0.00263362182617222,0.0413718046874987,0.041851877713901,0.178026999999929,
-0.00335188232421875,-0.0308852014160154,-0.0041180268554708,0.0313382980840636,0.181727999999566,
-0.0368707055664063,-0.0452504113769528,-0.0496078583984385,0.076602795468753,0.185445999999502,
0.013407529296875,-0.0117315881347655,-0.0136948334960945,0.0224708804121263,0.189264000000549,
-0.015322890625,-0.0308852014160154,-0.0472136567382826,0.0584620905049924,0.192966000000524,
-0.0464475122070312,-0.00215478149414028,-0.0041180268554708,0.0466794667781476,0.196660999999949,
-0.0225054956054688,0.0146046301269533,-0.0807324799804707,0.0850736497241654,0.200608999999531,
-0.024899697265625,0.00502782348632835,0.000670376464842803,0.0254110869018636,0.204466999999568,
-0.00335188232421875,-0.00215478149414028,-0.0232716401367199,0.0236103247130549,0.208192000000054,
0.0086191259765625,0.0217872351074222,-0.00890643017578263,0.0250658621376173,0.212020999999368,
-0.0320823022460938,0.00742202514648471,-0.0663672700195335,0.0740876177544563,0.215809999999692,
-0.0488417138671875,0.000239420166015858,-0.0113006318359385,0.0501325704047931,0.219591999999466,
0.0397437475585938,0.0122104284667972,0.0581312163085919,0.0714695623525168,0.223384999999325,
0.0181959326171875,-0.026096798095703,-0.0136948334960945,0.0346364446666061,0.227146999999604,
-0.0177170922851563,0.00742202514648471,0.0102471831054682,0.0217712328064533,0.23092700000052,
-0.0488417138671875,0.00742202514648471,-0.0328484467773453,0.0593263847410522,0.234796000000642,
-0.0703895288085937,-0.0237025964355466,-0.00651222851562672,0.0745580844974036,0.238552999999229,
-0.0320823022460938,0.000239420166015858,-0.00890643017578263,0.0332964853686046,0.242318999999043,
-0.005746083984375,-0.0404620080566404,0.0485544096679682,0.0634643386110342,0.246078000000125,
-0.0296881005859375,0.0122104284667972,-0.020877438476564,0.0382928885967908,0.249869999999646,
-0.0105344873046875,-0.016519991455078,-0.0041180268554708,0.0200210810305251,0.253622000000178,
-0.00814028564453125,-0.00933738647460913,-0.020877438476564,0.0242758825564281,0.257332999999562,
-0.00814028564453125,0.0193930334472658,-0.0256658417968758,0.0331826676414599,0.261174999999639,
-0.000957680664062498,-0.0141257897949216,-0.0591846650390639,0.0608545780148941,0.264893999999913,
-0.0320823022460938,-0.00454898315429664,0.0629196196289055,0.0707732004320416,0.268710000000283,
-0.000957680664062498,-0.0117315881347655,0.0150355864257801,0.0190949252835718,0.272689999999784,
-0.000957680664062498,-0.0548272180175778,-0.0400310517578131,0.0678927543456446,0.276440999999977,
0.032561142578125,-0.0213083947753905,-0.0352426484375012,0.0525006663080211,0.280275999999503,
-0.0296881005859375,-0.0237025964355466,0.0126413847656242,0.0400374949638421,0.28419600000052,
-0.005746083984375,-0.0237025964355466,0.0246123930664055,0.0346496818368816,0.288053000000218,
0.00143652099609375,-0.00215478149414028,0.0126413847656242,0.0129039251645483,0.291902999999365,
0.00383072265625,0.000239420166015858,0.0820732329101546,0.082162931534905,0.295729999999821,
-0.144609780273438,0.732865128173828,-1.07911457226563,1.31243725363158,0.299499000000651,
1.01657802490234,-0.358890828857422,1.74843758837891,2.05408556496767,0.30312799999956,
-0.424731374511719,-4.04117298217773,1.1139741484375,4.21336139154535,0.306070000000545,
-3.86998756347656,6.04559861206055,-6.46606830761719,9.6610613122153,0.309001999999964,
7.04517780517578,0.752018741455078,4.82498672167969,8.57208022351788,0.312034999999014,
-1.65295682617188,-7.74021454711914,2.9359616118164,8.4417449671666,0.314954999999827,
-6.30728485351563,6.04081020874024,-6.86829418652344,11.1106568318007,0.317956999999296,
4.36606614746094,-0.466629903564453,4.3533289946289,6.1831828702038,0.320929999999862,
-0.407971962890625,-1.20164981323242,-0.703224911621096,1.45083723155661,0.323838000000251,
-4.45656697021484,1.96827318481445,-1.18924784863281,5.01491763995655,0.326864000000569,
4.62942833007813,-2.66690122924805,1.66942893359375,5.59740670259136,0.329807000000073,
0.839407102050781,1.4128183996582,-1.37120717480469,2.1402965284329,0.332839999999123,
-3.22594731689453,3.23720006469727,-0.0687614716796894,4.57065952464659,0.335789999999179,
1.04291424316406,-3.02842567993164,0.522606338378905,3.2453273490324,0.338716000000204,
1.0955866796875,-1.89836249633789,-0.0879150849609385,2.19358596876772,0.341731999998956,
-2.17010438476563,3.24438266967774,-0.274662814453126,3.91290322008193,0.344683999999688,
0.920809958496094,-0.124259066162109,0.0796790312499986,0.932566374694046,0.347706000000471,
1.57921541503906,-2.25988694702148,0.445991885253905,2.79283352567378,0.35064599999896,
-1.50451632324219,1.53731688598633,-0.480564157226564,2.20405410188856,0.353574999999182,
-0.0584185205078125,0.526963785400391,0.187418105957031,0.562342512266636,0.356583000000683,
0.829830295410156,-1.33093670288086,0.0461602080078105,1.56912127990771,0.359537000000273,
-0.970609353027344,0.414436307373047,-0.0496078583984385,1.05655142263311,0.362547999999151,
0.111569797363281,0.32345664428711,0.0341891997070292,0.343861777163105,0.365502000000561,
1.06206785644531,-0.425928475341797,-0.0041180268554708,1.14429898013872,0.368490000000747,
-0.623450112304688,0.469502945556641,-0.00651222851562672,0.78049053007665,0.371510999999373,
-0.26431986328125,-0.313400997314453,-0.056790463378908,0.4138965232682,0.374497999999221,
0.444363828125,-0.464235701904297,0.0198239897460919,0.642936224860548,0.377624999999171,
-0.508528432617187,0.57245361694336,-0.0543962617187521,0.767634850446879,0.38064200000008,
0.0086191259765625,-0.0500388146972653,0.0198239897460919,0.0545083743874303,0.383657000000312,
0.580833322753906,-0.540850155029297,0.0509486113281241,0.795287369453848,0.386624000000666,
-0.257137258300781,0.543723197021485,-0.0711556733398453,0.60565469901104,0.389525000000503,
-0.230801040039063,0.139103116455078,0.05334281298828,0.274707576866985,0.392587000000276,
0.192972653808594,-0.571974776611328,-0.0184832368164081,0.603933125636209,0.395515000000159,
-0.170945998535156,0.179804544677735,-0.078338278320313,0.260171279260682,0.398553999999422,
-0.0679953271484375,0.325850845947266,0.0365834013671869,0.334873832322211,0.401486999999179,
0.312682736816406,-0.303824190673828,-0.0591846650390639,0.439980064681788,0.404414999999062,
-0.154186586914063,-0.016519991455078,-0.0807324799804707,0.174826047903854,0.407408999999461,
-0.168551796875,0.165439334716797,-0.0903092866210944,0.252854995899505,0.410374999999476,
0.135511813964844,-0.143412679443359,-0.0184832368164081,0.19817234517555,0.413413000000219,
-0.0895431420898438,-0.0237025964355466,-0.0496078583984385,0.105074863730522,0.416359999999258,
-0.0296881005859375,0.0553060583496097,-0.0184832368164081,0.0654352615168809,0.419330000000627,
0.183395847167969,0.00742202514648471,0.0581312163085919,0.192531455937071,0.422407000000021,
-0.0991199487304688,0.0409408483886722,0.0198239897460919,0.109059194351362,0.425368000000162,
-0.0967257470703125,-0.0596156213378904,-0.0041180268554708,0.113696308642784,0.428362000000561,
0.0828393774414063,-0.0380678063964841,-0.0376368500976572,0.098630891834118,0.431301000000531,
-0.00814028564453125,0.0888248815917971,0.00785298144531055,0.0895421306299539,0.434269999999742,
-0.0584185205078125,0.0624886633300783,0.0389776030273428,0.094004309054738,0.437281999998959,
0.0684741674804688,-0.11707646118164,-0.0041180268554708,0.13569291624894,0.440226000000621,
-0.0656011254882813,0.0385466467285158,0.017429788085936,0.0780586263782733,0.443280999999843,
-0.0871489404296875,0.0696712683105472,0.0198239897460919,0.113322610345291,0.446228000000701,
0.0086191259765625,-0.107499654541015,-0.0160890351562522,0.109038168139861,0.44916799999919,
0.0349553442382813,-0.0380678063964841,0.00545877978515463,0.051969531952864,0.452203999999256,
-0.0464475122070312,0.124737906494141,0.0102471831054682,0.13349876953875,0.455151000000114,
0.00622492431640626,-0.0524330163574216,-0.0424252534179708,0.0677338395092266,0.458180999999968,
-0.000957680664062498,-0.0476446130371091,-0.0591846650390639,0.0759852017138626,0.461116000000402,
-0.0775721337890625,0.0577002600097658,-0.0400310517578131,0.104638621219029,0.464116999999533,
-0.0129286889648438,-0.0284909997558591,0.00545877978515463,0.0317598227668362,0.467075000000477,
-0.0105344873046875,-0.0452504113769528,0.0581312163085919,0.0744164864937359,0.470022999999856,
-0.0105344873046875,0.0146046301269533,-0.00651222851562672,0.0191488841491476,0.473039000000426,
-0.005746083984375,0.00981622680664085,0.0581312163085919,0.0592335555187362,0.476017999999385,
-0.015322890625,-0.0189141931152341,0.00306457812499872,0.0245342478464351,0.47900699999991,
-0.044053310546875,-0.0452504113769528,0.00545877978515463,0.0633884230492105,0.481964999999036,
0.0086191259765625,0.0409408483886722,0.00306457812499872,0.0419503759037785,0.484932999999728,
-0.00814028564453125,-0.00215478149414028,-0.0232716401367199,0.0247482639454779,0.48791700000038,
0.032561142578125,0.0122104284667972,-0.0184832368164081,0.0393821357032244,0.490889000000607,
0.00143652099609375,-0.0691924279785154,0.05334281298828,0.0873791243927111,0.493925000000672,
-0.0105344873046875,-0.241574947509765,0.431626675292968,0.494743385515743,0.496873000000051,
-0.273896669921875,0.177410343017578,-0.61703365185547,0.698014572287717,0.49979600000006,
0.08044517578125,0.718499918212891,-0.0687614716796894,0.726251814982905,0.502848000000085,
0.518584079589844,-1.32135989624023,0.587249783203124,1.53615875835415,0.505821000000651,
-0.628238515625,0.742441934814454,-0.73195533154297,1.21723550164293,0.508842999999615,
0.109175595703125,0.354581265869141,0.424444070312498,0.563737486447314,0.511920999999347,
0.248039291992187,-0.74914569946289,-0.224384579589845,0.820421360615044,0.514933000000383,
-0.479798012695313,0.15107412475586,-0.0424252534179708,0.504806325519698,0.518062999999529,
0.221703073730469,0.333033450927735,0.141928274414061,0.424508147644455,0.521075000000565,
0.288740720214844,-0.229603939208984,-0.13819331982422,0.393937261571571,0.524101999999402,
-0.321780703125,0.0146046301269533,-0.00651222851562672,0.322177785151311,0.527061999999205,
-0.0560243188476563,0.0577002600097658,0.0317949980468732,0.0864810164622219,0.529982000000018,
0.224097275390625,-0.0452504113769528,-0.00651222851562672,0.228712915436634,0.533051000000341,
-0.276290871582031,0.0984016882324221,-0.0591846650390639,0.299202878566259,0.536002999999255,
-0.00335188232421875,-0.119470662841797,0.0365834013671869,0.124991278297993,0.539018999999826,
0.231279880371094,-0.11707646118164,-0.0160890351562522,0.259723194727661,0.54197799999929,
-0.216435830078125,0.234871182861328,-0.0687614716796894,0.32670641418228,0.544921999999133,
-0.0703895288085937,-0.141018477783203,-0.00651222851562672,0.157744432429253,0.547926999999618,
0.125935007324219,-0.179325704345703,-0.0711556733398453,0.23039197936838,0.550908999999592,
-0.151792385253906,0.297120426025391,-0.0184832368164081,0.334160299595556,0.553955999999744,
0.0158017309570313,-0.0739808312988279,-0.00172382519531311,0.0756692121949742,0.556930000000648,
0.135511813964844,-0.23199814086914,0.017429788085936,0.269240388135771,0.559949999998935,
-0.144609780273438,0.167833536376953,-0.0759440766601571,0.234195617515123,0.562918999999965,
-0.03447650390625,0.0529118566894533,0.017429788085936,0.0655140550770867,0.565881000000445,
0.04213794921875,-0.220027132568359,0.0389776030273428,0.227391291320432,0.568912000000637,
-0.09193734375,0.0696712683105472,-0.0663672700195335,0.133083339804994,0.571862000000692,
0.0229843359375,0.100795889892578,0.0294007963867173,0.107482547168821,0.574899999999616,
0.0565031591796875,-0.0763750329589842,-0.0591846650390639,0.111931127183448,0.577844999999797,
-0.0775721337890625,-0.0237025964355466,0.00785298144531055,0.0814918298724172,0.580777999999555,
-0.000957680664062498,0.00263362182617222,-0.0184832368164081,0.0186944686843203,0.583816000000297,
0.0181959326171875,-0.0572214196777341,0.0222181914062478,0.0640236742393723,0.586778999999297,
-0.0608127221679688,-0.0404620080566404,-0.0520020600585944,0.0896636800705383,0.589766999999483,
0.0158017309570313,0.00981622680664085,-0.0184832368164081,0.0262237116589021,0.592747999999119,
0.0469263525390625,-0.0524330163574216,-0.00890643017578263,0.0709269220073317,0.595686000000569,
-0.0296881005859375,0.0553060583496097,0.0413718046874987,0.0751782523717578,0.598769000000175,
-0.0488417138671875,-0.0284909997558591,0.0677080229492173,0.0882135276035615,0.601717999999892,
0.0110133276367188,-0.00694318481445277,-0.0232716401367199,0.0266659039909461,0.604745000000548,
-0.0392649072265625,0.0984016882324221,0.017429788085936,0.10737049268408,0.607738000000609,
-0.00335188232421875,-0.0213083947753905,0.00785298144531055,0.0229554377130929,0.610655000000406,
-0.015322890625,-0.0117315881347655,-0.00890643017578263,0.0212543086395576,0.613650999999663,
-0.0584185205078125,0.0337582434082033,0.0102471831054682,0.0682447602232304,0.616608000000269,
-0.005746083984375,0.0122104284667972,-0.0280600434570317,0.0311364430099003,0.61962499999936,
-0.00814028564453125,-0.0332794030761716,-0.0041180268554708,0.0345071161452713,0.622553999999582,
-0.0225054956054688,-0.00694318481445277,0.0317949980468732,0.0395680053656498,0.625475000000733,
-0.0272938989257813,-0.0237025964355466,0.0605254179687496,0.0704989093294994,0.628479999999399,
-0.0416591088867188,-0.0404620080566404,0.000670376464842803,0.0580784370813793,0.631435999999667,
-0.0225054956054688,-0.00933738647460913,-0.078338278320313,0.0820400510044625,0.634447000000364,
-0.03447650390625,0.0337582434082033,0.0246123930664055,0.0541665783676652,0.637425999999323,
0.0373495458984375,-0.00933738647460913,-0.111857101562501,0.118297026737612,0.640349999999671,
-0.005746083984375,-0.00454898315429664,-0.0376368500976572,0.0383437506533605,0.643346000000747,
-0.00335188232421875,-0.0237025964355466,-0.0232716401367199,0.0333858866522186,0.646273000000292,
-0.005746083984375,-0.0380678063964841,-0.0448194550781267,0.0590843373365218,0.649337999999261,
-0.07278373046875,-0.0308852014160154,-0.0472136567382826,0.0920896110864622,0.652345999998943,
-0.0201112939453125,-0.016519991455078,0.0150355864257801,0.0300573305700575,0.65545899999961,
-0.0129286889648438,-0.00215478149414028,-0.0160890351562522,0.0207521356466336,0.658460999999079,
-0.044053310546875,0.0337582434082033,0.0317949980468732,0.0639627631434695,0.66142199999922,
-0.0129286889648438,-0.0404620080566404,-0.0687614716796894,0.080823666595138,0.664418000000296,
-0.0129286889648438,-0.0237025964355466,-0.0232716401367199,0.0356445411078478,0.667359999999462,
0.0205901342773438,-0.0189141931152341,0.0102471831054682,0.0297775937972901,0.670399000000543,
-0.000957680664062498,-0.00454898315429664,0.017429788085936,0.0180390662927168,0.67334800000026,
-0.0177170922851563,-0.00454898315429664,-0.0184832368164081,0.0260042044675518,0.676265000000058,
-0.044053310546875,-0.0380678063964841,-0.116645504882813,0.130368807094895,0.679292000000714,
-0.0272938989257813,-0.0141257897949216,-0.0184832368164081,0.0358625835532313,0.682247999999163,
0.00383072265625,-0.00215478149414028,0.0222181914062478,0.022648742762486,0.685304999999062,
0.0086191259765625,-0.0284909997558591,-0.078338278320313,0.0838028176726716,0.688265000000683,
0.0205901342773438,-0.0237025964355466,0.0150355864257801,0.0348114286766937,0.691251000000193,
0.0158017309570313,-0.00454898315429664,-0.0424252534179708,0.0455004403995776,0.694293000000471,
-0.0177170922851563,-0.00694318481445277,-0.0520020600585944,0.0553743390456812,0.697234999999637,
-0.044053310546875,-0.00694318481445277,-0.0543962617187521,0.0703409928454385,0.70025700000042,
-0.0105344873046875,-0.0189141931152341,-0.0136948334960945,0.0256177787573151,0.703203999999459,
-0.063206923828125,-0.0189141931152341,0.0246123930664055,0.0704175533050532,0.706120000000737,
0.0445321508789063,-0.00694318481445277,0.0437660063476546,0.0628234318458667,0.709159,
-0.0512359155273438,-0.00454898315429664,-0.0424252534179708,0.0666761907673363,0.712075999999797,
-0.0105344873046875,-0.0117315881347655,-0.0041180268554708,0.0162961261690861,0.715089999999691,
-0.00814028564453125,0.000239420166015858,0.0198239897460919,0.0214315688143359,0.718048999999155,
0.0110133276367188,0.00742202514648471,0.0198239897460919,0.023861483867562,0.721029000000271,
-0.0177170922851563,0.0193930334472658,0.000670376464842803,0.0262761205266708,0.724050999999236,
-0.0464475122070312,0.00502782348632835,0.05334281298828,0.0709091397263752,0.726996999999756,
0.0349553442382813,-0.00694318481445277,0.00545877978515463,0.0360538788887854,0.730026999999609,
-0.0105344873046875,-0.0308852014160154,-0.0400310517578131,0.0516464538387407,0.732953999999154,
-0.0536301171875,-0.0141257897949216,0.0198239897460919,0.0588958230804906,0.735876000000644,
0.00383072265625,-0.0213083947753905,-0.0543962617187521,0.0585463526869776,0.738910000000033,
-0.0105344873046875,-0.0213083947753905,-0.0687614716796894,0.0727541277058095,0.741835999999239,
-0.03447650390625,-0.00933738647460913,-0.0520020600585944,0.0630874817861004,0.744849999999133,
-0.03447650390625,-0.00933738647460913,-0.0041180268554708,0.0359551700448804,0.747826000000714,
0.0158017309570313,0.0146046301269533,0.0509486113281241,0.0553059754334717,0.750874999999724,
-0.0296881005859375,-0.0500388146972653,0.0389776030273428,0.0700322770618314,0.7538399999994,
-0.0416591088867188,0.0122104284667972,-0.0328484467773453,0.0544389233201976,0.756814000000304,
-0.015322890625,-0.0213083947753905,-0.0376368500976572,0.0458843235787901,0.75981899999897,
0.0086191259765625,-0.00694318481445277,-0.0663672700195335,0.0672838143821615,0.762779000000592,
-0.0225054956054688,-0.0117315881347655,-0.0400310517578131,0.0473984450952587,0.765761999999086,
-0.0320823022460938,-0.0213083947753905,0.0150355864257801,0.0413447779590204,0.768723999999565,
-0.0320823022460938,0.0313640417480472,-0.0184832368164081,0.0485242957228065,0.77168299999903,
0.0205901342773438,-0.00694318481445277,-0.0256658417968758,0.0336288102684135,0.774702000000616,
-0.005746083984375,-0.00215478149414028,-0.0136948334960945,0.0150069660134463,0.777627999999822,
-0.044053310546875,-0.016519991455078,-0.0855208833007826,0.0976085332763551,0.780638000000181,
-0.005746083984375,-0.016519991455078,0.05334281298828,0.0561371828321831,0.783595999999307,
-0.0536301171875,-0.0428562097167966,-0.0424252534179708,0.0807015880166808,0.786501999999018,
-0.0225054956054688,-0.0189141931152341,0.0222181914062478,0.0368495870127849,0.789613999999347,
0.00143652099609375,-0.00215478149414028,0.000670376464842803,0.0026750851321636,0.7926750000006,
-0.005746083984375,0.0553060583496097,0.0294007963867173,0.0628982066477187,0.795791000000463,
-0.000957680664062498,0.0217872351074222,0.0365834013671869,0.0425904451898909,0.798797999999806,
0.00383072265625,-0.0213083947753905,-0.020877438476564,0.030076395417598,0.80172599999969,
-0.0272938989257813,0.00263362182617222,0.0317949980468732,0.0419858879064708,0.804772999999841,
-0.0320823022460938,-0.0213083947753905,-0.0496078583984385,0.0628033551666878,0.807713000000149,
-0.0177170922851563,-0.0237025964355466,0.0389776030273428,0.0489383487112535,0.81075299999975,
-0.0105344873046875,0.000239420166015858,0.000670376464842803,0.0105585107564056,0.813710000000356,
-0.00335188232421875,-0.00215478149414028,-0.109462899902345,0.109535403653037,0.816624999999476,
-0.0225054956054688,0.0217872351074222,-0.0520020600585944,0.0607074558552039,0.819648999999117,
-0.0129286889648438,0.0337582434082033,-0.0160890351562522,0.0395680053656524,0.822603999999046,
-0.0225054956054688,0.0122104284667972,-0.0184832368164081,0.031578821051489,0.825643000000127,
0.0277727392578125,-0.00933738647460913,0.0222181914062478,0.0367717263862239,0.828621000000567,
-0.0560243188476563,0.0122104284667972,-0.0448194550781267,0.0727777604710865,0.831566000000748,
-0.0177170922851563,-0.0524330163574216,0.00306457812499872,0.0554302101968106,0.834591999999247,
-0.0225054956054688,-0.00933738647460913,-0.0136948334960945,0.0279505381542062,0.837505999999848,
-0.0296881005859375,-0.00215478149414028,-0.0376368500976572,0.0479849860369027,0.840573999999833,
0.00143652099609375,0.0169988317871097,0.000670376464842803,0.0170725885355234,0.84356999999909,
0.00622492431640626,-0.0117315881347655,0.0509486113281241,0.0526511238168096,0.84657899999911,
0.013407529296875,-0.00215478149414028,0.0365834013671869,0.0390224317633684,0.849544999999125,
-0.0272938989257813,-0.00694318481445277,0.0485544096679682,0.0561310558616466,0.852464999999938,
-0.0608127221679688,-0.00694318481445277,-0.0352426484375012,0.0706288840470775,0.855453000000125,
-0.000957680664062498,-0.0189141931152341,0.0485544096679682,0.0521171234016189,0.858415999999124,
-0.00814028564453125,0.00263362182617222,0.0222181914062478,0.0238085750027698,0.86144400000012,
-0.0225054956054688,-0.0117315881347655,-0.020877438476564,0.03286327631193,0.864369999999326,
-0.0320823022460938,0.00263362182617222,-0.056790463378908,0.0652791453078554,0.867334999999002,
-0.0368707055664063,-0.00694318481445277,0.0126413847656242,0.0395911777183355,0.87036099999932,
-0.0105344873046875,-0.016519991455078,0.0317949980468732,0.0373471209231601,0.873315999999249,
-0.0320823022460938,0.0193930334472658,-0.0041180268554708,0.0377136846367318,0.876363999999739,
-0.0464475122070312,-0.0284909997558591,0.0198239897460919,0.0579836099838897,0.87931000000026,
-0.03447650390625,-0.00454898315429664,0.0102471831054682,0.0362536526564254,0.882265000000189,
-0.000957680664062498,0.00742202514648471,-0.00890643017578263,0.0116330609903611,0.885308999999324,
-0.03447650390625,0.0385466467285158,-0.0232716401367199,0.0567101624954793,0.888288000000102,
-0.0464475122070312,-0.0189141931152341,0.000670376464842803,0.0501554333649636,0.89129899999898,
-0.0464475122070312,-0.0284909997558591,-0.0328484467773453,0.0636249079605996,0.894239999999627,
-0.000957680664062498,0.0265756384277347,0.00785298144531055,0.0277281630779322,0.897208000000319,
-0.00335188232421875,-0.026096798095703,0.0341891997070292,0.0431413880464041,0.900216,
0.013407529296875,-0.0284909997558591,0.0341891997070292,0.0464801063417679,0.903195999999298,
-0.000957680664062498,-0.00215478149414028,0.0198239897460919,0.0199637372501986,0.906203999998979,
-0.044053310546875,-0.0332794030761716,-0.0160890351562522,0.0575071290494042,0.909153999999035,
-0.0488417138671875,-0.00215478149414028,-0.0136948334960945,0.0507710996656312,0.912075000000186,
-0.0201112939453125,-0.0428562097167966,-0.0232716401367199,0.0527511904140353,0.915080000000671,
-0.0488417138671875,0.00981622680664085,-0.0113006318359385,0.0510840053450692,0.918030999999246,
-0.0201112939453125,0.00263362182617222,-0.0376368500976572,0.0427543283580922,0.921059000000241,
-0.000957680664062498,-0.00454898315429664,-0.0304542451171894,0.0308070031916486,0.92399099999966,
-0.015322890625,0.0217872351074222,0.0413718046874987,0.0492046828445458,0.926986000000397,
-0.0368707055664063,0.000239420166015858,0.0246123930664055,0.0443314351610205,0.930113000000347,
-0.0177170922851563,-0.0476446130371091,-0.00890643017578263,0.0516064822379195,0.933127000000241,
-0.0608127221679688,-0.0476446130371091,0.0102471831054682,0.0779307454765538,0.936223999999129,
0.00143652099609375,-0.0404620080566404,0.0198239897460919,0.0450802424350292,0.93920799999978,
-0.0368707055664063,-0.0380678063964841,-0.0113006318359385,0.0541877393207748,0.942219000000478,
-0.0656011254882813,-0.0308852014160154,-0.0256658417968758,0.076916440160601,0.945161999999982,
-0.0201112939453125,0.00981622680664085,0.0126413847656242,0.0257026664310677,0.948120999999446,
0.00622492431640626,-0.0117315881347655,-0.020877438476564,0.0247436311048211,0.951149999998961,
0.013407529296875,-0.0308852014160154,-0.00651222851562672,0.0342938278498353,0.954105000000709,
-0.044053310546875,0.000239420166015858,0.0413718046874987,0.0604349047757655,0.957146000000648,
-0.0320823022460938,-0.026096798095703,-0.0280600434570317,0.0499768248998284,0.960096000000703,
-0.03447650390625,-0.0572214196777341,0.05334281298828,0.0854890395842395,0.963051000000632,
0.0205901342773438,-0.0117315881347655,0.00306457812499872,0.0238950921489547,0.966115999999602,
0.00622492431640626,-0.0213083947753905,0.0126413847656242,0.0255460756172338,0.969112000000678,
0.0253785375976563,-0.0237025964355466,-0.0184832368164081,0.0393384454648816,0.972147000000405,
-0.0320823022460938,-0.0237025964355466,0.0198239897460919,0.0445429878280438,0.975123000000167,
-0.00814028564453125,0.00742202514648471,0.0246123930664055,0.0269651738378387,0.978079000000434,
-0.000957680664062498,-0.0189141931152341,0.0653138212890614,0.0680041109406934,0.981093000000328,
-0.0320823022460938,0.0505176550292972,0.0150355864257801,0.061703941901923,0.984070000000429,
-0.0320823022460938,-0.0141257897949216,0.0222181914062478,0.0415025310566077,0.987091999999393,
0.00383072265625,-0.0524330163574216,-0.0328484467773453,0.0619912582231627,0.990051999999196,
0.0301669409179688,-0.0141257897949216,-0.00172382519531311,0.0333549671710605,0.99298699999963,
-0.024899697265625,0.0169988317871097,-0.020877438476564,0.036671823562361,0.996006999999736,
-0.0536301171875,-0.00215478149414028,-0.0304542451171894,0.0617113733317476,0.998950999999579,
-0.0464475122070312,-0.0380678063964841,0.0509486113281241,0.0787546206284226,1.0019740000007,
-0.015322890625,-0.0213083947753905,-0.0328484467773453,0.0420459168135705,1.00490399999944,
0.00143652099609375,-0.026096798095703,-0.0520020600585944,0.0582006934130322,1.00784199999907,
0.00622492431640626,-0.00454898315429664,0.00785298144531055,0.0110051010019651,1.01087000000007,
0.00143652099609375,-0.0213083947753905,0.0198239897460919,0.029139352256515,1.01384099999996,
