X,Y,Z,Magnitude,Seconds,
-0.0230801040039065,-0.0175255561523438,-0.0629196196289037,0.0692727569360858,0.0,
-0.0494163222656252,0.0447236870117187,-0.060525417968746,0.0900305909481533,0.00378799999998591,
-0.037445313964844,0.0423294853515625,-0.0174297880859342,0.059141646753996,0.00750999999991109,
0.000861912597656,0.01838746875,-0.0677080229492155,0.0701656488037396,0.0113060000001042,
-0.0470221206054689,0.0351468803710937,-0.0724964262695273,0.0932851266167777,0.0152909999999338,
-0.037445313964844,0.0686657036132812,-0.00306457812499694,0.0782721024996578,0.0190780000000359,
-0.0230801040039065,0.01838746875,-0.0868616362304646,0.0917373100570151,0.0228469999999561,
-0.0135032973632815,0.0590888969726562,-0.0102471831054647,0.0614722827518493,0.0266449999999168,
-0.0422337172851565,0.0303584770507812,-0.0533428129882783,0.0745035549626175,0.0305470000000696,
-0.0422337172851565,0.0255700737304687,-0.0844674345703087,0.0978379427890505,0.0343780000000606,
-0.027868507324219,0.00881066210937498,-0.0246123930664037,0.0382106184160997,0.0381310000000212,
-0.0398395156250002,0.01838746875,-0.0581312163085901,0.0728321654338449,0.041924999999992,
-0.0135032973632815,0.0207816704101562,-0.0701022246093714,0.0743541442012503,0.0457010000000082,
-0.0135032973632815,0.03754108203125,-0.060525417968746,0.0724913656930923,0.0495160000000396,
-0.0565989272460939,0.01838746875,-0.0653138212890596,0.0883596787218021,0.0533080000000155,
-0.018291700683594,-0.0199197578125001,-0.117986257812497,0.121046024708802,0.0570190000000821,
-0.0206859023437502,-0.0175255561523438,-0.0581312163085901,0.0641427313398815,0.0607010000001083,
-0.0158974990234377,0.027964275390625,-0.0413718046874969,0.0524057000375275,0.0643959999999879,
0.0295923325195311,-0.0199197578125001,0.00172382519531666,0.0357137854134669,0.0680899999999838,
-0.0350511123046877,0.03754108203125,-0.0533428129882783,0.0740497738779484,0.0717939999999544,
-0.0542047255859377,0.0135990654296875,-0.0796790312499969,0.0973233521686636,0.07549999999992,
-0.0135032973632815,0.0351468803710937,-0.139534072753904,0.144524737324767,0.0793160000000626,
-0.0422337172851565,0.0519062919921874,-0.0677080229492155,0.0951962520049621,0.0831920000000537,
0.000861912597656,-0.029496564453125,-0.0701022246093714,0.076059924421775,0.0870890000001054,
-0.018291700683594,0.0351468803710937,-0.077284829589841,0.0868494927932738,0.0908289999999852,
-0.027868507324219,0.03754108203125,-0.00785298144530877,0.047409449038535,0.094581000000062,
-0.0518105239257815,0.03754108203125,-0.0724964262695273,0.0966922698636971,0.0982970000000023,
0.0224097275390623,0.00641646044921873,-0.0174297880859342,0.0291060881224525,0.1021760000001,
-0.00392649072265649,-0.000766144531250068,-0.0844674345703087,0.0845621180536962,0.105956000000106,
-0.00632069238281274,0.01838746875,-0.0940442412109341,0.0960331685625895,0.109693000000107,
-0.027868507324219,0.0303584770507812,-0.0653138212890596,0.0772281430613353,0.113425000000007,
0.0128329208984373,0.03754108203125,-0.149110879394527,0.154298642420055,0.117230999999947,
0.0056503159179685,0.00641646044921873,-0.0653138212890596,0.0658710276680761,0.120988000000125,
-0.037445313964844,0.00881066210937498,-0.0748906279296833,0.0841925498867541,0.124798000000055,
-0.0542047255859377,0.0135990654296875,-0.108409451171871,0.121965962300119,0.128549999999905,
-0.0111090957031252,0.00402225878906243,-0.0820732329101528,0.0829192748004441,0.132303000000093,
-0.0230801040039065,0.0112048637695312,-0.106015249511715,0.109075539430049,0.136019999999917,
-0.0661757338867189,0.03754108203125,-0.113197854492183,0.136390303383915,0.139740000000074,
-0.0230801040039065,0.0112048637695312,-0.106015249511715,0.109075539430049,0.143450999999914,
-0.0470221206054689,0.0566946953124999,-0.0892558378906223,0.115723692044324,0.14716999999996,
0.00804451757812485,0.0207816704101562,-0.022218191406246,0.0314680809307734,0.151029999999992,
-0.0230801040039065,0.01838746875,-0.0413718046874969,0.0508174815488111,0.154982999999902,
-0.0805409438476564,0.0543004936523437,-0.0581312163085901,0.113201702974274,0.158803999999918,
-0.0565989272460939,0.0159932670898437,-0.077284829589841,0.0971193494744815,0.162555999999995,
-0.0350511123046877,0.0495120903320312,-0.0126413847656224,0.0619663793652296,0.16631899999993,
-0.00871489404296899,0.0423294853515625,-0.108409451171871,0.116706228675657,0.170074999999997,
-0.0302627089843752,0.03754108203125,-0.0748906279296833,0.0890717157511422,0.173960000000079,
0.00804451757812485,0.0159932670898437,-0.0892558378906223,0.091033529278112,0.17776200000003,
-0.00871489404296899,0.0351468803710937,-0.0820732329101528,0.0897065668628798,0.181524000000081,
-0.0206859023437502,0.027964275390625,-0.0653138212890596,0.0739986655641647,0.185267999999951,
-0.0470221206054689,0.0447236870117187,-0.0174297880859342,0.0671943860666798,0.189047000000073,
-0.00632069238281274,0.0135990654296875,-0.00306457812499694,0.0153061220380369,0.192780000000084,
-0.0422337172851565,0.027964275390625,-0.0701022246093714,0.0864870479842386,0.19649400000003,
-0.0446279189453127,0.03754108203125,-0.0198239897460901,0.0615952478598757,0.200354000000061,
-0.0135032973632815,-0.0271023627929688,-0.0461602080078087,0.0552054518319257,0.204054999999926,
-0.00632069238281274,0.0255700737304687,-0.077284829589841,0.0816500135181282,0.207762000000002,
-0.0326569106445315,-0.0103429511718751,-0.0677080229492155,0.0758803454359573,0.211461999999983,
-0.00871489404296899,0.01838746875,-0.0677080229492155,0.0706995385904597,0.215163999999959,
-0.037445313964844,0.0303584770507812,-0.0653138212890596,0.0811768681223153,0.218841999999995,
-0.00153228906250025,-0.0151313544921876,-0.0796790312499969,0.081117530901016,0.222678000000087,
-0.0326569106445315,0.0710599052734375,-0.0557370146484342,0.0960343623513718,0.226660999999922,
-0.0302627089843752,-0.0151313544921876,-0.098832644531246,0.104463778741154,0.230360000000019,
-0.0111090957031252,0.01838746875,-0.0724964262695273,0.0756124515951337,0.234124000000065,
-0.00871489404296899,0.0159932670898437,-0.0677080229492155,0.0701149794414771,0.237894000000097,
-0.0470221206054689,0.027964275390625,-0.101226846191404,0.115065002994899,0.241694999999936,
-0.0350511123046877,-0.00316034619140632,-0.0581312163085901,0.0679544448241721,0.245570999999927,
-0.0302627089843752,0.0135990654296875,-0.108409451171871,0.113372727051175,0.249348999999938,
-0.0254743056640627,0.0686657036132812,-0.0748906279296833,0.104749822212142,0.253097000000025,
-0.0733583388671877,0.0159932670898437,-0.0677080229492155,0.101101962618199,0.256867000000057,
-0.00392649072265649,0.01838746875,-0.038977603027341,0.0432755112527202,0.260626000000002,
-0.0230801040039065,0.0327526787109375,-0.0629196196289037,0.074594287300161,0.264325000000099,
0.000861912597656,0.03754108203125,-0.0653138212890596,0.0753390402433045,0.268027999999958,
-0.0230801040039065,0.0543004936523437,-0.0629196196289037,0.0862560916455486,0.271846000000096,
-0.0350511123046877,0.0399352836914062,-0.0413718046874969,0.0673426579547415,0.275560999999925,
-0.0350511123046877,0.0543004936523437,-0.060525417968746,0.0885463172863527,0.279260999999906,
-0.018291700683594,0.0231758720703125,-0.0581312163085901,0.0651992766036079,0.282948000000033,
-0.0350511123046877,0.0351468803710937,-0.09643844287109,0.108463159353839,0.286657000000105,
0.00325611425781225,0.0112048637695312,0.00172382519531666,0.0117950339320279,0.290402000000086,
-0.0254743056640627,0.0399352836914062,-0.355012222167966,0.358158407720964,0.294341000000031,
-0.104482960449219,0.109367131835937,0.583514828613284,0.602799646451325,0.298240000000078,
0.0559285507812498,0.0423294853515625,-0.0413718046874969,0.0814334964601138,0.302059999999983,
-0.0158974990234377,-0.106111017578125,-0.857794570800777,0.864478920634827,0.305004000000054,
-0.118848170410156,0.104578728515625,-0.192206509277341,0.249007912075835,0.307923999999957,
-0.121242372070313,0.0399352836914062,0.116645504882817,0.17291822772084,0.310958000000028,
0.0583227524414061,0.00881066210937498,0.396767099121098,0.401127538526237,0.313943000000108,
0.0104387192382811,-0.0271023627929688,0.214807772949221,0.216762275886976,0.316960000000108,
-0.0925119521484377,0.03754108203125,-0.484299111816403,0.494482986397458,0.319928000000118,
-0.149972791992188,0.140491753417969,-0.481904910156247,0.523891318451726,0.322867999999971,
-0.0206859023437502,0.0423294853515625,-0.13474566943359,0.142744832890755,0.325865999999905,
0.108600987304687,-0.0438617744140625,0.245932394531254,0.272398187178585,0.328819000000067,
-0.0230801040039065,0.0543004936523437,0.174106344726566,0.183832135617702,0.331828999999971,
-0.0877235488281252,0.104578728515625,-0.00785298144530877,0.136725274892851,0.334763000000066,
-0.0326569106445315,0.0207816704101562,-0.340647012207027,0.342839231365746,0.337676999999985,
0.0128329208984373,-0.00316034619140632,-0.276003567382809,0.276319816254411,0.340672999999924,
-0.00871489404296899,-0.0175255561523438,-0.0509486113281223,0.0545788923751042,0.343589000000065,
-0.0422337172851565,0.0231758720703125,0.138193319824222,0.146349586832289,0.34660400000007,
-0.0254743056640627,0.0423294853515625,0.159741134765628,0.167206326780433,0.34956800000009,
-0.0326569106445315,0.0135990654296875,-0.0126413847656224,0.0375661150799273,0.352487999999994,
0.0128329208984373,-0.0271023627929688,-0.247273147460934,0.249084787538268,0.355477000000064,
-0.0422337172851565,0.027964275390625,-0.278397769042966,0.282968205602584,0.358420000000024,
-0.0589931289062502,0.0447236870117187,-0.17305289599609,0.188222480726148,0.361419999999953,
-0.00871489404296899,-0.00316034619140632,0.013694833496098,0.0165374009661603,0.364354999999932,
0.0343807358398436,0.00402225878906243,0.0927034882812539,0.0989552944625393,0.367375999999922,
-0.037445313964844,0.0399352836914062,-0.0461602080078087,0.0716082622660472,0.370288000000073,
-0.0589931289062502,0.0519062919921874,-0.185023904296871,0.201018152334025,0.373223999999936,
-0.00153228906250025,0.00641646044921873,-0.182629702636715,0.182748808914429,0.376234999999951,
0.00325611425781225,0.027964275390625,-0.120380459472653,0.123628710261936,0.379192999999987,
-0.00392649072265649,0.027964275390625,0.0591846650390657,0.0655762350497818,0.382207000000108,
-0.0350511123046877,0.03754108203125,-0.0102471831054647,0.0523728753790528,0.385146000000077,
-0.00871489404296899,-0.0103429511718751,-0.0677080229492155,0.0690456543803842,0.388034999999945,
-0.0494163222656252,-0.00316034619140632,-0.156293484374997,0.163950034926459,0.391012000000046,
-0.0542047255859377,0.0207816704101562,-0.113197854492183,0.12721550362482,0.393945999999914,
-0.0326569106445315,0.0351468803710937,0.00890643017578441,0.0487965317531995,0.396964000000025,
0.0176213242187498,-0.00316034619140632,0.0208774384765658,0.0275021143298952,0.399924999999939,
0.0200155258789061,-0.0103429511718751,-0.0892558378906223,0.0920554317393059,0.402847999999949,
-0.0422337172851565,-0.00316034619140632,-0.153899282714841,0.1596203742757,0.405835000000025,
-0.0422337172851565,0.0207816704101562,-0.125168862792965,0.133726620063632,0.40878500000008,
-0.0446279189453127,0.027964275390625,-0.106015249511715,0.118376032103392,0.411796999999979,
-0.0158974990234377,0.0231758720703125,-0.022218191406246,0.0358259619659302,0.414747999999918,
-0.0206859023437502,0.0207816704101562,0.0663672700195352,0.0725561776188453,0.417787000000089,
-0.0805409438476564,0.0327526787109375,-0.0485544096679646,0.0995846991099425,0.420900999999958,
0.0224097275390623,0.01838746875,-0.0820732329101528,0.0870420039735496,0.423956999999973,
-0.00632069238281274,0.0135990654296875,-0.10362104785156,0.104700560125599,0.427018000000089,
-0.0565989272460939,0.027964275390625,-0.0365834013671833,0.0729642687835887,0.429951999999957,
-0.0470221206054689,0.0255700737304687,0.0160890351562539,0.055890657082164,0.432907999999998,
-0.0230801040039065,0.01838746875,-0.0485544096679646,0.0568183148823327,0.435920000000124,
-0.0326569106445315,0.0351468803710937,-0.125168862792965,0.134048577857241,0.438898999999992,
-0.0637815322265627,0.0638773002929687,-0.137139871093746,0.164182025780825,0.441902999999911,
-0.0494163222656252,0.0255700737304687,-0.0413718046874969,0.0693356171094058,0.444850000000088,
-0.027868507324219,-0.0175255561523438,-0.106015249511715,0.111009152541402,0.447765000000118,
0.0056503159179685,0.03754108203125,-0.0581312163085901,0.069429800659126,0.450784000000112,
-0.027868507324219,0.0255700737304687,-0.0485544096679646,0.0615468363871466,0.453749000000016,
-0.0206859023437502,0.027964275390625,-0.09643844287109,0.102519659174708,0.456770000000006,
-0.0613873305664064,0.0327526787109375,-0.0509486113281223,0.0862374820659511,0.45974799999999,
-0.0446279189453127,0.0327526787109375,-0.156293484374997,0.165807244625223,0.462751999999909,
-0.0206859023437502,0.0614830986328125,-0.0724964262695273,0.0972821144667422,0.465701000000081,
0.0176213242187498,0.0399352836914062,-0.0581312163085901,0.0726950910326927,0.468665000000101,
-0.0637815322265627,0.00162805712890618,-0.00785298144530877,0.0642837750973245,0.471677,
-0.0254743056640627,0.0112048637695312,-0.0365834013671833,0.0459655792604888,0.474633999999924,
-0.0422337172851565,0.01838746875,-0.0892558378906223,0.100440980084385,0.477640999999949,
-0.037445313964844,0.00881066210937498,-0.09643844287109,0.103827513541122,0.480602999999974,
0.0104387192382811,0.00402225878906243,-0.038977603027341,0.0405511894136144,0.483549999999923,
-0.0518105239257815,-0.0127371528320313,-0.0126413847656224,0.0548303753454507,0.486550999999963,
-0.0326569106445315,0.0207816704101562,-0.0844674345703087,0.0929144721815211,0.489504000000125,
-0.00871489404296899,0.0471178886718749,-0.0629196196289037,0.0790880733443501,0.492516000000023,
-0.0733583388671877,0.0135990654296875,-0.077284829589841,0.107421251838939,0.495456999999988,
0.0200155258789061,0.03754108203125,-0.0533428129882783,0.068230563633819,0.498399000000063,
-0.00632069238281274,-0.0271023627929688,-0.0892558378906223,0.0934938170079546,0.501375999999937,
-0.0206859023437502,0.00162805712890618,-0.0796790312499969,0.0823365359164941,0.504316999999901,
0.0128329208984373,0.0614830986328125,-0.0413718046874969,0.0752095838266513,0.507336000000123,
-0.00153228906250025,0.0495120903320312,-0.129957266113278,0.13907798536956,0.510277000000087,
0.0128329208984373,0.00402225878906243,-0.0677080229492155,0.0690307090811273,0.513210999999956,
-0.0230801040039065,0.0159932670898437,-0.0892558378906223,0.0935685865587125,0.516225999999961,
-0.00871489404296899,-0.00316034619140632,-0.0437660063476528,0.0447370146282974,0.519131000000016,
-0.0206859023437502,0.0423294853515625,-0.122774661132809,0.131504027703258,0.522142000000031,
-0.037445313964844,0.0255700737304687,-0.0461602080078087,0.0647050617172375,0.525071000000025,
-0.0470221206054689,0.0590888969726562,-0.0461602080078087,0.0885061713950198,0.527990000000045,
-0.0158974990234377,0.027964275390625,-0.0509486113281223,0.0602535656172064,0.530993999999964,
-0.00153228906250025,-0.00555454785156256,-0.0341891997070274,0.0346713467897248,0.533906999999999,
-0.037445313964844,-0.0318907661132813,-0.0629196196289037,0.0798627011530644,0.536878000000115,
-0.0518105239257815,-0.000766144531250068,-0.0126413847656224,0.0533359351253847,0.539800000000014,
0.00325611425781225,0.0159932670898437,-0.0294007963867156,0.0336272761376849,0.542734999999993,
-0.0254743056640627,0.0495120903320312,-0.10362104785156,0.117633791471535,0.545738000000028,
-0.0302627089843752,0.0399352836914062,-0.0533428129882783,0.0731854776310745,0.548665000000028,
-0.0470221206054689,0.0255700737304687,-0.110803652832027,0.123054288741747,0.551672999999937,
-0.037445313964844,0.03754108203125,-0.0437660063476528,0.068752801322023,0.554648999999927,
-0.0206859023437502,0.0207816704101562,-0.0461602080078087,0.0546859139462413,0.557737999999972,
-0.0254743056640627,0.03754108203125,-0.0437660063476528,0.063037579274318,0.560750000000098,
-0.0398395156250002,0.0399352836914062,-0.10362104785156,0.117980233287627,0.563761999999997,
-0.027868507324219,0.00641646044921873,-0.0413718046874969,0.0502936465995142,0.566759000000047,
-0.0470221206054689,-0.0103429511718751,-0.0701022246093714,0.0850433910445828,0.569678000000067,
-0.0661757338867189,0.0399352836914062,-0.022218191406246,0.0804220285016706,0.572670000000016,
-0.0254743056640627,0.0207816704101562,-0.0485544096679646,0.0586374349055874,0.575634000000036,
-0.0206859023437502,0.0112048637695312,-0.00785298144530877,0.0248017105347451,0.578563000000031,
-0.037445313964844,0.01838746875,-0.115592056152341,0.122889275327361,0.581580999999915,
-0.0613873305664064,0.00641646044921873,-0.0796790312499969,0.10078850797439,0.584509999999909,
-0.037445313964844,0.03754108203125,-0.0653138212890596,0.0841271634454769,0.587524999999914,
-0.0230801040039065,0.00881066210937498,-0.10362104785156,0.106525304625201,0.590463,
-0.0111090957031252,0.066271501953125,-0.0796790312499969,0.104230859151224,0.593413000000055,
-0.0254743056640627,0.01838746875,-0.0341891997070274,0.0464321077779733,0.596442999999908,
0.0104387192382811,0.0327526787109375,-0.0844674345703087,0.0911945849541898,0.599435999999969,
-0.0398395156250002,0.0159932670898437,-0.0509486113281223,0.0666238140135026,0.602440999999999,
-0.0158974990234377,0.0159932670898437,-0.0653138212890596,0.0690971078901751,0.605387000000064,
-0.0350511123046877,0.0112048637695312,-0.0748906279296833,0.0834430080809162,0.608304999999973,
-0.0111090957031252,0.0231758720703125,-0.0413718046874969,0.048704817797227,0.611304999999902,
-0.0135032973632815,0.00641646044921873,-0.144322476074215,0.145094752160683,0.614244999999983,
-0.0350511123046877,0.0782425102539062,-0.110803652832027,0.140099680105091,0.617257999999993,
-0.0470221206054689,-0.00316034619140632,0.17171214306641,0.178062145586152,0.620184999999992,
-0.0206859023437502,0.00402225878906243,0.131010714843754,0.132694734354505,0.623111000000108,
0.0224097275390623,0.0255700737304687,-0.189812307617185,0.192833442851383,0.626142000000073,
-0.0422337172851565,-0.0199197578125001,-0.307128188964841,0.310657702437673,0.629059000000098,
-0.0398395156250002,0.0399352836914062,-0.127563064453122,0.139478848939254,0.632051000000047,
-0.0422337172851565,0.0447236870117187,0.0567904633789098,0.0837200799476207,0.635013999999956,
-0.0111090957031252,0.00881066210937498,0.181288949707035,0.181842577687479,0.637926999999991,
-0.018291700683594,-0.0247081611328125,0.00890643017578441,0.0320063124858104,0.640908000000081,
-0.0446279189453127,0.0135990654296875,-0.199389114257809,0.20477452139967,0.643843999999945,
-0.027868507324219,0.0471178886718749,-0.280791970703122,0.286078450682183,0.646844000000101,
-0.0709641372070314,0.0255700737304687,-0.0365834013671833,0.0838336608750472,0.649787999999944,
0.0104387192382811,0.00881066210937498,0.035242648437503,0.0377973397877505,0.65282400000001,
-0.0350511123046877,0.0255700737304687,0.0376368500976589,0.0574364137951795,0.655754999999999,
-0.0518105239257815,0.0471178886718749,-0.0557370146484342,0.0895044167864298,0.658668999999918,
-0.0781467421875002,0.0471178886718749,-0.0868616362304646,0.125983937849427,0.661677000000054,
-0.0302627089843752,-0.0247081611328125,-0.175447097656246,0.179744287413087,0.664592999999968,
-0.027868507324219,-0.00555454785156256,-0.060525417968746,0.0668642873483801,0.667564000000084,
-0.0422337172851565,0.0566946953124999,0.0496078583984403,0.0863650100861421,0.670511000000033,
-0.00392649072265649,-0.00794874951171881,0.052002060058598,0.052752385714138,0.673418999999967,
-0.0350511123046877,0.0303584770507812,-0.0437660063476528,0.0637626921817251,0.676423999999997,
-0.00871489404296899,0.0135990654296875,-0.161081887695309,0.161889649150973,0.679358000000093,
-0.0589931289062502,0.0590888969726562,-0.10362104785156,0.133075198896901,0.682354000000032,
-0.0206859023437502,0.0255700737304687,-0.060525417968746,0.0688844064113801,0.685291000000007,
-0.00871489404296899,0.00881066210937498,0.0400310517578166,0.0419053964284165,0.688220000000001,
0.000861912597656,0.0207816704101562,-0.0629196196289037,0.0662683880338754,0.691240000000107,
-0.0565989272460939,0.03754108203125,-0.0892558378906223,0.112157817396037,0.694265000000087,
-0.027868507324219,0.027964275390625,-0.101226846191404,0.108653250243427,0.697349999999915,
0.0104387192382811,-0.00794874951171881,-0.0916500395507782,0.0925844437678108,0.700379999999996,
-0.0302627089843752,0.0207816704101562,-0.0437660063476528,0.057124186573921,0.70335399999999,
-0.0158974990234377,0.0255700737304687,-0.0246123930664037,0.0388886749354741,0.706349999999929,
-0.027868507324219,0.0495120903320312,-0.0533428129882783,0.0779330256504243,0.709284999999909,
-0.0158974990234377,0.0351468803710937,-0.0437660063476528,0.0583394976550447,0.712279999999964,
-0.0470221206054689,0.0159932670898437,-0.0892558378906223,0.102144353813607,0.71526300000005,
-0.0206859023437502,0.00402225878906243,-0.0677080229492155,0.0709116456813185,0.71817800000008,
-0.0230801040039065,0.0135990654296875,-0.0341891997070274,0.0434341703961186,0.721189000000095,
-0.0158974990234377,0.0710599052734375,-0.00785298144530877,0.0732387187917052,0.724132999999938,
-0.0518105239257815,0.0351468803710937,-0.0892558378906223,0.109024025732134,0.727129000000104,
-0.00392649072265649,0.0231758720703125,-0.0701022246093714,0.0739382192833812,0.730093000000124,
-0.027868507324219,0.0351468803710937,-0.170658694335934,0.176454942840221,0.733013999999912,
0.000861912597656,0.0112048637695312,-0.110803652832027,0.111372085130612,0.736067000000048,
-0.0206859023437502,0.0112048637695312,-0.0341891997070274,0.0415012879857472,0.739011000000119,
-0.0206859023437502,0.0351468803710937,-0.060525417968746,0.0729831211711759,0.742017999999916,
-0.00632069238281274,0.0447236870117187,-0.0844674345703087,0.0957857339848148,0.744959999999992,
-0.00153228906250025,0.027964275390625,-0.106015249511715,0.109652094083629,0.747951999999941,
-0.0398395156250002,0.0423294853515625,-0.0940442412109341,0.110558996197972,0.750884999999926,
0.0104387192382811,0.00641646044921873,-0.0317949980468715,0.0340743264765807,0.753819999999905,
-0.0542047255859377,0.0447236870117187,-0.0509486113281223,0.0867993171173199,0.756828999999925,
-0.0206859023437502,0.01838746875,-0.077284829589841,0.0820911106487064,0.75975799999992,
-0.0326569106445315,0.00402225878906243,-0.0653138212890596,0.0731337653207485,0.762748999999985,
-0.00153228906250025,0.0614830986328125,-0.0940442412109341,0.112369206779275,0.765705000000025,
-0.00632069238281274,0.0159932670898437,-0.0892558378906223,0.0908974165857439,0.768628999999919,
-0.0565989272460939,0.0159932670898437,-0.0844674345703087,0.102927016183824,0.771633999999949,
-0.0326569106445315,0.0255700737304687,0.00890643017578441,0.0424220105829821,0.77459900000008,
-0.037445313964844,0.0112048637695312,-0.0748906279296833,0.084476663414944,0.777604999999994,
-0.00632069238281274,0.0159932670898437,-0.0820732329101528,0.083855538306837,0.780553999999938,
-0.0206859023437502,0.01838746875,-0.0653138212890596,0.0709358922844184,0.783470000000079,
-0.0350511123046877,0.0351468803710937,-0.0796790312499969,0.0938756182113001,0.786473000000115,
-0.0398395156250002,-0.000766144531250068,-0.0246123930664037,0.0468352845099991,0.789387999999917,
-0.0422337172851565,0.0207816704101562,-0.0174297880859342,0.0501932486842549,0.792400000000043,
-0.0111090957031252,0.0207816704101562,-0.0916500395507782,0.0946309652388518,0.795329000000038,
-0.0398395156250002,0.00162805712890618,-0.0198239897460901,0.0445289584955982,0.798256999999921,
-0.0518105239257815,-0.00555454785156256,-0.0653138212890596,0.0835528493989193,0.801241000000118,
-0.0111090957031252,0.0327526787109375,-0.14192827441406,0.146081432934633,0.804176999999981,
-0.0135032973632815,0.0566946953124999,0.0591846650390657,0.0830629405453769,0.807189999999991,
-0.018291700683594,0.00641646044921873,0.052002060058598,0.0554974911949415,0.810130000000072,
-0.037445313964844,-0.0151313544921876,-0.0246123930664037,0.0472956585655506,0.81301899999994,
0.00804451757812485,0.0159932670898437,-0.137139871093746,0.138303445723095,0.816041000000041,
-0.0326569106445315,0.00641646044921873,-0.225725332519527,0.228165664635572,0.818981000000122,
-0.0518105239257815,0.0495120903320312,-0.0916500395507782,0.116342198828157,0.82197599999995,
0.000861912597656,-0.0199197578125001,-0.0317949980468715,0.0375294756882536,0.824902999999949,
0.00804451757812485,-0.0175255561523438,0.0208774384765658,0.0284205351613319,0.827833999999939,
0.00325611425781225,0.0447236870117187,-0.098832644531246,0.108529729037816,0.830879999999979,
-0.0350511123046877,-0.000766144531250068,-0.201783315917965,0.204806430646324,0.833885000000009,
0.00325611425781225,0.0638773002929687,-0.153899282714841,0.166661036216989,0.8370010000001,
-0.0135032973632815,0.0112048637695312,0.00411802685547258,0.0180234890339621,0.840050999999903,
0.0104387192382811,-0.0271023627929688,0.0591846650390657,0.0659266979613249,0.843067000000019,
-0.00632069238281274,0.0495120903320312,-0.0150355864257783,0.0521293305195109,0.845998000000009,
-0.018291700683594,0.0303584770507812,-0.125168862792965,0.130090228901424,0.848907000000054,
-0.0111090957031252,0.0423294853515625,-0.192206509277341,0.19712569478901,0.851928000000044,
-0.0398395156250002,0.01838746875,-0.170658694335934,0.17620918240748,0.854886999999962,
-0.0326569106445315,-0.0462559760742188,0.00651222851562849,0.0569955985639539,0.857860999999957,
-0.0206859023437502,-0.0175255561523438,-0.022218191406246,0.0350528130624164,0.860768000000007,
-0.0254743056640627,0.00162805712890618,-0.0677080229492155,0.0723599833524896,0.863697000000002,
-0.027868507324219,0.0303584770507812,-0.098832644531246,0.107080261740259,0.866719000000103,
-0.0111090957031252,-0.0199197578125001,-0.113197854492183,0.115472780430209,0.869650000000092,
-0.00871489404296899,0.01838746875,-0.077284829589841,0.079918666592625,0.872679000000062,
-0.0135032973632815,0.0231758720703125,-0.0485544096679646,0.055470629923458,0.875651000000062,
-0.0230801040039065,0.0231758720703125,-0.0341891997070274,0.0473150464826743,0.87858099999994,
-0.0350511123046877,0.01838746875,-0.0246123930664037,0.046609541654936,0.881595999999945,
-0.0302627089843752,0.0303584770507812,-0.060525417968746,0.074167343920402,0.884555999999975,
-0.0350511123046877,0.0112048637695312,-0.120380459472653,0.12587924558376,0.887576999999965,
0.000861912597656,0.0207816704101562,-0.077284829589841,0.0800347774601337,0.89054699999997,
0.0176213242187498,0.01838746875,-0.0509486113281223,0.0569593808825079,0.893493999999919,
-0.0637815322265627,0.0782425102539062,-0.0820732329101528,0.130099922460872,0.896514000000025,
0.0248039291992186,0.01838746875,-0.0437660063476528,0.0535611540425975,0.899480999999923,
-0.027868507324219,0.0159932670898437,-0.125168862792965,0.129227251404536,0.902505999999903,
-0.0230801040039065,0.0423294853515625,-0.106015249511715,0.116463340412297,0.90545300000008,
-0.0254743056640627,0.0351468803710937,-0.0653138212890596,0.0784228200223971,0.908380000000079,
-0.00871489404296899,0.0207816704101562,-0.060525417968746,0.0645844673548365,0.911385999999993,
-0.0111090957031252,-0.00316034619140632,-0.022218191406246,0.0250409230012657,0.914305000000013,
-0.0254743056640627,0.0159932670898437,-0.0844674345703087,0.0896631046984352,0.917316999999912,
-0.0470221206054689,-0.0223139594726563,-0.0150355864257783,0.0541762076261311,0.920245000000023,
-0.027868507324219,0.0806367119140625,-0.022218191406246,0.0881622427014883,0.923158999999941,
-0.018291700683594,0.00641646044921873,-0.0150355864257783,0.0245321449890064,0.926175000000057,
-0.0518105239257815,0.0590888969726562,-0.108409451171871,0.133897114376283,0.929137000000082,
-0.00632069238281274,0.00641646044921873,-0.0868616362304646,0.0873273494704156,0.932148000000097,
0.000861912597656,0.01838746875,-0.0437660063476528,0.0474795241338939,0.935116999999991,
0.0271981308593748,-0.0175255561523438,-0.0270065947265596,0.0421454576368234,0.938124000000016,
-0.0254743056640627,-0.00316034619140632,0.0113006318359403,0.0280469662710088,0.941066999999975,
0.0200155258789061,0.0351468803710937,-0.0844674345703087,0.0936518658592476,0.944005999999945,
-0.0230801040039065,0.0471178886718749,-0.175447097656246,0.183124194768814,0.947014000000081,
-0.0350511123046877,0.0255700737304687,-0.137139871093746,0.143839331853241,0.949951999999939,
-0.0326569106445315,0.0638773002929687,-0.10362104785156,0.12603215805269,0.952956000000086,
-0.0398395156250002,0.0112048637695312,-0.000670376464841027,0.0413906436520743,0.955895000000055,
-0.00871489404296899,0.0112048637695312,-0.0629196196289037,0.0645009835934294,0.958824999999933,
-0.0446279189453127,0.0543004936523437,-0.038977603027341,0.0803706930294532,0.961833999999953,
-0.0135032973632815,-0.0103429511718751,-0.0844674345703087,0.0861630035543932,0.964762000000064,
-0.0135032973632815,0.0135990654296875,-0.0150355864257783,0.0243586222806047,0.967769999999973,
-0.0230801040039065,0.0782425102539062,-0.0701022246093714,0.107558837418626,0.970796999999948,
-0.0494163222656252,0.0112048637695312,-0.0629196196289037,0.0807861399783391,0.973813000000064,
-0.00871489404296899,-0.000766144531250068,-0.0629196196289037,0.063524915504618,0.976893000000018,
-0.0350511123046877,0.0351468803710937,-0.0677080229492155,0.0839539161999445,0.979894999999942,
-0.018291700683594,0.00881066210937498,-0.0892558378906223,0.0915358873789991,0.982905999999957,
-0.0709641372070314,0.027964275390625,-0.0461602080078087,0.0891553378715221,0.985848000000033,
0.0056503159179685,0.00402225878906243,-0.0198239897460901,0.0210022666679605,0.988804999999957,
-0.0206859023437502,0.0423294853515625,0.0113006318359403,0.048449934631481,0.991852000000108,
-0.027868507324219,0.027964275390625,-0.0892558378906223,0.0975974333482178,0.994797000000062,
-0.0518105239257815,0.0135990654296875,-0.168264492675778,0.176584836453932,0.997826000000032,
0.0128329208984373,0.0471178886718749,-0.161081887695309,0.16832157863793,1.00080200000002,
-0.0494163222656252,0.0471178886718749,-0.0629196196289037,0.0928490542407474,1.00373100000002,
-0.018291700683594,0.00881066210937498,0.013694833496098,0.0244900499221544,1.00677900000005,
-0.0446279189453127,0.0159932670898437,-0.0294007963867156,0.0557838916692766,1.0097310000001,
