X,Y,Z,Magnitude,Seconds,
0.178032835449219,0.0447236870117187,-0.0270065947265596,0.185540439895823,0.0,
0.149302415527344,0.0135990654296875,-0.0102471831054647,0.150270258615793,0.00374699999997574,
0.154090818847656,0.0351468803710937,-0.038977603027341,0.162783712915998,0.00748199999998178,
0.185215440429687,0.00162805712890618,-0.0198239897460901,0.186280435132171,0.0112229999999727,
0.156485020507812,0.0447236870117187,-0.0341891997070274,0.16630295006361,0.0149589999999762,
0.1516966171875,0.0327526787109375,-0.000670376464841027,0.155193592114744,0.018758000000048,
0.1516966171875,0.0207816704101562,-0.022218191406246,0.154717127431102,0.0225040000000263,
0.178032835449219,0.00641646044921873,-0.0294007963867156,0.180558213025489,0.0264160000000402,
0.175638633789062,0.0351468803710937,-0.0437660063476528,0.18439006532547,0.030332000000044,
0.158879222167969,-0.00316034619140632,0.0376368500976589,0.16330685077492,0.0340780000000223,
0.17085023046875,0.0399352836914062,-0.060525417968746,0.185601601165048,0.0378620000000183,
0.182821238769531,0.00641646044921873,-0.0820732329101528,0.200501351292819,0.0417160000000649,
0.182821238769531,0.00881066210937498,-0.0150355864257783,0.18364994410889,0.0455520000000433,
0.199580650390625,-0.0103429511718751,-0.0461602080078087,0.205110159311071,0.049350000000004,
0.163667625488281,-0.00316034619140632,-0.0102471831054647,0.164018548288353,0.0531019999999671,
0.187609642089844,0.0207816704101562,-0.0294007963867156,0.191033144920688,0.0568789999999808,
0.168456028808594,0.0423294853515625,0.013694833496098,0.17423193575397,0.06068300000004,
0.168456028808594,0.027964275390625,-0.00785298144530877,0.170941813660862,0.0644500000000789,
0.166061827148437,0.0207816704101562,-0.0629196196289037,0.178793978632279,0.0683089999999993,
0.173244432128906,0.03754108203125,-0.0126413847656224,0.177715420581717,0.0720810000000256,
0.182821238769531,0.0543004936523437,-0.0294007963867156,0.192967758406132,0.0758240000000114,
0.144514012207031,0.0112048637695312,-0.0509486113281223,0.153641171866566,0.0795940000000428,
0.19000384375,-0.00555454785156256,-0.0581312163085901,0.198775129106047,0.0833119999999781,
0.194792247070312,0.027964275390625,-0.00306457812499694,0.196813139439186,0.087052999999969,
0.19000384375,0.01838746875,0.00890643017578441,0.191099147421653,0.0908390000000736,
0.17085023046875,0.0112048637695312,0.00172382519531666,0.171225937861711,0.0946240000000671,
0.182821238769531,0.0590888969726562,-0.0677080229492155,0.203714210261245,0.0986010000000306,
0.163667625488281,0.0614830986328125,-0.0485544096679646,0.181451904781044,0.102472000000034,
0.182821238769531,0.0159932670898437,-0.0748906279296833,0.198211997843559,0.106296000000043,
0.187609642089844,0.0207816704101562,0.0113006318359403,0.189095108107024,0.110149999999976,
0.144514012207031,0.0471178886718749,-0.0341891997070274,0.155798897729336,0.113983000000076,
0.142119810546875,-0.0223139594726563,-0.0246123930664037,0.145951098761476,0.117953000000057,
0.175638633789062,0.0255700737304687,-0.0174297880859342,0.178343925779911,0.121756000000005,
0.149302415527344,0.0135990654296875,-0.0317949980468715,0.153254911058866,0.125579000000016,
0.19000384375,0.0399352836914062,-0.0748906279296833,0.208098278885217,0.129382000000078,
0.185215440429687,0.0231758720703125,-0.000670376464841027,0.18666100241986,0.133217000000059,
0.194792247070312,0.0135990654296875,-0.0317949980468715,0.197838004438134,0.137004000000047,
0.178032835449219,0.0159932670898437,-0.0126413847656224,0.17919620447735,0.140844000000016,
0.158879222167969,0.00641646044921873,-0.0485544096679646,0.16625675595175,0.144629000000009,
0.158879222167969,0.0231758720703125,-0.0294007963867156,0.163230313088872,0.148386000000073,
0.192398045410156,0.0495120903320312,-0.0126413847656224,0.199068479613143,0.152104000000008,
0.180427037109375,0.00402225878906243,-0.0317949980468715,0.183251237885681,0.155814000000078,
0.166061827148437,0.0423294853515625,-0.000670376464841027,0.171373175178061,0.159509000000071,
0.19000384375,0.03754108203125,-0.0701022246093714,0.205973579313062,0.163287999999966,
0.180427037109375,0.0159932670898437,-0.0820732329101528,0.198861046644633,0.16713500000003,
0.139725608886719,0.0231758720703125,-0.0820732329101528,0.163696006015137,0.171081000000072,
0.142119810546875,0.03754108203125,-0.0413718046874969,0.152705597844536,0.174824000000058,
0.161273423828125,0.0207816704101562,-0.0653138212890596,0.175233816113391,0.178585999999996,
0.173244432128906,0.0973961235351562,-0.0533428129882783,0.205779235689233,0.182319000000007,
0.182821238769531,0.0159932670898437,0.0328484467773471,0.186436075889612,0.18616099999997,
0.201974852050781,0.0423294853515625,0.00651222851562849,0.206465578998783,0.18995300000006,
0.173244432128906,0.0471178886718749,-0.0102471831054647,0.179829734632956,0.193696000000045,
0.194792247070312,0.0519062919921874,-0.0533428129882783,0.208527548215055,0.197437000000036,
0.185215440429687,0.00162805712890618,-0.0174297880859342,0.186040875767393,0.20121400000005,
0.156485020507812,0.0471178886718749,0.0280600434570353,0.165816232966005,0.204963000000021,
0.134937205566406,0.0159932670898437,-0.0701022246093714,0.15289916917191,0.208747000000017,
0.182821238769531,-0.00794874951171881,-0.038977603027341,0.187099015234669,0.212462000000073,
0.180427037109375,0.0112048637695312,-0.0270065947265596,0.182780800006144,0.216232999999988,
0.17085023046875,0.0255700737304687,-0.0198239897460901,0.173886803671985,0.219959000000017,
0.166061827148437,0.0135990654296875,-0.0174297880859342,0.16752690091194,0.223695000000021,
0.161273423828125,-0.0103429511718751,-0.0485544096679646,0.168741294798856,0.227397999999994,
0.17085023046875,0.0231758720703125,-0.0557370146484342,0.18120026793403,0.23114099999998,
0.168456028808594,0.0423294853515625,-0.00785298144530877,0.173870320324287,0.234979000000067,
0.168456028808594,0.00162805712890618,-0.0246123930664037,0.170252324813589,0.238932999999975,
0.158879222167969,0.027964275390625,0.00172382519531666,0.161330652723298,0.242814000000067,
0.158879222167969,0.0207816704101562,-0.0150355864257783,0.160936490333616,0.246583999999984,
0.161273423828125,0.0255700737304687,-0.0557370146484342,0.172538577442111,0.250364999999988,
0.182821238769531,0.01838746875,-0.0581312163085901,0.192719855390601,0.254158000000075,
0.182821238769531,-0.000766144531250068,0.0160890351562539,0.183529423730714,0.25806,
0.144514012207031,0.0399352836914062,-0.0413718046874969,0.15553376749371,0.261887000000002,
0.194792247070312,0.0614830986328125,-0.00545877978515286,0.204337928963119,0.265678999999977,
0.137331407226562,0.0351468803710937,-0.0270065947265596,0.144307223552297,0.269478000000049,
0.161273423828125,0.027964275390625,-0.022218191406246,0.165181009685536,0.273302000000058,
0.240282078613281,0.00641646044921873,-0.0198239897460901,0.241183827892478,0.277100000000019,
0.130148802246094,0.0135990654296875,-0.060525417968746,0.144176875839869,0.280930000000012,
0.1516966171875,0.0135990654296875,-0.000670376464841027,0.152306426822037,0.284723999999983,
0.185215440429687,0.00641646044921873,-0.00785298144530877,0.185492856077639,0.288486000000034,
0.201974852050781,-0.00555454785156256,-0.0748906279296833,0.215483874140207,0.292237999999998,
0.096629979003906,0.0135990654296875,-0.189812307617185,0.213426801376531,0.295977999999991,
0.295348716796875,0.0447236870117187,0.358459872558598,0.466609636557379,0.299687000000063,
0.338444346679687,-0.187513874023438,-0.201783315917965,0.43637430645441,0.303416999999968,
0.103812583984375,0.142885955078125,-0.218542727539059,0.280988207069821,0.30642499999999,
-0.0877235488281252,0.154856963378906,0.00411802685547258,0.17802544276344,0.309446999999977,
0.120571995605469,-0.0558327827148438,-0.0533428129882783,0.143179472856519,0.312540000000013,
0.211551658691406,-0.07738059765625,0.0472136567382844,0.230154275587755,0.315547000000038,
0.288166111816406,0.0112048637695312,0.150164328125003,0.325137789887169,0.318579,
0.122966197265625,0.027964275390625,-0.00785298144530877,0.126350131324315,0.321521000000075,
0.0583227524414061,0.0950019218749999,-0.0509486113281223,0.122567000487689,0.324453000000062,
0.187609642089844,-0.00794874951171881,-0.106015249511715,0.21563810784022,0.327502999999979,
0.300137120117187,-0.0725921943359376,-0.0748906279296833,0.317742857830743,0.330434999999966,
0.201974852050781,0.066271501953125,0.0184832368164098,0.213371466872376,0.333473000000026,
0.115783592285156,0.145280156738281,0.0328484467773471,0.188656260537622,0.336419999999976,
0.185215440429687,0.00641646044921873,-0.0485544096679646,0.191581473625359,0.339343999999983,
0.269012498535156,-0.0103429511718751,-0.0174297880859342,0.26977490342838,0.342354999999998,
0.211551658691406,0.0303584770507812,-0.110803652832027,0.240734689865936,0.345309000000043,
0.168456028808594,0.0399352836914062,-0.038977603027341,0.177458485464155,0.348363000000063,
0.146908213867187,0.0351468803710937,-0.0629196196289037,0.16363436385953,0.351320999999984,
0.233099473632812,-0.0103429511718751,-0.0317949980468715,0.235485165451326,0.354229000000032,
0.149302415527344,0.00402225878906243,0.0543962617187539,0.158953902553668,0.357265999999981,
0.125360398925781,0.03754108203125,0.00890643017578441,0.13116358853502,0.360198999999966,
0.110995188964844,0.00162805712890618,-0.10362104785156,0.151854878424144,0.363212999999973,
0.187609642089844,-0.00794874951171881,-0.0126413847656224,0.188202988904724,0.366123000000016,
0.216340062011719,0.0135990654296875,-0.0868616362304646,0.233522805867925,0.369124000000056,
0.158879222167969,-0.0127371528320313,-0.0413718046874969,0.164670788308266,0.372053000000051,
0.163667625488281,0.0327526787109375,-0.0437660063476528,0.172555188004699,0.374967999999967,
0.233099473632812,0.01838746875,-0.0413718046874969,0.237455448111908,0.378000000000043,
0.192398045410156,0.0231758720703125,-0.0557370146484342,0.201645093483049,0.380942000000005,
0.180427037109375,0.0519062919921874,-0.0461602080078087,0.193336348552904,0.383939000000055,
0.178032835449219,0.0231758720703125,-0.0724964262695273,0.193619584149334,0.386894999999981,
0.158879222167969,0.0135990654296875,-0.113197854492183,0.195553818880873,0.389818999999989,
0.257041490234375,0.0135990654296875,-0.0198239897460901,0.258163229085635,0.392847000000074,
0.17085023046875,0.0495120903320312,-0.038977603027341,0.182100252273381,0.395784000000049,
0.163667625488281,0.01838746875,0.00651222851562849,0.164825968100431,0.398811000000023,
0.163667625488281,-0.000766144531250068,-0.0557370146484342,0.172899662846215,0.401710999999978,
0.130148802246094,-0.0103429511718751,-0.0916500395507782,0.159516197029317,0.404633999999987,
0.134937205566406,0.027964275390625,-0.0557370146484342,0.14864947004989,0.407660000000078,
0.137331407226562,0.00162805712890618,-0.0294007963867156,0.140452742262357,0.410604000000035,
0.13254300390625,0.0734541069335937,-0.0461602080078087,0.158410601012774,0.413631000000009,
0.161273423828125,-0.0271023627929688,0.013694833496098,0.164107293459777,0.416566999999986,
0.192398045410156,0.0351468803710937,-0.0413718046874969,0.199909822921658,0.419491999999991,
0.173244432128906,0.066271501953125,0.0113006318359403,0.185831239340111,0.422530000000052,
0.204369053710937,0.0231758720703125,-0.0748906279296833,0.218889098204149,0.425460000000044,
0.201974852050781,0.00641646044921873,-0.0198239897460901,0.203046798534437,0.428500999999983,
0.178032835449219,0.0207816704101562,-0.060525417968746,0.189184815837361,0.431453000000033,
0.182821238769531,0.0159932670898437,0.0184832368164098,0.184447878764285,0.434399999999982,
0.187609642089844,0.0303584770507812,0.0184832368164098,0.19094670716494,0.437419999999975,
0.206763255371094,0.0112048637695312,0.0113006318359403,0.207374774318472,0.440363000000048,
0.182821238769531,0.0255700737304687,0.0232716401367217,0.186061826419232,0.443403999999987,
0.168456028808594,-0.00316034619140632,-0.0270065947265596,0.170636389989755,0.446415000000002,
0.158879222167969,0.0159932670898437,-0.0102471831054647,0.160010613993268,0.449453000000062,
0.19000384375,0.0327526787109375,-0.0102471831054647,0.193078231202052,0.452586999999994,
0.166061827148437,-0.0151313544921876,0.00890643017578441,0.166987463071698,0.455556000000001,
0.175638633789062,0.0543004936523437,0.0256658417968776,0.18562383663021,0.458591000000069,
0.139725608886719,0.0207816704101562,-0.0341891997070274,0.145341064329417,0.461529000000041,
0.19000384375,-0.00555454785156256,0.00172382519531666,0.190092833149789,0.464557000000013,
0.163667625488281,0.0351468803710937,-0.0868616362304646,0.188593050458986,0.467527000000018,
0.182821238769531,0.0614830986328125,-0.0294007963867156,0.195110695736782,0.47045700000001,
0.166061827148437,0.00881066210937498,0.00651222851562849,0.166422856972601,0.47348999999997,
0.161273423828125,0.0495120903320312,-0.0844674345703087,0.188667198593668,0.47643800000003,
0.17085023046875,0.00162805712890618,-0.0150355864257783,0.171518280892758,0.479445000000055,
0.166061827148437,0.0159932670898437,-0.00306457812499694,0.166858343115257,0.482429000000025,
0.158879222167969,0.0112048637695312,-0.0126413847656224,0.159774718956364,0.485375999999974,
0.142119810546875,0.0303584770507812,-0.0102471831054647,0.145686932977255,0.488443000000075,
0.163667625488281,0.00641646044921873,-0.0317949980468715,0.166850785129915,0.491395000000011,
0.139725608886719,0.0423294853515625,-0.0317949980468715,0.149418717066146,0.494427999999971,
0.168456028808594,0.0543004936523437,-0.0748906279296833,0.192183723047901,0.497384000000011,
0.178032835449219,0.00641646044921873,-0.0701022246093714,0.191444987811036,0.500324999999975,
0.156485020507812,0.0135990654296875,0.0280600434570353,0.159561468602862,0.503359000000046,
0.185215440429687,0.01838746875,0.0304542451171912,0.188600952877373,0.506304999999998,
0.197186448730469,0.0207816704101562,-0.0150355864257783,0.19884778662871,0.50931700000001,
0.156485020507812,0.0231758720703125,-0.0748906279296833,0.175023680801348,0.512262000000078,
0.199580650390625,0.0303584770507812,0.0208774384765658,0.202953050177942,0.51520800000003,
0.163667625488281,-0.0414675727539063,-0.0317949980468715,0.171806790098277,0.518212000000062,
0.142119810546875,0.0543004936523437,-0.0270065947265596,0.154518414176086,0.521159000000011,
0.17085023046875,0.0159932670898437,-0.0126413847656224,0.17206217031127,0.524187999999981,
0.168456028808594,0.0135990654296875,-0.022218191406246,0.170458253692472,0.527124000000072,
0.194792247070312,0.0255700737304687,-0.0748906279296833,0.210253309940618,0.530053000000066,
0.182821238769531,0.0159932670898437,-0.060525417968746,0.193242635455337,0.533073000000059,
0.192398045410156,-0.000766144531250068,-0.038977603027341,0.196308044646286,0.53598199999999,
0.146908213867187,0.027964275390625,-0.0317949980468715,0.152888671590051,0.538999999999987,
0.223522666992187,0.00402225878906243,-0.0198239897460901,0.224436075073771,0.541944000000058,
0.158879222167969,0.0351468803710937,-0.0198239897460901,0.163923460816235,0.544864000000075,
0.1516966171875,0.0159932670898437,-0.00306457812499694,0.152568148371219,0.547869999999989,
0.180427037109375,0.0159932670898437,-0.0317949980468715,0.183903839582199,0.550808000000075,
0.168456028808594,0.0351468803710937,-0.0461602080078087,0.178167061055364,0.553829000000064,
0.178032835449219,0.0543004936523437,0.0184832368164098,0.187045085880887,0.556771000000026,
0.173244432128906,0.0638773002929687,0.0208774384765658,0.185821985227066,0.559773000000064,
0.139725608886719,0.01838746875,-0.0341891997070274,0.145018089086857,0.562707000000046,
0.185215440429687,0.0471178886718749,-0.0246123930664037,0.192693084201051,0.565639000000033,
0.156485020507812,0.00641646044921873,-0.0102471831054647,0.156951385370196,0.568664000000012,
0.127754600585937,0.03754108203125,-0.0102471831054647,0.133549899185834,0.571603999999979,
0.20915745703125,0.0159932670898437,-0.0485544096679646,0.215314089465113,0.57460500000002,
0.223522666992187,0.027964275390625,0.00172382519531666,0.225271735756457,0.577564000000052,
0.213945860351562,0.01838746875,-0.0629196196289037,0.223762840308324,0.580475999999976,
0.182821238769531,0.0135990654296875,0.013694833496098,0.183837124624687,0.583574999999996,
0.175638633789062,0.00162805712890618,-0.0748906279296833,0.190945506365051,0.586594999999988,
0.158879222167969,-0.00794874951171881,-0.00306457812499694,0.159107452668261,0.589684000000034,
0.156485020507812,-0.00316034619140632,-0.0509486113281223,0.164600456948467,0.592674999999986,
0.166061827148437,0.01838746875,-0.0102471831054647,0.167390663432901,0.595608999999968,
0.187609642089844,0.0782425102539062,-0.0341891997070274,0.206126586331116,0.598632000000066,
0.146908213867187,0.0159932670898437,-0.10362104785156,0.180485815098333,0.601582000000008,
0.187609642089844,0.0231758720703125,-0.0533428129882783,0.196417806088962,0.604629000000045,
0.149302415527344,0.0255700737304687,0.0903092866210979,0.176354209484471,0.607586999999967,
0.245070481933594,-0.0462559760742188,-0.0126413847656224,0.24971776277737,0.61047700000006,
0.137331407226562,0.0495120903320312,-0.0461602080078087,0.153108220887055,0.61350200000004,
0.13254300390625,0.0686657036132812,-0.108409451171871,0.184486410991665,0.616450999999984,
0.17085023046875,0.0112048637695312,-0.0581312163085901,0.180816449840259,0.619486000000052,
0.173244432128906,-0.000766144531250068,0.0663672700195352,0.185523138101305,0.622436999999991,
0.199580650390625,-0.0654095893554688,0.0113006318359403,0.210329633361273,0.625388000000044,
0.142119810546875,0.0351468803710937,0.0304542451171912,0.149535296152305,0.62842999999998,
0.182821238769531,0.0303584770507812,-0.038977603027341,0.18937923859765,0.631358999999975,
0.213945860351562,0.0327526787109375,-0.00545877978515286,0.216507199420839,0.634383000000071,
0.180427037109375,-0.029496564453125,-0.0677080229492155,0.194957275848573,0.637298999999985,
0.182821238769531,0.0303584770507812,-0.0461602080078087,0.190986929598318,0.640225999999984,
0.0894473740234373,0.128520745117187,0.0376368500976589,0.16104330824483,0.643244999999979,
0.199580650390625,0.0351468803710937,-0.0557370146484342,0.210176958803967,0.646157000000017,
0.20915745703125,0.0351468803710937,0.0256658417968776,0.213637263759723,0.649190999999973,
0.161273423828125,0.00641646044921873,-0.0844674345703087,0.182167603324059,0.652121000000079,
0.154090818847656,0.0710599052734375,-0.098832644531246,0.196370522776843,0.655134999999973,
0.201974852050781,0.0135990654296875,0.00172382519531666,0.202439489761261,0.658085000000028,
0.194792247070312,-0.0151313544921876,-0.0413718046874969,0.199711300708223,0.660977000000003,
0.154090818847656,0.00402225878906243,-0.0461602080078087,0.160906568611202,0.663995999999997,
0.122966197265625,0.0207816704101562,-0.038977603027341,0.130659163600422,0.666932999999972,
0.144514012207031,0.00641646044921873,-0.0246123930664037,0.146735273814191,0.669932000000017,
0.194792247070312,0.00162805712890618,-0.0317949980468715,0.197376776722889,0.67288700000006,
0.173244432128906,0.0351468803710937,-0.060525417968746,0.18684823436088,0.675801999999976,
0.182821238769531,0.0303584770507812,-0.0365834013671833,0.188900999811174,0.678836000000047,
0.178032835449219,0.0207816704101562,-0.0198239897460901,0.180334574867323,0.681788999999981,
0.161273423828125,0.0447236870117187,0.00172382519531666,0.167368745548481,0.684815000000071,
0.182821238769531,0.0399352836914062,0.0256658417968776,0.188884005844543,0.687745000000064,
0.173244432128906,0.0471178886718749,-0.0701022246093714,0.19273829560247,0.690672000000063,
0.1516966171875,-0.0175255561523438,-0.00545877978515286,0.152803164434912,0.693669,
0.175638633789062,-0.000766144531250068,-0.0198239897460901,0.176755501261444,0.696596999999997,
0.168456028808594,0.0231758720703125,-0.0294007963867156,0.172565817925667,0.699616999999989,
0.146908213867187,0.027964275390625,-0.0198239897460901,0.150854282568388,0.702564000000052,
0.168456028808594,0.0255700737304687,-0.0653138212890596,0.182475087515865,0.705491000000052,
0.199580650390625,0.01838746875,0.00411802685547258,0.200468184913615,0.708518000000026,
0.158879222167969,0.00402225878906243,-0.0102471831054647,0.159260134886486,0.711455000000001,
0.161273423828125,-0.0151313544921876,-0.0868616362304646,0.183801574995014,0.714453000000049,
0.154090818847656,0.0327526787109375,-0.0246123930664037,0.159444310993959,0.717394000000013,
0.175638633789062,0.0159932670898437,-0.00545877978515286,0.176449745106753,0.720323000000008,
0.173244432128906,0.03754108203125,-0.0270065947265596,0.179310686414583,0.72343699999999,
0.19000384375,-0.0199197578125001,-0.0102471831054647,0.19131979027973,0.726443000000017,
0.182821238769531,0.0351468803710937,-0.0509486113281223,0.193014687371998,0.729563999999982,
0.166061827148437,0.00162805712890618,-0.0461602080078087,0.172365732700025,0.732553000000053,
0.19000384375,0.0327526787109375,-0.0509486113281223,0.199424069757841,0.735479000000055,
0.178032835449219,0.00402225878906243,-0.0461602080078087,0.183963675401365,0.738491000000067,
0.127754600585937,0.01838746875,-0.0246123930664037,0.131396753652287,0.741426000000047,
0.156485020507812,-0.00316034619140632,-0.0748906279296833,0.173511254917605,0.744469999999978,
0.161273423828125,-0.0271023627929688,-0.0270065947265596,0.165749846035923,0.747378000000026,
0.17085023046875,0.00162805712890618,-0.060525417968746,0.181261628707047,0.750381000000061,
0.182821238769531,0.00881066210937498,-0.0557370146484342,0.191331774449387,0.753340999999978,
0.154090818847656,-0.00316034619140632,-0.0724964262695273,0.170322341643848,0.756236000000058,
0.185215440429687,0.027964275390625,-0.0485544096679646,0.193505273235357,0.759291000000076,
0.139725608886719,0.00162805712890618,-0.0413718046874969,0.145730993861565,0.762241000000017,
0.17085023046875,-0.000766144531250068,-0.022218191406246,0.17229055765779,0.765247000000045,
0.146908213867187,-0.00316034619140632,0.00411802685547258,0.146999895356695,0.768192999999997,
0.137331407226562,0.00162805712890618,-0.0413718046874969,0.143437067050129,0.771116000000006,
0.168456028808594,0.0686657036132812,-0.0892558378906223,0.202630247229346,0.774148999999966,
0.175638633789062,-0.000766144531250068,0.0280600434570353,0.177867598779378,0.777077000000077,
0.199580650390625,-0.0318907661132813,0.0855208833007843,0.219461337037263,0.780083999999988,
0.158879222167969,0.0255700737304687,-0.0365834013671833,0.165029637225781,0.783018999999967,
0.154090818847656,0.00162805712890618,-0.0653138212890596,0.167369430525814,0.785942999999975,
0.156485020507812,0.0543004936523437,-0.0892558378906223,0.188156078434303,0.788958999999977,
0.173244432128906,-0.0247081611328125,-0.00306457812499694,0.175024335820241,0.791874000000007,
0.161273423828125,0.0135990654296875,-0.0317949980468715,0.164939303122717,0.794905999999969,
0.125360398925781,0.0255700737304687,-0.0270065947265596,0.130760905656611,0.797845000000052,
0.17085023046875,0.00402225878906243,-0.0270065947265596,0.173018311099478,0.800771000000054,
0.163667625488281,-0.00316034619140632,-0.022218191406246,0.165199054023885,0.803767999999991,
0.180427037109375,0.0159932670898437,-0.108409451171871,0.211097866914048,0.806709000000069,
0.180427037109375,0.0566946953124999,0.035242648437503,0.19238047838992,0.809740000000033,
0.182821238769531,0.0303584770507812,0.00890643017578441,0.185538586209297,0.812671000000023,
0.225916868652344,0.0327526787109375,-0.0150355864257783,0.228773334030846,0.815592000000038,
0.180427037109375,0.0231758720703125,-0.0413718046874969,0.186554718485992,0.81862799999999,
0.192398045410156,0.0351468803710937,0.00651222851562849,0.195690368178171,0.821583000000032,
0.180427037109375,0.0447236870117187,-0.0174297880859342,0.186702762198931,0.824591000000055,
0.185215440429687,0.0207816704101562,-0.0126413847656224,0.18680589339577,0.827545999999984,
0.20915745703125,0.0519062919921874,-0.060525417968746,0.223840191208926,0.830469999999991,
0.194792247070312,0.0734541069335937,-0.000670376464841027,0.208182551499202,0.833490999999981,
0.144514012207031,0.0303584770507812,-0.0317949980468715,0.151052503302055,0.836429000000066,
0.139725608886719,-0.0127371528320313,-0.0557370146484342,0.150970512494826,0.83943899999997,
0.185215440429687,0.0159932670898437,-0.0413718046874969,0.190452540515664,0.842374000000063,
0.149302415527344,-0.000766144531250068,-0.00785298144530877,0.1495107607409,0.845354000000043,
0.166061827148437,0.0112048637695312,-0.0533428129882783,0.174778531592051,0.848295000000007,
0.178032835449219,-0.0103429511718751,-0.0150355864257783,0.178965739727467,0.85120100000006,
0.168456028808594,0.00881066210937498,0.0328484467773471,0.171854827876471,0.854225000000042,
0.173244432128906,0.0231758720703125,-0.022218191406246,0.176194217666901,0.857149000000049,
0.144514012207031,0.0471178886718749,-0.0102471831054647,0.152346315737093,0.860202000000072,
0.168456028808594,0.0303584770507812,0.00890643017578441,0.171401269742323,0.863258999999971,
0.201974852050781,-0.00794874951171881,-0.0317949980468715,0.204616581391967,0.866236000000072,
0.158879222167969,0.0159932670898437,-0.0724964262695273,0.175368536661394,0.869344000000069,
0.158879222167969,-0.0127371528320313,-0.0677080229492155,0.173173954943163,0.872256999999991,
0.149302415527344,0.03754108203125,0.0424252534179725,0.159688591483411,0.875282999999968,
0.182821238769531,0.0207816704101562,-0.00306457812499694,0.184024114749525,0.878209999999967,
0.122966197265625,0.027964275390625,-0.0820732329101528,0.150461629422306,0.881146000000058,
0.180427037109375,0.027964275390625,-0.0533428129882783,0.190214016612059,0.884177000000022,
0.137331407226562,0.027964275390625,-0.0437660063476528,0.146824314813907,0.887119999999982,
0.154090818847656,0.0231758720703125,-0.0365834013671833,0.160060759572586,0.890128000000004,
0.161273423828125,0.0159932670898437,-0.060525417968746,0.17299776890395,0.893073000000072,
0.187609642089844,0.0112048637695312,-0.0437660063476528,0.192972511225811,0.896013000000039,
0.142119810546875,-0.0127371528320313,-0.0916500395507782,0.169587751213952,0.899014000000079,
0.166061827148437,0.00641646044921873,-0.0533428129882783,0.174536979170823,0.90197999999998,
0.1516966171875,0.0231758720703125,-0.0126413847656224,0.15397658692523,0.905021000000033,
0.2283110703125,0.0519062919921874,-0.0940442412109341,0.252318305480514,0.907966999999985,
0.156485020507812,0.0112048637695312,-0.0270065947265596,0.159193174395603,0.910907000000066,
0.168456028808594,0.0207816704101562,-0.022218191406246,0.171181072249132,0.91394200000002,
0.178032835449219,0.027964275390625,-0.0174297880859342,0.181056589797035,0.916895000000068,
0.149302415527344,-0.0103429511718751,-0.113197854492183,0.187648453718321,0.919898999999987,
0.139725608886719,0.0351468803710937,-0.0174297880859342,0.145128723867141,0.92284600000005,
0.17085023046875,-0.0199197578125001,-0.0653138212890596,0.183990470551909,0.925767000000064,
0.154090818847656,0.0207816704101562,-0.113197854492183,0.192326837804325,0.928787000000057,
0.17085023046875,-0.000766144531250068,0.0160890351562539,0.171607824066757,0.931738999999993,
0.187609642089844,0.0519062919921874,0.0543962617187539,0.202115299377441,0.934777000000054,
0.156485020507812,0.0112048637695312,-0.022218191406246,0.158451123835676,0.937711000000036,
0.185215440429687,0.0207816704101562,-0.00785298144530877,0.186543041993476,0.940722000000051,
0.1516966171875,0.00641646044921873,-0.0126413847656224,0.152357603156586,0.943666000000007,
0.166061827148437,0.0255700737304687,-0.0150355864257783,0.168690331571273,0.94661700000006,
0.158879222167969,0.0447236870117187,-0.0413718046874969,0.170160047131285,0.949652000000015,
0.154090818847656,0.0135990654296875,-0.0198239897460901,0.155954819108469,0.952601000000072,
0.180427037109375,0.0255700737304687,-0.0485544096679646,0.188587579359972,0.95561900000007,
0.137331407226562,0.0207816704101562,-0.022218191406246,0.140660731070291,0.958599000000049,
0.201974852050781,0.00881066210937498,-0.0677080229492155,0.213203764036735,0.961540000000014,
0.142119810546875,0.00641646044921873,0.00411802685547258,0.142324171031341,0.964587000000051,
0.175638633789062,-0.000766144531250068,-0.0413718046874969,0.18044706392688,0.967501999999968,
0.156485020507812,0.027964275390625,-0.0317949980468715,0.16211256657722,0.970530000000053,
0.201974852050781,0.0423294853515625,-0.0533428129882783,0.213145682312745,0.973479999999995,
0.19000384375,-0.0103429511718751,-0.0102471831054647,0.190560861774697,0.976392000000033,
0.175638633789062,0.0447236870117187,-0.0317949980468715,0.184011031625854,0.979422999999997,
0.173244432128906,0.0351468803710937,-0.0485544096679646,0.183320667579222,0.982373000000052,
0.142119810546875,-0.029496564453125,-0.0485544096679646,0.153054299392802,0.985378999999966,
0.175638633789062,0.0495120903320312,-0.101226846191404,0.208679781383328,0.988323000000037,
0.194792247070312,0.0351468803710937,-0.0365834013671833,0.201290009623215,0.991260000000011,
0.142119810546875,0.0351468803710937,-0.0198239897460901,0.147737382944036,0.994292999999971,
0.192398045410156,0.0351468803710937,-0.0940442412109341,0.21701758081411,0.997250000000008,
0.185215440429687,0.0519062919921874,-0.098832644531246,0.216256593302912,1.00037199999997,
0.1516966171875,0.0207816704101562,-0.0317949980468715,0.156379868883331,1.00341100000003,
0.158879222167969,-0.0462559760742188,-0.00785298144530877,0.165661980782731,1.00641800000005,
0.17085023046875,0.0351468803710937,-0.00306457812499694,0.174454854017104,1.00949200000002,
0.178032835449219,0.0231758720703125,-0.0126413847656224,0.179979488145457,1.01244099999997,
