X,Y,Z,Magnitude,Seconds,
-0.0589931289062502,-0.0127371528320313,-0.038977603027341,0.0718448178936585,0.0,
0.0128329208984373,0.0112048637695312,-0.0437660063476528,0.0469648394280454,0.00387099999989005,
-0.0111090957031252,-0.0151313544921876,-0.000670376464841027,0.0187834847862172,0.00759500000003754,
0.0200155258789061,0.0303584770507812,-0.0581312163085901,0.0685674610479932,0.0113329999999223,
-0.0111090957031252,0.03754108203125,-0.0485544096679646,0.062372073443351,0.0150509999998576,
0.0224097275390623,0.0159932670898437,-0.0653138212890596,0.0708793039748649,0.0187929999999596,
-0.0302627089843752,0.0423294853515625,-0.098832644531246,0.111693815899721,0.0224889999999505,
-0.0326569106445315,0.0614830986328125,-0.0677080229492155,0.0971134470710857,0.0262699999998404,
0.0224097275390623,-0.0127371528320313,-0.122774661132809,0.125451378497478,0.029989999999998,
-0.00871489404296899,0.0112048637695312,-0.132351467773434,0.133110515632899,0.0336919999999736,
-0.0158974990234377,-0.000766144531250068,-0.0629196196289037,0.0649014328569785,0.037351999999828,
0.0271981308593748,0.0135990654296875,-0.0868616362304646,0.0920305207604421,0.0410929999998189,
0.0176213242187498,-0.0175255561523438,-0.0940442412109341,0.0972726862516483,0.044783999999936,
-0.0542047255859377,0.0423294853515625,-0.110803652832027,0.130412373212419,0.048511999999846,
-0.00871489404296899,0.0207816704101562,-0.0174297880859342,0.0284890279921431,0.0525669999999536,
-0.0111090957031252,0.01838746875,-0.00545877978515286,0.0221654977637818,0.056423999999879,
-0.0206859023437502,0.00881066210937498,-0.0796790312499969,0.0827905933274954,0.0601849999998194,
0.0104387192382811,0.0159932670898437,-0.0341891997070274,0.039161879783148,0.0639770000000226,
-0.0206859023437502,0.00162805712890618,-0.098832644531246,0.100987369263833,0.0677369999998518,
-0.0254743056640627,0.0135990654296875,-0.0557370146484342,0.0627733194243126,0.0715649999999641,
-0.0326569106445315,0.0112048637695312,-0.0413718046874969,0.0538855176094566,0.075403999999935,
-0.018291700683594,0.0543004936523437,-0.0509486113281223,0.0766739259530284,0.0791959999999108,
-0.0302627089843752,0.0327526787109375,-0.0485544096679646,0.0659249589762437,0.0829609999998411,
0.0056503159179685,0.0231758720703125,-0.0150355864257783,0.0281978008958037,0.0867690000000039,
0.0176213242187498,-0.0127371528320313,-0.0270065947265596,0.0346713467897263,0.0904960000000301,
-0.00392649072265649,-0.0151313544921876,-0.0653138212890596,0.067158547256046,0.0942119999999704,
-0.0446279189453127,0.00402225878906243,-0.0126413847656224,0.0465578599588523,0.0979569999999512,
-0.0302627089843752,-0.0127371528320313,-0.0629196196289037,0.0709714389848862,0.101774999999861,
-0.037445313964844,0.0255700737304687,-0.0533428129882783,0.0700102557202141,0.105501000000004,
-0.0446279189453127,0.01838746875,-0.0701022246093714,0.085112114599535,0.109234999999899,
-0.0398395156250002,0.0351468803710937,-0.09643844287109,0.110103875810323,0.112956999999824,
-0.0111090957031252,0.00162805712890618,-0.0317949980468715,0.0337192004376844,0.116661000000022,
0.0128329208984373,-0.00555454785156256,-0.115592056152341,0.116434789930445,0.120445999999902,
-0.0398395156250002,0.0327526787109375,-0.0365834013671833,0.0632318766412081,0.124501000000009,
-0.00392649072265649,0.01838746875,-0.00545877978515286,0.0195784221317788,0.128311999999823,
-0.027868507324219,0.0495120903320312,-0.0365834013671833,0.0675754840539059,0.132063000000016,
-0.0158974990234377,0.0495120903320312,-0.0653138212890596,0.0834869619499155,0.135820999999851,
0.0056503159179685,0.0231758720703125,-0.0724964262695273,0.0763202393736115,0.139627999999902,
0.0343807358398436,-0.000766144531250068,-0.0724964262695273,0.0802393531640484,0.143435999999838,
-0.0494163222656252,0.00162805712890618,-0.0317949980468715,0.0587838870531344,0.147266999999829,
-0.00871489404296899,0.00402225878906243,-0.0724964262695273,0.0731290623883513,0.151046999999835,
0.0056503159179685,0.00881066210937498,-0.0413718046874969,0.0426752862893597,0.154828999999836,
-0.027868507324219,0.00881066210937498,-0.0677080229492155,0.0737472564844084,0.158580000000029,
-0.00153228906250025,0.0495120903320312,-0.0629196196289037,0.0800791704069429,0.162295999999969,
-0.0230801040039065,0.03754108203125,-0.0844674345703087,0.095272092156085,0.166002999999819,
-0.0135032973632815,0.0423294853515625,-0.0796790312499969,0.0912297779825607,0.169725999999855,
-0.0254743056640627,0.03754108203125,-0.0892558378906223,0.10012431116717,0.173542999999881,
0.0319865341796873,0.0135990654296875,-0.0748906279296833,0.0825631824791867,0.177286999999978,
-0.0254743056640627,0.00881066210937498,-0.0365834013671833,0.0454413167884042,0.181002000000035,
0.0128329208984373,-0.0103429511718751,-0.0317949980468715,0.0358131595720051,0.184696000000031,
-0.018291700683594,0.0519062919921874,0.00172382519531666,0.0550619744976551,0.18841099999986,
-0.0446279189453127,0.0159932670898437,-0.0629196196289037,0.0787801642283284,0.192282999999861,
0.0463517441406248,0.0231758720703125,-0.0533428129882783,0.0743711027792372,0.196275000000014,
-0.0302627089843752,0.0495120903320312,-0.038977603027341,0.069903735106768,0.20001400000001,
-0.0446279189453127,0.0303584770507812,-0.0294007963867156,0.0614629571889062,0.203783999999814,
0.0224097275390623,0.0351468803710937,-0.0126413847656224,0.043558049738108,0.207539999999881,
-0.0446279189453127,0.0351468803710937,-0.077284829589841,0.0959161051854178,0.211324999999988,
-0.00153228906250025,0.0112048637695312,-0.0748906279296833,0.0757397057927153,0.215109999999868,
0.000861912597656,-0.00794874951171881,-0.00306457812499694,0.00856254350121843,0.218866999999818,
-0.0589931289062502,0.0135990654296875,-0.0437660063476528,0.0747033275720243,0.222721999999976,
-0.0302627089843752,0.0447236870117187,-0.0365834013671833,0.0652256467241804,0.226515999999947,
-0.018291700683594,-0.0199197578125001,-0.0246123930664037,0.0365671021228372,0.230233999999882,
-0.0206859023437502,-0.00555454785156256,-0.0102471831054647,0.0237437216797913,0.233926999999994,
-0.0661757338867189,-0.00555454785156256,-0.0581312163085901,0.088257119071479,0.237650999999914,
-0.0326569106445315,0.03754108203125,-0.060525417968746,0.0783526188025222,0.241393000000016,
-0.0158974990234377,0.0112048637695312,-0.129957266113278,0.131404605942605,0.245204999999942,
-0.0302627089843752,0.147674358398437,-0.0413718046874969,0.156317541902896,0.248951000000034,
-0.0685699355468752,0.085425115234375,-0.0701022246093714,0.130052328963735,0.252649000000019,
0.0511401474609373,0.0471178886718749,-0.00545877978515286,0.0697510458126931,0.256366999999955,
-0.0901177504882814,0.0710599052734375,-0.0317949980468715,0.119086695274235,0.260119999999915,
-0.027868507324219,0.00162805712890618,-0.077284829589841,0.0821720704085384,0.264105999999856,
0.13254300390625,-0.0582269843750001,-0.0294007963867156,0.147724190375415,0.267989999999827,
0.00804451757812485,-0.0223139594726563,-0.00545877978515286,0.0243397889710429,0.271780000000035,
-0.094906153808594,-0.000766144531250068,-0.0533428129882783,0.108872497471518,0.275517000000036,
0.0319865341796873,-0.0558327827148438,-0.00785298144530877,0.0648236632109883,0.279305999999906,
-0.037445313964844,-0.0103429511718751,-0.0796790312499969,0.0886446625455109,0.283119999999826,
-0.111665565429688,0.0423294853515625,-0.09643844287109,0.153497091491209,0.286875999999893,
0.0631111557617186,-0.00555454785156256,-0.101226846191404,0.119418362797659,0.290644999999813,
-0.176309010253906,-0.0678037910156251,-0.412473062011715,0.453669756605091,0.294500999999855,
0.110995188964844,0.150068560058594,0.329729452636721,0.378895785972229,0.298307000000023,
0.067899559082031,0.157251165039062,0.243538192871098,0.297740038316308,0.302124999999933,
-0.0757525405273439,-0.182725470703125,-0.606403396484371,0.637849609475311,0.305020999999897,
0.118177793945312,0.106972930175781,0.274662814453128,0.317567095926966,0.307951999999887,
-0.185885816894531,0.0950019218749999,-0.149110879394527,0.256540360248247,0.310942999999952,
0.0439575424804686,-0.0701979926757813,0.0376368500976589,0.0909755802504436,0.313887999999906,
0.0200155258789061,-0.0558327827148438,-0.125168862792965,0.138510523480262,0.316879999999855,
-0.0613873305664064,0.0135990654296875,-0.151505081054685,0.164033924905846,0.31980899999985,
-0.0829351455078127,0.0614830986328125,0.0304542451171912,0.107637683101933,0.322740999999951,
0.0152271225585936,0.0327526787109375,0.0184832368164098,0.0405738002578981,0.325759999999946,
-0.0135032973632815,-0.0486501777343751,-0.213754324218746,0.21963626739562,0.32865599999991,
0.0319865341796873,0.0734541069335937,0.0903092866210979,0.120724527103036,0.33168099999989,
-0.0446279189453127,0.0135990654296875,0.035242648437503,0.0584690516328062,0.334609999999884,
0.0295923325195311,0.0135990654296875,-0.0317949980468715,0.0455144221682312,0.337534999999889,
0.0367749374999998,0.03754108203125,-0.098832644531246,0.111935787365996,0.340562999999975,
-0.00153228906250025,0.0159932670898437,-0.038977603027341,0.0421590564379128,0.343497999999954,
-0.0494163222656252,0.01838746875,-0.00545877978515286,0.0530082087042671,0.346513999999843,
-0.0925119521484377,0.0327526787109375,-0.0844674345703087,0.129483384092115,0.349445999999944,
-0.0494163222656252,-0.00316034619140632,-0.0748906279296833,0.0897806596434439,0.352347999999893,
-0.027868507324219,0.027964275390625,0.00651222851562849,0.0400132917771398,0.355446999999913,
-0.0350511123046877,0.0495120903320312,-0.0509486113281223,0.0792198747733618,0.358491999999842,
-0.0661757338867189,0.0303584770507812,-0.177841299316404,0.192167615968027,0.361611999999923,
0.103812583984375,0.0734541069335937,0.131010714843754,0.182582490460603,0.364645999999993,
-0.0757525405273439,-0.0893516059570313,-0.297551382324215,0.319779583473521,0.367612999999892,
0.0655053574218748,0.128520745117187,0.13340491650391,0.196482583258313,0.370574000000033,
-0.121242372070313,-0.0223139594726563,-0.331070205566403,0.353277662167259,0.373454999999922,
0.146908213867187,0.0471178886718749,0.0903092866210979,0.178767687193615,0.37651599999981,
-0.0853293471679689,0.03754108203125,-0.208965920898434,0.228816927750373,0.379451999999901,
0.0415633408203123,0.066271501953125,0.0687614716796912,0.104151635891259,0.382466000000022,
-0.00632069238281274,0.0734541069335937,0.0687614716796912,0.100814666418964,0.385413999999855,
-0.0158974990234377,-0.0510443793945313,-0.0437660063476528,0.0690921301929232,0.38830599999983,
-0.0661757338867189,0.0327526787109375,-0.0437660063476528,0.0858337289753307,0.39132799999993,
-0.0326569106445315,-0.0247081611328125,-0.151505081054685,0.156941889324669,0.394264000000021,
-0.0613873305664064,0.0997903251953124,-0.0868616362304646,0.145847376408659,0.397313999999824,
0.000861912597656,-0.0582269843750001,-0.0198239897460901,0.0615151621324823,0.400277999999844,
-0.0877235488281252,0.0112048637695312,0.0496078583984403,0.101399751508443,0.403227999999899,
-0.0422337172851565,0.0327526787109375,-0.0174297880859342,0.0562158549804679,0.406251999999995,
-0.0230801040039065,0.0327526787109375,-0.0198239897460901,0.0447036881367312,0.409206999999924,
0.0176213242187498,0.00402225878906243,-0.10362104785156,0.105185603534151,0.412242999999989,
0.000861912597656,-0.0199197578125001,-0.201783315917965,0.202765988833147,0.415187999999944,
0.0176213242187498,0.0950019218749999,-0.0557370146484342,0.11154591444372,0.418147999999974,
0.0104387192382811,-0.000766144531250068,-0.0509486113281223,0.0520126410888978,0.421158999999989,
0.0319865341796873,-0.0510443793945313,-0.00545877978515286,0.0604852487251557,0.424092999999857,
0.0104387192382811,0.0543004936523437,-0.0581312163085901,0.0802293511112982,0.427136999999902,
-0.00392649072265649,0.0614830986328125,-0.0365834013671833,0.0716514759267364,0.430081999999857,
-0.0206859023437502,0.0112048637695312,-0.0653138212890596,0.069421544056929,0.433005999999978,
0.0200155258789061,-0.0462559760742188,-0.0341891997070274,0.0609026926777041,0.436013999999886,
-0.255317665039063,0.128520745117187,-0.0629196196289037,0.292683396421324,0.438960999999836,
0.0463517441406248,-0.0534385810546876,-0.0294007963867156,0.0766066117132814,0.441966999999977,
-0.176309010253906,0.00641646044921873,-0.000670376464841027,0.176427003222333,0.444915000000037,
0.144514012207031,-0.0630153876953126,-0.00306457812499694,0.157685225844556,0.447836999999936,
-0.0446279189453127,0.0782425102539062,-0.0461602080078087,0.101214160884464,0.450853999999936,
-0.0518105239257815,0.00402225878906243,-0.127563064453122,0.13774194846851,0.453798000000006,
0.103812583984375,0.0231758720703125,0.135799118164066,0.172498040956616,0.45683699999995,
0.0463517441406248,-0.0654095893554688,-0.0461602080078087,0.0925076395107624,0.45976399999995,
-0.00871489404296899,0.0495120903320312,-0.0820732329101528,0.0962466208630286,0.462775999999849,
-0.0996945571289065,0.0303584770507812,-0.201783315917965,0.227106029054318,0.465710999999828,
-0.106877162109375,0.0399352836914062,-0.175447097656246,0.209282676636331,0.468644999999924,
0.0583227524414061,-0.11568782421875,-0.09643844287109,0.161510338332289,0.471640999999863,
-0.0230801040039065,-0.00794874951171881,0.0328484467773471,0.0409254722063826,0.474587999999812,
-0.0637815322265627,-0.0151313544921876,-0.060525417968746,0.0892208942021301,0.477554999999938,
0.0224097275390623,0.121338140136719,0.0567904633789098,0.135831869864934,0.480528999999933,
-0.0757525405273439,0.0135990654296875,-0.168264492675778,0.185030596043856,0.483435999999983,
-0.00632069238281274,0.0447236870117187,0.150164328125003,0.156810346512448,0.486461999999847,
-0.0757525405273439,-0.0845632026367188,-0.299945583984371,0.320712855975951,0.489382999999862,
0.0367749374999998,0.0231758720703125,0.0376368500976589,0.0574982570137742,0.492456999999831,
0.0200155258789061,0.00641646044921873,-0.122774661132809,0.124560867278538,0.495499999999993,
0.0248039291992186,0.066271501953125,-0.00785298144530877,0.0711956191940435,0.498561999999993,
0.0224097275390623,0.00402225878906243,-0.175447097656246,0.176918225545424,0.501688999999942,
-0.281653883300782,0.691158135253906,0.226778781250003,0.780036597558925,0.504688999999871,
1.39668148046875,0.518775615722656,4.03834782421875,4.30442800459308,0.507732999999917,
1.69356248632812,-0.165966059082031,-2.5145821196289,3.03625128476259,0.510687999999845,
-0.796407240234375,1.03113477099609,-3.39325412890625,3.63478706275817,0.513639999999896,
-0.94005933984375,0.233865618164062,-3.23523681933593,3.37715293804909,0.51670799999988,
-0.875415895019531,-0.702267230957031,0.909126254394534,1.44431395456748,0.519645999999966,
-1.39974605859375,-0.754939667480469,3.09503237011719,3.47971957234452,0.522621999999956,
-0.0757525405273439,0.219500408203125,3.75583202832032,3.76300320243743,0.52559999999994,
-0.612053712402344,-0.491577484863281,-1.0589075102539,1.3181590517696,0.528529999999819,
-0.188280018554688,0.327239482910156,-1.83462884814453,1.87307182323753,0.531574999999975,
-0.166732203613281,0.0447236870117187,-2.5696487578125,2.57544065635941,0.534550999999965,
0.106206785644531,0.130914946777344,-1.08284952685547,1.09589310720424,0.537615999999844,
0.108600987304687,0.0710599052734375,1.13896961376953,1.14634003056307,0.540597999999818,
0.503644261230469,0.0878193168945312,2.38156027539063,2.43581590429344,0.543545999999878,
0.587441319335937,0.351181499511719,1.61541574414063,1.75441835822584,0.546578999999838,
0.501250059570312,0.236259819824219,-0.565701968261715,0.79188953874754,0.549542999999858,
0.096629979003906,0.262596038085937,-2.0165881743164,2.03590812583807,0.552588000000014,
0.0487459458007811,0.157251165039062,-1.64548691699218,1.65370229791538,0.555554999999913,
0.122966197265625,0.0495120903320312,0.193259958007816,0.234353459817001,0.558591999999862,
0.283377708496094,-0.201879083984375,1.35205356152344,1.39610419505533,0.561532999999827,
0.0487459458007811,-0.177937067382813,1.4143028046875,1.42628545197928,0.564472999999907,
-0.224193043457031,-0.19230227734375,-0.144322476074215,0.328742549278781,0.567479999999932,
-0.4612190078125,-0.161177655761719,-1.20974221484375,1.3046752225207,0.570414999999912,
-0.42291178125,-0.139629840820313,-1.13073356005859,1.21528155215585,0.573394000000008,
-0.470795814453125,-0.0965342109375001,-0.642316421386715,0.802208163739901,0.576324999999997,
-0.260106068359375,-0.03907337109375,0.79659877636719,0.838898984166572,0.579244000000017,
-0.0829351455078127,0.00162805712890618,1.04080734570313,1.04410766676623,0.582282999999961,
-0.104482960449219,0.0566946953124999,0.150164328125003,0.191521024804181,0.585252999999966,
-0.018291700683594,0.138097551757812,-0.520212136718747,0.538540794466756,0.588284999999814,
0.0391691391601561,0.26738444140625,-0.730901882812496,0.779260048550888,0.591273999999885,
0.201974852050781,0.162039568359375,-0.522606338378903,0.583239271216224,0.594239000000016,
0.3049255234375,0.123732341796875,0.284239621093754,0.434834945065013,0.597286999999824,
0.3049255234375,0.142885955078125,0.693648104980472,0.77106657594868,0.600271000000021,
0.197186448730469,0.0734541069335937,0.329729452636721,0.391151522206494,0.603313999999955,
0.130148802246094,0.0135990654296875,-0.280791970703122,0.309786662266142,0.60627999999997,
0.0439575424804686,-0.0510443793945313,-0.587249783203122,0.591100754593334,0.609208999999964,
-0.0996945571289065,-0.03907337109375,-0.201783315917965,0.228434322361172,0.612219999999979,
-0.197856825195313,-0.197090680664063,-0.225725332519527,0.35908771271382,0.615145999999868,
-0.130819178710938,-0.165966059082031,0.310575839355472,0.375653753178616,0.618172999999842,
-0.166732203613281,-0.149206647460938,0.348883065917972,0.414465493198888,0.621118000000024,
-0.221798841796875,-0.0917458076171875,-0.0270065947265596,0.241539594262493,0.624031999999943,
-0.188280018554688,-0.0199197578125001,-0.515423733398434,0.549097247387602,0.627025999999887,
-0.176309010253906,-0.0127371528320313,-0.489087515136715,0.520051631688225,0.629961999999978,
-0.0518105239257815,0.085425115234375,0.0567904633789098,0.114921440267086,0.633075999999846,
0.0319865341796873,0.0782425102539062,0.17171214306641,0.191389887026771,0.636160000000018,
0.134937205566406,0.123732341796875,0.260297604492191,0.318233538076964,0.639218999999912,
0.0750821640624998,0.166827971679687,0.0280600434570353,0.185084492958966,0.642327999999907,
0.106206785644531,0.164433770019531,-0.180235500976559,0.266088672911965,0.645295999999917,
0.0726879624023435,0.1333091484375,-0.319099197265622,0.353382465086909,0.648340999999846,
0.118177793945312,0.104578728515625,-0.0198239897460901,0.159046194576225,0.651323999999931,
0.122966197265625,0.0590888969726562,0.348883065917972,0.37460856517135,0.654393999999911,
-0.200251026855469,-0.199484882324219,-0.161081887695309,0.325333777182851,0.657320999999911,
-0.00871489404296899,-0.0462559760742188,0.181288949707035,0.187299887844704,0.66025599999989,
-0.205039430175782,-0.122870429199219,-0.465145498535152,0.522970979219617,0.66323999999986,
-0.0542047255859377,-0.0606211860351563,-0.316704995605466,0.326978798568981,0.666193999999905,
-0.0757525405273439,0.0590888969726562,-0.0461602080078087,0.106586631174441,0.669218999999885,
-0.037445313964844,-0.0701979926757813,-0.0246123930664037,0.0832807276990898,0.672182000000021,
0.113389390625,0.0231758720703125,0.229172982910161,0.256738253963972,0.675186999999823,
-0.0206859023437502,-0.0247081611328125,-0.0629196196289037,0.0706914302909916,0.678199999999833,
0.0750821640624998,0.1333091484375,-0.0653138212890596,0.166356712124335,0.681176999999934,
0.0343807358398436,0.164433770019531,-0.208965920898434,0.268117988610715,0.684238999999934,
0.118177793945312,0.066271501953125,-0.129957266113278,0.187741295320292,0.687220999999909,
0.0559285507812498,0.066271501953125,0.0543962617187539,0.10236634238161,0.690198999999893,
-0.00153228906250025,0.111761333496094,0.190865756347661,0.221184720360066,0.693215999999893,
-0.0685699355468752,0.102184526855469,-0.00306457812499694,0.123097137369895,0.696183999999903,
-0.037445313964844,0.0303584770507812,-0.113197854492183,0.123034722450217,0.699207999999999,
-0.0925119521484377,-0.0318907661132813,-0.256849954101559,0.274858838634634,0.702143999999862,
-0.126030775390625,-0.0318907661132813,-0.060525417968746,0.143401895137915,0.705071999999973,
-0.11645396875,-0.0103429511718751,0.00411802685547258,0.116984877748161,0.708089999999856,
-0.0709641372070314,-0.0989284125976563,0.035242648437503,0.126746928394813,0.711032999999816,
-0.00871489404296899,-0.0558327827148438,0.0879150849609402,0.104509861580391,0.714046999999937,
-0.0973003554687503,-0.256945722167969,-0.398107852050778,0.483713060790432,0.71697099999983,
-0.114059767089844,0.145280156738281,0.0759440766601589,0.199708430443617,0.71993499999985,
0.108600987304687,-0.130053034179688,-0.230513735839841,0.286084862503656,0.722948999999971,
-0.0613873305664064,0.104578728515625,0.0113006318359403,0.121790061548164,0.725922999999966,
0.0535343491210936,0.0303584770507812,0.00411802685547258,0.0616808058462625,0.728967999999895,
0.168456028808594,0.140491753417969,0.119039706542972,0.249571268687431,0.731954999999971,
0.0319865341796873,0.0207816704101562,-0.21136012255859,0.214774573918439,0.734891999999945,
0.087053172363281,0.138097551757812,-0.0317949980468715,0.166313290271143,0.737934999999879,
0.0367749374999998,0.15246276171875,-0.0892558378906223,0.180454687765639,0.740910999999869,
-0.037445313964844,0.1333091484375,-0.0246123930664037,0.140638723285987,0.743939999999839,
-0.0158974990234377,0.118943938476562,0.0998860932617216,0.156133348784319,0.74690099999998,
-0.114059767089844,-0.0654095893554688,-0.153899282714841,0.202417968738902,0.749887999999828,
-0.118848170410156,-0.0318907661132813,-0.0701022246093714,0.141620021424643,0.752818999999818,
-0.00632069238281274,-0.0797747993164063,-0.0485544096679646,0.0936028870087648,0.755736999999954,
-0.0973003554687503,-0.0893516059570313,-0.139534072753904,0.192147927703469,0.758736999999883,
-0.104482960449219,-0.0247081611328125,-0.106015249511715,0.150885437931662,0.761672999999973,
-0.0135032973632815,-0.0486501777343751,-0.0174297880859342,0.053413260020224,0.764648999999963,
0.0894473740234373,-0.00316034619140632,0.0711556733398471,0.114341376396234,0.767619999999852,
-0.0446279189453127,0.0159932670898437,-0.153899282714841,0.161035477338812,0.770567000000028,
0.0511401474609373,0.0447236870117187,-0.0868616362304646,0.110274506169296,0.773702999999841,
0.103812583984375,-0.00316034619140632,-0.137139871093746,0.172030185215187,0.776759999999967,
0.110995188964844,0.0255700737304687,-0.00306457812499694,0.113943636430505,0.779906999999866,
0.0104387192382811,0.0495120903320312,-0.10362104785156,0.115315807703186,0.782911000000013,
-0.0326569106445315,0.11415553515625,0.0280600434570353,0.1220054345448,0.785857999999962,
0.0487459458007811,0.0255700737304687,-0.106015249511715,0.119453878261133,0.788900000000012,
-0.037445313964844,0.0471178886718749,-0.161081887695309,0.171958196996552,0.79185399999983,
-0.0111090957031252,0.027964275390625,0.0160890351562539,0.0341213973588873,0.794944999999871,
-0.284048084960938,0.0590888969726562,-0.0916500395507782,0.304260648236147,0.797998000000007,
0.149302415527344,-0.168360260742188,-0.132351467773434,0.261061869489321,0.8009219999999,
-0.109271363769532,0.145280156738281,-0.113197854492183,0.214150202296394,0.80399599999987,
0.0535343491210936,0.00402225878906243,-0.189812307617185,0.197258250079803,0.806962999999996,
-0.193068421875,0.0686657036132812,-0.108409451171871,0.231825372816257,0.81000199999994,
-0.0135032973632815,-0.0582269843750001,-0.022218191406246,0.0637680858929629,0.812926999999945,
0.0415633408203123,-0.0630153876953126,0.0950976899414098,0.121416724625269,0.815924999999879,
0.0248039291992186,-0.07738059765625,0.0113006318359403,0.0820408195793397,0.818989999999985,
-0.145184388671875,0.0495120903320312,-0.0940442412109341,0.179928522219279,0.821939999999813,
0.0224097275390623,0.0112048637695312,-0.0916500395507782,0.0950130233711567,0.824973,
0.0702937607421873,0.0159932670898437,-0.120380459472653,0.14031554587548,0.827970999999934,
0.206763255371094,-0.580162946289063,-0.948774233886715,1.13115544241531,0.830916999999999,
-0.5378334609375,1.67756921923828,0.91152045605469,1.98352536128125,0.833951999999954,
0.326473338378906,0.183587383300781,0.121433908203128,0.393745300976382,0.836956999999984,
0.137331407226562,0.585813262207031,0.607456845214847,0.855009305438745,0.840034999999943,
0.221128465332031,-0.438905048339844,-0.230513735839841,0.542837012416379,0.842977999999903,
-0.315172706542969,-0.146812445800781,0.147770126464847,0.377787955693488,0.845973999999842,
-0.521074049316407,-0.817188910644531,-0.908072805664059,1.32812352623466,0.848876000000018,
-0.123636573730469,-0.740574457519531,-0.632739614746091,0.981883877840547,0.851795999999922,
0.204369053710937,-0.201879083984375,0.262691806152347,0.389267080145055,0.854838999999856,
-0.157155396972656,0.0471178886718749,0.0208774384765658,0.165389787072453,0.857779999999821,
0.166061827148437,0.00881066210937498,0.449439535644535,0.47921816994252,0.860846999999922,
0.173244432128906,-0.139629840820313,0.0304542451171912,0.22458313996565,0.863873000000012,
-0.0254743056640627,0.0710599052734375,-0.264032559082027,0.274611803537175,0.866832999999815,
-0.121242372070313,0.442161162597656,-0.24966734912109,0.522053629153269,0.869852000000037,
-0.0206859023437502,0.499622002441406,-0.110803652832027,0.512179169197905,0.8727879999999,
0.113389390625,0.169222173339844,-0.297551382324215,0.360596898183027,0.875815999999986,
0.206763255371094,0.339210491210937,0.468593148925784,0.614324295742403,0.878815000000031,
-0.219404640136719,0.281749651367187,-0.0437660063476528,0.359773158352145,0.881759999999986,
-0.128424977050781,0.296114861328125,0.0711556733398471,0.330514925046231,0.88484799999992,
-0.0877235488281252,-0.0223139594726563,-0.36458902880859,0.375657415385266,0.887842999999975,
0.0415633408203123,-0.086957404296875,-0.228119534179685,0.247644146582454,0.890932000000021,
-0.161943800292969,-0.132447235839844,-0.0677080229492155,0.219891885040435,0.893904999999904,
-0.188280018554688,-0.144418244140625,0.0184832368164098,0.238007614732861,0.89688000000001,
-0.123636573730469,-0.252157318847656,-0.0437660063476528,0.284226633382361,0.899910999999975,
0.115783592285156,-0.302435553710938,-0.127563064453122,0.348059534855128,0.902944999999818,
0.0415633408203123,-0.221032697265625,-0.161081887695309,0.276641173913333,0.906003999999939,
-0.0637815322265627,-0.0749863959960938,-0.129957266113278,0.163033537817495,0.908921999999848,
0.0798705673828123,-0.0438617744140625,-0.0246123930664037,0.0943871425632624,0.911875000000009,
0.17085023046875,-0.0438617744140625,0.052002060058598,0.183896358735873,0.914982000000009,
0.130148802246094,0.0734541069335937,0.0184832368164098,0.150585014509134,0.917995999999903,
-0.027868507324219,0.214712004882812,-0.0150355864257783,0.217034484818528,0.921006000000034,
-0.0446279189453127,0.262596038085937,-0.0844674345703087,0.279433494539774,0.923941000000013,
-0.0135032973632815,0.231471416503906,-0.0437660063476528,0.235959358809158,0.926876999999877,
-0.094906153808594,0.176404778320312,0.0113006318359403,0.200632819161947,0.929962999999816,
-0.13560758203125,0.188375786621094,-0.00545877978515286,0.232173752965793,0.932927999999947,
-0.183491615234375,0.154856963378906,-0.0198239897460901,0.240920822133972,0.936087999999927,
-0.0853293471679689,0.0303584770507812,-0.0126413847656224,0.0914469202638726,0.939069999999901,
-0.0973003554687503,-0.0582269843750001,-0.0892558378906223,0.144306429105944,0.942112999999836,
-0.114059767089844,0.0734541069335937,0.116645504882817,0.178917048107128,0.945101999999906,
-0.094906153808594,-0.359896393554688,-0.369377432128903,0.52437799295027,0.948069999999916,
-0.0158974990234377,-0.113293622558594,0.131010714843754,0.173930971340704,0.951139000000012,
0.120571995605469,-0.304829755371094,-0.175447097656246,0.371807033230796,0.95412999999985,
0.0319865341796873,0.085425115234375,0.0256658417968776,0.0947592956747616,0.95722899999987,
0.096629979003906,0.00881066210937498,-0.13474566943359,0.166046306915292,0.960244999999986,
0.0702937607421873,0.0543004936523437,-0.0557370146484342,0.104863583822449,0.963230999999951,
0.118177793945312,-0.0175255561523438,-0.0557370146484342,0.131832283231951,0.966261999999915,
0.0319865341796873,0.128520745117187,0.128616513183598,0.184615621651614,0.969286000000011,
-0.0565989272460939,0.116549736816406,-0.0174297880859342,0.130732846791091,0.972328999999945,
-0.0494163222656252,0.0997903251953124,-0.0581312163085901,0.125615764211195,0.975308999999925,
-0.0996945571289065,0.0686657036132812,-0.0748906279296833,0.142346723620665,0.978321999999935,
-0.166732203613281,0.0303584770507812,-0.117986257812497,0.206499447658294,0.98137399999996,
-0.118848170410156,0.0447236870117187,0.00172382519531666,0.126996328147974,0.984342999999853,
-0.145184388671875,0.0255700737304687,-0.0748906279296833,0.165350964727485,0.98738400000002,
-0.114059767089844,0.0351468803710937,-0.077284829589841,0.142189586655072,0.990364999999883,
-0.0613873305664064,-0.0438617744140625,-0.0748906279296833,0.106305530244299,0.993298999999979,
0.00325611425781225,0.0686657036132812,-0.060525417968746,0.0915909785571609,0.996345999999903,
0.0487459458007811,-0.029496564453125,-0.0724964262695273,0.0922059996334461,0.999319999999898,
0.0798705673828123,-0.0151313544921876,-0.0844674345703087,0.117230597224914,1.00242299999991,
0.0990241806640623,-0.0965342109375001,-0.151505081054685,0.20513028012193,1.00544300000001,
0.113389390625,0.0112048637695312,-0.000670376464841027,0.113943636430505,1.00844699999993,
0.0846589707031248,0.0327526787109375,-0.0485544096679646,0.102943722399469,1.01154199999996,
-0.00392649072265649,-0.110899420898438,-0.225725332519527,0.251527383451693,1.01448099999993,
