X,Y,Z,Magnitude,Seconds,
0.0140779057617187,-0.0232237561035156,0.0403183559570301,0.0486117280629809,0.0,
0.0236547124023437,-0.0304063610839844,0.00679953271484379,0.0391193795751858,0.00405599999976403,
0.0116837041015625,0.00550666381835938,-0.0267192905273443,0.0296774792431219,0.00812899999982619,
-0.00268150585937499,0.00550666381835938,-0.0243250888671884,0.0250843331280484,0.0121469999999135,
-0.0170467158203125,-0.00407014282226563,-0.0865743320312511,0.0883304678438275,0.0162229999996271,
-0.03141192578125,-0.0136469494628906,0.0211647426757811,0.0402603358587764,0.0201669999996739,
0.00450109912109375,0.00790086547851562,0.0115879360351556,0.0147296921272092,0.0241759999998976,
0.0116837041015625,-0.0112527478027344,-0.0195366855468748,0.0253932147788003,0.0281469999999899,
0.00928950244140625,0.00311246215820311,0.0283473476562488,0.0299925723378201,0.0321669999998448,
-0.00986411083984373,-0.00167594116210938,-0.050661307128907,0.0516398828566547,0.0360699999996541,
0.0116837041015625,-0.00407014282226563,0.0139821376953115,0.0186701681475331,0.040215999999873,
0.0284431157226562,-0.00167594116210938,-0.0171424838867189,0.033251832499844,0.0441769999997632,
0.00689530078125,0.0342370837402344,0.0139821376953115,0.0376194530852108,0.0482619999997951,
0.0284431157226562,-0.00407014282226563,-0.0458729038085934,0.0541285525248784,0.0521420000000035,
0.00210689746093751,0.00550666381835938,0.00440533105468788,0.00735997996062018,0.0560519999999087,
0.0571735356445313,0.0150834704589844,0.0307415493164065,0.0666435826884825,0.0598889999996572,
0.0284431157226562,-0.00407014282226563,0.00201112939453019,0.0288031514950638,0.0637619999997696,
-0.000287304199218741,-0.00167594116210938,0.0211647426757811,0.0212329379741422,0.0678369999995994,
0.0284431157226562,-0.00407014282226563,0.0618661708984369,0.0682129019778565,0.0717489999997269,
0.0332315190429687,0.0294486804199219,0.0475009609374997,0.0650223032994353,0.0756679999999506,
0.0212605107421875,-0.00167594116210938,-0.0602381137695325,0.063901865749825,0.079555999999684,
0.0308373173828125,0.000718260498046866,-0.0291134921875003,0.0424152268514858,0.0834169999998267,
0.0140779057617187,-0.00167594116210938,-0.00756567724609347,0.0160697131774884,0.0872839999997268,
0.00689530078125,-0.0184353527832031,-0.00277727392578164,0.0198776421027216,0.0911729999997988,
-0.000287304199218741,0.0246602770996094,0.00919373437499971,0.0263198890972295,0.0950579999998808,
0.0188663090820312,0.0342370837402344,-0.00517147558593756,0.0394317090822919,0.0989379999996345,
0.0308373173828125,-0.0136469494628906,0.0163763393554675,0.0374881829873953,0.102805999999873,
0.0404141240234375,-0.0208295544433594,0.0259531459960929,0.052352053885069,0.10665199999994,
0.0116837041015625,-0.0232237561035156,0.0618661708984369,0.0671064444798192,0.110576999999921,
0.00928950244140625,-0.0399831677246094,0.0307415493164065,0.0512834418821143,0.114760999999817,
0.0308373173828125,0.0102950671386719,-0.0171424838867189,0.0367531400640066,0.118675999999596,
0.0212605107421875,0.0246602770996094,0.00919373437499971,0.0338328735907289,0.122670999999627,
-0.00268150585937499,-0.0280121594238281,-0.0267192905273443,0.0388045362753436,0.126530999999886,
-0.000287304199218741,-0.0160411511230469,-0.0123540805664071,0.0202490587360646,0.130367999999635,
-0.0242293208007812,-0.00885854614257814,0.00919373437499971,0.0273871973371758,0.134184999999889,
0.0116837041015625,-0.0280121594238281,-0.050661307128907,0.0590572439005435,0.138145999999779,
-0.0242293208007812,-0.0208295544433594,-0.0291134921875003,0.0432264473688005,0.142204999999649,
0.0116837041015625,-0.00885854614257814,0.0187705410156251,0.0238183960692638,0.146104999999807,
-0.00268150585937499,-0.0471657727050781,-0.0626323154296884,0.0784513067107549,0.150057999999717,
-0.00507570751953124,-0.0232237561035156,0.0618661708984369,0.0662761552597464,0.153967999999622,
-0.000287304199218741,0.0174776721191406,0.0451067592773438,0.048375317041972,0.157952999999907,
0.0260489140625,0.0126892687988281,0.0211647426757811,0.0358818867817239,0.161905999999817,
0.00928950244140625,0.0150834704589844,0.0115879360351556,0.0211680466328569,0.165869999999813,
0.00450109912109375,0.0390254870605469,-0.0769975253906257,0.086439964425553,0.169755999999779,
0.0260489140625,-0.0112527478027344,-0.0602381137695325,0.0665867900372033,0.173756999999569,
-0.021835119140625,-0.00885854614257814,0.0618661708984369,0.0662017323737082,0.177694999999858,
0.00450109912109375,-0.0208295544433594,0.0259531459960929,0.0335811854868362,0.181584999999814,
0.0236547124023437,0.0270544787597656,-0.000383072265625728,0.0359393514710671,0.185573999999633,
-0.00268150585937499,-0.0136469494628906,0.0307415493164065,0.0337412589819883,0.18962799999963,
0.0499909306640626,-0.0328005627441406,0.0139821376953115,0.0614041549043879,0.193737999999939,
0.0188663090820312,0.00790086547851562,0.0307415493164065,0.0369243029461815,0.197636999999759,
0.00928950244140625,-0.0112527478027344,-0.0123540805664071,0.0191191656554912,0.201536999999917,
0.00928950244140625,-0.00407014282226563,-0.000383072265625728,0.010149269065466,0.205333999999766,
0.00450109912109375,0.00790086547851562,-0.050661307128907,0.0514708811719496,0.209188999999697,
0.016472107421875,-0.0399831677246094,-0.0123540805664071,0.0449734069295769,0.213117999999668,
-0.0194409174804687,-0.00167594116210938,0.0163763393554675,0.0254743506678125,0.217047999999977,
0.0523851323242188,-0.0232237561035156,0.0307415493164065,0.0650275925323593,0.220945999999913,
-0.0170467158203125,-0.0280121594238281,0.0786255825195301,0.0851895170920689,0.224811999999929,
0.0116837041015625,-0.0232237561035156,-0.00277727392578164,0.0261450767745531,0.228665999999976,
0.0452025273437501,0.0150834704589844,0.00679953271484379,0.048135363346398,0.232520999999906,
0.0260489140625,-0.0399831677246094,0.00440533105468788,0.0479229231874596,0.236316999999872,
0.0308373173828125,-0.00407014282226563,-0.0339018955078121,0.046009180877131,0.240163999999822,
0.0547793339843751,-0.0136469494628906,0.00919373437499971,0.0571973724324156,0.244006999999783,
-0.00268150585937499,0.0294486804199219,-0.053055508789063,0.0607396268099738,0.24784899999986,
-0.0266235224609375,-0.0232237561035156,-0.0267192905273443,0.0442953189633877,0.251607999999578,
0.0188663090820312,-0.0304063610839844,-0.014748282226563,0.0387039564047751,0.255435999999918,
0.00210689746093751,-0.0375889660644531,0.0163763393554675,0.0410554975294533,0.259420999999747,
0.00450109912109375,-0.0184353527832031,-0.0123540805664071,0.0226438828865622,0.26329799999985,
0.0499909306640626,-0.00167594116210938,-0.00756567724609347,0.0505879570612416,0.267448999999942,
0.0140779057617187,-0.0136469494628906,-0.00517147558593756,0.0202773474600223,0.271383999999671,
-0.00507570751953124,-0.0447715710449219,-0.0195366855468748,0.049111490130231,0.275290999999925,
0.0404141240234375,0.0198718737792969,-0.110516348632814,0.119340085902482,0.279201999999714,
0.00450109912109375,0.0150834704589844,-0.00277727392578164,0.0159838738997713,0.283218999999917,
-0.00986411083984373,-0.0112527478027344,-0.00277727392578164,0.0152196670867497,0.287229999999909,
-0.00507570751953124,-0.00646434448242188,-0.0386902988281257,0.0395536316894025,0.291247999999996,
-0.00268150585937499,0.0174776721191406,-0.014748282226563,0.0230254495072822,0.295264999999745,
-0.00268150585937499,-0.0256179577636719,-0.0865743320312511,0.090324886937723,0.299202999999579,
-0.00507570751953124,0.000718260498046866,0.0355299526367183,0.0358978584226737,0.303153999999722,
0.00450109912109375,0.000718260498046866,-0.0482671054687511,0.048481844661404,0.307105999999749,
0.0475967290039063,-0.133357032470703,-0.505559622558595,0.525014360453933,0.311013999999886,
-0.0433829340820312,0.189860191650391,-0.349936514648437,0.400480381076757,0.314930000000004,
-0.00986411083984373,-0.442209046630859,0.696329610839843,0.824937008829887,0.317930999999589,
0.143364795410156,-0.0663193859863281,-0.297264078125,0.336626881968903,0.320913999999902,
0.00210689746093751,0.352665904541016,-0.1057279453125,0.368179409612551,0.324101999999584,
-0.0362003291015625,-0.0950498059082031,0.140874825683593,0.173754556606816,0.32712199999969,
0.0619619389648438,-0.279403333740234,0.00440533105468788,0.28622528142556,0.330189999999675,
0.0691445439453125,-0.0351947644042969,0.0810197841796878,0.112177737663952,0.333200999999917,
0.0140779057617187,0.228167418212891,-0.0267192905273443,0.230157508352121,0.336185999999998,
-0.00507570751953124,0.0797269152832031,0.0163763393554675,0.081549545173988,0.339314999999715,
-0.0385945307617187,-0.147722242431641,-0.0123540805664071,0.153179704988588,0.342313999999988,
-0.0481713374023437,-0.0854729992675781,0.0642603725585928,0.117283872856821,0.345434999999725,
0.093086560546875,0.108457335205078,0.00201112939453019,0.142941057627524,0.348462999999811,
0.0547793339843751,0.113245738525391,0.0403183559570301,0.132102015703814,0.3514839999998,
0.00450109912109375,-0.0495599743652344,0.0427125576171878,0.0655805880621864,0.354544999999689,
-0.0745075556640625,-0.128568629150391,-0.050661307128907,0.156996293881905,0.357545999999729,
0.016472107421875,0.0390254870605469,-0.0219308872070325,0.0476999242862951,0.360678000000007,
0.1026633671875,0.0677559069824219,-0.00995987890625116,0.123409193665275,0.363765999999941,
-0.000287304199218741,0.0294486804199219,-0.0243250888671884,0.0381970845821274,0.366710999999668,
-0.0960553706054688,-0.0232237561035156,-0.0291134921875003,0.103022194196499,0.369726999999784,
-0.03141192578125,-0.104626612548828,-0.0123540805664071,0.109936620110729,0.372726999999941,
0.126605383789062,0.0462080920410156,0.00679953271484379,0.134945709896932,0.375830999999835,
0.0284431157226562,0.0533906970214844,0.0475009609374997,0.0769150092663209,0.378832999999759,
-0.0385945307617187,-0.0399831677246094,-0.0386902988281257,0.0677135933873042,0.381812999999966,
-0.0529597407226562,-0.0902614025878906,-0.0554497104492189,0.118433632568821,0.384748999999829,
0.0547793339843751,-0.0184353527832031,-0.0219308872070325,0.0618191028542185,0.387719999999717,
0.0380199223632812,0.110851536865234,-0.0961511386718747,0.151587002047644,0.390755999999783,
0.0332315190429687,-0.0351947644042969,-0.0195366855468748,0.0521985381168345,0.393762999999581,
0.0308373173828125,-0.123780225830078,-0.0315076938476562,0.13139718117795,0.396905999999944,
0.00928950244140625,0.0174776721191406,-0.0171424838867189,0.0261845113019032,0.399899999999889,
0.0116837041015625,0.0749385119628906,0.00201112939453019,0.0758705091467476,0.402924999999868,
0.00210689746093751,-0.0232237561035156,-0.0195366855468748,0.0304214389308585,0.405950999999732,
-0.000287304199218741,-0.0998382092285157,-0.0195366855468748,0.10173216132481,0.408914999999979,
0.0308373173828125,-0.00407014282226563,0.0403183559570301,0.0509222547913949,0.411979999999858,
0.0140779057617187,0.0749385119628906,0.0307415493164065,0.0822132036854251,0.415003999999954,
0.0619619389648438,-0.00407014282226563,0.023558944335937,0.0664143945323636,0.417992999999569,
-0.00268150585937499,-0.0543483776855469,0.0115879360351556,0.0556346734714923,0.421052999999574,
0.0308373173828125,-0.0112527478027344,-0.0291134921875003,0.0438766441724056,0.42400299999963,
0.0452025273437501,0.0198718737792969,-0.0410845004882816,0.0642346948785031,0.427084999999806,
0.00689530078125,0.0126892687988281,0.0379241542968742,0.0405808353123238,0.430089999999836,
-0.0146525141601562,0.000718260498046866,0.00201112939453019,0.0148073195007799,0.43301799999972,
-0.0146525141601562,-0.0351947644042969,-0.014748282226563,0.0408763922248759,0.436059999999998,
0.0428083256835937,0.0366312854003906,0.0331357509765624,0.065363459292622,0.439080999999987,
0.0116837041015625,0.0462080920410156,0.0355299526367183,0.0594480802547171,0.442148999999972,
-0.021835119140625,-0.0208295544433594,0.0187705410156251,0.0355383732916045,0.445078999999623,
-0.0170467158203125,-0.0447715710449219,-0.0674207187500002,0.0827081459764128,0.448003999999855,
0.0595677373046876,0.000718260498046866,0.00679953271484379,0.0599588598197427,0.45107999999982,
0.0404141240234375,0.0581791003417969,-0.00517147558593756,0.0710271307100224,0.454059999999572,
0.00450109912109375,0.0174776721191406,0.0307415493164065,0.0356478859173324,0.45710999999983,
-0.000287304199218741,-0.0304063610839844,0.0355299526367183,0.0467654452821736,0.460076999999728,
0.0380199223632812,-0.0256179577636719,0.0187705410156251,0.0495391508456743,0.463086999999632,
0.016472107421875,0.0509964953613281,0.0331357509765624,0.0630075460150331,0.466173999999683,
0.0308373173828125,0.0222660754394531,-0.0339018955078121,0.050951513989933,0.46914199999992,
0.0116837041015625,-0.00167594116210938,0.0475009609374997,0.0489454697627634,0.472206999999798,
-0.021835119140625,0.00790086547851562,-0.00756567724609347,0.0244220305336584,0.47514000000001,
0.0332315190429687,0.0126892687988281,-0.014748282226563,0.0385079631918706,0.478218999999626,
0.0188663090820312,0.0342370837402344,-0.00517147558593756,0.0394317090822919,0.481232999999975,
-0.000287304199218741,-0.0304063610839844,0.00440533105468788,0.0307251733888342,0.484215999999833,
-0.000287304199218741,-0.0280121594238281,0.0211647426757811,0.0351099694078602,0.487295999999787,
0.0380199223632812,0.0198718737792969,0.0331357509765624,0.0542068617131724,0.490340999999717,
0.0284431157226562,-0.00407014282226563,0.0115879360351556,0.0309815615513633,0.493412999999691,
-0.03141192578125,-0.0328005627441406,-0.0267192905273443,0.052692565736579,0.496397999999772,
-0.00268150585937499,0.0294486804199219,0.0163763393554675,0.0338023629770758,0.499369999999999,
0.0188663090820312,0.0102950671386719,-0.0243250888671884,0.0324597593054094,0.502530999999635,
0.0308373173828125,0.00311246215820311,-0.0123540805664071,0.0333654142892881,0.505557999999837,
0.0188663090820312,-0.0184353527832031,0.00679953271484379,0.0272402917708332,0.508616999999958,
0.00210689746093751,-0.0328005627441406,0.0355299526367183,0.048401378777992,0.511603999999807,
0.0260489140625,-0.00646434448242188,-0.0195366855468748,0.0331966226532217,0.514597999999751,
0.0404141240234375,0.0174776721191406,-0.0315076938476562,0.0541433764636414,0.51771699999972,
-0.00507570751953124,-0.0447715710449219,0.0379241542968742,0.058893954356856,0.520670999999766,
0.0212605107421875,-0.0232237561035156,0.0427125576171878,0.0530633088185786,0.523709999999937,
0.0188663090820312,0.0653617053222656,-0.050661307128907,0.0848213309316876,0.52666999999974,
-0.0170467158203125,0.0294486804199219,-0.00277727392578164,0.0341398381541566,0.529656999999588,
0.0236547124023437,-0.00167594116210938,0.0403183559570301,0.0467752501296811,0.532716999999593,
0.0260489140625,0.0174776721191406,-0.0243250888671884,0.039695401433117,0.535797999999886,
0.0308373173828125,0.0126892687988281,-0.00517147558593756,0.0337446565511218,0.538891999999578,
0.00450109912109375,0.0342370837402344,0.023558944335937,0.0418026512862224,0.541924999999992,
-0.0194409174804687,-0.0232237561035156,-0.0195366855468748,0.036041284691246,0.544864999999845,
0.0404141240234375,-0.0711077893066406,-0.014748282226563,0.0831091508156216,0.547938999999587,
0.035625720703125,-0.00885854614257814,-0.014748282226563,0.0395623260692746,0.55094199999985,
0.0140779057617187,0.0222660754394531,0.023558944335937,0.0353410441885215,0.554024999999911,
0.0188663090820312,0.0126892687988281,0.00919373437499971,0.0245250874164741,0.557062999999744,
0.0284431157226562,-0.0184353527832031,0.023558944335937,0.0412782863316459,0.5600629999999,
-0.00507570751953124,0.00550666381835938,0.00201112939453019,0.00775440485619609,0.563122999999905,
0.016472107421875,0.0390254870605469,0.0211647426757811,0.0473525637718036,0.56608899999992,
0.0116837041015625,-0.0160411511230469,-0.00277727392578164,0.0200384810138923,0.569164000000001,
0.016472107421875,-0.0160411511230469,-0.0195366855468748,0.0301716909441232,0.572113999999601,
0.0140779057617187,0.0294486804199219,0.0115879360351556,0.03463657706335,0.575178999999935,
0.00928950244140625,0.0102950671386719,-0.014748282226563,0.0202433962474929,0.578215999999884,
0.0188663090820312,0.0294486804199219,-0.0434787021484375,0.0557992825882732,0.581196999999975,
0.0188663090820312,-0.0375889660644531,-0.0123540805664071,0.0438348182933912,0.584250999999767,
-0.000287304199218741,0.0294486804199219,-0.0123540805664071,0.0319363527789079,0.587193999999727,
-0.00268150585937499,-0.00646434448242188,-0.0339018955078121,0.0346167118930133,0.59020799999962,
0.0188663090820312,0.000718260498046866,0.0307415493164065,0.0360762577174357,0.593243999999686,
-0.00268150585937499,-0.00407014282226563,-0.0698149204101561,0.0699848529908004,0.596150999999736,
0.0140779057617187,-0.0495599743652344,-0.00995987890625116,0.052474543138037,0.599220999999943,
0.0260489140625,0.0414196887207031,-0.000383072265625728,0.0489314140600509,0.60224799999969,
0.0260489140625,0.0174776721191406,-0.0219308872070325,0.0382750409565722,0.605383999999958,
0.00210689746093751,-0.00885854614257814,0.0283473476562488,0.0297738975583534,0.608381999999892,
0.0236547124023437,-0.0399831677246094,-0.00517147558593756,0.0467433768556337,0.611346999999569,
0.00450109912109375,0.00311246215820311,-0.0243250888671884,0.0249330556166061,0.614434999999958,
0.00689530078125,0.0294486804199219,-0.0243250888671884,0.0388133984563992,0.617400999999973,
0.016472107421875,0.00790086547851562,-0.00995987890625116,0.0208075271489568,0.62051799999972,
0.016472107421875,0.0246602770996094,0.0331357509765624,0.0444683885735481,0.623539999999593,
0.0236547124023437,-0.00167594116210938,-0.00756567724609347,0.0248916385521023,0.626573999999891,
0.0188663090820312,0.0150834704589844,-0.0291134921875003,0.0378291438816348,0.629695999999967,
0.0260489140625,0.00550666381835938,0.0307415493164065,0.0406683184385215,0.6327339999998,
0.0260489140625,-0.0208295544433594,-0.00756567724609347,0.0342002300333848,0.635801999999785,
0.0428083256835937,-0.0112527478027344,-0.000383072265625728,0.0442642499688548,0.638776999999664,
0.035625720703125,-0.0160411511230469,-0.0219308872070325,0.0448048470442326,0.641801999999643,
0.0452025273437501,0.0102950671386719,0.0115879360351556,0.0477863698894056,0.645005999999739,
-0.000287304199218741,0.0102950671386719,-0.00517147558593756,0.0115245438447081,0.647953999999572,
0.0212605107421875,-0.00646434448242188,0.0427125576171878,0.0481472703775373,0.651048999999603,
0.0116837041015625,0.0342370837402344,-0.0243250888671884,0.0435935407252646,0.654066999999941,
0.00689530078125,0.0102950671386719,-0.0650265170898443,0.0661965369569246,0.657088999999814,
-0.0266235224609375,0.000718260498046866,-0.0267192905273443,0.0377259636411812,0.660161999999673,
-0.0170467158203125,0.00550666381835938,0.0259531459960929,0.0315353714701672,0.66312199999993,
0.0116837041015625,-0.0208295544433594,-0.0243250888671884,0.034089429860858,0.666151999999784,
-0.00986411083984373,0.0102950671386719,0.0283473476562488,0.031731076395148,0.66916399999991,
-0.0242293208007812,0.00550666381835938,0.023558944335937,0.0342404321102899,0.672159999999622,
0.00450109912109375,-0.0160411511230469,-0.0195366855468748,0.0256760687179289,0.675186999999823,
-0.0170467158203125,-0.0232237561035156,-0.0315076938476562,0.0426927176390974,0.678205999999591,
0.0212605107421875,-0.0184353527832031,0.0666545742187488,0.0723512530198511,0.681276999999682,
0.0404141240234375,0.0102950671386719,-0.00517147558593756,0.0420242071633421,0.684290999999575,
0.0260489140625,-0.0615309826660156,0.00440533105468788,0.0669627858842687,0.687316999999894,
0.0332315190429687,-0.00407014282226563,0.0379241542968742,0.050587957061241,0.690314999999828,
0.0499909306640626,-0.0184353527832031,0.00919373437499971,0.0540692161276481,0.693272999999863,
0.0380199223632812,-0.00407014282226563,-0.0123540805664071,0.0401833779782742,0.696348999999827,
0.0308373173828125,0.00311246215820311,-0.0339018955078121,0.0459343671239429,0.699357999999847,
-0.0122583125,0.0198718737792969,-0.0434787021484375,0.0493513437847492,0.702428999999938,
0.00928950244140625,0.0126892687988281,-0.0243250888671884,0.0289658824594456,0.705401999999594,
0.0116837041015625,-0.00646434448242188,-0.0195366855468748,0.0236638706317828,0.708353999999872,
0.0236547124023437,0.0294486804199219,0.0379241542968742,0.0535258038374522,0.711445999999796,
0.0116837041015625,0.0701501086425781,0.0139821376953115,0.0724779060033403,0.714389999999639,
0.00689530078125,-0.00885854614257814,0.0163763393554675,0.019854558753836,0.717481999999563,
-0.00268150585937499,0.0246602770996094,-0.00277727392578164,0.0249606288134375,0.720445999999811,
0.0332315190429687,0.0174776721191406,0.0115879360351556,0.0392948233506939,0.723418999999922,
0.0236547124023437,-0.0471657727050781,-0.0123540805664071,0.0541920551404536,0.726450999999997,
0.00450109912109375,0.00550666381835938,0.0211647426757811,0.0223277758014175,0.729423999999653,
0.0116837041015625,0.0150834704589844,0.0498951625976556,0.0534186041868038,0.732483999999658,
0.0380199223632812,0.000718260498046866,0.0115879360351556,0.0397531213391835,0.735458999999992,
-0.0146525141601562,0.0318428820800781,-0.00756567724609347,0.0358595145334038,0.738382000000001,
0.0212605107421875,-0.0136469494628906,0.00201112939453019,0.0253435038639669,0.741465999999946,
0.0188663090820312,0.00311246215820311,0.0522893642578115,0.0556758713766662,0.74446799999987,
-0.0170467158203125,-0.0304063610839844,0.00919373437499971,0.0360508261540035,0.747530999999981,
0.016472107421875,0.0270544787597656,-0.00517147558593756,0.0320939138095737,0.750512999999955,
0.0332315190429687,0.000718260498046866,-0.0267192905273443,0.0426470425977099,0.753483999999844,
0.00210689746093751,0.0222660754394531,0.00201112939453019,0.0224557737303319,0.756532999999763,
-0.000287304199218741,-0.00646434448242188,-0.0195366855468748,0.0205803881267525,0.759493999999904,
0.00210689746093751,0.0462080920410156,0.00919373437499971,0.0471609111313588,0.762582999999722,
-0.00507570751953124,-0.0495599743652344,0.0570777675781251,0.0757616355262278,0.765562999999929,
0.0308373173828125,-0.0375889660644531,-0.00277727392578164,0.048698909265216,0.768629999999575,
0.0116837041015625,-0.0112527478027344,-0.0386902988281257,0.0419532179701924,0.771655999999894,
-0.000287304199218741,0.00790086547851562,-0.0602381137695325,0.0607547246683221,0.774653999999828,
-0.00986411083984373,0.0198718737792969,0.0427125576171878,0.048130599709152,0.777746999999636,
0.0236547124023437,0.0294486804199219,-0.053055508789063,0.0651280063427295,0.780733999999939,
-0.0122583125,0.00550666381835938,0.00919373437499971,0.0162823316362902,0.7838399999996,
0.00210689746093751,0.0150834704589844,-0.053055508789063,0.0551981622054964,0.786886999999751,
0.00928950244140625,0.00790086547851562,0.0834139858398437,0.0843007210206896,0.789858999999979,
-0.00507570751953124,-0.0232237561035156,-0.00517147558593756,0.0243279636245074,0.792883999999958,
-0.00746990917968748,0.0102950671386719,0.0379241542968742,0.0400003678692542,0.795903999999609,
0.0380199223632812,0.0270544787597656,0.0139821376953115,0.0487130320551205,0.799038999999993,
0.00928950244140625,0.0294486804199219,0.0355299526367183,0.0470733169476194,0.802005999999892,
0.00450109912109375,-0.0112527478027344,0.0355299526367183,0.0375401353324319,0.804954999999609,
0.016472107421875,-0.0136469494628906,0.0115879360351556,0.0243279636245071,0.808008999999856,
0.0284431157226562,-0.0112527478027344,0.0211647426757811,0.0371965253438595,0.811001999999917,
0.0308373173828125,-0.00407014282226563,0.023558944335937,0.0390196112767122,0.814050999999836,
0.016472107421875,0.00311246215820311,0.0283473476562488,0.0329331119505623,0.817107999999735,
-0.0170467158203125,-0.0136469494628906,0.023558944335937,0.032122478237598,0.820113999999649,
0.0308373173828125,-0.0160411511230469,0.0666545742187488,0.0751737383466023,0.823205999999573,
0.0116837041015625,0.00790086547851562,0.0355299526367183,0.0382270866168207,0.826211999999941,
0.0188663090820312,0.00550666381835938,0.0451067592773438,0.0492024460498805,0.829309999999623,
-0.0170467158203125,0.00790086547851562,-0.0123540805664071,0.0224863848185823,0.832259999999678,
0.0236547124023437,0.0462080920410156,-0.0362960971679698,0.0633414545028394,0.835235999999895,
0.00928950244140625,0.0390254870605469,-0.0410845004882816,0.0574214217543716,0.838342000000011,
0.0452025273437501,-0.0112527478027344,-0.000383072265625728,0.0465836833637606,0.84132899999986,
-0.0146525141601562,-0.0256179577636719,0.0283473476562488,0.040921242042967,0.844391999999971,
-0.00746990917968748,-0.00646434448242188,-0.0195366855468748,0.0218922217898884,0.847310999999991,
0.00689530078125,-0.0136469494628906,0.0379241542968742,0.0408904130773917,0.850310999999692,
0.0452025273437501,0.000718260498046866,0.0570777675781251,0.0728124709655427,0.853371999999581,
0.00210689746093751,-0.0208295544433594,-0.00756567724609347,0.0222609260232326,0.856316999999763,
0.0428083256835937,-0.00885854614257814,0.0786255825195301,0.0899611516940966,0.859422999999879,
0.0260489140625,0.0390254870605469,-0.0291134921875003,0.055218927837292,0.862402999999631,
-0.00268150585937499,0.0174776721191406,0.0810197841796878,0.0829268649166314,0.865446999999676,
-0.0290177241210937,-0.00167594116210938,0.0451067592773438,0.0536605704819749,0.868390999999974,
0.0284431157226562,0.0438138903808594,-0.00277727392578164,0.0523104298661099,0.87138799999957,
-0.00986411083984373,-0.0112527478027344,-0.0315076938476562,0.0348806506156393,0.874448999999913,
0.00450109912109375,0.000718260498046866,0.0331357509765624,0.0334477769698036,0.877414999999928,
0.00689530078125,-0.0495599743652344,0.0570777675781251,0.0759052553098207,0.880430999999589,
0.0404141240234375,-0.0304063610839844,0.00440533105468788,0.0507666736811939,0.883461999999781,
0.0284431157226562,0.0150834704589844,-0.00756567724609347,0.0330720635172879,0.886493999999857,
0.016472107421875,-0.00407014282226563,0.0139821376953115,0.0219862811780911,0.889589999999771,
0.00928950244140625,0.0198718737792969,-0.0243250888671884,0.0327550938253245,0.892585999999937,
0.00689530078125,-0.0136469494628906,-0.088968533691407,0.0902728330656883,0.895654999999806,
0.0188663090820312,-0.0280121594238281,-0.014748282226563,0.0368528224509203,0.898596999999882,
0.00689530078125,-0.0136469494628906,-0.00995987890625116,0.0182478379632707,0.901610999999775,
0.016472107421875,-0.00407014282226563,0.00201112939453019,0.0170862818352318,0.904700999999932,
0.0140779057617187,-0.00646434448242188,0.0570777675781251,0.0591425965943813,0.907766999999694,
-0.0338061274414062,0.0366312854003906,0.023558944335937,0.0551337390432868,0.910870999999588,
-0.00507570751953124,-0.0136469494628906,-0.0267192905273443,0.0304289750525901,0.913877999999841,
0.016472107421875,0.00311246215820311,0.0187705410156251,0.025166464861464,0.916911999999684,
-0.00746990917968748,-0.00646434448242188,0.0259531459960929,0.0277696431348102,0.919988999999987,
0.0212605107421875,0.0270544787597656,-0.00995987890625116,0.0358211295998391,0.923031999999694,
0.00210689746093751,0.0126892687988281,-0.0362960971679698,0.0385079631918714,0.926229999999578,
-0.00986411083984373,-0.0208295544433594,0.0451067592773438,0.0506536351457014,0.929177999999865,
0.0452025273437501,-0.00167594116210938,0.0475009609374997,0.0655928238988626,0.932170999999926,
-0.0122583125,0.0246602770996094,0.0187705410156251,0.0333275967029794,0.935263999999734,
-0.00507570751953124,-0.00167594116210938,-0.0123540805664071,0.0134608652115663,0.938242999999602,
0.016472107421875,0.0270544787597656,0.0522893642578115,0.0611347099311553,0.941353999999592,
0.00450109912109375,0.0246602770996094,-0.00995987890625116,0.0269738456241341,0.944316999999955,
0.0188663090820312,-0.00167594116210938,-0.0219308872070325,0.0289777537232472,0.947239999999965,
0.00210689746093751,0.0462080920410156,0.0882023891601555,0.0995956236013481,0.950353999999606,
0.00689530078125,0.0174776721191406,-0.014748282226563,0.0238856865968397,0.953290999999808,
0.0140779057617187,0.0174776721191406,0.0187705410156251,0.0292573010265692,0.956398999999692,
0.035625720703125,-0.0304063610839844,-0.00517147558593756,0.0471220004851519,0.95944099999997,
0.00928950244140625,0.00550666381835938,0.0283473476562488,0.0303346389654065,0.962489999999889,
0.0212605107421875,-0.00167594116210938,0.00919373437499971,0.0232237561035155,0.965518999999858,
-0.0146525141601562,-0.00646434448242188,-0.0410845004882816,0.0440955791567886,0.968426999999792,
0.00450109912109375,-0.0256179577636719,0.00679953271484379,0.0268844434277412,0.971501999999873,
0.0236547124023437,-0.0208295544433594,0.00440533105468788,0.0318248754726215,0.974483999999848,
-0.0146525141601562,0.0174776721191406,-0.0123540805664071,0.0259381668696737,0.977532999999767,
-0.000287304199218741,-0.0112527478027344,0.0139821376953115,0.017950126777978,0.980527999999595,
0.00210689746093751,0.0246602770996094,0.0139821376953115,0.028426544954867,0.983513999999559,
0.0260489140625,-0.0112527478027344,0.023558944335937,0.0368808095785766,0.986569999999574,
0.016472107421875,0.0174776721191406,-0.0267192905273443,0.0359265894833702,0.989548999999897,
-0.00986411083984373,0.000718260498046866,0.0355299526367183,0.0368808095785766,0.992656999999781,
-0.0146525141601562,0.0150834704589844,-0.0817859287109375,0.0844461093681123,0.995586999999887,
-0.0194409174804687,-0.0136469494628906,-0.0243250888671884,0.0339985065925211,0.998558999999659,
-0.00268150585937499,0.00311246215820311,-0.0123540805664071,0.0130192626903902,1.00162899999987,
0.0260489140625,-0.0304063610839844,0.00919373437499971,0.041080621586865,1.00461199999972,
0.0308373173828125,-0.00885854614257814,0.00679953271484379,0.0327970673729943,1.00767299999961,
-0.0146525141601562,-0.00407014282226563,0.00679953271484379,0.0166582075550598,1.01061299999992,
0.0260489140625,-0.0304063610839844,-0.0123540805664071,0.0419012651938629,1.01356099999975,
0.016472107421875,-0.00646434448242188,-0.0339018955078121,0.0382420788076147,1.01662099999976,
0.0284431157226562,-0.00885854614257814,0.00679953271484379,0.0305568047562704,1.01957899999979,
-0.0146525141601562,0.0581791003417969,-0.0195366855468748,0.0630966399260049,1.02264799999966,
-0.0122583125,0.00550666381835938,0.0331357509765624,0.0357570631419422,1.02562999999964,
0.0236547124023437,0.00790086547851562,0.023558944335937,0.0343073308838063,1.02864,
-0.00268150585937499,-0.0328005627441406,0.0283473476562488,0.0434354637266647,1.03167899999971,
0.00689530078125,0.0126892687988281,0.0498951625976556,0.0519431416662422,1.03467699999965,
