X,Y,Z,Magnitude,Seconds,
-0.694605785644531,0.570538255615235,-0.00995987890625116,0.89893842823586,0.0,
-0.701788390625,0.608845482177735,-0.0362960971679698,0.929794156280783,0.00396899999986999,
-0.716153600585938,0.594480272216797,-0.014748282226563,0.930859970949333,0.00809699999990698,
-0.696999987304688,0.596874473876953,-0.0698149204101561,0.920294650087949,0.0120280000001003,
-0.713759398925781,0.577720860595703,-0.0410845004882816,0.919185404857314,0.0160059999998339,
-0.711365197265625,0.577720860595703,-0.0243250888671884,0.916729811120266,0.0199000000002343,
-0.713759398925781,0.577720860595703,0.0498951625976556,0.919621334883537,0.0237630000001445,
-0.708970995605469,0.565749852294922,-0.0937569370117188,0.911867935185439,0.0276269999999386,
-0.692211583984375,0.587297667236328,0.0379241542968742,0.908577827388784,0.0317239999999401,
-0.694605785644531,0.596874473876953,0.0211647426757811,0.916070019894374,0.0357349999999315,
-0.668269567382812,0.582509263916016,0.023558944335937,0.88682370350381,0.0396289999998771,
-0.718547802246094,0.599268675537109,-0.00756567724609347,0.935676829394041,0.0436330000002272,
-0.694605785644531,0.575326658935547,-0.0554497104492189,0.903633018609711,0.0475989999999911,
-0.694605785644531,0.580115062255859,-0.00995987890625116,0.905046894969981,0.0515310000000682,
-0.718547802246094,0.587297667236328,-0.0458729038085934,0.929157584781913,0.0554259999998976,
-0.696999987304688,0.582509263916016,-0.0339018955078121,0.908996899538021,0.0594139999998333,
-0.708970995605469,0.553778843994141,-0.000383072265625728,0.899617156022303,0.0633029999999053,
-0.723336205566406,0.635181700439453,-0.0219308872070325,0.962887336436641,0.0672359999998662,
-0.701788390625,0.604057078857422,-0.00995987890625116,0.926008152729563,0.0711230000001706,
-0.718547802246094,0.577720860595703,-0.0315076938476562,0.922531881103157,0.075025000000096,
-0.701788390625,0.604057078857422,-0.0315076938476562,0.926490493478151,0.0789960000001884,
-0.701788390625,0.604057078857422,-0.050661307128907,0.927339456603567,0.0831419999999525,
-0.699394188964844,0.601662877197266,-0.0650265170898443,0.924866961935564,0.0871919999999591,
-0.706576793945313,0.606451280517578,-0.0650265170898443,0.933414360993167,0.0910760000001574,
-0.68263477734375,0.601662877197266,-0.014748282226563,0.910058222788563,0.0950120000002244,
-0.701788390625,0.611239683837891,-0.0482671054687511,0.931906974855647,0.0988440000000992,
-0.687423180664063,0.618422288818359,-0.00277727392578164,0.924664517472199,0.102696999999807,
-0.694605785644531,0.582509263916016,-0.00517147558593756,0.906543426515559,0.106669000000238,
-0.701788390625,0.568144053955078,-0.00756567724609347,0.902968355332971,0.110693000000083,
-0.665875365722656,0.575326658935547,0.00919373437499971,0.880042778454536,0.114672000000155,
-0.694605785644531,0.606451280517578,-0.0219308872070325,0.922356393649415,0.118624000000182,
-0.704182592285156,0.611239683837891,-0.0626323154296884,0.934564006000537,0.122554000000036,
-0.725730407226563,0.601662877197266,-0.0362960971679698,0.943398244878668,0.126435000000129,
-0.696999987304688,0.580115062255859,-0.0458729038085934,0.907990523663483,0.130294000000049,
-0.687423180664063,0.596874473876953,0.00440533105468788,0.910400556800076,0.134239999999863,
-0.689817382324219,0.580115062255859,-0.0243250888671884,0.90165027386518,0.13811399999986,
-0.665875365722656,0.604057078857422,-0.0171424838867189,0.899204549559136,0.142010000000028,
-0.68263477734375,0.620816490478516,-0.0123540805664071,0.922797907125852,0.145817000000079,
-0.6634811640625,0.613633885498047,0.0451067592773438,0.904869283504344,0.149761000000126,
-0.725730407226563,0.630393297119141,0.0115879360351556,0.961360813268113,0.153793999999834,
-0.718547802246094,0.577720860595703,-0.0123540805664071,0.922076439448906,0.15773100000024,
-0.685028979003906,0.594480272216797,-0.0267192905273443,0.907405872042041,0.161763000000064,
-0.704182592285156,0.551384642333985,-0.0362960971679698,0.895106448277994,0.165704999999889,
-0.704182592285156,0.570538255615235,0.00679953271484379,0.90632955267003,0.169658000000254,
-0.673057970703125,0.601662877197266,-0.0410845004882816,0.903710786648401,0.173553999999967,
-0.711365197265625,0.580115062255859,-0.0482671054687511,0.919186402644868,0.177532000000156,
-0.706576793945313,0.575326658935547,-0.0434787021484375,0.912218136064225,0.181531000000177,
-0.68263477734375,0.580115062255859,-0.0291134921875003,0.896309834891162,0.185570999999982,
-0.744884020507813,0.565749852294922,-0.00995987890625116,0.935427334733937,0.189542999999958,
-0.716153600585938,0.582509263916016,0.0451067592773438,0.924244362662107,0.193505000000187,
-0.68263477734375,0.608845482177735,0.0139821376953115,0.914810669254529,0.197368000000097,
-0.75924923046875,0.601662877197266,-0.0291134921875003,0.969177593216038,0.20124799999985,
-0.701788390625,0.548990440673828,-0.0315076938476562,0.891566141090424,0.205038999999942,
-0.728124608886719,0.580115062255859,-0.0291134921875003,0.931421777150346,0.208954000000176,
-0.701788390625,0.627999095458985,-0.0219308872070325,0.942003594965018,0.2128459999999,
-0.718547802246094,0.599268675537109,0.0307415493164065,0.9361511269272,0.216746999999941,
-0.708970995605469,0.594480272216797,-0.0410845004882816,0.926139623839267,0.220593999999892,
-0.668269567382812,0.565749852294922,-0.0243250888671884,0.875927405673629,0.224568999999974,
-0.699394188964844,0.582509263916016,-0.0865743320312511,0.914310882070441,0.228669000000082,
-0.701788390625,0.618422288818359,-0.0315076938476562,0.935919765415264,0.232628000000204,
-0.72094200390625,0.596874473876953,-0.00277727392578164,0.935961657234263,0.236776000000191,
-0.732913012207031,0.616028087158203,-0.0602381137695325,0.959312627864707,0.240761999999904,
-0.713759398925781,0.596874473876953,-0.110516348632814,0.936976776892529,0.244701999999961,
-0.685028979003906,0.568144053955078,-0.0315076938476562,0.890530798395677,0.248622000000069,
-0.747278222167969,0.606451280517578,-0.00277727392578164,0.9624009612518,0.252664000000095,
-0.687423180664063,0.637575902099609,-0.0219308872070325,0.937835072955856,0.256649999999809,
-0.718547802246094,0.582509263916016,0.00679953271484379,0.925026605188094,0.260699999999815,
-0.713759398925781,0.577720860595703,0.0211647426757811,0.918510652444959,0.264786000000186,
-0.675452172363281,0.572932457275391,-0.0123540805664071,0.885798995854327,0.268869999999879,
-0.723336205566406,0.589691868896485,-0.0123540805664071,0.933329732641405,0.272941000000174,
-0.689817382324219,0.560961448974609,-0.0362960971679698,0.889855704517287,0.276936000000205,
-0.706576793945313,0.577720860595703,0.00440533105468788,0.912705629133062,0.280933999999888,
-0.680240575683594,0.601662877197266,-0.0195366855468748,0.908354083320924,0.284994999999981,
-0.685028979003906,0.599268675537109,-0.0291134921875003,0.910623546248661,0.288998999999876,
-0.704182592285156,0.606451280517578,0.00919373437499971,0.929376567205463,0.292973999999958,
-0.685028979003906,0.592086070556641,-0.100939541992188,0.911054009463726,0.29687899999999,
-0.699394188964844,0.541807835693359,-0.0243250888671884,0.885042186748694,0.30093399999987,
-0.728124608886719,0.575326658935547,0.0355299526367183,0.928670333370644,0.304922000000261,
-0.641933349121094,0.876996068115234,0.210306673828125,1.10699115861874,0.308988000000227,
-0.756855028808594,0.0845153186035156,0.380294991699218,0.851232432666319,0.313052999999854,
-0.366600158203125,0.228167418212891,-0.139246768554688,0.453702225343248,0.316788999999972,
-0.493492846191406,0.855448253173828,0.363535580078125,1.05237114227015,0.31976799999984,
-0.888536120117188,0.781228001708985,0.203124068847655,1.20044700622408,0.322728999999981,
-0.819104271972656,0.352665904541016,-0.15121777685547,0.904528531681947,0.325788000000102,
-0.45279141796875,0.374213719482422,-0.167977188476563,0.610960155724996,0.328739000000041,
-0.617991332519531,0.707007750244141,-0.00277727392578164,0.939031926627101,0.331786000000193,
-0.907689733398438,0.745314976806641,-0.00517147558593756,1.17448789305337,0.334863000000041,
-0.838257885253906,0.479558592529297,-0.0458729038085934,0.966828345241731,0.337833000000046,
-0.579684105957031,0.599268675537109,0.00440533105468788,0.8337721601978,0.340962000000218,
-0.591655114257813,0.563355650634766,0.0187705410156251,0.817176661768779,0.343952000000172,
-0.799950658691406,0.584903465576172,-0.0482671054687511,0.992150610469077,0.347035000000233,
-0.79755645703125,0.620816490478516,-0.0339018955078121,1.0112659173142,0.350007999999889,
-0.649115954101562,0.666306322021484,-0.0171424838867189,0.930381374162653,0.352957999999944,
-0.555742089355469,0.527442625732422,-0.0698149204101561,0.769362798965852,0.356057999999848,
-0.673057970703125,0.532231029052734,-0.0482671054687511,0.859422255753173,0.359034999999949,
-0.862199901855469,0.625604893798828,-0.088968533691407,1.06896471124721,0.36210200000005,
-0.696999987304688,0.692642540283203,-0.0434787021484375,0.983591921710023,0.365075000000161,
-0.524617467773438,0.558567247314453,-0.0362960971679698,0.767162475578079,0.368064000000231,
-0.752066625488281,0.472375987548828,0.0331357509765624,0.888730139456766,0.371086999999989,
-0.840652086914062,0.601662877197266,-0.050661307128907,1.03501725447949,0.374086000000261,
-0.656298559082031,0.661517918701172,-0.0123540805664071,0.931926165917945,0.377183999999943,
-0.584472509277344,0.589691868896485,-0.0650265170898443,0.832810339914449,0.38016800000014,
-0.780797045410156,0.534625230712891,0.00679953271484379,0.946316224673963,0.383221000000049,
-0.764037633789063,0.582509263916016,-0.0602381137695325,0.962652158749192,0.386183999999957,
-0.615597130859375,0.620816490478516,-0.0267192905273443,0.874692439008501,0.389142999999876,
-0.613202929199219,0.584903465576172,-0.00756567724609347,0.847459223735107,0.39221600000019,
-0.771220238769531,0.570538255615235,0.0283473476562488,0.959738573741491,0.395183999999972,
-0.730518810546875,0.568144053955078,0.0139821376953115,0.925548971574094,0.398243000000093,
-0.677846374023438,0.644758507080078,-0.0123540805664071,0.935597062060102,0.40124300000025,
-0.72094200390625,0.627999095458985,-0.0195366855468748,0.956306393880026,0.404215999999906,
-0.696999987304688,0.515471617431641,-0.053055508789063,0.8685245291258,0.407286000000113,
-0.689817382324219,0.577720860595703,-0.0171424838867189,0.899946264216861,0.410281999999825,
-0.668269567382812,0.635181700439453,-0.00756567724609347,0.922007183667979,0.413327000000208,
-0.694605785644531,0.620816490478516,0.0115879360351556,0.931678373990978,0.416324000000259,
-0.728124608886719,0.546596239013672,-0.0362960971679698,0.911180718211242,0.419324999999844,
-0.756855028808594,0.589691868896485,-0.050661307128907,0.960797899100271,0.422434000000067,
-0.677846374023438,0.587297667236328,-0.0602381137695325,0.898900932844363,0.42546399999992,
-0.68263477734375,0.575326658935547,-0.00277727392578164,0.892747846243019,0.42855099999997,
-0.735307213867188,0.587297667236328,-0.0434787021484375,0.942064565858875,0.431570000000193,
-0.687423180664063,0.618422288818359,-0.00756567724609347,0.924691297727964,0.434554999999818,
-0.651510155761719,0.563355650634766,-0.0554497104492189,0.863081538761942,0.437643000000207,
-0.744884020507813,0.599268675537109,0.0283473476562488,0.956440652422841,0.440672000000177,
-0.75924923046875,0.623210692138672,0.00919373437499971,0.98231129766236,0.44381199999998,
-0.665875365722656,0.563355650634766,0.0283473476562488,0.872675864165812,0.44680100000005,
-0.6634811640625,0.606451280517578,-0.0674207187500002,0.901407767896365,0.449750000000222,
-0.706576793945313,0.575326658935547,-0.00277727392578164,0.911185625146948,0.452850000000126,
-0.706576793945313,0.541807835693359,-0.0602381137695325,0.892432141348164,0.455875000000106,
-0.675452172363281,0.587297667236328,-0.0362960971679698,0.895807788401695,0.458947999999964,
-0.687423180664063,0.606451280517578,-0.053055508789063,0.918231273682493,0.461912000000211,
-0.725730407226563,0.616028087158203,-0.0434787021484375,0.952924774408526,0.464860999999928,
-0.701788390625,0.587297667236328,-0.0315076938476562,0.915651806053403,0.467946000000211,
-0.656298559082031,0.599268675537109,-0.0219308872070325,0.88900602244689,0.470898999999918,
-0.692211583984375,0.611239683837891,-0.0578439121093748,0.925265770613243,0.474001999999928,
-0.706576793945313,0.563355650634766,0.023558944335937,0.903977532188926,0.477054999999837,
-0.72094200390625,0.625604893798828,0.00679953271484379,0.954560155142955,0.480096000000231,
-0.699394188964844,0.611239683837891,-0.0362960971679698,0.929560965900388,0.48312100000021,
-0.685028979003906,0.601662877197266,-0.0482671054687511,0.913012942593235,0.486072000000149,
-0.737701415527344,0.604057078857422,-0.148823575195314,0.965006108541663,0.48915100000022,
-0.725730407226563,0.599268675537109,-0.053055508789063,0.942667733862839,0.492138999999952,
-0.687423180664063,0.596874473876953,-0.0362960971679698,0.911113150794023,0.495186000000103,
-0.680240575683594,0.572932457275391,-0.053055508789063,0.890951024702722,0.498208999999861,
-0.754460827148438,0.594480272216797,-0.0626323154296884,0.962569862759346,0.501181999999972,
-0.651510155761719,0.625604893798828,-0.0195366855468748,0.903453733341038,0.504252000000179,
-0.670663769042969,0.587297667236328,-0.0123540805664071,0.891549810361033,0.507235000000037,
-0.701788390625,0.599268675537109,-0.00756567724609347,0.922868966954801,0.510318999999981,
-0.708970995605469,0.580115062255859,0.0283473476562488,0.9165025532889,0.513277000000016,
-0.668269567382812,0.616028087158203,-0.0554497104492189,0.91057645985755,0.516297000000122,
-0.665875365722656,0.584903465576172,-0.000383072265625728,0.886285627472125,0.519374999999854,
-0.737701415527344,0.604057078857422,-0.0458729038085934,0.954564118481646,0.522355000000061,
-0.685028979003906,0.568144053955078,-0.0267192905273443,0.890374240758306,0.525398000000223,
-0.692211583984375,0.601662877197266,0.0379241542968742,0.917928829636907,0.528389000000061,
-0.689817382324219,0.606451280517578,-0.0482671054687511,0.919761322337692,0.531354000000192,
-0.68263477734375,0.568144053955078,-0.0386902988281257,0.888974040401108,0.534418000000187,
-0.716153600585938,0.611239683837891,-0.072209122070312,0.944300846150533,0.537358999999924,
-0.694605785644531,0.601662877197266,-0.0219308872070325,0.919215088573853,0.540454999999838,
-0.677846374023438,0.601662877197266,-0.0219308872070325,0.906617277790194,0.543496000000232,
-0.732913012207031,0.604057078857422,-0.050661307128907,0.951111458253004,0.546479999999974,
-0.668269567382812,0.611239683837891,-0.0434787021484375,0.906690996607316,0.549562000000151,
-0.689817382324219,0.594480272216797,-0.0267192905273443,0.911026199128148,0.552544000000125,
-0.713759398925781,0.623210692138672,-0.0674207187500002,0.949941892784828,0.555581000000075,
-0.718547802246094,0.565749852294922,-0.0291134921875003,0.915003516338473,0.558622999999898,
-0.665875365722656,0.613633885498047,-0.00995987890625116,0.905558251740626,0.561594000000241,
-0.699394188964844,0.594480272216797,-0.0769975253906257,0.921133890663583,0.564719999999852,
-0.701788390625,0.558567247314453,-0.0339018955078121,0.897582115189187,0.567703000000165,
-0.656298559082031,0.601662877197266,0.023558944335937,0.890663258649792,0.570846000000074,
-0.687423180664063,0.596874473876953,0.00440533105468788,0.910400556800076,0.573875999999927,
-0.723336205566406,0.601662877197266,0.00440533105468788,0.940868158150864,0.576950000000124,
-0.694605785644531,0.613633885498047,0.00679953271484379,0.926860278859455,0.579958000000261,
-0.699394188964844,0.611239683837891,-0.00995987890625116,0.928905475193178,0.583028999999897,
-0.72094200390625,0.541807835693359,-0.0362960971679698,0.902568839748364,0.58611400000018,
-0.680240575683594,0.553778843994141,-0.0578439121093748,0.87905868235855,0.589094999999816,
-0.730518810546875,0.613633885498047,0.0475009609374997,0.95522804569602,0.592157000000043,
-0.6634811640625,0.580115062255859,-0.0171424838867189,0.881495663787211,0.59516799999983,
-0.708970995605469,0.594480272216797,-0.0769975253906257,0.928426241325097,0.598167999999987,
-0.732913012207031,0.599268675537109,0.0187705410156251,0.946909056959751,0.601243999999951,
-0.670663769042969,0.623210692138672,-0.014748282226563,0.915641288787,0.604188000000249,
-0.668269567382812,0.630393297119141,-0.0315076938476562,0.919223943614585,0.607242000000042,
-0.704182592285156,0.601662877197266,-0.0219308872070325,0.926473045958932,0.610212999999931,
-0.711365197265625,0.592086070556641,-0.00756567724609347,0.925561234225028,0.613183999999819,
-0.701788390625,0.596874473876953,-0.00517147558593756,0.921299531608289,0.616346000000249,
-0.718547802246094,0.584903465576172,-0.00517147558593756,0.926525635001776,0.619321000000127,
-0.696999987304688,0.611239683837891,-0.0123540805664071,0.927132976820273,0.622449999999844,
-0.699394188964844,0.587297667236328,-0.0243250888671884,0.913598648996057,0.625442999999905,
-0.708970995605469,0.548990440673828,-0.0362960971679698,0.8974117133349,0.628424999999879,
-0.701788390625,0.587297667236328,-0.0123540805664071,0.915192940567125,0.631506000000172,
-0.72094200390625,0.587297667236328,-0.0243250888671884,0.930197631090291,0.634480000000167,
-0.701788390625,0.582509263916016,-0.0482671054687511,0.913320152648751,0.637584000000061,
-0.677846374023438,0.556173045654297,-0.0123540805664071,0.876901811376701,0.640581000000111,
-0.716153600585938,0.608845482177735,-0.014748282226563,0.94009909723873,0.64355599999999,
-0.685028979003906,0.556173045654297,-0.0267192905273443,0.882783710358203,0.64663100000007,
-0.701788390625,0.589691868896485,-0.0171424838867189,0.916808218883569,0.649660999999924,
-0.716153600585938,0.580115062255859,-0.0219308872070325,0.921895020543017,0.652704999999969,
-0.656298559082031,0.642364305419922,-0.0243250888671884,0.918668280435961,0.655701000000136,
-0.701788390625,0.620816490478516,-0.0267192905273443,0.937354778380296,0.658708999999817,
-0.723336205566406,0.565749852294922,-0.0482671054687511,0.919574833890785,0.661787999999888,
-0.706576793945313,0.625604893798828,-0.0195366855468748,0.943935342578737,0.664768000000095,
-0.694605785644531,0.594480272216797,-0.053055508789063,0.915805043946953,0.667823000000226,
-0.716153600585938,0.608845482177735,-0.0315076938476562,0.940511316025511,0.670799999999872,
-0.72094200390625,0.601662877197266,-0.00517147558593756,0.939032659151633,0.673873000000185,
-0.687423180664063,0.620816490478516,-0.0626323154296884,0.92837845251839,0.676836999999978,
-0.692211583984375,0.584903465576172,-0.0171424838867189,0.906401018202749,0.679815999999846,
-0.6634811640625,0.556173045654297,-0.00756567724609347,0.865790362183767,0.682882000000063,
-0.692211583984375,0.565749852294922,0.0259531459960929,0.894373153756852,0.685945000000174,
-0.742489818847656,0.580115062255859,-0.0458729038085934,0.943360450650957,0.688998000000083,
-0.6634811640625,0.618422288818359,-0.0291134921875003,0.907469546486503,0.69200200000023,
-0.675452172363281,0.599268675537109,-0.000383072265625728,0.902972164230237,0.694972000000234,
-0.680240575683594,0.568144053955078,-0.0315076938476562,0.886852660605163,0.698030999999901,
-0.72094200390625,0.572932457275391,0.00679953271484379,0.920899129786274,0.70107199999984,
-0.692211583984375,0.594480272216797,-0.0793917270507816,0.915896673965585,0.704173000000083,
-0.694605785644531,0.582509263916016,-0.0339018955078121,0.907162377150782,0.707236000000194,
-0.696999987304688,0.570538255615235,-0.0410845004882816,0.901671126078451,0.710233000000244,
-0.692211583984375,0.599268675537109,-0.0315076938476562,0.916118200481661,0.713331999999809,
-0.685028979003906,0.601662877197266,0.00919373437499971,0.911782564334384,0.716338000000178,
-0.728124608886719,0.568144053955078,-0.0602381137695325,0.925517013599134,0.719426000000112,
-0.677846374023438,0.589691868896485,-0.0817859287109375,0.902164699572346,0.722495999999865,
-0.696999987304688,0.613633885498047,-0.0386902988281257,0.929436639560532,0.725563999999849,
-0.692211583984375,0.606451280517578,-0.0578439121093748,0.92210951129011,0.728631999999834,
-0.725730407226563,0.613633885498047,-0.0554497104492189,0.952000966277642,0.731624999999894,
-0.680240575683594,0.604057078857422,-0.0482671054687511,0.911011475665615,0.734746000000086,
-0.716153600585938,0.604057078857422,-0.0841801303710934,0.940663185470367,0.73776399999997,
-0.728124608886719,0.584903465576172,-0.053055508789063,0.935463733729063,0.740769999999884,
-0.694605785644531,0.568144053955078,-0.0434787021484375,0.898418199412657,0.743813000000046,
-0.670663769042969,0.572932457275391,-0.0961511386718747,0.887291684382557,0.746788999999808,
-0.651510155761719,0.618422288818359,-0.0650265170898443,0.900633143012644,0.749878000000081,
-0.696999987304688,0.604057078857422,-0.0219308872070325,0.922591405029433,0.752845999999863,
-0.68263477734375,0.601662877197266,-0.0865743320312511,0.914047904654401,0.75584600000002,
-0.706576793945313,0.546596239013672,0.00201112939453019,0.893320915957625,0.759007000000111,
-0.670663769042969,0.541807835693359,-0.0339018955078121,0.862841213923318,0.761993999999959,
-0.744884020507813,0.563355650634766,-0.0386902988281257,0.934729229420699,0.765100999999959,
-0.735307213867188,0.582509263916016,0.0211647426757811,0.938318542737825,0.768082000000049,
-0.68263477734375,0.599268675537109,0.0307415493164065,0.908877454651355,0.771170999999867,
-0.711365197265625,0.611239683837891,0.0187705410156251,0.938086738094631,0.774171999999908,
-0.685028979003906,0.587297667236328,-0.0578439121093748,0.90417319700624,0.777181999999812,
-0.696999987304688,0.594480272216797,-0.0123540805664071,0.91617050796472,0.780295999999908,
-0.692211583984375,0.608845482177735,-0.000383072265625728,0.921873009104159,0.783284000000094,
-0.749672423828125,0.601662877197266,-0.00517147558593756,0.961266718973128,0.786302999999862,
-0.685028979003906,0.632787498779297,0.0331357509765624,0.933157381516791,0.789299000000028,
-0.716153600585938,0.584903465576172,-0.00277727392578164,0.924659806050678,0.792288000000099,
-0.670663769042969,0.613633885498047,-0.014748282226563,0.909150124218759,0.795320000000174,
-0.687423180664063,0.594480272216797,-0.0243250888671884,0.909147476110257,0.79835200000025,
-0.670663769042969,0.596874473876953,0.0211647426757811,0.898051766328279,0.801434999999856,
-0.68263477734375,0.575326658935547,-0.0219308872070325,0.893012859669321,0.804437000000235,
-0.716153600585938,0.623210692138672,-0.00277727392578164,0.949355180993196,0.807381999999961,
-0.718547802246094,0.594480272216797,0.0331357509765624,0.933175072620583,0.810467000000244,
-0.665875365722656,0.594480272216797,-0.0482671054687511,0.89393876199747,0.813450000000103,
-0.668269567382812,0.596874473876953,-0.014748282226563,0.896136632486662,0.816522000000077,
-0.673057970703125,0.544202037353516,-0.0219308872070325,0.865819757917555,0.819488999999976,
-0.699394188964844,0.601662877197266,0.0451067592773438,0.923680176840224,0.822508000000198,
-0.716153600585938,0.604057078857422,-0.050661307128907,0.938257694980422,0.825646000000233,
-0.699394188964844,0.553778843994141,-0.0219308872070325,0.892358786266469,0.828648000000157,
-0.728124608886719,0.582509263916016,-0.0793917270507816,0.935834138583607,0.831733999999869,
-0.732913012207031,0.570538255615235,-0.0578439121093748,0.930602655675867,0.834738000000016,
-0.677846374023438,0.642364305419922,-0.0458729038085934,0.93499301118146,0.837688000000071,
-0.665875365722656,0.577720860595703,-0.00277727392578164,0.881566281509326,0.84081900000001,
-0.711365197265625,0.599268675537109,-0.0386902988281257,0.930945932148679,0.843808999999965,
-0.708970995605469,0.596874473876953,-0.0123540805664071,0.926850383547604,0.846903000000111,
-0.68263477734375,0.556173045654297,-0.0578439121093748,0.882419749393476,0.849900000000162,
-0.696999987304688,0.606451280517578,-0.000383072265625728,0.92390058160416,0.852926999999909,
-0.706576793945313,0.589691868896485,-0.0315076938476562,0.920858295698238,0.856022999999823,
-0.728124608886719,0.594480272216797,-0.0195366855468748,0.940188237643692,0.859042999999929,
-0.677846374023438,0.584903465576172,0.0379241542968742,0.89611718669986,0.862134999999853,
-0.701788390625,0.534625230712891,-0.072209122070312,0.885180907973621,0.8651890000001,
-0.718547802246094,0.568144053955078,-0.050661307128907,0.917423118412225,0.868264000000181,
-0.696999987304688,0.608845482177735,-0.00995987890625116,0.925527418642365,0.871259999999893,
-0.701788390625,0.592086070556641,-0.00277727392578164,0.918194191559547,0.87424400000009,
-0.706576793945313,0.558567247314453,-0.0171424838867189,0.900856259493316,0.87732300000016,
-0.694605785644531,0.589691868896485,-0.0602381137695325,0.913149674502486,0.880351000000246,
-0.704182592285156,0.599268675537109,-0.0171424838867189,0.924818865244027,0.883380000000216,
-0.723336205566406,0.611239683837891,0.00679953271484379,0.947035084369418,0.886351999999988,
-0.687423180664063,0.596874473876953,-0.014748282226563,0.910509351247323,0.889291999999841,
-0.692211583984375,0.587297667236328,-0.0482671054687511,0.909068281491397,0.892362000000048,
-0.685028979003906,0.572932457275391,0.00919373437499971,0.893085005711388,0.895342000000255,
-0.694605785644531,0.599268675537109,-0.0171424838867189,0.917547823104967,0.898505000000114,
-0.692211583984375,0.601662877197266,0.0475009609374997,0.918374344202535,0.901515000000018,
-0.737701415527344,0.587297667236328,-0.0410845004882816,0.943827242980754,0.904532000000017,
-0.677846374023438,0.601662877197266,-0.000383072265625728,0.906352068083024,0.907615999999962,
-0.694605785644531,0.611239683837891,-0.0937569370117188,0.929990060047375,0.910605999999916,
-0.723336205566406,0.606451280517578,-0.0243250888671884,0.94424050531261,0.913677000000007,
-0.754460827148438,0.635181700439453,-0.0315076938476562,0.986741945518816,0.916651000000002,
-0.677846374023438,0.608845482177735,-0.115304751953126,0.918402805836269,0.919658000000254,
-0.692211583984375,0.616028087158203,-0.00995987890625116,0.926685858507498,0.922751000000062,
-0.685028979003906,0.580115062255859,-0.0339018955078121,0.898302580453979,0.925721000000067,
-0.725730407226563,0.599268675537109,-0.00517147558593756,0.941187714333846,0.928769000000102,
-0.708970995605469,0.575326658935547,-0.0578439121093748,0.914869693049161,0.931779000000006,
-0.68263477734375,0.599268675537109,-0.0650265170898443,0.910681960205641,0.934726999999839,
-0.706576793945313,0.548990440673828,0.0139821376953115,0.894894837323253,0.937794999999824,
-0.699394188964844,0.599268675537109,-0.0386902988281257,0.921830850135318,0.940813000000162,
-0.725730407226563,0.587297667236328,-0.0386902988281257,0.934398262593566,0.943882000000031,
-0.694605785644531,0.616028087158203,0.0355299526367183,0.929101813125461,0.946860999999899,
-0.701788390625,0.606451280517578,-0.0865743320312511,0.931549899803599,0.949795999999878,
-0.728124608886719,0.587297667236328,-0.0817859287109375,0.939027653555943,0.952849000000242,
-0.701788390625,0.587297667236328,-0.00277727392578164,0.91511376801342,0.955840999999964,
-0.68263477734375,0.625604893798828,0.0139821376953115,0.926049254931251,0.958895000000211,
-0.7400956171875,0.592086070556641,-0.00517147558593756,0.94780492807702,0.961862999999994,
-0.701788390625,0.635181700439453,-0.0123540805664071,0.946633699535266,0.964942000000065,
-0.708970995605469,0.580115062255859,-0.0650265170898443,0.918369101173796,0.967971999999918,
-0.701788390625,0.616028087158203,-0.0674207187500002,0.936238806448755,0.970952000000125,
-0.747278222167969,0.620816490478516,-0.0410845004882816,0.972381505560936,0.974005999999918,
-0.692211583984375,0.594480272216797,-0.0626323154296884,0.914596347025943,0.976986000000124,
-0.696999987304688,0.608845482177735,0.0163763393554675,0.925618705494686,0.980016999999862,
-0.711365197265625,0.608845482177735,-0.0123540805664071,0.93642185384347,0.98304700000017,
-0.670663769042969,0.589691868896485,-0.00995987890625116,0.893098869407736,0.986046999999871,
-0.699394188964844,0.599268675537109,-0.117698953613282,0.928508600239898,0.989196999999876,
-0.680240575683594,0.596874473876953,-0.072209122070312,0.907854908937768,0.992188000000169,
-0.668269567382812,0.620816490478516,-0.0578439121093748,0.91397114161673,0.995307000000139,
-0.718547802246094,0.553778843994141,0.00679953271484379,0.907209008891181,0.998305000000073,
-0.699394188964844,0.560961448974609,-0.0243250888671884,0.89689558407982,1.00131300000021,
-0.732913012207031,0.596874473876953,-0.0817859287109375,0.948741039042469,1.00444100000004,
-0.689817382324219,0.587297667236328,-0.0698149204101561,0.908647728225712,1.00752800000009,
-0.732913012207031,0.568144053955078,-0.00277727392578164,0.927338591215395,1.01059299999997,
-0.704182592285156,0.560961448974609,0.00679953271484379,0.900331663420918,1.01359400000001,
-0.701788390625,0.596874473876953,-0.0793917270507816,0.924699480429195,1.01661599999989,
-0.704182592285156,0.587297667236328,0.0283473476562488,0.917385003876682,1.01972599999999,
-0.692211583984375,0.604057078857422,-0.0339018955078121,0.919342792454992,1.02273999999989,
-0.680240575683594,0.623210692138672,-0.0123540805664071,0.922643718294852,1.02579800000012,
-0.704182592285156,0.580115062255859,-0.0195366855468748,0.912572348263808,1.02875399999994,
-0.706576793945313,0.608845482177735,0.0451067592773438,0.933797733260677,1.03175800000008,
-0.711365197265625,0.601662877197266,-0.0291134921875003,0.93214068525379,1.03478399999995,
-0.694605785644531,0.599268675537109,-0.0171424838867189,0.917547823104967,1.0377840000001,
