X,Y,Z,Magnitude,Seconds,
-0.711365197265625,0.565749852294922,-0.053055508789063,0.910454955648743,0.0,
-0.72094200390625,0.572932457275391,0.0331357509765624,0.921469994947615,0.00394699999969816,
-0.701788390625,0.601662877197266,0.0379241542968742,0.925172094527528,0.00784599999997226,
-0.706576793945313,0.580115062255859,-0.0291134921875003,0.914675815043509,0.011735999999928,
-0.713759398925781,0.544202037353516,-0.0482671054687511,0.89885374254377,0.0157420000000457,
-0.706576793945313,0.556173045654297,-0.000383072265625728,0.899210414307338,0.0197239999997691,
-0.661086962402344,0.582509263916016,-0.050661307128907,0.882564208681921,0.0236719999998058,
-0.725730407226563,0.580115062255859,0.0139821376953115,0.929200521741073,0.0276389999999083,
-0.661086962402344,0.572932457275391,-0.0219308872070325,0.875082016882796,0.0315559999999095,
-0.701788390625,0.599268675537109,0.0187705410156251,0.923028831568141,0.0355009999998401,
-0.699394188964844,0.606451280517578,-0.0434787021484375,0.926728538861146,0.0393819999999323,
-0.694605785644531,0.589691868896485,0.0331357509765624,0.911762949283566,0.0432679999998982,
-0.670663769042969,0.594480272216797,0.0187705410156251,0.896408957101555,0.0473659999997835,
-0.675452172363281,0.563355650634766,-0.0410845004882816,0.880507332412836,0.0512969999999768,
-0.696999987304688,0.584903465576172,-0.0339018955078121,0.910533022391156,0.0552079999997659,
-0.711365197265625,0.563355650634766,-0.00517147558593756,0.907434172346743,0.0592709999996259,
-0.665875365722656,0.608845482177735,-0.0243250888671884,0.902593227203105,0.0632299999997485,
-0.716153600585938,0.627999095458985,-0.0841801303710934,0.956213960303237,0.0672869999998511,
-0.696999987304688,0.623210692138672,0.00679953271484379,0.935011648453557,0.0713590000000295,
-0.701788390625,0.575326658935547,-0.053055508789063,0.909022880191051,0.0753889999996318,
-0.754460827148438,0.601662877197266,0.0618661708984369,0.966972998899365,0.0793369999996685,
-0.685028979003906,0.616028087158203,-0.0219308872070325,0.921540161933606,0.0834099999997306,
-0.675452172363281,0.606451280517578,-0.0386902988281257,0.90857896300492,0.0874709999998231,
-0.718547802246094,0.589691868896485,0.0163763393554675,0.929685768873551,0.0914619999998649,
-0.689817382324219,0.563355650634766,-0.0458729038085934,0.891808237998837,0.095632999999907,
-0.711365197265625,0.592086070556641,0.0211647426757811,0.925772275000984,0.0997029999998631,
-0.706576793945313,0.601662877197266,-0.0746033237304697,0.931028806993082,0.103662999999869,
-0.737701415527344,0.560961448974609,-0.0123540805664071,0.926840735516832,0.107576999999765,
-0.723336205566406,0.606451280517578,-0.0171424838867189,0.944082775331921,0.111517999999705,
-0.694605785644531,0.596874473876953,-0.0123540805664071,0.915908815506974,0.115432999999939,
-0.716153600585938,0.618422288818359,0.00201112939453019,0.946216757186736,0.119419999999991,
-0.687423180664063,0.601662877197266,0.00201112939453019,0.913538664618543,0.123482999999851,
-0.706576793945313,0.606451280517578,-0.072209122070312,0.933942224494434,0.127490999999736,
-0.701788390625,0.599268675537109,-0.0315076938476562,0.923375668656927,0.131567999999788,
-0.701788390625,0.601662877197266,0.0187705410156251,0.924585040017055,0.135609999999815,
-0.744884020507813,0.548990440673828,0.00201112939453019,0.925336021454136,0.139505999999983,
-0.694605785644531,0.627999095458985,0.00679953271484379,0.93643274985089,0.143415000000005,
-0.692211583984375,0.611239683837891,-0.0434787021484375,0.924478894102464,0.147306999999728,
-0.699394188964844,0.642364305419922,-0.0362960971679698,0.95031654679114,0.151251999999658,
-0.713759398925781,0.582509263916016,0.0570777675781251,0.923053299465731,0.15525899999966,
-0.706576793945313,0.577720860595703,0.0259531459960929,0.91306392125446,0.159188999999969,
-0.708970995605469,0.606451280517578,-0.0674207187500002,0.935397552684412,0.163194999999632,
-0.701788390625,0.599268675537109,0.00919373437499971,0.922883749693203,0.167149999999765,
-0.673057970703125,0.606451280517578,0.0427125576171878,0.906981008702288,0.171093999999812,
-0.689817382324219,0.599268675537109,-0.0291134921875003,0.914231131532935,0.175111999999899,
-0.670663769042969,0.608845482177735,0.0379241542968742,0.906598562625318,0.179054999999607,
-0.694605785644531,0.551384642333985,-0.0578439121093748,0.888734009375555,0.182929999999942,
-0.668269567382812,0.599268675537109,0.00919373437499971,0.89765900258493,0.186878999999863,
-0.716153600585938,0.558567247314453,-0.00756567724609347,0.908256895859778,0.190690999999788,
-0.687423180664063,0.606451280517578,-0.0578439121093748,0.918520387973954,0.194627999999739,
-0.68263477734375,0.611239683837891,-0.00517147558593756,0.916313775132259,0.198853999999756,
-0.711365197265625,0.592086070556641,-0.014748282226563,0.925647811349759,0.202823999999964,
-0.696999987304688,0.596874473876953,-0.0434787021484375,0.918672149033123,0.206873999999971,
-0.670663769042969,0.613633885498047,-0.053055508789063,0.910577467078566,0.21085099999982,
-0.677846374023438,0.613633885498047,0.0163763393554675,0.914489167075716,0.790981999999985,
-0.711365197265625,0.623210692138672,-0.0937569370117188,0.950380120748821,0.796358999999939,
-0.706576793945313,0.596874473876953,-0.0123540805664071,0.925020284434113,0.800252,
-0.704182592285156,0.623210692138672,-0.0243250888671884,0.940668060487759,0.804047999999966,
-0.72094200390625,0.580115062255859,-0.0602381137695325,0.927318439805329,0.807823999999982,
-0.704182592285156,0.594480272216797,0.0307415493164065,0.922076439448906,0.811604999999872,
-0.699394188964844,0.604057078857422,-0.00517147558593756,0.924155793270425,0.815350999999737,
-0.735307213867188,0.596874473876953,-0.0674207187500002,0.949463737931988,0.819078999999874,
-0.694605785644531,0.611239683837891,-0.0339018955078121,0.925872824457076,0.82278899999983,
-0.699394188964844,0.563355650634766,-0.0123540805664071,0.898150568650131,0.826601999999639,
-0.728124608886719,0.589691868896485,0.0115879360351556,0.937035872616743,0.830345999999736,
-0.696999987304688,0.623210692138672,-0.0171424838867189,0.935144060480792,0.834046999999828,
-0.708970995605469,0.642364305419922,-0.0267192905273443,0.957071415294446,0.837806,
-0.677846374023438,0.613633885498047,-0.050661307128907,0.915744953711546,0.841767999999774,
-0.704182592285156,0.558567247314453,-0.072209122070312,0.901712066216291,0.845598999999766,
-0.694605785644531,0.582509263916016,-0.000383072265625728,0.906528756710561,0.849464999999782,
-0.696999987304688,0.577720860595703,-0.0434787021484375,0.906344731661572,0.853279999999813,
-0.725730407226563,0.587297667236328,0.0283473476562488,0.934027165575825,0.857121000000006,
-0.72094200390625,0.599268675537109,-0.053055508789063,0.938986264803286,0.860908999999992,
-0.728124608886719,0.560961448974609,-0.00756567724609347,0.919184656515938,0.864658999999847,
-0.711365197265625,0.589691868896485,-0.0195366855468748,0.924207025620098,0.868469999999888,
-0.704182592285156,0.594480272216797,-0.0434787021484375,0.922588919764871,0.872253000000001,
-0.699394188964844,0.611239683837891,-0.0291134921875003,0.929308225554572,0.876126999999997,
-0.694605785644531,0.592086070556641,0.00919373437499971,0.912758257782321,0.879882999999609,
-0.716153600585938,0.625604893798828,0.0762313808593742,0.953975202091214,0.883609999999862,
-0.68263477734375,0.240138426513672,-1.79364011572266,1.93411518991429,0.887326999999914,
-1.15429250439453,1.48033488647461,2.03708254052734,2.77010610604297,0.891158999999789,
-1.30512720898438,0.920091697998047,-2.72019615820313,3.15426582637851,0.894294999999602,
-0.850228893554688,0.872207664794922,-2.49274700048828,2.77442300134741,0.897395999999844,
-0.380965368164063,0.762074388427735,0.260584908691406,0.890952568813623,0.900486999999885,
-0.445608812988281,0.247321031494141,0.674781795898436,0.845615384739463,0.903465999999753,
-0.438426208007813,0.127610948486328,0.351564571777343,0.576280957667939,0.906516000000011,
-0.412089989746094,0.548990440673828,-0.00756567724609347,0.686488093904309,0.909517000000051,
-0.749672423828125,0.896149681396484,0.0618661708984369,1.17000872544481,0.912534000000051,
-0.8167100703125,0.441251365966797,-0.11291055029297,0.935129348959209,0.915606000000025,
-0.534194274414063,0.426886156005859,-0.0626323154296884,0.686671770165564,0.918589999999767,
-0.629962340820313,0.661517918701172,0.0403183559570301,0.914376332502989,0.921675999999934,
-0.79755645703125,0.651941112060547,-0.110516348632814,1.03601997039734,0.924670999999762,
-0.766431835449219,0.604057078857422,-0.0171424838867189,0.976010541777919,0.927683999999772,
-0.68263477734375,0.558567247314453,-0.103333743652344,0.888068393531042,0.930757999999969,
-0.694605785644531,0.608845482177735,0.0642603725585928,0.92590464633269,0.933796999999686,
-0.651510155761719,0.635181700439453,-0.0961511386718747,0.914967932280532,0.936850999999933,
-0.725730407226563,0.558567247314453,-0.0243250888671884,0.916118826186906,0.939847999999984,
-0.761643432128906,0.611239683837891,-0.00995987890625116,0.976633947797828,0.942839999999705,
-0.591655114257813,0.635181700439453,0.0355299526367183,0.868777269692841,0.945922999999766,
-0.615597130859375,0.560961448974609,-0.0386902988281257,0.83374727224825,0.948918000000049,
-0.799950658691406,0.529836827392578,-0.0650265170898443,0.961705031663599,0.951990000000023,
-0.790373852050781,0.627999095458985,-0.072209122070312,1.01207106826204,0.954956999999922,
-0.594049315917969,0.587297667236328,-0.000383072265625728,0.835352193046861,0.958004999999957,
-0.651510155761719,0.517865819091797,0.0163763393554675,0.832417367751876,0.960983999999826,
-0.807133263671875,0.604057078857422,-0.0458729038085934,1.00918451392558,0.963979999999992,
-0.718547802246094,0.637575902099609,-0.00277727392578164,0.960636085258763,0.967022999999699,
-0.617991332519531,0.577720860595703,-0.0219308872070325,0.846259796782521,0.969984999999724,
-0.685028979003906,0.587297667236328,-0.0626323154296884,0.904492155274136,0.973023000000012,
-0.768826037109375,0.596874473876953,-0.0267192905273443,0.973687081864333,0.975999999999658,
-0.680240575683594,0.584903465576172,0.0498951625976556,0.898514792365718,0.978963000000022,
-0.673057970703125,0.525048424072266,-0.0769975253906257,0.857094801328335,0.982016999999814,
-0.692211583984375,0.596874473876953,-0.179948196777344,0.931556422387536,0.984999999999673,
-0.728124608886719,0.663912120361328,0.0546835659179692,0.986881473131712,0.988076999999976,
-0.725730407226563,0.527442625732422,-0.0698149204101561,0.899863584397447,0.991059999999834,
-0.641933349121094,0.527442625732422,0.0115879360351556,0.830908194937859,0.994056,
-0.653904357421875,0.627999095458985,-0.00277727392578164,0.906631946162872,0.997109999999793,
-0.783191247070313,0.649546910400391,0.0163763393554675,1.01762856818632,1.00010899999961,
-0.756855028808594,0.606451280517578,-0.0602381137695325,0.971720803844797,1.00315099999989,
-0.598837719238281,0.558567247314453,-0.0339018955078121,0.819605589459939,1.00612899999987,
-0.64432755078125,0.594480272216797,-0.0362960971679698,0.877429309642861,1.00907699999971,
-0.752066625488281,0.639970103759766,-0.00756567724609347,0.987533889216875,1.01211799999965,
-0.780797045410156,0.563355650634766,-0.0267192905273443,0.963186137623271,1.015085,
-0.634750744140625,0.582509263916016,-0.0267192905273443,0.86193936574526,1.0181349999998,
-0.661086962402344,0.548990440673828,-0.00277727392578164,0.859321935633009,1.02109799999971,
-0.768826037109375,0.632787498779297,-0.0267192905273443,0.996106126090463,1.02405599999975,
-0.692211583984375,0.604057078857422,-0.0746033237304697,0.921741551320951,1.0270959999998,
-0.6634811640625,0.592086070556641,-0.0219308872070325,0.889524667351401,1.03008899999986,
-0.675452172363281,0.558567247314453,0.0283473476562488,0.876947306878735,1.03323299999965,
-0.766431835449219,0.594480272216797,-0.000383072265625728,0.969961184372538,1.03629799999999,
-0.735307213867188,0.632787498779297,-0.0243250888671884,0.970406320736258,1.03935199999978,
-0.687423180664063,0.611239683837891,-0.00756567724609347,0.919903157883879,1.04243299999962,
-0.656298559082031,0.513077415771484,-0.0841801303710934,0.837294767436886,1.0454109999996,
-0.716153600585938,0.565749852294922,-0.0650265170898443,0.914973946584691,1.04845899999964,
-0.718547802246094,0.623210692138672,-0.00756567724609347,0.951188598744143,1.0514589999998,
-0.677846374023438,0.596874473876953,0.0139821376953115,0.90328862747028,1.05453199999965,
-0.673057970703125,0.575326658935547,-0.0123540805664071,0.88552832801418,1.05750399999988,
-0.728124608886719,0.553778843994141,-0.0458729038085934,0.915937103422367,1.06048199999987,
-0.696999987304688,0.630393297119141,0.0379241542968742,0.940554587907905,1.06354199999987,
-0.713759398925781,0.642364305419922,-0.00756567724609347,0.960282052266262,1.06653099999994,
-0.685028979003906,0.572932457275391,-0.0410845004882816,0.893982236319673,1.06958499999973,
-0.737701415527344,0.544202037353516,-0.0434787021484375,0.9177415940619,1.07257699999991,
-0.68263477734375,0.589691868896485,-0.0243250888671884,0.902395949364898,1.07555699999966,
-0.694605785644531,0.599268675537109,-0.0650265170898443,0.91968939912108,1.07861699999967,
-0.670663769042969,0.572932457275391,-0.0769975253906257,0.885420866380965,1.081592,
-0.718547802246094,0.570538255615235,-0.0123540805664071,0.917593302362113,1.0846389999997,
-0.689817382324219,0.613633885498047,-0.0817859287109375,0.926867576584259,1.08761199999981,
-0.716153600585938,0.606451280517578,-0.014748282226563,0.938550290129542,1.09057099999973,
-0.708970995605469,0.572932457275391,-0.0219308872070325,0.911796269472032,1.09361699999999,
-0.713759398925781,0.560961448974609,-0.0746033237304697,0.910876436572063,1.09659199999987,
-0.689817382324219,0.625604893798828,-0.000383072265625728,0.931251658170895,1.09962799999994,
-0.718547802246094,0.599268675537109,-0.0434787021484375,0.936655906474307,1.10261199999968,
-0.706576793945313,0.558567247314453,-0.0315076938476562,0.901244068100356,1.10556599999973,
-0.732913012207031,0.594480272216797,-0.0123540805664071,0.943780112538923,1.10861599999998,
-0.696999987304688,0.568144053955078,-0.0339018955078121,0.899858870527078,1.11159399999997,
-0.692211583984375,0.577720860595703,-0.014748282226563,0.901740418079522,1.11463699999968,
-0.732913012207031,0.606451280517578,0.00679953271484379,0.951310082333271,1.11762299999964,
-0.730518810546875,0.575326658935547,0.0283473476562488,0.930302138643089,1.12059299999964,
-0.692211583984375,0.599268675537109,-0.0339018955078121,0.916203667860581,1.12362199999961,
-0.711365197265625,0.608845482177735,-0.0171424838867189,0.93649726630824,1.1265999999996,
-0.668269567382812,0.575326658935547,0.0139821376953115,0.881918635332354,1.12967499999968,
-0.708970995605469,0.570538255615235,-0.0410845004882816,0.910956480799525,1.13263800000004,
-0.725730407226563,0.592086070556641,-0.0123540805664071,0.936698010154328,1.13559599999962,
-0.72094200390625,0.589691868896485,0.00440533105468788,0.931403929657101,1.13864699999976,
-0.696999987304688,0.608845482177735,0.00919373437499971,0.925519491000989,1.14161999999988,
-0.699394188964844,0.618422288818359,0.0475009609374997,0.934801957718915,1.144679,
-0.692211583984375,0.580115062255859,-0.014748282226563,0.903276189372283,1.14763499999981,
-0.689817382324219,0.587297667236328,-0.00756567724609347,0.905993272806185,1.15067699999963,
-0.704182592285156,0.560961448974609,-0.0339018955078121,0.900944065429236,1.15362899999991,
-0.718547802246094,0.537019432373047,-0.0219308872070325,0.897319217821979,1.1565999999998,
-0.673057970703125,0.584903465576172,-0.000383072265625728,0.891694590492948,1.15963899999997,
-0.742489818847656,0.563355650634766,-0.0243250888671884,0.932337079678236,1.16261899999972,
-0.725730407226563,0.587297667236328,0.0115879360351556,0.93366881396779,1.16564599999992,
-0.694605785644531,0.587297667236328,-0.0482671054687511,0.910892672526473,1.16861900000004,
-0.661086962402344,0.587297667236328,-0.00517147558593756,0.884297046223342,1.1716349999997,
-0.677846374023438,0.594480272216797,0.0379241542968742,0.902397219804456,1.17477799999961,
-0.711365197265625,0.577720860595703,0.00919373437499971,0.916453141955419,1.1778419999996,
-0.668269567382812,0.601662877197266,-0.000383072265625728,0.899212199223111,1.18097099999977,
-0.699394188964844,0.594480272216797,-0.0386902988281257,0.918725184609717,1.18394399999988,
-0.725730407226563,0.592086070556641,-0.0578439121093748,0.938401010809639,1.18690199999992,
-0.694605785644531,0.558567247314453,0.00919373437499971,0.891380441772793,1.18996100000004,
-0.699394188964844,0.565749852294922,0.0163763393554675,0.899718462309296,1.19296599999961,
-0.704182592285156,0.599268675537109,-0.0123540805664071,0.924742500409755,1.19601199999988,
-0.706576793945313,0.580115062255859,-0.0267192905273443,0.914602739819011,1.19900699999971,
-0.72094200390625,0.594480272216797,0.0427125576171878,0.935408215502471,1.2019779999996,
-0.677846374023438,0.608845482177735,0.059471969238281,0.913074719324787,1.20505899999989,
-0.716153600585938,0.551384642333985,-0.014748282226563,0.903946079842494,1.20803399999977,
-0.728124608886719,0.604057078857422,-0.0410845004882816,0.94696269027062,1.21110199999976,
-0.713759398925781,0.594480272216797,0.0139821376953115,0.929007413202059,1.21410799999967,
-0.735307213867188,0.572932457275391,-0.000383072265625728,0.932163315148748,1.21708499999977,
-0.711365197265625,0.584903465576172,0.0163763393554675,0.921097547719276,1.2201399999999,
-0.677846374023438,0.582509263916016,-0.00277727392578164,0.89375637764167,1.22312699999975,
-0.689817382324219,0.589691868896485,-0.050661307128907,0.908928539126853,1.22617499999978,
-0.716153600585938,0.592086070556641,-0.0362960971679698,0.929924352433591,1.22914300000002,
-0.68263477734375,0.553778843994141,0.023558944335937,0.879327169575046,1.23210599999993,
-0.706576793945313,0.618422288818359,-0.0291134921875003,0.939438389931307,1.23514099999966,
-0.685028979003906,0.580115062255859,0.0163763393554675,0.897811991467,1.23812599999974,
-0.718547802246094,0.589691868896485,0.0379241542968742,0.930314831567493,1.24117499999966,
-0.692211583984375,0.611239683837891,-0.0195366855468748,0.923662552116605,1.24415999999974,
-0.699394188964844,0.565749852294922,-0.0171424838867189,0.899732733473293,1.24720200000002,
-0.670663769042969,0.582509263916016,-0.0602381137695325,0.890356986834725,1.25017099999968,
-0.696999987304688,0.596874473876953,0.0139821376953115,0.917749214133771,1.2531469999999,
-0.701788390625,0.553778843994141,0.00440533105468788,0.893978389119791,1.2561969999997,
-0.689817382324219,0.577720860595703,-0.0578439121093748,0.901640356179888,1.25917600000002,
-0.716153600585938,0.556173045654297,-0.0482671054687511,0.908038627931054,1.26221799999985,
-0.68263477734375,0.584903465576172,-0.0458729038085934,0.900114785227973,1.26519199999984,
-0.704182592285156,0.575326658935547,-0.00995987890625116,0.909380606207989,1.26814799999966,
-0.689817382324219,0.616028087158203,-0.0243250888671884,0.925165031263519,1.27120699999978,
-0.699394188964844,0.618422288818359,0.00919373437499971,0.933639589786599,1.27419399999962,
-0.689817382324219,0.594480272216797,-0.000383072265625728,0.910634373256334,1.27724699999999,
-0.694605785644531,0.604057078857422,-0.0195366855468748,0.92073005492966,1.28021999999964,
-0.677846374023438,0.575326658935547,-0.0315076938476562,0.889645550784276,1.28317900000002,
-0.689817382324219,0.575326658935547,-0.0243250888671884,0.898576927918235,1.28623399999969,
-0.670663769042969,0.625604893798828,-0.0171424838867189,0.917314144121723,1.28921700000001,
-0.713759398925781,0.584903465576172,-0.0195366855468748,0.923009331307147,1.29225899999983,
-0.713759398925781,0.558567247314453,-0.000383072265625728,0.906338786586836,1.29523999999992,
-0.68263477734375,0.556173045654297,0.0163763393554675,0.880674105695298,1.29820999999993,
-0.694605785644531,0.611239683837891,-0.0315076938476562,0.925788249720582,1.30125899999985,
-0.685028979003906,0.563355650634766,-0.00277727392578164,0.886928409978908,1.30423299999984,
-0.68263477734375,0.637575902099609,0.00919373437499971,0.934118726356045,1.30729099999962,
-0.737701415527344,0.592086070556641,0.00440533105468788,0.945932714499267,1.31027499999982,
-0.716153600585938,0.584903465576172,-0.0267192905273443,0.925041601313964,1.31332899999961,
-0.680240575683594,0.580115062255859,0.00919373437499971,0.894061100269006,1.31648099999984,
-0.716153600585938,0.580115062255859,-0.0937569370117188,0.926390753584114,1.31953899999962,
-0.701788390625,0.620816490478516,-0.053055508789063,0.938474798318503,1.32262499999979,
-0.694605785644531,0.596874473876953,-0.0171424838867189,0.915985916797061,1.32560299999977,
-0.728124608886719,0.594480272216797,-0.0219308872070325,0.940241035019788,1.32856700000002,
-0.694605785644531,0.616028087158203,-0.00756567724609347,0.928453036556424,1.3316219999997,
-0.696999987304688,0.623210692138672,-0.0362960971679698,0.93569116473777,1.33461499999976,
-0.732913012207031,0.637575902099609,-0.0793917270507816,0.974662793341687,1.33766999999989,
-0.689817382324219,0.627999095458985,0.0379241542968742,0.933632222201587,1.34065899999996,
-0.7400956171875,0.575326658935547,-0.0578439121093748,0.939195509587968,1.34371999999985,
-0.72094200390625,0.623210692138672,-0.0195366855468748,0.953168726865543,1.34668699999975,
-0.708970995605469,0.625604893798828,-0.0482671054687511,0.94675818941543,1.34966299999996,
-0.711365197265625,0.604057078857422,-0.0123540805664071,0.933315606697523,1.35272699999996,
-0.685028979003906,0.584903465576172,0.00679953271484379,0.900790208518771,1.35573199999999,
-0.713759398925781,0.587297667236328,-0.00756567724609347,0.924352892010577,1.35876999999982,
-0.694605785644531,0.580115062255859,-0.0578439121093748,0.906838795528232,1.36174600000004,
-0.708970995605469,0.613633885498047,-0.0267192905273443,0.938030030717314,1.36470199999985,
-0.701788390625,0.604057078857422,-0.00277727392578164,0.92595875339253,1.36774999999989,
-0.699394188964844,0.587297667236328,0.00440533105468788,0.913285381707561,1.37071999999989,
-0.701788390625,0.568144053955078,-0.0362960971679698,0.903665877374024,1.37376999999969,
-0.7400956171875,0.570538255615235,-0.0339018955078121,0.935096124588079,1.37674500000003,
-0.687423180664063,0.560961448974609,0.00679953271484379,0.887284965608643,1.37971199999993,
-0.711365197265625,0.587297667236328,-0.0961511386718747,0.927471851481161,1.38276199999973,
-0.687423180664063,0.587297667236328,0.00440533105468788,0.904150754131871,1.3857509999998,
-0.670663769042969,0.611239683837891,0.00679953271484379,0.907441499960358,1.38879499999985,
-0.718547802246094,0.625604893798828,0.00679953271484379,0.952753200415971,1.3917779999997,
-0.692211583984375,0.589691868896485,-0.0315076938476562,0.909882471540354,1.39471999999978,
-0.704182592285156,0.616028087158203,0.0115879360351556,0.93568050514414,1.39778099999967,
-0.725730407226563,0.584903465576172,0.0786255825195301,0.935402945389196,1.40076199999976,
-0.711365197265625,0.592086070556641,0.0666545742187488,0.927927363047479,1.4038129999999,
-0.732913012207031,0.608845482177735,-0.00277727392578164,0.952817935327143,1.40677800000003,
-0.692211583984375,0.620816490478516,0.00440533105468788,0.929832995109294,1.40977399999974,
-0.694605785644531,0.647152708740234,0.0163763393554675,0.949500926998686,1.41282199999978,
-0.725730407226563,0.556173045654297,-0.0386902988281257,0.915155735330888,1.41579499999989,
-0.701788390625,0.608845482177735,-0.0291134921875003,0.929541479338936,1.41883800000005,
-0.706576793945313,0.625604893798828,-0.0123540805664071,0.943814002965479,1.42181099999971,
-0.689817382324219,0.594480272216797,-0.0123540805664071,0.910718089376859,1.42476199999965,
-0.651510155761719,0.589691868896485,-0.050661307128907,0.880209379263421,1.42780499999981,
-0.706576793945313,0.613633885498047,-0.00517147558593756,0.935854719138181,1.43077700000003,
-0.653904357421875,0.539413634033203,-0.0434787021484375,0.848792303674306,1.43382199999996,
-0.696999987304688,0.584903465576172,0.023558944335937,0.910206608525765,1.43680700000004,
-0.706576793945313,0.608845482177735,-0.0243250888671884,0.933024810419676,1.43983799999978,
-0.752066625488281,0.611239683837891,0.0403183559570301,0.969970994462542,1.44281899999987,
-0.706576793945313,0.599268675537109,-0.00756567724609347,0.926515488642381,1.44577799999979,
-0.701788390625,0.596874473876953,0.00919373437499971,0.921330889275767,1.4488309999997,
-0.711365197265625,0.575326658935547,0.00201112939453019,0.914901772325391,1.45186100000001,
-0.728124608886719,0.592086070556641,-0.00756567724609347,0.938503383310807,1.45497399999977,
-0.685028979003906,0.608845482177735,-0.0291134921875003,0.916954262038584,1.45804499999986,
-0.713759398925781,0.580115062255859,-0.00277727392578164,0.91977914645934,1.46107699999993,
-0.718547802246094,0.623210692138672,-0.00277727392578164,0.951162564527806,1.46412999999984,
-0.713759398925781,0.608845482177735,-0.0458729038085934,0.939281440265357,1.46709799999962,
-0.711365197265625,0.551384642333985,-0.0554497104492189,0.901742833667914,1.47015099999999,
-0.725730407226563,0.572932457275391,-0.0291134921875003,0.925085844665348,1.47313099999974,
-0.696999987304688,0.580115062255859,-0.0219308872070325,0.907096153432778,1.47611800000004,
-0.694605785644531,0.587297667236328,-0.0362960971679698,0.910336835496464,1.47915899999998,
-0.711365197265625,0.568144053955078,-0.0482671054687511,0.911678574605987,1.48213299999998,
-0.685028979003906,0.599268675537109,0.0115879360351556,0.910231798948318,1.48519899999974,
-0.718547802246094,0.608845482177735,-0.0554497104492189,0.943439683111661,1.48817999999983,
-0.677846374023438,0.592086070556641,-0.0267192905273443,0.900419647836613,1.49115499999971,
-0.689817382324219,0.594480272216797,0.00440533105468788,0.910644948348859,1.49424699999963,
-0.711365197265625,0.551384642333985,0.00440533105468788,0.900047151333884,1.49724900000001,
-0.706576793945313,0.563355650634766,-0.0219308872070325,0.903936567828653,1.5003029999998,
-0.699394188964844,0.577720860595703,-0.0195366855468748,0.907356218035337,1.50328599999966,
-0.704182592285156,0.594480272216797,0.00201112939453019,0.921566037771489,1.50625799999989,
-0.706576793945313,0.592086070556641,-0.0171424838867189,0.922014395464109,1.50930500000004,
-0.730518810546875,0.594480272216797,0.00201112939453019,0.941843177635863,1.51229699999976,
-0.730518810546875,0.553778843994141,0.0379241542968742,0.917478600348499,1.51534899999979,
-0.711365197265625,0.606451280517578,-0.00517147558593756,0.934799627557643,1.51833199999965,
-0.6634811640625,0.575326658935547,-0.0171424838867189,0.878351799850991,1.52128300000004,
-0.675452172363281,0.627999095458985,-0.0243250888671884,0.922610541342324,1.52434700000003,
-0.708970995605469,0.601662877197266,-0.0434787021484375,0.930875119415926,1.52733499999977,
-0.673057970703125,0.618422288818359,-0.00517147558593756,0.914045897859666,1.53039099999978,
-0.689817382324219,0.565749852294922,0.0187705410156251,0.892341442239675,1.53338599999961,
-0.673057970703125,0.620816490478516,-0.0171424838867189,0.915813306045984,1.53643099999999,
-0.692211583984375,0.556173045654297,0.023558944335937,0.888279436648602,1.53942800000004,
-0.694605785644531,0.577720860595703,-0.0123540805664071,0.903543697628918,1.5424079999998,
-0.689817382324219,0.592086070556641,0.0115879360351556,0.909146971707763,1.54546499999969,
-0.699394188964844,0.587297667236328,-0.0434787021484375,0.914309126630341,1.54844000000003,
-0.680240575683594,0.587297667236328,-0.0362960971679698,0.899423814126136,1.55148599999984,
-0.716153600585938,0.572932457275391,-0.00277727392578164,0.917134283233529,1.55446499999971,
-0.675452172363281,0.594480272216797,-0.0315076938476562,0.900352800838,1.55742699999973,
-0.675452172363281,0.582509263916016,-0.00277727392578164,0.891941922407907,1.56048199999987,
-0.716153600585938,0.608845482177735,-0.000383072265625728,0.939983482591477,1.56347000000005,
-0.692211583984375,0.587297667236328,-0.0362960971679698,0.90851132827996,1.56651899999997,
-0.713759398925781,0.592086070556641,-0.0698149204101561,0.929995977203113,1.56950099999995,
-0.696999987304688,0.577720860595703,-0.0386902988281257,0.906127647902647,1.57247499999994,
-0.692211583984375,0.577720860595703,0.0211647426757811,0.901868181111924,1.57554399999981,
-0.701788390625,0.606451280517578,-0.014748282226563,0.927635495594079,1.57852199999979,
-0.708970995605469,0.599268675537109,-0.0650265170898443,0.930586517210865,1.58156999999983,
-0.704182592285156,0.592086070556641,0.0331357509765624,0.920617736206199,1.58454299999994,
-0.696999987304688,0.599268675537109,-0.0554497104492189,0.920872737229004,1.58749799999987,
-0.723336205566406,0.560961448974609,-0.0817859287109375,0.919011399088178,1.59054699999979,
-0.701788390625,0.589691868896485,-0.0362960971679698,0.917366258442223,1.59360399999969,
-0.730518810546875,0.577720860595703,-0.000383072265625728,0.93135346248061,1.59674599999971,
-0.744884020507813,0.618422288818359,-0.0219308872070325,0.968390053195978,1.5998069999996,
-0.701788390625,0.582509263916016,-0.0554497104492189,0.913727890650662,1.60281799999984,
-0.689817382324219,0.592086070556641,-0.0769975253906257,0.91232809603789,1.60585499999979,
-0.708970995605469,0.589691868896485,-0.0123540805664071,0.922241289554463,1.60882999999967,
