X,Y,Z,Magnitude,Seconds,
-0.0746033237304686,0.0488895979003906,0.0168551796875018,0.0907741470727925,0.0,
-0.0698149204101561,0.0728316145019531,0.0168551796875018,0.102287165691183,0.00376999999934924,
-0.0482671054687498,0.0967736311035157,0.0479798012695323,0.118308539324744,0.00767900000028021,
-0.0769975253906249,0.0704374128417968,-0.00469263525390495,0.104460848501971,0.0114360000006855,
-0.0865743320312499,0.0895910261230469,-0.0238462485351558,0.126847587669762,0.0151949999999488,
-0.0793917270507811,0.0895910261230469,0.0144609780273441,0.120576607065357,0.0189570000002277,
-0.0650265170898436,0.0656490095214843,-0.0358172568359372,0.0991015452111578,0.0227040000008856,
-0.0913627353515624,0.0680432111816406,-0.0262404501953117,0.116899911143172,0.0264409999999771,
-0.110516348632812,0.0560722028808593,0.0527682045898441,0.134693870189691,0.0302869999995892,
-0.0674207187499999,0.0632548078613281,-0.0429998618164049,0.101959365193051,0.0342639999998937,
-0.0506613071289062,0.0680432111816406,-0.0669418784179676,0.108063230166624,0.0381689999994705,
-0.00995987890624989,0.0345243879394531,0.0814986245117204,0.0890682791330528,0.0420009999998001,
-0.0626323154296874,0.0417069929199219,-0.0453940634765608,0.0878800386516773,0.0458440000002156,
-0.0817859287109374,0.0584664045410156,0.0288261879882832,0.104585886758205,0.0496330000005401,
-0.0865743320312499,0.0608606062011718,-0.00708683691406087,0.106062960600191,0.0535500000005413,
-0.0626323154296874,0.111138841064453,0.0240377846679696,0.129817040564701,0.0574280000000726,
-0.0650265170898436,0.127898252685547,0.00248996972656279,0.143501257534876,0.0612120000005234,
-0.0722091220703124,0.0943794294433594,-0.00229843359374904,0.118856707043415,0.0650070000010601,
-0.0698149204101561,0.0728316145019531,-0.0549708701171863,0.114892835913638,0.0688540000010107,
-0.0913627353515624,0.0656490095214843,-0.0238462485351558,0.115002545325188,0.072636999999304,
-0.100939541992187,0.0608606062011718,0.00488417138672048,0.117968892742543,0.0764120000003459,
-0.103333743652344,0.0848026228027344,-0.0238462485351558,0.135786564065196,0.0803070000001753,
-0.0961511386718749,0.103956236083984,0.0479798012695323,0.149512547361454,0.0841319999999541,
-0.103333743652344,0.106350437744141,-0.0525766684570304,0.157329540301938,0.0879150000000664,
-0.108122146972656,0.130292454345703,0.0647392128906255,0.181266897174033,0.0916899999992893,
-0.0841801303710936,0.111138841064453,0.0168551796875018,0.140435869437769,0.0954689999998664,
-0.0865743320312499,0.0632548078613281,0.0288261879882832,0.111028081124401,0.09925099999964,
-0.0817859287109374,0.0848026228027344,0.0072783730468764,0.11803981397623,0.10314500000095,
-0.0698149204101561,0.147051865966797,-0.0142694418945304,0.163407439757725,0.107195000000502,
-0.0674207187499999,0.0967736311035157,0.0144609780273441,0.118826802023926,0.111047000000326,
-0.0602381137695311,0.0608606062011718,-0.0166636435546863,0.0872371523733021,0.114881999999852,
-0.0841801303710936,0.130292454345703,0.0072783730468764,0.155291315671325,0.118717999999717,
-0.115304751953125,0.120715647705078,0.0240377846679696,0.168657251594978,0.122586999999839,
-0.110516348632812,0.0608606062011718,-0.00708683691406087,0.126364947512156,0.126465999999709,
-0.0698149204101561,0.0393127912597656,0.0479798012695323,0.0933899352091763,0.130435999999463,
-0.112910550292969,0.0656490095214843,-0.00708683691406087,0.130800642491004,0.134255999999368,
-0.0865743320312499,0.120715647705078,0.0168551796875018,0.149504112484612,0.138108999999531,
-0.0937569370117186,0.0871968244628907,-0.0573650717773422,0.140301107958031,0.141923000001043,
-0.0698149204101561,0.123109849365234,0.0479798012695323,0.149439684998567,0.145732999999382,
-0.0458729038085936,0.0536780012207031,-0.0525766684570304,0.0880338411346613,0.149514000000636,
-0.0817859287109374,0.00579396801757814,0.0072783730468764,0.0823133216114424,0.153381000000081,
-0.0506613071289062,0.0393127912597656,-0.0837012900390608,0.105441782756392,0.15716699999939,
-0.00995987890624989,0.0393127912597656,9.57680664068761e-05,0.0405549493401682,0.160947000000306,
-0.0291134921874999,0.0824084211425782,0.0599508095703136,0.105985106834405,0.164708000000246,
-0.0410845004882811,0.142263462646484,-0.00469263525390495,0.148151442146762,0.168470000000525,
-0.0913627353515624,0.0967736311035157,9.57680664068761e-05,0.133087543592184,0.17222799999945,
-0.0961511386718749,0.0991678327636719,-0.0621534750976558,0.151467339679736,0.176210999999967,
-0.0841801303710936,0.0488895979003906,-0.0238462485351558,0.10022539948215,0.180164999999761,
-0.0817859287109374,0.0680432111816406,9.57680664068761e-05,0.10638997083627,0.183974999999919,
-0.0865743320312499,0.123109849365234,-0.0238462485351558,0.152380423764302,0.187772999999652,
-0.0722091220703124,0.0871968244628907,-0.0238462485351558,0.115698258741339,0.19155099999989,
-0.0578439121093749,0.111138841064453,0.0455855996093764,0.133325942910647,0.195410000000265,
-0.0865743320312499,0.106350437744141,0.0144609780273441,0.137893620086409,0.199254000001019,
-0.0793917270507811,0.0752258161621093,-0.0142694418945304,0.110297718531902,0.203153000000384,
-0.0793917270507811,0.0704374128417968,-0.0118752402343745,0.106796520460994,0.20694100000037,
-0.0722091220703124,0.0991678327636719,0.0216435830078137,0.12456669318331,0.21076499999981,
-0.0841801303710936,0.0728316145019531,-0.0142694418945304,0.11222457570531,0.214547999999922,
-0.0985453403320311,0.0560722028808593,-0.040605660156249,0.12043295094696,0.21829500000058,
-0.115304751953125,0.0560722028808593,0.00967257470703231,0.128580078007237,0.222100999999384,
-0.0746033237304686,0.103956236083984,-0.0190578452148422,0.129366751511411,0.225915999999415,
-0.0554497104492186,0.0967736311035157,9.57680664068761e-05,0.111533919671928,0.229746999999406,
-0.0362960971679686,0.0848026228027344,0.0479798012695323,0.103975731946033,0.23352100000011,
-0.0506613071289062,0.0560722028808593,-0.0166636435546863,0.0773843459133645,0.23728200000005,
-0.0698149204101561,0.0273417829589844,-0.0334230551757795,0.0820901749573957,0.241013000000748,
-0.0602381137695311,0.0560722028808593,-0.00469263525390495,0.0824302317845184,0.24474200000077,
-0.0267192905273436,0.0393127912597656,-0.0837012900390608,0.0962565426198213,0.248713000000862,
0.0067995327148439,0.0871968244628907,-0.00948103857421678,0.0879739162138312,0.25270300000011,
-0.0674207187499999,0.0752258161621093,0.0455855996093764,0.110826547477436,0.256529000000228,
-0.0602381137695311,0.0895910261230469,0.0743160195312509,0.131065071896599,0.260342999999921,
-0.0243250888671874,0.0848026228027344,0.0072783730468764,0.0885221412801843,0.264172999999573,
-0.0506613071289062,0.0848026228027344,-0.0166636435546863,0.100178490160063,0.268033000000287,
-0.0722091220703124,0.0895910261230469,0.0623450112304695,0.130872494043909,0.271914000000834,
-0.0123540805664061,0.0943794294433594,0.0503740029296882,0.107692340395478,0.275826999999481,
0.0570777675781252,0.0871968244628907,0.172478287597658,0.201519025009389,0.279684000000998,
0.112144405761719,0.108744639404297,0.23472753076172,0.28195527666691,0.283532999999807,
0.126509615722656,0.0871968244628907,0.253881144042969,0.296755125258644,0.287306000000171,
0.203124068847656,0.132686656005859,0.201208707519532,0.31519847716784,0.29109199999948,
0.308468941894531,0.101562034423828,0.320918790527346,0.456570701056663,0.294909000000189,
0.370718185058594,0.0464953962402344,0.337678202148439,0.503607349838022,0.298773000000438,
0.452121041503906,0.0321301862792969,0.31134198388672,0.549890549083577,0.302557999999408,
0.576619527832031,-0.0253306535644531,0.328101395507813,0.66391433756277,0.305943999999727,
0.521552889648438,-0.0157538469238281,0.241910135742188,0.575140082213315,0.308909999999742,
0.44972683984375,-0.0085712419433594,0.177266690917969,0.483478206720122,0.311878000000434,
0.272555916992188,0.0441011945800781,0.131776859375002,0.305935914723298,0.314935000000332,
-0.256562649902344,0.0919852277832032,0.0958638344726577,0.288921356453692,0.317906000000221,
-0.254168448242187,0.139869260986328,-0.0334230551757795,0.292031010113629,0.32094700000016,
-0.187130801757812,0.130292454345703,-0.107643306640623,0.252153013248853,0.323927999999796,
-0.27811046484375,0.221272117431641,-0.150738936523437,0.386042753581135,0.326962000001004,
-0.345148111328125,0.266761948974609,-0.124402718261718,0.453613483579367,0.33009200000015,
-0.337965506347656,0.238031529052734,-0.234535994628905,0.475275525438224,0.333145000000513,
-0.246985843261719,0.185359092529297,-0.236930196289061,0.389224765230271,0.336220999999568,
-0.223043826660156,0.0177649763183594,-0.179469356445312,0.286833388742824,0.339183000000048,
-0.170371390136719,-0.111521913330078,-0.150738936523437,0.25334911626871,0.342113000000609,
-0.16318878515625,-0.183347963134766,-0.0501824667968744,0.250530108290919,0.345126000000164,
-0.136852566894531,-0.240808802978516,0.033614591308595,0.279011550668447,0.348120000000563,
-0.00995987890624989,-0.0756088884277344,-0.0334230551757795,0.0832646612578707,0.35111599999982,
-0.357119119628906,0.606738584716797,-0.177075154785156,0.725962386236955,0.354089000000386,
-1.06101440771484,1.27232664624023,-0.658309688476562,1.78267728825312,0.357051000000865,
-1.46802868994141,1.05445429516602,-1.10123699560547,2.11653136418417,0.360113000000638,
-2.0210892734375,1.31302807446289,-0.533811202148437,2.46856212704299,0.363101000000825,
-2.09530952490234,1.05445429516602,-0.0382114584960931,2.34598720825603,0.366154999999708,
-2.04024288671875,0.800668919189453,0.112623246093751,2.19461744969896,0.369161000000531,
-1.66195902441406,0.594767576416016,-0.0214520468749981,1.76530916813522,0.37219499999992,
-1.16635928076172,0.379289427001953,-0.232141792968749,1.24825648538159,0.37514899999951,
-0.687518948730469,0.0895910261230469,-0.387764900878905,0.794399443088209,0.378108000000793,
-0.275716263183594,-0.113916114990234,-0.191440364746093,0.354465445837123,0.381121000000348,
0.0810197841796876,-0.348547877685547,0.00488417138672048,0.357873837543005,0.384108000000197,
0.432967428222656,-0.508959388916016,0.258669547363283,0.716526613742037,0.387149000000136,
0.751396249023438,-0.698101320068359,0.263457950683595,1.05893902936197,0.390138000000661,
1.02433523828125,-0.911185267822266,0.301765177246095,1.40377473081667,0.393067999999403,
1.29488002587891,-1.03328955249023,0.258669547363283,1.67669660804773,0.396124000000782,
1.37628288232422,-1.09075039233398,0.124594254394532,1.76051546962347,0.399106000000756,
1.32361044580078,-1.12426921557617,-0.0573650717773422,1.73758931649145,0.402137999999468,
1.13925691796875,-1.10511560229492,-0.16749834814453,1.59600830706061,0.405119000000923,
0.71787742578125,-0.999770729248047,-0.160315743164061,1.24120532024872,0.408083000000261,
0.310863143554688,-0.901608461181641,-0.117220113281249,0.960871617986866,0.411105999999563,
-0.0315076938476561,-0.717254933349609,-0.0669418784179676,0.721060738961758,0.414071999999578,
-0.275716263183594,-0.537689808837891,0.0216435830078137,0.604647197130251,0.417116000000533,
-0.479223404296875,-0.250385609619141,-0.078912886718749,0.54642041361988,0.420081000000209,
-0.606116092285156,0.0153707746582031,-0.20580557470703,0.640288148118573,0.423063000000184,
-0.685124747070312,0.182964890869141,-0.177075154785156,0.730908804695294,0.426107999999658,
-0.675547940429687,0.403231443603516,-0.102854903320312,0.793435408881151,0.429071000000476,
-0.620481302246094,0.549277744873047,-0.0525766684570304,0.830341732972557,0.432136999999784,
-0.594145083984375,0.671382029541016,0.033614591308595,0.897157818425642,0.435128000000987,
-0.481617605957031,0.716871861083984,0.0767102211914068,0.867032434005229,0.438088000000789,
-0.357119119628906,0.709689256103516,0.126988456054688,0.804561354903677,0.441124000000855,
-0.148823575195312,0.527729929931641,0.143747867675783,0.566842822077605,0.444107999999687,
-0.0626323154296874,0.403231443603516,0.0838928261718763,0.416601020557756,0.447145000000091,
0.0187705410156251,0.218877915771484,0.0455855996093764,0.224361142166451,0.450140999999348,
0.0475009609375001,0.0321301862792969,0.0743160195312509,0.0938699148785035,0.45310900000004,
0.0427125576171876,-0.123492921630859,0.033614591308595,0.134925183045905,0.456141000000571,
0.0307415493164064,-0.240808802978516,0.0360087929687509,0.245419142728079,0.459115999999995,
0.0187705410156251,-0.365307289306641,0.00488417138672048,0.36582181996256,0.462156999999934,
-0.0482671054687498,-0.382066700927734,-0.0549708701171863,0.389007035912687,0.465134000000035,
-0.0554497104492186,-0.346153676025391,-0.138767928222656,0.377032592381616,0.468231999999261,
-0.134458365234375,-0.336576869384766,-0.0980664999999981,0.375473140728601,0.471272000000681,
-0.156006180175781,-0.298269642822266,-0.040605660156249,0.339045023144545,0.474282999999559,
-0.184736600097656,-0.125887123291016,0.00248996972656279,0.223565156442966,0.477319999999963,
-0.215861221679687,-0.0205422502441406,0.0192493813476577,0.21768920449211,0.480283000000782,
-0.235014834960937,0.0776200178222656,-0.0597592734374981,0.254613453258509,0.48330100000021,
-0.151217776855469,0.156628672607422,0.0503740029296882,0.223465651255475,0.486301999999341,
-0.144035171875,0.190147495849609,0.0814986245117204,0.25207980226952,0.489267999999356,
-0.127275760253906,0.245214134033203,0.179660892578125,0.329555954277619,0.492310999999972,
-0.132064163574219,0.221272117431641,0.0551624062500018,0.263524542152206,0.495280000001003,
-0.0746033237304686,0.147051865966797,0.0240377846679696,0.166636497465872,0.498329000000012,
-0.151217776855469,0.0369185895996094,-0.0262404501953117,0.157855502031406,0.501317000000199,
-0.132064163574219,-0.0373016618652344,0.00248996972656279,0.13725362373251,0.504269999999451,
-0.175159793457031,-0.0947625017089844,0.00967257470703231,0.199385164130931,0.507321999999476,
-0.115304751953125,-0.113916114990234,-0.138767928222656,0.213374330650732,0.510293999999703,
-0.146429373535156,-0.121098719970703,-0.0549708701171863,0.197808639785732,0.513304000000062,
-0.153611978515625,-0.140252333251953,-0.0477882651367167,0.213426978638781,0.516257999999652,
-0.139246768554687,-0.104339308349609,0.0144609780273441,0.174600898351941,0.519200000000637,
-0.103333743652344,-0.0277248552246094,-0.0549708701171863,0.120284357818772,0.522208000000319,
-0.112910550292969,-0.0157538469238281,9.57680664068761e-05,0.114004321110574,0.525174000000334,
-0.108122146972656,0.0273417829589844,0.0407971962890645,0.118753454629334,0.528212999999596,
-0.165582986816406,0.0728316145019531,0.0479798012695323,0.187147618002119,0.53119499999957,
-0.122487356933594,0.0680432111816406,0.0503740029296882,0.148897855483708,0.534141000000091,
-0.117698953613281,0.0536780012207031,0.0288261879882832,0.132534224299412,0.537186999999903,
-0.134458365234375,0.0297359846191406,0.0168551796875018,0.138734919342854,0.540166000000681,
-0.141640970214844,-0.0157538469238281,-0.0573650717773422,0.153626493796875,0.543168000000151,
-0.170371390136719,0.00579396801757814,0.0144609780273441,0.171082145555911,0.546152999999322,
-0.146429373535156,-0.0325132585449219,0.00967257470703231,0.150307125967368,0.549081000001024,
-0.148823575195312,-0.0708204851074219,-0.107643306640623,0.196852937771557,0.552083000000493,
-0.1057279453125,-0.0205422502441406,-0.0142694418945304,0.108646212253706,0.55503200000021,
-0.112910550292969,-0.0325132585449219,-0.040605660156249,0.124317030150317,0.55803399999968,
-0.112910550292969,-0.0157538469238281,-0.00948103857421678,0.114397841556588,0.560982000000877,
-0.146429373535156,-0.00617704028320315,-0.00229843359374904,0.146577624682431,0.563991000000897,
-0.167977188476562,0.0464953962402344,-0.0310288535156236,0.177033746699665,0.566952000001038,
-0.153611978515625,0.0153707746582031,-0.0453940634765608,0.16091464090005,0.569907999999486,
-0.160794583496094,0.0153707746582031,-0.00229843359374904,0.161543930843162,0.572943999999552,
-0.144035171875,0.0177649763183594,-0.0501824667968744,0.15355782329296,0.575913000000583,
-0.12488155859375,0.00818816967773439,0.0431913979492204,0.132393151848136,0.57895599999938,
-0.139246768554687,-0.0109654436035156,0.0288261879882832,0.142621361023798,0.581916000001002,
-0.141640970214844,-0.0253306535644531,-0.00948103857421678,0.144200196067309,0.584843000000546,
-0.112910550292969,0.0129765729980469,0.0575566079101577,0.127396808941034,0.587917000000743,
-0.112910550292969,-0.0157538469238281,-0.0334230551757795,0.118802679589492,0.590867000000799,
-0.117698953613281,0.00818816967773439,0.0551624062500018,0.130242008843625,0.59391499999947,
-0.12488155859375,-0.0373016618652344,0.0168551796875018,0.1314188522892,0.596876999999949,
-0.1057279453125,-0.0277248552246094,-0.0262404501953117,0.112408305937244,0.599811000000045,
-0.172765591796875,-0.0253306535644531,-0.00948103857421678,0.174869899672221,0.602827000000616,
-0.122487356933594,-0.0253306535644531,-0.00708683691406087,0.125279758444956,0.605865999999878,
-0.139246768554687,0.00579396801757814,-0.00708683691406087,0.139547324860629,0.608990000000631,
-0.179948196777344,-0.0325132585449219,-0.00948103857421678,0.183107497380834,0.612024000000019,
-0.139246768554687,-0.0349074602050781,-0.00708683691406087,0.143730360704822,0.614990000000034,
-0.12488155859375,0.0225533796386719,-0.00708683691406087,0.127099495936753,0.618024999999761,
-0.158400381835937,-0.0325132585449219,-0.0166636435546863,0.162559127592078,0.620967000000746,
-0.115304751953125,0.0153707746582031,-0.0214520468749981,0.118286249630682,0.624017000000094,
-0.108122146972656,-0.0205422502441406,-0.00708683691406087,0.110284205435393,0.62699000000066,
-0.112910550292969,-0.0229364519042969,9.57680664068761e-05,0.115216675724227,0.62992099999974,
-0.136852566894531,0.0105823713378906,0.00488417138672048,0.137347976974144,0.632966000001034,
-0.122487356933594,-0.0133596452636719,0.0671334145507831,0.140315815499879,0.635933999999907,
-0.132064163574219,-0.0109654436035156,0.0623450112304695,0.146451646215764,0.63896399999976,
-0.1057279453125,-0.0037828386230469,-0.040605660156249,0.113320465604302,0.641934999999648,
-0.146429373535156,0.0105823713378906,0.033614591308595,0.150610387310687,0.64490300000034,
-0.12488155859375,-0.0181480485839844,0.0216435830078137,0.128035932572177,0.647946000000957,
-0.158400381835937,0.0201591779785156,0.00488417138672048,0.159752710627003,0.65093700000034,
-0.158400381835937,0.00339976635742184,0.00967257470703231,0.158731843303475,0.653994000000239,
-0.132064163574219,-0.0301190568847656,9.57680664068761e-05,0.135455195764903,0.656944000000294,
-0.177553995117187,-0.0349074602050781,-0.0118752402343745,0.181342144276137,0.659949000000779,
-0.134458365234375,0.00100556469726559,-0.0334230551757795,0.138553829824888,0.662915999999313,
-0.175159793457031,0.0345243879394531,9.57680664068761e-05,0.178529817616067,0.665877999999793,
-0.117698953613281,-0.0085712419433594,-0.124402718261718,0.171471706648699,0.668885000000955,
-0.129669961914062,-0.0301190568847656,0.00248996972656279,0.133145246102373,0.671850000000632,
-0.158400381835937,0.00818816967773439,-0.0214520468749981,0.160055982092421,0.674881000000823,
-0.1057279453125,-0.0085712419433594,-0.0621534750976558,0.122942747143414,0.677838999999949,
-0.12488155859375,-0.0133596452636719,-0.0429998618164049,0.132751165398294,0.680761999999959,
-0.153611978515625,-0.0253306535644531,0.0623450112304695,0.167705642060172,0.683804000000237,
-0.151217776855469,0.0129765729980469,0.00488417138672048,0.151852107703577,0.686784999999873,
-0.139246768554687,-0.00617704028320315,0.0312203896484391,0.14283742895118,0.689813999999387,
-0.151217776855469,0.0297359846191406,-0.0214520468749981,0.155599598757539,0.692784999999276,
-0.134458365234375,0.0297359846191406,0.00967257470703231,0.138046511959678,0.695765000000392,
-0.12488155859375,-0.00138863696289065,0.0216435830078137,0.126750844868328,0.69879100000071,
-0.1057279453125,-0.0037828386230469,-0.00229843359374904,0.105820560785869,0.701752999999371,
-0.12488155859375,-0.0253306535644531,0.0312203896484391,0.131193591370184,0.704794999999649,
-0.134458365234375,-0.0229364519042969,0.0216435830078137,0.138107123251753,0.707758000000467,
-0.151217776855469,-0.00138863696289065,0.0312203896484391,0.154413267174571,0.710699999999633,
-0.129669961914062,-0.0373016618652344,0.0192493813476577,0.136294723606493,0.713734000000841,
-0.144035171875,-0.0229364519042969,-0.00469263525390495,0.145925434344548,0.716678000000684,
-0.129669961914062,0.0105823713378906,-0.0286346518554677,0.133214972479865,0.719718000000285,
-0.139246768554687,-0.0420900651855469,0.0144609780273441,0.146186032252584,0.722680999999284,
-0.160794583496094,-0.0133596452636719,0.0455855996093764,0.167664620880494,0.725625000000946,
-0.144035171875,0.0153707746582031,-0.0190578452148422,0.146101310448904,0.728664000000208,
-0.170371390136719,-0.00138863696289065,-0.0142694418945304,0.17097355310607,0.73161699999946,
-0.129669961914062,-0.0037828386230469,-0.0118752402343745,0.130267533259314,0.734623000000283,
-0.156006180175781,-0.0373016618652344,-0.0262404501953117,0.162535852836841,0.737573000000339,
-0.141640970214844,-0.0085712419433594,-0.0549708701171863,0.152175645861269,0.74049500000001,
-0.127275760253906,-0.00617704028320315,-0.00708683691406087,0.127622483255564,0.743532000000414,
-0.12488155859375,0.0129765729980469,0.0120667763671882,0.126132478828704,0.746608999999808,
-0.134458365234375,-0.0396958635253906,0.00488417138672048,0.140280678258489,0.749730999999883,
-0.153611978515625,0.00818816967773439,-0.0286346518554677,0.156472455572986,0.752785000000586,
-0.117698953613281,-0.00617704028320315,0.0384029946289068,0.123959628527959,0.75582200000099,
-0.132064163574219,-0.0085712419433594,-0.00469263525390495,0.132425187614123,0.758766000000833,
-0.134458365234375,-0.0588494768066407,-0.0118752402343745,0.14725262046069,0.761709000000337,
-0.120093155273437,0.0105823713378906,-0.00229843359374904,0.120580410198539,0.764758999999685,
-0.160794583496094,-0.0157538469238281,9.57680664068761e-05,0.161564510168862,0.767745999999534,
-0.156006180175781,-0.0157538469238281,-0.0429998618164049,0.162588745189105,0.770748000000822,
-0.144035171875,-0.0468784685058594,0.0288261879882832,0.154190371490737,0.773725000000923,
-0.129669961914062,-0.0085712419433594,-0.0238462485351558,0.132122703501126,0.776653999999326,
-0.0913627353515624,-0.0253306535644531,-0.0932780966796862,0.133002235850029,0.779673000000912,
-0.148823575195312,-0.0205422502441406,0.00488417138672048,0.150313990397243,0.782638000000588,
-0.156006180175781,-0.0516668718261719,-0.0166636435546863,0.165181932770682,0.785680999999386,
-0.136852566894531,0.0129765729980469,-0.00708683691406087,0.137648973006856,0.7886780000008,
-0.1057279453125,-0.0229364519042969,9.57680664068761e-05,0.108187283991621,0.791634999999587,
-0.172765591796875,-0.0109654436035156,-0.0142694418945304,0.173700338613164,0.794647000000623,
-0.112910550292969,0.00100556469726559,0.0120667763671882,0.113557961498598,0.797645000000557,
-0.129669961914062,-0.0133596452636719,-0.0166636435546863,0.131417107565504,0.8006519999999,
-0.136852566894531,-0.0037828386230469,-0.0118752402343745,0.137418907957727,0.803605000000971,
-0.148823575195312,-0.0277248552246094,-0.0693360800781235,0.166507105349112,0.806522000000768,
-0.112910550292969,-0.0277248552246094,0.00967257470703231,0.116666270473302,0.809551000000283,
-0.141640970214844,-0.0277248552246094,0.0407971962890645,0.149984143380813,0.812501000000339,
-0.151217776855469,-0.0133596452636719,0.00488417138672048,0.151885322822241,0.815534999999727,
-0.16318878515625,0.00100556469726559,-0.0477882651367167,0.17004502064427,0.818498000000545,
-0.146429373535156,0.0201591779785156,-0.0453940634765608,0.154623979025188,0.821454999999332,
-0.136852566894531,-0.0253306535644531,-0.0166636435546863,0.140171124316466,0.824463999999352,
-0.1823423984375,0.00579396801757814,0.0384029946289068,0.186432589237495,0.827461000000767,
-0.144035171875,-0.00138863696289065,-0.0310288535156236,0.147346017252485,0.830470000000787,
-0.127275760253906,0.0273417829589844,0.0623450112304695,0.144338465659412,0.833466000000044,
-0.127275760253906,0.0177649763183594,0.0072783730468764,0.128715532264025,0.836418999999296,
-0.122487356933594,0.0105823713378906,0.00248996972656279,0.122968854353246,0.839464000000589,
-0.141640970214844,-0.0181480485839844,0.0407971962890645,0.148512381086081,0.84244100000069,
-0.141640970214844,0.00579396801757814,-0.0429998618164049,0.148137512551753,0.845477000000756,
-0.160794583496094,-0.0181480485839844,-0.0429998618164049,0.167431292969142,0.84842799999933,
-0.112910550292969,-0.0277248552246094,0.0264319863281255,0.119231329213159,0.851454999999987,
-0.156006180175781,0.0153707746582031,-0.0501824667968744,0.164597900777777,0.854419999999664,
-0.167977188476562,0.0249475812988281,-0.00469263525390495,0.169884485715378,0.857374000001073,
-0.1823423984375,-0.0468784685058594,0.00248996972656279,0.188288451654991,0.860396000000037,
-0.170371390136719,-0.0205422502441406,0.0503740029296882,0.178846120431423,0.863354000000982,
-0.16318878515625,-0.0325132585449219,-0.0262404501953117,0.168452523900458,0.866359999999986,
-0.112910550292969,0.0129765729980469,0.0072783730468764,0.11388660381469,0.869343000000299,
-0.120093155273437,0.0273417829589844,-0.0334230551757795,0.127620686631084,0.872289999999339,
-0.136852566894531,0.0417069929199219,-0.0334230551757795,0.146919021713758,0.875330000000758,
-0.158400381835937,-0.0133596452636719,0.00488417138672048,0.159037782358397,0.878286999999546,
-0.158400381835937,0.0201591779785156,-0.0142694418945304,0.160314348685704,0.881321999999273,
-0.16318878515625,-0.0468784685058594,0.0288261879882832,0.172218232264076,0.884362000000692,
-0.148823575195312,-0.0133596452636719,-0.0525766684570304,0.158402155040664,0.88738100000046,
-0.144035171875,-0.0277248552246094,-0.0358172568359372,0.150988987086932,0.890482000000702,
-0.146429373535156,0.00818816967773439,-0.0382114584960931,0.151554356971247,0.893497999999454,
-0.136852566894531,0.0345243879394531,-0.0142694418945304,0.14185970322892,0.896526000000449,
-0.156006180175781,-0.0229364519042969,-0.00229843359374904,0.157700005947943,0.899470000000292,
-0.16318878515625,0.0129765729980469,-0.0358172568359372,0.167576391340779,0.902411000000939,
-0.153611978515625,0.00579396801757814,-0.00708683691406087,0.153884480264645,0.905489000000671,
-0.103333743652344,-0.0205422502441406,-0.0358172568359372,0.11127768199218,0.908424999999625,
-0.189525003417969,0.00579396801757814,0.0144609780273441,0.190164183987093,0.911477999999988,
-0.136852566894531,0.00339976635742184,0.0479798012695323,0.145059452662593,0.914457999999286,
-0.110516348632812,-0.0420900651855469,0.0360087929687509,0.123620670090075,0.91739299999972,
-0.12488155859375,-0.0325132585449219,0.0072783730468764,0.129249720975415,0.920454000000973,
-0.132064163574219,0.0129765729980469,0.0264319863281255,0.135307001476575,0.923431000001074,
-0.146429373535156,0.00818816967773439,-0.0214520468749981,0.148218750067921,0.926493999999366,
-0.120093155273437,-0.0373016618652344,-0.0262404501953117,0.128461438369228,0.92945200000031,
-0.134458365234375,0.0273417829589844,-0.00229843359374904,0.137229398722947,0.932405999999901,
-0.127275760253906,-0.0253306535644531,-0.0262404501953117,0.132398347363797,0.935416000000259,
-0.112910550292969,0.00339976635742184,0.00488417138672048,0.113067262763724,0.938394000000699,
-0.115304751953125,-0.0301190568847656,-0.0334230551757795,0.123771741637106,0.941404000001057,
-0.151217776855469,-0.0301190568847656,-0.00708683691406087,0.154350888828618,0.944352000000436,
-0.134458365234375,0.00818816967773439,-0.0334230551757795,0.138791925995193,0.947378000000754,
-0.156006180175781,-0.0253306535644531,0.0216435830078137,0.159524339674097,0.950339999999414,
-0.112910550292969,-0.0349074602050781,-0.0310288535156236,0.122188841126856,0.953267000000778,
-0.156006180175781,-0.0229364519042969,0.0288261879882832,0.16029646968331,0.95631400000093,
-0.100939541992187,0.00579396801757814,0.0312203896484391,0.105816227171364,0.959290000000692,
-0.146429373535156,-0.0253306535644531,0.00967257470703231,0.148918642705887,0.962299000000712,
-0.0937569370117186,-0.0085712419433594,0.0216435830078137,0.0966036961595523,0.96526300000005,
-0.127275760253906,-0.0133596452636719,-0.0142694418945304,0.128768071515272,0.968179999999847,
-0.112910550292969,-0.0229364519042969,-0.0429998618164049,0.122979109240753,0.971197000000757,
-0.160794583496094,-0.0444842668457031,-0.0190578452148422,0.167919473387439,0.974137000001065,
-0.117698953613281,-0.0325132585449219,0.0144609780273441,0.122960463354599,0.977165000000241,
-0.0937569370117186,-0.0181480485839844,-0.00229843359374904,0.0955248538455354,0.980116000000635,
-0.127275760253906,0.00339976635742184,-0.0190578452148422,0.128739578311131,0.983072000000902,
-0.148823575195312,-0.0181480485839844,-0.00708683691406087,0.150093409111686,0.986079000000245,
-0.158400381835937,-0.00138863696289065,0.00248996972656279,0.158426037088683,0.989053999999669,
-0.136852566894531,-0.00617704028320315,-0.040605660156249,0.142883170908989,0.992061000000831,
-0.151217776855469,-0.0037828386230469,-0.0573650717773422,0.161777246129293,0.995012999999744,
-0.139246768554687,-0.0133596452636719,0.0192493813476577,0.14120439567082,0.997948000000179,
-0.139246768554687,-0.0109654436035156,-0.00948103857421678,0.139999262850882,1.00095900000088,
-0.129669961914062,-0.0301190568847656,0.00488417138672048,0.133211530058614,1.00392500000089,
-0.148823575195312,0.00579396801757814,0.033614591308595,0.152682570544733,1.00697200000104,
-0.120093155273437,-0.00138863696289065,-0.0382114584960931,0.126033367869558,1.00991400000021,
-0.120093155273437,-0.00138863696289065,0.0551624062500018,0.132163479522275,1.01286699999946,
-0.129669961914062,-0.0516668718261719,0.0384029946289068,0.144770696840087,1.01589000000058,
-0.172765591796875,-0.0420900651855469,-0.0645476767578117,0.189171683586838,1.01883500000076,
