X,Y,Z,Magnitude,Seconds,
0.17453730102539,0.203985981445313,0.0121625444335951,0.268740539484712,0.0,
0.126653267822265,0.208774384765625,-0.124306950195312,0.274007320798521,0.00370299999940471,
0.0979228479003904,0.227927998046875,0.000191536132813752,0.248072757715694,0.00745399999959773,
0.121864864501953,0.220745393066406,-0.059663505371093,0.259112538548963,0.0111559999995734,
0.160172091064453,0.194409174804688,-0.0141736738281235,0.252291337611867,0.0148929999995744,
0.13623007446289,0.230322199707031,-0.0357214887695303,0.269968467836453,0.0186359999997876,
0.141018477783203,0.227927998046875,-0.00459686718749985,0.268064385097848,0.0227429999995366,
0.150595284423828,0.225533796386719,0.00497993945312558,0.271236488696223,0.0265919999992548,
0.15538368774414,0.196803376464844,-0.0141736738281235,0.251150457763305,0.0303719999992609,
0.141018477783203,0.227927998046875,0.0384987626953137,0.270775807817128,0.0341989999997168,
0.124259066162109,0.213562788085938,0.0073741411132815,0.247191743259513,0.0380189999996219,
0.141018477783203,0.165678754882813,0.0073741411132815,0.217692532836957,0.0418479999998453,
0.105105452880859,0.156101948242188,0.00976834277343741,0.188442020236561,0.0457389999992301,
0.157777889404297,0.163284553222656,-0.102759135253905,0.249229106615033,0.0495339999997668,
0.126653267822265,0.208774384765625,-0.0141736738281235,0.244599033142222,0.0533579999992071,
0.160172091064453,0.175255561523438,-0.0644519086914048,0.246015566854661,0.0571469999995315,
0.133835872802734,0.227927998046875,0.014556746093751,0.264717041384501,0.0609329999997499,
0.181719906005859,0.206380183105469,-0.0859997236328116,0.288116047248926,0.0646829999996044,
0.150595284423828,0.194409174804688,0.00976834277343741,0.246108284012287,0.0684779999992315,
0.124259066162109,0.220745393066406,0.0480755693359374,0.25783736046294,0.0723479999996925,
0.100317049560547,0.208774384765625,-0.0237504804687489,0.232839729190048,0.0760999999993146,
0.100317049560547,0.201591779785156,0.0600465776367187,0.233041514746542,0.0798679999998058,
0.109893856201172,0.223139594726563,0.000191536132813752,0.248732738198229,0.0836049999998068,
0.126653267822265,0.215956989746094,-0.0357214887695303,0.252892262495642,0.0873169999995298,
0.150595284423828,0.220745393066406,0.0624407792968764,0.274419968606399,0.0911679999999251,
0.167354696044922,0.2375048046875,0.0456813676757815,0.294113777118083,0.0952299999999013,
0.143412679443359,0.215956989746094,-0.00220266552734216,0.25924789252903,0.0990689999998722,
0.148201082763672,0.182438166503906,0.0169509477539069,0.235657760660215,0.102887999999439,
0.112288057861328,0.194409174804688,0.0361045610351578,0.227391896324495,0.106694000000061,
0.102711251220703,0.184832368164063,-0.0141736738281235,0.21192805023933,0.110531999999694,
0.143412679443359,0.215956989746094,0.0408929643554696,0.262443998939004,0.114380999999412,
0.124259066162109,0.220745393066406,0.0217393510742188,0.254246816044272,0.118238999999448,
0.126653267822265,0.21835119140625,0.0241335527343765,0.253575869132239,0.122042999999394,
0.121864864501953,0.215956989746094,0.000191536132813752,0.247968754697772,0.125820999999632,
0.138624276123047,0.194409174804688,0.0384987626953137,0.241854857110516,0.129610999999386,
0.145806881103515,0.201591779785156,-0.0476924970703116,0.253324824150503,0.133335999999872,
0.150595284423828,0.227927998046875,0.0600465776367187,0.279706459471769,0.137081999999282,
0.143412679443359,0.213562788085938,0.00497993945312558,0.257295668205121,0.140800999999556,
0.124259066162109,0.227927998046875,-0.0117794721679676,0.259865818802111,0.1446449999994,
0.152989486083984,0.189620771484375,-0.0333272871093744,0.245911626192504,0.148363999999674,
0.141018477783203,0.235110603027344,0.0361045610351578,0.276526212247075,0.152111999999761,
0.162566292724609,0.165678754882813,-0.0117794721679676,0.232413436174199,0.155824999999822,
0.121864864501953,0.192014973144531,-0.0452982954101557,0.231889479448379,0.159568000000036,
0.169748897705078,0.21835119140625,0.0073741411132815,0.276670036356987,0.163533999999345,
0.138624276123047,0.203985981445313,0.0456813676757815,0.250826150768966,0.167481999999836,
0.17453730102539,0.184832368164063,-0.0261446821289049,0.255557856803474,0.17125599999963,
0.119470662841797,0.242293208007813,0.0552581743164069,0.275740283156738,0.17509599999994,
0.133835872802734,0.21835119140625,-0.0620577070312489,0.263515545346712,0.178852000000006,
0.119470662841797,0.213562788085938,0.00976834277343741,0.244903499884009,0.182714999999916,
0.114682259521484,0.187226569824219,-0.0620577070312489,0.228159961647684,0.186490999999478,
0.143412679443359,0.213562788085938,0.0193451494140628,0.257973827908986,0.190283999999338,
0.126653267822265,0.213562788085938,0.0289219560546883,0.249973187056386,0.194163999999546,
0.181719906005859,0.189620771484375,-0.00220266552734216,0.262646174448693,0.197934999999234,
0.150595284423828,0.208774384765625,0.0408929643554696,0.260649032146173,0.201715999999578,
0.107499654541016,0.172861359863281,0.0576523759765628,0.211568007779918,0.205473999999413,
0.164960494384765,0.239899006347656,0.0193451494140628,0.291783708866879,0.209232999999585,
0.126653267822265,0.199197578125,0.0337103593750001,0.238447297552553,0.213001000000077,
0.160172091064453,0.208774384765625,-0.00699106884765577,0.263231300444794,0.216802999999345,
0.131441671142578,0.2375048046875,0.0337103593750001,0.273535799287027,0.220585000000028,
0.160172091064453,0.2375048046875,-0.00699106884765577,0.28655279801328,0.224287000000004,
0.152989486083984,0.175255561523438,0.0073741411132815,0.232754533047792,0.22805100000005,
0.124259066162109,0.189620771484375,0.00976834277343741,0.226917987436757,0.231874000000062,
0.138624276123047,0.203985981445313,0.014556746093751,0.247060457001285,0.235882999999376,
0.143412679443359,0.184832368164063,-0.0883939252929675,0.250087358686836,0.239753999999266,
0.179325704345703,0.223139594726563,0.0480755693359374,0.290276157031182,0.243623999999727,
0.141018477783203,0.213562788085938,-0.0189620771484371,0.256621970807478,0.247393999999986,
0.167354696044922,0.227927998046875,0.0432871660156255,0.286063883291143,0.251244999999471,
0.152989486083984,0.21835119140625,0.00976834277343741,0.266792890012665,0.255072999999356,
0.15538368774414,0.170467158203125,-0.0141736738281235,0.231093131599803,0.258874999999534,
0.141018477783203,0.196803376464844,0.0121625444335951,0.242416392909708,0.262665999999626,
0.131441671142578,0.225533796386719,0.052863972656251,0.266340019205452,0.266587999999501,
0.15538368774414,0.201591779785156,-0.00220266552734216,0.254535238875368,0.27034999999978,
0.112288057861328,0.172861359863281,-0.0237504804687489,0.207493958935069,0.274124999999913,
0.100317049560547,0.223139594726563,-0.0644519086914048,0.252999679251245,0.277870999999323,
0.184114107666015,0.232716401367187,0.0600465776367187,0.302754883681221,0.281623999999283,
0.131441671142578,0.175255561523438,-0.0429040937499998,0.223231238894017,0.285328999999365,
0.105105452880859,0.220745393066406,0.0696233842773442,0.254210740181377,0.289137999999184,
0.114682259521484,0.239899006347656,-0.0381156904296862,0.268619358484227,0.292885999999271,
0.215238729248047,0.093852705078125,-0.2344402265625,0.33181057947189,0.296616999999969,
-0.0217872351074221,1.00843773925781,-0.00699106884765577,1.00869729483957,0.300365999999485,
0.351708223876953,-0.27964275390625,1.84851521777344,1.90234257033136,0.303963999999723,
0.315795198974609,-1.03860468017578,-1.72602786083984,2.03901899593256,0.306897999999819,
-0.0888248815917971,0.656490095214844,-1.32859038525391,1.4845947313978,0.309813999999278,
-0.115161099853516,1.40587521484375,2.18609765185547,2.60168601911903,0.312839999999596,
0.425928475341797,0.192014973144531,0.311437751953125,0.561496473150365,0.315787999999884,
0.19369091430664,-0.00670376464843751,-1.58476996289062,1.5965766333082,0.318805999999313,
0.172143099365234,-0.16472107421875,0.215669685546876,0.321371579662447,0.321759999999813,
0.100317049560547,-0.0521935961914063,0.82619110888672,0.833894136158417,0.324695999999676,
0.0332794030761717,0.364397492675781,-0.53371543408203,0.64710525876002,0.327718999999888,
0.133835872802734,0.407493122558594,-0.0524809003906235,0.43210754527922,0.330650999999307,
0.210450325927734,0.352426484375,0.395234810058595,0.569828326475672,0.333679999999731,
0.172143099365234,0.1608903515625,-0.232046024902344,0.330702751058942,0.336607999999615,
0.179325704345703,-0.0234631762695313,-0.100364933593749,0.206836526694429,0.339540999999372,
0.124259066162109,0.184832368164063,0.194121870605469,0.295443091799388,0.342588999999862,
0.0620098229980467,0.268629426269531,-0.11233594189453,0.297701781397891,0.345507999999427,
0.179325704345703,0.232716401367187,-0.00938527050781168,0.293943387418192,0.348535999999513,
0.150595284423828,0.263841022949219,0.0911711992187509,0.317180094975345,0.351472999999714,
0.184114107666015,0.148919343261719,-0.0692403120117184,0.246716834137103,0.354401999999936,
0.0907402429199217,0.139342536621094,-0.0261446821289049,0.168326107900078,0.357397999999193,
0.0332794030761717,0.18004396484375,0.0432871660156255,0.188141241325309,0.360349999999926,
0.160172091064453,0.244687409667969,-0.0500866987304676,0.296708113464557,0.363360999999713,
0.164960494384765,0.239899006347656,-0.021356278808593,0.291923943174947,0.366289999999935,
0.13623007446289,0.302148249511719,-0.00459686718749985,0.331471460399082,0.369297999999617,
0.138624276123047,0.146525141601563,-0.0357214887695303,0.204847093735567,0.372239999999692,
0.0476446130371092,0.144130939941406,0.00976834277343741,0.152115605775307,0.375161999999364,
0.117076461181641,0.213562788085938,0.00258573779296967,0.243562411422184,0.378186999999343,
0.181719906005859,0.251870014648437,-0.119518546875,0.332784181662671,0.381104999999479,
0.131441671142578,0.27581203125,-0.0189620771484371,0.306118849247785,0.384188999999424,
0.152989486083984,0.194409174804688,0.0241335527343765,0.248562142065247,0.387249999999767,
0.152989486083984,0.18004396484375,-0.059663505371093,0.243682879993785,0.390268999999535,
0.0835576379394529,0.194409174804688,-0.0189620771484371,0.212453210086465,0.393374999999651,
0.164960494384765,0.271023627929688,0.00497993945312558,0.317317776685758,0.396320999999261,
0.133835872802734,0.290177241210938,-0.0333272871093744,0.321287379508954,0.399328999999852,
0.143412679443359,0.261446821289062,-0.021356278808593,0.298961080463376,0.402239000000009,
0.176931502685547,0.182438166503906,-0.0452982954101557,0.258147974632648,0.405210999999326,
0.0955286462402342,0.165678754882813,-0.0500866987304676,0.197696356723455,0.408241999999518,
0.129047469482422,0.1608903515625,0.0121625444335951,0.206608039758429,0.411188000000038,
0.162566292724609,0.244687409667969,0.0456813676757815,0.2972986971599,0.414200999999593,
0.129047469482422,0.259052619628906,0.0480755693359374,0.29338161067693,0.417125999999371,
0.162566292724609,0.184832368164063,0.0193451494140628,0.246910993390759,0.420068999999785,
0.124259066162109,0.14173673828125,0.0241335527343765,0.190031699644217,0.423078999999234,
0.124259066162109,0.163284553222656,0.00976834277343741,0.205420498892251,0.426060999999208,
0.114682259521484,0.211168586425781,0.0361045610351578,0.242997390664092,0.429102999999486,
0.181719906005859,0.247081611328125,-0.0285388837890626,0.308035573892378,0.43203099999937,
0.152989486083984,0.223139594726563,0.0432871660156255,0.273990584379538,0.434980999999425,
0.114682259521484,0.223139594726563,0.0432871660156255,0.254591983623507,0.438002999999298,
0.133835872802734,0.18004396484375,-0.00938527050781168,0.224534971503398,0.4409399999995,
0.129047469482422,0.192014973144531,0.0480755693359374,0.236292741442657,0.443965999999818,
0.131441671142578,0.220745393066406,0.0815943925781255,0.269560914030557,0.446900999999343,
0.152989486083984,0.225533796386719,-0.00220266552734216,0.272536470770928,0.449818999999479,
0.131441671142578,0.165678754882813,-0.00459686718749985,0.211536034566719,0.452821999999287,
0.114682259521484,0.18004396484375,0.0169509477539069,0.214138237023111,0.455780999999661,
0.176931502685547,0.199197578125,0.0121625444335951,0.266706503971182,0.458796999999322,
0.162566292724609,0.227927998046875,-0.00220266552734216,0.279971112008552,0.461718999999903,
0.121864864501953,0.244687409667969,-0.00220266552734216,0.273363906515701,0.464718999999604,
0.100317049560547,0.201591779785156,0.0384987626953137,0.228440169056474,0.467669999999998,
0.13623007446289,0.199197578125,0.0313161577148442,0.24334956349468,0.470593999999437,
0.105105452880859,0.182438166503906,0.0456813676757815,0.215447506774452,0.473607999999331,
0.109893856201172,0.201591779785156,0.0241335527343765,0.230864318757346,0.476537999999891,
0.157777889404297,0.227927998046875,0.014556746093751,0.277591306663895,0.479534000000058,
0.107499654541016,0.194409174804688,0.0456813676757815,0.226799229115549,0.482485999999881,
0.126653267822265,0.225533796386719,0.0169509477539069,0.259217819974669,0.48540199999934,
0.13623007446289,0.175255561523438,-0.00699106884765577,0.222085614294787,0.488413999999466,
0.131441671142578,0.223139594726563,-0.0165678754882812,0.259504693879867,0.491342999999688,
0.15538368774414,0.21835119140625,-0.0381156904296862,0.270691963424164,0.494363999999223,
0.150595284423828,0.211168586425781,0.00258573779296967,0.259379639955973,0.497301999999763,
0.152989486083984,0.182438166503906,-0.0165678754882812,0.238671242397872,0.500212999999349,
0.133835872802734,0.196803376464844,0.0121625444335951,0.23830975079491,0.503236999999899,
0.0979228479003904,0.206380183105469,0.0121625444335951,0.228756620902366,0.506173999999191,
0.143412679443359,0.211168586425781,0.0121625444335951,0.255552922122377,0.509186999999656,
0.145806881103515,0.201591779785156,0.0289219560546883,0.250470301225736,0.512119999999413,
0.126653267822265,0.192014973144531,-0.0141736738281235,0.230459743103952,0.515039999999317,
0.124259066162109,0.184832368164063,-0.0261446821289049,0.224247328296764,0.518058999999994,
0.13623007446289,0.230322199707031,-0.097970731933593,0.284965284169237,0.521018999999797,
0.109893856201172,0.213562788085938,-0.0237504804687489,0.241349972878182,0.524145999999746,
0.169748897705078,0.223139594726563,0.014556746093751,0.280745197400884,0.527189999999791,
0.133835872802734,0.211168586425781,0.0121625444335951,0.250304095509905,0.530220999999983,
0.148201082763672,0.206380183105469,0.0408929643554696,0.25734913142412,0.533266999999796,
0.117076461181641,0.196803376464844,0.0073741411132815,0.22911317008836,0.536201999999321,
0.162566292724609,0.199197578125,-0.0500866987304676,0.261946849667648,0.539211999999679,
0.114682259521484,0.194409174804688,-0.0357214887695303,0.228523461940135,0.542164999999841,
0.150595284423828,0.223139594726563,-0.0572693037109371,0.27522716358122,0.54511999999977,
0.124259066162109,0.196803376464844,-0.0548751020507812,0.239130009276389,0.548130999999557,
0.148201082763672,0.199197578125,-0.0405098920898439,0.251563684621451,0.551087999999254,
0.145806881103515,0.199197578125,0.0241335527343765,0.248035783861086,0.554121999999552,
0.145806881103515,0.213562788085938,-0.0572693037109371,0.264855591180759,0.557060999999521,
0.162566292724609,0.232716401367187,-0.0476924970703116,0.287852909091291,0.560086999999839,
0.131441671142578,0.194409174804688,-0.0309330854492185,0.236703814790556,0.563054999999622,
0.114682259521484,0.187226569824219,0.0073741411132815,0.219682013497361,0.566030999999384,
0.133835872802734,0.223139594726563,-0.0141736738281235,0.260584367553755,0.569046999999955,
0.145806881103515,0.199197578125,0.0313161577148442,0.248837343343038,0.571998999999778,
0.160172091064453,0.182438166503906,0.0456813676757815,0.247033541661849,0.574998000000051,
0.129047469482422,0.225533796386719,0.0289219560546883,0.261448316564578,0.577949999999873,
0.138624276123047,0.199197578125,0.0624407792968764,0.250589736383407,0.580870999999206,
0.145806881103515,0.187226569824219,0.014556746093751,0.237750570729316,0.583891999999651,
0.152989486083984,0.184832368164063,-0.0357214887695303,0.242579496110633,0.586809999999787,
0.133835872802734,0.199197578125,0.0121625444335951,0.240290747776177,0.589857999999367,
0.157777889404297,0.192014973144531,0.0600465776367187,0.255674018590963,0.592794999999569,
0.107499654541016,0.201591779785156,0.00258573779296967,0.228477805143779,0.595722000000023,
0.150595284423828,0.227927998046875,0.0217393510742188,0.274048739040117,0.598731000000043,
0.105105452880859,0.225533796386719,0.0432871660156255,0.252559751899547,0.601667999999336,
0.13623007446289,0.172861359863281,-0.0716345136718743,0.231454501945746,0.604672999999821,
0.138624276123047,0.223139594726563,0.0073741411132815,0.262797158703308,0.607623999999305,
0.143412679443359,0.230322199707031,0.088776997558595,0.285476562257794,0.610544999999547,
0.126653267822265,0.201591779785156,-0.131489555175781,0.271973894054798,0.613546999999926,
0.0931344445800779,0.405098920898438,-0.124306950195312,0.433856402911353,0.616483999999218,
0.141018477783203,0.206380183105469,0.285101533691407,0.379159432914613,0.61953799999992,
0.203267720947266,-0.179086284179688,0.203698677246095,0.338943674778262,0.622469999999339,
0.150595284423828,-0.0354341845703125,-0.34936190625,0.382084104177981,0.625397999999223,
0.026096798095703,0.555933625488281,-0.169796781738281,0.581871279500948,0.628430999999182,
0.0763750329589842,0.520020600585938,0.483820271484376,0.714378489172554,0.631374999999935,
0.184114107666015,0.108217915039063,0.115113215820314,0.242611158509968,0.634384999999384,
0.231998140869141,-0.0234631762695313,-0.354150309570311,0.424023701903726,0.637320999999247,
0.13623007446289,0.0579396801757812,0.0576523759765628,0.158869242406387,0.640249999999469,
0.0476446130371092,0.285388837890625,0.131872627441407,0.317973564643851,0.643259999999827,
0.114682259521484,0.37158009765625,-0.107547538574218,0.403472753326113,0.646186999999372,
0.188902510986328,0.304542451171875,0.0241335527343765,0.359183367641511,0.649214999999458,
0.188902510986328,0.110612116699219,0.052863972656251,0.225197243816664,0.652145999999448,
0.100317049560547,0.0579396801757812,-0.0429040937499998,0.12353654613884,0.655131999999867,
0.0811634362792967,0.192014973144531,0.0744117875976578,0.221346713176043,0.65808399999969,
0.107499654541016,0.299754047851563,0.0648349809570323,0.324980368154037,0.661074999999983,
0.114682259521484,0.292571442871094,-0.021356278808593,0.314970094575941,0.664183999999295,
0.157777889404297,0.184832368164063,-0.0524809003906235,0.248618405617566,0.667227999999341,
0.100317049560547,0.148919343261719,0.0217393510742188,0.180867577567575,0.670320999999603,
0.124259066162109,0.172861359863281,-0.0476924970703116,0.218164936536704,0.673257999999805,
0.126653267822265,0.254264216308594,0.0432871660156255,0.287341470530702,0.676174999999603,
0.179325704345703,0.263841022949219,-0.0620577070312489,0.324993773220271,0.679181999999855,
0.162566292724609,0.223139594726563,0.0384987626953137,0.278749408957271,0.682149999999638,
0.124259066162109,0.196803376464844,-0.0429040937499998,0.23666990888567,0.685184999999365,
0.129047469482422,0.175255561523438,-0.0668461103515625,0.22767556674761,0.688127999999779,
0.105105452880859,0.175255561523438,-0.00459686718749985,0.204408412884904,0.691057000000001,
0.143412679443359,0.239899006347656,0.0408929643554696,0.282472944554862,0.694096999999601,
0.179325704345703,0.235110603027344,0.0289219560546883,0.29710466747763,0.697056999999404,
0.157777889404297,0.201591779785156,0.0289219560546883,0.257622956282725,0.700072999999975,
0.131441671142578,0.189620771484375,0.0169509477539069,0.23134451478442,0.70304699999997,
0.124259066162109,0.184832368164063,0.0552581743164069,0.229470664080177,0.706002999999328,
0.121864864501953,0.206380183105469,-0.00220266552734216,0.23968453624327,0.70901799999956,
0.138624276123047,0.2375048046875,-0.0285388837890626,0.276477286713053,0.711973999999827,
0.138624276123047,0.211168586425781,0.0408929643554696,0.255892743854684,0.715008999999554,
0.15538368774414,0.172861359863281,0.00258573779296967,0.23244746974464,0.717948999999862,
0.109893856201172,0.223139594726563,-0.021356278808593,0.249647809944427,0.720862999999554,
0.119470662841797,0.187226569824219,-0.0333272871093744,0.22458347177402,0.72388299999966,
0.145806881103515,0.184832368164063,0.0432871660156255,0.239366726258966,0.72682899999927,
0.167354696044922,0.182438166503906,-0.0524809003906235,0.253072171112127,0.729830999999649,
0.124259066162109,0.203985981445313,0.0361045610351578,0.241566006460405,0.732792999999219,
0.145806881103515,0.189620771484375,-0.0333272871093744,0.241508574633562,0.735702999999376,
0.143412679443359,0.213562788085938,0.0265277543945324,0.258611644813955,0.738717999999608,
0.114682259521484,0.208774384765625,0.000191536132813752,0.23819907864916,0.741658999999345,
0.157777889404297,0.201591779785156,-0.0261446821289049,0.257325965393007,0.744666999999936,
0.129047469482422,0.235110603027344,-0.00220266552734216,0.268207190006389,0.747606999999334,
0.0955286462402342,0.21835119140625,0.000191536132813752,0.238333803156646,0.750620999999228,
0.138624276123047,0.220745393066406,0.0408929643554696,0.2638511948513,0.753558999999768,
0.0931344445800779,0.220745393066406,0.000191536132813752,0.239588376206718,0.756482999999207,
0.0859518395996092,0.21835119140625,0.014556746093751,0.235110315332875,0.759502999999313,
0.143412679443359,0.18004396484375,0.00258573779296967,0.230194943345233,0.762434999999641,
0.107499654541016,0.230322199707031,0.0265277543945324,0.255554716562892,0.765430999999808,
0.162566292724609,0.203985981445313,0.0121625444335951,0.261124506018738,0.768374999999651,
0.164960494384765,0.259052619628906,0.00497993945312558,0.307156351458377,0.771277999999256,
0.148201082763672,0.194409174804688,-0.00938527050781168,0.244635589158792,0.774294999999256,
0.105105452880859,0.175255561523438,0.00258573779296967,0.204373075795516,0.777243999999882,
0.145806881103515,0.203985981445313,0.0289219560546883,0.252401281188055,0.780261999999311,
0.143412679443359,0.220745393066406,-0.00938527050781168,0.263408064583586,0.783189999999195,
0.145806881103515,0.2375048046875,-0.0500866987304676,0.28315518045146,0.786116999999649,
0.112288057861328,0.213562788085938,-0.00459686718749985,0.241327171245278,0.789131999999881,
0.102711251220703,0.235110603027344,-0.00459686718749985,0.256608121405273,0.792078999999831,
0.150595284423828,0.0794874951171875,-0.00220266552734216,0.170299892266918,0.795083999999406,
0.143412679443359,0.146525141601563,-0.0333272871093744,0.20771981564731,0.798050999999759,
0.112288057861328,0.3141192578125,-0.0931823286132811,0.346355976464588,0.801089999999931,
0.107499654541016,0.29496564453125,0.0911711992187509,0.326914506786038,0.80422499999986,
0.13623007446289,0.148919343261719,0.0289219560546883,0.203892333175369,0.807261999999355,
0.162566292724609,0.093852705078125,-0.143460563476562,0.236256350292892,0.810320999999931,
0.157777889404297,0.156101948242188,-0.0405098920898439,0.225616338032093,0.813252999999349,
0.129047469482422,0.278206232910156,0.0361045610351578,0.308796853509582,0.816186999999445,
0.13623007446289,0.266235224609375,-0.0285388837890626,0.300423527538864,0.819190999999591,
0.131441671142578,0.21835119140625,0.0121625444335951,0.255151098740299,0.82216999999946,
0.121864864501953,0.122583125,0.052863972656251,0.180754715954649,0.825173999999606,
0.112288057861328,0.187226569824219,-0.0141736738281235,0.218776802737854,0.828118999999788,
0.117076461181641,0.203985981445313,0.0408929643554696,0.238724554503305,0.831060999999863,
0.176931502685547,0.280600434570313,-0.0165678754882812,0.332138307067717,0.834073999999418,
0.138624276123047,0.213562788085938,-0.105153336914062,0.275468652753521,0.837040999999772,
0.13623007446289,0.194409174804688,-0.00459686718749985,0.237433552018968,0.840079999999944,
0.13623007446289,0.163284553222656,-0.0333272871093744,0.215246803867927,0.843055999999706,
0.129047469482422,0.2375048046875,-0.0141736738281235,0.270670786490249,0.846063999999387,
0.133835872802734,0.263841022949219,0.0552581743164069,0.300961113881083,0.849008999999569,
0.152989486083984,0.203985981445313,0.0265277543945324,0.256358704224502,0.851955999999518,
0.13623007446289,0.18004396484375,-0.0309330854492185,0.227884440540004,0.854966999999306,
0.152989486083984,0.153707746582031,0.0384987626953137,0.220258958820379,0.857908999999381,
0.112288057861328,0.208774384765625,0.0456813676757815,0.24141694022016,0.860905999999886,
0.100317049560547,0.225533796386719,-0.0141736738281235,0.24724460919285,0.863842999999179,
0.157777889404297,0.223139594726563,0.0480755693359374,0.27748225436338,0.866780999999719,
0.150595284423828,0.239899006347656,0.00497993945312558,0.283293615766828,0.86979699999938,
0.157777889404297,0.189620771484375,-0.0381156904296862,0.249605098545955,0.872738000000027,
0.117076461181641,0.225533796386719,-0.0117794721679676,0.254383857663921,0.875755999999456,
0.143412679443359,0.208774384765625,-0.0333272871093744,0.255469466718549,0.878695999999763,
0.129047469482422,0.196803376464844,-0.0189620771484371,0.236102475077164,0.881621999999879,
0.131441671142578,0.213562788085938,0.0193451494140628,0.251515828872946,0.884656999999606,
0.176931502685547,0.199197578125,-0.0165678754882812,0.266943676215838,0.887589999999363,
0.0931344445800779,0.196803376464844,0.0169509477539069,0.218387106727843,0.890611999999237,
0.112288057861328,0.232716401367187,-0.0333272871093744,0.260530688153303,0.893537999999353,
0.131441671142578,0.196803376464844,0.00976834277343741,0.236862623521011,0.896490000000085,
0.133835872802734,0.225533796386719,-0.00699106884765577,0.262347878217279,0.899503999999979,
0.133835872802734,0.242293208007813,0.00497993945312558,0.276844431572216,0.902446000000054,
0.131441671142578,0.21835119140625,0.0313161577148442,0.256777836729153,0.905463000000054,
0.138624276123047,0.201591779785156,-0.00938527050781168,0.244834676690395,0.908381999999619,
0.176931502685547,0.208774384765625,0.0313161577148442,0.27544909168638,0.911318999999821,
0.0907402429199217,0.206380183105469,0.0361045610351578,0.228320194006914,0.914332999999715,
0.121864864501953,0.215956989746094,0.0337103593750001,0.250249585313274,0.917257999999492,
0.143412679443359,0.232716401367187,0.0289219560546883,0.274882883483943,0.920263999999406,
0.129047469482422,0.203985981445313,0.0313161577148442,0.243401379905795,0.923201999999947,
0.15538368774414,0.21835119140625,-0.0261446821289049,0.269267297697137,0.926116999999977,
0.133835872802734,0.206380183105469,-0.00938527050781168,0.246156259579198,0.929127999999764,
0.152989486083984,0.223139594726563,0.0193451494140628,0.271240292716308,0.932066999999734,
0.133835872802734,0.247081611328125,0.0073741411132815,0.281097387861451,0.93507899999986,
0.15538368774414,0.230322199707031,0.014556746093751,0.278216291671951,0.938062999999602,
0.141018477783203,0.201591779785156,0.0720175859375001,0.256343498917963,0.941163999999844,
0.133835872802734,0.213562788085938,0.0265277543945324,0.253426176740141,0.944203000000016,
0.150595284423828,0.21835119140625,-0.0285388837890626,0.266778279414101,0.947226999999657,
0.100317049560547,0.196803376464844,0.0815943925781255,0.235484021370218,0.950257999999849,
0.164960494384765,0.203985981445313,0.0169509477539069,0.262887009879966,0.953190999999606,
0.157777889404297,0.208774384765625,0.0600465776367187,0.268488729009287,0.956183999999666,
0.148201082763672,0.21835119140625,0.052863972656251,0.269138260613118,0.959136999999828,
0.121864864501953,0.194409174804688,0.00497993945312558,0.229501137786451,0.962078999999903,
0.143412679443359,0.232716401367187,0.0313161577148442,0.275145092313926,0.965100999999777,
0.143412679443359,0.249475812988281,0.0768059892578137,0.297833070489425,0.968049000000065,
0.13623007446289,0.206380183105469,-0.0141736738281235,0.247693976908195,0.971074000000044,
0.150595284423828,0.196803376464844,-0.00938527050781168,0.247989096496522,0.974033999999847,
0.141018477783203,0.206380183105469,0.00497993945312558,0.25000758158883,0.976975999999922,
0.131441671142578,0.249475812988281,0.0121625444335951,0.282246384681924,0.980029999999715,
0.150595284423828,0.208774384765625,-0.0165678754882812,0.257953829053096,0.982990999999856,
0.0883460412597654,0.244687409667969,-0.00459686718749985,0.260188552100649,0.986017999999603,
0.15538368774414,0.194409174804688,0.0169509477539069,0.249452104210335,0.988976999999977,
0.152989486083984,0.213562788085938,0.0073741411132815,0.262810245737184,0.99189799999931,
0.126653267822265,0.206380183105469,0.00258573779296967,0.242158039859591,0.994916999999987,
0.121864864501953,0.199197578125,0.0073741411132815,0.233634540015177,0.997859999999491,
0.124259066162109,0.213562788085938,-0.0524809003906235,0.252593794231626,1.00086699999974,
0.13623007446289,0.225533796386719,0.0456813676757815,0.267415246112671,1.00380899999982,
0.131441671142578,0.199197578125,0.0265277543945324,0.240125612538179,1.00672699999996,
0.15538368774414,0.203985981445313,-0.121912748535156,0.283931486979821,1.00974700000006,
0.109893856201172,0.215956989746094,-0.0500866987304676,0.247432331033507,1.01268299999992,
