X,Y,Z,Magnitude,Seconds,
0.141018477783203,0.587058247070313,0.0121625444335951,0.603880388832639,0.0,
0.129047469482422,0.579875642089844,-0.0405098920898439,0.595441064275933,0.00385499999993044,
0.141018477783203,0.603817658691406,0.0217393510742188,0.620447077041218,0.00781299999971452,
0.141018477783203,0.60142345703125,0.0073741411132815,0.617778895480309,0.0116959999995743,
0.121864864501953,0.599029255371094,-0.021356278808593,0.611672448811516,0.015559999999823,
0.150595284423828,0.603817658691406,0.052863972656251,0.624555285177594,0.0195559999997386,
0.179325704345703,0.587058247070313,-0.00699106884765577,0.613876183554944,0.0234499999996842,
0.133835872802734,0.611000263671875,0.0768059892578137,0.630184515076213,0.0273409999999785,
0.138624276123047,0.587058247070313,0.0456813676757815,0.604930461075186,0.0311619999997674,
0.143412679443359,0.570298835449219,0.0289219560546883,0.588765180595701,0.0349789999995664,
0.157777889404297,0.60142345703125,-0.0165678754882812,0.621995604124731,0.0387909999999465,
0.133835872802734,0.587058247070313,0.0217393510742188,0.602513091714417,0.0427519999998367,
0.126653267822265,0.632548078613281,-0.00220266552734216,0.645106947523306,0.046577999999954,
0.109893856201172,0.596635053710938,-0.00220266552734216,0.606675282736031,0.0504769999997734,
0.15538368774414,0.551145222167969,0.0672291826171882,0.576563014189189,0.0544679999998152,
0.150595284423828,0.579875642089844,-0.0141736738281235,0.599279227914324,0.0583799999999428,
0.150595284423828,0.536780012207031,0.0720175859375001,0.562137219795967,0.0624169999996411,
0.148201082763672,0.572693037109375,0.000191536132813752,0.591558038041894,0.0663949999998295,
0.131441671142578,0.541568415527344,0.0289219560546883,0.55804098518978,0.0703099999996084,
0.114682259521484,0.575087238769531,0.0073741411132815,0.586456930048299,0.0742059999997764,
0.109893856201172,0.577481440429688,-0.0429040937499998,0.589408377046017,0.0781749999996464,
0.13623007446289,0.594240852050781,0.000191536132813752,0.609656345919809,0.0822249999996529,
0.162566292724609,0.577481440429688,-0.00459686718749985,0.599944784758489,0.0861839999997756,
0.0979228479003904,0.567904633789063,0.0408929643554696,0.577734187800748,0.0902599999999438,
0.131441671142578,0.611000263671875,0.0289219560546883,0.625647436390403,0.0942639999998391,
0.143412679443359,0.587058247070313,-0.0141736738281235,0.604487779122273,0.0981699999997545,
0.164960494384765,0.541568415527344,0.00497993945312558,0.566156438805937,0.102129999999761,
0.133835872802734,0.565510432128906,-0.0500866987304676,0.58328617940528,0.10602499999959,
0.176931502685547,0.599029255371094,-0.0548751020507812,0.627018406634204,0.109911999999895,
0.160172091064453,0.572693037109375,-0.0189620771484371,0.594972246310114,0.113845999999739,
0.117076461181641,0.60142345703125,0.0384987626953137,0.613921189697266,0.117919999999685,
0.102711251220703,0.63973068359375,-0.00938527050781168,0.647991536951798,0.121822999999949,
0.131441671142578,0.58226984375,-0.0141736738281235,0.597089588657506,0.125836999999592,
0.119470662841797,0.591846650390625,0.0504697709960951,0.605890167144887,0.129858999999669,
0.119470662841797,0.594240852050781,0.0744117875976578,0.610682031551098,0.133788999999979,
0.102711251220703,0.572693037109375,-0.00938527050781168,0.581906349151981,0.137802999999622,
0.143412679443359,0.608606062011719,0.0241335527343765,0.625740332494333,0.141806999999972,
0.150595284423828,0.611000263671875,0.000191536132813752,0.629285546142516,0.145684999999958,
0.121864864501953,0.608606062011719,-0.00699106884765577,0.620726396217467,0.149515999999949,
0.138624276123047,0.570298835449219,0.00497993945312558,0.586926103902638,0.153490999999576,
0.138624276123047,0.596635053710938,0.0217393510742188,0.612913270073687,0.157408999999916,
0.126653267822265,0.611000263671875,0.0361045610351578,0.625032728570833,0.161259999999857,
0.129047469482422,0.60142345703125,0.0289219560546883,0.615792094451744,0.165308999999979,
0.143412679443359,0.611000263671875,-0.0141736738281235,0.627765411489046,0.169236999999612,
0.162566292724609,0.596635053710938,-0.0357214887695303,0.619416831872357,0.173127999999906,
0.169748897705078,0.567904633789063,0.0193451494140628,0.593046875176854,0.17700399999967,
0.100317049560547,0.575087238769531,0.00497993945312558,0.583792465200651,0.180824999999913,
0.129047469482422,0.608606062011719,-0.0333272871093744,0.62302912946611,0.184659000000011,
0.126653267822265,0.613394465332031,0.00976834277343741,0.626409802661617,0.188617999999678,
0.17453730102539,0.579875642089844,0.0432871660156255,0.607118446828953,0.192621999999574,
0.121864864501953,0.603817658691406,0.0313161577148442,0.616788060748319,0.196488999999929,
0.112288057861328,0.587058247070313,0.00258573779296967,0.597706181523557,0.20050399999991,
0.15538368774414,0.611000263671875,0.000191536132813752,0.630448609571121,0.204545999999937,
0.124259066162109,0.553539423828125,0.0193451494140628,0.567644645937319,0.208560999999918,
0.176931502685547,0.58226984375,0.00497993945312558,0.608578448008284,0.212452999999641,
0.138624276123047,0.589452448730469,-0.0357214887695303,0.606586270867464,0.216480999999931,
0.145806881103515,0.594240852050781,0.0169509477539069,0.612102255716256,0.22037599999976,
0.114682259521484,0.570298835449219,-0.00699106884765577,0.581757387067256,0.224255999999968,
0.112288057861328,0.587058247070313,0.00258573779296967,0.597706181523557,0.228297999999995,
0.0931344445800779,0.565510432128906,0.0768059892578137,0.578251877298927,0.232212999999774,
0.162566292724609,0.596635053710938,-0.00220266552734216,0.618389875873063,0.236137999999755,
0.117076461181641,0.587058247070313,-0.00220266552734216,0.598622698326341,0.240088999999898,
0.157777889404297,0.608606062011719,-0.00699106884765577,0.628763927198372,0.244099000000006,
0.114682259521484,0.575087238769531,0.0576523759765628,0.58923776975026,0.247999999999593,
0.150595284423828,0.594240852050781,-0.0309330854492185,0.613806146688139,0.251788999999917,
0.143412679443359,0.606211860351563,0.00258573779296967,0.622949999836231,0.255650999999943,
0.100317049560547,0.584664045410156,0.00976834277343741,0.593288274743772,0.259492999999566,
0.160172091064453,0.553539423828125,0.000191536132813752,0.576247368040863,0.263350999999602,
0.145806881103515,0.596635053710938,0.0313161577148442,0.614990841905641,0.26724299999978,
0.131441671142578,0.551145222167969,-0.0309330854492185,0.567445878130013,0.27121199999965,
0.13623007446289,0.579875642089844,0.0432871660156255,0.597233766810733,0.275175999999647,
0.138624276123047,0.603817658691406,-0.0620577070312489,0.62262638386129,0.279040999999779,
0.167354696044922,0.56311623046875,0.088776997558595,0.594128638092073,0.283050000000003,
0.112288057861328,0.60142345703125,-0.0285388837890626,0.612481224604979,0.286967000000004,
0.141018477783203,0.608606062011719,0.0073741411132815,0.62477350115931,0.29095099999995,
0.150595284423828,0.608606062011719,0.0073741411132815,0.627004510641881,0.294869999999719,
0.129047469482422,0.589452448730469,-0.0285388837890626,0.604087664649832,0.298848999999791,
0.0979228479003904,0.589452448730469,0.0241335527343765,0.598017977842516,0.302855999999792,
0.138624276123047,0.591846650390625,0.00976834277343741,0.607942898658896,0.306754999999612,
0.282276375732422,0.531991608886719,-0.624695097167969,0.867720570603353,0.310710999999628,
-0.0864306799316408,0.94618849609375,1.15659093798828,1.4968117885727,0.314699999999903,
0.172143099365234,0.421858332519531,-0.337390897949218,0.566948249308707,0.317687999999634,
0.373256038818359,0.134554133300781,-0.684550138671874,0.791222963303252,0.320585999999821,
0.0500388146972655,0.694797321777344,-0.315843083007811,0.764855577484506,0.323675999999978,
-0.0122104284667971,0.867179841308594,1.49417337207031,1.72762960079391,0.326644999999644,
0.0955286462402342,0.776200178222656,-0.907210893066406,1.19776627245207,0.329693999999563,
0.035673604736328,0.414675727539063,0.162997249023439,0.446986205910365,0.332630999999765,
0.19369091430664,0.4673481640625,-0.0189620771484371,0.506250962574211,0.335553999999775,
0.0931344445800779,0.670855305175781,0.2252464921875,0.713762458730146,0.33859399999983,
0.253545955810547,0.56311623046875,-0.0309330854492185,0.618338334975785,0.341528999999809,
0.205661922607422,0.584664045410156,-0.253593839843749,0.669655663765078,0.344552999999905,
-0.0265756384277346,0.560722028808594,0.354533381835939,0.663934768621959,0.34751899999992,
0.133835872802734,0.675643708496094,-0.217680814941406,0.722351298796354,0.350483999999597,
0.172143099365234,0.627759675292969,0.0265277543945324,0.65147461833614,0.35355699999991,
0.181719906005859,0.476924970703125,0.0576523759765628,0.513617901143153,0.356497999999647,
0.143412679443359,0.608606062011719,-0.0476924970703116,0.627090989904446,0.359527999999955,
0.100317049560547,0.615788666992188,0.0863827958984373,0.629858063579232,0.362464999999702,
0.141018477783203,0.572693037109375,-0.0237504804687489,0.590277571276724,0.365420999999969,
0.0955286462402342,0.622971271972656,-0.0524809003906235,0.632434322962892,0.368459999999686,
0.176931502685547,0.534385810546875,0.0193451494140628,0.563247002621637,0.371468999999706,
0.124259066162109,0.579875642089844,-0.0261446821289049,0.593615717629014,0.374543999999787,
0.112288057861328,0.579875642089844,-0.0452982954101557,0.592381890164143,0.377546999999595,
0.141018477783203,0.570298835449219,0.0361045610351578,0.588583479311617,0.380593999999746,
0.0859518395996092,0.63973068359375,0.0648349809570323,0.648726938717349,0.383577999999943,
0.169748897705078,0.52480900390625,-0.0165678754882812,0.551827575743868,0.38652699999966,
0.133835872802734,0.548751020507813,-0.00220266552734216,0.564840309373066,0.389628999999786,
0.167354696044922,0.60142345703125,0.0289219560546883,0.624943396235001,0.39261899999974,
0.129047469482422,0.634942280273438,0.014556746093751,0.648087067850831,0.395626999999877,
0.0835576379394529,0.584664045410156,-0.0668461103515625,0.594375577663251,0.398592000000008,
0.112288057861328,0.567904633789063,0.0384987626953137,0.580177934556657,0.401592999999593,
0.133835872802734,0.555933625488281,-0.0141736738281235,0.571992246299896,0.404675999999654,
0.150595284423828,0.6205770703125,0.00976834277343741,0.638662869132752,0.407623999999942,
0.157777889404297,0.589452448730469,0.0456813676757815,0.611910809719808,0.410648999999921,
0.107499654541016,0.589452448730469,0.0384987626953137,0.60041029285802,0.413569999999709,
0.117076461181641,0.60142345703125,-0.0500866987304676,0.614756659028556,0.41653099999985,
0.119470662841797,0.558327827148438,0.0456813676757815,0.572791401123379,0.419563999999809,
0.157777889404297,0.611000263671875,0.00258573779296967,0.631048231620935,0.42256499999985,
0.121864864501953,0.560722028808594,-0.0237504804687489,0.574303338066044,0.425669999999627,
0.109893856201172,0.6205770703125,-0.0309330854492185,0.630990820538475,0.428649999999834,
0.157777889404297,0.567904633789063,-0.021356278808593,0.589801344614027,0.431607999999869,
0.141018477783203,0.618182868652344,0.0241335527343765,0.634522417680507,0.43467499999997,
0.162566292724609,0.599029255371094,-0.00699106884765577,0.620735630815811,0.437634999999773,
0.0763750329589842,0.60142345703125,0.00258573779296967,0.606259025802371,0.440675999999712,
0.131441671142578,0.58226984375,0.0217393510742188,0.597317070941834,0.44365899999957,
0.114682259521484,0.625365473632813,0.0361045610351578,0.636818290871491,0.446624999999585,
0.131441671142578,0.56311623046875,0.00497993945312558,0.578274676712585,0.449677999999949,
0.112288057861328,0.577481440429688,0.0193451494140628,0.588615032754744,0.452597999999853,
0.176931502685547,0.60142345703125,0.0384987626953137,0.628090030201925,0.455672999999933,
0.157777889404297,0.551145222167969,0.000191536132813752,0.573284357879704,0.458620999999766,
0.143412679443359,0.60142345703125,0.0073741411132815,0.618329806211622,0.461561999999958,
0.0787692346191404,0.587058247070313,0.00497993945312558,0.592340086076158,0.464634999999817,
0.112288057861328,0.56311623046875,-0.0548751020507812,0.576818666290098,0.467581999999766,
0.112288057861328,0.60142345703125,0.00258573779296967,0.611821435261648,0.470629999999801,
0.119470662841797,0.608606062011719,-0.0189620771484371,0.620511191169872,0.473558999999568,
0.121864864501953,0.570298835449219,-0.0189620771484371,0.583482105367935,0.476602999999614,
0.129047469482422,0.565510432128906,-0.0117794721679676,0.580167263977376,0.479584999999588,
0.143412679443359,0.608606062011719,0.0337103593750001,0.626182819687452,0.482518999999684,
0.17453730102539,0.608606062011719,0.000191536132813752,0.633138724808971,0.485553999999865,
0.121864864501953,0.611000263671875,-0.0189620771484371,0.623323293144868,0.488534999999956,
0.0883460412597654,0.58226984375,-0.021356278808593,0.589321036949702,0.491617999999562,
0.150595284423828,0.591846650390625,0.00258573779296967,0.610711129184028,0.494599999999991,
0.141018477783203,0.60142345703125,0.0480755693359374,0.619602813188163,0.497575999999754,
0.124259066162109,0.60142345703125,-0.0189620771484371,0.614418465348074,0.500615999999809,
0.133835872802734,0.596635053710938,0.0289219560546883,0.612145332178195,0.503553999999895,
0.179325704345703,0.567904633789063,-0.0189620771484371,0.595846407799825,0.506654999999682,
0.143412679443359,0.570298835449219,0.00497993945312558,0.588075469762866,0.509634999999889,
0.133835872802734,0.579875642089844,0.0384987626953137,0.596363945814172,0.512685999999576,
0.131441671142578,0.587058247070313,-0.0309330854492185,0.60238787682143,0.515745999999581,
0.105105452880859,0.589452448730469,0.0408929643554696,0.600144632629014,0.518759999999929,
0.145806881103515,0.579875642089844,0.00258573779296967,0.597931511885916,0.521839999999884,
0.164960494384765,0.613394465332031,0.0313161577148442,0.635960247611166,0.524827999999616,
0.162566292724609,0.560722028808594,-0.0237504804687489,0.584295369178933,0.527819999999792,
0.150595284423828,0.613394465332031,-0.00938527050781168,0.631680135110458,0.530986999999641,
0.119470662841797,0.637336481933594,0.0265277543945324,0.648979777987392,0.533948999999666,
0.148201082763672,0.599029255371094,0.0432871660156255,0.618606004225982,0.537015999999767,
0.179325704345703,0.634942280273438,-0.0165678754882812,0.659987804444984,0.539991999999984,
0.138624276123047,0.611000263671875,0.000191536132813752,0.626528569838463,0.543002999999771,
0.15538368774414,0.587058247070313,-0.00459686718749985,0.607291204495978,0.546042999999827,
0.15538368774414,0.587058247070313,0.00497993945312558,0.607294224957881,0.548996999999872,
0.129047469482422,0.606211860351563,0.0265277543945324,0.620362628439154,0.552016999999978,
0.152989486083984,0.618182868652344,-0.0309330854492185,0.637583482943913,0.554998999999953,
0.141018477783203,0.572693037109375,0.0337103593750001,0.590762146856959,0.557928999999604,
0.129047469482422,0.589452448730469,-0.0548751020507812,0.605903222898877,0.560974999999871,
0.17453730102539,0.594240852050781,0.0337103593750001,0.62025950055155,0.564041999999972,
0.133835872802734,0.603817658691406,-0.0644519086914048,0.621821400669361,0.567074999999932,
0.124259066162109,0.646913288574219,0.0744117875976578,0.662928527513237,0.570086999999603,
0.105105452880859,0.5439626171875,0.105536409179688,0.563986186697252,0.573075999999674,
0.220027132568359,0.383551105957031,0.0217393510742188,0.442714342812885,0.576044999999795,
0.191296712646484,0.668461103515625,-0.3110546796875,0.761701839920432,0.578992999999628,
-0.000239420166015747,0.725921943359375,0.476637666503906,0.868415908596196,0.582054999999855,
0.169748897705078,0.615788666992188,-0.179373588378905,0.663464584492668,0.585041999999703,
0.119470662841797,0.476924970703125,0.0480755693359374,0.494005999282407,0.588066999999683,
0.229603939208984,0.515232197265625,-0.0836055219726557,0.570238607342371,0.591012999999748,
0.138624276123047,0.606211860351563,0.0983538041992187,0.62958953323733,0.593977999999879,
0.131441671142578,0.6205770703125,0.00258573779296967,0.634349666312148,0.59705299999996,
0.157777889404297,0.618182868652344,-0.138672160156249,0.652896538114973,0.599960999999894,
0.124259066162109,0.60142345703125,0.0720175859375001,0.618334070608409,0.603032999999868,
0.141018477783203,0.58226984375,-0.00938527050781168,0.599176489291299,0.605986999999914,
0.162566292724609,0.594240852050781,-0.0452982954101557,0.61773936683955,0.608934999999747,
0.164960494384765,0.558327827148438,-0.0117794721679676,0.582306348274272,0.611985000000004,
0.107499654541016,0.627759675292969,-0.0405098920898439,0.638184485088365,0.614913999999771,
0.0979228479003904,0.627759675292969,0.0217393510742188,0.635722969106815,0.617964999999913,
0.119470662841797,0.5439626171875,0.0121625444335951,0.557060585272762,0.620912999999746,
0.138624276123047,0.603817658691406,-0.0165678754882812,0.619747488398626,0.623839999999745,
0.148201082763672,0.584664045410156,0.00497993945312558,0.603175270319209,0.626906999999846,
0.129047469482422,0.591846650390625,0.0193451494140628,0.606061004985696,0.629863999999998,
0.105105452880859,0.587058247070313,-0.0476924970703116,0.598296846018229,0.632924999999886,
0.124259066162109,0.599029255371094,-0.00220266552734216,0.611785269558978,0.635877999999593,
0.148201082763672,0.570298835449219,0.0408929643554696,0.590657732685214,0.638833999999861,
0.150595284423828,0.570298835449219,0.0384987626953137,0.591102238309498,0.641863999999714,
0.157777889404297,0.572693037109375,0.00976834277343741,0.5941099205189,0.644816999999875,
0.145806881103515,0.587058247070313,-0.00938527050781168,0.604967036567206,0.647863999999572,
0.124259066162109,0.560722028808594,0.0265277543945324,0.574937588671955,0.650859999999739,
0.114682259521484,0.625365473632813,0.100748005859376,0.64372677196586,0.653835999999956,
0.169748897705078,0.627759675292969,0.000191536132813752,0.650305262843622,0.656946999999946,
0.141018477783203,0.531991608886719,-0.0381156904296862,0.551682960457456,0.659922999999708,
0.117076461181641,0.558327827148438,0.0624407792968764,0.573877784245316,0.663018999999622,
0.133835872802734,0.589452448730469,-0.0476924970703116,0.606333905072129,0.665959999999814,
0.172143099365234,0.587058247070313,0.0265277543945324,0.612351495356673,0.669040999999652,
0.13623007446289,0.606211860351563,-0.0165678754882812,0.621551242712346,0.67206299999998,
0.0979228479003904,0.594240852050781,0.0600465776367187,0.605240998175804,0.675009999999929,
0.169748897705078,0.599029255371094,0.0672291826171882,0.626235179511588,0.678028999999697,
0.143412679443359,0.594240852050781,0.0432871660156255,0.612832085985082,0.681020999999873,
0.17453730102539,0.575087238769531,0.0361045610351578,0.602073202337002,0.684072999999898,
0.112288057861328,0.577481440429688,-0.0429040937499998,0.589859460583218,0.687020999999731,
0.133835872802734,0.587058247070313,0.0289219560546883,0.602814984754168,0.689955999999711,
0.0931344445800779,0.608606062011719,-0.0620577070312489,0.618810570761867,0.692982999999913,
0.143412679443359,0.56311623046875,0.0361045610351578,0.58221183856909,0.695956999999908,
0.126653267822265,0.570298835449219,-0.0740287153320303,0.588865063200819,0.698981000000003,
0.119470662841797,0.591846650390625,0.0456813676757815,0.605510102484831,0.701995999999781,
0.121864864501953,0.58226984375,0.0552581743164069,0.597446802627239,0.705008999999791,
0.13623007446289,0.599029255371094,0.00258573779296967,0.614330015560485,0.708060999999816,
0.148201082763672,0.541568415527344,-0.00938527050781168,0.561558539185032,0.711029999999937,
0.121864864501953,0.606211860351563,0.0504697709960951,0.620395891842765,0.714095999999699,
0.121864864501953,0.591846650390625,-0.00220266552734216,0.604266790841684,0.717042999999649,
0.145806881103515,0.560722028808594,0.0265277543945324,0.57997634600178,0.719981999999618,
0.109893856201172,0.58226984375,-0.00220266552734216,0.592553526955024,0.723042999999961,
0.119470662841797,0.587058247070313,0.0121625444335951,0.599214946592811,0.726046999999653,
0.126653267822265,0.606211860351563,0.0073741411132815,0.619345015187916,0.729097999999794,
0.13623007446289,0.572693037109375,-0.0405098920898439,0.59006525003499,0.732014999999592,
0.121864864501953,0.579875642089844,-0.0309330854492185,0.593349527061914,0.734986999999819,
0.138624276123047,0.539174213867188,0.0217393510742188,0.55713384587105,0.73804599999994,
0.112288057861328,0.599029255371094,-0.0381156904296862,0.610653308011713,0.740966999999728,
0.119470662841797,0.589452448730469,-0.00459686718749985,0.6014553680716,0.744052999999894,
0.129047469482422,0.551145222167969,-0.0165678754882812,0.56629391643968,0.747011999999813,
0.102711251220703,0.608606062011719,0.014556746093751,0.617383866570525,0.749968999999965,
0.119470662841797,0.591846650390625,-0.0141736738281235,0.603950817441493,0.752982999999858,
0.13623007446289,0.596635053710938,0.0289219560546883,0.612673240844455,0.755961999999727,
0.129047469482422,0.589452448730469,-0.0405098920898439,0.604771436206517,0.759004000000004,
0.150595284423828,0.584664045410156,0.0169509477539069,0.603985364322529,0.761943999999858,
0.162566292724609,0.591846650390625,0.0169509477539069,0.614001296202689,0.764940999999908,
0.117076461181641,0.627759675292969,0.000191536132813752,0.638583701931736,0.767950999999812,
0.13623007446289,0.587058247070313,0.014556746093751,0.602833241865668,0.770960999999716,
0.181719906005859,0.596635053710938,0.0217393510742188,0.62407380247897,0.774011999999857,
0.129047469482422,0.596635053710938,-0.0500866987304676,0.612482909219667,0.776981999999862,
0.148201082763672,0.591846650390625,-0.0668461103515625,0.613770658291891,0.780003999999735,
0.157777889404297,0.606211860351563,0.0217393510742188,0.626784876493447,0.78296199999977,
0.131441671142578,0.575087238769531,0.0193451494140628,0.590234258506036,0.78597099999979,
0.0883460412597654,0.603817658691406,0.052863972656251,0.612531948194414,0.789041999999881,
0.0907402429199217,0.575087238769531,0.0289219560546883,0.582919894516184,0.792059999999765,
0.126653267822265,0.594240852050781,0.0456813676757815,0.609302903200721,0.795134999999846,
0.114682259521484,0.594240852050781,0.00258573779296967,0.605211448119519,0.798171999999795,
0.117076461181641,0.599029255371094,0.0217393510742188,0.610749986441581,0.801157999999759,
0.13623007446289,0.596635053710938,0.000191536132813752,0.611990242725248,0.804255999999896,
0.126653267822265,0.596635053710938,0.0313161577148442,0.610733280000962,0.807250999999724,
0.141018477783203,0.613394465332031,-0.00938527050781168,0.629465697618834,0.810426000000007,
0.102711251220703,0.56311623046875,-0.0572693037109371,0.57526451593349,0.813409999999749,
0.121864864501953,0.589452448730469,0.052863972656251,0.604234916335879,0.816398999999819,
0.131441671142578,0.572693037109375,-0.0261446821289049,0.588164749088157,0.819471999999678,
0.129047469482422,0.579875642089844,-0.0381156904296862,0.595282970969149,0.822471999999834,
0.126653267822265,0.591846650390625,-0.0381156904296862,0.60644563951404,0.825543999999809,
0.107499654541016,0.613394465332031,0.0696233842773442,0.626622981915471,0.82848899999999,
0.112288057861328,0.587058247070313,-0.00459686718749985,0.597718265221565,0.831417999999758,
0.126653267822265,0.615788666992188,-0.0141736738281235,0.628838314414651,0.834474999999657,
0.150595284423828,0.611000263671875,0.0169509477539069,0.629513777869516,0.837420999999722,
0.114682259521484,0.58226984375,-0.0716345136718743,0.597763912542911,0.84045900000001,
0.13623007446289,0.594240852050781,-0.00220266552734216,0.6096602948935,0.843496999999843,
0.112288057861328,0.575087238769531,-0.0309330854492185,0.586762981031729,0.846448999999666,
0.117076461181641,0.613394465332031,-0.0189620771484371,0.624755334697166,0.849561999999878,
0.124259066162109,0.567904633789063,-0.0165678754882812,0.581575861862203,0.852520999999797,
0.126653267822265,0.565510432128906,0.00497993945312558,0.579541110615664,0.855601999999635,
0.133835872802734,0.570298835449219,0.0193451494140628,0.586111795965119,0.85857999999962,
0.119470662841797,0.5439626171875,-0.0716345136718743,0.56151586952315,0.861606999999822,
0.133835872802734,0.644519086914063,-0.0668461103515625,0.661653456663335,0.864614999999958,
0.152989486083984,0.567904633789063,0.00497993945312558,0.588171961018449,0.867579999999634,
0.143412679443359,0.572693037109375,0.014556746093751,0.590556017864116,0.870618999999806,
0.152989486083984,0.594240852050781,0.00976834277343741,0.613696499597985,0.873597999999674,
0.133835872802734,0.608606062011719,0.052863972656251,0.625386263977138,0.876670999999988,
0.117076461181641,0.630153876953125,0.0600465776367187,0.643744046875583,0.879615999999714,
0.112288057861328,0.603817658691406,0.0648349809570323,0.617582340778571,0.882594999999583,
0.13623007446289,0.577481440429688,0.0265277543945324,0.593925221709036,0.885685999999623,
0.119470662841797,0.589452448730469,0.0169509477539069,0.601676626788809,0.888662999999724,
0.181719906005859,0.587058247070313,0.0361045610351578,0.615599747416768,0.891695999999683,
0.129047469482422,0.591846650390625,0.0552581743164069,0.608267353050615,0.894622999999683,
0.15538368774414,0.584664045410156,0.052863972656251,0.607264963601012,0.897583999999824,
0.131441671142578,0.5439626171875,0.0241335527343765,0.560138081349422,0.900634999999966,
0.138624276123047,0.615788666992188,-0.0285388837890626,0.631843999903916,0.903576999999586,
0.100317049560547,0.603817658691406,-0.00699106884765577,0.612134095132543,0.906650999999783,
0.0835576379394529,0.575087238769531,0.0361045610351578,0.582246297009372,0.909633999999642,
0.131441671142578,0.577481440429688,0.0217393510742188,0.592650256338954,0.912585999999919,
0.148201082763672,0.611000263671875,0.0169509477539069,0.628945321764286,0.915630999999848,
0.0955286462402342,0.570298835449219,-0.00459686718749985,0.578262583222507,0.918576999999914,
0.129047469482422,0.591846650390625,0.00497993945312558,0.605772652696848,0.921609999999873,
0.105105452880859,0.594240852050781,0.00258573779296967,0.603469993049583,0.924571999999898,
0.145806881103515,0.555933625488281,-0.00220266552734216,0.574740545168952,0.927538999999797,
0.109893856201172,0.611000263671875,0.0073741411132815,0.62084809719852,0.930650999999671,
0.181719906005859,0.627759675292969,-0.0285388837890626,0.654155029064699,0.933669000000009,
0.141018477783203,0.570298835449219,0.0432871660156255,0.589067696901376,0.936735999999655,
0.124259066162109,0.60142345703125,-0.0524809003906235,0.616364125413468,0.939722999999958,
0.133835872802734,0.558327827148438,-0.0620577070312489,0.577488668649993,0.942679999999655,
0.112288057861328,0.56311623046875,0.0289219560546883,0.574930410134681,0.945737999999892,
0.143412679443359,0.594240852050781,0.000191536132813752,0.611301417925112,0.948721999999634,
0.119470662841797,0.611000263671875,-0.0261446821289049,0.623119656158094,0.951818999999887,
0.121864864501953,0.570298835449219,-0.021356278808593,0.583564818644309,0.954771999999593,
0.148201082763672,0.594240852050781,-0.0429040937499998,0.613943411430461,0.957769999999982,
0.105105452880859,0.575087238769531,0.0217393510742188,0.585017168813004,0.96077699999978,
0.0907402429199217,0.606211860351563,-0.00699106884765577,0.613005290645767,0.96377399999983,
0.141018477783203,0.60142345703125,-0.0572693037109371,0.620383880263863,0.966804999999567,
0.13623007446289,0.553539423828125,-0.0141736738281235,0.570232776986665,0.969745999999759,
0.102711251220703,0.572693037109375,0.0384987626953137,0.583102967416521,0.972733999999946,
0.124259066162109,0.584664045410156,0.0313161577148442,0.598542448998289,0.975721999999678,
0.109893856201172,0.596635053710938,0.0337103593750001,0.607607138928279,0.978631999999834,
0.126653267822265,0.560722028808594,-0.0237504804687489,0.575338447493109,0.981715999999778,
0.119470662841797,0.589452448730469,0.0121625444335951,0.601560766740405,0.984739999999874,
0.133835872802734,0.577481440429688,0.052863972656251,0.595139861288603,0.987778999999591,
0.112288057861328,0.587058247070313,-0.0237504804687489,0.59817228180018,0.990753999999924,
0.0955286462402342,0.58226984375,0.014556746093751,0.590233675801355,0.993696,
0.117076461181641,0.606211860351563,0.0217393510742188,0.617796339240406,0.996752000000015,
0.124259066162109,0.58226984375,0.0480755693359374,0.597318798323896,0.999683999999888,
0.181719906005859,0.611000263671875,0.000191536132813752,0.637450769182977,1.0027399999999,
0.131441671142578,0.572693037109375,0.0408929643554696,0.589004636823931,1.00573599999962,
0.0859518395996092,0.587058247070313,0.0121625444335951,0.5934416834626,1.00868999999966,
0.133835872802734,0.575087238769531,0.0121625444335951,0.590580477607864,1.01172099999985,
0.152989486083984,0.587058247070313,-0.0237504804687489,0.607130343194941,1.01467999999977,
0.15538368774414,0.587058247070313,0.0313161577148442,0.608080732801375,1.01774399999977,
0.131441671142578,0.60142345703125,0.0672291826171882,0.619279299327491,1.02066699999978,
0.162566292724609,0.603817658691406,-0.00699106884765577,0.625357849172318,1.02363299999979,
0.138624276123047,0.589452448730469,-0.0165678754882812,0.605760161898403,1.02670399999988,
0.141018477783203,0.60142345703125,0.0121625444335951,0.617854605251762,1.0296629999998,
