X,Y,Z,Magnitude,Seconds,
-0.287687271484375,0.123109849365234,0.0072783730468764,0.313006351212024,0.0,
-0.304446683105469,0.149446067626953,-0.0549708701171863,0.343574892191676,0.00385800000003655,
-0.306840884765625,0.103956236083984,-0.00469263525390495,0.324006556122136,0.00775499999872409,
-0.282898868164062,0.108744639404297,-0.0286346518554677,0.304429153489875,0.011583999999857,
-0.318811893066406,0.137475059326172,-0.0262404501953117,0.348179517381153,0.0153679999984888,
-0.275716263183594,0.147051865966797,-0.0501824667968744,0.31648378954073,0.0191409999988537,
-0.328388699707031,0.103956236083984,9.57680664068761e-05,0.344450353879258,0.0229099999996834,
-0.328388699707031,0.218877915771484,0.0192493813476577,0.395116715401932,0.0266849999989063,
-0.261351053222656,0.113533042724609,-0.0597592734374981,0.29114480172704,0.0304319999995641,
-0.340359708007812,0.147051865966797,9.57680664068761e-05,0.370768109862489,0.0343259999990551,
-0.304446683105469,0.127898252685547,-0.0190578452148422,0.330770233482656,0.0382599999993545,
-0.290081473144531,0.118321446044922,-0.0118752402343745,0.313509564425851,0.0422440000002098,
-0.263745254882812,0.161417075927734,0.0240377846679696,0.310152941249964,0.0460860000002867,
-0.280504666503906,0.0871968244628907,0.0216435830078137,0.294541336338884,0.049935999999434,
-0.318811893066406,0.142263462646484,0.00248996972656279,0.349121921273919,0.0537580000000162,
-0.306840884765625,0.0991678327636719,0.0120667763671882,0.322693654586964,0.0576979999987088,
-0.232620633300781,0.221272117431641,-0.0118752402343745,0.321270494008651,0.0615749999997206,
-0.275716263183594,0.111138841064453,0.0312203896484391,0.298908033526827,0.0654099999992468,
-0.302052481445312,0.0704374128417968,0.0264319863281255,0.311280870880892,0.0691989999995712,
-0.302052481445312,0.163811277587891,0.0575566079101577,0.348400056438531,0.0730249999996886,
-0.268533658203125,0.151840269287109,-0.0118752402343745,0.308718017445951,0.0767869999999675,
-0.256562649902344,0.115927244384766,0.00967257470703231,0.281703883567516,0.0806329999995796,
-0.268533658203125,0.0967736311035157,0.00488417138672048,0.285480851188038,0.0844099999994796,
-0.297264078125,0.233243125732422,-0.0262404501953117,0.378756978907834,0.0881769999996322,
-0.325994498046875,0.0417069929199219,0.0288261879882832,0.329913375189901,0.091934999998557,
-0.292475674804687,0.226060520751953,0.0479798012695323,0.372756543503887,0.0957109999999375,
-0.290081473144531,-0.0037828386230469,-0.0453940634765608,0.293636155690445,0.099421999999322,
-0.302052481445312,0.338587998779297,0.0743160195312509,0.459782997971444,0.103196999998545,
-0.297264078125,-0.0803972917480469,-0.0597592734374981,0.313689061692792,0.107011000000057,
-0.290081473144531,0.228454722412109,0.0360087929687509,0.370992526104181,0.111025000000154,
-0.309235086425781,0.118321446044922,-0.00229843359374904,0.331106608312046,0.114888000000064,
-0.290081473144531,0.166205479248047,-0.0453940634765608,0.337390194571046,0.118695999999545,
-0.294869876464844,0.0871968244628907,-0.0453940634765608,0.310824952733397,0.122497000000294,
-0.285293069824219,0.137475059326172,0.0455855996093764,0.319952456652871,0.126312999998845,
-0.357119119628906,0.180570689208984,-0.0142694418945304,0.40042909032426,0.130236999999397,
-0.287687271484375,0.108744639404297,0.0144609780273441,0.307893622309398,0.134087999998883,
-0.263745254882812,0.156628672607422,-0.0190578452148422,0.307339066862961,0.137874000000011,
-0.270927859863281,0.187753294189453,0.0288261879882832,0.330883897829775,0.141705999998521,
-0.306840884765625,0.132686656005859,-0.0166636435546863,0.334715930696892,0.145501999999397,
-0.294869876464844,0.0656490095214843,0.00488417138672048,0.302128932126135,0.149330000000191,
-0.273322061523437,0.151840269287109,-0.0813070883789049,0.323065410270519,0.153111999999965,
-0.251774246582031,0.147051865966797,-0.0884896933593744,0.304704690408767,0.157040999998571,
-0.299658279785156,0.101562034423828,-0.0382114584960931,0.318700560150911,0.160866000000169,
-0.292475674804687,0.127898252685547,0.0120667763671882,0.319445755151589,0.164705999999569,
-0.302052481445312,0.123109849365234,-0.040605660156249,0.328695232996656,0.168485999998666,
-0.294869876464844,0.156628672607422,-0.0429998618164049,0.336644877052043,0.172262999998566,
-0.2589568515625,0.103956236083984,0.0360087929687509,0.281357749427625,0.176045999998678,
-0.299658279785156,0.132686656005859,-0.00229843359374904,0.327728723371634,0.179984999998851,
-0.306840884765625,0.135080857666016,-0.0429998618164049,0.338004666813593,0.184040000000095,
-0.292475674804687,0.139869260986328,-0.0525766684570304,0.328435285234944,0.187895999999455,
-0.249380044921875,0.125504051025391,0.0072783730468764,0.279275219708498,0.191753999999491,
-0.27811046484375,0.151840269287109,-0.0884896933593744,0.32898529429691,0.195561999998972,
-0.306840884765625,0.159022874267578,-0.122008516601561,0.366504681044304,0.199426999999559,
-0.297264078125,0.159022874267578,0.0120667763671882,0.337342279851968,0.203406999999061,
-0.337965506347656,0.101562034423828,-0.0214520468749981,0.353547338601582,0.20725499999935,
-0.292475674804687,0.170993882568359,0.0144609780273441,0.339101825583064,0.211086999999679,
-0.311629288085937,0.151840269287109,0.00488417138672048,0.346687374590228,0.214942999999039,
-0.294869876464844,0.0919852277832032,-0.0142694418945304,0.309213749934736,0.218777999998565,
-0.314023489746094,0.182964890869141,-0.0549708701171863,0.367571353568953,0.222562999999354,
-0.290081473144531,0.132686656005859,0.00488417138672048,0.319024865604318,0.226368999999977,
-0.268533658203125,0.159022874267578,-0.00948103857421678,0.312231468978898,0.230267999999342,
-0.282898868164062,0.103956236083984,-0.0358172568359372,0.303515311832053,0.23405399999865,
-0.292475674804687,0.137475059326172,0.0312203896484391,0.324678494851433,0.237857000000076,
-0.290081473144531,0.137475059326172,9.57680664068761e-05,0.321008819458217,0.241659999999683,
-0.306840884765625,0.166205479248047,-0.0166636435546863,0.349361226973375,0.245444999998654,
-0.270927859863281,0.0895910261230469,0.0288261879882832,0.286809006702743,0.249259999998685,
-0.294869876464844,0.170993882568359,0.0431913979492204,0.343587905460891,0.253305000000182,
-0.282898868164062,0.106350437744141,-0.0262404501953117,0.303365697539011,0.257243999998536,
-0.282898868164062,0.130292454345703,-0.00948103857421678,0.311605172229828,0.261035999999876,
-0.249380044921875,0.135080857666016,0.0120667763671882,0.283871189106817,0.264897999999448,
-0.309235086425781,0.130292454345703,0.0192493813476577,0.336114565317326,0.268686999999773,
-0.275716263183594,0.118321446044922,-0.00469263525390495,0.300069064056447,0.272531999999046,
-0.263745254882812,0.144657664306641,0.00967257470703231,0.300966705828594,0.276389999999083,
-0.287687271484375,0.137475059326172,-0.0453940634765608,0.32206207337992,0.280294999998659,
-0.294869876464844,0.0704374128417968,-0.0429998618164049,0.306200361349342,0.284089999999196,
-0.220649625,0.147051865966797,0.0407971962890645,0.268281418517954,0.287940000000162,
-0.299658279785156,0.101562034423828,-0.0118752402343745,0.316624308622585,0.291736999999557,
-0.3355713046875,0.161417075927734,0.0431913979492204,0.374872071229024,0.295528999999078,
-0.309235086425781,-0.283904432861328,-0.155527339843749,0.447679370882717,0.299283000000287,
-0.244591641601562,1.26035563793945,-0.43564893408203,1.35576967033266,0.303131999999096,
-0.2589568515625,-0.856118629638672,0.850037357421876,1.23392109472135,0.306757999998808,
-0.349936514648437,-1.45945744799805,0.318524588867188,1.53425210461458,0.309723999998823,
-0.242197439941406,1.3345758894043,-0.691828511718748,1.52262243977961,0.312686999999642,
-0.196707608398437,1.22204841137695,-0.500292378906249,1.33506129722288,0.315726999999242,
-0.428945169433594,-0.142646534912109,0.380773832031251,0.591042048810919,0.318704999999682,
-0.369090127929687,-0.544872413818359,0.596251981445313,0.888048363127178,0.321745999999621,
-0.179948196777344,-0.453892750732422,-0.332698262695311,0.590836793616766,0.32470099999955,
-0.227832229980469,0.812639927490234,-0.272843221191405,0.886980608648976,0.327661999999691,
-0.213467020019531,0.968263035400391,0.11980585107422,0.998726647441839,0.330704999998488,
-0.400214749511719,-0.434739137451172,0.105440641113283,0.600239695585769,0.333712999999989,
-0.400214749511719,-0.657399891845703,-0.00229843359374904,0.769643908780194,0.336846000000151,
-0.136852566894531,0.484634300048828,-0.0741244833984371,0.509012248269651,0.339911999999458,
-0.199101810058594,0.800668919189453,-0.0238462485351558,0.825397414881956,0.342944999998508,
-0.342753909667969,0.0536780012207031,0.0431913979492204,0.349609878671264,0.346010999999635,
-0.438521976074219,-0.499382582275391,-0.0358172568359372,0.66555793351693,0.348970999999437,
-0.256562649902344,0.103956236083984,-0.0262404501953117,0.278064477364719,0.352011999999377,
-0.232620633300781,0.640257407958984,9.57680664068761e-05,0.681206221826501,0.354999999999563,
-0.275716263183594,0.199724302490234,0.0455855996093764,0.343492797131005,0.357974999998987,
-0.328388699707031,-0.190530568115234,0.0120667763671882,0.379850816207474,0.360993000000235,
-0.31641769140625,0.00579396801757814,0.0384029946289068,0.318792276406938,0.36397500000021,
-0.246985843261719,0.343376402099609,-0.0501824667968744,0.425943235965069,0.36701499999981,
-0.273322061523437,0.307463377197266,-0.0669418784179676,0.416797184154471,0.369998000000123,
-0.297264078125,-0.0492726701660157,0.0144609780273441,0.301666783147072,0.373012999998537,
-0.309235086425781,-0.0420900651855469,-0.00469263525390495,0.312121663922436,0.375986999999441,
-0.232620633300781,0.235637327392578,-0.0214520468749981,0.331809432375122,0.378966999998738,
-0.266139456542969,0.283521360595703,0.0144609780273441,0.389131972637218,0.382016999999905,
-0.282898868164062,0.0464953962402344,0.0072783730468764,0.286786621365526,0.38500699999895,
-0.347542312988281,-0.0277248552246094,-0.0214520468749981,0.349305764666999,0.388014000000112,
-0.235014834960937,0.163811277587891,9.57680664068761e-05,0.286471842400289,0.390996999998606,
-0.254168448242187,0.250002537353516,-0.0334230551757795,0.358078160996061,0.393948999999338,
-0.270927859863281,0.142263462646484,0.0551624062500018,0.31094000887238,0.397003000000041,
-0.345148111328125,0.0536780012207031,0.00248996972656279,0.349306092872227,0.399983999999677,
-0.235014834960937,0.0991678327636719,0.0240377846679696,0.256210941996051,0.403018999999404,
-0.275716263183594,0.190147495849609,0.0240377846679696,0.33578764577266,0.405998000000181,
-0.325994498046875,0.194935899169922,0.0384029946289068,0.381768526123472,0.408966999999393,
-0.347542312988281,0.0560722028808593,-0.0118752402343745,0.352236813214889,0.41200199999912,
-0.280504666503906,0.0680432111816406,0.0623450112304695,0.295295863404323,0.41498700000011,
-0.232620633300781,0.180570689208984,-0.00229843359374904,0.294488396436343,0.41801999999916,
-0.290081473144531,0.170993882568359,0.0120667763671882,0.336944767030739,0.421001999999135,
-0.357119119628906,0.111138841064453,0.0407971962890645,0.376231735533731,0.423962999999276,
-0.275716263183594,0.137475059326172,-0.0358172568359372,0.310164030164542,0.426996000000145,
-0.270927859863281,0.125504051025391,-0.0166636435546863,0.299049910701206,0.429978000000119,
-0.290081473144531,0.211695310791016,0.0623450112304695,0.364484658247687,0.433028999999806,
-0.282898868164062,0.130292454345703,0.0072783730468764,0.311545932379391,0.436001000000033,
-0.328388699707031,0.0800142194824218,0.0431913979492204,0.340744640855089,0.4389570000003,
-0.275716263183594,0.163811277587891,-0.0214520468749981,0.321424614433974,0.44198999999935,
-0.256562649902344,0.147051865966797,-0.0525766684570304,0.300354708095728,0.444962999999916,
-0.275716263183594,0.173388084228516,-0.0429998618164049,0.328529867215432,0.448005999998713,
-0.294869876464844,0.101562034423828,0.0072783730468764,0.311955230116292,0.450996999999916,
-0.292475674804687,0.115927244384766,-0.040605660156249,0.317222265895424,0.453944999999294,
-0.254168448242187,0.149446067626953,-0.0358172568359372,0.297016166392089,0.456983000000037,
-0.297264078125,0.180570689208984,0.0288261879882832,0.349002371136429,0.459958999999799,
-0.275716263183594,0.161417075927734,-0.00948103857421678,0.319632320451844,0.462999999999738,
-0.328388699707031,0.103956236083984,0.0264319863281255,0.345463003832934,0.465976999999839,
-0.273322061523437,0.135080857666016,-0.00708683691406087,0.304962310262522,0.469001999999819,
-0.306840884765625,0.187753294189453,0.0479798012695323,0.36291140705771,0.471980000000258,
-0.299658279785156,0.192541697509766,-0.00948103857421678,0.356310651000201,0.475012999999308,
-0.302052481445312,0.106350437744141,0.0144609780273441,0.320554577320538,0.478160999999091,
-0.223043826660156,0.0776200178222656,-0.0142694418945304,0.236594659174538,0.481225999999879,
-0.282898868164062,0.144657664306641,-0.0334230551757795,0.319491330192923,0.484297999999399,
-0.297264078125,0.166205479248047,-0.0262404501953117,0.341582720145548,0.487263999999413,
-0.249380044921875,0.111138841064453,-0.0358172568359372,0.275363622662177,0.490214999999807,
-0.263745254882812,0.113533042724609,0.00967257470703231,0.287306230292646,0.493250999999873,
-0.302052481445312,0.151840269287109,-0.0429998618164049,0.340793422824858,0.496247999999468,
-0.275716263183594,0.144657664306641,-0.0358172568359372,0.313413741743767,0.499287999999069,
-0.287687271484375,0.0967736311035157,-0.0549708701171863,0.308465392568639,0.502249999999549,
-0.297264078125,0.0752258161621093,-0.0118752402343745,0.306864590481511,0.505214999999225,
-0.249380044921875,0.113533042724609,0.00967257470703231,0.274178258250007,0.508246999999756,
-0.263745254882812,0.166205479248047,-0.0382114584960931,0.314079506440123,0.511239999999816,
-0.304446683105469,0.118321446044922,-0.0166636435546863,0.327055690157809,0.514275999999882,
-0.290081473144531,0.123109849365234,-0.0741244833984371,0.323724782973929,0.517280000000028,
-0.299658279785156,0.147051865966797,0.0144609780273441,0.334108449180237,0.52025599999979,
-0.270927859863281,0.135080857666016,-0.040605660156249,0.305446497761243,0.523298000000068,
-0.318811893066406,0.156628672607422,0.0216435830078137,0.355867965583817,0.526280000000042,
-0.318811893066406,0.0967736311035157,0.0192493813476577,0.333731475171001,0.52932299999884,
-0.266139456542969,0.130292454345703,-0.0214520468749981,0.297096826478407,0.532286999999997,
-0.263745254882812,0.173388084228516,0.0312203896484391,0.317174557547472,0.535248000000138,
-0.2589568515625,0.115927244384766,-0.0453940634765608,0.287329772144694,0.538279999998849,
-0.302052481445312,0.132686656005859,-0.0693360800781235,0.337118587784607,0.541250999998738,
-0.299658279785156,0.142263462646484,0.0503740029296882,0.335516791858659,0.544294999999693,
-0.285293069824219,0.142263462646484,-0.00229843359374904,0.31880450324749,0.547271999999793,
-0.297264078125,0.211695310791016,-0.0429998618164049,0.367464045684256,0.550225999999384,
-0.235014834960937,0.108744639404297,0.0168551796875018,0.259502343598637,0.553259999998772,
-0.325994498046875,0.154234470947266,-0.0334230551757795,0.362184739328564,0.556226999999126,
-0.275716263183594,0.111138841064453,0.0240377846679696,0.298243381936328,0.559275999999954,
-0.266139456542969,0.125504051025391,-0.0118752402343745,0.294486839236314,0.562240999999631,
-0.270927859863281,0.161417075927734,9.57680664068761e-05,0.315368652251108,0.565274999999019,
-0.263745254882812,0.118321446044922,-0.0238462485351558,0.290052008502892,0.568239000000176,
-0.275716263183594,0.147051865966797,-0.00229843359374904,0.312488386768575,0.571205000000191,
-0.268533658203125,0.118321446044922,-0.0142694418945304,0.293792285729383,0.574236999998902,
-0.275716263183594,0.118321446044922,9.57680664068761e-05,0.300032384168124,0.577218999998877,
-0.273322061523437,0.120715647705078,-0.0166636435546863,0.299257237060018,0.58024099999966,
-0.304446683105469,0.113533042724609,0.0192493813476577,0.325496656398337,0.583228999999847,
-0.282898868164062,0.194935899169922,-0.00708683691406087,0.343630612214832,0.586176999999225,
-0.31641769140625,0.149446067626953,0.0192493813476577,0.350463723153036,0.589233999999124,
-0.290081473144531,0.147051865966797,-0.0118752402343745,0.325442058862468,0.592194999999265,
-0.27811046484375,0.0871968244628907,-0.0262404501953117,0.292638476756683,0.59523099999933,
-0.318811893066406,0.130292454345703,0.0527682045898441,0.348427367231175,0.598202999999558,
-0.318811893066406,0.0776200178222656,-0.0142694418945304,0.328434936173507,0.601149000000078,
-0.285293069824219,0.345770603759766,-0.110037508300779,0.461581736366555,0.604185000000143,
-0.302052481445312,0.0704374128417968,-0.0597592734374981,0.315861205970113,0.607156999998551,
-0.328388699707031,0.113533042724609,0.122200052734376,0.368322878428515,0.61020599999938,
-0.246985843261719,-0.0684262834472657,0.182055094238283,0.314369560193442,0.613186999999016,
-0.280504666503906,0.0728316145019531,-0.174680953125,0.338379590676044,0.616226000000097,
-0.357119119628906,0.458298081787109,-0.189046163085937,0.610990711182898,0.619360999999117,
-0.290081473144531,0.178176487548828,0.0503740029296882,0.344139015440126,0.622432000000117,
-0.323600296386719,-0.0085712419433594,0.141353666015625,0.353230062290967,0.625473999998576,
-0.230226431640625,-0.0349074602050781,0.0312203896484391,0.2349413827612,0.628434999998717,
-0.263745254882812,0.204512705810547,-0.169892549804686,0.374500313471549,0.631384000000253,
-0.321206094726562,0.398443040283203,-0.00469263525390495,0.511812692755111,0.63442699999905,
-0.349936514648437,0.0464953962402344,-0.0214520468749981,0.353663083274123,0.637430999999197,
-0.297264078125,-0.0875798967285156,0.0216435830078137,0.310651919581868,0.640464999998585,
-0.246985843261719,0.170993882568359,9.57680664068761e-05,0.300401271333905,0.643450999999914,
-0.299658279785156,0.343376402099609,-0.0669418784179676,0.460633968839465,0.646405999999843,
-0.342753909667969,0.214089512451172,-0.0214520468749981,0.404690934231773,0.649438999998893,
-0.314023489746094,-0.0516668718261719,0.0384029946289068,0.320554219677553,0.652426999999079,
-0.237409036621094,0.103956236083984,-0.0645476767578117,0.267088659933244,0.655485999999655,
-0.299658279785156,0.305069175537109,-0.0142694418945304,0.427862014531171,0.658487999999124,
-0.299658279785156,0.154234470947266,-0.0501824667968744,0.340736902383644,0.661511999998766,
-0.273322061523437,0.0369185895996094,-0.0860954916992185,0.288929689136261,0.664488999998866,
-0.273322061523437,0.0943794294433594,-0.0118752402343745,0.289401878618816,0.667448999998669,
-0.302052481445312,0.214089512451172,-0.0334230551757795,0.371735284182353,0.670486999999412,
-0.302052481445312,0.163811277587891,-0.0549708701171863,0.34798223054301,0.673466999998709,
-0.302052481445312,0.120715647705078,-0.00469263525390495,0.325315216326801,0.676496999998562,
-0.263745254882812,0.0848026228027344,9.57680664068761e-05,0.277043414429842,0.679489999998623,
-0.218255423339844,0.182964890869141,0.0360087929687509,0.287068309430138,0.682448999999906,
-0.297264078125,0.180570689208984,-0.0477882651367167,0.351077518832652,0.685488999999507,
-0.294869876464844,0.0895910261230469,-0.0477882651367167,0.311862973584473,0.688473000000158,
-0.311629288085937,0.0824084211425782,0.0862870278320322,0.333690593574716,0.691516999999294,
-0.242197439941406,0.170993882568359,0.0072783730468764,0.296566151986673,0.694492999999056,
-0.309235086425781,0.123109849365234,0.0072783730468764,0.332919432298117,0.697455999999875,
-0.299658279785156,0.120715647705078,0.0120667763671882,0.323284641355805,0.70049999999901,
-0.309235086425781,0.159022874267578,-0.0214520468749981,0.348388868266782,0.703480999998646,
-0.270927859863281,0.115927244384766,-0.0262404501953117,0.295854005325592,0.70650999999998,
-0.294869876464844,0.130292454345703,0.0192493813476577,0.322947219198566,0.709496999999828,
-0.299658279785156,0.204512705810547,-0.0286346518554677,0.363923721085386,0.712461999999505,
-0.302052481445312,0.149446067626953,-0.00948103857421678,0.337134570711573,0.715502999999444,
-0.311629288085937,0.0752258161621093,-0.0238462485351558,0.321465986038032,0.718472999998994,
-0.2589568515625,0.147051865966797,0.0551624062500018,0.302862664121495,0.721528999998554,
-0.270927859863281,0.187753294189453,-0.00469263525390495,0.329659256740525,0.724494999998569,
-0.306840884765625,0.0464953962402344,-0.0118752402343745,0.310570719427817,0.727466999998796,
-0.309235086425781,0.0895910261230469,-0.0142694418945304,0.322267757634117,0.730504999999539,
-0.287687271484375,0.178176487548828,9.57680664068761e-05,0.33839449768116,0.733494000000064,
-0.311629288085937,0.142263462646484,-0.0621534750976558,0.34815910222746,0.736525999998776,
-0.314023489746094,0.135080857666016,0.0144609780273441,0.342150128022201,0.739507000000231,
-0.330782901367187,0.0967736311035157,-0.0142694418945304,0.344943590295334,0.74246200000016,
-0.304446683105469,0.118321446044922,-0.00229843359374904,0.326638990699316,0.74549499999921,
-0.285293069824219,0.154234470947266,0.0431913979492204,0.327178704342011,0.7484800000002,
-0.270927859863281,0.170993882568359,-0.0190578452148422,0.320942385156795,0.75151299999925,
-0.290081473144531,0.0991678327636719,0.0072783730468764,0.306650444041672,0.754562999998598,
-0.299658279785156,0.118321446044922,-0.0382114584960931,0.324430523838863,0.757684999998673,
-0.270927859863281,0.204512705810547,-0.0645476767578117,0.345534013756793,0.760757999998532,
-0.306840884765625,0.137475059326172,-0.0262404501953117,0.337252548881307,0.763777000000118,
-0.328388699707031,0.0776200178222656,-0.0238462485351558,0.338278951209211,0.766822999999931,
-0.290081473144531,0.142263462646484,-0.00229843359374904,0.323096636724764,0.769796999999016,
-0.273322061523437,0.0919852277832032,0.0264319863281255,0.289594339286872,0.772855999999592,
-0.323600296386719,0.0560722028808593,-0.0813070883789049,0.338337237646316,0.775853999999526,
-0.299658279785156,0.173388084228516,-0.0358172568359372,0.348053714652617,0.778814999999668,
-0.280504666503906,0.175782285888672,-0.0621534750976558,0.336816469949777,0.781865999999354,
-0.304446683105469,0.108744639404297,0.0814986245117204,0.333399467981571,0.784879999999248,
-0.297264078125,0.115927244384766,-0.0525766684570304,0.323371866741978,0.787919999998849,
-0.299658279785156,0.130292454345703,-0.0238462485351558,0.32762761158429,0.79091999999946,
-0.27811046484375,0.194935899169922,-0.0190578452148422,0.340159722637801,0.793879999999263,
-0.302052481445312,0.111138841064453,-0.0765186850585931,0.330821179345453,0.796952999999121,
-0.266139456542969,0.0895910261230469,-0.0429998618164049,0.284087575242208,0.79994699999952,
-0.275716263183594,0.127898252685547,-0.0429998618164049,0.30696320453789,0.80299500000001,
-0.256562649902344,0.123109849365234,0.0216435830078137,0.285392489426508,0.805970999999772,
-0.294869876464844,0.139869260986328,-0.0477882651367167,0.329841435389841,0.808923999999024,
-0.273322061523437,0.103956236083984,0.0072783730468764,0.292514654419877,0.811979000000065,
-0.280504666503906,0.139869260986328,-0.0118752402343745,0.313667498204633,0.81494500000008,
-0.285293069824219,0.144657664306641,0.0168551796875018,0.3203155828471,0.817992000000231,
-0.285293069824219,0.170993882568359,-0.0142694418945304,0.33291839921745,0.820955999999569,
-0.290081473144531,0.103956236083984,-0.0142694418945304,0.308476542146128,0.823910999999498,
-0.270927859863281,0.159022874267578,-0.0166636435546863,0.314591571417508,0.826952999999776,
-0.280504666503906,0.139869260986328,0.0240377846679696,0.314362995899761,0.829942999998821,
-0.27811046484375,0.111138841064453,-0.00948103857421678,0.299645061266162,0.83297599999969,
-0.294869876464844,0.0848026228027344,0.0072783730468764,0.306908298347934,0.835962999999538,
-0.263745254882812,0.125504051025391,0.0216435830078137,0.292884398666777,0.838920999998663,
-0.31641769140625,0.0967736311035157,-0.0238462485351558,0.331743778662118,0.841956999998729,
-0.309235086425781,0.163811277587891,-0.00948103857421678,0.350071940369666,0.844928999998956,
-0.27811046484375,0.106350437744141,9.57680664068761e-05,0.297751331542782,0.847976999999446,
-0.318811893066406,0.135080857666016,-0.0166636435546863,0.346649013102431,0.850953999999547,
-0.261351053222656,0.166205479248047,0.00248996972656279,0.309733489151405,0.853993999999147,
-0.299658279785156,0.101562034423828,-0.040605660156249,0.318996475085275,0.856959999999162,
-0.275716263183594,0.123109849365234,0.0240377846679696,0.302908084881205,0.859934000000067,
-0.282898868164062,0.168599680908203,-0.00469263525390495,0.329362479399949,0.862970000000132,
-0.285293069824219,0.161417075927734,0.0886812294921882,0.339576160168868,0.865954999999303,
-0.280504666503906,0.139869260986328,0.00967257470703231,0.313591831527532,0.868988000000172,
-0.275716263183594,0.120715647705078,0.0384029946289068,0.303424645309588,0.871962999999596,
-0.309235086425781,0.0991678327636719,-0.0214520468749981,0.32545474039708,0.874915999998848,
-0.280504666503906,0.106350437744141,0.0407971962890645,0.302750218437388,0.877974999999424,
-0.275716263183594,0.127898252685547,-0.00708683691406087,0.304019150846435,0.880944999998974,
-0.325994498046875,0.149446067626953,0.0240377846679696,0.359422251645245,0.883990999998787,
-0.318811893066406,0.115927244384766,-0.0334230551757795,0.340877176954565,0.886951999998928,
-0.27811046484375,0.113533042724609,0.0192493813476577,0.301007842303456,0.889920999999958,
-0.285293069824219,0.161417075927734,-0.0956722983398421,0.341468588248486,0.892969999998968,
-0.263745254882812,0.149446067626953,-0.0334230551757795,0.304979978391439,0.896036999998614,
-0.270927859863281,0.147051865966797,-0.0765186850585931,0.317618112987138,0.899160999999367,
-0.287687271484375,0.130292454345703,0.0479798012695323,0.319440371843346,0.902226999998675,
-0.299658279785156,0.113533042724609,0.0264319863281255,0.321533025263902,0.905206999999791,
-0.275716263183594,0.130292454345703,-0.0382114584960931,0.30733645570246,0.90824799999973,
-0.292475674804687,0.0871968244628907,0.0479798012695323,0.308945574298667,0.91123399999924,
-0.282898868164062,0.132686656005859,0.0192493813476577,0.313062385113243,0.914279999999053,
-0.3355713046875,0.147051865966797,0.0168551796875018,0.366764841412431,0.91727499999979,
-0.302052481445312,0.142263462646484,-0.00469263525390495,0.333911088730316,0.920222999999169,
-0.321206094726562,0.139869260986328,0.0360087929687509,0.35218375690741,0.923270999999659,
-0.290081473144531,0.0967736311035157,0.0599508095703136,0.311619152663627,0.926257999999507,
-0.290081473144531,0.120715647705078,0.0599508095703136,0.319865015640495,0.929291999998895,
-0.254168448242187,0.137475059326172,9.57680664068761e-05,0.288965397911408,0.932284999998956,
-0.242197439941406,0.154234470947266,0.0168551796875018,0.287631655116143,0.93526699999893,
-0.299658279785156,0.144657664306641,0.0431913979492204,0.335539001225282,0.938334999998915,
-0.297264078125,0.142263462646484,0.0072783730468764,0.329632825522403,0.941318999999567,
-0.330782901367187,0.130292454345703,0.0240377846679696,0.356330277394534,0.944363999999041,
-0.321206094726562,0.125504051025391,0.0240377846679696,0.345691245485067,0.947351999999228,
-0.302052481445312,0.123109849365234,-0.040605660156249,0.328695232996656,0.950378999999884,
-0.256562649902344,0.118321446044922,0.0168551796875018,0.28303437070676,0.953365999999733,
-0.249380044921875,0.173388084228516,-0.0334230551757795,0.305566580592437,0.956318999998985,
-0.297264078125,0.106350437744141,0.00488417138672048,0.315753389343664,0.959367999999813,
-0.273322061523437,0.125504051025391,-0.00469263525390495,0.300796005566616,0.962338999999702,
-0.347542312988281,0.0991678327636719,-0.0166636435546863,0.361797727174737,0.965362999999343,
-0.330782901367187,0.139869260986328,-0.0382114584960931,0.361165964019528,0.968347999998514,
-0.304446683105469,0.151840269287109,9.57680664068761e-05,0.34021061036162,0.971313999998529,
-0.294869876464844,0.175782285888672,0.0288261879882832,0.344497612753085,0.974363999999696,
-0.304446683105469,0.147051865966797,-0.0860954916992185,0.348890337827187,0.977333999999246,
-0.302052481445312,0.185359092529297,-0.0310288535156236,0.355747782116838,0.980374999999185,
-0.270927859863281,0.130292454345703,-0.00469263525390495,0.300666010275773,0.983350999998947,
-0.266139456542969,0.118321446044922,-0.0358172568359372,0.293450252701202,0.986297999999806,
-0.285293069824219,0.108744639404297,-0.0214520468749981,0.30606816659696,0.989333999999872,
-0.285293069824219,0.135080857666016,-0.0214520468749981,0.316384519394739,0.992322999998578,
-0.294869876464844,0.147051865966797,-0.040605660156249,0.331995956251629,0.995359999998982,
-0.282898868164062,0.139869260986328,9.57680664068761e-05,0.315587054469748,0.998344999999972,
-0.287687271484375,0.106350437744141,0.0072783730468764,0.306801819578542,1.00129899999956,
-0.261351053222656,0.149446067626953,-0.040605660156249,0.303788281186876,1.00433299999895,
-0.330782901367187,0.132686656005859,-0.0262404501953117,0.357367650669957,1.00731099999939,
-0.287687271484375,0.123109849365234,-0.0310288535156236,0.314456341859008,1.01034699999946,
-0.31641769140625,0.163811277587891,0.0312203896484391,0.357671641075496,1.01332999999977,
-0.314023489746094,0.147051865966797,-0.0190578452148422,0.347272522467391,1.01627600000029,
-0.27811046484375,0.132686656005859,-0.107643306640623,0.326401992644272,1.01931399999921,
-0.275716263183594,0.132686656005859,-0.0382114584960931,0.308359079688503,1.02228399999876,
