X,Y,Z,Magnitude,Seconds,
-0.292475674804687,0.149446067626953,0.0264319863281255,0.329506900356984,0.0,
-0.297264078125,0.149446067626953,0.0168551796875018,0.333142846771417,0.00395600000047125,
-0.299658279785156,0.132686656005859,-0.0453940634765608,0.330849594717494,0.00790299999971467,
-0.290081473144531,0.125504051025391,-0.0334230551757795,0.317829558887729,0.0117869999994582,
-0.251774246582031,0.118321446044922,0.0407971962890645,0.281166582404736,0.0156829999996262,
-0.280504666503906,0.156628672607422,-0.0358172568359372,0.323261944714317,0.0196909999995114,
-0.31641769140625,0.139869260986328,0.107834842773439,0.362369864806243,0.0237290000004577,
-0.2589568515625,0.108744639404297,-0.0190578452148422,0.281508879139835,0.027631000000838,
-0.282898868164062,0.125504051025391,0.0144609780273441,0.309826009750309,0.0316800000000512,
-0.280504666503906,0.130292454345703,-0.00708683691406087,0.309369059292201,0.0357710000007501,
-0.268533658203125,0.159022874267578,0.0144609780273441,0.31242234237292,0.0398079999995389,
-0.287687271484375,0.108744639404297,0.0144609780273441,0.307893622309398,0.0437139999994542,
-0.304446683105469,0.137475059326172,-0.00708683691406087,0.334121831145621,0.0476369999996678,
-0.266139456542969,0.137475059326172,0.0072783730468764,0.299637409179713,0.0516090000000986,
-0.302052481445312,0.127898252685547,0.00967257470703231,0.328157314848763,0.0555120000008174,
-0.280504666503906,0.132686656005859,-0.0310288535156236,0.311851577457897,0.0594920000003185,
-0.270927859863281,0.137475059326172,0.0072783730468764,0.303898456562454,0.0634379999992234,
-0.299658279785156,0.149446067626953,-0.0334230551757795,0.33652089443338,0.067365000000791,
-0.27811046484375,0.147051865966797,-0.00948103857421678,0.314737306387993,0.071313000000373,
-0.306840884765625,0.125504051025391,0.0216435830078137,0.332221372089382,0.0753339999992022,
-0.294869876464844,0.118321446044922,0.00967257470703231,0.317870677071693,0.0792689999998402,
-0.306840884765625,0.125504051025391,-0.040605660156249,0.333993136193336,0.0831429999998363,
-0.299658279785156,0.156628672607422,-0.0214520468749981,0.338803506536885,0.0870209999993676,
-0.287687271484375,0.156628672607422,-0.040605660156249,0.330068669966739,0.0908870000002935,
-0.270927859863281,0.137475059326172,-0.0118752402343745,0.304043283953874,0.0948019999996177,
-0.266139456542969,0.147051865966797,-0.0214520468749981,0.304819047843849,0.0987310000000434,
-0.2589568515625,0.130292454345703,-0.0262404501953117,0.291072732932926,0.102682000000641,
-0.297264078125,0.106350437744141,0.00488417138672048,0.315753389343664,0.106719999999768,
-0.314023489746094,0.130292454345703,0.0072783730468764,0.34005859860611,0.11063699999977,
-0.232620633300781,0.139869260986328,-0.0334230551757795,0.273482851059077,0.114686000000802,
-0.270927859863281,0.111138841064453,-0.00469263525390495,0.292875004172213,0.118639000000258,
-0.2589568515625,0.127898252685547,0.033614591308595,0.290768902670183,0.122622000000774,
-0.292475674804687,0.115927244384766,-0.0238462485351558,0.315515118357747,0.126684000000751,
-0.306840884765625,0.166205479248047,0.0503740029296882,0.352580671714977,0.130707000000257,
-0.285293069824219,0.120715647705078,-0.0477882651367167,0.313445563974608,0.134733000000779,
-0.280504666503906,0.120715647705078,-0.00708683691406087,0.305459258803479,0.138725000000704,
-0.27811046484375,0.115927244384766,-0.0214520468749981,0.302067454323333,0.142734999999448,
-0.325994498046875,0.118321446044922,0.0072783730468764,0.346879448894288,0.146733999999924,
-0.299658279785156,0.149446067626953,0.0503740029296882,0.33862479522935,0.15075699999943,
-0.299658279785156,0.111138841064453,-0.0286346518554677,0.320884511816685,0.154721000000791,
-0.275716263183594,0.142263462646484,-0.0310288535156236,0.311803047352951,0.158622000000832,
-0.282898868164062,0.106350437744141,0.0240377846679696,0.303183113495164,0.162535999999818,
-0.309235086425781,0.115927244384766,0.0072783730468764,0.33033080295609,0.166483000000881,
-0.302052481445312,0.142263462646484,-0.0525766684570304,0.337992456154688,0.170433999999659,
-0.280504666503906,0.149446067626953,0.0312203896484391,0.319361406230352,0.17435900000055,
-0.285293069824219,0.130292454345703,-0.0166636435546863,0.314079506440123,0.17849600000045,
-0.285293069824219,0.147051865966797,0.00488417138672048,0.320998819474742,0.182560999999623,
-0.273322061523437,0.130292454345703,-0.0382114584960931,0.30519041357036,0.186524999999165,
-0.254168448242187,0.142263462646484,0.033614591308595,0.29320715140469,0.190608999999313,
-0.294869876464844,0.151840269287109,-0.0238462485351558,0.332524217152337,0.194543999999951,
-0.321206094726562,0.103956236083984,-0.00469263525390495,0.337642229491313,0.19843899999978,
-0.273322061523437,0.142263462646484,0.0240377846679696,0.30906578136593,0.202418999999281,
-0.297264078125,0.132686656005859,-0.0453940634765608,0.328682676489707,0.206473000000187,
-0.306840884765625,0.0991678327636719,-0.0286346518554677,0.323736823524416,0.210449000000153,
-0.280504666503906,0.173388084228516,9.57680664068761e-05,0.329767046343968,0.214394000000539,
-0.304446683105469,0.0848026228027344,-0.0382114584960931,0.318338472774723,0.218415999999706,
-0.285293069824219,0.147051865966797,-0.105249104980468,0.337777679951226,0.222417999999379,
-0.282898868164062,0.0967736311035157,-0.0429998618164049,0.302069351973511,0.226431999999477,
-0.299658279785156,0.178176487548828,0.033614591308595,0.350245465506522,0.230418999999529,
-0.304446683105469,0.113533042724609,-0.0166636435546863,0.325353979014776,0.234311000000162,
-0.314023489746094,0.166205479248047,0.0144609780273441,0.355589838620137,0.238205999999991,
-0.237409036621094,0.147051865966797,-0.0214520468749981,0.280084794783294,0.242190999999366,
-0.292475674804687,0.168599680908203,0.0168551796875018,0.338011789494247,0.246153000000049,
-0.297264078125,0.139869260986328,0.00967257470703231,0.328668375439181,0.250051999999414,
-0.268533658203125,0.123109849365234,0.0216435830078137,0.296200616616677,0.254237999999532,
-0.294869876464844,0.144657664306641,0.00488417138672048,0.328478216962982,0.258309000000736,
-0.294869876464844,0.142263462646484,0.071921817871095,0.335201260046025,0.26241200000004,
-0.302052481445312,0.118321446044922,0.0120667763671882,0.324624819188749,0.26636999999937,
-0.280504666503906,0.151840269287109,0.0527682045898441,0.323299889766893,0.270402000000104,
-0.254168448242187,0.123109849365234,0.0407971962890645,0.285345485889685,0.274303000000145,
-0.294869876464844,0.115927244384766,-0.00229843359374904,0.316847996417876,0.27832699999999,
-0.287687271484375,0.0991678327636719,0.0264319863281255,0.305445371761332,0.282400000000052,
-0.292475674804687,0.135080857666016,0.00248996972656279,0.322172404792035,0.286363999999594,
-0.314023489746094,0.166205479248047,0.0216435830078137,0.355954292191854,0.290349999999307,
-0.2589568515625,0.142263462646484,-0.0645476767578117,0.302430068528513,0.294305999999779,
-0.299658279785156,0.125504051025391,-0.0310288535156236,0.326357382662131,0.298205999999482,
-0.292475674804687,0.161417075927734,0.0216435830078137,0.334762509010393,0.302143000000797,
-0.249380044921875,0.130292454345703,-0.0142694418945304,0.28172707970063,0.306099999999788,
-0.249380044921875,0.496605308349609,-0.174680953125,0.582512381388503,0.309977999999319,
-0.419368362792969,-0.820205604736328,0.215573917480469,0.946086239013345,0.313813000000664,
-0.1823423984375,0.968263035400391,0.268246354003907,1.02114551481515,0.317543999999543,
-0.0386902988281249,0.867706565673828,-0.560147420410155,1.03352636924707,0.320529000000533,
-0.539078445800781,-0.604727455322266,-0.445225740722655,0.924406201920761,0.323501000000761,
-0.6420291171875,-0.137858131591797,0.560338956542971,0.863241564095594,0.326554999999644,
-0.000383072265624895,0.489422703369141,0.414292655273439,0.641227832779454,0.329583999999159,
-0.0291134921874999,0.180570689208984,-0.454802547363281,0.490202740013648,0.332664999999906,
-0.395426346191406,0.0369185895996094,-0.315938851074218,0.507486290591586,0.335736999999426,
-0.4121857578125,0.269156150634766,0.15811307763672,0.517051136434052,0.338746999999785,
-0.321206094726562,0.0967736311035157,0.141353666015625,0.364032072573978,0.341878999999608,
-0.165582986816406,-0.0109654436035156,-0.119614314941405,0.204561850830905,0.344859999999244,
-0.129669961914062,0.250002537353516,-0.0860954916992185,0.294496182312981,0.347954999999274,
-0.359513321289062,0.269156150634766,0.0503740029296882,0.451920791488926,0.351007999999638,
-0.445704581054687,0.0225533796386719,0.0360087929687509,0.447725207775179,0.354106999999203,
-0.225438028320312,0.00579396801757814,-0.0118752402343745,0.225824923356486,0.357164000000921,
-0.194313406738281,0.230848924072266,-0.00469263525390495,0.301779632528747,0.360151999999289,
-0.31641769140625,0.257185142333984,-0.0477882651367167,0.410546064598103,0.363257000000885,
-0.340359708007812,0.118321446044922,0.0072783730468764,0.36041319363133,0.366283999999723,
-0.23980323828125,0.0417069929199219,-0.0621534750976558,0.251213297449222,0.369265999999698,
-0.208678616699219,0.108744639404297,-0.0382114584960931,0.238395212257018,0.372331000000486,
-0.273322061523437,0.221272117431641,-0.040605660156249,0.353998755513107,0.375287999999273,
-0.369090127929687,0.180570689208984,-0.0166636435546863,0.411231046193108,0.378399999999601,
-0.297264078125,0.0273417829589844,-0.0118752402343745,0.298754960744598,0.381353999999192,
-0.261351053222656,0.101562034423828,0.0120667763671882,0.280650720556342,0.384452000000238,
-0.218255423339844,0.190147495849609,-0.0358172568359372,0.291675120437762,0.387544999999591,
-0.349936514648437,0.216483714111328,-0.0477882651367167,0.414251712180539,0.390526999999565,
-0.31641769140625,0.0848026228027344,0.0264319863281255,0.328649190125784,0.393654999999853,
-0.227832229980469,0.0584664045410156,0.0288261879882832,0.236974248794595,0.39661999999953,
-0.285293069824219,0.170993882568359,0.00488417138672048,0.332648310826409,0.399670999999216,
-0.263745254882812,0.180570689208984,0.0072783730468764,0.31971910795074,0.402685000000929,
-0.292475674804687,0.0967736311035157,-0.0142694418945304,0.308400345332812,0.405684999999721,
-0.268533658203125,0.132686656005859,-0.00948103857421678,0.299676432777781,0.408795999999711,
-0.280504666503906,0.166205479248047,0.00967257470703231,0.326191183148784,0.411787999999433,
-0.330782901367187,0.139869260986328,-0.0262404501953117,0.360096236070594,0.4148380000006,
-0.225438028320312,0.113533042724609,-0.0166636435546863,0.252961920888848,0.417827999999645,
-0.254168448242187,0.115927244384766,-0.0573650717773422,0.285186741508974,0.420824000000721,
-0.285293069824219,0.166205479248047,-0.0549708701171863,0.3347210683289,0.423871000000872,
-0.2589568515625,0.178176487548828,-0.0142694418945304,0.314657160507085,0.426889000000301,
-0.23980323828125,0.0800142194824218,0.0407971962890645,0.256070848857506,0.429998999999953,
-0.290081473144531,0.0800142194824218,9.57680664068761e-05,0.300914515357111,0.43301000000065,
-0.273322061523437,0.125504051025391,-0.0382114584960931,0.303177063280856,0.435961999999563,
-0.280504666503906,0.137475059326172,9.57680664068761e-05,0.312381608035308,0.439048000000184,
-0.302052481445312,0.130292454345703,-0.0382114584960931,0.33116754183811,0.442042000000583,
-0.294869876464844,0.137475059326172,-0.078912886718749,0.334775864831103,0.445121999999174,
-0.2589568515625,0.147051865966797,-0.00469263525390495,0.297833717166317,0.448082000000795,
-0.266139456542969,0.197330100830078,-0.00469263525390495,0.331347853242211,0.451084000000264,
-0.282898868164062,0.135080857666016,-0.00708683691406087,0.313574283023561,0.454168000000209,
-0.261351053222656,0.135080857666016,0.0551624062500018,0.299322739182422,0.45718400000078,
-0.261351053222656,0.120715647705078,0.0168551796875018,0.288376035245209,0.460274999999456,
-0.290081473144531,0.125504051025391,-0.00229843359374904,0.316075640760989,0.463275000000067,
-0.290081473144531,0.144657664306641,0.0264319863281255,0.325225692105658,0.46623499999987,
-0.294869876464844,0.120715647705078,0.0168551796875018,0.319068344919308,0.469360999999481,
-0.290081473144531,0.154234470947266,0.0407971962890645,0.33105882304378,0.472374999999374,
-0.261351053222656,0.123109849365234,-0.00469263525390495,0.288933260212369,0.475483000000168,
-0.261351053222656,0.147051865966797,-0.0693360800781235,0.307792326586464,0.47852899999998,
-0.311629288085937,0.154234470947266,0.0288261879882832,0.348901181332576,0.481654999999591,
-0.309235086425781,0.103956236083984,0.0216435830078137,0.326958227275176,0.484699000000546,
-0.273322061523437,0.156628672607422,-0.0262404501953117,0.316110821745535,0.487715999999637,
-0.251774246582031,0.130292454345703,0.0384029946289068,0.286078983670322,0.490809000000809,
-0.251774246582031,0.132686656005859,-0.0597592734374981,0.290804385602667,0.493864000000031,
-0.318811893066406,0.137475059326172,-0.0717302817382794,0.35452171783344,0.496954000000187,
-0.294869876464844,0.151840269287109,-0.0190578452148422,0.332215160532759,0.499939999999697,
-0.280504666503906,0.137475059326172,0.00488417138672048,0.312419773697724,0.502927999999883,
-0.299658279785156,0.106350437744141,-0.112431709960937,0.337263086709633,0.506063000000722,
-0.330782901367187,0.137475059326172,-0.0262404501953117,0.35917305160616,0.509116999999605,
-0.294869876464844,0.123109849365234,0.0240377846679696,0.320440468962437,0.512182000000394,
-0.270927859863281,0.137475059326172,0.0360087929687509,0.305937788378452,0.515161999999691,
-0.270927859863281,0.144657664306641,0.071921817871095,0.315436987334449,0.518131000000722,
-0.249380044921875,0.190147495849609,0.0120667763671882,0.313834485158992,0.521225000000413,
-0.290081473144531,0.123109849365234,0.0527682045898441,0.319511783019136,0.524206000000049,
-0.299658279785156,0.106350437744141,0.00248996972656279,0.317980660105939,0.527356000000509,
-0.273322061523437,0.108744639404297,0.0216435830078137,0.294955573942939,0.530432999999903,
-0.290081473144531,0.144657664306641,-0.0382114584960931,0.326394265367443,0.533453000000009,
-0.290081473144531,0.144657664306641,-0.0238462485351558,0.32502575970768,0.536550000000716,
-0.297264078125,0.127898252685547,0.0503740029296882,0.327507916476354,0.539563000000271,
-0.297264078125,0.156628672607422,-0.0501824667968744,0.339730412533362,0.542638000000807,
-0.244591641601562,0.144657664306641,-0.0190578452148422,0.284805393994272,0.545614000000569,
-0.299658279785156,0.125504051025391,-0.0238462485351558,0.325752966274727,0.548624000000927,
-0.268533658203125,0.135080857666016,-0.00229843359374904,0.300603470526746,0.551724000000831,
-0.294869876464844,0.192541697509766,-0.0453940634765608,0.355079104320781,0.554707999999664,
-0.285293069824219,0.144657664306641,-0.0549708701171863,0.324560891195812,0.557763000000705,
-0.31641769140625,0.103956236083984,-0.0453940634765608,0.33613639412376,0.560770000000048,
-0.251774246582031,0.173388084228516,0.00488417138672048,0.305740991894314,0.56376900000032,
-0.273322061523437,0.151840269287109,-0.0382114584960931,0.314992908258269,0.566831000000093,
-0.282898868164062,0.120715647705078,-0.0142694418945304,0.307908515928588,0.569863000000623,
-0.302052481445312,0.161417075927734,0.00488417138672048,0.342512815933164,0.572940000000017,
-0.311629288085937,0.127898252685547,-0.0645476767578117,0.342982767508508,0.575925999999527,
-0.304446683105469,0.139869260986328,-0.0453940634765608,0.338100301717844,0.578975000000355,
-0.270927859863281,0.139869260986328,-0.0166636435546863,0.305357155533446,0.58198000000084,
-0.282898868164062,0.159022874267578,-0.0501824667968744,0.328387460361459,0.584980999999971,
-0.280504666503906,0.120715647705078,-0.0286346518554677,0.30671660994835,0.588024000000587,
-0.242197439941406,0.130292454345703,0.0192493813476577,0.275692332602606,0.591026000000056,
-0.306840884765625,0.135080857666016,-0.0477882651367167,0.338647139300356,0.59411800000089,
-0.263745254882812,0.139869260986328,-0.0118752402343745,0.29877414709557,0.59717400000045,
-0.325994498046875,0.149446067626953,-0.040605660156249,0.360909073760578,0.600151000000551,
-0.345148111328125,0.149446067626953,-0.00229843359374904,0.376120497553,0.603253999999652,
-0.306840884765625,0.103956236083984,-0.0453940634765608,0.327137354307659,0.606245999999373,
-0.27811046484375,0.166205479248047,-0.0190578452148422,0.324550294179365,0.609311000000162,
-0.297264078125,0.123109849365234,0.0120667763671882,0.321974493160766,0.612354999999297,
-0.290081473144531,0.187753294189453,-0.0190578452148422,0.346066123746497,0.615347000000838,
-0.318811893066406,0.178176487548828,-0.040605660156249,0.367473405177229,0.618497999999818,
-0.323600296386719,0.0105823713378906,-0.0214520468749981,0.324483171705148,0.621517999999924,
-0.282898868164062,0.0441011945800781,0.10065223779297,0.30349226999156,0.624648999999408,
-0.1823423984375,0.290703965576172,-0.0190578452148422,0.343686990347154,0.627692000000025,
-0.294869876464844,0.273944553955078,-0.181863558105468,0.441665276487545,0.630703999999241,
-0.37387853125,-0.0492726701660157,-0.100460701660156,0.39026312243536,0.633810999999696,
-0.249380044921875,0.190147495849609,0.165295682617188,0.354498433952811,0.63693400000011,
-0.151217776855469,0.211695310791016,0.0599508095703136,0.266975317615976,0.640006999999969,
-0.371484329589844,0.0656490095214843,-0.196228768066405,0.425224798193645,0.643020999999862,
-0.349936514648437,0.180570689208984,0.033614591308595,0.395210423489244,0.64603999999963,
-0.290081473144531,0.218877915771484,0.103046439453125,0.377721288462984,0.649161999999706,
-0.254168448242187,0.0345243879394531,0.0168551796875018,0.257055695378907,0.652184000000489,
-0.297264078125,0.123109849365234,-0.0621534750976558,0.327696538921228,0.655240000000049,
-0.306840884765625,0.180570689208984,0.0072783730468764,0.356104025643306,0.658226999999897,
-0.337965506347656,0.147051865966797,9.57680664068761e-05,0.368571490943978,0.661247000000003,
-0.230226431640625,0.120715647705078,0.0216435830078137,0.260854216205619,0.664292999999816,
-0.266139456542969,0.123109849365234,0.0216435830078137,0.29403178403896,0.667305999999371,
-0.321206094726562,0.151840269287109,-0.0166636435546863,0.355677522038136,0.67046499999924,
-0.304446683105469,0.151840269287109,-0.0142694418945304,0.340509716752819,0.67347399999926,
-0.302052481445312,0.111138841064453,0.0144609780273441,0.322174895710277,0.676574999999502,
-0.287687271484375,0.120715647705078,-0.0477882651367167,0.315626285438583,0.67955400000028,
-0.297264078125,0.0632548078613281,-0.0334230551757795,0.305751865862439,0.682544999999664,
-0.306840884765625,0.163811277587891,-0.0310288535156236,0.34921090043013,0.685631000000285,
-0.256562649902344,0.125504051025391,-0.0166636435546863,0.286100222239015,0.6886599999998,
-0.235014834960937,0.166205479248047,-0.0286346518554677,0.289268348200548,0.691752000000633,
-0.304446683105469,0.123109849365234,0.0072783730468764,0.328476471880197,0.694777999999133,
-0.328388699707031,0.159022874267578,0.0312203896484391,0.366199570405806,0.6977339999994,
-0.261351053222656,0.118321446044922,-0.0453940634765608,0.290456465952588,0.700796999999511,
-0.256562649902344,0.130292454345703,0.0072783730468764,0.287842824643153,0.703835000000254,
-0.251774246582031,0.175782285888672,0.0192493813476577,0.307669013643662,0.706881000000067,
-0.333177103027344,0.170993882568359,0.0072783730468764,0.374564900346662,0.709920999999667,
-0.263745254882812,0.115927244384766,0.00248996972656279,0.288109155378797,0.712911000000531,
-0.323600296386719,0.127898252685547,-0.0262404501953117,0.348946523249682,0.716000000000349,
-0.261351053222656,0.111138841064453,-0.0142694418945304,0.284358632690697,0.718969999999899,
-0.290081473144531,0.142263462646484,-0.0286346518554677,0.324354893831977,0.722034000000349,
-0.256562649902344,0.120715647705078,-0.0501824667968744,0.287949545753398,0.725028000000748,
-0.254168448242187,0.118321446044922,-0.00708683691406087,0.280449260889469,0.728016999999454,
-0.290081473144531,0.139869260986328,0.0264319863281255,0.323124312195497,0.731079999999565,
-0.282898868164062,0.137475059326172,0.0168551796875018,0.314984537124507,0.734096000000136,
-0.297264078125,0.123109849365234,-0.0765186850585931,0.330722052964922,0.737164000000121,
-0.294869876464844,0.115927244384766,-0.0501824667968744,0.320789105193516,0.740176999999676,
-0.285293069824219,0.113533042724609,-0.0166636435546863,0.30750538937806,0.743168000000878,
-0.285293069824219,0.120715647705078,-0.0429998618164049,0.312751325187941,0.746252000000823,
-0.27811046484375,0.166205479248047,-0.0142694418945304,0.324304346192987,0.749218000000837,
-0.292475674804687,0.130292454345703,0.00248996972656279,0.320194228494399,0.752323000000615,
-0.31641769140625,0.125504051025391,-0.0813070883789049,0.349974663196209,0.755342000000383,
-0.292475674804687,0.125504051025391,0.0312203896484391,0.319793683342935,0.758364999999685,
-0.287687271484375,0.168599680908203,-0.00229843359374904,0.333459294927368,0.761484000000564,
-0.27811046484375,0.178176487548828,0.033614591308595,0.331997337518975,0.764558000000761,
-0.261351053222656,0.125504051025391,9.57680664068761e-05,0.289923522701933,0.767665999999736,
-0.242197439941406,0.154234470947266,0.0527682045898441,0.291945808940957,0.770695999999589,
-0.294869876464844,0.159022874267578,0.0288261879882832,0.336255063457266,0.773756000000503,
-0.294869876464844,0.163811277587891,0.0288261879882832,0.338545902094982,0.776809999999386,
-0.287687271484375,0.151840269287109,0.0192493813476577,0.325868028860724,0.779851999999664,
-0.273322061523437,0.166205479248047,-0.0693360800781235,0.327317434072942,0.782905000000028,
-0.285293069824219,0.154234470947266,-0.0190578452148422,0.324874759226294,0.785877000000255,
-0.309235086425781,0.132686656005859,-0.0190578452148422,0.337039001931543,0.788969999999608,
-0.256562649902344,0.106350437744141,0.033614591308595,0.279758377322515,0.792047000000821,
-0.282898868164062,0.175782285888672,-0.0214520468749981,0.333753459841065,0.795016000000032,
-0.280504666503906,0.182964890869141,-0.0334230551757795,0.336565179183033,0.798070999999254,
-0.318811893066406,0.0441011945800781,-0.0262404501953117,0.322915623267794,0.801046000000497,
-0.309235086425781,0.159022874267578,0.0216435830078137,0.348400714555092,0.804152999999133,
-0.263745254882812,0.170993882568359,-0.0334230551757795,0.316097402656657,0.80712499999936,
-0.330782901367187,0.118321446044922,0.0072783730468764,0.351383362078038,0.810166999999637,
-0.304446683105469,0.173388084228516,-0.0597592734374981,0.355418600200009,0.813308999999208,
-0.294869876464844,0.135080857666016,0.0264319863281255,0.325413171299855,0.81633900000088,
-0.254168448242187,0.125504051025391,-0.0860954916992185,0.29625208960707,0.819449000000532,
-0.290081473144531,0.120715647705078,-0.0190578452148422,0.314774093798697,0.822457000000213,
-0.302052481445312,0.101562034423828,0.00248996972656279,0.318679695513876,0.82546800000091,
-0.280504666503906,0.154234470947266,-0.0166636435546863,0.320544563166135,0.828524000000471,
-0.27811046484375,0.108744639404297,-0.0501824667968744,0.302802092510268,0.831564000000071,
-0.266139456542969,0.154234470947266,-0.0286346518554677,0.308931101775547,0.834682000000612,
-0.266139456542969,0.113533042724609,9.57680664068761e-05,0.289344036210905,0.837688999999955,
-0.282898868164062,0.161417075927734,0.0168551796875018,0.326146192821357,0.84065499999997,
-0.242197439941406,0.139869260986328,0.0479798012695323,0.283769398302383,0.843747999999323,
-0.311629288085937,0.147051865966797,0.0455855996093764,0.347584682299165,0.84674300000006,
-0.256562649902344,0.144657664306641,-0.0765186850585931,0.304311258961382,0.849797999999282,
-0.304446683105469,0.123109849365234,0.0144609780273441,0.328714066857747,0.852829999999813,
-0.275716263183594,0.127898252685547,-0.0453940634765608,0.307307731472631,0.855815000000803,
-0.256562649902344,0.154234470947266,0.0072783730468764,0.299442214905489,0.858894999999393,
-0.268533658203125,0.144657664306641,-0.0166636435546863,0.30547314521431,0.861865999999281,
-0.251774246582031,0.130292454345703,-0.0190578452148422,0.284129541522189,0.864953000000241,
-0.299658279785156,0.142263462646484,0.0240377846679696,0.332583512128473,0.867962000000261,
-0.294869876464844,0.156628672607422,-0.0166636435546863,0.334302949651469,0.87098800000058,
-0.306840884765625,0.159022874267578,-0.0310288535156236,0.346990479486927,0.873970000000554,
-0.285293069824219,0.147051865966797,-0.00948103857421678,0.32110166157541,0.87699000000066,
-0.299658279785156,0.149446067626953,-0.040605660156249,0.337309993047469,0.880139000000781,
-0.268533658203125,0.132686656005859,-0.0214520468749981,0.30029363061027,0.883132999999361,
-0.249380044921875,0.123109849365234,-0.00948103857421678,0.278273843378088,0.88620599999922,
-0.246985843261719,0.120715647705078,0.0312203896484391,0.276674876167604,0.889204999999492,
-0.287687271484375,0.154234470947266,-0.00229843359374904,0.326431495109605,0.892142000000604,
-0.299658279785156,0.115927244384766,0.00488417138672048,0.32133793079028,0.895282999999836,
-0.251774246582031,0.173388084228516,-0.0549708701171863,0.310605047537584,0.898300000000745,
-0.294869876464844,0.118321446044922,0.0240377846679696,0.318631485783024,0.901442000000316,
-0.306840884765625,0.111138841064453,-0.0166636435546863,0.326773388716736,0.904458999999406,
-0.292475674804687,0.135080857666016,-0.0717302817382794,0.330051650167813,0.907537999999477,
-0.275716263183594,0.154234470947266,9.57680664068761e-05,0.315923628403812,0.910657000000356,
-0.287687271484375,0.103956236083984,-0.0238462485351558,0.306821623690499,0.913680999999997,
-0.285293069824219,0.135080857666016,0.0455855996093764,0.318931059461538,0.916809000000285,
-0.304446683105469,0.106350437744141,0.0791044228515645,0.332047749844764,0.919936000000234,
-0.268533658203125,0.163811277587891,-0.0549708701171863,0.319321557077455,0.922908000000461,
-0.31641769140625,0.137475059326172,0.0192493813476577,0.345528705108364,0.92602000000079,
-0.244591641601562,0.123109849365234,-0.040605660156249,0.276821107917736,0.929024999999456,
-0.270927859863281,0.163811277587891,9.57680664068761e-05,0.316600772403665,0.932146999999532,
-0.311629288085937,0.0680432111816406,-0.0621534750976558,0.32497037749243,0.935155999999552,
-0.266139456542969,0.0895910261230469,0.0240377846679696,0.281841404663174,0.938140000000203,
-0.275716263183594,0.142263462646484,-0.0741244833984371,0.318987130817495,0.941187000000355,
-0.27811046484375,0.132686656005859,0.0623450112304695,0.314385241006876,0.944197999999233,
-0.306840884765625,0.101562034423828,-0.0501824667968744,0.327084783158553,0.947250999999596,
-0.282898868164062,0.135080857666016,0.00248996972656279,0.313504079184838,0.950263000000632,
-0.268533658203125,0.170993882568359,0.0384029946289068,0.320661852206062,0.95332899999994,
-0.292475674804687,0.115927244384766,-0.0501824667968744,0.318589746095071,0.956405000000814,
-0.309235086425781,0.156628672607422,9.57680664068761e-05,0.346639422067147,0.959474999999657,
-0.270927859863281,0.151840269287109,0.0168551796875018,0.311032907759899,0.962575999999899,
-0.323600296386719,0.0943794294433594,0.0216435830078137,0.337776661729378,0.965589999999793,
-0.292475674804687,0.194935899169922,-0.0310288535156236,0.352852398161239,0.968662999999651,
-0.290081473144531,0.118321446044922,-0.0358172568359372,0.315325389943649,0.971677999999883,
-0.27811046484375,0.139869260986328,0.00248996972656279,0.311311806351297,0.974707999999737,
-0.275716263183594,0.147051865966797,0.00248996972656279,0.312489854263272,0.977801000000909,
-0.266139456542969,0.135080857666016,-0.0166636435546863,0.298922607798893,0.980771000000459,
-0.318811893066406,0.163811277587891,-0.0358172568359372,0.360219424396872,0.983822000000146,
-0.256562649902344,0.142263462646484,-0.0142694418945304,0.293712279452293,0.986860999999408,
-0.290081473144531,0.130292454345703,-0.0166636435546863,0.318435333682753,0.989816999999675,
-0.290081473144531,0.135080857666016,-0.0549708701171863,0.324678141751071,0.992927999999665,
-0.302052481445312,0.139869260986328,-0.0549708701171863,0.337373544128126,0.995930999999473,
-0.294869876464844,0.125504051025391,-0.0214520468749981,0.321184839594435,0.999031999999715,
-0.273322061523437,0.120715647705078,-0.0142694418945304,0.299133471694927,1.00199000000066,
-0.275716263183594,0.118321446044922,-0.040605660156249,0.302767637000408,1.00495299999966,
-0.266139456542969,0.147051865966797,-0.0190578452148422,0.304659913801498,1.00802599999952,
-0.299658279785156,0.163811277587891,-0.0190578452148422,0.342041548313957,1.01102499999979,
-0.287687271484375,0.142263462646484,-0.0382114584960931,0.323207324388991,1.01408199999969,
-0.290081473144531,0.151840269287109,-0.0477882651367167,0.330887362592862,1.01708399999916,
-0.266139456542969,0.135080857666016,0.0264319863281255,0.299625930683616,1.02008600000045,
-0.297264078125,0.163811277587891,0.0407971962890645,0.341854469085211,1.02317399999993,
-0.304446683105469,0.159022874267578,-0.0190578452148422,0.344004736680291,1.02617699999973,
-0.256562649902344,0.120715647705078,0.0120667763671882,0.283799697000657,1.02929100000074,
-0.27811046484375,0.139869260986328,0.0072783730468764,0.311386922555649,1.0322699999997,
-0.266139456542969,0.108744639404297,-0.00948103857421678,0.287655170335252,1.03527500000018,
-0.280504666503906,0.132686656005859,-0.0477882651367167,0.31396231445392,1.03838499999983,
-0.254168448242187,0.142263462646484,-0.0477882651367167,0.295168106628725,1.04142400000092,
