X,Y,Z,Magnitude,Seconds,
-0.32345664428711,0.285388837890625,-0.0333272871093744,0.432645001811081,0.0,
-0.34261025756836,0.306936652832031,0.0217393510742188,0.460504611082144,0.00379800000064279,
-0.359369669189453,0.273417829589844,0.0480755693359374,0.454109159826063,0.00757599999997183,
-0.385705887451172,0.299754047851563,-0.0165678754882812,0.488769900173986,0.0114180000000488,
-0.38091748413086,0.29496564453125,0.0121625444335951,0.481924048639844,0.0152520000001459,
-0.388100089111328,0.323696064453125,0.0456813676757815,0.507432368560966,0.0190680000005159,
-0.333033450927735,0.340455476074219,-0.00459686718749985,0.476279688642817,0.0228250000000116,
-0.392888492431641,0.304542451171875,0.0265277543945324,0.497806381843582,0.0265870000002906,
-0.402465299072266,0.29496564453125,0.0121625444335951,0.499130219379836,0.0303720000001704,
-0.378523282470703,0.249475812988281,-0.00220266552734216,0.4533463448336,0.0341900000003079,
-0.402465299072266,0.271023627929688,-0.00699106884765577,0.4852638446218,0.0379280000006474,
-0.390494290771485,0.292571442871094,0.0289219560546883,0.488794762503474,0.041693000000123,
-0.354581265869141,0.306936652832031,0.0432871660156255,0.470968960440874,0.0454380000001038,
-0.390494290771485,0.311725056152344,-0.00938527050781168,0.499746320707628,0.0491470000006302,
-0.352187064208985,0.292571442871094,-0.0548751020507812,0.461134529399936,0.0528650000005655,
-0.392888492431641,0.287783039550781,-0.0261446821289049,0.487713019860979,0.0566530000005514,
-0.412042105712891,0.25665841796875,-0.00220266552734216,0.485445251423845,0.0603490000003148,
-0.392888492431641,0.266235224609375,-0.0141736738281235,0.474808861898973,0.0640540000003966,
-0.373734879150391,0.309330854492188,-0.0117794721679676,0.485285579220092,0.0680040000006557,
-0.359369669189453,0.311725056152344,0.0193451494140628,0.476123203144282,0.0718810000007579,
-0.354581265869141,0.261446821289062,0.000191536132813752,0.440547785323689,0.0756280000005063,
-0.371340677490235,0.278206232910156,0.00497993945312558,0.464023066868365,0.0794960000002902,
-0.392888492431641,0.316513459472656,-0.00220266552734216,0.504526500045321,0.0832850000006147,
-0.36176387084961,0.338061274414063,-0.021356278808593,0.495595211997759,0.0871150000002672,
-0.40007109741211,0.273417829589844,0.0504697709960951,0.4871974859403,0.0909260000007635,
-0.378523282470703,0.261446821289062,-0.0285388837890626,0.460921667555862,0.0946640000001935,
-0.383311685791016,0.285388837890625,0.0313161577148442,0.47891057515003,0.0984500000004118,
-0.366552274169922,0.266235224609375,-0.0405098920898439,0.45484372687669,0.102206000000479,
-0.40007109741211,0.299754047851563,-0.0117794721679676,0.500048125836386,0.106063000000177,
-0.352187064208985,0.292571442871094,0.0217393510742188,0.458373621366834,0.109830000000329,
-0.385705887451172,0.302148249511719,0.0193451494140628,0.490343584747822,0.113595000000714,
-0.40007109741211,0.326090266113281,-0.0261446821289049,0.516793274958161,0.117342000000463,
-0.371340677490235,0.278206232910156,0.0265277543945324,0.464754051668389,0.121082999999999,
-0.40007109741211,0.318907661132813,0.0361045610351578,0.512896206499202,0.124805000000379,
-0.412042105712891,0.326090266113281,-0.0333272871093744,0.526520908037102,0.128583000000617,
-0.424013114013672,0.278206232910156,0.0361045610351578,0.508418497119423,0.132344000000558,
-0.347398660888672,0.326090266113281,0.0337103593750001,0.477657910612046,0.136156000000483,
-0.373734879150391,0.278206232910156,0.0121625444335951,0.466073379856345,0.140164000000368,
-0.390494290771485,0.292571442871094,-0.0237504804687489,0.488516044394956,0.143961000000672,
-0.407253702392578,0.266235224609375,0.00497993945312558,0.486581517047477,0.147769000000153,
-0.390494290771485,0.285388837890625,-0.00699106884765577,0.48371629594352,0.151614000000336,
-0.404859500732422,0.306936652832031,0.0408929643554696,0.509699478829256,0.15548200000012,
-0.390494290771485,0.309330854492188,-0.0357214887695303,0.499447087713907,0.159310000000005,
-0.378523282470703,0.302148249511719,0.0169509477539069,0.484624364518693,0.163128000000142,
-0.402465299072266,0.285388837890625,-0.0548751020507812,0.496423591879932,0.166877999999997,
-0.368946475830078,0.316513459472656,-0.0524809003906235,0.488934061976248,0.170675000000301,
-0.371340677490235,0.290177241210938,0.0121625444335951,0.471428316462637,0.174479000000247,
-0.330639249267578,0.311725056152344,-0.0620577070312489,0.458634912311946,0.178333000000748,
-0.383311685791016,0.323696064453125,0.0169509477539069,0.501990363688535,0.182068000000072,
-0.414436307373047,0.280600434570313,-0.0261446821289049,0.501176217665679,0.185809999999947,
-0.36176387084961,0.285388837890625,0.0313161577148442,0.461844766971193,0.189536000000771,
-0.383311685791016,0.268629426269531,-0.0357214887695303,0.469431189719814,0.193240999999944,
-0.371340677490235,0.3141192578125,0.00258573779296967,0.486386156184072,0.196965000000091,
-0.402465299072266,0.297359846191406,0.0217393510742188,0.500873032284064,0.200770000000375,
-0.404859500732422,0.280600434570313,-0.00699106884765577,0.4926425623695,0.20449600000029,
-0.333033450927735,0.290177241210938,-0.0572693037109371,0.445414283449871,0.208381000000372,
-0.385705887451172,0.268629426269531,0.0217393510742188,0.470535226797656,0.212298000000374,
-0.378523282470703,0.25665841796875,0.0073741411132815,0.45739238826611,0.216048000000228,
-0.402465299072266,0.29496564453125,0.0361045610351578,0.500286505653116,0.219850000000406,
-0.347398660888672,0.302148249511719,-0.00938527050781168,0.460507847460544,0.22357700000066,
-0.371340677490235,0.290177241210938,-0.0285388837890626,0.47213472437814,0.227478000000701,
-0.359369669189453,0.304542451171875,-0.00938527050781168,0.471148328025916,0.23126400000001,
-0.390494290771485,0.309330854492188,-0.0309330854492185,0.499127463120795,0.235014000000774,
-0.421618912353516,0.299754047851563,0.0696233842773442,0.521979321521254,0.23879400000078,
-0.330639249267578,0.27581203125,0.0217393510742188,0.431123171638462,0.242565999999897,
-0.416830509033203,0.285388837890625,-0.00459686718749985,0.505188670935306,0.246312000000216,
-0.368946475830078,0.302148249511719,-0.00699106884765577,0.476931799898123,0.250113000000056,
-0.395282694091797,0.254264216308594,-0.0381156904296862,0.471541626794946,0.253880000000208,
-0.383311685791016,0.318907661132813,0.0361045610351578,0.499933479695742,0.257669999999962,
-0.383311685791016,0.297359846191406,0.0169509477539069,0.485425649529032,0.261418000000049,
-0.385705887451172,0.292571442871094,0.0265277543945324,0.484841007497702,0.265159000000494,
-0.376129080810547,0.304542451171875,0.00497993945312558,0.483987592603486,0.268891000000622,
-0.325850845947266,0.345243879394531,0.0624407792968764,0.478822473348041,0.272695999999996,
-0.349792862548828,0.302148249511719,-0.059663505371093,0.466056161043136,0.276476000000002,
-0.376129080810547,0.318907661132813,-0.00220266552734216,0.49313287610543,0.280456000000413,
-0.414436307373047,0.273417829589844,0.0600465776367187,0.500120339410936,0.284298999999919,
-0.40007109741211,0.263841022949219,-0.0189620771484371,0.479612894681954,0.288042000000132,
-0.345004459228516,0.271023627929688,0.0648349809570323,0.443492343270354,0.291879000000336,
-0.347398660888672,0.292571442871094,-0.313448881347655,0.55184606548295,0.295696000000135,
-0.325850845947266,0.965342109375,0.524521699707032,1.14594379242643,0.299694000000272,
-0.574847818603516,-0.8350975390625,0.242005903808595,1.04230742671233,0.303366000000096,
-0.182198746337891,-0.741723674316406,-0.902422489746094,1.18225071038594,0.306298000000425,
0.0644040246582029,2.12413571289063,-0.0764229169921862,2.12648556717678,0.309223000000202,
-0.996227310791016,1.36038538330078,0.938718586914064,1.92984710049326,0.31224900000052,
-0.498233365478516,-1.45758997070313,0.146237837402344,1.54731719897974,0.31516400000055,
-0.146285721435547,-0.574129558105469,-0.988613749511718,1.15255429698991,0.318166000000019,
-0.213323367919922,1.25982891357422,0.309043550292969,1.31460399617374,0.321123000000625,
-0.220505972900391,1.04674496582031,0.656202791015625,1.25495020239514,0.324039000000084,
-0.845392606201172,0.0818816967773438,-0.440341569335937,0.956709970979702,0.327049000000443,
-0.452743533935547,-0.4903325,-0.0764229169921862,0.671746328846159,0.329977000000326,
-0.0672770666503908,0.187226569824219,0.25158271044922,0.320739539723746,0.332997000000432,
-0.316274039306641,0.989284125976562,-0.095576530273437,1.04299914812413,0.335907000000589,
-0.49583916381836,0.596635053710938,0.0432871660156255,0.776983682218879,0.338840000000346,
-0.424013114013672,-0.100077629394531,0.127084224121095,0.453820507228641,0.341863000000558,
-0.409647904052735,-0.191057292480469,-0.291901066406249,0.538071116929603,0.344805000000633,
-0.366552274169922,0.498472785644531,0.100748005859376,0.626885833634803,0.347841000000699,
-0.340216055908203,0.828872614746094,0.196516072265625,0.917276045055396,0.350772000000688,
-0.349792862548828,0.199197578125,-0.210498209960937,0.454251272114595,0.353689000000486,
-0.433589920654297,-0.157538469238281,-0.0452982954101557,0.463541286348914,0.356698999999935,
-0.467108743896485,0.189620771484375,0.122295820800781,0.518751273143708,0.359629999999925,
-0.349792862548828,0.606211860351563,-0.0429040937499998,0.701205125182007,0.362641000000622,
-0.270784207763672,0.512837995605469,0.0337103593750001,0.580915902037486,0.365559000000758,
-0.397676895751953,0.249475812988281,-0.0189620771484371,0.469834710351265,0.368537000000288,
-0.526963785400391,-0.0162805712890625,-0.0548751020507812,0.530063359373284,0.371482000000469,
-0.359369669189453,0.220745393066406,-0.00938527050781168,0.421856813380896,0.374385000000075,
-0.273178409423828,0.558327827148438,0.0600465776367187,0.624469372691336,0.377411000000393,
-0.395282694091797,0.460165559082031,-0.0141736738281235,0.606796212120291,0.380321000000549,
-0.455137735595703,0.0914585034179687,-0.021356278808593,0.464726916430703,0.383302000000185,
-0.40007109741211,0.132159931640625,0.0193451494140628,0.42177881089694,0.386249000000134,
-0.30430303100586,0.369185895996094,-0.0548751020507812,0.481570179004966,0.389253000000281,
-0.366552274169922,0.517626398925781,-0.0117794721679676,0.634378762671458,0.392338000000564,
-0.426407315673828,0.251870014648437,0.0504697709960951,0.497804078853882,0.39535000000069,
-0.376129080810547,0.139342536621094,0.00258573779296967,0.401118578456947,0.398413000000801,
-0.435984122314453,0.244687409667969,0.0193451494140628,0.500328210444081,0.401354000000538,
-0.337821854248047,0.412281525878906,0.0289219560546883,0.533794100127247,0.40428300000076,
-0.385705887451172,0.321301862792969,-0.0572693037109371,0.505256065570977,0.407302000000527,
-0.395282694091797,0.194409174804688,-0.0237504804687489,0.441143310976382,0.410249000000476,
-0.359369669189453,0.213562788085938,-0.00220266552734216,0.418043628493249,0.413257000000158,
-0.371340677490235,0.37158009765625,0.00976834277343741,0.52541515799763,0.416185000000041,
-0.402465299072266,0.364397492675781,-0.00938527050781168,0.543002700663845,0.419091000000662,
-0.416830509033203,0.25665841796875,0.00497993945312558,0.489536532418223,0.422105000000556,
-0.356975467529297,0.215956989746094,0.00258573779296967,0.41722367128183,0.425051000000167,
-0.402465299072266,0.287783039550781,0.0624407792968764,0.498694541507741,0.428083000000697,
-0.359369669189453,0.347638081054688,0.0504697709960951,0.502539543038278,0.431027999999969,
-0.426407315673828,0.266235224609375,0.00976834277343741,0.502792018834332,0.433946000000105,
-0.347398660888672,0.2375048046875,-0.021356278808593,0.421367360484222,0.436971000000085,
-0.335427652587891,0.3141192578125,-0.0788171186523439,0.466256106063992,0.439900000000307,
-0.36176387084961,0.33327287109375,0.0384987626953137,0.493382265174007,0.442923000000519,
-0.378523282470703,0.282994636230469,-0.0165678754882812,0.472906263445312,0.445841000000655,
-0.395282694091797,0.247081611328125,-0.0141736738281235,0.466367477355312,0.448761000000559,
-0.349792862548828,0.25665841796875,-0.00699106884765577,0.433909512741951,0.451761000000261,
-0.354581265869141,0.342849677734375,0.0361045610351578,0.494547586138552,0.45470000000023,
-0.388100089111328,0.304542451171875,-0.0620577070312489,0.497211165136073,0.457720000000336,
-0.38091748413086,0.29496564453125,0.0193451494140628,0.48215878709837,0.460668000000624,
-0.390494290771485,0.2375048046875,0.0456813676757815,0.459326801664678,0.463676000000305,
-0.416830509033203,0.271023627929688,0.000191536132813752,0.497193641193388,0.46663400000034,
-0.36176387084961,0.340455476074219,-0.00459686718749985,0.496793881432688,0.469536000000517,
-0.368946475830078,0.302148249511719,0.0073741411132815,0.476937568941249,0.472561999999925,
-0.38091748413086,0.287783039550781,-0.00220266552734216,0.477411834064778,0.475476999999955,
-0.421618912353516,0.285388837890625,-0.0548751020507812,0.5120747727352,0.478455000000395,
-0.34261025756836,0.316513459472656,0.0504697709960951,0.469158562111793,0.481400000000576,
-0.404859500732422,0.318907661132813,0.0408929643554696,0.516996659753508,0.484339999999975,
-0.366552274169922,0.299754047851563,0.0265277543945324,0.474253920021496,0.487361000000419,
-0.412042105712891,0.282994636230469,-0.0141736738281235,0.500065549748545,0.490268999999898,
-0.359369669189453,0.287783039550781,-0.0261446821289049,0.461139004411951,0.493277000000489,
-0.407253702392578,0.285388837890625,-0.0429040937499998,0.499142392675209,0.496183000000201,
-0.368946475830078,0.306936652832031,0.0648349809570323,0.484288329030201,0.499102000000676,
-0.395282694091797,0.280600434570313,-0.00699106884765577,0.484802936432062,0.502107000000251,
-0.40007109741211,0.3141192578125,0.0384987626953137,0.510107778652978,0.505036999999902,
-0.395282694091797,0.292571442871094,-0.0429040937499998,0.493646856257235,0.508044000000154,
-0.376129080810547,0.3141192578125,-0.00459686718749985,0.490066449318868,0.510968000000503,
-0.376129080810547,0.309330854492188,-0.0117794721679676,0.487131829114881,0.5138850000003,
-0.412042105712891,0.285388837890625,0.0121625444335951,0.501371532059783,0.516921000000366,
-0.421618912353516,0.306936652832031,-0.00459686718749985,0.521530197873366,0.51983300000029,
-0.385705887451172,0.299754047851563,-0.0476924970703116,0.490811669680637,0.522848999999951,
-0.383311685791016,0.273417829589844,0.0289219560546883,0.471721991795592,0.525849000000562,
-0.407253702392578,0.297359846191406,0.0504697709960951,0.506779689829652,0.528872000000774,
-0.40007109741211,0.292571442871094,0.0313161577148442,0.496624238134049,0.531981000000087,
-0.407253702392578,0.280600434570313,0.052863972656251,0.49737991676234,0.534979000000021,
-0.435984122314453,0.273417829589844,-0.0429040937499998,0.516410907813181,0.537990000000718,
-0.378523282470703,0.302148249511719,0.0289219560546883,0.485190601307796,0.540937000000667,
-0.402465299072266,0.326090266113281,-0.0668461103515625,0.522284961568196,0.543859000000339,
-0.388100089111328,0.287783039550781,-0.00459686718749985,0.483178940154936,0.54689800000051,
-0.388100089111328,0.306936652832031,-0.059663505371093,0.498388926334763,0.549825000000055,
-0.395282694091797,0.273417829589844,0.0552581743164069,0.4837966345634,0.552870000000439,
-0.40007109741211,0.304542451171875,0.0337103593750001,0.503923978274,0.555820000000494,
-0.421618912353516,0.290177241210938,0.00258573779296967,0.511832027730667,0.558819000000767,
-0.364158072509766,0.261446821289062,0.0241335527343765,0.448940943225015,0.561765000000378,
-0.395282694091797,0.306936652832031,-0.0117794721679676,0.500596916755144,0.564691000000494,
-0.385705887451172,0.3141192578125,0.0073741411132815,0.497488007594485,0.567775000000438,
-0.424013114013672,0.285388837890625,-0.0452982954101557,0.513113871587193,0.570717000000514,
-0.404859500732422,0.3141192578125,0.0121625444335951,0.512571995868952,0.573725000000195,
-0.333033450927735,0.27581203125,0.0456813676757815,0.434822197423058,0.576692000000548,
-0.364158072509766,0.278206232910156,0.0337103593750001,0.459506472351892,0.57962900000075,
-0.390494290771485,0.292571442871094,0.0337103593750001,0.489101450251367,0.582678000000669,
-0.397676895751953,0.278206232910156,0.0313161577148442,0.486339719927327,0.585614000000533,
-0.388100089111328,0.290177241210938,-0.00459686718749985,0.48460875113121,0.588631000000532,
-0.412042105712891,0.271023627929688,-0.0476924970703116,0.495486708250872,0.591562000000522,
-0.402465299072266,0.259052619628906,-0.0429040937499998,0.480548996413931,0.594461000000592,
-0.452743533935547,0.302148249511719,-0.0333272871093744,0.54532648960922,0.597507000000405,
-0.364158072509766,0.290177241210938,0.000191536132813752,0.465632870163725,0.600444000000607,
-0.38091748413086,0.326090266113281,0.0241335527343765,0.502011374112178,0.60347400000046,
-0.397676895751953,0.266235224609375,-0.00699106884765577,0.478619873470949,0.60638900000049,
-0.38091748413086,0.304542451171875,0.014556746093751,0.487909964172895,0.609329000000798,
-0.385705887451172,0.302148249511719,0.00258573779296967,0.489968654443757,0.612362000000758,
-0.368946475830078,0.29496564453125,-0.0333272871093744,0.473536631684647,0.615286000000197,
-0.383311685791016,0.278206232910156,0.0337103593750001,0.474829384961801,0.618314000000282,
-0.385705887451172,0.263841022949219,0.0504697709960951,0.470030121151597,0.621241000000737,
-0.371340677490235,0.27581203125,0.000191536132813752,0.462564819271037,0.624186000000009,
-0.378523282470703,0.397916315917969,-0.0261446821289049,0.549818892227019,0.627191999999923,
-0.416830509033203,0.33327287109375,0.124690022460939,0.548056640840397,0.630130000000463,
-0.345004459228516,0.045968671875,0.0480755693359374,0.351358016912218,0.633138000000145,
-0.313879837646485,0.163284553222656,-0.0524809003906235,0.357682320932859,0.636059000000387,
-0.345004459228516,0.807324799804688,-0.0764229169921862,0.881272870062862,0.638971000000311,
-0.49583916381836,0.462559760742188,0.158208845703125,0.69631030977049,0.641990000000078,
-0.383311685791016,-0.332315190429688,0.0911711992187509,0.515435177128274,0.644929000000047,
-0.289937821044922,0.0675164868164063,-0.236834428222656,0.380411569823868,0.647940000000744,
-0.354581265869141,0.651701691894531,-0.0931823286132811,0.747747227135849,0.650880000000143,
-0.416830509033203,0.7738059765625,0.2252464921875,0.907336401158632,0.653874999999971,
-0.522175382080078,0.117794721679687,0.0384987626953137,0.536679495448765,0.656835000000683,
-0.36176387084961,-0.195845695800781,-0.105153336914062,0.424600823220996,0.659755000000587,
-0.328245047607422,0.290177241210938,0.0720175859375001,0.443997945130216,0.662807000000612,
-0.40007109741211,0.701979926757813,0.0744117875976578,0.81139991045656,0.665846000000784,
-0.383311685791016,0.393127912597656,0.0241335527343765,0.549599702051342,0.668928000000051,
-0.359369669189453,-0.0234631762695313,-0.0548751020507812,0.364291581839432,0.671972000000096,
-0.356975467529297,0.146525141601563,-0.100364933593749,0.39871571505823,0.674928000000364,
-0.385705887451172,0.464953962402344,-0.0500866987304676,0.606184704655151,0.677936000000045,
-0.354581265869141,0.541568415527344,0.0792001909179696,0.652147907336674,0.680873000000247,
-0.345004459228516,0.192014973144531,-0.0141736738281235,0.395093305219212,0.683902000000671,
-0.376129080810547,0.0627280834960938,-0.0333272871093744,0.382777488832025,0.686841000000641,
-0.385705887451172,0.29496564453125,0.0193451494140628,0.485950612587416,0.689782000000378,
-0.373734879150391,0.515232197265625,0.0408929643554696,0.637819889566403,0.692821000000549,
-0.34261025756836,0.328484467773438,-0.0189620771484371,0.475019362267729,0.695768000000498,
-0.36176387084961,0.122583125,-0.0452982954101557,0.384644844439548,0.69880700000067,
-0.397676895751953,0.215956989746094,-0.0237504804687489,0.45315385925489,0.701737000000321,
-0.390494290771485,0.373974299316406,-0.00938527050781168,0.540768574324384,0.704662000000098,
-0.321062442626953,0.385945307617188,-0.0141736738281235,0.502230789146879,0.707710000000588,
-0.318668240966797,0.282994636230469,0.0337103593750001,0.427518187057907,0.710661000000073,
-0.426407315673828,0.177649763183594,-0.0189620771484371,0.462322612024472,0.713666999999987,
-0.424013114013672,0.338061274414063,0.00976834277343741,0.5423725349191,0.716619000000719,
-0.364158072509766,0.335667072753906,-0.0405098920898439,0.496915019759249,0.719525000000431,
-0.333033450927735,0.278206232910156,-0.00459686718749985,0.433971333909091,0.722533000000112,
-0.402465299072266,0.242293208007813,0.0337103593750001,0.470978453788745,0.725468000000546,
-0.416830509033203,0.261446821289062,-0.0381156904296862,0.493512836185611,0.728457000000162,
-0.424013114013672,0.362003291015625,0.014556746093751,0.55771444523031,0.731415000000197,
-0.373734879150391,0.316513459472656,0.0624407792968764,0.493717916264042,0.734350000000632,
-0.364158072509766,0.244687409667969,-0.0189620771484371,0.439138464033648,0.737354000000778,
-0.364158072509766,0.244687409667969,0.00976834277343741,0.438837613183496,0.740284000000429,
-0.359369669189453,0.304542451171875,0.0073741411132815,0.471112557311169,0.743302000000767,
-0.383311685791016,0.328484467773438,-0.021356278808593,0.505258334594195,0.746210000000247,
-0.40007109741211,0.254264216308594,0.1103248125,0.486701899454598,0.749200000000201,
-0.402465299072266,0.259052619628906,0.0432871660156255,0.480583349103557,0.752142000000276,
-0.392888492431641,0.304542451171875,0.0552581743164069,0.500160911987096,0.755069000000731,
-0.390494290771485,0.311725056152344,0.014556746093751,0.499870183762889,0.758101000000352,
-0.36176387084961,0.309330854492188,0.00258573779296967,0.475988825323551,0.761050000000068,
-0.383311685791016,0.278206232910156,-0.0189620771484371,0.474010671677119,0.76402600000074,
-0.354581265869141,0.297359846191406,0.0863827958984373,0.470757623049877,0.766978000000563,
-0.40007109741211,0.27581203125,0.00258573779296967,0.485938108823248,0.769902000000002,
-0.371340677490235,0.278206232910156,-0.0237504804687489,0.464603801223648,0.772907999999916,
-0.390494290771485,0.285388837890625,-0.0381156904296862,0.485165317984105,0.775829000000158,
-0.395282694091797,0.302148249511719,-0.0309330854492185,0.498496568400299,0.778853000000709,
-0.383311685791016,0.280600434570313,-0.00938527050781168,0.47513422908427,0.781780000000253,
-0.373734879150391,0.292571442871094,0.0504697709960951,0.47730808380084,0.784707000000708,
-0.38091748413086,0.309330854492188,0.0217393510742188,0.491178487560865,0.787741000000096,
-0.38091748413086,0.273417829589844,0.0384987626953137,0.470465295195378,0.790674000000763,
-0.397676895751953,0.29496564453125,-0.0405098920898439,0.496782342908619,0.793685000000551,
-0.373734879150391,0.297359846191406,0.0241335527343765,0.47820818310451,0.796619000000646,
-0.38091748413086,0.302148249511719,-0.0261446821289049,0.48690372642156,0.799535000000105,
-0.392888492431641,0.278206232910156,0.00976834277343741,0.481513754773222,0.80261900000005,
-0.428801517333985,0.263841022949219,0.014556746093751,0.503681174470176,0.805640999999923,
-0.433589920654297,0.299754047851563,-0.0261446821289049,0.527765338858112,0.808761000000231,
-0.385705887451172,0.292571442871094,0.0289219560546883,0.484977896754274,0.811791000000085,
-0.414436307373047,0.2375048046875,0.014556746093751,0.477888987083289,0.814723000000413,
-0.373734879150391,0.323696064453125,-0.0237504804687489,0.494995946810169,0.817741000000751,
-0.404859500732422,0.359609089355469,-0.021356278808593,0.541928042386557,0.820661000000655,
-0.383311685791016,0.299754047851563,0.0432871660156255,0.488522380663375,0.823691999999937,
-0.349792862548828,0.156101948242188,0.0337103593750001,0.384524710863036,0.826641000000564,
-0.359369669189453,0.302148249511719,-0.0859997236328116,0.47732177436322,0.829545999999937,
-0.414436307373047,0.419464130859375,-0.0429040937499998,0.591226159102527,0.832543000000442,
-0.402465299072266,0.306936652832031,0.00976834277343741,0.506244848200551,0.835481000000073,
-0.368946475830078,0.148919343261719,0.0193451494140628,0.398337429362078,0.838502000000517,
-0.390494290771485,0.2375048046875,-0.0740287153320303,0.463006019473271,0.84143800000038,
-0.364158072509766,0.3907337109375,0.0073741411132815,0.534170677400189,0.844462000000021,
-0.392888492431641,0.381156904296875,0.0552581743164069,0.550177624960491,0.847436000000016,
-0.335427652587891,0.227927998046875,-0.0405098920898439,0.4075585034954,0.85036300000047,
-0.359369669189453,0.208774384765625,0.00497993945312558,0.415641796099188,0.853397000000768,
-0.414436307373047,0.342849677734375,-0.0788171186523439,0.543613366818945,0.856312000000798,
-0.373734879150391,0.376368500976563,0.0313161577148442,0.531330132925776,0.859312999999929,
-0.328245047607422,0.287783039550781,-0.0381156904296862,0.438197096052469,0.862253000000237,
-0.364158072509766,0.232716401367187,0.00497993945312558,0.432195355176659,0.865184000000227,
-0.397676895751953,0.254264216308594,-0.00938527050781168,0.472107284854235,0.868173000000752,
-0.41922471069336,0.326090266113281,-0.0189620771484371,0.531454400752826,0.871087000000443,
-0.378523282470703,0.304542451171875,0.0193451494140628,0.486210052080397,0.874129000000721,
-0.364158072509766,0.282994636230469,-0.0141736738281235,0.461408668036296,0.877046999999948,
-0.388100089111328,0.263841022949219,-0.0141736738281235,0.469504693894424,0.879942000000483,
-0.364158072509766,0.280600434570313,0.0408929643554696,0.461540832634398,0.882980000000316,
-0.364158072509766,0.342849677734375,0.0361045610351578,0.501458415647932,0.885903000000326,
-0.347398660888672,0.290177241210938,0.052863972656251,0.455722789104335,0.888923000000432,
-0.373734879150391,0.278206232910156,-0.0165678754882812,0.466209140216934,0.891845000000103,
-0.373734879150391,0.3141192578125,0.0337103593750001,0.489372104181904,0.894780000000537,
-0.366552274169922,0.321301862792969,-0.0309330854492185,0.488418173810908,0.897807000000284,
-0.395282694091797,0.273417829589844,0.0313161577148442,0.481649685477019,0.900754000000234,
-0.356975467529297,0.254264216308594,0.000191536132813752,0.438271391718503,0.903773000000001,
-0.390494290771485,0.29496564453125,0.0361045610351578,0.49070771535243,0.906710000000203,
-0.412042105712891,0.27581203125,0.0241335527343765,0.496420589651706,0.909638000000086,
-0.354581265869141,0.306936652832031,-0.00938527050781168,0.469069361885423,0.91265199999998,
-0.390494290771485,0.311725056152344,0.0720175859375001,0.504821586743843,0.91558299999997,
-0.378523282470703,0.287783039550781,0.0265277543945324,0.476238044446996,0.918619000000035,
-0.402465299072266,0.330878669433594,-0.0524809003906235,0.523653755595512,0.921529000000191,
-0.40007109741211,0.304542451171875,0.0337103593750001,0.503923978274,0.924464000000626,
-0.414436307373047,0.302148249511719,0.0193451494140628,0.513249697864358,0.927476000000752,
-0.36176387084961,0.280600434570313,0.0432871660156255,0.459873331336799,0.930393000000549,
-0.366552274169922,0.304542451171875,-0.021356278808593,0.477035391673895,0.933399000000463,
-0.383311685791016,0.290177241210938,-0.0524809003906235,0.483616505804498,0.936314999999922,
-0.388100089111328,0.321301862792969,-0.0452982954101557,0.505873997917978,0.9392940000007,
-0.388100089111328,0.249475812988281,-0.0165678754882812,0.46166476466434,0.942330000000766,
-0.376129080810547,0.285388837890625,0.0265277543945324,0.472888566130717,0.945353000000068,
-0.390494290771485,0.287783039550781,-0.0189620771484371,0.485452808569478,0.948472000000038,
-0.388100089111328,0.328484467773438,0.0073741411132815,0.508505754828574,0.951466000000437,
-0.388100089111328,0.290177241210938,0.0217393510742188,0.485074334375815,0.954472000000351,
-0.34261025756836,0.213562788085938,-0.0333272871093744,0.405094508864496,0.957421000000068,
-0.34261025756836,0.323696064453125,0.0169509477539069,0.471644214809484,0.960356000000502,
-0.383311685791016,0.340455476074219,-0.00699106884765577,0.512724735795442,0.963400000000547,
-0.368946475830078,0.287783039550781,-0.0141736738281235,0.468125488421969,0.966317000000345,
-0.359369669189453,0.261446821289062,0.0265277543945324,0.445201888190862,0.969320000000153,
-0.440772525634766,0.271023627929688,0.0313161577148442,0.518377206274197,0.97226800000044,
-0.340216055908203,0.306936652832031,0.00497993945312558,0.458237791268269,0.97519900000043,
-0.378523282470703,0.287783039550781,0.00497993945312558,0.475524713366655,0.978246000000581,
-0.359369669189453,0.328484467773438,-0.0117794721679676,0.487018850421923,0.981164000000717,
-0.385705887451172,0.280600434570313,0.00258573779296967,0.476982517012394,0.984226999999919,
-0.36176387084961,0.316513459472656,0.0408929643554696,0.482416938771038,0.987157999999908,
-0.371340677490235,0.306936652832031,0.0169509477539069,0.482069852034322,0.990071000000171,
-0.395282694091797,0.27581203125,0.0337103593750001,0.483173957452088,0.993088000000171,
-0.38091748413086,0.299754047851563,0.0169509477539069,0.485013353991141,0.996026000000711,
-0.38091748413086,0.316513459472656,0.0456813676757815,0.49735871068743,0.999053000000458,
-0.383311685791016,0.328484467773438,0.0384987626953137,0.506272701971397,1.00198900000032,
-0.397676895751953,0.29496564453125,-0.00220266552734216,0.495132807036729,1.0049080000008,
-0.366552274169922,0.309330854492188,0.0480755693359374,0.482034653948223,1.0079340000002,
-0.402465299072266,0.285388837890625,0.0217393510742188,0.493860005603833,1.01086699999996,
