X,Y,Z,Magnitude,Seconds,
-0.383311685791016,0.299754047851563,0.0289219560546883,0.487459554434393,0.0,
-0.402465299072266,0.29496564453125,0.0504697709960951,0.501527911681356,0.00387300000056712,
-0.368946475830078,0.29496564453125,0.000191536132813752,0.472362435177969,0.00773500000013883,
-0.354581265869141,0.292571442871094,0.0313161577148442,0.460767430514633,0.0116540000008172,
-0.36176387084961,0.273417829589844,0.000191536132813752,0.453464931914039,0.0155670000003738,
-0.373734879150391,0.29496564453125,-0.0764229169921862,0.482206339225116,0.0194920000003549,
-0.347398660888672,0.271023627929688,0.0169509477539069,0.440938738503625,0.0233720000005633,
-0.388100089111328,0.273417829589844,-0.00699106884765577,0.474792442809987,0.0271910000001299,
-0.347398660888672,0.309330854492188,0.0217393510742188,0.465665122715066,0.0310430000008637,
-0.385705887451172,0.309330854492188,-0.00699106884765577,0.494472935759881,0.0349130000004152,
-0.378523282470703,0.302148249511719,0.0432871660156255,0.486258386865518,0.0388020000000324,
-0.40007109741211,0.278206232910156,0.0696233842773442,0.492242833013159,0.0427190000000337,
-0.397676895751953,0.311725056152344,0.0265277543945324,0.505987298063211,0.0468590000000404,
-0.404859500732422,0.302148249511719,0.014556746093751,0.505387652078224,0.0507400000005873,
-0.402465299072266,0.299754047851563,0.0169509477539069,0.502113673176185,0.0547650000007707,
-0.435984122314453,0.278206232910156,-0.0117794721679676,0.517319648674705,0.0586540000003879,
-0.397676895751953,0.299754047851563,-0.0309330854492185,0.498955166717126,0.0625660000005155,
-0.397676895751953,0.273417829589844,-0.0452982954101557,0.484722764598071,0.0663950000007389,
-0.371340677490235,0.297359846191406,0.0672291826171882,0.480454513852517,0.0704310000000987,
-0.385705887451172,0.304542451171875,-0.0309330854492185,0.492414451408241,0.0744850000000952,
-0.373734879150391,0.285388837890625,0.0983538041992187,0.480414424727835,0.078469000000041,
-0.412042105712891,0.29496564453125,-0.0381156904296862,0.508169493565858,0.0824560000000929,
-0.390494290771485,0.27581203125,0.000191536132813752,0.478077508771816,0.0864280000005238,
-0.388100089111328,0.29496564453125,-0.00699106884765577,0.487519523368644,0.090305000000626,
-0.388100089111328,0.287783039550781,0.0696233842773442,0.48814769553849,0.0943140000008498,
-0.368946475830078,0.287783039550781,-0.0476924970703116,0.470335150884263,0.0981810000002952,
-0.421618912353516,0.259052619628906,-0.0333272871093744,0.495965195408742,0.102010000000519,
-0.390494290771485,0.297359846191406,0.0217393510742188,0.491305677391611,0.105893000000833,
-0.397676895751953,0.254264216308594,-0.00220266552734216,0.472019127626581,0.109733000000233,
-0.426407315673828,0.266235224609375,0.0456813676757815,0.504768442987172,0.113548000000264,
-0.404859500732422,0.297359846191406,-0.00220266552734216,0.502333499973582,0.117471000000478,
-0.345004459228516,0.29496564453125,0.0217393510742188,0.454428660766929,0.121603000000505,
-0.404859500732422,0.287783039550781,0.0696233842773442,0.501575227483,0.125514000000294,
-0.404859500732422,0.316513459472656,-0.0141736738281235,0.514094231041782,0.129489000000831,
-0.397676895751953,0.27581203125,-0.0476924970703116,0.486306245357761,0.133348000000296,
-0.395282694091797,0.3141192578125,-0.0165678754882812,0.50516711183067,0.137173000000075,
-0.373734879150391,0.299754047851563,0.103142207519532,0.490069958341619,0.140992000000551,
-0.376129080810547,0.273417829589844,0.0289219560546883,0.465904361978977,0.145081000000573,
-0.347398660888672,0.271023627929688,-0.00220266552734216,0.440618302183236,0.148998000000574,
-0.402465299072266,0.316513459472656,0.0289219560546883,0.512830933667916,0.15288000000055,
-0.383311685791016,0.278206232910156,-0.00220266552734216,0.473636367089179,0.15685300000041,
-0.356975467529297,0.292571442871094,0.0241335527343765,0.46218174127611,0.160804000000098,
-0.409647904052735,0.302148249511719,-0.0452982954101557,0.511035131419416,0.164731000000756,
-0.390494290771485,0.3141192578125,0.0361045610351578,0.502454215408073,0.168589000000793,
-0.366552274169922,0.278206232910156,0.0289219560546883,0.46108107450993,0.172573000000739,
-0.371340677490235,0.273417829589844,-0.021356278808593,0.461635461095741,0.176422000000457,
-0.395282694091797,0.285388837890625,0.0384987626953137,0.489057616002553,0.180382000000463,
-0.385705887451172,0.27581203125,0.0193451494140628,0.474568796912102,0.184353000000556,
-0.385705887451172,0.318907661132813,0.0289219560546883,0.501305902105417,0.188262000000577,
-0.385705887451172,0.323696064453125,0.0217393510742188,0.504004735237742,0.192293000000063,
-0.383311685791016,0.321301862792969,0.000191536132813752,0.50016274569811,0.19639400000051,
-0.359369669189453,0.292571442871094,-0.00459686718749985,0.463428246339118,0.200458000000253,
-0.352187064208985,0.299754047851563,-0.0452982954101557,0.464693611927909,0.204384000000573,
-0.414436307373047,0.290177241210938,0.0456813676757815,0.507983337855217,0.208365000000413,
-0.378523282470703,0.251870014648437,0.0504697709960951,0.457455546950519,0.212232000000768,
-0.383311685791016,0.304542451171875,0.00258573779296967,0.489571893667987,0.216133000000809,
-0.404859500732422,0.290177241210938,-0.0261446821289049,0.498796141779102,0.220183000000361,
-0.38091748413086,0.302148249511719,0.0792001909179696,0.492609748828647,0.2241410000006,
-0.378523282470703,0.33327287109375,-0.0117794721679676,0.504469461854752,0.228112000000692,
-0.371340677490235,0.309330854492188,0.0169509477539069,0.48359777804445,0.232072000000699,
-0.395282694091797,0.326090266113281,-0.021356278808593,0.512873630192517,0.235986000000594,
-0.428801517333985,0.306936652832031,-0.0165678754882812,0.52759392018659,0.239870000000337,
-0.383311685791016,0.287783039550781,0.0169509477539069,0.479618870507398,0.243736000000354,
-0.395282694091797,0.290177241210938,0.0169509477539069,0.490651173640719,0.247728000000279,
-0.333033450927735,0.304542451171875,-0.0261446821289049,0.452040848161127,0.251589000000422,
-0.376129080810547,0.306936652832031,0.000191536132813752,0.485472173218206,0.255470000000059,
-0.349792862548828,0.309330854492188,0.0576523759765628,0.470493805152324,0.25927000000047,
-0.397676895751953,0.321301862792969,0.00497993945312558,0.511279375924845,0.263181000000259,
-0.388100089111328,0.287783039550781,-0.0285388837890626,0.483999199285735,0.267117000000326,
-0.364158072509766,0.297359846191406,0.0456813676757815,0.472356610257266,0.271075000000565,
-0.378523282470703,0.326090266113281,-0.0405098920898439,0.50125421532727,0.275052000000869,
-0.371340677490235,0.244687409667969,0.0073741411132815,0.444769833920968,0.278917000000547,
-0.337821854248047,0.287783039550781,0.00976834277343741,0.443889742595179,0.282800000000861,
-0.38091748413086,0.263841022949219,-0.0165678754882812,0.463664436425384,0.286638000000494,
-0.373734879150391,0.263841022949219,-0.0452982954101557,0.4597192413327,0.290549000000283,
-0.40007109741211,0.280600434570313,-0.00220266552734216,0.488669968998509,0.294507000000522,
-0.428801517333985,0.321301862792969,-0.0237504804687489,0.536348500160722,0.298530000000028,
-0.397676895751953,0.2375048046875,-0.0141736738281235,0.463418103546186,0.302482000000055,
-0.356975467529297,0.385945307617188,-0.119518546875,0.539138152922419,0.306366000000708,
-0.299514627685547,0.503261188964844,0.452695649902344,0.740212258718015,0.310280000000603,
-0.768778153076172,-0.602859978027344,-0.550474845703125,1.12137529734974,0.314242000000377,
-0.196563956298828,0.555933625488281,0.0576523759765628,0.592472262068137,0.317181000000346,
0.282276375732422,1.62374756591797,0.201304475585939,1.66034924097676,0.320130000000063,
-0.967496890869141,0.194409174804688,-0.117124345214844,0.99376218147588,0.323181000000659,
-0.979467899169922,-1.32830308105469,0.146237837402344,1.65684397145049,0.326147000000674,
0.0141257897949217,0.182438166503906,-0.318237284667967,0.367094254773182,0.329152000000249,
0.100317049560547,1.65726638916016,-0.203315604980467,1.67270219414606,0.332141000000775,
-0.299514627685547,0.654095893554688,0.581982539550783,0.925340005892264,0.335097000000133,
-0.893276639404297,-0.588494768066406,-0.105153336914062,1.07486114024609,0.338172000000668,
-0.689769498291016,-0.344286198730469,-0.569628458984374,0.958536138439145,0.341162000000622,
-0.0864306799316408,0.706768330078125,0.313831953613281,0.778127386707084,0.34422800000084,
-0.0241814367675783,1.10420580566406,0.280313130371095,1.13948701361833,0.347144000000299,
-0.426407315673828,0.170467158203125,-0.270353251464844,0.532891294227652,0.350112000000081,
-0.754412943115235,-0.315555778808594,-0.0836055219726557,0.822012300141311,0.353185000000849,
-0.526963785400391,0.156101948242188,0.00976834277343741,0.549685428121444,0.356177000000571,
-0.160650931396485,0.752258161621094,0.014556746093751,0.769358799482363,0.359242000000449,
-0.167833536376953,0.668461103515625,0.115113215820314,0.698755604845224,0.362281000000621,
-0.503021768798828,-0.00670376464843751,-0.095576530273437,0.512065145743266,0.365238000000318,
-0.689769498291016,-0.0905008227539063,-0.0572693037109371,0.698034478259713,0.368313000000853,
-0.292332022705078,0.419464130859375,0.088776997558595,0.518931135963118,0.371283000000403,
-0.0960074865722658,0.666066901855469,0.0073741411132815,0.672991034994096,0.374389000000519,
-0.376129080810547,0.366791694335938,-0.0141736738281235,0.525556966936032,0.37739000000056,
-0.596395633544922,-0.03064578125,0.0217393510742188,0.59757804093273,0.380455000000438,
-0.447955130615235,0.136948334960938,-0.00459686718749985,0.468443995244922,0.38336900000013,
-0.256418997802735,0.536780012207031,0.0361045610351578,0.595975690164189,0.386392000000342,
-0.297120426025391,0.484107575683594,0.0337103593750001,0.569014130514303,0.389485000000604,
-0.445560928955078,0.115400520019531,-0.0692403120117184,0.465441771051515,0.392434000000321,
-0.462320340576172,0.0890643017578125,-0.0309330854492185,0.471836203500201,0.395430000000488,
-0.409647904052735,0.338061274414063,0.0313161577148442,0.532050309921233,0.39839000000029,
-0.318668240966797,0.527203205566406,-0.0476924970703116,0.617873160152769,0.401324000000386,
-0.371340677490235,0.352426484375,-0.0189620771484371,0.51230643761094,0.404367000000093,
-0.435984122314453,0.14173673828125,0.00258573779296967,0.458451899253178,0.407369000000472,
-0.416830509033203,0.261446821289062,0.0480755693359374,0.49438180993035,0.410504000000401,
-0.337821854248047,0.400310517578125,-0.00938527050781168,0.523889491203784,0.413473000000522,
-0.316274039306641,0.383551105957031,0.00258573779296967,0.497139220802518,0.41645200000039,
-0.402465299072266,0.208774384765625,-0.0333272871093744,0.454616067421362,0.419490000000224,
-0.433589920654297,0.201591779785156,-0.00699106884765577,0.478213697015863,0.422468000000663,
-0.330639249267578,0.318907661132813,0.0456813676757815,0.461639682910989,0.425499000000855,
-0.313879837646485,0.354820686035156,0.100748005859376,0.484322653201441,0.428494000000683,
-0.366552274169922,0.2375048046875,-0.0812113203124998,0.444257110799241,0.431446000000506,
-0.416830509033203,0.239899006347656,0.000191536132813752,0.48093579945099,0.434498000000531,
-0.409647904052735,0.290177241210938,0.00258573779296967,0.502016854947643,0.437432000000626,
-0.345004459228516,0.338061274414063,0.014556746093751,0.483244659569931,0.440499000000273,
-0.349792862548828,0.323696064453125,0.00976834277343741,0.476686070022069,0.443442000000687,
-0.41922471069336,0.263841022949219,0.0169509477539069,0.495629678365387,0.446352000000843,
-0.392888492431641,0.239899006347656,-0.0141736738281235,0.460558132879647,0.44945000000007,
-0.407253702392578,0.326090266113281,0.0193451494140628,0.522077268775558,0.452432000000044,
-0.388100089111328,0.33327287109375,-0.00938527050781168,0.511644963893711,0.455461000000469,
-0.371340677490235,0.244687409667969,-0.0405098920898439,0.446549973201273,0.458392000000458,
-0.404859500732422,0.292571442871094,-0.0357214887695303,0.500784673564289,0.46132100000068,
-0.345004459228516,0.292571442871094,0.0456813676757815,0.454656918372485,0.46438500000022,
-0.359369669189453,0.311725056152344,-0.0668461103515625,0.480403447360291,0.46730800000023,
-0.40007109741211,0.290177241210938,0.0289219560546883,0.495071907750126,0.470332000000781,
-0.433589920654297,0.227927998046875,0.0456813676757815,0.491973758384922,0.473313000000417,
-0.407253702392578,0.311725056152344,-0.00699106884765577,0.512910288246665,0.476407000000108,
-0.397676895751953,0.330878669433594,-0.0165678754882812,0.517592602148882,0.479372000000694,
-0.397676895751953,0.304542451171875,-0.0309330854492185,0.501846464325587,0.482313000000431,
-0.43837832397461,0.304542451171875,0.0456813676757815,0.535731692967004,0.485377000000881,
-0.385705887451172,0.306936652832031,-0.0285388837890626,0.493754603375151,0.488302000000658,
-0.34261025756836,0.285388837890625,0.0384987626953137,0.447560869729123,0.49139600000035,
-0.390494290771485,0.318907661132813,0.0768059892578137,0.509987301253862,0.494429000000309,
-0.41922471069336,0.302148249511719,0.00976834277343741,0.516854276619113,0.497449000000415,
-0.378523282470703,0.290177241210938,0.0648349809570323,0.481338011635156,0.500522000000274,
-0.416830509033203,0.290177241210938,0.00497993945312558,0.507912693653768,0.503548000000592,
-0.356975467529297,0.29496564453125,0.0456813676757815,0.46532032324435,0.506639000000177,
-0.388100089111328,0.299754047851563,-0.00220266552734216,0.490386602699384,0.509635000000344,
-0.392888492431641,0.251870014648437,0.0408929643554696,0.468478501425614,0.512619000000086,
-0.412042105712891,0.282994636230469,-0.00220266552734216,0.499869495719587,0.515790000000379,
-0.376129080810547,0.302148249511719,0.0265277543945324,0.483187719077792,0.518744000000879,
-0.426407315673828,0.304542451171875,0.00976834277343741,0.52408465341629,0.521810000000187,
-0.392888492431641,0.287783039550781,-0.0165678754882812,0.487293484295131,0.524779000000308,
-0.443166727294922,0.271023627929688,0.0265277543945324,0.52014832195315,0.527782000000116,
-0.378523282470703,0.335667072753906,0.0217393510742188,0.506384101733753,0.530846000000565,
-0.388100089111328,0.247081611328125,0.0361045610351578,0.461491647976716,0.533806000000368,
-0.388100089111328,0.287783039550781,-0.0189620771484371,0.483529024352304,0.536828000000241,
-0.371340677490235,0.3141192578125,0.00258573779296967,0.486386156184072,0.539844000000812,
-0.366552274169922,0.302148249511719,-0.0237504804687489,0.475624031882993,0.542774000000463,
-0.349792862548828,0.311725056152344,0.0241335527343765,0.469158806472679,0.545820000000276,
-0.345004459228516,0.316513459472656,0.0384987626953137,0.46977760870861,0.54886500000066,
-0.40007109741211,0.297359846191406,0.0432871660156255,0.500353414951043,0.551917000000685,
-0.385705887451172,0.266235224609375,-0.0117794721679676,0.468816576500721,0.554902000000766,
-0.383311685791016,0.311725056152344,-0.0309330854492185,0.495032539205799,0.557864000000336,
-0.392888492431641,0.29496564453125,-0.0357214887695303,0.492587173705178,0.560924000000341,
-0.366552274169922,0.27581203125,0.052863972656251,0.461765574600785,0.563911000000189,
-0.349792862548828,0.239899006347656,0.00258573779296967,0.42416183936869,0.566965000000891,
-0.383311685791016,0.292571442871094,-0.0620577070312489,0.486186236590054,0.569947000000866,
-0.402465299072266,0.328484467773438,-0.0189620771484371,0.519846056920229,0.572979000000487,
-0.407253702392578,0.29496564453125,-0.0261446821289049,0.503531383301796,0.57593900000029,
-0.407253702392578,0.282994636230469,0.00976834277343741,0.496021131372664,0.57888500000081,
-0.40007109741211,0.285388837890625,-0.00699106884765577,0.491479955665258,0.581962000000203,
-0.397676895751953,0.311725056152344,0.000191536132813752,0.505291461172838,0.584886000000552,
-0.359369669189453,0.263841022949219,-0.00699106884765577,0.445878368580334,0.58791200000087,
-0.354581265869141,0.302148249511719,0.0337103593750001,0.467073684890885,0.590909000000465,
-0.409647904052735,0.254264216308594,-0.00938527050781168,0.482234155045375,0.593848000000435,
-0.376129080810547,0.278206232910156,0.000191536132813752,0.467837397123763,0.59689200000048,
-0.407253702392578,0.326090266113281,0.000191536132813752,0.521718771420373,0.599829000000682,
-0.368946475830078,0.282994636230469,0.0121625444335951,0.465140187093901,0.602870000000621,
-0.404859500732422,0.282994636230469,0.0217393510742188,0.494438852492044,0.605821000000105,
-0.388100089111328,0.304542451171875,0.0361045610351578,0.494642621557763,0.608739000000242,
-0.383311685791016,0.381156904296875,0.0648349809570323,0.544437332401835,0.611814000000777,
-0.443166727294922,0.227927998046875,0.0983538041992187,0.507958060547725,0.614765000000261,
-0.407253702392578,0.093852705078125,-0.0237504804687489,0.418602429144219,0.617803000000094,
-0.282755216064453,0.469742365722656,-0.0476924970703116,0.550348050458231,0.620765000000574,
-0.337821854248047,0.6205770703125,-0.021356278808593,0.706891502318273,0.623721000000842,
-0.529357987060547,0.105823713378906,0.141449434082032,0.558055982120273,0.626760000000104,
-0.40007109741211,-0.217393510742188,0.0935654008789069,0.464834707975829,0.629732000000331,
-0.244447989501953,0.496078583984375,-0.102759135253905,0.562501751941823,0.632779000000482,
-0.333033450927735,0.759440766601563,0.0408929643554696,0.830261279325359,0.635787000000164,
-0.462320340576172,0.201591779785156,0.15581464404297,0.527880238582249,0.638777000000118,
-0.491050760498047,-0.140779057617187,-0.109941740234374,0.522529213245591,0.641895000000659,
-0.347398660888672,0.242293208007813,-0.121912748535156,0.440743175204513,0.64488000000074,
-0.309091434326172,0.673249506835938,0.143843635742188,0.754647868063095,0.647939000000406,
-0.395282694091797,0.271023627929688,-0.0333272871093744,0.480429935797833,0.650887000000694,
-0.462320340576172,-0.0162805712890625,-0.0405098920898439,0.46437722346073,0.653882000000522,
-0.428801517333985,0.213562788085938,-0.0141736738281235,0.479250142152042,0.656977000000552,
-0.376129080810547,0.52480900390625,0.0480755693359374,0.647463386130391,0.659931000000142,
-0.345004459228516,0.469742365722656,0.0073741411132815,0.582872494632777,0.662972000000082,
-0.397676895751953,0.136948334960938,-0.0189620771484371,0.421024132602,0.665937000000667,
-0.483868155517578,0.0842758984375,-0.0788171186523439,0.49743638505249,0.669020000000273,
-0.376129080810547,0.37158009765625,0.00976834277343741,0.528810244725038,0.671984000000521,
-0.333033450927735,0.438617744140625,0.0289219560546883,0.551482805220504,0.674918000000616,
-0.402465299072266,0.304542451171875,-0.0524809003906235,0.50742355722701,0.677939000000151,
-0.443166727294922,0.158496149902344,0.0169509477539069,0.470961901160714,0.68092500000057,
-0.397676895751953,0.290177241210938,-0.0716345136718743,0.497474872009337,0.683920000000398,
-0.364158072509766,0.395522114257813,0.0408929643554696,0.539185570258307,0.686956000000464,
-0.32345664428711,0.388339509277344,0.0241335527343765,0.505978461564155,0.689952000000631,
-0.431195718994141,0.215956989746094,0.0265277543945324,0.482981253520553,0.693013000000064,
-0.447955130615235,0.215956989746094,-0.0285388837890626,0.49811212427789,0.695981000000756,
-0.397676895751953,0.359609089355469,-0.0165678754882812,0.536414117133558,0.699040000000423,
-0.309091434326172,0.381156904296875,0.0361045610351578,0.492058573540314,0.701998000000458,
-0.404859500732422,0.278206232910156,0.0217393510742188,0.491713862676755,0.704938000000766,
-0.428801517333985,0.175255561523438,-0.0117794721679676,0.463383220539306,0.707992000000559,
-0.364158072509766,0.318907661132813,0.0504697709960951,0.486683054859759,0.710978000000068,
-0.32345664428711,0.342849677734375,0.00258573779296967,0.471356328371622,0.71402500000022,
-0.376129080810547,0.311725056152344,-0.0117794721679676,0.488655657932173,0.71694800000023,
-0.414436307373047,0.254264216308594,0.00258573779296967,0.486224670912495,0.719905000000836,
-0.371340677490235,0.268629426269531,-0.0333272871093744,0.459528427284836,0.722916000000623,
-0.395282694091797,0.273417829589844,0.0313161577148442,0.481649685477019,0.72584900000038,
-0.395282694091797,0.3141192578125,-0.0285388837890626,0.505701279675137,0.72892900000079,
-0.431195718994141,0.306936652832031,-0.0189620771484371,0.529621956965899,0.731874000000062,
-0.397676895751953,0.278206232910156,-0.0285388837890626,0.486168786876426,0.734808000000157,
-0.397676895751953,0.311725056152344,-0.0141736738281235,0.505490175055735,0.737811000000875,
-0.371340677490235,0.350032282714844,0.052863972656251,0.51304102887242,0.740743000000293,
-0.354581265869141,0.338061274414063,0.0504697709960951,0.49250431180673,0.743792000000212,
-0.421618912353516,0.285388837890625,0.0576523759765628,0.512379832255785,0.746728000000076,
-0.388100089111328,0.254264216308594,-0.0165678754882812,0.464269819567716,0.749625000000378,
-0.385705887451172,0.299754047851563,0.00976834277343741,0.488586677405793,0.752741000000242,
-0.325850845947266,0.29496564453125,0.0504697709960951,0.44241462797096,0.755764000000454,
-0.390494290771485,0.321301862792969,0.0384987626953137,0.507151686271895,0.758829000000333,
-0.395282694091797,0.254264216308594,0.0624407792968764,0.474128200872606,0.761764000000767,
-0.385705887451172,0.306936652832031,0.00258573779296967,0.492935925355579,0.764814000000115,
-0.34261025756836,0.323696064453125,0.0337103593750001,0.472543457327145,0.767759000000297,
-0.36176387084961,0.287783039550781,0.014556746093751,0.462497648601609,0.770776000000296,
-0.397676895751953,0.309330854492188,-0.0189620771484371,0.504174623841343,0.773833000000195,
-0.428801517333985,0.316513459472656,0.0768059892578137,0.538470678199981,0.776858000000175,
-0.371340677490235,0.321301862792969,0.00976834277343741,0.491145809626507,0.779866000000766,
-0.395282694091797,0.29496564453125,-0.0261446821289049,0.49389946761039,0.782888000000639,
-0.390494290771485,0.27581203125,0.0384987626953137,0.479625085286879,0.785898000000088,
-0.407253702392578,0.299754047851563,0.0265277543945324,0.506371196918897,0.789002000000437,
-0.36176387084961,0.407493122558594,-0.0333272871093744,0.545925316550457,0.791949000000386,
-0.40007109741211,0.254264216308594,0.00497993945312558,0.474059041129383,0.795118000000002,
-0.366552274169922,0.144130939941406,0.0313161577148442,0.395113906717488,0.798075000000608,
-0.364158072509766,0.247081611328125,-0.0141736738281235,0.440296851522148,0.801038000000517,
-0.330639249267578,0.445800349121094,-0.0405098920898439,0.556508145304135,0.804091000000881,
-0.40007109741211,0.347638081054688,0.00976834277343741,0.530098612434002,0.807075000000623,
-0.424013114013672,0.148919343261719,-0.0165678754882812,0.449709446366505,0.81013300000086,
-0.356975467529297,0.254264216308594,-0.0692403120117184,0.443707107132919,0.813053000000764,
-0.373734879150391,0.342849677734375,-0.0189620771484371,0.507526572492422,0.815980000000309,
-0.356975467529297,0.378762702636719,0.000191536132813752,0.520473540165609,0.819060000000718,
-0.383311685791016,0.251870014648437,-0.0117794721679676,0.458808357277317,0.821976000000177,
-0.390494290771485,0.251870014648437,0.0361045610351578,0.46607706951927,0.825048000000606,
-0.38091748413086,0.29496564453125,0.0241335527343765,0.482374636084758,0.828093000000081,
-0.40007109741211,0.342849677734375,0.0313161577148442,0.527810085391626,0.831047000000581,
-0.404859500732422,0.278206232910156,0.0241335527343765,0.491825529767365,0.834153000000697,
-0.397676895751953,0.263841022949219,-0.0668461103515625,0.481899783435242,0.837077000000136,
-0.395282694091797,0.29496564453125,0.0361045610351578,0.494526722260533,0.84016100000008,
-0.412042105712891,0.335667072753906,-0.00699106884765577,0.531507248920579,0.843116000000009,
-0.347398660888672,0.3141192578125,-0.00938527050781168,0.468449379355361,0.846043000000464,
-0.395282694091797,0.249475812988281,-0.00459686718749985,0.467448094126581,0.849096000000827,
-0.385705887451172,0.271023627929688,0.0480755693359374,0.473850291629794,0.852074000000357,
-0.385705887451172,0.342849677734375,0.000191536132813752,0.516057138137969,0.855124000000615,
-0.412042105712891,0.3141192578125,-0.0117794721679676,0.518255111864364,0.858046000000286,
-0.366552274169922,0.29496564453125,0.0169509477539069,0.470799995521063,0.861101000000417,
-0.397676895751953,0.266235224609375,-0.00459686718749985,0.478590889409372,0.864020000000892,
-0.385705887451172,0.292571442871094,0.0265277543945324,0.484841007497702,0.867017000000487,
-0.371340677490235,0.280600434570313,0.0265277543945324,0.466191188669596,0.870092000000113,
-0.392888492431641,0.280600434570313,0.0480755693359374,0.485189892447514,0.873058000000128,
-0.390494290771485,0.259052619628906,0.0241335527343765,0.469229665760069,0.876046000000315,
-0.407253702392578,0.261446821289062,0.00497993945312558,0.483978117554476,0.879007000000456,
-0.347398660888672,0.340455476074219,0.00976834277343741,0.486509179046711,0.881960000000618,
-0.371340677490235,0.285388837890625,0.0289219560546883,0.46923039873126,0.885025000000496,
-0.385705887451172,0.273417829589844,-0.00220266552734216,0.472790855334092,0.887940000000526,
-0.376129080810547,0.340455476074219,-0.00699106884765577,0.507377464678855,0.891027000000577,
-0.364158072509766,0.321301862792969,-0.0237504804687489,0.486220190994529,0.893978000000061,
-0.376129080810547,0.285388837890625,0.0504697709960951,0.474833730908354,0.896950000000288,
-0.385705887451172,0.268629426269531,-0.0405098920898439,0.471775213030024,0.900011000000632,
-0.402465299072266,0.263841022949219,-0.0189620771484371,0.481611838224521,0.9029900000005,
-0.40007109741211,0.282994636230469,0.00497993945312558,0.490069022604675,0.906041000000187,
-0.388100089111328,0.309330854492188,0.0241335527343765,0.496879950366958,0.909003000000666,
-0.40007109741211,0.302148249511719,0.0337103593750001,0.502480682212478,0.91199400000005,
-0.371340677490235,0.247081611328125,0.0073741411132815,0.446091469737505,0.915115000000696,
-0.368946475830078,0.282994636230469,-0.109941740234374,0.477801896614499,0.918118000000504,
-0.359369669189453,0.304542451171875,-0.0189620771484371,0.471436341480899,0.921188000000257,
-0.359369669189453,0.309330854492188,0.00497993945312558,0.474190822845783,0.924156000000039,
-0.412042105712891,0.321301862792969,-0.0261446821289049,0.523160709837968,0.927098000000115,
-0.40007109741211,0.311725056152344,-0.0117794721679676,0.50731464554285,0.930143000000498,
-0.404859500732422,0.302148249511719,-0.0285388837890626,0.505983446274903,0.933117000000493,
-0.385705887451172,0.309330854492188,-0.00459686718749985,0.494444880996156,0.936234000000695,
-0.390494290771485,0.268629426269531,-0.0285388837890626,0.474828419190499,0.93916100000024,
-0.337821854248047,0.290177241210938,0.0241335527343765,0.445992000928226,0.9421310000007,
-0.385705887451172,0.287783039550781,0.0456813676757815,0.483399314046175,0.945208000000093,
-0.40007109741211,0.321301862792969,0.0169509477539069,0.51339955653323,0.9481880000003,
-0.376129080810547,0.306936652832031,0.0552581743164069,0.488606856390596,0.951254000000517,
-0.349792862548828,0.268629426269531,-0.021356278808593,0.441557364328296,0.954149000000143,
-0.388100089111328,0.321301862792969,0.0361045610351578,0.505133750139499,0.957155000000057,
-0.371340677490235,0.287783039550781,0.0121625444335951,0.469958406775634,0.960150000000795,
-0.385705887451172,0.290177241210938,0.0552581743164069,0.485824380573957,0.963075000000572,
-0.414436307373047,0.282994636230469,-0.0117794721679676,0.501978259458294,0.96615600000041,
-0.395282694091797,0.282994636230469,-0.00699106884765577,0.486192603221519,0.969141000000491,
-0.349792862548828,0.306936652832031,0.0408929643554696,0.467158848867933,0.972139000000425,
-0.390494290771485,0.29496564453125,-0.0381156904296862,0.490859784903787,0.975132000000485,
-0.378523282470703,0.287783039550781,-0.00938527050781168,0.47559124942327,0.978072000000793,
-0.397676895751953,0.290177241210938,-0.0524809003906235,0.495079781083323,0.981124000000818,
-0.356975467529297,0.285388837890625,-0.0165678754882812,0.457332229028872,0.984044000000722,
-0.364158072509766,0.290177241210938,0.000191536132813752,0.465632870163725,0.987091000000873,
-0.38091748413086,0.299754047851563,0.014556746093751,0.484935581058782,0.990078000000722,
-0.407253702392578,0.304542451171875,0.103142207519532,0.518883414314082,0.993013000000246,
-0.426407315673828,0.280600434570313,0.0265277543945324,0.511139437428208,0.996061000000736,
-0.330639249267578,0.311725056152344,0.00497993945312558,0.454444301962701,0.99903600000016,
-0.376129080810547,0.306936652832031,0.0337103593750001,0.486641123018092,1.00207900000078,
-0.371340677490235,0.292571442871094,0.0169509477539069,0.473053149838721,1.00499300000047,
-0.40007109741211,0.309330854492188,0.0313161577148442,0.506678559107663,1.00797700000021,
-0.414436307373047,0.302148249511719,0.0169509477539069,0.513165034059958,1.01102400000036,
-0.392888492431641,0.266235224609375,0.00497993945312558,0.474623389757573,1.01395400000001,
-0.385705887451172,0.304542451171875,0.0193451494140628,0.491822499471224,1.0169990000004,
-0.397676895751953,0.259052619628906,-0.0572693037109371,0.478053288137467,1.01991000000089,
-0.352187064208985,0.273417829589844,0.0121625444335951,0.446027987037656,1.02286900000036,
-0.376129080810547,0.268629426269531,0.0384987626953137,0.463807081466373,1.02589100000023,
-0.390494290771485,0.285388837890625,-0.0165678754882812,0.483949454401884,1.02881100000013,
