X,Y,Z,Magnitude,Seconds,
0.00995987890625,0.0219308872070312,0.00670376464844225,0.0250020691538999,0.0,
0.00995987890625,0.0027772739257812,-0.0339976635742136,0.0355352440091721,0.00377200000002631,
-0.00919373437499998,0.0243250888671874,0.0450109912109422,0.0519829205599891,0.00755100000060338,
-0.00919373437499998,0.0195366855468749,0.0258573779296913,0.0336869533694339,0.0114629999998215,
0.0243250888671875,0.0195366855468749,0.0426167895507863,0.0528165010405844,0.01528000000053,
0.0219308872070313,0.0267192905273437,0.0114921679687541,0.0364273828952093,0.0190609999999651,
-0.00679953271484374,0.00995987890624994,-0.0124498486328086,0.017332961776547,0.0228070000002845,
-0.0355299526367187,-0.0331357509765625,-0.0220266552734323,0.0533435007257947,0.0265749999998661,
0.000383072265625006,-0.0235589443359375,0.00909796630859816,0.0252575452793196,0.0303240000002916,
0.00277727392578125,0.0147482822265624,-0.0531512768554645,0.0552293699987552,0.0340880000003381,
-0.0211647426757812,0.0195366855468749,0.00191536132813042,0.0288668845514511,0.0379739999998492,
-0.00679953271484374,0.0147482822265624,-0.0387860668945272,0.0420488342159603,0.0417350000006991,
-0.0355299526367187,0.0171424838867187,-0.0651222851562459,0.0761390459103953,0.045469000000594,
-0.00919373437499998,0.0410845004882812,-0.0770932934570272,0.0878398362258318,0.0491879999999583,
-0.02834734765625,0.0195366855468749,-0.0746990917968695,0.082250887633988,0.0528949999998076,
-0.018770541015625,0.0291134921874999,-0.0196324536132764,0.0398166029722317,0.0566180000005261,
-0.00440533105468749,-0.0259531459960938,0.00191536132813042,0.0263939640412964,0.0605080000004818,
-0.02834734765625,0.0243250888671874,0.0306457812500049,0.0483161047267267,0.0645230000000083,
0.019536685546875,0.0458729038085937,-0.0363918652343695,0.0617282207845527,0.0683070000004591,
-0.018770541015625,0.0195366855468749,-0.0387860668945272,0.047311460316962,0.0721080000002985,
-0.0259531459960937,-0.0139821376953125,0.00909796630859816,0.0308518873422295,0.0758949999999459,
0.0051714755859375,-0.0259531459960938,0.0450109912109422,0.0522139758744919,0.0797400000001289,
-0.00201112939453124,0.0027772739257812,0.00430956298828633,0.00550728835729337,0.0836540000000241,
-0.0115879360351562,-0.018770541015625,-0.0316034619140577,0.038540787180952,0.087441000000581,
0.000383072265625006,-0.018770541015625,-0.0603338818359322,0.0631874770169864,0.0912170000001424,
-0.0139821376953125,0.0123540805664062,-0.0124498486328086,0.0224303859117889,0.09499599999981,
-0.0163763393554687,0.00995987890624994,-0.0339976635742136,0.0390285127441214,0.0987560000003214,
0.0123540805664062,-0.00440533105468754,-0.0339976635742136,0.0364399694957071,0.10250300000007,
-0.00440533105468749,-0.0211647426757813,-0.045968671874995,0.0507983471009086,0.106206000000384,
-0.0331357509765625,0.0123540805664062,0.0138863696289118,0.0379925329623175,0.110067000000527,
-0.0163763393554687,0.000383072265624951,0.00430956298828633,0.0169382280122855,0.113791000000674,
-0.0139821376953125,0.00756567724609369,-0.0148440502929645,0.0217505281734214,0.117520000000695,
0.0171424838867188,0.0027772739257812,-0.0196324536132764,0.026210899243305,0.121257000000696,
0.00756567724609375,0.000383072265624951,-0.0268150585937459,0.0278645578457433,0.12498400000004,
0.019536685546875,-0.00919373437500004,-0.0292092602539018,0.0363233770249367,0.128693999999996,
0.0219308872070313,0.0195366855468749,0.0162805712890677,0.0335812879047754,0.132714000000306,
0.00277727392578125,0.0147482822265624,-0.0531512768554645,0.0552293699987552,0.136634000000413,
0.00277727392578125,-0.0139821376953125,0.0186747729492236,0.0234938411013303,0.140403000000333,
-0.0163763393554687,0.0291134921874999,-0.0555454785156204,0.064815739612893,0.144169000000147,
-0.02834734765625,0.00756567724609369,-0.0507570751953086,0.0586267197932698,0.14791200000036,
0.000383072265625006,0.0123540805664062,0.028251579589849,0.0308370199650278,0.151735999999801,
0.0339018955078125,-0.00440533105468754,0.0234631762695354,0.0414640338290828,0.155544000000191,
-0.00440533105468749,-0.0451067592773439,0.0186747729492236,0.0490180968511701,0.159388000000035,
0.0123540805664062,0.00756567724609369,-0.0292092602539018,0.0326043503755785,0.16316900000038,
-0.0331357509765625,0.0219308872070312,0.0138863696289118,0.0420924348064952,0.166974000000664,
-0.00201112939453124,-0.018770541015625,-0.0172382519531205,0.0255643341759583,0.170703000000685,
-0.0139821376953125,0.0027772739257812,-0.0411802685546832,0.0435778377529832,0.17443700000058,
-0.0115879360351562,0.0291134921874999,-0.0172382519531205,0.0357635711207054,0.178192000000308,
0.0339018955078125,0.0123540805664062,-0.000478840332027275,0.0360858852423973,0.182018000000426,
-0.0211647426757812,0.0267192905273437,0.0138863696289118,0.0368062233907174,0.18579200000022,
-0.0331357509765625,0.0027772739257812,-0.0579396801757763,0.0668034264249285,0.189516999999796,
0.0219308872070313,0.0315076938476562,-0.0124498486328086,0.0403571222495485,0.193270000000666,
0.0051714755859375,-0.0020111293945313,0.0210689746093795,0.0217873929663045,0.196996000000581,
-0.00919373437499998,-0.0020111293945313,-0.0292092602539018,0.0306879500419916,0.200741999999991,
0.0147482822265625,-0.0139821376953125,-0.0292092602539018,0.035583604198355,0.204806000000644,
-0.0451067592773437,0.0243250888671874,-0.0172382519531205,0.0540692797372044,0.208676000000196,
-0.00679953271484374,-0.0211647426757813,-0.00766144531249502,0.0235133519930405,0.212422000000515,
-0.00201112939453124,0.0195366855468749,0.00909796630859816,0.0216448542280009,0.216253000000506,
-0.0115879360351562,0.0171424838867187,-0.0244208569335882,0.0320081750297024,0.220087000000603,
-0.0235589443359375,0.0243250888671874,-0.0699106884765577,0.0776803589711496,0.223923000000468,
0.038690298828125,0.0506613071289062,0.0138863696289118,0.0652406202062008,0.227754999999888,
-0.018770541015625,0.0386902988281249,0.0521935961914117,0.0676272424162113,0.231670000000122,
-0.00679953271484374,0.0243250888671874,-0.103429511718746,0.106468809930021,0.235466000000088,
0.0051714755859375,0.0291134921874999,-0.0890643017578086,0.0938444960277029,0.239276000000245,
-0.0235589443359375,0.00517147558593745,-0.0579396801757763,0.0627596570802534,0.243037000000186,
-0.0331357509765625,0.0195366855468749,0.0569819995117236,0.0687503334049537,0.246788999999808,
0.0315076938476563,-0.0139821376953125,0.00909796630859816,0.035651198255889,0.250551000000087,
-0.0451067592773437,0.0243250888671874,-0.0770932934570272,0.092572704275894,0.254359000000477,
-0.0235589443359375,0.0339018955078124,-0.0914585034179645,0.100344507695739,0.258106000000225,
-0.0259531459960937,-0.00919373437500004,0.0138863696289118,0.0308370199650254,0.261808000000201,
-0.0331357509765625,0.0386902988281249,0.0114921679687541,0.0522205624329385,0.265540000000328,
-0.0331357509765625,0.0027772739257812,-0.0699106884765577,0.077415732293287,0.26925300000039,
0.0530555087890625,-0.00440533105468754,-0.0363918652343695,0.0644876872728756,0.273099000000002,
-0.0498951625976562,0.0267192905273437,0.0234631762695354,0.061269636669287,0.277066999999988,
-0.00440533105468749,-0.0020111293945313,0.0138863696289118,0.0147065578778212,0.28092100000049,
0.00995987890625,0.0410845004882812,0.0378283862304727,0.0567284952471027,0.284741999999824,
-0.0427125576171875,-0.0115879360351563,0.0258573779296913,0.0512566759862101,0.288465000000542,
-0.0498951625976562,0.1057279453125,-0.00766144531249502,0.117160673499796,0.292260000000169,
0.0626323154296875,-0.306074740234375,-0.127371528320309,0.337384142739808,0.296062000000347,
-0.243825497070313,0.211072818359375,-0.0890643017578086,0.334566970155992,0.299805000000561,
0.400214749511719,0.302052481445312,0.0761356127929727,0.507153013211358,0.303437000000486,
-0.145663229003906,-0.52634129296875,-0.203985981445308,0.582977884309573,0.306346000000303,
-0.356352975097656,0.00756567724609369,-0.0938527050781204,0.36858243661849,0.309313000000657,
0.23980323828125,0.560626260742187,0.0976834277343794,0.617534978262672,0.312357000000702,
0.560626260742188,-0.41141961328125,0.121625444335942,0.705946634765105,0.31531300000006,
-0.830404903808594,-0.215095077148438,-0.129765729980464,0.867569790368599,0.318318000000545,
-0.157634237304688,0.448098782714844,-0.0651222851562459,0.479460096217742,0.321281000000454,
0.950881131347656,0.244591641601562,0.131202250976568,0.990562480490587,0.324258000000555,
-0.435361629882813,-0.385083395019531,0.00430956298828633,0.581246541690475,0.327291000000514,
-1.14404532128906,-0.0690487758789063,-0.0938527050781204,1.14996337370555,0.33020900000065,
0.249380044921875,0.309235086425781,-0.0148440502929645,0.397538792209134,0.333268000000317,
0.934121719726563,-0.0355299526367188,0.0474051928710981,0.935998406574725,0.336252000000059,
-0.758578854003906,-0.0139821376953125,-0.0675164868164018,0.761705884123551,0.339160000000447,
-0.605349947753906,0.0386902988281249,-0.0651222851562459,0.610070824161456,0.342180000000553,
0.993976761230469,-0.10496180078125,0.0617704028320354,1.00141018776298,0.345159000000422,
0.00277727392578125,0.076997525390625,-0.108217915039058,0.13284370253098,0.348202000000128,
-0.993210616699219,0.1057279453125,-0.0914585034179645,1.00300069062364,0.351164000000608,
0.577385672363281,-0.169605245605469,-0.0220266552734323,0.602183798793877,0.354097999999794,
0.543866849121094,-0.0307415493164063,0.0354341845703168,0.545886227948135,0.357131000000663,
-0.856741122070313,0.244591641601562,-0.0890643017578086,0.895412123681186,0.360089000000698,
-0.0259531459960937,-0.131298019042969,-0.0531512768554645,0.144006228417623,0.363091000000168,
0.807229031738281,-0.107356002441406,0.0402225878906304,0.815329306181216,0.366053000000647,
-0.420996419921875,0.246985843261719,-0.0172382519531205,0.48840265118971,0.369086000000607,
-0.490428268066406,-0.0929907924804688,-0.0172382519531205,0.499464043685989,0.372026000000005,
0.531895840820313,-0.0786255825195313,0.0186747729492236,0.537999920867269,0.374979000000167,
0.175159793457031,0.20149601171875,0.0186747729492236,0.267638455994608,0.378110000000561,
-0.52634129296875,-0.0403183559570313,-0.0651222851562459,0.531884986190685,0.381132000000434,
0.108122146972656,-0.179182052246094,0.0162805712890677,0.209908702808142,0.384268000000702,
0.371484329589844,0.211072818359375,0.0210689746093795,0.427780602028746,0.387324000000262,
-0.243825497070313,0.0602381137695312,-0.0555454785156204,0.25722520007889,0.390248000000611,
-0.169605245605469,-0.2007298671875,0.00191536132813042,0.262796665745629,0.393278999999893,
0.321206094726563,0.0913627353515625,-0.000478840332027275,0.333947202396536,0.39625100000012,
-0.00440533105468749,0.136852566894531,0.00909796630859816,0.137225380299258,0.399333000000297,
-0.246219698730469,-0.152845833984375,0.0234631762695354,0.290751628800179,0.402270999999928,
0.127275760253906,-0.0307415493164063,-0.0124498486328086,0.131526273928682,0.405213000000003,
0.112910550292969,0.184736600097656,-0.0363918652343695,0.21954674135213,0.408253000000514,
-0.155240035644531,-0.0618661708984376,-0.0411802685546832,0.172112481496218,0.411199000000124,
-0.00919373437499998,-0.0977791958007813,0.0186747729492236,0.099970210702542,0.414252999999917,
0.151217776855469,0.122487356933594,-0.0268150585937459,0.196440871544274,0.417242999999871,
-0.02834734765625,0.0554497104492186,0.0234631762695354,0.0665489530248356,0.420239000000038,
-0.112144405761719,-0.102567599121094,0.0114921679687541,0.152409153457843,0.423271000000568,
0.0674207187500001,0.0339018955078124,-0.0268150585937459,0.0800870726345723,0.426245999999992,
0.0602381137695312,0.0698149204101562,-0.0483628735351509,0.104123585219509,0.429312000000209,
-0.126509615722656,-0.0475009609375001,0.00191536132813042,0.135146930299202,0.432276000000456,
-0.0139821376953125,0.00756567724609369,-0.0363918652343695,0.0397128128185256,0.435218000000532,
0.0506613071289063,0.06742071875,-0.00287304199218319,0.0843823188059253,0.438253000000259,
-0.0139821376953125,-0.0451067592773439,0.0162805712890677,0.0499517458006559,0.4412140000004,
-0.0594719692382812,-0.0259531459960938,-0.0196324536132764,0.067793171832059,0.444214000000102,
0.0315076938476563,0.0817859287109375,-0.0172382519531205,0.0893242981338642,0.447192000000541,
-0.018770541015625,0.0434787021484374,-0.0363918652343695,0.0597251923878719,0.450150000000576,
-0.0403183559570312,-0.0211647426757813,-0.127371528320309,0.135266486559905,0.453144000000066,
0.00756567724609375,0.00517147558593745,0.00191536132813042,0.00936227755117873,0.45612600000004,
-0.00201112939453124,0.0339018955078124,-0.0100556469726509,0.0354189101540796,0.459147999999914,
-0.02834734765625,0.0291134921874999,0.0162805712890677,0.0437747021462664,0.462113999999929,
0.0051714755859375,0.0195366855468749,-0.0435744702148391,0.0480329126370379,0.465146999999888,
0.00995987890625,-0.00440533105468754,-0.0339976635742136,0.0356994013680057,0.468098000000282,
0.0339018955078125,-0.0163763393554688,-0.0316034619140577,0.049155892980002,0.471027999999933,
0.0123540805664062,-0.0403183559570313,0.0162805712890677,0.0452023244448507,0.474070000000211,
0.019536685546875,0.0362960971679687,-0.0339976635742136,0.0534315438696049,0.477057000000059,
0.0171424838867188,-0.00440533105468754,-0.0675164868164018,0.0697979060397743,0.48006500000065,
-0.00440533105468749,0.0147482822265624,0.0258573779296913,0.0300919052858841,0.483049000000392,
0.0219308872070313,-0.00679953271484379,-0.0220266552734323,0.0318177780707953,0.485975999999937,
-0.018770541015625,0.00517147558593745,0.00909796630859816,0.0214907040533249,0.489024000000427,
-0.0163763393554687,0.0267192905273437,-0.0220266552734323,0.0383050717203962,0.491980000000694,
0.0123540805664062,0.0219308872070312,-0.0268150585937459,0.0367781795051741,0.495025000000169,
-0.00679953271484374,-0.00679953271484379,-0.0052672436523391,0.0109640843654893,0.497951000000285,
-0.0235589443359375,-0.0020111293945313,-0.00287304199218319,0.0238185404664979,0.500861000000441,
-0.0163763393554687,0.0362960971679687,-0.0699106884765577,0.080455549986178,0.503881999999976,
0.0147482822265625,0.110516348632812,-0.00766144531249502,0.111758994662801,0.506867000000057,
-0.0331357509765625,0.00517147558593745,-0.0052672436523391,0.0339479897521166,0.50988899999993,
-0.0498951625976562,-0.0475009609375001,-0.0938527050781204,0.116422501223402,0.512826000000132,
0.0123540805664062,0.0793917270507812,-0.0244208569335882,0.0839764722057184,0.515823000000637,
0.057843912109375,-0.00919373437500004,-0.0531512768554645,0.0790917261870127,0.518958000000566,
-0.114538607421875,-0.0403183559570313,-0.0244208569335882,0.123858954745271,0.521995000000061,
-0.0929907924804687,0.108122146972656,-0.0483628735351509,0.150587694346847,0.525123000000349,
0.146429373535156,0.0339018955078124,0.0138863696289118,0.150942807759733,0.528126000000157,
-0.0115879360351562,-0.02834734765625,-0.0148440502929645,0.0340323112614944,0.531034999999974,
-0.205518270507813,0.06742071875,-0.0196324536132764,0.217183668962854,0.534059000000525,
0.076997525390625,0.0434787021484374,0.0354341845703168,0.0952606838782704,0.537075000000186,
0.129669961914063,-0.0498951625976564,-0.0316034619140577,0.142487210227425,0.540106999999807,
-0.133692220703125,0.0267192905273437,-0.0196324536132764,0.137742381269147,0.543066000000181,
-0.0714429775390625,0.0243250888671874,-0.045968671874995,0.0883681378212447,0.546003999999812,
0.122487356933594,-0.018770541015625,-0.0148440502929645,0.124803171625151,0.549034000000574,
-0.0331357509765625,0.0722091220703125,0.0426167895507863,0.0901572296300306,0.552011000000675,
-0.057077767578125,0.0650265170898438,-0.0387860668945272,0.0948191882568341,0.555049000000508,
0.076997525390625,-0.0139821376953125,-0.0292092602539018,0.0835302339000125,0.558022000000165,
-0.0139821376953125,0.0219308872070312,-0.0244208569335882,0.0356769146870772,0.561061000000336,
-0.0259531459960937,0.0698149204101562,-0.0411802685546832,0.0851087740318637,0.564021000000139,
0.0506613071289063,-0.0211647426757813,0.0306457812500049,0.0628782814727356,0.566972999999962,
-0.00919373437499998,-0.018770541015625,-0.0603338818359322,0.0638516660641643,0.569976000000679,
0.00277727392578125,0.0722091220703125,-0.0268150585937459,0.0770773502918344,0.572957000000315,
0.0243250888671875,-0.0115879360351563,-0.0052672436523391,0.0274542176294381,0.575968000000103,
0.00277727392578125,-0.0403183559570313,0.0641646044921913,0.075831257059184,0.578943000000436,
-0.02834734765625,0.06742071875,0.0114921679687541,0.0740350954651438,0.581880000000638,
-0.018770541015625,0.0219308872070312,-0.0220266552734323,0.0363107500093485,0.584915999999794,
0.0315076938476563,-0.0235589443359375,0.0210689746093795,0.0446280217006324,0.587894000000233,
-0.0451067592773437,0.0362960971679687,-0.0507570751953086,0.076995500417317,0.590919000000213,
-0.0259531459960937,0.0267192905273437,-0.0316034619140577,0.0488494122618937,0.593878000000586,
0.0171424838867188,0.00517147558593745,-0.045968671874995,0.049332825861624,0.596841999999924,
-0.00440533105468749,0.000383072265624951,0.0330399829101609,0.0333345789948787,0.59988500000054,
-0.0498951625976562,-0.00919373437500004,-0.0052672436523391,0.0510078019336034,0.60282400000051,
0.00756567724609375,-0.0355299526367188,-0.0507570751953086,0.0624171265674875,0.605846000000383,
-0.00919373437499998,-0.00440533105468754,-0.0316034619140577,0.0332070850634732,0.608779000000141,
-0.0618661708984375,-0.00919373437500004,-0.0483628735351509,0.0790627307267446,0.611699000000044,
0.0315076938476563,-0.00440533105468754,-0.0052672436523391,0.0322472567669273,0.614736000000448,
0.0219308872070313,0.0291134921874999,-0.00287304199218319,0.0365624617788244,0.617724000000635,
-0.0498951625976562,0.0410845004882812,0.0138863696289118,0.0661082044264469,0.620772000000215,
0.0123540805664062,0.0027772739257812,0.0521935961914117,0.0537076162242584,0.62375400000019,
0.0219308872070313,0.00517147558593745,-0.0627280834960899,0.0666522350151584,0.626710000000458,
0.000383072265625006,0.0626323154296875,0.028251579589849,0.0687103007544439,0.629758000000038,
-0.0259531459960937,-0.0235589443359375,-0.0244208569335882,0.0427196430075105,0.632684000000154,
-0.00679953271484374,0.0147482822265624,-0.0100556469726509,0.0191013483768333,0.635716000000684,
0.000383072265625006,0.0339018955078124,-0.0196324536132764,0.039178035916324,0.638706000000639,
0.0147482822265625,0.0219308872070312,0.0114921679687541,0.0288191874788989,0.641674000000421,
-0.00679953271484374,-0.0139821376953125,-0.0172382519531205,0.0232140291649289,0.644667999999911,
-0.0163763393554687,0.0171424838867187,-0.0794874951171831,0.0829476408615465,0.647627000000284,
0.00756567724609375,0.0315076938476562,-0.045968671874995,0.0562413818975018,0.650677999999971,
0.00995987890625,0.0291134921874999,-0.0627280834960899,0.0698684984400782,0.653655000000072,
0.0051714755859375,0.0219308872070312,-0.045968671874995,0.0511940110498721,0.656775999999809,
0.00277727392578125,0.0243250888671874,0.0186747729492236,0.0307923747632501,0.659861000000092,
-0.0163763393554687,-0.0139821376953125,-0.0124498486328086,0.0248733471048028,0.662873000000218,
0.0339018955078125,0.0291134921874999,0.0330399829101609,0.0555749441482219,0.665995000000294,
0.0123540805664062,0.0291134921874999,0.0521935961914117,0.0610277823403819,0.668972999999824,
0.00277727392578125,-0.0139821376953125,-0.0603338818359322,0.0619950862761053,0.671972000000096,
-0.0259531459960937,-0.0020111293945313,0.00670376464844225,0.0268803067132391,0.674922000000151,
0.0243250888671875,0.0171424838867187,-0.0124498486328086,0.0322579204720767,0.677894000000379,
-0.0115879360351562,0.0219308872070312,-0.0292092602539018,0.038320033400593,0.680927000000338,
-0.0235589443359375,-0.00440533105468754,-0.0292092602539018,0.0377837489472043,0.683859000000666,
-0.00201112939453124,0.0219308872070312,-0.0627280834960899,0.0664817336884463,0.686886999999842,
-0.0211647426757812,-0.0115879360351563,-0.0339976635742136,0.0416901393928147,0.689822000000277,
-0.02834734765625,-0.00679953271484379,0.0210689746093795,0.035968145008816,0.692780000000312,
-0.00919373437499998,0.0219308872070312,-0.0052672436523391,0.0243563630523666,0.695811000000504,
-0.0163763393554687,0.0434787021484374,-0.0627280834960899,0.0780601978622296,0.698820999999953,
0.0051714755859375,0.0147482822265624,0.0258573779296913,0.0302135728070874,0.701885999999831,
-0.0235589443359375,0.0362960971679687,-0.045968671874995,0.0631312071942346,0.704837000000225,
-0.0235589443359375,0.0267192905273437,-0.0507570751953086,0.0620098784621499,0.707776000000194,
0.00756567724609375,0.0410845004882812,0.0306457812500049,0.0518106124359362,0.710832000000664,
0.0243250888671875,-0.0020111293945313,-0.0292092602539018,0.0380648850572058,0.713772000000063,
-0.0235589443359375,-0.00440533105468754,-0.0411802685546832,0.0476470913924557,0.716777000000548,
-0.00201112939453124,-0.00919373437500004,-0.0699106884765577,0.0705412911454412,0.719708999999966,
0.0123540805664062,0.0243250888671874,-0.00766144531249502,0.0283378015963514,0.722686000000067,
0.0123540805664062,0.0339018955078124,-0.081881696777339,0.0894794618490745,0.725722000000133,
0.000383072265625006,0.0386902988281249,-0.0627280834960899,0.0737014140085706,0.728729000000385,
0.0123540805664062,-0.00919373437500004,-0.0052672436523391,0.0162755004252533,0.731748000000152,
-0.02834734765625,0.0243250888671874,-0.0746990917968695,0.0835178806173744,0.734718000000612,
0.0219308872070313,0.0219308872070312,-0.0148440502929645,0.0343842035893681,0.737683000000288,
-0.0115879360351562,-0.00440533105468754,-0.0244208569335882,0.0273873229182235,0.740686000000096,
-0.0115879360351562,0.0171424838867187,0.0474051928710981,0.0517242431216475,0.743669000000409,
-0.0211647426757812,0.0195366855468749,0.0114921679687541,0.0310112614917801,0.746707000000242,
-0.0331357509765625,0.0362960971679687,0.0234631762695354,0.0544601258083625,0.749668000000383,
-0.00919373437499998,-0.018770541015625,0.00670376464844225,0.0219499071123097,0.752687000000151,
-0.037924154296875,0.00756567724609369,0.0114921679687541,0.0403429160565681,0.755670999999893,
-0.0115879360351562,0.0171424838867187,-0.0483628735351509,0.0526033511474153,0.758612999999968,
0.0219308872070313,0.0027772739257812,-0.00766144531249502,0.0233960425803747,0.761663000000226,
-0.00440533105468749,-0.0139821376953125,-0.0124498486328086,0.0192329365207688,0.764608000000408,
0.0147482822265625,0.0315076938476562,-0.0746990917968695,0.0824026754147528,0.767641999999796,
-0.0139821376953125,0.000383072265624951,-0.0268150585937459,0.0302439132103866,0.770613000000594,
0.00277727392578125,0.0339018955078124,0.0210689746093795,0.0400119164821199,0.773583000000144,
-0.02834734765625,0.0291134921874999,-0.0435744702148391,0.0595810540440484,0.776607000000695,
-0.018770541015625,0.0219308872070312,0.0785298144531303,0.0836673698747,0.779586000000563,
-0.00679953271484374,-0.00919373437500004,-0.0268150585937459,0.0291514281688619,0.782592999999906,
0.0051714755859375,0.0123540805664062,-0.0100556469726509,0.0167476416971401,0.785565000000133,
-0.02834734765625,-0.00679953271484379,-0.0627280834960899,0.0691709348164167,0.788489000000482,
-0.02834734765625,0.0362960971679687,-0.0100556469726509,0.0471391008061196,0.791505000000143,
0.00756567724609375,-0.0020111293945313,0.0186747729492236,0.0202492285862613,0.794515999999931,
-0.00679953271484374,-0.0115879360351563,-0.0148440502929645,0.0200214818581234,0.797618999999941,
-0.0139821376953125,0.0650265170898438,-0.000478840332027275,0.0665144900561524,0.800691999999799,
0.0267192905273438,0.0219308872070312,-0.0100556469726509,0.0360000046668151,0.803750000000036,
-0.00201112939453124,0.000383072265624951,-0.0483628735351509,0.0484061868192408,0.806814999999915,
0.0315076938476563,-0.0139821376953125,-0.0220266552734323,0.040907315833026,0.809766000000309,
-0.00201112939453124,0.0362960971679687,-0.045968671874995,0.0586052054430246,0.812794000000395,
0.0171424838867188,-0.00919373437500004,0.00909796630859816,0.0214746943288341,0.815776000000369,
-0.037924154296875,0.00756567724609369,-0.0172382519531205,0.0423395593000742,0.818740000000616,
-0.02834734765625,0.000383072265624951,-0.00766144531249502,0.0293669305134422,0.821758000000045,
0.0171424838867188,0.000383072265624951,-0.0100556469726509,0.0198778151265598,0.824752999999873,
0.000383072265625006,-0.0115879360351563,-0.0411802685546832,0.0427813221412264,0.827776000000085,
0.0123540805664062,0.0267192905273437,0.0138863696289118,0.0325480422513646,0.830780000000232,
0.00995987890625,-0.0235589443359375,-0.0363918652343695,0.0444813545352149,0.833716000000095,
-0.0139821376953125,0.00756567724609369,-0.0699106884765577,0.0716954950466836,0.836765000000014,
0.00756567724609375,0.0123540805664062,-0.0675164868164018,0.0690531590216021,0.839773000000605,
-0.00201112939453124,-0.0307415493164063,-0.0172382519531205,0.0353021929377461,0.842789000000266,
-0.00201112939453124,-0.0139821376953125,-0.0148440502929645,0.0204912333711831,0.845726000000468,
-0.0355299526367187,0.0027772739257812,-0.103429511718746,0.109397233416593,0.848751999999877,
-0.0115879360351562,0.0339018955078124,0.0114921679687541,0.037625638934104,0.851732000000084,
0.00756567724609375,0.0315076938476562,0.0114921679687541,0.0343808692212944,0.854702999999972,
-0.00440533105468749,0.0386902988281249,-0.0387860668945272,0.054960942043034,0.857708000000457,
-0.0139821376953125,0.00995987890624994,-0.0579396801757763,0.0604293463577846,0.860682999999881,
-0.018770541015625,0.0339018955078124,0.0378283862304727,0.0541540260169427,0.863705000000664,
0.0362960971679688,-0.018770541015625,-0.0172382519531205,0.044349714881216,0.866679000000659,
-0.0211647426757812,-0.0570777675781251,-0.0339976635742136,0.0697255979733406,0.869595000000118,
0.0147482822265625,-0.0259531459960938,-0.045968671874995,0.0548105501676443,0.872629000000416,
-0.00201112939453124,0.0530555087890624,0.0474051928710981,0.0711771309161435,0.875610000000052,
-0.0259531459960937,-0.0139821376953125,-0.0387860668945272,0.0487178093388032,0.878617000000304,
-0.00919373437499998,0.00517147558593745,0.00670376464844225,0.0124983747725737,0.881594000000405,
-0.0115879360351562,-0.0020111293945313,0.0569819995117236,0.0581831003930736,0.88452899999993,
0.00756567724609375,-0.00919373437500004,-0.0124498486328086,0.0172268091917791,0.887540000000627,
0.000383072265625006,-0.0163763393554688,0.00191536132813042,0.0164924177749493,0.89052300000003,
0.00756567724609375,0.0243250888671874,0.00191536132813042,0.0255463897567919,0.893586000000141,
0.00995987890625,0.0386902988281249,0.0210689746093795,0.0451668031005898,0.89656500000001,
0.0243250888671875,-0.0211647426757813,0.0306457812500049,0.0444839318108434,0.899499000000105,
-0.0115879360351562,0.0315076938476562,-0.0052672436523391,0.0339817434638897,0.902530000000297,
-0.0211647426757812,0.0362960971679687,-0.00766144531249502,0.0427089071088808,0.905483000000459,
0.0362960971679688,0.00756567724609369,0.028251579589849,0.0466132802014647,0.908535000000484,
-0.00919373437499998,0.0243250888671874,0.00909796630859816,0.0275500942123073,0.911495000000286,
0.0219308872070313,0.00995987890624994,-0.0268150585937459,0.0360445608781785,0.91445400000066,
0.0171424838867188,-0.0115879360351563,-0.0220266552734323,0.030221160763543,0.917478000000301,
-0.00679953271484374,0.0171424838867187,0.0162805712890677,0.0245999065129332,0.920469000000594,
0.0147482822265625,0.00995987890624994,-0.0531512768554645,0.0560514874720354,0.923512000000301,
0.000383072265625006,-0.0235589443359375,-0.0268150585937459,0.035696189852287,0.926472000000103,
-0.00440533105468749,-0.0331357509765625,0.0330399829101609,0.0470002702671578,0.929410000000644,
0.0171424838867188,-0.00919373437500004,-0.0435744702148391,0.047719220027871,0.932424999999967,
-0.00919373437499998,-0.0020111293945313,-0.0292092602539018,0.0306879500419916,0.935441000000537,
0.00277727392578125,-0.0355299526367188,-0.00287304199218319,0.0357539529998454,0.938574000000699,
-0.0307415493164062,0.0386902988281249,0.00191536132813042,0.0494535204692238,0.941663000000517,
-0.0307415493164062,0.0554497104492186,-0.0435744702148391,0.0769314480416112,0.944757000000209,
0.0219308872070313,0.00517147558593745,-0.0316034619140577,0.0388134870679867,0.947740000000522,
-0.00679953271484374,0.0195366855468749,0.00430956298828633,0.0211302640884516,0.950706000000537,
-0.0163763393554687,-0.0163763393554688,0.0306457812500049,0.0384126657470437,0.95372800000041,
-0.00440533105468749,0.0027772739257812,-0.0268150585937459,0.0273160677907023,0.956705000000511,
-0.0259531459960937,-0.0235589443359375,-0.0435744702148391,0.0559224829547317,0.959697000000233,
0.0123540805664062,0.00995987890624994,-0.0627280834960899,0.064704211250589,0.962698000000273,
-0.00201112939453124,0.0315076938476562,0.0306457812500049,0.0439993559209943,0.96566299999995,
-0.0355299526367187,0.0339018955078124,0.00191536132813042,0.0491465630782805,0.968708000000333,
-0.00919373437499998,0.0339018955078124,-0.0100556469726509,0.0365373686356759,0.971688999999969,
0.0171424838867188,0.00517147558593745,-0.0651222851562459,0.0675390326960178,0.974737999999888,
-0.00919373437499998,0.0195366855468749,-0.0339976635742136,0.0402746565773185,0.9777380000005,
-0.0139821376953125,-0.00679953271484379,-0.0292092602539018,0.0330894953761927,0.980680000000575,
-0.00201112939453124,0.0147482822265624,-0.000478840332027275,0.0148924732042553,0.983713000000535,
-0.00440533105468749,0.0458729038085937,-0.0555454785156204,0.072173613107999,0.986683000000085,
-0.0115879360351562,-0.0163763393554688,-0.00287304199218319,0.020266206416821,0.989685000000463,
0.00756567724609375,0.0027772739257812,-0.0387860668945272,0.039614539096115,0.992674000000079,
-0.0163763393554687,0.0291134921874999,-0.00287304199218319,0.0335266205920898,0.995614000000387,
0.0219308872070313,-0.0020111293945313,-0.0507570751953086,0.0553289177330561,0.998641000000134,
-0.0115879360351562,-0.0115879360351563,-0.0220266552734323,0.0274542176294348,1.00158600000032,
-0.037924154296875,0.0243250888671874,-0.0268150585937459,0.0524308954235551,1.00460900000053,
-0.0115879360351562,0.0147482822265624,-0.0411802685546832,0.0452504873832872,1.00759600000038,
0.00995987890625,0.000383072265624951,-0.00766144531249502,0.0125715423263897,1.01055700000052,
0.00756567724609375,0.0123540805664062,0.0402225878906304,0.042751834527337,1.01361100000031,
-0.0235589443359375,-0.0331357509765625,0.00909796630859816,0.0416626312414009,1.01656800000001,
