X,Y,Z,Magnitude,Seconds,
0.138624276123047,0.184832368164063,0.014556746093751,0.231498581223756,0.0,
0.124259066162109,0.177649763183594,0.0337103593750001,0.219399503672771,0.00387799999953131,
0.129047469482422,0.199197578125,0.00976834277343741,0.237546511300885,0.00779399999919406,
0.114682259521484,0.182438166503906,-0.00220266552734216,0.215500712253314,0.0117599999994127,
0.100317049560547,0.225533796386719,0.0241335527343765,0.24801498364559,0.0157409999992524,
0.157777889404297,0.194409174804688,-0.0285388837890626,0.251998526823154,0.0198129999998855,
0.148201082763672,0.203985981445313,0.0552581743164069,0.258122659577408,0.0238169999993261,
0.141018477783203,0.211168586425781,0.0408929643554696,0.257197623439899,0.0277360000000044,
0.131441671142578,0.21835119140625,0.00258573779296967,0.254874168446346,0.0316949999996723,
0.0907402429199217,0.201591779785156,0.0121625444335951,0.221406785915004,0.0355869999993956,
0.131441671142578,0.227927998046875,-0.0357214887695303,0.265526100348575,0.0394859999996697,
0.162566292724609,0.208774384765625,-0.00938527050781168,0.264769006054322,0.0434999999997672,
0.167354696044922,0.208774384765625,-0.0548751020507812,0.273140284190445,0.0473959999999352,
0.150595284423828,0.189620771484375,0.0361045610351578,0.24482343841341,0.0512909999997646,
0.15538368774414,0.175255561523438,-0.0285388837890626,0.235951414807773,0.0551989999994476,
0.191296712646484,0.18004396484375,0.00258573779296967,0.262710767929187,0.0591409999997268,
0.117076461181641,0.196803376464844,0.0241335527343765,0.230262665489571,0.063017999999829,
0.0931344445800779,0.192014973144531,0.0337103593750001,0.216055925649185,0.0668219999997746,
0.15538368774414,0.189620771484375,-0.00459686718749985,0.245196367394049,0.0706259999997201,
0.141018477783203,0.213562788085938,-0.0309330854492185,0.257783109040797,0.0744869999998627,
0.164960494384765,0.182438166503906,0.00258573779296967,0.245972224742769,0.0783369999999195,
0.152989486083984,0.201591779785156,-0.021356278808593,0.253970705345595,0.0821299999997791,
0.121864864501953,0.192014973144531,0.0361045610351578,0.230270133624219,0.0861849999992046,
0.160172091064453,0.182438166503906,-0.0189620771484371,0.243512512456855,0.0901599999997416,
0.150595284423828,0.203985981445313,0.052863972656251,0.259005443807465,0.0940529999998034,
0.138624276123047,0.18004396484375,0.014556746093751,0.227693693509799,0.0980259999996633,
0.191296712646484,0.247081611328125,-0.00699106884765577,0.312558202531124,0.101923999999599,
0.150595284423828,0.211168586425781,-0.0189620771484371,0.260058977836835,0.10583299999962,
0.160172091064453,0.182438166503906,0.00258573779296967,0.242786880603546,0.109798999999839,
0.114682259521484,0.230322199707031,0.0480755693359374,0.261747199973205,0.11380299999928,
0.0907402429199217,0.232716401367187,0.0576523759765628,0.256348418380538,0.117801999999756,
0.13623007446289,0.182438166503906,-0.0237504804687489,0.228924448471473,0.12170900000001,
0.119470662841797,0.182438166503906,0.0624407792968764,0.226838653664596,0.125722999999198,
0.129047469482422,0.249475812988281,0.00497993945312558,0.280920327571604,0.129650999999285,
0.133835872802734,0.206380183105469,0.00976834277343741,0.246171162706065,0.133594999999332,
0.112288057861328,0.208774384765625,-0.0261446821289049,0.238492968609466,0.137614999999641,
0.15538368774414,0.177649763183594,0.088776997558595,0.252160433200124,0.141467999999804,
0.205661922607422,0.242293208007813,0.0384987626953137,0.320132753379545,0.145254999999452,
0.148201082763672,0.220745393066406,0.0169509477539069,0.266419639144945,0.149185999999645,
0.143412679443359,0.203985981445313,0.000191536132813752,0.2493541937434,0.153082999999242,
0.121864864501953,0.208774384765625,0.0432871660156255,0.245584135635853,0.156936999999743,
0.114682259521484,0.21835119140625,-0.0429040937499998,0.250339818442833,0.160924999999224,
0.13623007446289,0.203985981445313,-0.0285388837890626,0.246948135652606,0.165072999999211,
0.129047469482422,0.208774384765625,-0.0189620771484371,0.246169765576248,0.168974999999591,
0.0955286462402342,0.184832368164063,0.0313161577148442,0.2104030140175,0.172931999999491,
0.117076461181641,0.206380183105469,0.0169509477539069,0.237880247963589,0.176828999999998,
0.167354696044922,0.211168586425781,0.0408929643554696,0.272528898862356,0.180648999999903,
0.152989486083984,0.232716401367187,-0.0812113203124998,0.290099956677754,0.184523999999328,
0.13623007446289,0.203985981445313,0.00258573779296967,0.245307154103394,0.188495999999759,
0.162566292724609,0.196803376464844,-0.0117794721679676,0.255534977024168,0.192358999999669,
0.160172091064453,0.208774384765625,-0.00699106884765577,0.263231300444794,0.196219999999812,
0.124259066162109,0.211168586425781,0.0384987626953137,0.248021455010675,0.200157999999647,
0.145806881103515,0.170467158203125,-0.0500866987304676,0.229842067500057,0.204090999999607,
0.124259066162109,0.182438166503906,-0.0189620771484371,0.221548099722317,0.207979999999225,
0.131441671142578,0.203985981445313,0.0217393510742188,0.2436386523606,0.212035999999898,
0.117076461181641,0.223139594726563,-0.0309330854492185,0.253879956422242,0.215892999999596,
0.109893856201172,0.201591779785156,-0.00699106884765577,0.229705856153785,0.219798000000083,
0.133835872802734,0.208774384765625,0.0384987626953137,0.250960035288898,0.223723000000064,
0.121864864501953,0.215956989746094,0.0624407792968764,0.25570943967612,0.227584999999635,
0.13623007446289,0.194409174804688,-0.0381156904296862,0.24042954538354,0.231438999999227,
0.114682259521484,0.194409174804688,-0.0141736738281235,0.226158884253921,0.235500999999203,
0.133835872802734,0.201591779785156,-0.0476924970703116,0.246628994245645,0.239440999999715,
0.157777889404297,0.213562788085938,-0.0285388837890626,0.267053168353868,0.243437000000085,
0.102711251220703,0.213562788085938,0.00497993945312558,0.237030515713311,0.247319000000061,
0.145806881103515,0.194409174804688,-0.0524809003906235,0.248613794330051,0.251212999999552,
0.105105452880859,0.192014973144531,0.00976834277343741,0.219117152814482,0.255067999999483,
0.145806881103515,0.211168586425781,-0.0500866987304676,0.26145840177725,0.258968000000095,
0.0931344445800779,0.211168586425781,-0.0117794721679676,0.231095115969287,0.263150999999198,
0.143412679443359,0.223139594726563,-0.0285388837890626,0.266782576732035,0.267125999999735,
0.124259066162109,0.196803376464844,-0.0452982954101557,0.237115625968657,0.271138999999494,
0.143412679443359,0.232716401367187,0.0384987626953137,0.276054840239195,0.275155999999697,
0.143412679443359,0.220745393066406,-0.0261446821289049,0.264535951410744,0.279064999999719,
0.124259066162109,0.196803376464844,0.0337103593750001,0.235177109516709,0.283012999999301,
0.129047469482422,0.223139594726563,-0.0740287153320303,0.268187954256454,0.286965999999666,
0.217632930908203,0.187226569824219,0.131872627441407,0.315924470296522,0.290890999999647,
0.0835576379394529,0.172861359863281,-0.267959049804686,0.329643718223226,0.294803999999203,
0.229603939208984,0.297359846191406,-0.0333272871093744,0.37716250488792,0.298758999999336,
0.0021547814941405,0.129765729980469,0.014556746093751,0.13059742194044,0.302635999999438,
0.253545955810547,-0.0809240161132813,-0.0788171186523439,0.277572308208949,0.30664699999943,
0.162566292724609,-0.205422502441406,0.0839885942382814,0.275100505273319,0.310782999999901,
0.148201082763672,0.175255561523438,-0.22725762158203,0.322992413756641,0.314534999999523,
0.129047469482422,0.318907661132813,0.182150862304688,0.389274045304023,0.317551000000094,
0.133835872802734,0.450588752441406,0.112719014160158,0.483371328099641,0.320558999999776,
0.322977803955078,0.132159931640625,-0.095576530273437,0.361822860690157,0.323582999999417,
0.157777889404297,-0.03064578125,-0.0931823286132811,0.185784748187495,0.326570999999603,
-0.0409408483886721,0.045968671875,0.0720175859375001,0.0947407227384342,0.329643999999462,
0.124259066162109,0.2375048046875,-0.117124345214844,0.292518307145267,0.332662999999229,
0.212844527587891,0.474530769042969,-0.100364933593749,0.529674771522961,0.335613999999623,
0.200873519287109,0.323696064453125,0.0504697709960951,0.38428701601489,0.338645999999244,
0.160172091064453,0.120188923339844,0.0384987626953137,0.203918196291112,0.341580999999678,
-0.0193930334472658,0.036391865234375,-0.0261446821289049,0.048826242996417,0.344594999999572,
0.0213083947753905,0.247081611328125,0.0121625444335951,0.248296793840568,0.347566999999799,
0.176931502685547,0.359609089355469,0.0408929643554696,0.402859390263418,0.350582000000031,
0.279882174072265,0.326090266113281,0.0480755693359374,0.432412018084862,0.353682999999364,
0.150595284423828,0.199197578125,0.0672291826171882,0.258608541655016,0.356643000000076,
0.026096798095703,0.122583125,-0.0620577070312489,0.139852866998106,0.359699999999975,
0.0644040246582029,0.168072956542969,-0.0309330854492185,0.182628729636598,0.362658999999439,
0.107499654541016,0.342849677734375,0.134266829101563,0.383574840997152,0.365634999999202,
0.282276375732422,0.18004396484375,-0.138672160156249,0.362388947921552,0.368641000000025,
0.141018477783203,0.309330854492188,-0.299083671386718,0.452794468945146,0.371636999999282,
0.0907402429199217,0.194409174804688,0.0815943925781255,0.229535103706599,0.374730999999883,
0.0931344445800779,0.134554133300781,0.143843635742188,0.217875723978362,0.377644999999575,
0.0691924279785154,0.182438166503906,0.167785652343751,0.257338885167569,0.380664999999681,
0.0955286462402342,0.29496564453125,0.0504697709960951,0.314129991389911,0.383652999999867,
0.172143099365234,0.321301862792969,0.0552581743164069,0.368675466395695,0.386582999999519,
0.179325704345703,0.1608903515625,0.0696233842773442,0.250780440033145,0.389596999999412,
0.160172091064453,0.0531512768554687,0.0983538041992187,0.195329536393717,0.392584999999599,
0.0955286462402342,0.165678754882813,-0.0452982954101557,0.196537802061274,0.395620999999664,
0.0117315881347655,0.311725056152344,0.0241335527343765,0.312877882185572,0.398595999999998,
0.196085115966797,0.304542451171875,0.1103248125,0.378638404711733,0.40151699999933,
0.267911165771484,0.244687409667969,0.127084224121095,0.384445992586107,0.404545999999755,
0.126653267822265,0.144130939941406,-0.0548751020507812,0.199564663514199,0.407482999999957,
-0.28514941772461,0.359609089355469,-0.155431571777344,0.48454913175129,0.410503000000062,
0.282276375732422,0.0411802685546875,0.191727668945314,0.343708111417335,0.413426999999501,
0.413957467041016,0.156101948242188,0.246794307128907,0.506592570805433,0.416425999999774,
0.0644040246582029,0.263841022949219,-0.210498209960937,0.343612369072802,0.419517999999698,
-0.160650931396485,0.40988732421875,-0.0237504804687489,0.440885955362905,0.422485999999481,
-0.0553060583496096,0.25665841796875,0.107930610839844,0.28386849131359,0.425486999999521,
0.308612593994141,0.120188923339844,-0.0261446821289049,0.332220792349011,0.428469999999834,
0.423534273681641,0.017238251953125,0.00497993945312558,0.423914187201126,0.431400999999823,
0.179325704345703,0.14173673828125,0.0193451494140628,0.229393212679762,0.434502999999495,
-0.105584293212891,0.378762702636719,-0.0716345136718743,0.399675782892763,0.437468000000081,
-0.0505176550292971,0.373974299316406,0.0432871660156255,0.37984548011069,0.440567999999985,
0.172143099365234,0.268629426269531,0.215669685546876,0.385108333564537,0.443550999999388,
0.430716878662109,0.156101948242188,0.1486320390625,0.481639212321125,0.446601999999984,
0.428322677001953,-0.0138863696289063,-0.121912748535156,0.44555119251438,0.449693999999909,
-0.0433350500488283,0.0196324536132812,-0.205709806640625,0.211139490256407,0.452727999999297,
-0.167833536376953,0.373974299316406,-0.0309330854492185,0.41107387201986,0.455811999999241,
0.160172091064453,0.354820686035156,0.00976834277343741,0.389420387903558,0.45890799999961,
0.342131417236328,0.328484467773438,0.00976834277343741,0.474395797566838,0.461843999999473,
0.507331331787109,0.163284553222656,0.491002876464844,0.724659057923625,0.464889999999286,
0.0428562097167967,0.0531512768554687,-0.176979386718749,0.189692952599724,0.46786499999962,
-0.280361014404297,0.101035310058594,-0.224863419921874,0.373328260242114,0.470929000000069,
0.121864864501953,0.362003291015625,0.0911711992187509,0.392695321430251,0.473908999999367,
0.622253011474609,0.445800349121094,0.1486320390625,0.779761658842999,0.476918999999725,
0.200873519287109,0.27581203125,-0.00459686718749985,0.341238301661726,0.47985399999925,
-0.110372696533203,0.0986411083984375,-0.124306950195312,0.193298779802001,0.482787999999346,
0.152989486083984,0.136948334960938,0.105536409179688,0.230864815343,0.485807000000023,
0.0955286462402342,0.151313544921875,0.088776997558595,0.199757018462018,0.488765999999487,
0.164960494384765,0.251870014648437,-0.0524809003906235,0.305621847865104,0.491861999999855,
0.380438643798828,0.287783039550781,-0.059663505371093,0.48074148294249,0.494834000000083,
0.217632930908203,0.347638081054688,0.0576523759765628,0.41417402679408,0.497867999999471,
-0.0122104284667971,0.175255561523438,-0.0189620771484371,0.176700783184516,0.50087799999983,
-0.0553060583496096,0.0387860668945312,-0.0237504804687489,0.0716044998433332,0.503828999999314,
0.162566292724609,0.175255561523438,-0.00220266552734216,0.239054728274812,0.506902999999511,
0.390015450439453,0.232716401367187,0.0672291826171882,0.459117346701427,0.509892000000036,
0.294247384033203,0.321301862792969,0.00497993945312558,0.435707711478202,0.51288299999942,
-0.0577002600097658,0.194409174804688,-0.105153336914062,0.228432641094911,0.51590699999997,
-0.0792480749511721,0.0411802685546875,0.136661030761719,0.163255349776227,0.518833999999515,
0.184114107666015,0.144130939941406,-0.145854765136718,0.275581829958242,0.521889999999985,
0.356496627197266,0.311725056152344,-0.0285388837890626,0.4744226214296,0.524903999999879,
0.294247384033203,0.3141192578125,0.0337103593750001,0.431727714500993,0.527839999999742,
-0.0193930334472658,0.27581203125,0.052863972656251,0.281501271637516,0.530902999999853,
-0.0600944616699221,0.124977326660156,-0.0405098920898439,0.144470508615592,0.533863999999994,
0.121864864501953,0.108217915039063,-0.0500866987304676,0.170501729390636,0.53693099999964,
0.284670577392578,0.330878669433594,0.172574055664063,0.469361093623568,0.539871999999377,
0.234392342529297,0.259052619628906,-0.0548751020507812,0.353637253125365,0.542797999999493,
0.0811634362792967,0.239899006347656,0.143843635742188,0.291255949602386,0.545877999999902,
-0.00263362182617211,0.211168586425781,0.0672291826171882,0.221627775453261,0.548820999999407,
0.148201082763672,0.208774384765625,-0.145854765136718,0.294658984556177,0.551846999999725,
0.246363350830078,0.144130939941406,0.0815943925781255,0.296860696928392,0.554815999999846,
0.160172091064453,-0.138384855957031,0.218063887207032,0.303903481418112,0.55779099999927,
2.96857063842773,-3.43759474365234,-7.49126545849609,8.76062368936014,0.560845999999401,
-1.61632554077148,3.57981032226563,-1.26873534375,4.12761911634664,0.563814999999522,
0.354102425537109,-1.93403610107422,9.39204609851075,9.59564557935424,0.566906000000017,
1.40994535766602,-2.32668517333984,-6.57428622265625,7.11495953220053,0.56984199999988,
0.545638558349609,0.788171186523438,-16.3234753828125,16.3515988156788,0.572873999999501,
-2.34176864379883,2.56227461669922,-4.43865834179687,5.63478655031968,0.575847000000067,
-1.06087075561523,2.71071511962891,9.05745641650391,9.51372376920689,0.578851999999642,
-0.0457292517089846,2.56706302001953,6.47650702685547,6.96685344916354,0.581941999999799,
0.231998140869141,0.187226569824219,-3.88559775830078,3.89701768858276,0.584933000000092,
0.454658895263672,-1.57490585205078,-4.22557439404297,4.53238591841624,0.588012999999592,
0.770693514404297,-0.765665690917969,1.30024303759766,1.69435663312507,0.591026999999485,
1.04363250366211,-1.20141039306641,3.34010285205078,3.6998436179852,0.594004999999925,
0.370861837158203,-0.535822331542969,-1.651807609375,1.77570055235382,0.597096999999849,
-0.371340677490235,0.52480900390625,-1.19451509228516,1.35653407441059,0.600114999999278,
-0.0672770666503908,0.879150849609375,1.32657925585938,1.59287317202042,0.60315300000002,
-0.289937821044922,1.10899420898438,0.0552581743164069,1.14759991349858,0.606093999999757,
-0.0122104284667971,0.752258161621094,-0.368515519531249,0.837761973608421,0.609058999999434,
0.490571920166015,-0.131202250976563,0.100748005859376,0.517711309709696,0.612178999999742,
0.291853182373047,-0.332315190429688,0.198910273925781,0.484950474713474,0.615147999999863,
0.222421334228516,-0.143173259277344,-0.145854765136718,0.302065298578267,0.61819099999957,
0.203267720947266,0.0818816967773438,-0.406822746093749,0.462089953781178,0.621120999999221,
-0.0864306799316408,0.426646735839844,0.467060859863283,0.638469691099326,0.624108999999407,
-0.134314713134766,0.704374128417969,-0.129095353515625,0.728593827347152,0.62710799999968,
0.224815535888672,0.304542451171875,0.0768059892578137,0.386247705143417,0.630105999999614,
0.198479317626953,0.115400520019531,-0.145854765136718,0.272001713339321,0.633213000000069,
0.296641585693359,-0.0330399829101563,0.139055232421876,0.329278345017215,0.636191999999937,
0.212844527587891,-0.0162805712890625,-0.0812113203124998,0.228392487775999,0.639193999999407,
-0.107978494873047,0.342849677734375,0.014556746093751,0.359745959997401,0.642245000000003,
0.0428562097167967,0.452982954101563,0.0121625444335951,0.455168253401934,0.645221999999194,
0.229603939208984,0.25665841796875,0.0720175859375001,0.351821041296239,0.648228999999446,
0.239180745849609,0.1608903515625,0.0408929643554696,0.291144927733351,0.651218999999401,
0.246363350830078,-0.00191536132812501,-0.00220266552734216,0.24638064245526,0.654225999999653,
-0.00502782348632835,0.108217915039063,-0.0476924970703116,0.118367945074725,0.657255999999506,
-0.0624886633300783,0.251870014648437,0.0073741411132815,0.259610699473158,0.660174999999981,
0.117076461181641,0.309330854492188,0.0169509477539069,0.331179422569457,0.663248999999269,
0.231998140869141,0.223139594726563,-0.0429040937499998,0.3247386293036,0.666198999999324,
0.287064779052734,0.175255561523438,0.0241335527343765,0.33719894362983,0.669191999999384,
0.160172091064453,0.117794721679687,-0.0117794721679676,0.199171913622655,0.672178999999232,
0.026096798095703,0.182438166503906,-0.0237504804687489,0.185819301448077,0.675142000000051,
0.006943184814453,0.249475812988281,-0.00459686718749985,0.2496147436941,0.678202999999485,
0.0931344445800779,0.232716401367187,-0.00699106884765577,0.25075849592021,0.681147999999666,
0.27030536743164,0.227927998046875,0.105536409179688,0.368990647061078,0.684154999999919,
0.346919820556641,0.153707746582031,0.0384987626953137,0.381394268419765,0.687127999999575,
0.0835576379394529,0.146525141601563,0.00976834277343741,0.168958327702182,0.690058999999565,
-0.0936132849121096,0.213562788085938,-0.0476924970703116,0.238006482776996,0.693040999999539,
0.129047469482422,0.235110603027344,0.0456813676757815,0.272060714526055,0.696023999999852,
0.265516964111328,0.225533796386719,-0.0189620771484371,0.348890114381714,0.699106000000029,
0.265516964111328,0.249475812988281,0.0121625444335951,0.364534452396696,0.702064999999493,
0.167354696044922,0.165678754882813,0.0648349809570323,0.244255233031978,0.70500599999923,
0.0189141931152342,0.165678754882813,0.00976834277343741,0.167040764609298,0.708043999999973,
0.0572214196777342,0.25665841796875,0.0384987626953137,0.265763031878452,0.71095299999979,
0.320583602294922,0.093852705078125,0.0073741411132815,0.334120568459993,0.714050999999927,
0.0739808312988279,0.268629426269531,-0.117124345214844,0.302246661353883,0.716991999999664,
0.121864864501953,0.144130939941406,0.107930610839844,0.217425366056342,0.720006999999896,
0.241574947509765,0.127371528320313,-0.00459686718749985,0.273135667167321,0.723076999999648,
0.119470662841797,0.235110603027344,0.0337103593750001,0.26586956062124,0.726139999999759,
0.141018477783203,0.239899006347656,-0.0237504804687489,0.279288076446849,0.729242999999769,
0.0596156213378904,0.18004396484375,0.0313161577148442,0.192225267116946,0.732236999999259,
0.0500388146972655,0.232716401367187,0.0672291826171882,0.247347062721546,0.735200999999506,
0.224815535888672,0.1608903515625,0.00976834277343741,0.276628181722967,0.738350999999966,
0.241574947509765,0.184832368164063,-0.021356278808593,0.304922203570078,0.741320999999516,
0.131441671142578,0.251870014648437,0.0337103593750001,0.286097545464741,0.744372999999541,
0.00454898315429675,0.215956989746094,0.0265277543945324,0.21762774736037,0.747346999999536,
0.0644040246582029,0.259052619628906,0.0121625444335951,0.267215391801955,0.750309000000016,
0.119470662841797,0.175255561523438,-0.0261446821289049,0.213708435791326,0.753364999999576,
0.200873519287109,0.196803376464844,0.0169509477539069,0.281725175247984,0.756311000000096,
0.114682259521484,0.189620771484375,0.0672291826171882,0.231576813655119,0.759330999999293,
0.0883460412597654,0.211168586425781,0.0217393510742188,0.229934326024765,0.762279999999919,
0.0763750329589842,0.225533796386719,0.00976834277343741,0.238315042522773,0.765278999999282,
0.0859518395996092,0.192014973144531,-0.021356278808593,0.2114558093002,0.768240999999762,
0.167354696044922,0.203985981445313,-0.0141736738281235,0.264232412743557,0.771279999999933,
0.152989486083984,0.203985981445313,0.0217393510742188,0.255907527954097,0.774328999999852,
0.112288057861328,0.213562788085938,0.000191536132813752,0.241283462092615,0.777368000000024,
0.124259066162109,0.201591779785156,-0.0668461103515625,0.246064958231683,0.780380999999579,
0.102711251220703,0.184832368164063,-0.00699106884765577,0.21156909153298,0.783378000000084,
0.131441671142578,0.2375048046875,-0.0141736738281235,0.271820415333704,0.786339999999655,
0.138624276123047,0.223139594726563,0.0863827958984373,0.276532016397025,0.789380999999594,
0.172143099365234,0.215956989746094,-0.191344596679686,0.335981283344437,0.792378000000099,
0.0428562097167967,0.0914585034179687,0.0672291826171882,0.121330439520015,0.795467999999346,
0.0859518395996092,0.211168586425781,0.0504697709960951,0.233510360386896,0.798405999999886,
0.217632930908203,0.230322199707031,-0.129095353515625,0.34216665324503,0.801328999999896,
0.208056124267578,0.27581203125,0.0361045610351578,0.347366041453448,0.804423999999926,
0.109893856201172,0.213562788085938,0.0624407792968764,0.248162396436294,0.807350999999471,
0.107499654541016,0.163284553222656,-0.0859997236328116,0.213574281018291,0.81041599999935,
0.160172091064453,0.194409174804688,-0.0309330854492185,0.253785109452087,0.813394999999218,
0.169748897705078,0.239899006347656,0.0672291826171882,0.301473024521361,0.816356999999698,
0.179325704345703,0.232716401367187,-0.0692403120117184,0.301842429939623,0.819380999999339,
0.0979228479003904,0.230322199707031,0.0576523759765628,0.256828729457106,0.822319999999308,
0.148201082763672,0.153707746582031,0.0241335527343765,0.214876849984435,0.825376999999207,
0.143412679443359,0.1608903515625,-0.0788171186523439,0.229488649051944,0.828309999999874,
0.112288057861328,0.182438166503906,0.0169509477539069,0.214894455873882,0.831257999999252,
0.150595284423828,0.199197578125,-0.00699106884765577,0.249814911214667,0.834309999999277,
0.109893856201172,0.273417829589844,0.0241335527343765,0.295662641427637,0.837279999999737,
0.148201082763672,0.225533796386719,-0.0548751020507812,0.275391232739923,0.840344999999616,
0.131441671142578,0.213562788085938,-0.0836055219726557,0.264340425724316,0.843328999999358,
0.13623007446289,0.192014973144531,-0.0452982954101557,0.239750534236997,0.846292999999605,
0.172143099365234,0.192014973144531,0.00497993945312558,0.257929828379195,0.849330999999438,
0.13623007446289,0.192014973144531,0.0265277543945324,0.236922149350955,0.852272999999514,
0.124259066162109,0.235110603027344,0.00258573779296967,0.265939837593571,0.855360999999903,
0.109893856201172,-0.0545877978515625,-0.217680814941406,0.249882821535618,0.858365999999478,
0.0548272180175779,0.876756647949219,-1.89601617871094,2.08963767038506,0.861461999999847,
0.169748897705078,0.373974299316406,-0.296689469726562,0.506651859039237,0.864451999999801,
-0.13192051147461,0.175255561523438,4.35045595263672,4.35598261348974,0.867443000000094,
1.20164981323242,-1.92445929443359,2.50213227099609,3.37759851834605,0.870527999999467,
0.150595284423828,-0.195845695800781,-5.69322001171875,5.69857776801275,0.873524999999972,
-0.117555301513672,1.10660000732422,-1.27591794873047,1.69302966217857,0.87659099999928,
-0.103190091552735,1.67881420410156,4.13737200488281,4.46619664073089,0.87964699999975,
-0.251630594482422,0.998860932617188,-0.00699106884765577,1.03009222588664,0.882579000000078,
-0.22768857788086,0.184832368164063,-1.98699584179687,2.00852123915497,0.885606999999254,
0.466629903564453,-0.712993254394531,0.0504697709960951,0.853610007847304,0.888608999999633,
0.445082088623047,-0.535822331542969,1.13504312304688,1.33173816036382,0.891726999999264,
0.253545955810547,-0.1455674609375,-0.526532829101562,0.602255973414435,0.89469199999985,
0.277487972412109,0.148919343261719,-0.267959049804686,0.413495584018881,0.897633999999925,
-0.0146046301269533,0.611000263671875,0.687327412597657,0.919757353619114,0.900660999999673,
-0.0888248815917971,0.73549875,-0.143460563476562,0.754605330033106,0.903617999999369,
0.210450325927734,0.347638081054688,-0.222469218261718,0.463286227030823,0.906643999999687,
0.200873519287109,0.139342536621094,0.268342122070313,0.363006897647949,0.90961999999945,
0.229603939208984,-0.116837041015625,0.00976834277343741,0.257806678684066,0.912680999999793,
0.294247384033203,-0.109654436035156,-0.1578257734375,0.351446429934516,0.915742999999566,
0.0596156213378904,0.227927998046875,0.0456813676757815,0.239983295155911,0.918742999999267,
0.0787692346191404,0.421858332519531,0.0241335527343765,0.429827259961752,0.92178100000001,
0.126653267822265,0.431435139160156,-0.0692403120117184,0.454941260339928,0.92474299999958,
0.150595284423828,0.326090266113281,0.107930610839844,0.375050420744713,0.927688999999191,
0.203267720947266,0.0100556469726562,-0.0189620771484371,0.204397756310869,0.930728999999701,
0.162566292724609,-0.0617704028320313,-0.095576530273437,0.198439550834414,0.933767999999873,
0.107499654541016,0.148919343261719,-0.0117794721679676,0.184043208210722,0.93683400000009,
0.109893856201172,0.318907661132813,0.00258573779296967,0.337320977705062,0.939765000000079,
0.143412679443359,0.407493122558594,0.0696233842773442,0.437567431598728,0.94271899999967,
0.105105452880859,0.27581203125,0.143843635742188,0.328344977654711,0.945764000000054,
0.198479317626953,0.129765729980469,-0.186556193359374,0.301722384790663,0.948674999999639,
0.236786544189453,0.0603338818359375,-0.0548751020507812,0.250438259121206,0.951778999999988,
0.141018477783203,0.21835119140625,0.0552581743164069,0.265738442257802,0.954743999999664,
0.0428562097167967,0.211168586425781,-0.00699106884765577,0.215586877262939,0.957760999999664,
0.0835576379394529,0.251870014648437,0.00497993945312558,0.265415114366122,0.960710999999719,
0.315795198974609,0.242293208007813,-0.0357214887695303,0.399635622914227,0.96366499999931,
0.0237025964355467,0.225533796386719,-0.102759135253905,0.248971376404041,0.966707999999926,
0.0021547814941405,0.158496149902344,0.11750741748047,0.197316156915958,0.969664999999623,
0.248757552490234,0.136948334960938,-0.0117794721679676,0.284207533915026,0.972633999999744,
0.229603939208984,0.177649763183594,-0.0907881269531234,0.304170825779078,0.975652000000082,
0.0620098229980467,0.27581203125,0.0289219560546883,0.284172437566576,0.978673999999955,
0.148201082763672,0.182438166503906,0.0768059892578137,0.24727799238004,0.981727999999748,
0.162566292724609,0.225533796386719,-0.0883939252929675,0.291730661521082,0.984660000000076,
0.148201082763672,0.182438166503906,0.0241335527343765,0.236283037684076,0.987717999999404,
0.15538368774414,0.139342536621094,0.0265277543945324,0.210390481443876,0.99062799999956,
0.0787692346191404,0.177649763183594,0.0480755693359374,0.200188139130785,0.993630999999368,
0.141018477783203,0.215956989746094,0.0504697709960951,0.262813299284653,0.996675999999752,
0.131441671142578,0.203985981445313,0.0624407792968764,0.250571435838489,0.999667999999474,
0.105105452880859,0.2375048046875,0.0361045610351578,0.262219808180998,1.00274300000001,
0.141018477783203,0.223139594726563,0.00976834277343741,0.264145623343575,1.00576199999978,
0.157777889404297,0.153707746582031,0.0217393510742188,0.221342569627554,1.00875899999937,
0.141018477783203,0.168072956542969,-0.00220266552734216,0.219407341565436,1.01182900000003,
0.145806881103515,0.215956989746094,0.000191536132813752,0.260570728754055,1.01479500000005,
0.0596156213378904,0.282994636230469,0.0169509477539069,0.28970212472896,1.01793300000008,
0.100317049560547,0.254264216308594,-0.126701151855467,0.301275594778367,1.02089499999965,
0.0476446130371092,0.520020600585938,-0.639060307128906,0.825281473397354,1.02386599999954,
0.0835576379394529,0.244687409667969,0.36650439013672,0.44853012752493,1.02692899999965,
0.0907402429199217,0.0579396801757812,0.538886909667969,0.549536076737035,1.02992399999948,
