X,Y,Z,Magnitude,Seconds,
-0.13192051147461,0.599029255371094,0.0193451494140628,0.613688279946768,0.0,
-0.167833536376953,0.632548078613281,0.0313161577148442,0.655183843988975,0.00376400000004651,
-0.148679923095703,0.594240852050781,-0.00220266552734216,0.612562455193924,0.00755099999969389,
-0.175016141357422,0.565510432128906,0.0672291826171882,0.595778869697171,0.0113670000000639,
-0.158256729736328,0.589452448730469,0.0432871660156255,0.611860409376884,0.0151269999996657,
-0.15107412475586,0.589452448730469,-0.0381156904296862,0.609696962713467,0.0188719999996465,
-0.136708914794922,0.584664045410156,-0.00938527050781168,0.600507665798097,0.0226319999992484,
-0.13192051147461,0.596635053710938,-0.0285388837890626,0.611711432419161,0.0265039999994769,
-0.175016141357422,0.58226984375,0.00976834277343741,0.608082429607064,0.0302599999995437,
-0.160650931396485,0.579875642089844,-0.00220266552734216,0.601721973824367,0.034006999999292,
-0.0984016882324221,0.56311623046875,-0.0333272871093744,0.572619847132804,0.0377419999995254,
-0.148679923095703,0.6205770703125,-0.0309330854492185,0.63888846875241,0.041479999999865,
-0.105584293212891,0.608606062011719,0.0193451494140628,0.617999689722034,0.0452029999996739,
-0.15107412475586,0.618182868652344,0.014556746093751,0.63654171043446,0.0490219999992405,
-0.167833536376953,0.606211860351563,0.0672291826171882,0.632598354850115,0.0527689999998984,
-0.141497318115235,0.608606062011719,-0.0165678754882812,0.625057856721609,0.0565309999992678,
-0.136708914794922,0.608606062011719,-0.0476924970703116,0.625591912015028,0.0604909999992742,
-0.129526309814453,0.613394465332031,0.0217393510742188,0.627297723907274,0.0643159999999625,
-0.134314713134766,0.572693037109375,0.0289219560546883,0.588943321941988,0.0681259999992108,
-0.117555301513672,0.577481440429688,0.0432871660156255,0.590912719186498,0.0719269999999597,
-0.124737906494141,0.587058247070313,-0.021356278808593,0.600543937954884,0.0758519999999407,
-0.110372696533203,0.589452448730469,0.0217393510742188,0.60009076050168,0.0797329999995782,
-0.141497318115235,0.589452448730469,-0.0141736738281235,0.606363400427447,0.0835329999999885,
-0.127132108154297,0.615788666992188,-0.00459686718749985,0.628792005760021,0.0873279999996157,
-0.148679923095703,0.60142345703125,0.00497993945312558,0.619548782579807,0.0911719999994602,
-0.11276689819336,0.615788666992188,0.0456813676757815,0.627693271492452,0.0949699999991935,
-0.160650931396485,0.615788666992188,-0.0285388837890626,0.637039144827458,0.0987969999996494,
-0.177410343017578,0.572693037109375,0.0576523759765628,0.602308509834385,0.102593999999954,
-0.148679923095703,0.58226984375,0.000191536132813752,0.600952516558907,0.10636599999998,
-0.117555301513672,0.58226984375,0.0576523759765628,0.59680919589963,0.11012699999992,
-0.110372696533203,0.6205770703125,-0.00220266552734216,0.630319668162974,0.113826999999219,
-0.160650931396485,0.594240852050781,-0.0165678754882812,0.615796562594167,0.117542999999387,
-0.11276689819336,0.615788666992188,-0.0117794721679676,0.626139610381521,0.121313999999984,
-0.15107412475586,0.60142345703125,0.0337103593750001,0.621023312096543,0.125079999999798,
-0.141497318115235,0.56311623046875,-0.0309330854492185,0.581444955113162,0.128932999999961,
-0.158256729736328,0.618182868652344,0.014556746093751,0.638284537223734,0.132927999999993,
-0.124737906494141,0.584664045410156,-0.00699106884765577,0.597863250547768,0.136664999999994,
-0.119949503173828,0.599029255371094,-0.0165678754882812,0.611145176369977,0.140461999999388,
-0.158256729736328,0.572693037109375,-0.0788171186523439,0.599361865197524,0.144245999999839,
-0.127132108154297,0.587058247070313,0.00497993945312558,0.600686905279265,0.148214999999254,
-0.163045133056641,0.608606062011719,-0.0285388837890626,0.630713502327955,0.15204199999971,
-0.146285721435547,0.603817658691406,0.0313161577148442,0.622073933690772,0.155827999999929,
-0.143891519775391,0.611000263671875,-0.0740287153320303,0.63206514091831,0.159578999999212,
-0.175016141357422,0.630153876953125,0.0337103593750001,0.654874756502254,0.163391000000047,
-0.11276689819336,0.608606062011719,0.0576523759765628,0.621644197673642,0.167161999999735,
-0.143891519775391,0.637336481933594,0.00976834277343741,0.653450825378085,0.171014999999898,
-0.134314713134766,0.60142345703125,-0.0309330854492185,0.617014969516383,0.174768999999287,
-0.148679923095703,0.599029255371094,0.0768059892578137,0.621965375489716,0.178542999999991,
-0.146285721435547,0.58226984375,0.014556746093751,0.600541074443211,0.18225799999982,
-0.124737906494141,0.622971271972656,-0.00938527050781168,0.635406038940672,0.18600399999923,
-0.117555301513672,0.589452448730469,-0.00938527050781168,0.601133530532794,0.189719999999397,
-0.129526309814453,0.56311623046875,0.0408929643554696,0.579266077450822,0.193476999999803,
-0.146285721435547,0.637336481933594,-0.0859997236328116,0.659540185253582,0.197293999999602,
-0.177410343017578,0.613394465332031,0.000191536132813752,0.638535227372518,0.201285999999527,
-0.155862528076172,0.634942280273438,-0.00699106884765577,0.653830025297677,0.205151999999543,
-0.103190091552735,0.632548078613281,-0.00938527050781168,0.640978431816953,0.20893199999955,
-0.127132108154297,0.6205770703125,0.0289219560546883,0.634125344599497,0.212727999999515,
-0.141497318115235,0.572693037109375,0.0169509477539069,0.590157725033842,0.216518999999607,
-0.143891519775391,0.551145222167969,0.0265277543945324,0.570236395835155,0.22047399999974,
-0.134314713134766,0.589452448730469,0.0768059892578137,0.609420865629568,0.224330000000009,
-0.117555301513672,0.6205770703125,0.0600465776367187,0.634460984298876,0.228130999999848,
-0.141497318115235,0.596635053710938,0.0241335527343765,0.613658949839437,0.231941000000006,
-0.129526309814453,0.618182868652344,0.0552581743164069,0.634019392336049,0.235758999999234,
-0.146285721435547,0.618182868652344,0.00497993945312558,0.635275035860938,0.2395549999992,
-0.129526309814453,0.608606062011719,0.0863827958984373,0.628204099858313,0.243390999999974,
-0.158256729736328,0.589452448730469,0.00497993945312558,0.610347590818658,0.247207999999773,
-0.124737906494141,0.60142345703125,-0.00220266552734216,0.614226808043565,0.250953999999183,
-0.158256729736328,0.575087238769531,-0.0309330854492185,0.597266590793265,0.254739999999401,
-0.141497318115235,0.606211860351563,0.0313161577148442,0.623293680698535,0.258498999999574,
-0.134314713134766,0.618182868652344,0.0241335527343765,0.633066291653014,0.262256999999408,
-0.136708914794922,0.589452448730469,-0.00699106884765577,0.605138324470021,0.266038999999182,
-0.134314713134766,0.608606062011719,-0.0285388837890626,0.623904038109878,0.269861999999193,
-0.153468326416016,0.584664045410156,0.0073741411132815,0.604515468094457,0.273872999999185,
-0.148679923095703,0.60142345703125,0.0361045610351578,0.620579917115198,0.277688999999555,
-0.139103116455078,0.618182868652344,-0.0117794721679676,0.633749549954327,0.281512999999904,
-0.175016141357422,0.599029255371094,-0.00220266552734216,0.624076558013128,0.285323000000062,
-0.165439334716797,0.591846650390625,-0.00938527050781168,0.614606145716624,0.289220999999998,
-0.141497318115235,0.625365473632813,0.0456813676757815,0.642798766332455,0.293104999999741,
-0.191775552978516,0.572693037109375,0.222852290527344,0.643753307461064,0.296912999999222,
-0.153468326416016,0.0794874951171875,-1.59195256787109,1.60130689358546,0.300698000000011,
0.0524330163574217,1.29813614013672,3.07434646777344,3.33759087718139,0.304335999999239,
-0.292332022705078,1.23828109863281,-0.698915348632811,1.45164760024072,0.307295999999951,
-0.163045133056641,0.165678754882813,-1.37886862011719,1.39832465356828,0.31021999999939,
0.234392342529297,0.259052619628906,0.354533381835939,0.497736826856319,0.313240999999834,
-0.550905802001953,0.88872765625,1.44628933886719,1.78468117639648,0.316194999999425,
-0.15107412475586,0.419464130859375,-0.928758708007813,1.03022632753619,0.319204999999783,
-0.100795889892578,0.362003291015625,0.00976834277343741,0.375901070291,0.322170999999798,
-0.20853496459961,0.706768330078125,-0.0500866987304676,0.738591213900963,0.325103999999556,
0.045250411376953,0.730710346679688,0.172574055664063,0.752174856773926,0.328136999999515,
0.035673604736328,0.570298835449219,0.127084224121095,0.585374895097218,0.331111999999848,
-0.36176387084961,0.634942280273438,0.0337103593750001,0.731547118004109,0.334123999999974,
-0.165439334716797,0.555933625488281,-0.406822746093749,0.708475205042025,0.337070999999924,
-0.0529118566894533,0.546356818847656,0.349744978515625,0.65086633656731,0.340023999999175,
-0.191775552978516,0.613394465332031,-0.0572693037109371,0.645221207004016,0.343049999999494,
-0.0385466467285158,0.603817658691406,-0.0405098920898439,0.606401401943231,0.346000999999887,
-0.13192051147461,0.622971271972656,0.249188508789063,0.683806361452911,0.349026999999296,
-0.184592947998047,0.606211860351563,-0.124306950195312,0.645770542800128,0.351976999999351,
-0.105584293212891,0.575087238769531,-0.0620577070312489,0.587983447191165,0.354907999999341,
-0.184592947998047,0.613394465332031,0.131872627441407,0.654001312245533,0.357930999999553,
-0.225294376220703,0.634942280273438,-0.021356278808593,0.674066277067811,0.360872999999629,
-0.141497318115235,0.572693037109375,0.0672291826171882,0.593732741882018,0.36390399999982,
-0.122343704833985,0.589452448730469,0.0863827958984373,0.608181024740235,0.366857999999411,
-0.158256729736328,0.6205770703125,-0.102759135253905,0.648629734580996,0.369850999999471,
-0.0720654699707033,0.572693037109375,0.0863827958984373,0.583637502344468,0.372878999999557,
-0.179804544677735,0.625365473632813,0.000191536132813752,0.650700919459047,0.375915999999961,
-0.134314713134766,0.596635053710938,0.0289219560546883,0.612250201325534,0.379022999999506,
-0.0768538732910158,0.565510432128906,0.0265277543945324,0.571325028718041,0.382043999999951,
-0.158256729736328,0.577481440429688,-0.0620577070312489,0.601981034210846,0.385034999999334,
-0.103190091552735,0.625365473632813,-0.021356278808593,0.634181568047515,0.387988999999834,
-0.13192051147461,0.646913288574219,0.0504697709960951,0.662153322173975,0.390926000000036,
-0.158256729736328,0.575087238769531,-0.0381156904296862,0.597681629765658,0.393953999999212,
-0.148679923095703,0.560722028808594,-0.0429040937499998,0.581683482990087,0.396999999999935,
-0.139103116455078,0.625365473632813,0.0169509477539069,0.64087361253937,0.400025999999343,
-0.136708914794922,0.606211860351563,-0.0333272871093744,0.62232857485526,0.403031999999257,
-0.175016141357422,0.572693037109375,0.0815943925781255,0.604372078598436,0.405995999999504,
-0.124737906494141,0.58226984375,-0.0476924970703116,0.597387889510653,0.409026999999696,
-0.146285721435547,0.570298835449219,0.00497993945312558,0.58878270508534,0.412013999999544,
-0.119949503173828,0.58226984375,0.0217393510742188,0.594893817111446,0.415047999999842,
-0.158256729736328,0.567904633789063,-0.00220266552734216,0.589547044196943,0.418028000000049,
-0.143891519775391,0.58226984375,0.014556746093751,0.599962364870297,0.420982999999978,
-0.134314713134766,0.596635053710938,0.0241335527343765,0.612042692831726,0.424013999999261,
-0.141497318115235,0.611000263671875,0.00497993945312558,0.6271902526649,0.426979999999276,
-0.13192051147461,0.577481440429688,-0.021356278808593,0.592742714871317,0.430019999999786,
-0.146285721435547,0.587058247070313,-0.00459686718749985,0.60502729602649,0.43293199999971,
-0.148679923095703,0.611000263671875,0.0337103593750001,0.629732824353342,0.435900999999831,
-0.117555301513672,0.58226984375,-0.0357214887695303,0.595091122950537,0.438967000000048,
-0.165439334716797,0.584664045410156,-0.00699106884765577,0.607660344691455,0.441893999999593,
-0.158256729736328,0.60142345703125,-0.0572693037109371,0.624527933980373,0.444915999999466,
-0.119949503173828,0.577481440429688,0.0480755693359374,0.591763430535691,0.447838000000047,
-0.129526309814453,0.615788666992188,0.00258573779296967,0.629268967429746,0.450759999999718,
-0.143891519775391,0.596635053710938,0.000191536132813752,0.613741145325955,0.453795999999784,
-0.13192051147461,0.603817658691406,0.0217393510742188,0.618442710103711,0.456714999999349,
-0.119949503173828,0.58226984375,-0.0237504804687489,0.594970704803854,0.459767999999713,
-0.136708914794922,0.634942280273438,0.0337103593750001,0.650367138616666,0.462753999999222,
-0.0936132849121096,0.666066901855469,0.00497993945312558,0.672631670869232,0.465766999999687,
-0.143891519775391,0.565510432128906,0.0863827958984373,0.589888807943603,0.46873400000004,
-0.158256729736328,0.570298835449219,0.0504697709960951,0.593997602693791,0.471659999999247,
-0.127132108154297,0.6205770703125,-0.0429040937499998,0.634916714523968,0.474674999999479,
-0.134314713134766,0.589452448730469,0.0217393510742188,0.604952255028402,0.47762799999964,
-0.15107412475586,0.6205770703125,0.0744117875976578,0.643021310301512,0.480665000000045,
-0.0624886633300783,0.613394465332031,0.0384987626953137,0.617769987838369,0.483694999999898,
-0.129526309814453,0.611000263671875,0.0624407792968764,0.627691992987366,0.486710999999559,
-0.146285721435547,0.599029255371094,0.0361045610351578,0.617688514069921,0.489795999999842,
-0.122343704833985,0.596635053710938,-0.00699106884765577,0.609089685081591,0.492780999999923,
-0.136708914794922,0.627759675292969,0.00258573779296967,0.642478189005878,0.495871999999508,
-0.127132108154297,0.611000263671875,-0.021356278808593,0.624451748156258,0.498843999999735,
-0.153468326416016,0.567904633789063,0.00258573779296967,0.588281298642032,0.501835999999457,
-0.143891519775391,0.594240852050781,0.0121625444335951,0.611534861799726,0.504949999999553,
-0.191775552978516,0.613394465332031,0.0265277543945324,0.643221854863002,0.507889999999861,
-0.103190091552735,0.584664045410156,-0.0141736738281235,0.59386962712351,0.510917999999947,
-0.0984016882324221,0.6205770703125,0.0313161577148442,0.629110081129414,0.513923999999861,
-0.134314713134766,0.58226984375,0.000191536132813752,0.59756058252801,0.516899999999623,
-0.136708914794922,0.591846650390625,0.0361045610351578,0.608502526116819,0.519945999999436,
-0.127132108154297,0.606211860351563,0.0408929643554696,0.620747635588277,0.522874999999658,
-0.129526309814453,0.591846650390625,0.0193451494140628,0.606163144144054,0.525907999999617,
-0.129526309814453,0.596635053710938,0.0480755693359374,0.612422821764325,0.528907999999319,
-0.122343704833985,0.58226984375,0.00258573779296967,0.594989780662734,0.531855999999607,
-0.11276689819336,0.594240852050781,-0.021356278808593,0.605222813696527,0.534955000000082,
-0.153468326416016,0.594240852050781,-0.0452982954101557,0.6154077128425,0.537960999999996,
-0.115161099853516,0.58226984375,0.0121625444335951,0.593673460201162,0.54103699999996,
-0.119949503173828,0.608606062011719,-0.00938527050781168,0.620384804239728,0.544018999999935,
-0.103190091552735,0.572693037109375,-0.0165678754882812,0.582151186760292,0.546958999999333,
-0.148679923095703,0.555933625488281,-0.0405098920898439,0.576895975750758,0.550037999999404,
-0.167833536376953,0.551145222167969,0.00976834277343741,0.576215734228,0.553020999999717,
-0.160650931396485,0.608606062011719,-0.021356278808593,0.629814378305641,0.556093999999575,
-0.105584293212891,0.60142345703125,-0.0476924970703116,0.61248085024553,0.559085999999297,
-0.143891519775391,0.587058247070313,-0.0261446821289049,0.60500057795027,0.562113999999383,
-0.119949503173828,0.56311623046875,-0.124306950195312,0.589016120488941,0.565073999999186,
-0.0600944616699221,0.685220515136719,0.0552581743164069,0.690066637736103,0.568053999999393,
-0.177410343017578,0.838449421386719,0.332985566894532,0.919429850392846,0.571140000000014,
-0.352187064208985,0.299754047851563,0.0768059892578137,0.468814864723178,0.574077999999645,
0.0308852014160155,0.292571442871094,-0.964671732910155,1.00853532269627,0.577148999999736,
-0.0768538732910158,0.824084211425781,0.811825898925782,1.15934576185353,0.580159999999523,
-0.237265384521485,0.761834968261719,0.26355371875,0.840326093981031,0.583118999999897,
-0.0960074865722658,0.479319172363281,-0.655819718749999,0.817963208203323,0.586154999999962,
-0.117555301513672,0.661278498535156,0.15581464404297,0.689482925703834,0.589133999999831,
-0.165439334716797,0.625365473632813,0.265947920410158,0.699414358913238,0.592186999999285,
-0.0553060583496096,0.553539423828125,-0.267959049804686,0.617467979893997,0.595117999999275,
-0.160650931396485,0.577481440429688,0.11750741748047,0.610820373728835,0.598080999999183,
-0.194169754638672,0.577481440429688,-0.00459686718749985,0.609268281502597,0.601157999999486,
-0.0744596716308595,0.594240852050781,-0.0333272871093744,0.599814255425365,0.604197999999997,
-0.160650931396485,0.651701691894531,0.0384987626953137,0.67231389373255,0.607270999999855,
-0.110372696533203,0.56311623046875,-0.0165678754882812,0.574070131304129,0.610247999999956,
-0.107978494873047,0.615788666992188,0.0720175859375001,0.629318337914389,0.613217000000077,
-0.172621939697266,0.60142345703125,0.0672291826171882,0.629307771863372,0.616244999999253,
-0.069671268310547,0.577481440429688,-0.0429040937499998,0.583249227114152,0.619256999999379,
-0.11276689819336,0.606211860351563,0.00976834277343741,0.616688424959958,0.622321999999258,
-0.139103116455078,0.611000263671875,-0.0261446821289049,0.627179833555128,0.625319999999192,
-0.136708914794922,0.596635053710938,-0.0381156904296862,0.613282578064949,0.628272999999353,
-0.203746561279297,0.656490095214844,0.0073741411132815,0.687420020297265,0.631408999999621,
-0.165439334716797,0.570298835449219,-0.00699106884765577,0.593851673593587,0.63440300000002,
-0.148679923095703,0.615788666992188,0.0696233842773442,0.637298060224563,0.637490000000071,
-0.163045133056641,0.599029255371094,0.0217393510742188,0.621202353174095,0.640464000000065,
-0.110372696533203,0.594240852050781,-0.00459686718749985,0.604421585959658,0.64350099999956,
-0.139103116455078,0.615788666992188,0.000191536132813752,0.631304519300805,0.646582999999737,
-0.122343704833985,0.567904633789063,-0.0165678754882812,0.581169639339315,0.649544999999307,
-0.146285721435547,0.606211860351563,0.0384987626953137,0.624799557182854,0.652614999999969,
-0.153468326416016,0.6205770703125,0.0696233842773442,0.643051975386756,0.655609999999797,
-0.17022773803711,0.599029255371094,0.0552581743164069,0.625193567958325,0.658640999999989,
-0.127132108154297,0.555933625488281,0.0265277543945324,0.570901471906946,0.661583999999493,
-0.129526309814453,0.634942280273438,0.014556746093751,0.648182584670261,0.664498999999523,
-0.115161099853516,0.60142345703125,-0.0117794721679676,0.612463067908137,0.667514999999185,
-0.136708914794922,0.608606062011719,-0.0117794721679676,0.623882538677252,0.670455999999831,
-0.155862528076172,0.606211860351563,-0.0309330854492185,0.626691952289645,0.67344999999932,
-0.146285721435547,0.613394465332031,0.0480755693359374,0.632426709400276,0.67652199999975,
-0.141497318115235,0.6205770703125,0.000191536132813752,0.636504067479179,0.679476999999679,
-0.158256729736328,0.632548078613281,-0.0740287153320303,0.656233582619712,0.682565999999497,
-0.172621939697266,0.584664045410156,-0.0141736738281235,0.609779692257787,0.68552499999987,
-0.148679923095703,0.622971271972656,0.00258573779296967,0.640472959050503,0.688580000000002,
-0.139103116455078,0.632548078613281,-0.00699106884765577,0.647700257687537,0.691524999999274,
-0.134314713134766,0.603817658691406,0.00497993945312558,0.618595996518732,0.69448999999986,
-0.163045133056641,0.570298835449219,0.000191536132813752,0.593147969577814,0.697558999999274,
-0.17022773803711,0.611000263671875,-0.021356278808593,0.634629731141618,0.700514999999541,
-0.15107412475586,0.637336481933594,0.0121625444335951,0.655109998291385,0.703548999999839,
-0.119949503173828,0.606211860351563,0.0768059892578137,0.622719730640055,0.706514999999854,
-0.129526309814453,0.508049592285156,0.0193451494140628,0.524657686459577,0.70947199999955,
-0.11276689819336,0.579875642089844,-0.1578257734375,0.611458182035702,0.712489999999889,
-0.148679923095703,0.627759675292969,0.129478425781251,0.657991331400702,0.715483999999378,
-0.167833536376953,0.630153876953125,-0.00220266552734216,0.652124877847237,0.718532999999297,
-0.182198746337891,0.579875642089844,-0.0309330854492185,0.608612355470719,0.721489999999903,
-0.186987149658203,0.627759675292969,0.0624407792968764,0.657985755909985,0.724421999999322,
-0.110372696533203,0.603817658691406,-0.0165678754882812,0.614045919769668,0.727422999999362,
-0.129526309814453,0.606211860351563,0.0193451494140628,0.620196839213894,0.730383000000074,
-0.148679923095703,0.589452448730469,0.115113215820314,0.618717190081692,0.733425999999781,
-0.0984016882324221,0.611000263671875,0.0672291826171882,0.62251423875239,0.736367999999857,
-0.158256729736328,0.613394465332031,0.0361045610351578,0.634508866710582,0.739310999999361,
-0.148679923095703,0.603817658691406,-0.00459686718749985,0.621870256297289,0.742344999999659,
-0.13192051147461,0.591846650390625,-0.0237504804687489,0.606835697902506,0.74536099999932,
-0.143891519775391,0.551145222167969,0.0121625444335951,0.569748850695594,0.748407000000043,
-0.148679923095703,0.584664045410156,0.0408929643554696,0.604656927572067,0.751353999999992,
-0.122343704833985,0.58226984375,0.0696233842773442,0.599043878769649,0.754388999999719,
-0.165439334716797,0.570298835449219,-0.00699106884765577,0.593851673593587,0.757314999999835,
-0.117555301513672,0.596635053710938,-0.0381156904296862,0.60929914006796,0.760295000000042,
-0.153468326416016,0.622971271972656,0.00976834277343741,0.641670595739513,0.763379999999415,
-0.146285721435547,0.608606062011719,0.0576523759765628,0.628589410878893,0.766397999999754,
-0.127132108154297,0.555933625488281,0.0193451494140628,0.57061283168025,0.769445999999334,
-0.148679923095703,0.589452448730469,0.0073741411132815,0.607959116062296,0.772445999999945,
-0.146285721435547,0.618182868652344,0.0193451494140628,0.635550002908514,0.775410999999622,
-0.158256729736328,0.584664045410156,0.0289219560546883,0.606394028701006,0.778471999999965,
-0.107978494873047,0.622971271972656,0.0265277543945324,0.632816152457801,0.781497999999374,
-0.146285721435547,0.589452448730469,0.000191536132813752,0.607333300829417,0.784615999999914,
-0.177410343017578,0.594240852050781,0.0552581743164069,0.62261552011208,0.787583999999697,
-0.0888248815917971,0.572693037109375,0.0241335527343765,0.58004275938153,0.790524999999434,
-0.153468326416016,0.572693037109375,-0.00459686718749985,0.592917340912232,0.793597999999292,
-0.0936132849121096,0.599029255371094,0.0432871660156255,0.607843133254088,0.796595999999226,
-0.119949503173828,0.591846650390625,0.0289219560546883,0.60457160074906,0.799633999999969,
-0.167833536376953,0.618182868652344,0.0480755693359374,0.642362370780706,0.802584999999453,
-0.136708914794922,0.630153876953125,0.0073741411132815,0.644854723159114,0.805504999999357,
-0.148679923095703,0.646913288574219,-0.0141736738281235,0.663930279092196,0.808562999999594,
-0.141497318115235,0.613394465332031,-0.0237504804687489,0.629951066715716,0.81148899999971,
-0.115161099853516,0.589452448730469,0.0193451494140628,0.600908065380778,0.814547999999377,
-0.175016141357422,0.558327827148438,-0.00459686718749985,0.585133953460125,0.817583999999442,
-0.15107412475586,0.618182868652344,-0.00459686718749985,0.636391845841797,0.820518999999877,
-0.155862528076172,0.608606062011719,-0.0141736738281235,0.628407001397577,0.823588999999629,
-0.182198746337891,0.613394465332031,-0.0165678754882812,0.640096592527458,0.826530999999704,
-0.0960074865722658,0.575087238769531,0.0648349809570323,0.586639876269238,0.829608999999436,
-0.122343704833985,0.596635053710938,0.0241335527343765,0.60952752013075,0.832574000000022,
-0.175016141357422,0.622971271972656,-0.0381156904296862,0.648210352660155,0.835549999999785,
-0.186987149658203,0.6205770703125,0.0432871660156255,0.649579766523411,0.838621999999305,
-0.122343704833985,0.579875642089844,0.0361045610351578,0.593740079267987,0.841588999999658,
-0.160650931396485,0.591846650390625,0.0504697709960951,0.615335987182254,0.844629999999597,
-0.146285721435547,0.632548078613281,0.0624407792968764,0.652238786774042,0.847579999999653,
-0.155862528076172,0.584664045410156,0.0792001909179696,0.610244085506044,0.850622999999359,
-0.136708914794922,0.613394465332031,0.0121625444335951,0.628561870440351,0.853571999999986,
-0.139103116455078,0.599029255371094,0.0839885942382814,0.620676896428476,0.856568999999581,
-0.15107412475586,0.584664045410156,0.0313161577148442,0.604678541789056,0.859633000000031,
-0.124737906494141,0.594240852050781,0.0241335527343765,0.60767109848187,0.862596999999369,
-0.143891519775391,0.60142345703125,0.0289219560546883,0.619073035814613,0.865589999999429,
-0.153468326416016,0.577481440429688,-0.0141736738281235,0.597694097581251,0.868564999999762,
-0.100795889892578,0.611000263671875,0.0672291826171882,0.622897179815187,0.871522999999797,
-0.148679923095703,0.591846650390625,0.0768059892578137,0.615050678477976,0.874575999999252,
-0.136708914794922,0.56311623046875,-0.0405098920898439,0.580887482873293,0.877484999999979,
-0.11276689819336,0.599029255371094,-0.0141736738281235,0.609715765868314,0.880559999999605,
-0.124737906494141,0.608606062011719,-0.00220266552734216,0.621261406953127,0.883551999999327,
-0.103190091552735,0.649307490234375,-0.00938527050781168,0.657522999728245,0.886496999999508,
-0.141497318115235,0.60142345703125,0.00976834277343741,0.617921585819563,0.889580000000024,
-0.165439334716797,0.579875642089844,-0.00220266552734216,0.603018063988195,0.892540999999255,
-0.143891519775391,0.618182868652344,0.0384987626953137,0.635874974572504,0.895579999999427,
-0.129526309814453,0.613394465332031,-0.0141736738281235,0.627081117610716,0.898572999999487,
-0.11276689819336,0.594240852050781,-0.00938527050781168,0.60491871096594,0.901520999999775,
-0.13192051147461,0.637336481933594,0.00976834277343741,0.650919528875691,0.904607999999826,
-0.127132108154297,0.599029255371094,-0.0668461103515625,0.616008948135769,0.907572999999502,
-0.155862528076172,0.60142345703125,0.00497993945312558,0.621311598252175,0.910710999999537,
-0.139103116455078,0.579875642089844,-0.0572693037109371,0.599070288400417,0.913689999999406,
-0.143891519775391,0.611000263671875,-0.0117794721679676,0.627825491386682,0.916676999999254,
-0.124737906494141,0.634942280273438,-0.00938527050781168,0.647147068213925,0.919728999999279,
-0.11276689819336,0.584664045410156,-0.0141736738281235,0.595608354838401,0.922753999999259,
-0.15107412475586,0.611000263671875,-0.0309330854492185,0.630159955212372,0.92582499999935,
-0.127132108154297,0.587058247070313,0.0121625444335951,0.600789385612066,0.928785999999491,
-0.153468326416016,0.596635053710938,-0.00220266552734216,0.616060683914346,0.931722999999693,
-0.139103116455078,0.651701691894531,-0.00459686718749985,0.666397706638948,0.934801999999763,
-0.17022773803711,0.651701691894531,0.0289219560546883,0.674187702021814,0.937798999999359,
-0.141497318115235,0.603817658691406,-0.0357214887695303,0.621203091380981,0.940823999999338,
-0.13192051147461,0.577481440429688,0.00258573779296967,0.592363504470358,0.943759999999202,
-0.148679923095703,0.606211860351563,0.0241335527343765,0.624644673018373,0.946750999999495,
-0.0840364782714846,0.570298835449219,-0.0237504804687489,0.576946251151271,0.949722999999722,
-0.148679923095703,0.611000263671875,0.00258573779296967,0.628835215122992,0.952681999999186,
-0.153468326416016,0.618182868652344,0.0672291826171882,0.640486025845646,0.955830999999307,
-0.119949503173828,0.589452448730469,0.0193451494140628,0.601844088973088,0.958791999999448,
-0.158256729736328,0.570298835449219,-0.0333272871093744,0.592787198147567,0.961833999999726,
-0.136708914794922,0.599029255371094,0.0289219560546883,0.615111254747368,0.964845999999852,
-0.15107412475586,0.587058247070313,0.0217393510742188,0.606575119840194,0.967791000000034,
-0.107978494873047,0.594240852050781,0.0624407792968764,0.60719057677165,0.9708499999997,
-0.129526309814453,0.56311623046875,0.0408929643554696,0.579266077450822,0.973784999999225,
-0.129526309814453,0.596635053710938,0.0959596025390628,0.618028071830284,0.97686099999919,
-0.134314713134766,0.615788666992188,-0.0381156904296862,0.631418189805632,0.979830999999649,
-0.143891519775391,0.579875642089844,0.00497993945312558,0.597482493090247,0.982772999999725,
-0.17022773803711,0.589452448730469,-0.00699106884765577,0.613580106551059,0.985799999999472,
-0.122343704833985,0.6205770703125,0.0456813676757815,0.634169275243512,0.988788999999997,
-0.124737906494141,0.603817658691406,-0.0237504804687489,0.617024631264109,0.99179599999934,
-0.155862528076172,0.6205770703125,0.0241335527343765,0.640305752139963,0.994764999999461,
-0.186987149658203,0.606211860351563,-0.0189620771484371,0.634678323356001,0.997744999999668,
-0.127132108154297,0.551145222167969,0.0337103593750001,0.566621581985303,1.00080799999978,
-0.153468326416016,0.632548078613281,0.0073741411132815,0.65094083980608,1.00375299999996,
-0.17022773803711,0.577481440429688,0.0289219560546883,0.602742711594265,1.00676899999962,
-0.122343704833985,0.646913288574219,-0.0405098920898439,0.65962552740441,1.0097139999998,
-0.115161099853516,0.58226984375,0.014556746093751,0.593727335329071,1.01267800000005,
-0.124737906494141,0.579875642089844,0.00497993945312558,0.59316111251717,1.01571100000001,
-0.15107412475586,0.603817658691406,0.000191536132813752,0.622430070613889,1.01865099999941,
